Mode: SCurve
Rows:
70 | 71 | 72 | 73 | 74 | 75 | 76 | 77 | 78 | 79
Cols:
0 2 4 6 8 10 12 14 16 18 20 22 24 26 28 30 32 34 36 38 40 42 44 46 48 50 | 1 3 5 7 9 11 13 15 17 19 21 23 25 27 29 31 33 35 37 39 41 43 45 47 49 51
VcalLow
Scan: Vcal 20 50 1
Repeat:
200
Rocs:
all
