ROC:           BPix_BmO_SEC1_LYR1_LDR1F_MOD3_ROC0
par0vd: -3.070000
par1vd: 63.100000
par0va: 3.940000
par1va: 61.800000
par0rbia: 10.200000
par1rbia: 1.050000
par0tbia: 4.550000
par1tbia: 0.295000
par2tbia: -0.000208
par0ia: 0.292000
par1ia: 2.874000
par2ia: 0.020130
ROC:           BPix_BmO_SEC1_LYR1_LDR1F_MOD3_ROC1
par0vd: -0.993000
par1vd: 62.000000
par0va: -0.574000
par1va: 64.200000
par0rbia: 13.700000
par1rbia: 1.080000
par0tbia: 4.640000
par1tbia: 0.250000
par2tbia: -0.000122
par0ia: -5.844000
par1ia: 4.168000
par2ia: 0.011430
ROC:           BPix_BmO_SEC1_LYR1_LDR1F_MOD3_ROC2
par0vd: 1.380000
par1vd: 64.000000
par0va: 5.980000
par1va: 63.500000
par0rbia: 12.500000
par1rbia: 1.060000
par0tbia: 4.660000
par1tbia: 0.306000
par2tbia: -0.000239
par0ia: 0.488200
par1ia: 2.964000
par2ia: 0.018580
ROC:           BPix_BmO_SEC1_LYR1_LDR1F_MOD3_ROC3
par0vd: 0.565000
par1vd: 63.800000
par0va: 5.360000
par1va: 62.800000
par0rbia: 11.800000
par1rbia: 1.070000
par0tbia: 4.360000
par1tbia: 0.264000
par2tbia: -0.000161
par0ia: -1.960000
par1ia: 3.550000
par2ia: 0.018490
ROC:           BPix_BmO_SEC1_LYR1_LDR1F_MOD3_ROC12
par0vd: 9.290000
par1vd: 62.100000
par0va: 5.980000
par1va: 65.200000
par0rbia: 13.000000
par1rbia: 1.070000
par0tbia: 4.290000
par1tbia: 0.241000
par2tbia: -0.000128
par0ia: -2.436000
par1ia: 3.972000
par2ia: 0.018600
ROC:           BPix_BmO_SEC1_LYR1_LDR1F_MOD3_ROC13
par0vd: -2.960000
par1vd: 66.600000
par0va: 5.400000
par1va: 64.500000
par0rbia: 11.700000
par1rbia: 1.060000
par0tbia: 4.330000
par1tbia: 0.268000
par2tbia: -0.000171
par0ia: -1.007000
par1ia: 3.428000
par2ia: 0.019660
ROC:           BPix_BmO_SEC1_LYR1_LDR1F_MOD3_ROC14
par0vd: -6.250000
par1vd: 69.700000
par0va: -0.104000
par1va: 69.700000
par0rbia: 7.710000
par1rbia: 1.050000
par0tbia: 4.510000
par1tbia: 0.259000
par2tbia: -0.000161
par0ia: -6.467000
par1ia: 3.545000
par2ia: 0.019670
ROC:           BPix_BmO_SEC1_LYR1_LDR1F_MOD3_ROC15
par0vd: -12.000000
par1vd: 73.500000
par0va: 6.070000
par1va: 67.000000
par0rbia: 10.900000
par1rbia: 1.100000
par0tbia: 4.390000
par1tbia: 0.267000
par2tbia: -0.000176
par0ia: -6.437000
par1ia: 3.895000
par2ia: 0.015430
