ROC:	 BPix_BpI_SEC1_LYR3_LDR1F_MOD1_ROC0
col00:   99784586ba7ae879bb9a88399aba9dabaaa99978aa798cd9ab959cd998ab5d78988368887cb9b8c9
col01:   87a657568acadc9b9dbd9cbbcda9babb999dbca9be6eb97cc98b9aaaafd987497957b74ac8ba966d
col02:   f46e76c9a67cdb6da9ca8889acadbaa8b69aabaa597cabdd9ec769bc99b7cbaa47aac997bb9984bd
col03:   da79a7b8b979597bba97e99a7ec569ea8a4cabacc6eac97ad9b8b6a86d7c9b9ca99769c6c5657c6c
col04:   9b47aa957b889a69caacc9b98988d9989c88ac5b97bd8aeaadbcbb8b8acac9d977a8a99badcaac7b
col05:   85466974b78989ada4ecb9ebe58aa88a4e69aca6da7a6cdac99dbcb9b7bb798785c8948aa9ddbbab
col06:   b6d556958ac8a89888cad9bcc8cba6b9ce874b5a8cc88d6b9bbcd6ba6a97999ed6a8b7a99ab9c9dd
col07:   6447a6aa7bca88799dbb88d9f7bab9a49c9a78a677dbab8ccd9d87c8ca9b748a98c8d9ca99cac4ea
col08:   a91ac9a64b68c59889889abb9c7db7aeeccacaababcac8a9c99b98a697a58ba6b7aa7beb9a9996cc
col09:   499779aa9997a8cacde9cab5aabca9c8cdcda897a8c59b6bdbbe87c79e7be8ac8af8bbbda8eb99ca
col10:   8899aa65eab87a9a785a69aebbd6cc9dc89de989d798f8abbfc9cb5a8bc9a699754889ba9a4acb8a
col11:   a2388955588b997dd8a99d97acc9cceab5cad9aa8baa9a7daeb8dcaa936a37cb789d999a68d89c65
col12:   a9848d987a87d798b8bdc6b9eda8a9d8b9aefb8a7acbbfabccababcd8cbaba59977c9bba98bd7ce6
col13:   775879aa9b899967a9aaa8accaa898abdb9888db788e8a8c989b9ddcd6dcaab9a868c988ab5bcb6b
col14:   a666a7c7845aa92acaea6ca9ee8eacaa9d8adca9da8b89bdaca7fab89999d878975bdc9aa9ae9796
col15:   99a6989b55d6a7a79d6caab8a9b9ba9da6acd8d8cbb8e9abeb9dacb979e789a96ba97c9d9bd8be99
col16:   86a78897a6b989cccabdcab9d9979a99be99a8aad8dda988cbad9b8bb87ac9884b7adc895abcabb8
col17:   8336969a35914bbc8acf7a9899b8b9a698e876cb79bce9ce8aba9da896c887cb68a9b79d9aa8dc76
col18:   476ae48cdb89698c9cdc998cabb9f895bbb986badbb7cbbbcdbcb98b8b767ba6ecdab99deb9dcb97
col19:   6247a6ab7999cb97aa9b98a8a598b9bcdbdca75ba6bb7abcc7aaec7e9a4d7e8bcac5e389ca9989ab
col20:   a54457b6b49296dabba85a8687776bb99a997ba8989ba979aadcc97689899dc177875ab6cdebcab7
col21:   c68a7ee5a9d8a9e8ac8cba967857c589c799986beb9a9cdcccbcacb8c9899c6acd9c9b596bdedbd8
col22:   5647767a8c9b7a6aadaba9b8b2cbcc8cc7999cacbaccbc8eb8bb7b79a9aaa8c65894c8d887a9c899
col23:   5367476c669c799a66a99c8ac78eb78cdc99b9a9a9cbbbb997ca9e7ab9a9a69ca8c8ba6aae87aa88
col24:   777857569caa7ccb9adccf9b96adcc99ba88bc5da68ca9da8ca87ba5c9ca84cb8c8b76accbbddbb9
col25:   a7487988c973bbc6db9ac6bd7b78ba7399ba87cbedbaa99ca757d7acab7a9d79db9aad8d879abbcc
col26:   d6bcddbb9a8a8aaf8dbdccba8acd9bad7ea8bfa9cbbbadbaba9bac5aebaa7dbbabd5cabcccabca97
col27:   69477ab9bacf99e9bd7b8aac9abbc9bf89adbbcd8d7dae5fbbabfaa98bb8a9b888c776ded99ccdda
col28:   7d998baa96eaaabec8fcfd9d98b7bce9f999ba99bdca8e8cfecbb879a89a78b9f9baaa9bdacdbdfa
col29:   aba75a59aa9a9ac9ddda9bc89ba9888faad9ddcad9acbeba9ba77b6c97cba1a6c985cb8dab9bdccc
col30:   aab988b9c7f9f88c9dd898a7fba6edb8accccbd9a9dcdd6abac77cb9aba896a5bbae9a9acabcaacb
col31:   9989c9698d899aa7d6cdcd7ceebbfeadbceaa9ad9faeeea8c7ee8ca6ebb9876aaba9a9acadca7d7c
col32:   855ac7d6f9e9a9cf8aadbc9aac7cebb689addaaeeb8abcccced8db99b9a9bb98baabecc9accc79dc
col33:   cab9c98aaad8cddcec8abc9becabe7aa9deeca6a9bbedcfdce8c88a9bcafb6d7bb9bb9a89adcc9b7
col34:   786c7cda8b7ccc9ffb9ed9ab99c9969bd8bd8ff99feeeab9ccfbbbafaeabfce9cbd8da9cde99b98c
col35:   844a9c9cbb98e9afad5eb9cc9cba9bcb9a89fabab8caac9afbb6bec9eb8a8f998d96c9f9cccedddb
col36:   f475678a9ecc9bacbc9eeadbbeabf99edddcafd79acddcd9deb9c79dcbacb9cadbada8ae77d9cadb
col37:   9c489d9dce7bceaabadafd8c9dca8adacd9996e7eeeedaae99bacdccbbbca8bbbdb7ac9abacae748
col38:   9797bbbb9afaffccdbdebfdacfeaab99dbcf8aac9ecbcdebcc97a9a7ddfeaba8dafeaadcccfebdac
col39:   8a6bbb5c99c998bc8bfbeb89dafdbedcec6bd9acbcfcbcc99bddaccb7cbcbabdfba8ac9aa9cbcbd9
col40:   8858a9cbca9ef8db7faeeabcac58ed8d8bbbcadad9bbcb9afcdd9e799acbcae97a8c87ba88cb9e9b
col41:   a55a9ac9dcae9cec8bc9fcbecca8fcfbfdeddc8aebefacbcb89abbba68aca385b8b6cccdc8badab9
col42:   c78ab898bcf9d8bedbaebbdddbadbcb88cac7ecaebebaee8ded89bbcb7a8a9ebccbcd9899cd9bc7a
col43:   a8b8e8cdb99bacbaeedcabc9d9cc9bd9bdddbccdccbdedcfaac7da6fa999bc4bb96ddd9afaab9cac
col44:   49d7fb9ecbe9ceccddbddebbdbcadcbceaabccaeebbbcbccdec8979aaabbcbdb7a9cda9ecc9abadc
col45:   d888c9ef9feadccaba99b9fcfae9d8988ac6cf87edb9fcb8eac7ca66c9ab9ca4bddba9fbe8cfbbca
col46:   7ab99dc99b8bcc9abceeac9cfa7afc8eb6bd9ceddccaf9b8dcdca89c9cb88bbb8b96b67bcbbb99dd
col47:   77499a58cde8ad77deec5daca8bba7a9bbcaabdcdccdedfaacc788b7e7ce978e88bb99cbaa7c8db9
col48:   977bdcdbabb99c9cacea8baccbb9eccd9acddbccdcecbdfcdfccbb7fd4eb99a7dcbdab7cbdbb9acc
col49:   b56ac7cccba9eac9eedaa8dcdc899aebdafc969aefcad98dcbb9c5cb7cad79b9eaf8cd76ca6a79ba
col50:   888d78bbfcbe9aadafeccf8bcdca9abc97faceccfbddefcbb8a8c7c9c7dc82499beddbb9dd9afcb8
col51:   c51797396786e87869bba6b8b7c688a679bb969b9afab98ab98374a66a78589a78ab9a97946b4b93
ROC:	 BPix_BpI_SEC1_LYR3_LDR1F_MOD1_ROC1
col00:   2331274836965626771775ac877d7aa7661793a49a56a27ac4759a9aa78876577749652736747467
col01:   72657b56385a48a646467a76a75d9baaa799a79ca977856a8cbdca4e98797b5a4656c47a9987559a
col02:   83533716277746266958698ba78867a675487933a6846a898568c86a79aa4a896ab9a34885785a77
col03:   b76547953a67275685879d79c8a7b7999987799b7b31aa59a6c7adcca9789c6b7545c945684a5187
col04:   56394867166543ab996785b96893974d7b7985b9b9677978b9ca6bb96d89e6b869857a9888ba5965
col05:   515797a63655359556686b699a97a797ab996ab77a9b7895a5cbaa7b6baa886689d96c85797b56b4
col06:   5663844986568549b4a6e89a987a89965886baabb7899a6a98a98989a5d9a9a6a739a6ba65898a95
col07:   9648b6674788743bb97797bc9788eb77a9a57cac7a5c98eaaace889b98ca5a679ba746598658ab66
col08:   676487a87174368478aabbc858a89a9aa755bbd8988eba97c9adc7aea94bd9779a954a8477a6ab4a
col09:   9a26669885497784477c7b5978ac9a59b6a8c99667da98cdb888b79ab587868879b83a7b58bb3383
col10:   676856c7786878885af9c7b3da78be74d789aa78b958b8879ccaa8d88a5a7986a97b869777c9a659
col11:   845a86565436688768a7c96c96c997b7b6a747a8c99a94aa7f96aaa879bcaaa45867a46a9669665a
col12:   53788478885a568684a83797aa6a788885a8496879a69b559a8e6bb797969c4a787ba66595898888
col13:   3a985685856b73969aa67a8997768a7c299a98bb9a7c788d8d9cdaaa7899a85999aa85596966866a
col14:   58548697537839883da77c469acacca947ac7ba8869ab9b9bdb89bb9ca79a79979759886b9a7a7a6
col15:   777528998985a8888998a6ca8bda6899a9b899ca6897867a8a6aacb888a98aaa75587758875a687a
col16:   566695875a52968b79ca9b989aab96a7b87e49ba8a97888cb99debaa898678a886a9ab5d592a8967
col17:   83192889446577b6687678a98999981aab7ab5a875b7bd7a777bb79d99796976b75d79794958a7a9
col18:   446689576684a599797689789cabc8777567a89b989aacbb7998d9799aaa67869565979a57aa87a3
col19:   756c7557ab966659c7d876cd3b87a99abd8c7a9e99b7cb9cbcd75bd9c577a79b96869d7996a8cb98
col20:   455625998237466bb9989987c8598984a998b95888c779b8969a7897c8b6aba75a769a898968a489
col21:   977769867c49477895bb897a8578b9b39c5b867758b7aa8b9bc6fba9ba8a7b987477c6927a987464
col22:   366755998686777b5b64a999baaa84a899b9b9b78989a8c6c9ba7bb6e6a895b87798573ab9656696
col23:   1452a59588759559aaa7a9c6987967ad89a5a6669bd76aa887aab7b8ad9998a69787777b59bc9687
col24:   4a4542473a8488884bab85e7868aacbb8d8ab9b95cdab7acaca9b996a886e7bdb8caa469aaa26963
col25:   76794a6b76a67aa89d97999899569eadb8b99b8bbaabcabcddb8b6edc9b5aa99c7969ba5b8a98b27
col26:   89a766499774659659c87a9c9a9ebc9bafab67eab8fbebcb79fbdccbaa9bbba9b479aa8b96c77c87
col27:   a869a69a946787ac89bbaabacc87a88fbc68a74fdbaacbbcbdbadca898caf8aab59998a989ccb794
col28:   99656584a8495848975bcbbdebdbbc76cc9ba8cc99cc77ebabbcca98da9cac8ab7eb78fb9ab88977
col29:   837757b9a8caa799ba8caeaccba7da9bd9ab9bd9a9dbcccdab9aceabfbbabca774988db78cba8de8
col30:   6987a76977686c6798bb989787a8bfbe9899a99c7edcdce9bbadde8acabb8b798869ee5c9bbcc9a9
col31:   6a9cc897a68ac9d799cbac9cbad6ba8de9ab9cc9bedeacbde99fba9cdbddadde9399a878abac9ee8
col32:   b9a48968a78b78bbcabbdfabb9bcb9ecdec9dfcbaccc99dfebcabcfc9b9db99ba5788bedaa7a7a85
col33:   797a9ab97c999aa9a98ec789869bcbb99bbcbaddcddafc9ba97cb9bb8cd7adaac6abbbabbbdca97a
col34:   7979a967cb6dccc8ceb98aebcbfcacaebb9efddf9dab999beaccbeddccdbafb89caaa8abb9ca99b9
col35:   8958a968aaaacf99c9dbabab9cfebef87ccceaba7ccecf9dabcbadedbbcdc7bbb77cb9b89589d9a6
col36:   b9ca8999d88cc99caad9cc9a7ce9cccea8c99a9bdabbddcebcbedb7ccdc799b98bb8ca9aa9aded66
col37:   7c55b7ce976cab7c7da8aedec9bbcabbbccbc89abdbacfabdcc8badddbad8cb9c8b9fca8cdacb8b6
col38:   e98967ba8aaacbecbbcdbbd9d8c9daa9aeccc9c9bbbbcfcfddbdabbaaf9b9ebbdd9cccc9c7989ab5
col39:   66888aab957a998b9fa7bedcecc8a9bdcdcdbddbbaaeeadbaebeae99bbf8cbbb9dbbaeb597b9abd7
col40:   89649dc9abd8cb98caddcbabdadd9b9aeaedcfacbbc9bcbacbdeebaacb7ecdbcd977989c9ac77aac
col41:   9d5ccac9aab9abbacc89cf9cac7fbaacab8bfe98cdcdcbbfee89cdcbdccbca9cdaa36b9ca9faa6aa
col42:   9775778c688d9ec9aaa9ffcc8c9bdebbad9cec9acfdfcfbbcabcee8ecb8debbc9aa8a87bbaaae89a
col43:   fd9aba9e9ac6abebbcbce9cabaeccccaeccaedc8becadccfcedadcea8ceaeeadb99cadabb8ecd99d
col44:   ab6aaa98cda8a9abadbea9dbfbfbadcfdbdafccacddefaeccfbcb9caabcbfbcda9c85aabd9bc7aca
col45:   568aa75e489c9ca9acacfcaedb778b9aefaf98dde9bbbccdf8ddcb9bc9dbfaaa6a8a98dacbaabd7c
col46:   9878ababadd9a999dbabaeabbcfd8fbcfbeeedcde79efebafbebbddb9bdd9dc8dadb99e9fcbf9ce7
col47:   8da9bcabcbdbadbfcccfbcebef8daffdacacfecceddddcebefccdecaccfccdfebcdbaccb888cde9b
col48:   5aca7a7f88adeb8cadc9cbbace9daedccba97df9cdcbddbcffecafbaabcaa56fed9b99fbedab7c98
col49:   acab77ba9cabc7cb7ffc9aacdc8eebacdecbccca9be8eaddcbace999efd9ddd9ddabba7ddaaadcc8
col50:   5a7c56bcb9b8dcd9bb7ddbbcb97baeafcaa88edfc9dfbdecddbefeebb8fddf8e9dbca9cbc888bdda
col51:   898999574978c9da9cb7975ad9ca88e8da978adcfeacccccbedfb76db789c88a897bab8edbab696d
ROC:	 BPix_BpI_SEC1_LYR3_LDR1F_MOD1_ROC2
col00:   655346768639846a437867aa9877c86878968c97aaae85579c6aa79cb868578ab79856798bb8e798
col01:   745898975a897b96a96c8a98bb788bc9bc8b9bcbab7ac9b7bb9b97a8cc57a88979a9359869a38856
col02:   435b563749987b79c5586b6ba68abba98bf879a79889aaa6979ca86aca8bab49d889b98b98479885
col03:   8b6a577c67c9caba5c89e5ac9b9b9aaaca4abdc8dbcebffbccb69cca8bb7979868a969ca9aa638a8
col04:   599cab88babcac797898aa5a79a899ad9caeac97dd7dddbd7dcc8eb8a9deca88a8a9aca6a9b5d787
col05:   a887d93988888db878a7ab8abb8987afaaacc89eada99977a98a6ca88b9989978c7b9a77a958da53
col06:   da5a548a88879aa9ab4aaa7b7aaa4aaadcbdbeace99d9bba999ac8ca9cdaaca9999ca599ab985859
col07:   5389b76c9cd65da8a79b8b87b997a9cc6f6bfaaab9cbeb7c9aac99bcc5aa84b7d89795b89cc68996
col08:   7556678d888688a5bc457bbbb879b897be9bbcaa8ca9db7aba8898c87ccbe9baba4a3198bb8758d8
col09:   6976887a7869baa85949bb999b977cdc7adcca9a98fbbc9a6a859a7b4a56e79d99a89b5978786875
col10:   954599b76769758fa7aa9a98b745cb98caf99cab8b98bda8b979aab8e8e8975d98988edb84bcb967
col11:   993b7699698777db6889988a68a98696889c9986b9a6baacbb89cbbd6baaa86b8b7e995a4b748664
col12:   75797685ac84a9be9d96ac8caa89a9889bc89b9ccd7ac9da9baabc7af8b9bb9dcbb77997acb87588
col13:   79699b8a589976a77dba9b9b9acaabd8a9b9abafaac98cc7ecbcaa9faaac8c8ca8a79dab688d967b
col14:   46362a99868a8a79ca97c779c78da898aaaba5d7cdbadaafc859a99d89c97ba8c6ab977a4769b9aa
col15:   99a9ca9c9b765ba85c769ccc75999eae979bbabaddeb9cbcaae788d69cbc7bc8a879c8a76a796ab9
col16:   756bcd6b688a7d79ab88778b76ccdebcbdbb9cc9eb8dbdec9baecd9c86ba9eab9b6aa8baab978bb7
col17:   94ab899886566c998968a48988aaca6cabe8acfd99ba988b96fbd8889a6ae8cf8a99a9a5a97a8778
col18:   858734b985a96997cdab996afdbc887baacbabb8ca8cdbaadada7db68abb9a8db599bd98a7a87987
col19:   b5497887a3496c8aab75a9b778abc9799c8bcf89bacc7db9b9abaace579899c8aca6aaa99a8967a7
col20:   a6795669b8798738a78b68c9b8bca9acaccdcc8cbc4a9bb8dab8a678baa8aac898aa7abd9a8a7b86
col21:   88d7776979a9a9c97bbb7649adcbadebb8caccbdcadec8b7db9889aabcbd8d7a3c567a7c97a96b78
col22:   346958b5aa87999abb8a977a9adb9eab7b8cabbdcb9ac99acd9ac98879ceb99689abb88ba59976b7
col23:   a8a585bab84578c79a8a59a9ae98b99b97cdd86adb7c8bbcaaccd8bfb7bab6a9cb9a866a867ab584
col24:   cba9874b5779ab8acbaa599c8addba779bc99fcccadbdabddbc9aa7baaad9cc8ccaa997966da85ac
col25:   a66377aab46764b98a8888a5a89699ee7a4beaa9eeab69c9c9d79dddcb999a7bc98cc8fb97998567
col26:   5689c7bb897babafa99968defceabbe9cdcf98cbaaeabddbdd9b8acba788eadcbbacdcc5bbbcba5a
col27:   aaba6a68867bda8a89acb6daabbadcbedad6dabbbe8abaeadaebaeabacacb9b7799d8aa89897ba97
col28:   8a7abcd99db6daadceb7688a7dc8dcfbffddecbefcbc8bbcbbfcccbd9df8abebdedaadcbdaccbbab
col29:   789b8b879b5bc8ca99ba7cc9c9c9deddad9d7dbecadc8dbcbef9badc9ebba8ed99a778e7b79bbc84
col30:   99a6ba859a9abed9aac6afbabccc7c9cdbcafa6add8ab98aaca9aabb9dc7dbb9bccbcabea9b8baca
col31:   abba6c76b989a898b4988899b8fac7a9cdcecb94bbdcce98cc9fdcfffac8a9c9bbaaa9ac8896c9ca
col32:   cc9ba98aba6d89c887caa8dc9ab9accecccabdbdaaddddb9eccb89b9fdbb9d87a9b9b97cb9adb8a5
col33:   896d89c8bd8cddeba87b8dbb8cdacdeddbefcbba7fabdbbcabcbc8d7bc9ad7ebdcbca7aabd979bba
col34:   6c8ab79dabaaab6cd69dbeccbeecaaacffaddbafacac9cfab8bcab9bcfbafbaa9badf9f6d997caab
col35:   97ca68624889acedaaaabc9dc6babdbacecbc9b9fc8ccbddabdfeabeecefc79d98bccab9ffba99e9
col36:   56b8cad7d8a78bd9896bcc9caf8cd7daddd9efecbfacc9c9eaecfeebeababd95a97adab99dabcbc9
col37:   a56c57d58e9aacabee9ce9abcedb7dfbbeaecedf7fade9abcdabebdf9fcab49aba6abacadb8d9aaa
col38:   cba7c994baacccaace878ecbcb7aaefacedbefcabcecafdddccad4cdab99d97a8dabdb9afb7fabdb
col39:   9ab6d9ba9b8aa8a67dc8bbbd8ccdcffcdcdbbebecbeecaccadefbdeecccaefcaccb99dbdcecccc99
col40:   c65bcea7ba9c8dcdacd9deadbddfadcbefbadcebfecc9dabbdcbbbaef4fdecdbcc8ccfedaab8cd9b
col41:   dbbc8a8aa89896a88cb9d8baedead9ccdcfccccbebdccb9df8bdcbcbd9fc9ccaefc8ccebabd99dca
col42:   cca9a7addabaebba78bdbededcdebbceffaf9daedcdecdaded8e99cdabc9bbf9baddcd9bb8899ac4
col43:   9ba8987c98bedbaecbad8abbadfeccbdeedbd9aacfbdbbcbedacfbb9ddbfa9d99dcdaebccb9c9aac
col44:   8896c9d7fa99accbb8bddbbcaccccfecedd99caabaeeedd9babbcddddcdb9dbdcfbc8abbbcadddcc
col45:   9997c9b9caa8ccbbbfa9cba8dddddcaebcfbddee9dedacd999ab9bb9d99a7ada9fcbabcc8cc98beb
col46:   4a99c7aea89eab9dfd99b8debdadeecebccee9b9dbbcebaeedfabcb8dcbcd7eb99bbf9ebedbaba8e
col47:   a999cbb79967b68aadac8aabae8ccf9bbaecafbbacdddef9dbaddc7ffd6ebc9daebbcd9ddabbacbb
col48:   aac9a99ac98acbabadadaba7f9f9c89bcfd9edcaeaebbb7ebe8ccdaaabed9ab9ccfaa7bbbc4daca8
col49:   75ba8aaa6b896aa8d9ca9eb79ccbbb9dbcbd9bfbf7bfadbbbcdccccfeaedda88bcab79accbf99fab
col50:   47a98caac9cbad7a6c9ce8adadc89bbdacac9dcacbf5cdccaeefdadadcbbbeb9da99c8bbbd994998
col51:   7a76a48b886d8c989a9b79d878736a9accdaebd88ac8a9cccbcb8abb8798a5c58a797ab97bc8a6cb
ROC:	 BPix_BpI_SEC1_LYR3_LDR1F_MOD1_ROC3
col00:   22598444947865867a5374782b66569797b75887c6c57a58968427588a6485448376887857b46662
col01:   936679b8c8a77a9a69a69796a878a9919979c959b6bc87c8c98b985888274997eb8d869ba5b9797a
col02:   2946cab658a8b9936998a6647457c88c97b98a87ed8bc689a65786aa9796b664c47899cb68b687a6
col03:   77a7878757d787b683a778ac6a6e67abacb6c7cec9679b77b99a7873a48984e9a3688778779c797a
col04:   869862a87879c7aac664a6a9975b679ac67aabdb7b9bcc49aada476957874ada76698cab7c7b866a
col05:   5546728989898b7c616a8699687a7b6e999aa89c99b84c8a85577867a85a9bd8cba88887da863785
col06:   98ba9ab99b96ab98bab67866c8a989998aa98da9dc5bac5a76b289aa6838847ba737bab7b6a6aa8b
col07:   a96aec97cc7796aa96a9a9797a9a7aaa9dca79e988cb8bac7aa769686b88b9d7c6878dc859d96a67
col08:   97896b99db8ab9599b9875544788998e7b9a9baa8cb85b98a795c8c876acb89a58ca98baa89cc5b5
col09:   87b868abaac8688e6765aa6b9ab58c88d89bbc9abaea5d79b9a89788d787877698ce866acc598ac5
col10:   9a88abccc7cba99d76a8a998778747b9ae78cd9babacb6a8c6a7e58a8b999678cba7cad5bb88978b
col11:   64a74787d59b98a671b98a8897789a69a7c9ac969bcaa687d69b7a8984949877b7bab59359a685a8
col12:   846a94aa8898a879cba8978cc6bc88aecc9a9ac98dc89e77ac8a98b79b687b69887bdaaafa97ab77
col13:   55779fec99a69cc799768ba998a88acbab8a856baa89bbca8aa686a89998ab9a8d86959999ab9aa6
col14:   aa6a98cb8da8a889998d9b57875d8c4779d8cce9be8d8e65996799b7a7a99b4c6aa7c9b6a856c9bb
col15:   8a5786bac5ab85c399b5db675b6aaa7c98db7ca48adbb6ebad88bb39b6b8aae8a8b59778788aa844
col16:   75b9aae5a38aa89cc89aa5ba76a878bbbb7dd886aac9aa9eb689a78b28848f667ccaa7d5b9a9ad96
col17:   79573a9985b96879c7b698767bbb9a6b68accea893ac3abac6b68a7869a99dbba486b97d8878a869
col18:   7a6a89997b859786bb5869ac5da6a7d597abbe8a9b88a88769b5c4a885a7768cc79e98caaa6bca98
col19:   54ad8c9b69a9a8d7a736ad8c86e679adfcc9a8b67dada99d9c89ecb778d9ab899d99b8c86db89568
col20:   b886c8a5a8469ea899aab998789cb8b5a8a9cadabbfcadb69589a659cc756588b8aaa76a8a896b97
col21:   68a7a7a6baa6a76c9939aa5bbd4cfa99acc8c4baeb6b777b4db5a8ad7666a9b89a949c8b9979ba6a
col22:   58697d8999969cb9a979578a9699a8aa96abaeba5566869dba88a9a97abd7caaa9bdc785a768977b
col23:   85a595c9b8bc66778c758c988abb99a79bbd799567b449e969bb6a8baa9cac7a7ac4aaa698c84899
col24:   a6a9ab5b88bdec98a8b9d84d86867aaab997adccaa94b68b5a7a988998dbb9ac989cc8ba9aba5778
col25:   48c5b8779988b9c8999bebd9a9c95d5dddaccd9ac8bca9da8678cbba88968baa9cd69b7dc8f78b88
col26:   7776ac979cb5bea8f9d999dba9acd6bfbdbddcbafc7bbbab8cafdba9ebd8ba8ddadbae8ae88ab7cc
col27:   896aa86bdad888caacbb8ddab8a5d8dccdfcbbccda9acdd8beccddbc98a7bba888cbebb7bc98ba97
col28:   c7ae8b7c4bbd9b8bc9cb96bcc9bcaba8decafec8b6dadca9eaeca8dbdbbdbbdcf95acaa9bbac9ecb
col29:   9d8ec8a79b69bbbaab97faba8c9aaef7fddcbbabeceeba9898bb8b8aa8b9d8dca9abbcbc8a8797c8
col30:   7ad59a699bc6adc988b9bd8aabb9ccbbccabadd7cadaca997ab99aae9aabaa9acabdc8ca7ab88a47
col31:   b866dca8accc8cc98acab89bc69f9bdbeed9ba9dff998e9dbdbc79cfeaedeca98babdbdac6b4879b
col32:   9baaca83eaaaabacb9b7cdfacbcc8dbb9f8efcbecc7aabc9aca9ba7cb8c9d9bddcda7acbbfba9b97
col33:   48d9a89d9c997a8caba7aa76dbecfdeebebdda9cbcdd899d8ebc9cdcfe9cddcacad8bc989cebbac6
col34:   ac9cc9cbfbbc888a8cbad89cfbfa9bdcfccbb96bbbc8cdc8b9bcbcc8b6a6cfafcb9abacbc8ad8dc7
col35:   7ada99c9c7b9eaa98e9fa96cc9b9bbbcb9bfeaccecdb9b969b7c9bdd7e9eb8cd7dcce9bc9d87db99
col36:   e7bc8cb7bca974a8d7a9baa8fcbaeebbafbbae9b9efc4d7bcbadca9aafa9b86acfdbc99fecdbdc88
col37:   c9a9aaecc8ec9a87dcb8abd966bafaddbb9cabc7cecdef9b98cdcac8afd9dc8cbc9eaacc8d9bccda
col38:   9accacaeba9b8c9aaccb9acd9adcdcdedfcdeebdfbe7cbe9cecffbbebcdeccaf8dd9996acbbbabd9
col39:   badc99cb6d69d8bebda75aa9abcfd9bbdc8cacdffbd5be9c7dad9ca9b8e9ea87a7ad7bc8aadcbcdb
col40:   9aa66ababddbbb95edc89c8b8dbdedddbd9cffecdddbdae7bddcabccbdcaaefbddbcbfdbcbd7d98a
col41:   2bdbbf6adcaaf6bdb79cb998bbbebafbccdafc6e88eecdbadbcbbeeb9adafcba9c9da69c8c8cadaa
col42:   bd8b96aea9aa7ae8da9bc9cffdbc9fbbbabadcdddd8adcbadef88d9fe99abcdcba7b8e7dcdcac8d2
col43:   d98cbabaeacb8b65badc7c87dcccddfdbfeeefdaa7b89bbfc8d9a9dde99ceebccadf9dd7cbbcdc7b
col44:   9b6bb96ccfb988b99dbac8ac9faccdfbcffed9eabbcacffacebdeb8caaaaadebaeabcab4dbb8bcbb
col45:   a68bbadabcbbb8a6e99ac8aa97bd96acaecbcb9c9e9abbfab8edc8cbbdeaabebab6dabd9dba88c9b
col46:   9b7dbab58c7998d86aaa9abbacccfcedbdaceffafcabcecbfa9cdcacbedfecccbfb9aaccbbdb9ed8
col47:   dcdca8ab9dd9fecbeca95dcdbdebffae9bb89abfdbe9bced98fceb99ebdcaeac99b9bb7dbcdbf8ba
col48:   d999a688dcc8d8c7cccaccbfd7aacadeeefb7dccceaacda8beecebafdfadf9dcbe8cd9ca9dccadaa
col49:   96abc78bababd98ccb8b7febdcbdaadbdc9bdbfbdaccbcccbcccdddef9cceecbdeed9c9e8ecaadd7
col50:   c39a8a875bbabecb969bc7edebeadaedcbcb9bbfaaacbcdcbacfdbe9dbabf8cbec9acccee99cbde9
col51:   67b479789cab9b3896d7b7ab93cc997cccaaebcc8aebb8cccbabe99bcaab9999cb7b99987bbab879
ROC:	 BPix_BpI_SEC1_LYR3_LDR1F_MOD1_ROC4
col00:   121112132141191832334417526321657143865559a7545654688331114415345347534162622531
col01:   3225961186245939869d948ec835677586568a566876da8bc8984bc5596ad8459253186759a85683
col02:   35122149718163682838668a93676a27966a1976866b7465498a6993768655871526666388796374
col03:   39116442724434475aa86c84836541595a57c3acb655686b7c886552564997878554365a69975466
col04:   a25121137168877857959ba45929d7587746a58a85897aa7c9898245337857868136b59d35776553
col05:   2475585554538a66898a77557616b9b966395846a89acd6683ab577456572a447798957124837645
col06:   354467629173578891832467564a898776c46b529b6a67aab57d8449663615148957b62487693266
col07:   51167a4b62775869759347b28c7984784319d9df867a9495739947a7aab96577376665a474182273
col08:   391829465284628497429ac7816527da3b8a59c4474799ebc68a7b89888669ba98659855476a8436
col09:   453675278a42986b8a6aa5b72937669a86797ac8aa696b67a3654566575886336872a43578437925
col10:   64574277586a748699d6956778259a5795b299879a9847b977bd4c27a9c697648576468898786924
col11:   4311522931122342679337bb652735d499a88c7592497de99aac5999557a9433a6da997155163993
col12:   2151359725248784b76a95756a1149a19b9c8878473786999c694b6cab52587a5fa6893442786485
col13:   48386864648546b69c6d5a7757267a5977ba7b77b878c9b9b7324876ab457b88bb5689553765a855
col14:   1243457a445946888986834863946a83678a7a6869c91668987967a7747357ab77a58a9934a69778
col15:   4391454234c58b28698b443a4982963359ad3cc6b88ad3f994ab4d59659cca848629867589754513
col16:   67254723136742cc4c5455a77573c69b8aa5699a9aaa79acbc5a8979c33834663819888b8555a972
col17:   7c4312758a563874618bc89262976b75589c44c9566895c5c7598666a479497769477a57b9557245
col18:   1953b152731159995581c68678469a91b79da688c498859e7688499662796898676a364579282956
col19:   35847786a6386ba49252ac372968b97993a8ea79ec9bca2c7a81a6a6738a99778748a875a1696788
col20:   67141574726398a166a684477858589566c9aa69889cbbba9a14747a66a68a8c7589955358898843
col21:   613571474b6a8a8772243626a3545ad2f49bc7696d46c8799d99829997893da6b4bae96453325662
col22:   9861137b87b95a7d8856783757718ba9ab99aa989b9ab89ba8a391c8889b67b486c7b98674556645
col23:   37755287a7bc58958b2a7794961c91314736b6b987b7454462b618437cb687987788387867824591
col24:   25874a763549166877855b66356447789d57ee95cbcab954678749ab3766d8395d6c8567b7597661
col25:   485446493579a87aa34b8dba7bc955a7bb9ccb59cda9b9a487b594a6baa8896b9bb67688a32a7395
col26:   945a764a647969b7b4aa89a894b5c75eb9bebfc8cceb9aab675c49c5b67acb75b979b97877779846
col27:   861383b5d5bb636a5974856cc837bca799889c97bdbcdea697c93684d8a875bac97c5a762a732a23
col28:   7b7657759899bb98e759b97aba8bbd675b8ea95caf69aa8d2cc8aca94999adbbabdda7b688176a75
col29:   546967a5a96999999d78a6ccca98b98bdbbbaca99aab7abacb98cb6cc58d797b6bbf8b85a97aa871
col30:   1887c315a991bd5a97a7699c9b9c8fe97dcafcbf97b4aaa7a89ada6bb75c6688c6bc5388834b8b73
col31:   44996d5ae6cb99cacecbc568a2bd998ded76aee97f9dc8db7796eb65bfa88b8dbba786ad678497b6
col32:   869576a7adc979779a763a294f19b8ba986a7afe7ab9dcd657e797dacbdbdcd5ff9c6ad7be569a79
col33:   88b99a68aa9887b7679f98bb9c7aac66cefeacafeae779a4cc9a5d69bdcb89cd868ab5a7ab566968
col34:   4a6c98c5bd3839bbaa9bc7cb485ce997ca9b8fbd9fcebe649c6788abca5a9eedac9b9e5da7a9acaa
col35:   595aa8a9eb793bda678b79aaebadabcdbdc9fdd9ce99bfa88c9abbcacba5a7b7fcfa699685566788
col36:   5394ca876c5a8ad894bc9a99cf7af779caa8699f8ebcb899b89d9ac9b8cc59a9dcac668b7695a169
col37:   cb498ea8caf9fc9996aabb8cf879a7997bac5bd9ae8f99c6ddfadbc5cc7accfcc65baaba8aa93979
col38:   bbc479c99aa9ba6accb9e89baafbdcaaaefeacfaaddd9a9f4f9b59ccebdacabc8aafc6eb7d5a7b77
col39:   da9555a9879cbcdcc94969bb5ac8dcbaeb9cdbddfcdb6bc9c7a89b6b878a7a8f8997b9399745b668
col40:   c87acbb9a9acbea89bcc8bbca5aca89a9f79cb7fbee7c95bc88d9cbcfe89edcb9dbfb5958575e979
col41:   ddf8da97dcbf8c9e9ba6d5ccadabfda88cdfd9e8db8cc87ec98bb9bcabbce89a7aab7bc5688ba669
col42:   9aaa767c6ab3d56b5b8b7aba9db8bcabdc8adcdd7d9cdcbf6a78595eb95bbc9dab7bd86a9953c657
col43:   6465fdb8b9b99696f9da88d8ac6d997dddcafdefcb7eadb94daca9b9afecc8bcbc6adcbc9a9c6ac7
col44:   278886bae9c8ab4ebea9aaa9ee3fadbeecdecbb5dcbcadf9bde9adfcbb9aa9bd9cca784895949964
col45:   79dc769daaca98a9ac86a8c9e87ff8696bbcdc87ef8ffbb8bac78984a6afaabdbdabc56c99cd6765
col46:   6a859bbabcba7a7eb996cbda486aa6ddddcefafae9ab997ecfccdb78c9cbe98bbc9ce698a5dbd797
col47:   7c8decb7b8b878d7caee4bd99bdb8c8cbcffbcee5dba5f8c8adcddcceac5dbc67c5c88d9bc5ac965
col48:   c688bbadeb689ec73b4fbfa9eeac7fbddc89fdf98ca8bf6b5ccfcbbc4afa8c79abdd9e3a8a9aaaa9
col49:   a8d99cdbcb699759ffa9cc9b6cccbaafabdccfbdca9f8baabf88d8da4ee9daae9dbcbec69e69c6cb
col50:   b9ba7b4898c8ca99a66aa6c5abbcdfdbeddfdfcebdd7c8fabcadbc9caccfebbbeada6cbbe6a87855
col51:   987a4586687ae8c3bac5da87a8b65a77dca7bc8a87cb879958a7e99a68cb8df99a8a9c677b746495
ROC:	 BPix_BpI_SEC1_LYR3_LDR1F_MOD1_ROC5
col00:   b725659785b68899a8c586babb8abaaba9b979899a888b7ba78c9bc88c9bba75ab983843b77ab451
col01:   927a7779ba8c9c987a86a8769987c7998c5ebabd8ec94a9a88bcc9f5acacb9ab89b888963a795652
col02:   a7a589e787bd9dc9c9a9c978dc79e9dc89bb7a9aac9d886a989d9ae87bfeb6858dd8779c5aaa8796
col03:   a898bacc8ccb7a9caa94f98deb99eb898fb779a99acbdfbfcb88a9bbd89dbb9c5a79bb96c8b9a6a9
col04:   8aea8d785788dbaac97babace9bdbdaec9f8ca7889addb678988ab58b78ccab8b98aba78b2979db8
col05:   35c6aa4995889bc9987ba88a899ab97ba9a6a9da8e7a98876c9ba9a8bad9c56a9d77aa927677aa78
col06:   a56687a9695a6e9abd988aabb979cbcca8cdabceaddbe7b6b9a99d9bcaacb989c96c58aaca86996b
col07:   78af9486ab84aae6b9889687abb9d89bbb7ccbcc89a978bbbaea9ab7bfc88aa6cc979aa6cc878a72
col08:   9aa327b9ac989dea997bec7d9c8daaaaf98cf599938dadd899fc8bebbaa5eb7ac798d79571c9a87d
col09:   177a82aa8aa7ebaa779cbbb99a9ba969abc5aa9eeb98bb9ed8ff8adabcaddaa98aa7d79bbca78346
col10:   48788b3ac87a97659d96daba5ca9ab8878aba7baad98db7fabc8878bcb5b7bb96c989cb7579ba7c7
col11:   a578897a769a849cd7cb9ca798a9b7cc5aad9a89ab8a7bcbdc8caabbcb6999985979c4b947a66d59
col12:   7a849a98498b679c79caa9c9a5859b88bbbcaba96bb74af49acaabba9d7daad84a8a899d5bdb9995
col13:   8877749baa777abab7a9bddba6c9899cb9898b9b7c8aab9adeeace7cdda98a79a9857c9ab9889a77
col14:   899b77656698da5a8c47cba799ca94b5aac99998bacabcdb56b9cbdbb9ca8b9be9a49cc5c9895a57
col15:   56ba869a665579547aa9baca9bc9c798febc9689c9d88c879abbab77ba89987b6a749878acb9ba95
col16:   7764b7657aac59d9a7aeb9b9ad68cbec9bbcbb9acdaa89ebbacfb8cecad9dabc68689747b998d989
col17:   765b75798a889ba7788db66989b8799a7d88a6aaa87ad9bac9d7e8a9ac83e87a67bb9ad6d7788868
col18:   868789ab958a77a6c46899ca669addc8989bb9ac59ccde98a87bbbb8e98c6579889a999676957972
col19:   7683b8ab7dba9baa7cb9887aaaca9ab8ab7ba9b85cacab9b86c9bd99c9a768999a7a89a75d4aa5b6
col20:   3575c664a66668879989d7b89a7c7bb8abfabcadaea79babbabe6abc8a9986c96789767da874677b
col21:   7b8a44adc6367ecab8bb8c8aac9aaaba8bc8d78999ebbb9a97bcac9cd6a8a97ca977b95c46a69a59
col22:   76495aa898b98659bc88c9d8a69aabad9bc9999baa7a9a99bbedcce8b9acb987748c5b98679a3997
col23:   c298493448a89b85bdda78839374b8483d7c889caa6c8b8c9dafbb976b98c34a9a45a56a67a57996
col24:   79978779a7589c28976aa68aa9bc7ce6a76ab9bced7a97bbfcd9bdd9caa9bb678a987797968a8949
col25:   84978877545d9867cae9a798c98b7b7979bcabf7aadacbcbb98cbb99ca5c9b7ab596a859a4b5952a
col26:   b9ab9acbbbadca9dbba8996aaaccbcaa8ce8abc99a9ebdbfedfccacbfccbeaca9987a9a8d7ca9daa
col27:   7b65d7a666acdb989cdfcaa8ab9dc78cbba78ebe9cbaad6daeeeecc8bdb9b79aa97b9ca997686aa5
col28:   7d76bca89b9cb9abbababe9c9d9886fb877aaceac9cdc9f9a9bfac8ecdaa9cacd99c8b9cbb9ca997
col29:   647a9a885d9b767c79dbbdcba9b6ced9f998cc8abdc9abaabc6dbbb9bca6ea787bd7aaaab85b7ca7
col30:   a9ad9995ab38dd9a98a97dc6dcaccb8a8dcc9bbb9a6af9bbb8daeaee8d8daa865785c59598979d9c
col31:   b99a4859b98bedabb9a8bbddb8ac8bfd98bccdc6ace5ddd9cd7c87bdcebeb7d868aafbcc6b8bc962
col32:   97847969899cba96fbfdebcf9b7ada6bdcc8cedbadeaad8aed889ecfbaa9dbbd8b8a6a7ce9bd9cbb
col33:   83b89b9bba798abd9dbaacdb82adaf8cdb79dadea8e9ddccedec8aebddbb8ab7f777ba889889acb8
col34:   5a85987b97e7b9dbdbd8bcda3a7bc9ae7786fc7c5aca9bbafbbfb9d8988ccacadcfacac989bca7a9
col35:   9a8d769a896be78a99ccbdb9c6abcc7de9a9cbcacbddccdbcdccdbbd9ac8b9c999b89bddbe7a8aab
col36:   a75a66bc896aa7c8aad8d9eca6ea8aaccdcdcab999babe8efddccbaddcdbdcc9b98aab8d68c9abdb
col37:   c986c868b799aaaacc7baa8bb9ea8bb9cd8adb6a797d9cefcceecac8abec9b9bbea747a99a89bccf
col38:   976b88b6ae7978abcccc99ae9c7d6a9eee6bcbbdccaecba8b8bb9ffae8cae7ba8aba8cc9ebcd88b9
col39:   9758878b987aa7ceabecbcb8ebabfca9af7deedaabddcd9cec89df9bcc9aea5ba99bc8bcabddcac6
col40:   2549978999b9ac88aacbace8ad7c9b5d8bcc8caeebdfbababaddbb9d7fbbbdbabbb8fa8bbcfdc99b
col41:   a975ba98758ae9bcd99bddcbdc78decadaaeaeace8b9ddbd9daab8ba99dbaca9ca4f9ccb58b89ad9
col42:   7aaa988d79d9acfb98cbba9d7b6bdbbb7dba99abaaf7efaf9dcbaddafdacb99b9badd9ddcb9cea97
col43:   b98a6bb6eb9b8dd88c9ceead8babcbbb8bedbe8bccccb7eadbccafdce88bd9b9accaac988aebcb86
col44:   8a8989693897b99b7c99dbcec7dca87d86bd989ead9a8accfccaecaab9debac89cb8d9c9a97b9d63
col45:   759ab669788ba9aeaa6b79b9deb6d9cdcaadc85c79dbc9dbeaadc9b6ab8dd9abac7c9aae777aaad9
col46:   4898879e9a88da7bcbac68ceab8bcb8a9bca8b9a89a9cadacf9c9c9ef8ae97beba9bcc8aabfa7e7b
col47:   7aa76a96689c9cd5a9acaebb8abbaa999b9a7feb98bb8ec9b8adeb9dcaecc996a74d6aea9bc89266
col48:   388416a99aabb9abac679b977babb6fea8e9dcd8aaaab9a9dfc7fcbbdac95aabbdcc8cc948a98f8a
col49:   46657a6577a9979ab53bcbaaaaa7cbd9ac9b6b9b9faead8bccefcecfddd7997bcd898c89979bbb9c
col50:   497a96a975cb97df7abbaac79a6eda9ca8797aeafdabddcfd99afc899b9bce9d59a899acbba99699
col51:   65b864394966a9b89464769589baa685798d66a8bc8aa976a89a88b69de87b5a84c689e6a5864c65
ROC:	 BPix_BpI_SEC1_LYR3_LDR1F_MOD1_ROC6
col00:   676278758756a7544b74867689bb7a9a75967a97d999b8fb95e7acac5aaafc189b9e9589aa76aa47
col01:   85869749b89baa9cabba9a79b8beacfb897a8da7aaa699998f5bdbacb8abd7ccddcc9da7b69bd6ba
col02:   6488b9c884ac769889aac96abcadc9dad7db6bc9a9b87ba9bcb9b899a96edb9879f9bd6da799cb9b
col03:   74da4d678c2878bca8b68caba7dbc596c8ea9989ecd8c8799badd6d8ddd9ba8b7a7ab9ca9aa6badc
col04:   489ab9ab297898aaadbcc89b8aa8dd99afabbab89cababa8897bec8bac9aaa5a59da9b9878cfdbc6
col05:   976a837ba6958699997b8b7c899b9eebacb9cdb8babaad97aa99b9bbbcdcabe9d6c999bcb6addae7
col06:   c697a9b5c5ba98879985b9ac5cc8a5b79adbcdbbda9ab7aca95cdecfcdaedafab7ca99b9c8d777ca
col07:   89a63a6979955cd6b7bbd896c89cab99edd88cca8ac9dbda5f9baded9cabfccdbc497669acb7a9aa
col08:   539b5199a7976ebba7c689b788b8cca8aeca99ee9bcc9afba9bb6ad9bfc76989a9bb9a89cba68a9b
col09:   5969b79d56ab8baad1ba5bb7da9a97cdf9aa99ea8dba9abbdff9bbfe9cb9b8acacdba7acaa99a97a
col10:   935a775a5b67a9a88a97a7eb67ad97979cb899c9cbadbc8acca5ecca99c89f7b89d9bbb57a8986a8
col11:   58358a5d9778a9d8998baa99d94a788678ae8bd7a998dcad6babba7d8bc899cdcb8a797aabd9b9b8
col12:   88a8a798db7794a9e69ccac99bbdb9f8b9d8bbc6d9e7a3cdaabd9ebbd9bbccd79b94abcccbaccbb8
col13:   797575a986b4d87a5c997499b9aba9bc8489dbdabb889babccbbdbddab8b6a9dbaaac9baf8b9ada7
col14:   86985885d977a86a73777baa889c9aae6a99abc9abbdbbaaad9b5c79aaabacac88a9b95db99bca9c
col15:   828987b8788ac879a9a8a896a4babab9e7bbb8aacbb9b9dacbd878c8b97ba9abda9ea9fed79adad6
col16:   58a49575c89958fab9c8d89ba6d9cbb98cca9a6cca79b8eacbcc8acbe9bcb8bccb9c8aaac99ddcba
col17:   a915b9a5c46a4898ba576bd79a9e8acca6bcb994a796eb9e98acb8aa9ca9a7cbd89b6a7bc6ca89c6
col18:   7799aab8a9759ad488bd68889a7acda9dce5cbdd8395ceccb9b9d8b8cadaabcbac7f7ddd7d7bdaf7
col19:   7a47b8a8479c79bc556968d97c8ca98abbad4d8aa49cbfd879ba7bcdebdb998726bbcad8bdbbcca8
col20:   976a4ba98d9787755bd79b88698c6968aa8d996988b997858bc9b8aa99aaa7a9c777688999489776
col21:   b76776a678d96aa8b7ca9e78c9cbcc7ebf6fbefebba5aa7cc9f9cbdabbbcbbcd9b7c8aa9b97c7b9b
col22:   86a9798895998bb89bca76ab7a9bac8eaada6b6acaa7ce97b9aabdab979a986ab79ac9a9caa9ed78
col23:   7547a79a767668b8ac64a6dabbcaeb4cbb869bc86accdcbd98cb89a996c9d9bbdddacc9b9a7895c2
col24:   94ba7a968b677a99d8a6d9aa9edabaccbbcc8b7ca9a9cc8becbca7bc5cab6ac7c9acbbba8db8b99d
col25:   9896c6ba479a7c97a8c8699abb9aac8b9ba9cdedea8adfd8cbddeacb989b878db7c4ad9aa6ab9bba
col26:   7bac799776b767e9bca67eebe7ab98cdcdbfdcdab8e88accbcaadbccab9adacbacbc9cdcca799ae8
col27:   85858c9bab97999c5aa8a89cceeedcd99d7bcabac9caa7ebdaccbbffcc7aaaccabd9afaadfcab9bb
col28:   943ba99668cbb9caa9caa9ecbbbddbedcabcccdfbecebaacbccdeabacbc99bc8d7b7c9c9dcbadc95
col29:   b797ac7ba793f87b9eda9789e9bab78cccbd87c9bc9da6aceda8afbdcebeb79bbbabcbd86ddcd9ba
col30:   89eaabcb9b99799b9899b7dcdc9dbca6eaecebcebbedd8f9ab9dbbaaecceeeaec8baaa9b9ca9ac8b
col31:   8a976bdd6fccaceacb9e79ca6ebcdaddccddcdda9dec9dedccecdbdaddaaf9bbed9b8ecabdde87c9
col32:   aabcaaccc79cdce7d9ca8aacdba9c6cadac9cfbbd9edddbb9bdad9caeabc9fdd9c6bddd9988a9b8b
col33:   a4a695bb99abbc9cddb6ffa8fcb9dedcbbdbc9cad9999cdecfdbfbdde9fdcdcbcbbf6c87b9caaaf9
col34:   78d75e77c9aaecc8b97dedaecacfadb47ceecfcdeddbbf8acdb8fcf7eefdeefcc9bc9aa9cccbdccb
col35:   7c7b6b99bdc999c98a98ab86dddbcdd8bbdcbfaccbdadd9addbcdc89dacbecad997acadababacba9
col36:   c88d9bbeac9b8daa8baac9dae959fddade9ccfafaaa8afe7fdecdee9caba9c8aacacacecfcce9c99
col37:   68ab899bc6e9c97abbb8ddabcbdbadcdcfda7cedbcccdfc9d9dfcdcbcdeca9ecdbdccaca7ceadc8a
col38:   a8cbb9aa4aaebbbfabdbebeafcbca9cccf8acc9bcccbbbc8bdfebdcefdcefcdc6bdcbfbfabfcfaac
col39:   b7acdb999cdcea9aa65baa7f9bbbec9bbddc99acfbdacfefbeeeceaefedcdceb9cdccc8ce9ccddbc
col40:   b87bedb7cdada99f9989cbcca99aedffcddae9cbb9a9d9dccabbbebfe69cbf9bba9bbc96bccd68ba
col41:   baaaa7bc9e99fc9cb9bd9d9dbfcd9bfdeccccdcecec8debbfbccfadddbcfddfabcddaba9a7bb7ba9
col42:   bbdbc7cdbc9bb7b9ab9dedbbccafabadfafece99b9babbcbccebb7c7cbcefc9bdbbaf9aec5db6dda
col43:   ac8befbdfde4aeca8afacaca89fbd9ecbcdcaff979deadfbd9bdddbfd9ca7d9fabc7cdb9cbb9eb99
col44:   9a68bb9baabc99ee9d9eadabecbddcbccd9fbbcdabb8bfad9bbcb8edb7ccdaabacbcbccb7dd8dac7
col45:   5aadb9bda6b9daceec98abccbedcdcbafcfbedeaaacebbdefebdec9eadddc7eaeeacc6dcaccacbab
col46:   88698d8abea59c8aad99fdcb9edabdcddeecad9a9dc9beaddd9fd8f97e9efddbbc9dbffbcec7cdaa
col47:   cd99acaf9b9ec7d7badcebb9bbfddfdbdc8defbcaecd6db9ffccdcdbbaabb9dadcda7eacca8becc9
col48:   9bcab9cba8cc8b99cc7ac9fedcaabddecdbbabdbf9dfbabe9cbeeeed9cdeaeac8babc879bbeb89e8
col49:   58a9989bb7babbb8bdcac9b9b89f79aac9e9cccbacca9e9ecd9b9c8c97bc8acddecb9b68badeccba
col50:   c9c9b7ba8aaa8769eabaa7897d6cbafc8a6bd98facadacd98cdfcbc8bcccb9bbac998bbab999dac6
col51:   9639898986c678a36a98a78b79a7799b8c9a6b9a9bac979b8aaa99d7aa8bcbc89bb89f96a984a895
ROC:	 BPix_BpI_SEC1_LYR3_LDR1F_MOD1_ROC7
col00:   a45a7885877b9682566742885a7a537553a77b8678743c6b3b658793779a6847526a986666756576
col01:   aa579969b798b89db9ca96a86c9ba7c9b8679b796a94958ba9bc7e677aa79788888797a777797576
col02:   47a77b85a99c63a5899b679978855767567a8babaab9aa9775359b799e987967877ba2a749bb8579
col03:   66a74a9489a698a3a9e979e857988a7ad735a9c8ca6ab88a7697abb89a8c97547844c69546ab8539
col04:   7867568677a48899985b947885976a7aaa9adbaba9ddd88979698aa68abb9a76ba6777c879a84777
col05:   687559a8678cc767786a9ab97a8a4d4c8b569ca8c8b979897a69a9b7767a855579c667796c59aa55
col06:   97898b668a478c79836568643774a98997df9a99d7cb576c6874b9a9cb78776564557aa58b78c682
col07:   9739aa778a76ab8ab899858887b9c8aacbb79c7cb996bc9cfaaa8bbba8cd876b93967879b58ab797
col08:   b865b75877778c9b77daabe86ba77977aabaa9db9baa9989b689896a98b785d8a9998abb686799b4
col09:   a8778ab5886aa99a687a6973a989878a9da99ccd68baac99edb89b7bba3769569977684c58858896
col10:   88a964574a79b8d799898a95b6689c9b9d866d96bb894796aa98899ce9d8ac57b496896697976875
col11:   86a797b88987aa78e8899a6987e59a7b99aeece7bca9a88baa67e9cc79aa79a6b477879795769c78
col12:   867ad79664a944787c7ab778aabcbb688c76adab9a9a5c98add67a789ac68a9baa74ab6b67caa865
col13:   6d5869caabbaa8bab57b7b8c7997a99698cbd58a9b9a8a9ba78d9899ba9887899577687bc7767874
col14:   c947acc978c79a96dc8ac6676bdb5acbc8bd7ba98aa8ba68aac9a7eb7dba8d98976977c9a9ab6757
col15:   94879876c783a9baa6a7b7d6b6898b9a6db98d97b797988778997aa6a9aab8579a96739856ca9475
col16:   58897799b78b95e7bb898758aaccbacbc77dabccb97b97bb77bcacaba6cbb98a6897878989761268
col17:   558b5b68663b968b86b87c4cd378c84a9ba9b8c8867caa6d96bb58aaa98669777818879b57a69246
col18:   98a476c4aaa88775998aa98a9847bb96b9ccad77877698799689999867aa78b6b45466788bb78656
col19:   699785986dabc6dc89dcbaaba897a6b99abe5e9e7d874c79cbbb757bd6baab459647ca814a57a987
col20:   55656a59a58993787a6ae557c7acaa969b7b8d9adb9a979ba68cbcbb6d8977597bbb8a98a9849789
col21:   a989b55a68b89c98fb987b5999d67bd9aabbb7ab89a9acbba994a4b2dba589975787aa7597cc9985
col22:   6968869c89389bc9597aa9989aa69ab8ca9ca96c9a975aab8c687b8886cc75a8a686aab9a98889b6
col23:   375b7b7579c969a99a9978b89b9b9b2b98a8abcbabc78b79cc8c7868caba7869d48996a7a997aca3
col24:   49288a6497ac6a3c9f968b6bad5eb9dba7adbc859ba86b67abd8a9787a8c47ba7659b8759979669a
col25:   b8978c877c97bbcd85659cae8c97ade8be9aaab987aaa78a88bba9a6aa7ba999886a6599c6cca916
col26:   a74bb6b798b9d8b99cbca99d9a7c8a7cbc9abda7cababbf589bccdcfaca9bedb6c8984a979bb8b89
col27:   ba69aa8987cbcb799db8e99c9dcbbccccaa886cbcc9acdabacaadbb9aaea8ad79bd8ba79bc983a88
col28:   cbcc9aa99aa9fcb8ccbfabbb77fca8aadb9cdacdabadcf9bc88bc7fbeafdbdb9db877b9eaaaaa768
col29:   a8aab9c99b7e95fcbad9bb8ccc9c8dabcceab8dac9c98c7ba9ccaabc9b9cba8eae99cc8abbcba8ab
col30:   d789ba9cdc9c8aba8afdb6a7cfad9a8c57afbdedddfd79adaece9f9c87bbcbd9aababbfbcc95bca8
col31:   7a9be99abca9ec9cceaeacbfaedccdcbbbd8ebafbbbeccda8baaddbc9fa99996d6cacb89bbae871b
col32:   99bca7accbf7e9bbbbadab79cbb8afcbabccfdccbb9b9ccdbcbaaedaedddedfeabc6a9aaba6c9669
col33:   a5ad9ba8997966dacab99d7baa7fbbeca9cfebbebfbefbc99bcdc8ddcaefbbaca9aa6ac8bc8bca97
col34:   cb8a9dcceb9caeddcbb8c9da79db8bb9bbfcbdcfdedcbc8aabebd9bbabb8ab7c8b9caccae87cbc98
col35:   9df7ccb6dbab9ecadc8f99bfb58badecfdbbcbcdfeeabdb7dae9bdebfd7bbd9ab98f6b9ac5dea9d6
col36:   b987caca9a9acb9cccbaacdddb9bbbcecacaecdfd99beb9c9bcefcbdabcbbcbac9cdbc97caad6857
col37:   965acacbdafb9acadeabbcdbaacdbeb99dcacf9fcb988afbfeedfceccdcaaf98969bb99d99d959a5
col38:   baa77ab896badcbbabdeeb9bcadaadc9fdcffdbbddeaceddbfc8fac9dacecbcb899addcdaa78b767
col39:   abaaa6d799dbbbfbf6ec89ebebc7de8bccecdfbddabd6abcbcadf8cfdcdcc87dfc9ba8abb99aa784
col40:   9b9bccaea87babbb5cdcb8bfaccddfcacacccacfdcfecebd7bcbebeffdabfbcb9b9ccfbad9cb7ebb
col41:   e99eccbeebfeccaaadf99d9bdddf9fcdb9fefc9faddeeebadeabababcc99cfcafbddb9cb89aaa988
col42:   fc8dd8dbdb65bceb7becccbbba8bbcacfecebec9f7de8a9cccafeccabfcbeb97ac8baac9ac9caaf8
col43:   8aa8da8eaadab9edbbbffc7cbeddbfddfffaedfcdf7cdbdbccdbaeaacaadbfdd6b7dabc5e9d9b977
col44:   ca7a8fad7a9cacbccccaa9beadbccdcfaabbdeefdaffdfcefd9eaaebbffbc96ccbdfd9eddcda87a6
col45:   aa4dabebabdabce9faaecbfcbfa9ceb9caaffdabecadcbb8bbaa9c9dbdebeb7ca8c7bb87bb8b9b69
col46:   9acdd8adceede7bdaddbadc799c5cbecbbac8ecffa9dfecdfaeecdeff8e7ae6babcba99b9f9da8a7
col47:   d9dec7f7accdccbeae7dc9fcfe9b9cdccbed88edadfaabccceafdaf9dcbda4e8b9bdeab99e999bf9
col48:   aa8cacddc4defc7aead9e7fdbfaeecfde9ede99acab9f9ebaedcff9bfbafbef9b9bffbeecddbec69
col49:   8b9b989bf9b9cddcbbaeaecbcca8ccbeedadfbbdcd9afcccaeacdaed7ccfed89b77a6ababfc9b7b8
col50:   8abcdcc98abcbfe89bddad9c9cbdeccfcd9ecc9cd9cafedbcbdeffebddbfceebe9b9b9ecc68accca
col51:   967a87785c8ad969aabb89acd7aaba999deafbadadad8b7a5a9baabfcfbba7acada69cab99486bc3
ROC:	 BPix_BpI_SEC1_LYR3_LDR1F_MOD1_ROC8
col00:   66933467759886777959598758768a988a89399999588a769897979c5be787a5d64667baa986abb9
col01:   83a97676785585a999b99585b787c84e99c9c787779a8ebb95d8abb987bb796b9b5cbb9be9699daa
col02:   1275845b79988883ac78bb9dbbb499b978bec98ccadb67d9dc7ecb9fc5a5d7a588b9ba9988bbbc8b
col03:   9355999777a83b89999a5799ccd6b49787676878cc78cd97ad89dda8a79bac8ba9979a8baba9b7b5
col04:   775395578975896a778b8a77897b87ac7b9ab875cd8bcd6aa9cdb9b7a949c9c9ccaa87d9a9ac68ab
col05:   6474555a6ca77a9cc778f8a5997e596ca8b9ba658699b8a9a9a7cb6bdba99e8ac9ab7dda39a899b8
col06:   b77745996998a5a77a578baba8ba6accc9e87a9599bc8c8ba7da96baa79873caa8bd96c96b9cda78
col07:   6564b688b378a9a488babbbc9badb59b9cc98989b8bbab9baa56ad9689ea98a468c93b698ac79bda
col08:   97935655683b878477997b8989ac65aa9789b9997ba7d9a69b6acc99a3799c7cc79aedda5aca9dbe
col09:   9655a46668aa7b6b567a6999b878979688bba7b9df8c7dbdba9ec9bab8bbbbc865d9a79dcad88aa7
col10:   4789c3753577897496c78cd99a7878499c9c785da9aebb6bb8bec7ac97888aca6d8ac5caa9e9db68
col11:   88667844657668a9889a7f8a9ebb83776a897a86c9dcb887cafdbd7b68945587b5888acdf7d9798a
col12:   7158a7779bab945788cdd8a899598dd78aaabbdba9adfa6b9ad8bcae8b859a665b8cbaea8b9adab8
col13:   833853b988479577c5b8988889ac7896a979af9b8b97baa79baca9a988665d9988d8ab89a89f89ca
col14:   339666a7a678a28857c998b8497bcb955898b58c9979a898b7c5aa86779b5a9d987896b7cbb9b699
col15:   5755855b89ab877d76b9b97acb587b6688acdcba69bc9d9c9c89b8db78686a6ca8ab8898adecbb87
col16:   75176889b548b9a6db967c99997ac5a98aa5a9ca99bbbc79768aba9b7baa7b8bca79a99caaca7ba9
col17:   3456775355776699745969a99b979574a6998a7b6cbbc9bbcfab9778a3a98b78994acbfa99bbeba9
col18:   4549a867b765a99a68ba68bea99797888ab5bfb7a88ca9aa6bc7a8a86b756a8d8cc9969898aacdb8
col19:   355736578739688988a79ba99a8ac9ca65ab8e59c7d7c7babc7699a79aad9a97b8cac9b8dbaa879b
col20:   6489848466898b7aab588db8ac78a7757a889abbc8b9e98d87dd9c5a9ea789a79a8b9bca969aeb87
col21:   5c446765ca4c6897c7a8979956879b8a6ae689b6acc49a9c8b779caea787968979f77998bd7aecba
col22:   769999a447998c74bc87cc88a6a59cb79c88f89aac8a5babb8ca5898a5987965678467bbba9cb7b9
col23:   9477777ab975896a76a9988a9a6998b7a7ac9aa88b5697cab857d6b8aab95896997b8aabb78aab88
col24:   4c55677a5783548baab78a95caa66b7877c8ba99d8888c9eca79a6cd8c98ac7b6aabeccabbaa7898
col25:   66898a68ab9b3457b9c8d9a66a4a8b7ac7e6ca9c9c7bb9a99dd8da8ab88ba7a97b5eb7eccbd7ad9a
col26:   8799b9abababa69a7b9ab9bc99ca69cbcdd969babbfeccf8c8bcb8fcecd889bbabbba7abce8baacb
col27:   95599989869bdba89bbae2aab8caaa877ce976c8ba9abbeca9d98a8cbb9f986b9acdeabccb8abbd8
col28:   86668b8bda89bcd9aaafeedad6bac7dbafc9a86fbd7cbf9cfacada69a69d98e8cabca9ebfbacbdad
col29:   98588a7ba96a9b79c7a4a9be6b9b9995ca9b8a9caac9b9e8c8bfbd7a988daaa9aceaac8d8edbcabd
col30:   89889b6a5547b7baa6c9a7ca7aa9d99ba8bccdcbdbb97aed8abcaa8eaadabb97aca3aca9b9ccbcda
col31:   8469c69968999eb7bca98ab997c7b7a998b98d9c99cea7fbcaeddabc98b9be9998ebb9bc96fe899a
col32:   7a4a67bb899c9abd9d9bbfa8e79dbb9d7e88cdaccc8f9dbcc9dbc9acabb897ba8baacc6cadb8bceb
col33:   67778769aa889cbb9beeeaa8aacb9ad4a8ab8b8b8edeaaaccbeca8bada87bb8b9c9989fccaacebc9
col34:   a6a98a77a9984bddc7adaddc9cbbe6aaeb9deefcbba8c9cbbab969dcbdeafd9ab9c9c7bcfcebdbbc
col35:   a768e8997dc6ac99c9bcbabbb8dbcb9c78bbcbaabadba7ebbddbcc77c8a9eccacbdcafaa9cdf96d6
col36:   798b595acaba8cddbfab97b9cad799babfcadd8ddafeb88dc56abbabc9ccaa99bbcbccde9cb9ccab
col37:   9899aa7beb9e9d9b9c9dcbc86eccc95dc89d9b88fcbeebcd9cbbfad7b7bc7ca8a6aaea8ba8eabcb6
col38:   a9c9a996aca9b8bc9cbadcbfceeb8b69f9a898ac6abdda9d7adadba9cb6eaa99ccca9ecdcdd96dda
col39:   69799597bb87999d7bea79bab6aa9c69abdd8e9cbdaccc9bdccbaab9bcadcc9ccedddfbebbadaad9
col40:   a739bccabbc9cb7bbcb9bb7a9f8abdbaddb9edbbdbbb889b9a7cbdb7bcbdbccccbb69dfcefbfebcf
col41:   767bac9ac968b7dbcaddabefad99b86cf99ccbdcccaccbebed9ecbdabbd9d7ecbba9eafcbbebacf7
col42:   76969a66a8ea98dbaca7cacdbdacdcccb9b9aa8cab9bbccafc9e9dac9cfdbddcc9dccefcddcd8ec9
col43:   5bab59687aa987c5aaa8d9acf88b7cacdadcdbccdde8cacbfaaa9c8968b9aaaadfadb7bdccdaaab7
col44:   989bcccbc68fcb8dc7b9bc9cbb98dacadcaaebfaabbbdbcabdd6bcdef9cbcd9dccebccbdbadedda7
col45:   a5e79ac7b9dbda9dbc9ccbeaadd8ce9dda8ee7dcaabb8cccf9bbfacbcddbf9ccbcdcecc9bbcfcbdc
col46:   9f487c7accaa6ddfbfbbcd6ab9aa9beccddb9c8ea7eaacac9dcbabbcfccaaedba9bbe9ebccbdbb8f
col47:   a9796a98cabcc8a6bebbaca96bdab89db7ddbddccdfcacebccc8dcd86ccbcebbadcfabcabdcbcaba
col48:   88b996a8cb7899cea9dc5bccbbed97d98ccdbdfbfcecca7ecadccdab79aadcdeecebcfadbfc9eae9
col49:   659abb7c8b7c7bebc8cadcbacacabadcb98addabdb9cab8aadf6bb9dcabdfcefcbbeaecbdd68abca
col50:   868a968e9ba97ae8ad9c79aaad9cbbacec9d99daefabfeaab8ecbdebcfbcdbb9ceccfdccaaaadada
col51:   91687786879975ab985adab6bdaaaaaea8baaccba8caebfddc89cc7a7878cd9db857ab9aaa8aa9c7
ROC:	 BPix_BpI_SEC1_LYR3_LDR1F_MOD1_ROC9
col00:   25a566581554735716894597a666656646676857675854678641953a719579873856463a15567871
col01:   67657488a775698465761579a28c68b967558586968ab7777b698c68a977aaa5885675b76486a7ab
col02:   579688898666386577a56457687b75666a888656968b88876b747788c5a9678aa88a397c95976583
col03:   77369853564a678882697796768788a271a67858a86a676887aa7a1999985abc997bb79aab658649
col04:   756593a787356975959388b4a6d857789aba96a66ab9a57879768e79976b6888666955bcaa968a78
col05:   6454759836751767597967686a953677abb878b5a7a678766368967869776b36e8578b797a9da89a
col06:   6569953865b6377918279bba8777968aa87986575788ebb8a465bb7a7a79c968989cb9a876b47b95
col07:   6b457cb57b94546a991896874b65d986b68959a4ab699a48597c9c7495b7969b99ac868ab6a857a8
col08:   677a7a764685954767a796589ab8bb8c95a4a689ba69b88856c886667685a76a5bba7a67aca97997
col09:   59895444875684aa6796746a668996a7a888b85a9a66776599a875b797bd7d6968c9c69a7b687979
col10:   8633759946585696485545b7c8a67b96aa98988d886a9a789f58a8a788a8a868a887ba4877d99695
col11:   658a7357d847a68946779a6647b8b888766998a8c8777b67a57ba769897c87a8a7a6baa5a756994b
col12:   26458578685c6ca697d9bbc79b887956a5aa99b7ab92b7a9875b96975989646a8677a96847868778
col13:   8468a9a6b464c897888ab84a78db68b6a88869a9a68a96996b8ac9a7a497aaa8b9aacaab88989ca8
col14:   8555226abb787794a969a68696a7b8777d8b6b7939acbad79b87a367ba993c988b9669da74a8979c
col15:   67787556574774458878aa788d9a7d998964bba767c7979968aa5c8e86abab996974888648665896
col16:   666757875586565986a799b5a7b5a7c56bb97bcba87a9797b758f7579aa86a87aa68879a8a8fb993
col17:   b67786b7b8446676668bb57967989a6879caa5a689687bb4a88abb9ba9878997956b899996679ec4
col18:   48867555877694476375977a98abac9b9a7c793d8a7a95ca87b8e8a58c4a6d7995879896867997a5
col19:   564a858489898aa891b5968877a99aa79ba6b99cab68888bda66a8e9ada99b79a6c6669caaabac6b
col20:   726653ab74a9a7789785aa495799a9b66c8ba887a8a8a9aa9d97a997b879d9a97a88895797888c9a
col21:   a77479547798877a28667b97baad798367798b973aa8598c89aa878abb8da9a66988788c6cb59794
col22:   493767787839597aa798657caca97cba88ab97da7c899a8aabccd3cba8b8c89968a6a6a5b5b9c755
col23:   49318778a845a7466a64457ab9a978898b77b7ca9aa8b678f88cb59ca77b89667968c797886936b8
col24:   64667588596997777c7989899988c88587cc7dcba99786d878a9b899acb98787978bb6b79b956787
col25:   89867675aa7b859a8b789a889979bec79769b99adac3cd8ab8d9cb8566aac9a97778ca89aa87a9e9
col26:   bb7a897986a75789a69c898c88bc8dab9ea889b9cddc9a7acbafeabcc7cb98aaf9da77397baa97bb
col27:   6373744575a778868665dabb99988d8ab9aa99b68c69ea9d8cdc97da77d88797ba8ea5888ab9dd99
col28:   b7a6a9b98794777bbb94ba8d9c9dde9bbabbbb9b9dcabdf75a9999abac9cbacabcbbbd9ed8a8babc
col29:   977887ababa89a9a989b58b88e6b9ecb9a9bbcb998a8c79ac9ed8beeaca8d978c4dbc956b9abadb8
col30:   8479769876768a6ca87bb99eb9b99c89bc688bccc9a99bed96b9b9cca5a9bc9b9aacda8ac79ea9b9
col31:   759a8ca6add8aaf7a9d9eacc8c8a9deadaccaecb9eb799b9bcffafbd8bec98ab8bc99adccdcea998
col32:   ab6796889897aab7dab9b98bcbfcd78da9acbc8bd8da8c986d79bbbeecd7f7bac99bbbf7ddbbddbc
col33:   65c787bb77896778b8accc79aa8af8dcd8abfccfe99cdb8adbaadba868bc8ca74bcbbbfcc9bb9bca
col34:   bc59983cb6ba7bac8888aaebdd9ed9a7bdaec9bcdee78cccbcfcacdcaadcb8e9c9b89ce7ca5abbab
col35:   8b939aa66c6bdb5ab9dda8caaeadbcdd8cc8d7dedccba89da88e8addd9c9d9b889fcc8c99b9aacbb
col36:   79bac87889a86ccaa98bced99cacbb9d9cadda7a8ccdc6caabffddeca9ced6bbc9cbbbc9bcb9ddd8
col37:   5aaa878799bc9b98cb9afad9adabbded7ccddbcafadcfaeaecc7cdddfbaea79fb6dabdecb7cbbe9b
col38:   b97cabcb88a6a7dda9edaeafeaaffaaad8c8ccababdfcea7cdbbddebacc89eedbaaed9caae8edeac
col39:   d8a645aa89cc7b9accdc9daccaada99ecdcd8bbabbab9fd8babb6b9addaabad9cacdefab7bcab99c
col40:   6ba4759bcaaefab7acdabccdabdabdbcbbeceae8a7fcbecddaddcdbcb9c8ca9abaabbcffdc99bec8
col41:   4a9a8c7cbbbbea8cb9fcfbffbbfccfccaced98b8b6b7bccaffcebcda7ccbcabcb9b9a8e7cdfcabc8
col42:   b45daa9c7baac8bb9ca7ecdcbccfbad7aac9babcdad899ba97d9dce9dceadc6bba9b9bcb6d9cffca
col43:   5796b8ceababccfcbd8bbcbbaccd6cdbe9edd9eccbfacbeccca8ccdeffdefabaeaeaaadcdcadddeb
col44:   44adaa9adbc8978b99c9cbbcffddaecce9dcdabbddabdbbdcaccdbb9abbccbcbbd98bbdcfeefeddc
col45:   9465e6b95a996ba7cafabdffdfacaaac9aa68ccabd9885feacfbdc8dabeb7ccbcdcbbcdbadaaeaf6
col46:   acba8b96a9c87cabadaa7bedecdbfbbca888cbdbfcdfdaccfcfdacbd8bcc8edbdeceef99acdbbbce
col47:   b95ba8b9e59cfefd9bdedeafdfdccbfbbcdddbdbaddbcd9abcdeecbeabdcfdcde9cdccdccbacbfcf
col48:   87ba88b99c8a67ada8bbcbfafcbcbcbefdadbbbaaab8e9cddfbcdbbcfdc9aeccbbc9d9cbcadcb9db
col49:   ab88bc9a99aabb9b8aafadbee8aba59daceabadbdbccdcddaabbabdbdccadebc7b9abeacd8fdccca
col50:   7bb98d8ccdad949dcdfdcdbdfa99babbabfaefbeb9accb8acefdebbaacbaaafeadeffbd9affccccb
col51:   5956868a7ba7898aa6aaba8989ae9d79e1bc6bdca7bbabce9cac9f9bae88b8b89a9c9db9d98a77a7
ROC:	 BPix_BpI_SEC1_LYR3_LDR1F_MOD1_ROC10
col00:   517457689a2494555674a8686542a9a97a696576955597a6777964868aa67469989655b664666585
col01:   5448874a81a6997548848658abe8dc95aaf9979bcb99b6ada899bcbcc677968ab496c67699967ab5
col02:   6b99c58bc7852a559597aaa86a87c76a988ca77ba6ababfd98c5bc8886b57bd6a8a9875a86798a83
col03:   5468556957a859b689685696e997f79795a8899acad32afaa7bba89bdba7aa7a788bb9775b8a898b
col04:   789a63c55565a7987ba68c98a6ca8adac986b77fadcdbacdaaab77c66b918894d768566bab659571
col05:   8368387a9497977a68646a46c758d885db6ae84a9b998fbbac6778dada81265b7787348748779987
col06:   938a897b9887769b99b65b558b9d9bac9abba6ebbad7d9db69bbaa78bc99259a99959c69b9967786
col07:   62549a76a6984a19bc49786a8d9aadcd7db8958db5dacaeaca999986ad774e68899689b87bb8c6a8
col08:   543b81b566719b6867e77696a7b69af8bdaaa98fc579b59a98977d79587aca3789686589978c987a
col09:   765b758779499ba978a99887ec9bc8bdaeb684aa9a69997aa9ab97bca7abaa9b7ab9848888798683
col10:   44748537727798956bcc5a69b9acaa7ba788999cad779988baa7afa5d9c6a88a9775ba5888979aa7
col11:   11887a597677a596777b825a677aaa8b7c9ba989d8acbb567fea86b9d576c9bb9754967485867785
col12:   67b84966676587c75587887aa869ba7b98b59a8ca799889bc9a7c9a9b9ac88c37da86767587a76a8
col13:   49673c5736475688763a876d587be9cdad8a7a9b5b6a789b9aba9bbd87777caa6b48ca77a37a7796
col14:   3896658683459166c888898aa8cb886c9869a94abb897a6cadb89fba8cc8bc6ac595ba67a47574b6
col15:   97667695346876565ba748237897bcbd8a9c99e86a69aa66cb9ad8abc8b979b9775bad8c6c79badb
col16:   982548e667738b9687baa6687c8eb9baadda9864ca298adad95689baeaaff999b96c79775fa676a9
col17:   78643987341a836b46797ba87895c6b9a3b7b892989d4b92a958bd999697caaa88a7635741947995
col18:   6494774773396987687a8d78876ecb8a679869487898a5c57a45aaadabb9d56aa676878a6569aa77
col19:   975c596657b56538a8aaa7cb49ab6d7cebd7d99a99949aabc6dad7dba858a69626978bba768979b9
col20:   3753865a5433666558a4ba79ca8da8a9887bc87a77aab897b5879ba99a59ba99986a996978783674
col21:   9c8333985969a4778878aa979cdbc8899ababa944ae997a9bb667ab9c88b9aa3988aa676a6a92b9a
col22:   9348657493a583a8d9c6edabbdb7bba787aa77e7c6a68979a8999b7fa7aab8ca9acbe75b7a7757c6
col23:   a27669846326b6656897995b9c899abbb7b97877a4978b99c78bcc98aa95dc7aa897875a88bb9876
col24:   776642c54a968996ab9caf79cbbfc8e6a8ae5a8ad688dca995ab5fab96978b558669976ca7a578b5
col25:   786a8a84476963887b8a8cb9e88479a7ab958cbbb6ca9aa9a9bbdb8ab99b895b94b6998e47998876
col26:   b9784c95c76c98588ca9dca9b5dbbc89fdb9989ccddadddabdebeab6eaabb8a7ccbd9a9b6b79c9b8
col27:   65a3b7879a38a689b77e9a5be8acbcda8e8bbacba9bca6ad9aadaadc8dc9cab6ca96aab9a878aa97
col28:   888c8c989b59ac8869adb7cdebfd9d9dcdcfcecccbaacce8accbafac8cbdaa9ac6bca899a689a878
col29:   8b9a5774767a9ab8beadcabebbbb8ba977c98a7ba89cfb9bbbacfa979bbd5cd4698a689a9987c293
col30:   d8a9a953b9c5ba6bdbeb8bcf9ccdca8eea8bebdc99eebc8db6cedeb7bbbc999ae7b7eb69bb97ca9a
col31:   669a89a5d8984669ad9d978acd9becb7dbba7abaac99baaacdad9c8baad7fad98baa9d9b9aaba98c
col32:   b5cacbba44a7bbab8bcda8dfad8acbdce9debdabcccdafeddcaeaabdbbd7c6998a8b87a9adbaadc6
col33:   767d978b9b56cad8d99e8b98dfcdaace9aaf9dacae8baddcb9dcabbbb999b89d6797b998bd77b8c7
col34:   bb7cc9a87a99acd68af8bfabfae9cbbdfbbcba9d98cd7fbb9c7aceae8acbf98abcabb6a89ebb7986
col35:   7c697b6acda5bcaaecbeb988be95ca6bdb9aa9aaa99bdbc9defbdbddacbabc9878dba98c79b9cab4
col36:   bada9ca9c8894efbbafbcbe9bdedacaeabdbac9eccfdceb9accfdbabdb997cb8da6dc9a6b8c8aa68
col37:   c58647cb9aaaa8989dcdbd9b86dcae9b9accda9f8eb9efaecc9c8da7be9badbbcab66ba6bdcc97a6
col38:   b77a7a7799baaeaecf9ac9dab8dcefbcbaffdefcd9faacddffecc9abed99eb89cad8bb8c6b8b8caa
col39:   6a87aa9bc69afb9a9d7cba8bbaaabd5afcdcb99dcddccfbceb899a6a89abcc689688c89aaacaa28c
col40:   e697a7bb6b6dbcabbcc9aafcce9cf896aa878a9fdcc9aadcbbbead4dbc8bcfebba8cbccad7aaba9b
col41:   89baad8abb6e8af987dfacb9daabaccacefba8ac7cb9bdbcb9698cd8ccc7d9b9b5c679dab79aac95
col42:   bbe9a7a7ebc79af8ca9cbab9b9aadcbbbdeb77dc89adeeeca5defce9aa8fbbcb9fd3bbbabbe9bb95
col43:   9d9a7cba7b99afb99fde9ddddadddc7bcdbcbaccbadbeedcdcecacfededeeb7cbbcecac7aacba796
col44:   bca9aaa7787cdc6bc8ee8dbeec8cfcae9eda6dfc9acdc9febf9dafaacdbbd99bb6dc88bccac9b69b
col45:   a5baa924dbeb6ccfabdcc7cbeb88cc8abba8fcf99edbcd9ddbdd98f9ae8cbd6bb8ab979c97abbad8
col46:   c986be48aad9dcf8aaaba7dcfdabddfbbaa6de8cb9bcdbcbdedabdaadcfb9aa8ccb8a8cb875cbba7
col47:   76aaa9a6aa7ad8ccbc8eaca3c9a8aaa9cabbecfbc9ddfe9aededb8cc9f7a6ce899bca9a9adbacba7
col48:   887a89aad9abaceb9a9aeafd6ddcbb7a99cbaddfdbdbbeeebbe9afdcfabadadda78bdbab9bdcbcba
col49:   765ad797ac89aaddabcefecbbecbc9ae697abffabbcbbcb9e99bacbd7dcdddbb8baadd99b99aa9ab
col50:   5aa974977a8cfa8cfb89caaeb9bca579cbdaac9bcafddecbeebdbdd897cdad9bacdabc98cb7babb7
col51:   9773896c6a688999c7a9b9b9a8dc9878d4ab898ac94a8b9aec4ccac59a7bd8889a88a9697b58ba95
ROC:	 BPix_BpI_SEC1_LYR3_LDR1F_MOD1_ROC11
col00:   3a214252226344854557a349533825a657466a54763a277489a47953889776438978467777749164
col01:   673876337676487bc986c24486b8888996b97bca6a86a57a9897878c7b955c8877a496b975885778
col02:   2476699274549957787696759ac99677699a7c5758767a83544a67888656aa68756759545b248457
col03:   84b464893586a88a45a49b697897a5ac99789a7a797e789a7d4679aa634ab96b8738aa8777886445
col04:   5868745686b956c73968b95856449bb96988e49cbb29a6a98969787a579c48595b8358779aa99689
col05:   6184a1855215b5748ba78556785bd94ab9999c774886bb6857b5969868b4664748ba68899776b865
col06:   5915598467769c4a7a97954a4878389a98d6a79977ec7658983c8b9999848a9ba68763796b767696
col07:   94848256926b475a79477bc96b658875e4ada86b9abcc77aa8889adaccc7588a8aa93a9777878585
col08:   54561777558826677628c8a7b8797487abb59a6869a868a58889c96bc98b997a9769b86688878969
col09:   5c64595669ad89149798b683aad768ac96c9fa7b869a3d57488b7587ac6a7696a398b994a8b9b276
col10:   17687454c8a2a8968872ab749778ad9c9bbbcb7a7b948ba99776aca5e8e7ca96c56ba847aaa65948
col11:   9755888847865b88b987681689878db87955c79a9aa88c7798758ca57a8777979868b9a7b897b167
col12:   432732a56d7944685856a8a87647577b3a9ad7cda98a6a8bcd479c6b97ae79d94baea959957a87a5
col13:   596b8a57784a6a4675c996974a587a68977d8d7a4a9856889b97aad8c999678d9b98ab5875ab7858
col14:   79483848755b7297a7888a877b76b7699d9779a6aa9887cba9386ba79ca4866988abc62c58798798
col15:   67a44a75947986c976c97b7988c5d599b797b69968a9aba9b7579788777876b86d5b9aaa76875785
col16:   588b4a93779b945aa67b8aa46956799b9aba9e9cc77cb7f7db89c688bbac9c987899994875877879
col17:   a85b597ab59a987a88bd968878585a6c9d896ac796c8899b9b5f9a6aac899878b9846a7596766966
col18:   846b79a79576a7958a7b463996868869799679c6a6c8bba53469bb9d7bab87573498b9878437a734
col19:   5a666787bb78987baad8d69758bb5acbd8daac7babcb96d79bc777978997da8daaaad48473ac3366
col20:   896d995641a899765a857b5c999aa79359699b77f68cb8a5b683796897a548776ca569baaa976948
col21:   1988a7a88868899a2b6a7a6898a879b97d6b996e4a5dca889799bb5bcbbac8d74a99aa7a1a788958
col22:   6799c83886779a8b553b6b48aacb6cba68bbb8a79a97687b5bca6c58ad8bd8bc699797b78896a868
col23:   576899aab776b58858a86977676979a96b88bcae9e9895b8aa8887899bad97a8679c9969a5aa8b74
col24:   547768ba79a8aca6388a8887da688b67cabb9b89a5d7a8965899a299b897c889786c9569487ac9a8
col25:   58a35a79ab6598b81c68948787b6b9acaabbcdbda8ac9c94ab7b59ab89a47b69eab9a83a98d997d5
col26:   6cb877aabdb97aacabd69a96889ba9ebdbcecabb9aeabacdac955bd89becb999acad86a6e9b89599
col27:   4eb9989ab77a98778c9997bcd8aba7bd6f9cd8b9ddbb5facbc7ca9baabbda7bdb8bba9d7958487a9
col28:   ba8867c9a6add889aa778accba8bbfbccc88eecbaa9cbabbedd7dbab9dc77cdf6ac9aa964b6ab6c9
col29:   6255bb6b96c7a7cb78aa8ba999caebabcbaaafafbbab8b7bbdbeabab8eec8dbaebca6ca6bcb58956
col30:   777cc79da9986a8aa8acb7abed9bbab9da8cbabcbac8cdbbb9b9b7ba97ba679f99c9dc6aba8da999
col31:   abaab9baaa9c9ab6ba9bc97bf7e99ebdcdaeeea9eecbc899adbbdbbddbbfc8c9fd9ba9a7c99aab15
col32:   6bb6acac6adc98bcb97ba6adabdbccdaeeaabd8bcacecbfeced9bdabad8fc98ad979b8c8cc9aab99
col33:   c5baae9adb9aac6bb9bab9cfababae8ca9d9ce99fdbacdc99b98a9bcc9a9acc8ad9cb99cc867a67a
col34:   c7b99acaaaa9c8987bcdaaf9cabadf9aecacddb9abacbdfd6bcedd98bbabcbc9caebe9e9cc8a997b
col35:   ad9cca7daaaa898668dbd99abe9edfbcaddbcbcbcbbbaccbde7fcb69afbaabdbbcdaae9bcaaea89a
col36:   9a98c589aaab8999bbbbabbc8b6d5efdbfcdbbe99dd999ea9ad9cecdbdebaedbcb9ba5ab8947b87a
col37:   5ab9ddebb998dfd9b9bebccadfcfb9e8d9bbadbdfa9fac7ecbd6dcafc9fb99ad8bb77abadb67a9a9
col38:   ad9acbb9aadb7eac7bdc7abbabbfdcbddbeccbad7becdfede99fbacd9dbd88d6aafcb6ada8967a9b
col39:   d98995a8de8ceadabeebdbe99efddffbbcfbedeced6bdbbb9bcdecbccabe9f6fb9be7beea8aab7ad
col40:   7c8d9cdcc9abeac8fccfc6bdecbbffadebbcbcddddadabbcbe9beeecafbeededbbfcbbd7b899dbee
col41:   cd6efed999bcab98aeacca6abfcaccdcffdfcdbdbcfbdfa9b9ccfdedebcbdbdefca999beeb99cab4
col42:   d8ed9aa7a6b8cc9ceec99b79bdfafccceeccbd9cbbce6dffbabdeebeebdcf8b9eddabcc9ca789a76
col43:   acbd8be9bacebbfddaadaed98d9deafdefeeedaddc9edebccfcbcbefefffdabeabb9acacce9a8dac
col44:   aba8cc99be8d89b8afcedfbbedcc8fffbd8d8efacfdd9c9de7be9d9feacc9bbbb8bbdbcabbaea9b6
col45:   899b9ace4bb8bb9ac88d9d8edf79de9ffbabbc9a7ecbdfccdc9aeceedefabbdbdbafc8bba88ca997
col46:   8cfd89dbcfabdc6dddddacddd99dfee9dcabcfbdebdbdbf6cfeebdceccbeddbfa9addbedbba89b9a
col47:   a9fab6bdb8cc6dcaadcecdadfbadfcee9dcafebcedadde9dcdbddccebecdbdc8fbdddbbdf9ad968a
col48:   a99aa3aaacccbbbb979e9d98deebabfccfdd5ddeef99bebacddbb8abacfcdd9bbf8db9b7c9e8a9c7
col49:   abaebaca76bbed99c7bdacffdaefcccbcdfbddbbdefcbcec7de9bcdadfaae9ace99cbe6bbabbbf9c
col50:   9a9a9addab86bcf9eb9a98998bfedfffddecbaadd9cdbedbfeaddabcbe8e8fed9cbdd9f97afd7c9b
col51:   865677bab5bc8c9c4babab98aa9aacdd99cea9acc9aa9aeecbdadfc8cb9bbbdc8ccbaa6b985cd9ad
ROC:	 BPix_BpI_SEC1_LYR3_LDR1F_MOD1_ROC12
col00:   72767a665b17483297a7682479865694675b96fa41847575759749667786a76957847541765a3749
col01:   4597d8591b37976868768c697568883a7897ad7b768d769c869679b8a857a94779758896558448a7
col02:   84243652b5b9a642aa999c97a8798565e7a888a7f54898888377bb86ebb69b588767798b8659a987
col03:   867765abc47787b9b76ba7b736b9a9d9e4cab7daca89cacbb7c77699463678c675848478698449b1
col04:   547a877446868b696b649678a9b7ea8bbdc66aca7a8669d6b6a8abb7988ad4873768467b45956979
col05:   867576784837a88779b96c7c8b87aba697ba9889c7b5765ab96dc67cba66978a887569a76b2b8547
col06:   76a4bb57c8458b996a796b8a8466a9a8797c8867999dbc75835cc8f6876d8a865b86892963aa4c88
col07:   965898c69c7756948968ba986a76b7b8cc789989a7ea9a9da8c6bca973774913656b988abab95c79
col08:   78a1a5584677a7c9386777e9acb8cb8857998685ab8ab6aa85c88b67a9536a95a759aa9976975b97
col09:   73b8b64697596686aa86b6f9d93c67a5b88a4957daaab8989a9add39767c757789e86588c474a878
col10:   73b6637548b9747aabaae7757cb79c5b9989a99975ebab9899c8a47b8747a9bc8b966655537c6b86
col11:   86679164659878688dc58b9f96ca85a99bb4c7a7aa8eb779ba95caba687858a4a89b6977444c6495
col12:   978647a847ec5665dbbba58c5abaa49966b6b567a89a99997bb7a85b366899699992373a79b77ba2
col13:   47a77888779a66978dacb898ab7189cb736ab8768b586698bb7565b6a64bb5a9a39ab8cc6988c96c
col14:   6866c8787b4568a997cc97d896859c3b87bc6b9999889c8b8777aa9baaab5797688b7bab78778c54
col15:   876775498796a5db855967a98897be998aa77f86a8bbb8869c9dcf928888aa96ab66a74947654577
col16:   1668a8a9a8a96a6bbaaaab78a69785e84cab69bc8cc9a6d97ccbe79b97799a8865888a798385b895
col17:   63c488867678c9a784658c669664a98876c997899a77bbdbcc957889a98b895639d67a666456b686
col18:   4384588277b6aca5779aa99899ad7978d6aba9987d83887a969a6565d75a55565a5a99ba7535a669
col19:   98a7a6868898b993c589aa959bdccb967a999896a79ab8b9b7888a84b3878697fa9b8aa596987946
col20:   6878339a868ab9c279cc65b697ca9b6b69979dc49a9bbea9a8768aaac7399a8ba9a758d6765697b9
col21:   5a696a247c69a867b98cc9735685955cb4d7e97ba8c66c7974a876c87a77289e8ab75459589986a5
col22:   5676a798b99896c98bfc98ab6bcad7b988fa5b7c6889ebccca97967a6a798884c4a87e8a6678bb76
col23:   87b665b4a3677886d66587b594b4a8678c99ac7d6869b33897a894468978679794989b779975a756
col24:   967679789ada9898b874667bba9b8797ba7ab657abacadb9ea775688ca9a947997d6995878885866
col25:   b887996795c9aa9acab697b59baa9bdb7aaeaab98b885a88cd88f9fc948a69da8a9868885b89888b
col26:   a8b796e5889c9abacabcbbbaa8bbacc7bcbbcdb797a9accbbbdbb87a9cbfc997c58ac9a898b9e978
col27:   68797686d8889785d8eca8d8b57f8aa98aa8697c8c86ab6dacbd9a9bcc576899b9bad76965c88a7b
col28:   998b98a789978dbbbabcacc8dbaadcbcdcb99dbdbedab89abcc86bbbc99aac99dbbd8caab898fbb9
col29:   89a97ba58ba767ba8c999cbdfcc97e9a488aaca7ba8aaacca8cdbbc989d6a896a77aa87a8dbbbae8
col30:   c8a89a9a7a7b7de9a8bc9aba88dcbda8ac8e6c9bda8ceacadbe8baab986a9d9a73b9b7b49ab6acca
col31:   75a275c8a8bac59aabbbbbab79abcbdabb9bb8db6bbfbdeafcbdfca7bc9699caaab9eeca389a98bc
col32:   7bab979a898687da7cf8fadc9decd9ccdbdcddc88c9cc98dcef8bcc9dddb97ab8d6cabb987acc998
col33:   c87c796a9bed9d8ddbe6af8b987ddbdb99b98bcbdbb9cde78c899cac8ea9bc88c9ca63899889bdb7
col34:   9599c7b8d79dcacdaefcbad9daedccacaeccfbb6fb9cffacb8fecd9ac7dcac9caeab8cc5facf998b
col35:   8e95747be78bba9a69daac9eccbc6ac9ce89b989b85b8a9f7cede6dae9c9b9bb8ccbbc89b6aadb59
col36:   83ac697cc9db99ecbdffa99e77b9ddbbbddaccbde7cbb7aaefcaaaccebda9ac9eea98edca99ec5e6
col37:   8898877a8b4acbc9ea8ecc8fee9c99fbceccfcc5fdfbdbd9ff29da9fd79cbace89c9ddadbab9adfa
col38:   5adbb69ca9af9cacbcb7f9f9deddeacaadbcab8b6fbfecafcf99ab97b89ace8bcda6cd96b78a8ca8
col39:   9d897a79bca9babf58eccf8cb9a9cddb88baab9ea6b3cacc8bcfcded97bbdb97997c6ab5b99bac9e
col40:   9d88dc8a9c9b8ccdfe9c8f9cbeecbce9a8bafcd8aebcd9f8fddddddddad9cbcfecc9999b7cf8cbad
col41:   6648bc69c7facccdd98e9f9ea8bde6dfee9db999af7ea9dabacabca9edaceec9b8c6bbd8ea8db888
col42:   76dc76b6bbfb99bed8bbdd849cfe7dfac9b9edaacd86efcecb9aacd9d9ecfbcab8bda9c9bafca9c7
col43:   aeacca4cd98ced9cddbcdab98becdbdccfcffb779cffbbdf9adcfdbb9ddadbb8a9b9fdcbbf899cc8
col44:   b449aadbafdcbf8bbddc8febdcdcedab9cd597bbcbcd8fbbfaacfdc7b8d8dcd9b7baccceddbcbcd7
col45:   96a79a6ca9daacccdf8cba9c89acdc8bb77fab9c5acacfdd9efa7c8daacbaa89aec6a6bf8abb6eba
col46:   bbdbacba8cdc9bcaaf9ccfcbdccfedeebedbaceba98acebfeafbcdddcb99c88bba798bb6b99acdad
col47:   a79c7daad76cdadbfcfdaebebcccaaad9beea8a9c8edb8e9ddfcbac9abacbbb89bb6ccba8dcddaca
col48:   a495b7cdabaad89deadbed9d9fcbdbfcbf97faebcd9bfaefd9ab9ed9bdcacbd9c999c87895edcdac
col49:   6dea7caacbaafeedd9bc9aaa99bebbbabccd7dbdad9bfececaabfbebabfa6acbcc78aacb8b877adb
col50:   99aa75e989c9a6ebefcbe8ed9fdaacf9c978eceb8bcbebacccdc9ddcdadc8eab8adc8fc9ecbbada9
col51:   c73699b58b697a9af8c68ba8799999bdbaa7a58a5ae8dd88399769ab9b99c88ce97aaae8ab66a594
ROC:	 BPix_BpI_SEC1_LYR3_LDR1F_MOD1_ROC13
col00:   185a7657a7979b8a683a555787798a6888c7889da8c89599bc8896946c8b7a497778bb78b763b574
col01:   98978b7f8da9a66a6989698b9b897cc8ab79cc9aabc478943a97e85a99abc88cb7a4b98b7689b638
col02:   6978ab3ad7a999aa789ba53b85d9c9caba689aadc7b8d78678b59684cccaabb78c9bc896b86b95a5
col03:   8c788c889a69cc8c3b869da8abdbbbdbda7ddbbcaa79ba9c8bb7a8a8b9c7977daaaa96cb67865867
col04:   b87746c5bb867c77b968e9aaa7bab87aa89b87aa8b5a788c7dabc9ca9abaa8ac69996ba98b47697a
col05:   67a78a8879b8a29a8637acba978988789bcfabcbaa99a78797ba8b887cb56ada8b7c6bc859455959
col06:   b645a887c76587b77756a7a8999c9b89ccbadeb9abaa5e966bc8977cebad88bbbb888899c99ba465
col07:   46962c743ca79c7b98aa6a6b867a9cdcb8da8bcb9da8aca5ae7c69a56ccabb9c9ecc455998686a87
col08:   9a63a978b669983a86885668a6ba98cbaaaac87a78da89b989a9a9cccbeb9e8f799c599ca9687351
col09:   9bbb7c699fad565bc8a7b8574bccccd8c989fbac9ba9e77659eb9a8aaacdaa7b7bf9cac7a8cc8965
col10:   7767b6836b7c98776a64bac839b5b99b9ebecbbd99cc9db888b8ab8ba8a7daac77796b7ba69a5399
col11:   b68988a978a4458659557bd8d778da8a678caba9a88ab99aac8888878dcaa8a8c8a7ae8d65888a55
col12:   4a5a5b8caa87ac99446cbbb66bb7c6cdcc89896a7c787cdba78689adbd98bcacddaebd6a77c7ab66
col13:   6977999cb9874a6aa8c9b6d7778b8889d6ea8ba98aaa9aa989d9ac8faba98a76da9a86b46ab97561
col14:   548ba369b7b7b9778a979a85b9baa97bf9d999dbc8cbc8d6ac968babea99b9e66bab994b5ab89798
col15:   4979a78c88856845acb5b98a988d887fca8b4b9cca99a78a6bfb689dc977d879c88bb88987c67886
col16:   91765e688a87983795879c6ace8baa9bceaaa888bcb9c89bccaa9c6de88f99c9bbababd7f9538959
col17:   885868694a4bbcbcc67c9b655b9a877d8cedd7bdab7878cf95c9ba98a79b9ccac8a6b9a85a7a5b97
col18:   88479b98687a8a87b796be695878b87997bb99dfcaaa88677c78e6adbaacabadafab996e7779746c
col19:   79dbb565aa6bb57aa686ad969c9cb98b898bb8b8af699c9dbb786ab8cabdb6b9d87aa69baa8b8776
col20:   2787b773737447477b6aa5abc9ab98bcd9b5acbfbbba78b8a635a888a8adad999e69569aa4377a79
col21:   b6874cb9bb982a85a7bb6b9a78ba9c7a8d9b9cbca878e8a883b67a8bdaba96bc6bacacb66aba796a
col22:   3474569a775489b5487787a6dbab8badaabc8b899aa9eaa9bacb8e978bb9d98c8aacb889da659696
col23:   481458975456474799a96948caaabaa99a7aaea4c9b9b7a963d889c96cbcb7cfab9a9987558933a6
col24:   786b7cbb577565b98179b5a8dd9a899bbbbb9d89ca898a8acbbcc64898ddaa795a7b8b69857877a4
col25:   689b2789b87aa95b9a98bda88bb97c789aa9c9eb6bcabbb8cb9c9deca8c7d9ada8ab67a957978683
col26:   c5998c7db7369897bb89889d9adbba67bbfdb99baaf797bb9399a96ccaca7cbdacbbae78a8979d94
col27:   68dbb876796cb9c8b8763a98ebbb7ded9c7cefbdcb7a599aada69e9bdcbbabc8a99b96bd88cd49b1
col28:   577ccc7b9c6998cbcabccbcba79dbbdfbacbed99cbbf7bfc9beb8fdeaefdddb77a88db9a5bba69bb
col29:   baa7a6866c789c6f897eb87bb8b8ebbb9fdfebbd999ad8ebbd8cbca9d9c8ce8ccc57dc9889a5a998
col30:   99aada96cbc9bc78b8bbddcaae9cbafdbcdc8bde8edad89be7ccac8b8ebdfffd8b9babbaaa896b64
col31:   a7a8a79a787b9c999959a9baaacaddbbffdbeca7c955caa5b9bac9ebfbbdecda99ea896d7977bdc9
col32:   7a9b877ba99989aab66caedc7facb9cacacebdfecac9ba6cbc6daabcfaec97cb88fab989caba97b3
col33:   7b9ba8969d6698fbabada7a8ac88aabcaedbac9edcfa98bc6899debedbdcdadc98bbb7ba8b55847d
col34:   a8b7ba96892a7f98ab956aaadac998ceaceabcdaca9e7bedb6594df9a9fdbbeca99a8eb77bc89e4a
col35:   adbbb889aa7cb9a68b9a6b7a9bcdbdadfabbcbb9d97cc789bddbaa7eebdccdfadddc9b6dd998ba8b
col36:   795997799975d7bba7d98adbddcebe8cbbefcaf7bbbab8afdcafcbcb8cdbbc9ddbda8b9aaacabc9d
col37:   978b56a98d888d8cbaa988bccecbdcbb9ddcb5aaafcabccb7ddccecb9bcb8cbab9ec7abb7bc68ad8
col38:   97dc996b9ecfd8b85aaab8dbbfdcffeeffacfe7aceade9bdadacdebcfefefcddedeab6a669cabab7
col39:   9a9aaaaa56b957c899c6b9adfbcdb9ebbdccbc6bc6a5fcaaea9ebdbbcecafeccbdd9787a8a93caa9
col40:   9a89c5d9ac8b7abba9cc7aea8fedfdbbaefadeabcdebacc99be8dbbdafdfecaafdab4b9aba9a9ba8
col41:   d6c787a67a8a6bb87c9c8abbcc9fdbb9eabdfadaa7be8cb9b7b8e8bdfcedbcfdbcda9dcbcc6b999c
col42:   be579a6b9e7a9cb9c99cd69cfdfffceccbeaccb8eab7baecaaedbcbb9dba9be8b8b9d958ec99c7aa
col43:   67b5b8b689edc88cbaaba9cadeff8eacedbdfcdabaffff9e8cc9dddfeb9edddfe97adbcc7b8858a6
col44:   8d89a8d9936ea9aa799ebbced8e9ddfdedcaaa898b9d9c8997fdbbfeecfeccbafc9ebab6784df778
col45:   cbcaaaa7a878bac9b9cefcbcda8bbbde9aacabdaec9ecba8cb6ec988bcbced7cfaabccb66cdcb9a3
col46:   a99bea9b5a9696e9676889bb9bdbdfcddfaae9a7fecb89daacbbbbc8bf9daeccb9a8878797da8698
col47:   8966ab9b95b88b47cc889babac7cfc8fdaecc4ae8a8c9bdb77afdfcbbecdcbab9b7bc7ab5a5b6c99
col48:   7bbaea7c9d85cc876a9b7e897c8c4edfe9dac97bcb99f999b8ddbbfddf9fb8b98c8c876b9d8dacc9
col49:   c889d976788bcc6da5aaa8fb7d9fbdcacab88ccb8acaa8aae8b8ccdefcd9b5bb9699a8ab8daa83b5
col50:   b8a7b7d9996daba7599cbbda9eabfea9dedaadb8aedcfcb6eaaf8fadbcfddecaca99ab8abaa8b63b
col51:   639a9845847a487ccb589c69bae9fab49a7c578ba8966a9abaab97ba6a8c9a7a987b978aa8483a78
ROC:	 BPix_BpI_SEC1_LYR3_LDR1F_MOD1_ROC14
col00:   2158665322357356823834a2b776597888b63568679969839738b7773925667a7475735a37726446
col01:   83459b656a67674c896d9926a6b7975c8b9998ca7aa6ac87bb6367ac9a8ce66ca78a9667a748c599
col02:   4764975599589a676698c3b4689a646accd9597b979cc99c9ac9d77b899abb9789a4b73ac8ab5865
col03:   77769744b6788a686156ca4a979688a8ba6b89d89accac97a67a7966da87b8ac878869b6986a9564
col04:   633951569a6b988148a377abb33bb8adb5797b57a884979a987a9a899aa6689d859986c96987aa86
col05:   736748969989aa4a8667a6cc595b8767a33d8898a69448a9dba87879cb5aaa576468ca7a88694798
col06:   95138a89a7a767d59d46b7b828876cc56baaab7caadcb8488998697a98ba87a9775a986a58b65594
col07:   789a45b987d4bc75968a7888da8c6799baaf79999e7ca9f9be99974c9b8cbaa766ca46a799d68988
col08:   66672876753598c9875aa97465cc89698dcb5d98b8b7696bc6a88da955bc8b648aa79a49857cba27
col09:   1639975657a356957a58c6a46869895c9a689b9d9c86aaba988985b48aab7467bb6d9a6587b699a3
col10:   2445786a8697b7b74564936712879ba896ac7c7af886ac93ba7954a9bcb78a7a596ae895993965a3
col11:   59261b23678857b57796567c8ba3a99abb988cbb67ba8aa98b7b3b8588d96948a64ca766895b8567
col12:   2988578a49879232cb68a89c788a69ba7a7d9ca8889aa9894758566668785a998c88bb678ab6db57
col13:   4666729bb1d946a87c98655ab9498ad9a7bb6a8b986b9bec66878a878948bb59998b9a856a897679
col14:   567787534366a7a48a8699c657c1aaa8ab7ac9ab98989ad69a99b6a79959ab7c97a9c7c878656a77
col15:   7228696b56174783a66477696b8b86c859dee9b99acca8adb8a6d98988798897699a5977644b9688
col16:   464a78b5a9887756aa37b899b784a8c98aa7abdbd989a8a8ca6997b8ba7a9b9a688667967c777679
col17:   82646a8787844b9797139aa473abd9a92aa9aa783ca8b75b87a79885769a9a79679a4a5848736478
col18:   749a7c6a5759a898388751775677b8d9c8999ca7ecb7856b964d68588777998aaca3a789868a4989
col19:   2457a7745777ba8965799987a7da9b77bc8c59b6f4a8857bd57c2b99bc9aa999aa38999da8a98b95
col20:   8487169377589998a46a8889949a87979c8a9c897c98988777a9998b72ab7b78a68a5787aa7747a8
col21:   c886a55679676997d8cb6554998bb9b7978b79789957679b95b78a766b8a77e789ab79aa6c967965
col22:   6777548857479c59387a56adc687adabbcd5a89a98bf979c58787889889a6a55aab8a7998764aa55
col23:   467a84589596979b3b97a6676ba48b889a8b969a7cb9db8558a5a5777ab9978abd79a89c8d5a75c8
col24:   3756887878684b987539998a4c59a7b79b3b8bba6bdabc95c977db8755868bca9ac8c88796998894
col25:   77d67b8a4655676cd988a81ab7abab5a8c99b6abbbbbea9668b8847859c7b89c866857b68979cb96
col26:   6668e798c8c98689d61a496767889dabab77db3d98baa97cb9aaca8aaba8d79b9977b9b6ad7967a7
col27:   7b99a98c838b868785599688898587a8bcaccbbc999aba6697c98bd8949a9ba96eb9799aa4c9884b
col28:   a95b68b6a7689ac7ac88a4e9c67caaa8dcc88b8a8a7bcb9aa75a4a9cffadc9caaca6a95cda6459c9
col29:   95759868ab97773b9899b58a8b787a9bb89addbaacc5d7ad786997d9bb89cd9cbb998b27ac98b878
col30:   637896c89b8aa9a99999b76bc8ac6cd6bbab78aab979edba987ac639e88da97d9caaa86979cc88ac
col31:   86c6b9a978bcb8cec37cacbac9f8dd8bedabbbae9b7cdcca9ed89d8cc7ddbbbccbc6d99abc888a9a
col32:   7a38d88b9bab8bba879a59d88b9d96998ccea9ed9bcde7bcbdaaea9cdbbecb8bad8b8b8cb8999b59
col33:   a6778cad77bc97a8888697999b98a8bc9898ebba9bfbde696798c788bac86b9b98cad89aa568c85a
col34:   b9b66e68b9a9b8b7ab758b66acc89bddbeaaa8abfaddabbadca98bcedde95dcfa49b6cabcbaa9664
col35:   88bda7b6b49a4b8abe685fd9a7dcbabc76b8b7acce6bfce8a9d8eac9cbcb99b9aaafb2dcac878abb
col36:   687aa9c9888b7b9aaa8ab9aac96aacb99ada9ecebbda8baad8aeabbacca9adaabb7a878bbb7b665a
col37:   79bbeb69b8ab898998786aa8c7b5cc9cd7aecfcbc9bdcecabc9c9cfcdccda9bbebd98abfba787a7b
col38:   984998aab5bd8976aaa88d84ab8bbafde7bead89ed9abbcaedd898eff9bfacafadecb9a8db9cba77
col39:   69a97b9b8d79bdbbb77b9cb75acb7c8eba8ceccccd696dcdabdc9cabf9f8bcade9d7dbaaa8a76798
col40:   966d5aede9dbcaecb67baacbdead79fccda8d97cdabacdeb879ae8daf8aeaabddbed7c8cd9a98947
col41:   cc467b8cacb88dc97a857ed9ccec8bf6abdffbc9e9fffe7c7aac9e9a9aaaca7acadccad6accc6b87
col42:   b8797b9a7a9c9a9aad68eca8cadb6a9bcabbabcbaab9cb898cb8dba9c8fb8f9dbaab87daccda65a4
col43:   c57ab8997aa99d8cbc7ac8ace6aebbc9bdbb9dceeedeaecb7caeeaddbbfbedc9cdccabcbcc839b6a
col44:   9acebaaaaf886df5a9c98978a79dbdbbbe7cfeccefc89bbc8abc9cbdbadb899bf599a9adcb9b8a87
col45:   3aaabc8979adac8795cce9beadaacabad89acfcd8da9fafac896fbcb89bde5aeac9e9aeced9a6b97
col46:   69aadb77a9b737a8ba79dba9a899cb8dae9fdcaca9bddf89cbcecc77b56f6fadea9ac6abe7a99478
col47:   7dca879cbcdb7a6a8ab479be99bbadaeaacdeecfaabccab69a889baafb9dc7ba9ecc7cbbcaeabb65
col48:   b98ab875ac58a899789de9a8bdba9bcabc8cbcdbc9ac9cdc6aab9d9a99dcc9cbc8ca87cccaccb786
col49:   adaa9caa8af8db5c9c879daaae7ba997b7de8caddaaceaabcda79c9ebda8a8c8e9b99ec9cec7da97
col50:   7799839aca67dceab99abab8ba99b5acdddcebefbfcdcbf9decccacbcdaaaebbc9d8c899aaadccc7
col51:   c9676a96597337b679a676a973b98a98adacbad9646a9a787c69b78ac64aa897787b8588a74ba796
ROC:	 BPix_BpI_SEC1_LYR3_LDR1F_MOD1_ROC15
col00:   8698b588bb8777856779a8aa987ba8c57a78b65667657898b9787998a96c99d6bc69a73a665ba651
col01:   357ab99b8597777b99785c7bdb79a9cb5adca9a978889ecdca99e6765baaba8878bba759c7a9c987
col02:   5b87963999bc97b8ca56a98ac88dcababb95ca8bfa989c7ca7c8ad7acaa989da866cc88679a77966
col03:   9588aba6a8aacb7987a7a9887fa8ccf9cd6b8cc6b28bcdb88abbb5e9cab8ddabb99497a39abc98c7
col04:   779b8a9b799bd6ca9bbbac7ab8edb98a889dbaa6bce99e497dabc9dbdcacc98abd799ed8cb4ba8fa
col05:   666aeaaba266a9f659899eccf8b99bbae8aa97ca8aad9ec97dcb7bba9a99c87acba669ba9cb6ca6a
col06:   987969c6bbbdc3c4877d98bbb794bbd9e989bb98c9b9eb79d9cadca9997b68bfd998eb98bd87bca5
col07:   959ad76cbab7bfa896acb6c8badcb9da8bba9d8e78aa98b88887bbdb98a7ba9aa94ade77d98bab77
col08:   94368775966a7a7b7aa88b96b97fbbcb9789bb83999cc6ab6d6bb9dbd9b95dd85d8ab9be8798a676
col09:   669798a7898a6a7b98db7ba8cfdb9b9aada8bdbbc6b6b8cdaed8cacbdceaf7a9cbbba77addb7b7bc
col10:   486ab58856bacb89b9acb6b9bdcb9c6ccbcdf6b77abd9b8ac96acba8a8bbda7f99a6b7e45868a87c
col11:   8971899a7b558a89e677e9998f8cd7b9686c6766bcba97a96ad77cbf989b8b8cfa9a88aa9d7d9a7c
col12:   568b9a89c67b8988a6bea87abbf8f75deeb8967aada8a79984aadddd889d1aad999f9dbe6958a985
col13:   a558d8a6a768a786da88cad9b8ae9bdad7c999596cbb8c589abceb9cdcc9aa99d7969eadac87b848
col14:   a7aab959c495a8587b79aa8aa6abaacdd59ab97c88d6ca9e8a87c8a7e9abccadbcb76a46b6999999
col15:   3a867aa838979aba99a8d9c89d9a8b9abdb99a89d99a887aecbbbd6bf9abcbc9c9fa84a8b79b68a5
col16:   88c8a4a4955786bab8697e8be9ec99abcd997ebc986b7bbb79dabdaaacdfedccc8a74c4978aa97ac
col17:   b849a996648ba9869bcabf6bb9aac9c968bb9667699b57ba6969bdcc73a8aadd2aa95ab87a8bb959
col18:   9479867489786c8ca57a9bd8db86dce59a69abfd57abbb7bcb8bfa99aabc6ec8ab89998897aade9a
col19:   57677a898a88b78dcc8d86a8cc6b8b9bb988caa66d9cbbd979cbc8b8bb8a7e8b9aaa969a987975a8
col20:   8737b877a77c9997876b9bcbc9dec5b8dc7bcbb6b9dd9cc98cc986b7db979c677a857a69ba98aad3
col21:   865865c6c76bba96858ad8ca99c89acaec8b9db99aaf8bbddc9ab77abcbdd8e867d877cc8e78b775
col22:   388b9837ae6a7d99b8aa9ad9bbd9ca8b7fc8a9b9889666ddee9bbbe959cdd9b7999ba9b6b7979a8b
col23:   48977596488a899999688aa89ab87b9c8a6b8ab8958fbb68c7abdaaa7eed88a7cb84797a69c7a899
col24:   98aeb64d9dc9987876c6babaf8d7b8bcbcc68668999f77ab799abcbbcac9b87c8fa9db6c9cb6788a
col25:   66a79b9b395a6b788aac999a9dcd8acfb9ad8b7b5df7dbdeccbce89cdc7b7ba6a992aadab8aaa69a
col26:   996b782a8b96aabb5a9cbac7bedcba8dadbc8aecaabecbbfbcbcbcbbabdbcd5aa999b8e9c99bbbe7
col27:   9889bb8697d7e9babaaabce7acfaaabeaaba9ad8bc9bbcda9cbdefeecf9bccd87daabac88b6ab98c
col28:   6ca998b4c8ac9ab8fdc9bebcdcbbdcb9edbbcc9cf859b7ac9b4dd89af9eadcdd7aaba88abaaacab7
col29:   88988ab9ada6a978bcebac9d8fda8adbba8acde86c7bbefcbbb8ccbfb99bc9cadc8bc89b86ceacb8
col30:   7767a78bcd9b8cda9dbcdadd989cbde9cbcbfbbccd8c7bcbbb7afc99abc9fab6aec88c68e9aa8daa
col31:   679778aa9ec9b59beccac9dbea9cdfcbfab99cbaabcbeba9aeccd78adcba88adde6edeaeb8dedadd
col32:   6998ebbdb59988abcbfba69ebbaddda8cad9caddacccead8bba8ec9bdc9afe79ae9adababbbaaeb8
col33:   7abb6ac87ec7a6cccfffecbbbebedcbedb89a9abcf9a8afeddfde99edfe8be7f6bad9bc77dbd8694
col34:   95aaa8885d6b9aa9acab9b9ccfbd7dacca8fdb79acb9dcbc7dab8ecdfcebbdadbd9fabc5f7b68b97
col35:   c6979ab8aa5bda8daba9cdc9fdef8ad6bbb78baa9bdaadaecb7dcdfcf8c9eaa9ccadd869ac9e7a8d
col36:   9669d96acbb9adfa9bfcdea9eda77e8cb8a97d89ddfbac76cbcbcac9ccfdc88ac9dc9d9c7ad9eda8
col37:   a967baabd9aaaa9cbeaedefefb9ce7fedbd7a859c89abbcafdfbdacad4fddeebabace8eefb9bcabb
col38:   d8d9d89addca9bab7bfeaceded8c8dfbbbbf8bacb9ce9bceacc7bafdcccbbb9eabd99cbeba93ddbd
col39:   9688a6da9ac99fcbbcaaccdee97dcbeeb9abdee87beaccddbde899cdeedbcc9bc99ef99a9bee98a9
col40:   8dc6bb89b97e8cbbf9efcccb9daaccbdeb9cace8ca8bbad8b9a9edf9dfebdfb7beadbedc7cbcbaaa
col41:   bb4e8aa97ad99ac9bacdcccddc9ccddac97adb9b99dbeaccdeeaebbcabcccbcc9c7afb7c9dbd9fc9
col42:   c8ca88c79abb97bd7b7aeddddc8cbd999ccfb5bacafa89f89d8f8decddcbecfb6d76eded6aacdb77
col43:   78cd8ca9ba97dcbdacf7faadbbad7ba9accc8dada9adebea9a99cbbbdbeebdab9d9b89cdcbb8cadc
col44:   ca8cadb99bd9cbecafddeb7bddbab9c8bfb7c9aaedbbc9beebcc8edfeccaddbcc389dae7a97d9e9a
col45:   5a9bc79c9a8bcc8dfdeb9ddac8acf9ebdda8bcccbe4cfdaa9dad89cacfcbfb9ce7baccacbd9de8b9
col46:   bc7abbcccdad7e9be8c9bcfd9eabfcddcd9bb7dabacabacaddbc6faebacdd8e9c7abbb9aebdbadcc
col47:   8bcba9bbcee9b9cbc8976fbdfaeb99aa797aaad99abfcac9fccdbed9bccdc9c9b99aba8688a7daa8
col48:   bbacadbad9b8fd9bbbbabaafdf879c79dacf9ad9877ebdc9aacdffcbbdbbaf7d8d9dca7cdc7adce8
col49:   8a897ac9a97fcfacefcadadacc8dc7f99adbacdcd89aeecbda7d9bc5caccdab7c998c8e9dbaabafb
col50:   92799ab8b77d5b784aa7dcbcfbcbcdbbc9faceccdfba7ecbffcdafeafc9ceba9eb7db7bb9fcfcea8
col51:   385926678997687aa798d97a88ba98e79b6c8e896b8798abc6bbaa7ab8688a4879787d6a577ca9c5
