ROC:	 BPix_BmO_SEC7_LYR3_LDR19F_MOD3_ROC0
col00:   366578867448872969869c8478798999ba7789ab6d5ab847b99a79878777995899a65ca7a37b8a44
col01:   a8b67ac7956c777979ec7aa966da9b9a969ab7ab8b9d9adbd86cec999cc7aa7868589b6b7745b838
col02:   7a484aa2b8a89ab5886bd9987aca695cc9989dbc95a9ab6ebcbeee7a8dd8ab9666a48d6ac8aa89a6
col03:   64897a8b471a79567b6dbc7add68888cbd9cbda468afb99badacba98fba96d8774c96a6c78876949
col04:   aa88879a578b649578b8ca7ad9ccccb97c99aac4cbc89aca37c8c9afaa888bbd999b8ac699979886
col05:   b8998a7657383a877c66cabd9b77c8c8ba5bc6aa8abc986c64d87c8ccbc7f9997c79c887589a9b85
col06:   966889b9772e8b89678869a9799886a9db9ab87c8daf8c65d7b8cbdab99bb47bd95b88a9986896a8
col07:   b579546925889ba8a978d6a88dd7a5c6acaa87dadc894aa8a97c6a9acacc9ccbb67bcc799a98765d
col08:   9688a78864486bb68b7bb67cc68cdcc8acb7a8a8cc89fac77b9968c9ac9a999bc88ecaa7d8984855
col09:   ba4b697d8b898c57d9679cbba4ccd7bbc8d76a95a4abb6ab5edaa86bbbbaab7db68886988aa8b98a
col10:   59b1657666777b9a89899885aabb59dc987c9b8aac88b94dacd74bdc9aa6c4a67e88589777a98997
col11:   aa82968b9698568588b9a49b99cc8a878caacac6b99bb9bb79965bbacc7cad9bc5ab479a9a8ba7ba
col12:   66a88b876869a7b49a6778794a9abb66889a7aab88b898b59b9fcc87ca7a7d8aa779c656779b7984
col13:   b5788996ba797a886abb5a9b7a9b9d5abe4aa7ebc8d92ec7d96998eaea86858989a99647887a6793
col14:   4b555a9d3538c9d9574ca7b8bc6959c878ccab97cb769abd68ccbaba89aacb989997b55897987ab7
col15:   aa495456ad7898685b59985aa7767a88ccac98488ac9898b6ad87a78cbf8fa897abba56ea68c6866
col16:   5aa978c7acd67b9c96a977a9e88768d9b8e99daca9ad7afa998fbaa6dcab7978779685b66c797b96
col17:   546365b4c7ab87c9784caa8c89aa8a6889bf568974cedb567aab59aaa8cb6cd8964747879a5779c3
col18:   7662977b987a956c58a76965a6d97998d98cbc9aadac79b9f9a87c4d7ddecba9b8b98869aa455ca3
col19:   b35a6b4474a637d76c78b767b9cba679a66abacaa7767f87aba9cbdba869a9d67cc79bc8885cb2c4
col20:   ac69845a85966a984777b988b988a8abd4abe8a5ee9998c9969e9b9cdca3c86ad9cc879bc7643b97
col21:   665576d389765a8dcbd5b7979bd98bab4c5bb6bdb997b977d768668cb7aa7cb35b8adb96ad5a7693
col22:   4b5cba56a28775c89cb976ab698cb999dec59aa97996bb96c6bb9dacb6b9f5aa77bb59b99888b9b7
col23:   6996b577a88aa98cbba6aa97edada9e7dabaac97ba89bab98bceb6699d977b79bbddc848795a6694
col24:   7b78a265875a9879cb5a6aa8a36cbc8acae9687a8cbdeb6b888bab8ccabda4bbaad8b98ab597aa75
col25:   6b966a7268b967346899d8aabbdd9899669cadccaa99ce8faa99c4cb9998cab88aa789e9b89d79c4
col26:   b7a6a8967ebc98586c6cad8bbcccc8bcacddccca8ecbc9dfdf8cbbcaf6cbb9b9aa6a8898c8b9b895
col27:   ba596497786ba89cda58e7f968abb9ccd6bd9cb9c8acdcbabdccc698b8d9ad9cda9a899a57b874a7
col28:   7d39a9a559baa9a6ca888b8acbb7bbeebbdd8baf6a8da9b8ceddcceafca6afdd9bbacc6e996b7798
col29:   89c789cb679b6a9c9b66bbae5ad8b87b97bcbeac9da89dcbccc99b7fcdbcbb999c9a89ca7aaa59a5
col30:   a78a65e87e667df77a698acb99d99cc9ddcfa8fbcbcacb8c7dddcbcabcbb8dceb9b8bb96da4b748a
col31:   a86ac6b868969a58a7aa9bba9b889d8b96ffdbfbfe8aa9dad97ac9bedcbabfb9ecccc9abcd74a8b9
col32:   99849869dd6d87d7afdbdb6baad8bacfffbea9bccccd9dcb98cda9edb8dfc8cadbbc89e7b77bcb77
col33:   9978cdaacb6bba88a99d8aaabcbaeb9acad9eaad9b9cdfffcedbbbbcbdcb979d99b98b8abbdbaa6c
col34:   6ddb7aa388a9b58cad7c9b6abb7c8dc9f6bbbed8d9f9dd6dacbadceefbeccbd7cbe9cdab89d878b9
col35:   98c8bca66ad895d7cba997b8dbcdac9a9b9a9aadbbacdbebdcdeae9cfb7f9e6b8bbbb3acbaadcd9b
col36:   99e975c989de75acdc9aea9cc7cfc88bbaccbdedcdfcecb9daecddffcfbbb8a78b9a6b9d99bbef46
col37:   88a9ba9b79a855caa8ccb7bb69cabecbefdb77ec7dbdcf9e9cae9b8afcd9cafbcdb8eec9cacbbb87
col38:   49eb8a9cadc7abb99a697c8ecda9cdf99dde8aab8fcbdcc6dce9adaefccffcdcbebffacf76da97a9
col39:   5798ba7aa8c4bbaaaaef8f8ba99a8bcbdfadfcddecfacbaeeddfbecbbdffcdbb9aabbfe98ccbbbcc
col40:   73679cc798c59cbc9b9e8f7ceb7aeaacdee9ddfdbceb9bbacbedbacfe7dff99abdaec8ca9e6dbab7
col41:   a88d55e9a8895bad8a747bf8f9cd9bc7bbaadd9fca8a6ce8c8afccbeaadc8ebc9cbfeda9cc79aabc
col42:   ba859784c577c89bc59a8b9adcedbbacc9ad9ecbaababfce8feadeadbabc9da89bd8cdaeaedb9ae9
col43:   9d8a78b887878b9a89cc8eb9facbf9aeedde9f8cf8ffabb9f9fc9b7addcbaa8cb68ee59b9a9dbb78
col44:   6a8eb7bbb8c689cba8b87abebae8ffba9ddbadacc9bdedecdfdeda9d8a7ccbcdacee8a7dffd889cc
col45:   cb6a786979abaeada8c3bede7aab9adefd9ce9dfcba9aadbccbc9bcf9e9bdefcde7eddabba7bbfe8
col46:   58c7947a9c9b99d8a9bdfdcafd55ccaddacedadbceee7cffdbdffdfdd5dbdaadcdc8ba89d76aeb9b
col47:   89b9ff6b56ad7b5c8b9ccf98c8dfeccd7dc98eddbdbabbc96b8eb6dbafbdc5f9cbb999bc998ba969
col48:   baa9b988a6c97c9a8c8cccbcdad9cbcbab9cabfec97b8cabdfacdb9bbdfaeddc7ebcbbabcc9aaadb
col49:   a7c97d7a6af5b7c5aa9d935a8eebbadddccc9d3fac8d9fedd3dac6cfdaa9fdcaaccaaaa6eada6b7c
col50:   db95acaa849acebb7b9b99dabfdcf99cb9cbbdb9eafbaeefdabcaedbcbfbaec7c7afa7e8aac9eaec
col51:   88355953c9ac7b9785ba299d85bab6a4bca9baa6a5cb9aaa98abaebcabddb97c99e7a7acad78bd76
ROC:	 BPix_BmO_SEC7_LYR3_LDR19F_MOD3_ROC1
col00:   883729a4a249a7bb57687d97d7a8bc988b8b7b37859d9a7bab7b9b9cb8867b9975b57975886784c6
col01:   b66b6c689848bc989bb7d8c68b5c6a9bcaa8c889bcb476a9858b96a9c6abc7887889977c7b67899a
col02:   9a37a99895a989a886678a686b99dada9696a789b9984ac99cbb9a9e96ad79dcad9a86bbcaac59d7
col03:   9898997797649bb5bba69dad7abd48cbcd9b87cb98b8899bb77dac8b7bd899c9dcd7868b9bab9896
col04:   65c9a5996a787d98b468adbbba9795a98db9d5a99cbacbc78b99d8897baacda6ab8bcba689869a6a
col05:   67685466b94a999ac899ababa9f7e5b8a3ccaa6daa7989968be887acdb7cc8b5b99ad591bb7d6768
col06:   64ac678778a9da88cc9aa96cba9d868ac87aecebbe7c9a5a9fbbadcd78b496ba79abc78bca99d8f8
col07:   9ab57a7689827ba7953a88a8cf7589ce5ed9b6f869ca45d9be8c89fdbdbac99a7aa87c9c8c9b669b
col08:   6886c74998387289878ca9998a75a7c9aa68ec89aa788eab99cbc6898cb88c789a68ada779895987
col09:   789799ba7b998a8b8697b68a78ba7aa95ac9dc878abbb8aabaebeb89aa768bace769ba9787a89d74
col10:   3886363598874a99ea5d7c6cc9cb58cbd6bbc8ca99dd8ccdb98ababac99698ac9c9b99c89b76abba
col11:   47ba8879898b69ad99ba7b7ba597698a889d8897c89acc769e67c886b8babd56e88cab8aa7997665
col12:   6a8a79a3a692948bb56b4758b8ab7c9a9accc89c99baafaba86aba7a3deba6a9ab8a8999888a7ba9
col13:   a594877867752fc87769bb7d6dbc99b9b959789bbcb9ddbd7ba9ba9d8bcd8bd966887bdb648578d9
col14:   c819a9555ba35b7855858886a6da6aa87a9cabb97b8999b9b896e7bcdba898abbcc7886dac929777
col15:   587aca99754c97796c9aa49ad9b8ab9c9d789976cba98daaa67bbc5efdaccba799b889a7677a7888
col16:   67779a5695569d7a7a7e6c798798b9a8bcc99cab8c8abab6898a7aaa9bab869d97a8dc9bb97598aa
col17:   7b9874763577896baa9a8c9bdd756b767babac8aeabd9a8b895c9798ab798aa868a7aaaa683675a7
col18:   e4876767b79769cb77c6ca6aa87e6ac9ca88fbdaad8e6da8989da9d6ba9bdaa8a8c96c99a7c59a9a
col19:   36857734747959997b9a76d5a9ac9d8ad79aac8ef89cfcd8c95aa697bcbac7d5797ce9bba87899a6
col20:   699995589b748a97768588aa7467b8b899aa8b8999aebfa8adbca8baba96db997acbb88988534ab7
col21:   8a1854b6677a7887778b768aaa7bbb694babbbf8c9cac8a9d7abb7adcb9978a9998aa8b8aa8a5a49
col22:   9186b92b68a7998b88b8b9798989bab8d8aba99c8b8969bbacacbdea8fb9ca9b9a9c67a6a58a8ba5
col23:   257847667548b86a87bb59a898796beaaa8a9bca98ad6c7aa7a78ca77988c55aa9a7a9c799567786
col24:   34a76669a783a946868849a9c6cba8d6acfc5799cbb6b8c8bd88ccb588b5989996aba7769c447685
col25:   678866778758676baa69b6c77986aa969a7a5ba8ddacbacaacc78ca6ba8a78cc79d975ba393ab998
col26:   a598b9a57947d89cedbe9497eccab9c8cfcba899df7dacbbafa5ebcab6caea8baea8a7d8c8a868aa
col27:   486b688a4989baa87999bac97b8cbcbd9aca7afcca9ebcbbeabd5bdae9b7b9ace88e98b8bddb9889
col28:   aa858777cd888b6eb5ba8dd9aea99bdbcdc6cb9c99aeaba9bad9dc7ba8a9b8facbec9b8c7c87cb6f
col29:   b9ba938999a99bb5875e8cdbc9bba96d8ddadec7aaab9ebdc9cd89bcdae9cc6ecddc99cdb69aaca9
col30:   b74847d99d49dbaaa798bdadcc7dbce6caeebaaabe9bc88c9b6a9bcc9bb6cbfdc88fc789cd87cd9a
col31:   57776b8b8aaada8a97ab7888eadc9dcacdcedcbddbfbd9dd7babcdbddcbfcadcbda9cdab79c8a788
col32:   78dac7d949db8cda7fae6e8dbb99bbfcabaddfeb9dfdcdda9abc8abceafccadaeaa9cbb7c77e7b98
col33:   a778d9ecaaeb8a7798f9afa9c9b9caa9dafebf8f8efbafdde9c99dded9bdaaaa9ca9da9fbdc6cb79
col34:   7496669b4af8c9c8b38b9ed9caeccbfcecc89bbed9addcacb8bbab9bad9cf6c7df9ebccd9cc8cecd
col35:   79b978bb7b8b7dcbdbcab87cbaadf8dbaf99c8ebcbcabdbbbdaaf5bedccbefcdabb8bb89a8caaab6
col36:   1598daba9ab8a5bcc97faaedd6abdabc9adbcccbabadbb99dfddbe9bf7adbbebfc9bec889badddb7
col37:   988ca7979babadd7cabb85e8ba89bdcccda9aecccacadecddbef6daacaaaf9bfab8faf8fc9aa6dae
col38:   5d9cbcaedbc7accb8ccb8c7dcac6ac99fffdbcdbfbfd7dbacecaddacf9d8bb87abbeafedacaa6bcb
col39:   9855799aa8bcac9cbd9c9c7cccfffb8accfeaefbcdca9bab9ff9ac7eba79bfabc5fadacdbfde9cca
col40:   8777aeca788aac99bc9cbacad9cbadcdaccfebeed7d9c9eb9ae8ac9fcdecb98de889fad67bd88cb5
col41:   b3777cf967d9a8e6d5a7c8b6a99dcbfcac8eddbef8c9cdbba8c9d7dbaf9dada9a8bdabcb98b859f9
col42:   78966898ca8bbb79ac8748ebdc7cbfbdfafcbabdabbcbab9adecad8cbbcedecc98fdeaccebd79bfb
col43:   cb8ab8bbacbcbbbccbbbbddda9cdb9dccd9decfbebfdbdfa7bbc8adbfeefecffacddbbfebedd9c79
col44:   98878dba878c8b869babdccdeaccb7dedccbfefddad6eb9bcecceddaba8b9c9dccefbabbfebbc989
col45:   d85b889a889bd9b8cc98a7b8daceeadc7efab78a9eecc9ab7cbaafffebabfb9b8d9abdacbf9c86aa
col46:   8ad8489968988edb8c88debdc6fbdca9e76ddc9accabcc89aa89accddbfaab78888d9bffdabb89da
col47:   68a897778cf9a7dab97d89a89aecdbaacd8cfccbbdefdbbaac9abadccb9ecc88bbce9dbdff9ef9ce
col48:   ac99b88989a7bc7bb8baaab7c7dcbdafbcdaacbcfffbc959dabccdcbe4cbdcaa797fc6acc7aaadc9
col49:   7b5ccba888dbbe7d8eacbbb859d9de9dabdbdff9e99ededcbddbd8bcabccaddbd8cdbcd6cd9d8a9c
col50:   9bbc7988abc7aa99d99c85cadcbacbc9bdfbc7accec8e7bb68ccbb5edccadcbcaca9dabddabdccdb
col51:   7745c94877a6b598bc7ac975357a8bba787a9a77da8da7b9acab86cdd8babab4c7689c798d8c9964
ROC:	 BPix_BmO_SEC7_LYR3_LDR19F_MOD3_ROC2
col00:   989c3967788bb59dbfab6996a69799bbbd78d898459a876aada7ab87ac9aa6948aa723a85b687658
col01:   8cb698e97a88c7b6b98bd299a99b8d767ac498bd7ba85a8b7a9b9f9c6ac8ca777dba858a8c569536
col02:   b698a74aa9b876ab7a6dac968a6dbdbcbbcadb9b8879ea7aa96c5bebaebbd57aa9b888584a768896
col03:   5bc889bb4678becaa7b8bc9bee9aab8af9bbac9ebede7bbdccabac9d6bad7b8da5c39cb5a7397836
col04:   6a95add8cbb6ba9b6c99bbfcca8b8bccafbbf9bbbaccc7bec88b9a866a7ecb7aca8895cc9cd68b87
col05:   777d889779aa89e7499aac8aafe6b9d96d6ab99c96a6b7ba7a6cbb77aa97979d7ca998b898b75a46
col06:   db8b6a6ac989899accdddeb9976b7ce85aa98ba9bdaad7c7b799c8de9d8b77a878ba9b68578ca9a9
col07:   6858cb97ca97e5da89e8d9baee7a9bc9aadbba974e9ba7b689678b7cc8998ce6c66b87ba97aa6554
col08:   cabbcbc9bb9bb99bc74ecc99979b8dbca899a8dcbabca8d8c89d96a9aa78eaa76a882b7ba7447766
col09:   a88798a4896567bcc78addb58e6b8b89d99d9bdae98eeba87d59683388cc88c67c49b88ba56a69c6
col10:   78b5a7bdacabc885f9cdc779b86899a97cbc6fdcbbabbbdc68debafb8ed78ac8a77ba97b879c5614
col11:   7875c7fa798a9a7d57d6797bcb86dbdc85d5c9898acc99a9f9a9a88886b79775dacb4755769964a4
col12:   9bc679939a634a6bea5a48bbb9bd9a97fcaabfc9d9fcab8ddcbac4bbbaf8ae9885babc78a8889d59
col13:   8559d598a64b6796ba7a4bcb69dbc7aadf98deab969687baba8bdcb7be9968a7c88a99ab55a86774
col14:   4aa596a8c478bd79d5afb9ac6ac797ceebcb9c6bc267e95aa6c879e798ba89accaab7a5aea98a945
col15:   a7476c9aa6a655fc987cb656ac7a98a9fb889c8faddac8b79bd68e87ba7d6a996bd7c574975887c7
col16:   ca98c575789baa5c5bc7bcab88bbcd9faab8c9a56abb89d9bb9b6a9aa6789a69ce5a8786cfb89b31
col17:   896889662d944879739768e9b86a9bc6e97aa9587c488bce98b7ba5b789887b97864977977488838
col18:   bb978899ab9b857daaa86acd88a966a8beacaba6acbbbac9ad69abb4aba9c869a3a78a8cbc767657
col19:   9997a9c89f66b978b969b5b9a8898b787abca8bbce997985bb6a6b69b97a78b87998579c68485953
col20:   a75e8b87a88ad8bb998788d4b7b47b6bb7c7dcaecba5886ba9da7a999b77c68569a75a9ca6a6a7b1
col21:   85f7871848769a676ac7a887a99d75c7accadd9cb7ea8bc86a78ecaaac7c877a8abb5c9b738738a6
col22:   7639db767c96b87678caa895dabe8a897b5a9fb9d9b5a9bcacb7c3bba7a8bab1698aa877a8b478b9
col23:   ac68c73c784a878b683bb79987797bba97d767d9786fd9bb9c795a6a9b6bab787b66479a39b7a776
col24:   8495977abcab6a99aad9dc8bbbd88b9bccc9c77aa8c96aedac9b569a81c9a86a977a6b975a849585
col25:   b49b75a84b968ac8996898929bc4688b76aca97b3a79f886c88aab9c88eb5849dc548b94da889877
col26:   da9b7a886697d6a99a8db988acfc9a9a9e98bb9a8fc9a69fcbfc9aeddccabb88b8747e989a79ab78
col27:   995998ec8a6a7acb75a8d8bcb97baca8acbbba9a7ec9ab8bc8ac9eebcb896abd9a669abaa74c817a
col28:   bb6a6baeb9cb8eca6cdbbb98e8adfea988b88cabfd9acbbfda8fd5f9faadab9dbcedaee9aa8d8898
col29:   a8cba97e479ba8ec987b897c9b8accacd94acc9d86d5dcbaccc9bb797d79ed7aa8889798686a3476
col30:   b5badb8da7a7c9fe8bccc6dda6baa6caa9bdadf98cdebcb9eabdcb8abdac9a9c977afcbc689a97b8
col31:   7daa42bc8e7b897bcc8bb7bbacfdc76cdbedc797ecbfdec6ac88bcc9ca9ea9b99a86e9bb775665b8
col32:   ca96b967bcb887bb8bc7ccac9dba9df9a7fd9b9aeca7dcddac98adcdcaa9b8dbe8997868a9cac8a9
col33:   c87b8cc96c887996ab6777d869de7adae97fcbc8dead9d9bcaa999fbdfcfadbdcc7d7a8699add6af
col34:   dc9bdb75db78ceafa8bbaa7ceabfc9cb779cfffd9ba6fdfeeeebeebdb9ebce7787675a9b77ba84bb
col35:   cc959a8aaabec9bbdbad8c8aa78aea879abbadcbc98ce69cce8baf8b7ddbc99c8c79dc97685f29b6
col36:   a787877d7da888ac5aa9a9aafba696fdb8dbb8ebcabcccecf98ac9e9f69ddcdc9699ec9a847a6686
col37:   89d8bc9678b8ba9ba9dbca9adc7dbbbe99cf8fa58bba8c978cebaa9e9cabbec5fbfdac789a676986
col38:   846cacc8b9daccb987bdbdcbdf7fdd78cdfdfcadedbbab999bcacacfdadc8bcbd98f8da99c8d6866
col39:   9d97a9bb666678ad777aa9e9abaaaba9a8eaebe8eacbccbaabddac8cddbffaa57cdab877d757b7b5
col40:   c7b46baa9c989a8bda8cbbfeccccaefaccbdbd8bea6c8cac69aa9ddbaeaccfb9a97cd98bb8b67cc4
col41:   9cc799b6796a9ae3c834b9aafaa59cac9ccab7d8a799bccbb8998caadba8dbba79cb9a766fa6daac
col42:   cc9ab8ed9dc9a99bdbc7c999fcf8affdababa7c8c9f9afd7cafdfabaa9adebabaebb79e8cda9aad7
col43:   959698b9587e8a84bd9fc8a999c9eafadbcbdbadbd7d7cda9afb8c9caa8cd679abbeacb498c9ac77
col44:   9f9bbd99f9c6c8c999b9fce896ccfbcdb6bca9bfb9cfccacbbcfaadc6e79d8b7debbfb97875cba86
col45:   b9859ebb7acbab9a79ca6fdac8e9afe87b6dddc6aedddcb99eedaabbebc8cc8b7ab67b9fa8b78a74
col46:   ca9b7bbfa8c6c9ccb8779eab9bdefd8fbd8dbfa7dbbcec9bb79cdacbeffad8c89dea8aca7b6fc578
col47:   ceace679b987bb97779bb9779a6aae9ffbcadddbbbbdad6b8ab9a7fd8bde79c98b9c6688baba8994
col48:   5cf97a8899d987ac8b939bcba9aa8787c9bde9b9b9cadae9bab898ffb89d778cbbec9cbe5ce9dbb4
col49:   db8cac6b8a8a895d89c98997fc7be9979b9dbaa9bcfbbbdbbce8ab8dc9ca8c78aeb9c88abac8488c
col50:   b7a8abd7c7abbcd89a8a7dba97bcdabcbe8c87b9d9db3c8cccdc8ea8afbe9cccc9bdcb9a6fb8b779
col51:   79b717ca98a6ab4486377b888dbac98b5789aa979daca78779add99ad977ab99a89a6388a47b8467
ROC:	 BPix_BmO_SEC7_LYR3_LDR19F_MOD3_ROC3
col00:   aa9c5b74a499386b67b75c8a959aca9896c8466a879785ba599cb98a97acd957789a58a974764795
col01:   aa4996646856858787b858d7a9bdacb9aa9aaa8b8e9c5bdd779ab84ba7a8bac668bc8696a47a7a85
col02:   9a388a8e3a877d9956cd895979acb49a8da8ac99ba6b98da9c8eaae9aa98896aaa8ba6859ac58978
col03:   9a9aa978aac88b98baabe97abdbdacca8ca65bdaabbceddbdba9fc8b98b99aba9888866a6bab8db7
col04:   978d79abb75aa89878dc57f9ca988cb99b9aabc68acc9ce8d8a9ab989cf889ad97dc75aeab679671
col05:   ab97889badb9a7d956a8caad99c79ababaacddc6968de9b8beab67dbe8c98ac59cc66697a9855b86
col06:   d88bbe6c959789b9bdc8adcabbbccb76cf99abaa6aca9b7d8d8a88b7cccbdacdabd896b7aa689a8d
col07:   ba7a77398ac77aa5b77c98ab8778c6a7a9cc9cf7cec6ba58ac8f5dc6bbad7b8eabdfa92baba89866
col08:   87598e58979a99d9ca7a998a7bacddafabaaa79cd8e6d8a5baeda6ab8a7ae487789497aa44a77a97
col09:   99c9686b8c3a97a9abc68d6aeca877b7b8dc8ccbaa8acdcbc8ccceddbc89ab35db8aad5ab7799753
col10:   59b37377abc778dd7889cb977b8fa9a7c87d77bc795aab4dabb88aabbadbaa79987b9aa6c4889789
col11:   4aba6598686c47bb298a7b87df7a7dc8987aca989aafa9b8ab99dabdc5d88bb9897a6a8898a68975
col12:   678a5956d68c5b9ab8ae8789babadda66bcd5c984ba99c9e9bbcda9aa7ace5aab88c6998a5775683
col13:   697b6994bb6c587a889cbb9a97a77ccc6dcafa9ae967d99ba788c7cb9ecb9db84987696ab9647699
col14:   976927a759c78a6a9b6498c9cb898db76a9cadb58addcbdfca8c9a7bb4aa7878778bb8a7bc976976
col15:   bc367a58aaa873e8b77979cdb9cb9dd7aac698dbb999cb98a6fbdb699a9b7788a7a866979845ba88
col16:   869b8989ab9aadbe879b86baf9c7bfdb9cfb9d9d8ba99cdaea4c9d96aa979a6abbaaa4999e8d3894
col17:   6957999a39f58aaac3c9989b9a5da79dc99aabce8abe98abc76868b7697a69966895a58397d753b7
col18:   57456969aa79898a8b69484ccaadaa7a969a7dac9b9bdb7bf97a6a48d7adaa6d7699789886758873
col19:   5ba76759d89918a992a6aac66f396a397c68c9cec899c79987caa99ebdb8a9add8ca4a7c57a55837
col20:   9884199bb75788c879a7c9d996a8de9a9b7aef8bc7bbbc9cf9a9dace76d8aa65ba7b6966899aa595
col21:   979895a788698695667a6e6c8aa88caeedacebaaea96999d6ba9ab9a4d9fa9bad56aae6a88859755
col22:   5a64c59a9b86bb97667b66b6ba8acacba9adc8dd8abababa9b9a885c9adbbb498ba9cd8971689994
col23:   7a57c7b78ec788ca5bcba87c96a7aba7bd6daaca46cbb67c97b99bba5c79ca7cab87967a68555a87
col24:   867a969988b88a579aa599a5777c9dcdb98c5bbc9a9ce99ec68da95ecac96cac7baa664687a95b84
col25:   8a887f6a99968a879ab95b8ac9c9b8dcdaacbbd999b5ca8a9dbc8abcccbacbaca9cac96897687892
col26:   88a8689fbb97cebb8eabcabd9beacfcb9a9cdacdae9d98ddaddedebadddfbaaba9ad7b695a42893a
col27:   ab9997f899a777bdbcaaa9a88badcaeebdbe8cbcaeea9dcabfb86ceb9ccbbdaab9b7a8a85b6a687a
col28:   89b99facca7a9edf8de99ddcbb99fc87cdbcbc8cc6bbcceebf5ccecfb8fd9cfc8ada978c8799d758
col29:   9c469b9879889c9afcab7d8dca99eac78dd78dbffbbbfb6bd6bd8dfcc7e9cbba9ac9a678c7699c66
col30:   ba8a9a78ab98a969cda8ac8a9d99aadeacaefcbd8b8ceac7fadbb9acab9cbbaa9cb7b93a99c76c68
col31:   d9b98bb8d9bb9ebcfa99b979acabca9d8bdcdccdb9b9ebc9dfbedbcccbbaaacbeb9ea9af9e793986
col32:   39996bcc8ca9d899cdddacbbcab9cdcaadabc8decccadea8abddca9ecbadcebabb969fb9ac958873
col33:   baa979d988ada7feb898a79a89aac9cbac8dbcccaebccbcdbd97afddbadba98cdab87a96a69b8963
col34:   abfb9acb8ceb8cbdcca9cbad9cbcd8dd69ccaafdfedd9ca9df676ddcddccacababd79b77b98b88b6
col35:   dcad9dcc7bba7a8eefcba9d7fae9ecacffcfcdadfcfdbd8cb9cdbbddbac8ca9cabc7aaa79bc8db68
col36:   87dbbaf996b89dfbd7fbffaddaadbcad8fdbcafc8bde96fe87cdf9acadc9ac88cab99aab89986549
col37:   babaf8a8ba88ace8dacb88cabdaabcbdfe8facdccfb9dfcbebcaa7de8bbbabbbabcba87acf58a9c9
col38:   8fa899e48b8a99ccb9aca9acfacbeacd9edebceedbef8beb7eaf9cacbbd9ea8c7c89975a8d8d6a97
col39:   46b989c96cffaa9adcebccde79caaa89dfc9fcaebdeafecddeebd9dece9babc87bc9abb89ba89cb3
col40:   b9b8fccaab99fdaad7dddbeaccbe9bfbcfff7cccb98bbaacae98bebca8cead6bfcc8999d8b99cd9c
col41:   badab9eac8985bcf8edbed8bbabdc8e9bbeaaccce9bfbfcd9eddebabdfe9999adbcade9a98c899b7
col42:   8bc98c7d99b9abab999c9c8ccebaecfadf9bebbacfbcdacdbebbbdddccd8dbaea6abda999a7b7bd8
col43:   9b758deab9d75c99d8bcdececddacefefdceddaedc7bfdacbbb9bdceece9b8ecbdbd8b5da8986d68
col44:   7bb88ab9b98acae9bebafeccfcc9c9cccfccfbeabd8aacefcd9db78bdbb79dadc9ca9cd87b7b8cce
col45:   7bacb86b9d9becd84bccac5becb6ccbbf8bec8bdddcacc9fbaa9fafcecdc9a97aabd7a9bcb96c9c8
col46:   9ea8d7cc5ad99babea89bccc9d8fcffd9efaceeca7c9bad9addfb9ccb9b988cb699b8aaa9dacd9bb
col47:   dcbbcab8bd9bbbaccaeec9967acbfabc9cbcaebb9fade9fbafacd5c7abcadcaa6b9e7b7c75eaa9bb
col48:   ae79beabbdbccbab88cbcbe8dfceeabedcbdc67fda8eedbdcbbccdfba8d8dfbaaf66b9a7adbd8bb4
col49:   b8e9abacceeaba48bfbbacccda79adabdfcdcedbdbade9bbfbecaccccd9eef7abc87799b7bcc8a76
col50:   eabccccbd9e8e9fb9caeacefbcdab9aeccec8edfc9cacacbbccc9dddbaebdecbacbae67d6b9896b8
col51:   b9a5599b8a998aa9b9bcaa5bd6b8ca57a6aadb89edb7c88dc877fcba9ab8a676bb96976847857483
ROC:	 BPix_BmO_SEC7_LYR3_LDR19F_MOD3_ROC4
col00:   a776b4668589898ab688a76ba8898898878a466bbe87ab7699e67bc39aa996968aa79788c5298594
col01:   7c2bb67797986a993b9c895c7cc69bbeaa9cbcba7488cbcba9f9ab7baadcb982aba8caa8495f6b58
col02:   a989b879a6748a7d78999a76aace7c85baa9aab6bd88a7bfad8bc7886aba9a897778b9a889b78ab8
col03:   89896b56da98aabac8796b9bcd6dbe78c88bbd768bc785c96866a99cbbbc89a98d9c797968a71b78
col04:   7aa9aa8caa884bcb87bd9a44cab48bb8bb99caba9ba97ba8b869caca8cb8bccc6eba957b995da877
col05:   49778c9a7dc89a8bbb6699597bacaabcbdaa59d7a5f7cba6fbac997bd6bbe88adaa8baa9477aa9b8
col06:   86d979759899ab8989aba9acd87a68ab88cb9a389a9d9c9bc64879b869b9be99dcbb9785a587596a
col07:   66ac96797b5a97b78896b8bd7dba9a6b9cce5c79bc988afbdadc9a98bca7d89ca98ea959db9a5994
col08:   25d966a69c9cd8c89cbaa8859b898a8aaaa88cadd6b9bacbbb9bdba989664b998999688ba9566775
col09:   b8ba79999a99bb6b989cbaa878bbb8adf98a9edaaba6a8cabea89a7aeac98dbbba5ba97d5b688b86
col10:   a8849a989b8b69dbba5caa9bfc7a7f5888ca9d966ac2bacbdd989b87a99a9886db9ab8b9e6bd5856
col11:   88d6769a6b8b98bb9b9977777b9a89c7bb99d88b9a6cc75e7f788cdab8a8caa68b9d879a6677a66a
col12:   66a68a98acb99e97cc98db7caeabcb68ebb78b6ab7fae4badb6c9cc9a8b96baaa7bec7d89797658a
col13:   8baba89896a7a94abc7ca79a89b7be98ac866bb7ad79e85dcd6b999aacbab9a9cb495c5789474765
col14:   869b8759857ccbaa7aeada9acbddbacbbd8c9add99798b8ebac866b5a888caaa956a588eb568ba82
col15:   78b9a9cbd8cc8ca76c5ad9d997ce98b7c99a9b7aac9d96ad997c9b9aa7cbcddd88ac6bb6ca98698a
col16:   b59c8e787799b5759b6acbb9cbb96cbb6cecbeb9ba9cad9879bdbd4adb989a8aaaba4c89d78878b8
col17:   89d9388a75a6ccb6a8659599969ba98a969789e48ba77ada657ba5da8768d579d8b9a998768a5558
col18:   a96a7868a8879abaa89a9c8a8dba7bd6b6ca6b67f98b979cb988a97badb9b9ac969b6b9f8aa84a99
col19:   b3957d776aa6cd9843ba68ac8bbd9a78ca96b79b8b6a7cbd5abbca5cc7bbbb5b47dab6698c687845
col20:   a89898866c2689966acc7b9c88767a38ad9c9bda84a9baaaa89ac8ca9ada8cc8a464c9a77b9a57a1
col21:   b986b6977a65883ac777c8bdcba39ac9a67ac85bcc889dbd96ba5bc79aa798a6bac77b7df87c6a8c
col22:   993486477ae779997a6c9a8c99a59a9e8c8b97acbb9b8aba7b7ccbddaca68a4896878e88bbaa9855
col23:   cb4a87999cb8aba9a8789adaead9c989ca9c8ba5b9969959b8da9bac8aa99e7796969bb97b489b68
col24:   9979ca989b985b8c8da689aca798ec8ad8d95bcd6d98aabb89db7bcade99785cca78ab9e6658aa99
col25:   49a589a69a897ca8b9b65a99be99aa996879a9bada1979bb67befcbbbba9687a7a7bac97989a8581
col26:   87d798dba69698c5ced9e9a8f97dfcbe988edcc96bdabae7998b9df6b9bdaeebbbcdeb8b76a8a6c6
col27:   da99eda788a9aabce9a7adeb7b78bc7b7ceb9cbb7d9dc8c9bacaea9f9afb9baa9d78d9a8cbe679d6
col28:   5a887dbac8b8fbbb78bcacaecddb4cc9fdd9cbdddb7ddbccabaebddb8f8ca7f9cdab99b9bda65895
col29:   9bae86998995a998fabae9c9efa7cc9bae9c5a8cac8c9ae7dc888dbcc9bcdc99eadc8b8b9aca6db8
col30:   8db7a99a78aab58adccd6aca7eba9dccbaa898dbcb8894d9b998fcffbdf9b9d9bdb7db9c8a7aacaa
col31:   c9aa8a65ae7d7a9afcbdabb98bcdcaf9c89ddbbbec9ba6dc9ddebdbaccdbacbbaf7d8babb8ad7bb3
col32:   d8a8dce8acfbdaafecbd7bff9c8efa8fda7cafd9efcfbacb67bf9ca8c8bcdabe9aeedbd9baa97a8a
col33:   b9c97aa6aaf9fa9fccdaabc96bd9db9cfdcfe9c6b679adafccb6bcfbfb9ba8dcb8a99c9dabe9789a
col34:   78fa67dabceb8dadb8b9bb9ccdcaad9d7dbcaeabdabcbabe7aabddeef7cbab9ab89bbeacaabf8c8e
col35:   c959aebaa9abccdbbded8877efddc9ad9caa7cdaaddce89bac8c8adf9ccdf888ca8fba8ba9ad99b4
col36:   a7d8bbabce9aaa95ac8cdaec8cfddaeccb8aadbdfe8dcfb9bacbcbbbf96efcbec9fcbb9a8bcf6d7c
col37:   ad89799a997cea7dd8e8e9d8e69ecacaea8ca9abea9c9abeecbda68cccdbadcfcabba969aa99b756
col38:   9c899b9799ebedcc7caeadeddededcbacbf97fcfbcbeebaabeaaeaaefe7cc8abecceadba9eaa9b68
col39:   aca894baa7baaedc5bc8bbd9dcbfdfdfbbcf9dacbdbcbabd9cdbd57aadb8fdded67fbd8aeae59d45
col40:   beeca28dbbefbbddedab9cafbdbb9fdcc7ebfcbd9bdcdfbcefd8aa8cbefcdaaa9c9ba89bbd98dbb8
col41:   bf7c6a75ba57ac9c9a8cc9abdbe6db7a8cbfb8fbfbcf79edbdbcccd8daaebbaadebefc8897879d98
col42:   c6cbbba7bac8aabd8cb9ebbdcde8dfdfda8df9aeecbfdeff9b6dcdfdb9bd8dcacdb7cadeebb8f87b
col43:   b6dc999ac8aabcbcbaaaa9dce8fce9ebcdfacb9cebcea8dcd8d9bacbfcacccba7bb9eac9bdac9ab5
col44:   99cba9cbb9a69dccf9baebaaccfcbea9cc9fdadfc8acf9cab9dd8abfccbfdbe778bd987ecabcbaab
col45:   b9c5ccacdbda994dacf7bcadacddcefabcbcecca869deaecfbecabbccfb878d65bd9bdacb7a8c8ba
col46:   99dababb6a8dadb9bcfeb8f9feceaebfaccd9fccbe9fcfa9cce7afcc8bececcccb7989b8ad8b8b87
col47:   caecb97abdacc9fdc7bd97dcb9cfcdffc89cc9afdacdfbe9adda8b8aebefbdbdeba9bcca9bdbb995
col48:   9d8bb88be88b97bbaeafacb98eecaacfedccdfbcbd8acc9cabbcca8cd88eabdafecbe9bdb7ed9ab9
col49:   badad99cabcd7ca7cebb9baaddda9afd6acb78a7f999989bcae7c98dd97ba8fbcdebaccb7789b8ad
col50:   bcb9ba96c6ccd9bdbccc9ced6acbaa7b99fa88edc89edfbcbfe9bd9bce7ebadad9dfbba9bb8cca67
col51:   5a7ab4a87b679896b97f8bbacb9a77778aa98ebba6b88ddea86d578a9edb9b8b4ca8a97ba785a365
ROC:	 BPix_BmO_SEC7_LYR3_LDR19F_MOD3_ROC5
col00:   cb69b8bdb9edc798897db8aa6868b6997ca6b4568ba79276577945468a6a96644476895546561531
col01:   cbbb4abbe68a4fa9acccbb58a9c8ccb66d978d887b8a7b965849dad998bcb75b4939679555873614
col02:   d9afbb9b5c9ddd9b7c98797bbd7985b9e9568aab8bc9cbc89b879b77a857746b8c45979867a16911
col03:   dc8a9ac9f9caaa9babad588bcbaabdccccecbd8a8daacbc6af79ba8999a4989f5b669886b3749983
col04:   7bdad4cda8a8eacc89c9a99bad9e8f99bb9bba89eabde89699cb97abcaa49496c5956a77883a9634
col05:   88d9c89fbda9c9edb89cd998a9b77ba65ba58d58c9b489a9bc99a998c5866969b767596614852795
col06:   db99b9aeabac9a98979ea8c59b776baab9bb8abf986cbc57b4b9a76b7a55d938875647d977e87278
col07:   78bfdbbaa9bb999968a9aa67c6ba8fd6de987974a7a9d8b7988a94646895f8e8b498761663a6a663
col08:   b87e9aa88a99a3dec997b7e889be89b9b6b88edba8b99475b5966649b7768ab8996d9a1568534572
col09:   abbaad9997aaabd6ab98d7be7bc7a9aeadf9c8b9e9a95eada6abd677499ab8b8b946772646561467
col10:   adb9c9abd6c9abbeddf9b79ba8ba88d5cc9af99a9a7bccaa6b75a534d7d99979895c257c23888664
col11:   5e85d7747ab7b6ab779757aa9c7b8cc525ba87baacbcb7969b747885c8b957b697b8638487634265
col12:   f85adbda799a6969bfbcaab8b7bead8c798c89964b99f9aab7899a969847847ac79a479857893524
col13:   4a7b95eb9beac7aacd986785c8b947caa86aba87c57baa7ac6a69aabbbc76979856986b367257453
col14:   be896f7ec5a765a8d79aa888cd87b7a78b68be9a9cb4a987587cc998c86bd3a46579695784565567
col15:   c885b7ad8a78cb9ab7b5a4d98f87a7cd9aa9778854d97cbabdb859cab9c575571767965a777b5613
col16:   f7aaafabecbc9b8dc8c49f7afbaa9dda579ca7db78a985788e9c1a57689955aa8977799663427836
col17:   8ab479a9b848ab78dbef5b7378db68c776947a8d6176b9a969b7c467a87cc9725776677874888226
col18:   8bdb99a5e9b6cce98c6cbcf979cdddb89898ece99a95d999a97b47b876a89679968464b279783748
col19:   8ba888b9a66cd9abdc5bde78898a869dbaca9dadbbd969b4a94ab587678879b86d33575877636664
col20:   8b7aba798b9c9afbdb88bb7b8dda9c9985da8ad495a8a79cd4fcbda578b688c67977789494174324
col21:   ad989889cad9ad9bcaaeb988763d9cb8d68d795fda9d8aa574a9ba6d8ea7c75d875c835869718758
col22:   abc589b3b9c5ab7acd87c698759bc6be9c8b9957bb787988b8aab87c6ad97a8bb769899aa7668153
col23:   a8788868cf9c87b9ae9c7a88a589a959ab889388b97b978567f657b889768d56668d741797489371
col24:   2abda98babac588cca8e9d9d6d978b9c9acce9c9aebc8ae977a7a64557a7973d77667c2968256518
col25:   784c6c688da756bc9b689aab69899b75896eea98aab97888aca68c839ca978b45359787b34888682
col26:   c98ec7bcba7d8ec8adbdb7cde9cabcdbccddd9b6bc9779bbdb7b9c7d7c68b99b9f87666387859845
col27:   cc9aa97dd9b7ba797ba58f87aa6abb8cb9a9a6c8bdccbbe9bda9a9c8f8ac5968a927876768757531
col28:   c99dd59a8aaac49aa8ab8ac8dd95cbdcbbbfebbdac6bc8dbad498bcc87bb89a9793c7b4866a33556
col29:   98da6ccab7da8acb6b9ac8adbd8cbeccfa9ba5bbfcb7c8aa69949879f5c7638877bab4434a958176
col30:   b6baedd9acb8b9e8e9ab9a9ccc79baba8aacde8fddbce66bbc9beddb79ab8c8e7948859b3b376775
col31:   aa5cddcdd6da6779ddeaae79e8d7acd9c7fc9edc8e9aabb9efae8dbcdfb879776837a64a5ab89654
col32:   b6aab9ddbaf899febcbd789f948ecdf7cdcdab9bceea8f98aa9c7bbababbaab6a988b693b6d6696a
col33:   db898da98ae9bbe877b8baf9cbbede7ab8d7dbbbdcc8ecbbca96d99dbbafaa879986996984339877
col34:   cba9bfed7cc8eadcdbcec9cd7ecada9bc9dfacf9fb9d59cacb7faf9eac9cbb89b98a9b9867478671
col35:   9d6b9befc7d98a7b9dbaf8a99ac8ce8dacdbac9fbbf9bccd8dfc9aa8ad9a6b7897bbbb79a9598846
col36:   8a9afa88dbfccdc69abcd9abffc9c8d97b99cc9cfd6ed7b66cab8caebba9ca991bf6456a97448886
col37:   ceabcb7a7c8acacaa9ac7add8dadbe9cbccff8cddadcbd9d9adcbcebdc89cfcb7ccbc974ab6a9597
col38:   996b5fcedbf97cceabcccecbeebcea8afde7ecbaf5bbedeaaa8adb64a8b47c9df9ba99d4a8852678
col39:   98b7baba7baebacae96d87d9bfaa88aeba99ceab96f9ac9accdbebeae8b89a789ab85d69a98d1647
col40:   dc8a98597c7ad5dc8ba7bfabfe98b7bb9bc7e7b48aabda5df9ba7cba9efc8aa8de7a5869a8879866
col41:   7a69abbb7e7da9debca9cdbeb7dca6fa97e8bacbaaecaadbca8adcb6a989dcbaba368ed9c4996a5a
col42:   8ac99acf9869caaaabd9d96df9afa9cbc7b8dbd9fb99acad7babd99bc6ab9cd767c9c73ce6cba864
col43:   8bc9b8cbcd9a8cc9fc7c898dabbd8bd9bdbebb667b999a89ab659da8aaacb9889496679a7ac68dc7
col44:   c79cbd8bea8a9bbd88cacb8ca89cfebbcbcabdd8aeb8b9af8c769b889d9c7cbcca9bcd6d7ac5b628
col45:   dacdbcf67baa57bdfeba97bbeb87cdbbb998b9d9fcafdbc89c9aadabb669996777836b89779a6589
col46:   b87bc9baaac6bbcb8968c8a8889de9dad8aeccfce8acf9cd79cbfbcbbaddbc8f9cac69696c5a6993
col47:   8c988a9cdacd9c8a9afbe99bd8bddab9ca9e9a9cab7b9bca8baba79bc6acbab73989b77668678984
col48:   a8bbb9ba8aa899e969a7aa9aaa9694ac9dcbcdab98b7abcacba55b9c465baa89f58ab7a879858b85
col49:   a8baac885d9a99abb97b9bbaaa98b7ab9abfebcf8a69cbab6bc77c778b7b985ad677969769849a95
col50:   7adbeaa9a6aeca9cd79998bfacbddb7bbfd9adcbabcbdc7eb9adb7d8d9bcdaba95598ec5995757a5
col51:   7437136a8d9ab9288819bb964594a9655866ab86c7788777586875ae8883665b7841474636466151
ROC:	 BPix_BmO_SEC7_LYR3_LDR19F_MOD3_ROC6
col00:   9aa44876b7a99995587a876968a97b9899ab879ec8aad4b889799978783a676a6469753967984954
col01:   d882c89998b858a9ac9ba8bbfb9bc4a9bbae6d7bb9e9a7baa99cb996c97dd6a75886689777559877
col02:   69877c67a787bdacc8bcbacba7796bc89bbb9d7dcc9e8aa889a5a688b8b88b86aa98b825b7e87665
col03:   9789696accab7cbaab9c9b86aa97fc8beceb8abbacabb86d9aaba88a779c9985a976879384156698
col04:   e4668b8bac999b9a8786c99ab9a8f99c79cb888c89ca9e8ba87d7c688ab798d4a4a7a6a9bb28b963
col05:   967a887788d89ed855594a7aab7b57ce69b8caaa8dc8dc79a9978899a7898a8b88379546761436a5
col06:   67a8b9a88c9759d869cdbb6caaabbabaadeaea67989ba9bbaab877776fba8987873a7b2456669979
col07:   ab99bc7a6cc78ab99ab6bad6b89b7c6b99a87976a9a8a6a8ac7a9c8d89977ba6879a943c45494746
col08:   a87997b784aa7eb8d8b7b4eb98ab97b9bacbbc899c796d88b9c2499989babbb88587976a77849653
col09:   998a9b9a4a9ac9686acd88cdad998bacc9ccaaccb88dbaab9bb76b89839ba7b6dcb895786766ca84
col10:   788a88a8588eaacbd85dbb9baacaac6c988aa68e8a4bdb9fba7aa96a698b797a9b68a7a358968491
col11:   64734a771562897ddbcade79adaaaaac9aa88ab9aa9e88a99ab778aaadbcd95a7886b77aa9976987
col12:   9c6c7bdc79a8c98d76bcd889d76a9b9d695de6dac4977aad9b97bb6899d976a9c6ba839688636725
col13:   6c8a9c88aab8acba58789ba9b8eaf8baac9b669be8bebb98996b769876ba7c56ba976c5879778679
col14:   7a66aeaa599d8ae8c7a8c6768bae96ce4b9eaaa9a666ab577a6aaa5b7abbaa8d7d4d558634666454
col15:   aa5977a6aaa8af987cc5a868debcaca9ea8cc77e9ecab9ca9887e6987747aba38b5879764649a835
col16:   5ca94a98a9a8799a6b9bbdc976ccac9f99a8b9c98cca9d696aab99bcbb478a9baa768a797a7a7942
col17:   ba6b8897bbb9698a789a9876e9a7c8bcaacbbe4a99d9b8aac6ad9eab78889da9a57787a669658464
col18:   6967c78fa6b979c89aa8b99eaa7a7ea479ac6badaa5bada7b6869a8cc998caa88899c984d5568887
col19:   b77baa6b99637abcaab998959bb8f77de879997ad9caa8d9c4d3b73c979898696678c5a9a5669784
col20:   989daa7aaaa975bacc9a7bccf97dacade998ac987b8699aac789b89a9a8cbc696c5858a896a96495
col21:   b6baa9b66778abdaac5a99a8678ac7abccbaba6c7bc8aad499b7b7a4db9ca7b6599999c9785aa972
col22:   79a9a87c9667c7e697cb978dab9acabebdcbc88bbbacbaa7acca9a68bb985ec978998a9898569783
col23:   9a37887aaa88c6ca97ba79d8bd888876a8ca896a979baad978bb9c7aa6a5a79949ab73556a949557
col24:   aac6ab89e45cd98778a9bb79b9baababd8b7d88fbcada9b9ef98b698b78d46b89978785356993795
col25:   95a76796b88b6aaba6bb8cfb8b9a8e9bd75d8d8aaeb88b89cbbab9a88aa95b887b39a8a9637a3c89
col26:   a7c8f9bcdbba8cdbfba6da8deddfaadab9dedbcadbba77c9ebfaa79d9ceacd9baa89579dca879b29
col27:   6cebaaa89b6cc9cc9b7a7c8ae9a8cdbbbbbefdc6a9cb79dc77cbccb997998979baab8b647688a891
col28:   b8bc88aafd8a9ddacbcfca7e7aaccbaedd9dbddfacbddddc9b8fcea87ba99a6ac89ba878675877b6
col29:   7ca8ac8b9a99aba9a9badb8bf9faa8b9dcbd9ca9ccbab9dabf97b8acaa9d68c9b9c7a59696a749a8
col30:   bbbaaacacacbcaf7bbad9b9cd8abb9acdbcdeccd9cc8cd9cbb889e9db9adacbeaba8acac598846a7
col31:   cbc7b9ec97888accabd9e8aaedabab6acdbbcfdacc5cbccc8abcaa999ca9ba3c87a98967b97c9798
col32:   dbcd98c999fcc58ffcccbbbffc89b9c9adaabdadb7d988cb9eb8ebaecdcac9cb9a8cca7ca7b88737
col33:   a9cb8cbebaeff7dfbccb9dbe89c6bb9eccaa8feaaaabdaaabb9bf9b79e79c9bbbaa7abab97d69a59
col34:   7679eaccadfbe9bbfcbbadbdadcbeccb8c8cc9fadfcebca9ccedf9b8bcc99ddc967a8a8a9c958965
col35:   9978c6bf9ab9ad9eddcb9a8aca9eb8cadfbecaedaddecb9ecbcbad8a88ebab7d8bda8a78a6d89667
col36:   a97b8bbbc5adcedb79bacb7bdebffdeccdabce8abada8bacca7baaa7decb6f85c998aa7bb68b9777
col37:   bcc9b8ea9a9cb7ddb8cfacafbbdcfcebd9dedd6dcbdecbca99f9bcb49cceca9ab7bc756aa975b877
col38:   86d9a9cbdbbc8bbacbbdd8ffafbcbefdfbecdbcfabedb6abcedcacda98d9bcd69ccaca86567b96b6
col39:   a79ebcbb7dd86bdb9edcaa9aaab9be978ea6debbeabceaba99c8adfebaabaaca9ab7799faa99476a
col40:   67ab9abeb9b7a76edbef9fecbc8bfbdf6bbaeeffb9bacccb8dddcaabdabc8a8bab999cbecad8abb8
col41:   dd5bdd8cca9cb8c7c9ccaeabddb68b8aadef8dcf9bbaae98aa89bd689acbb985a9aab9969988a987
col42:   cbb99b8dd9bae9cca7abdceacbcd9fdbebdfccca75ebf89bac9a95abda899bdb8a9cbaba8759b6c7
col43:   bbaca8dcc7a99cda5abaead9bbbdfddcbddcbcc9c97bbdd999b99dabbb9caca89adea59b3ac759b9
col44:   c7dce8adaaccacdbb8bbbda8bbaaeefcdbf6bcbfdffd8bdbcc9bedeceb99d79aa9c999ba7cc9a874
col45:   8fb9addbcb89acacfea9bfe989ffd8cdad8cbdcbd7babbb7dda9caab89ccd98a8e9a7aaaa9a97773
col46:   8dbecd9c9badc99a9b8dedcc9bb9eaf9ccbb9fadaef9aba9ce9adcca99ea89fbbccb9999b6ab796a
col47:   8ce9bacdeabccb79cbe7b9aafc95ccbab87ccc7af9b9cbbbdad68fcb7cccaac598b8b58a9e9889c5
col48:   9cad99ba8a8abdcefda7e887cdbfe9c9abfdaadac9beba8c9ac6deefadcbaeaad57b8a559f38b6b8
col49:   dd6fbaaaa889a4fcce9dbbacbddcbcc9ccbbcbc8fb9ddd6cbbdb68a99cab9cf7cabaaf9989a6998a
col50:   bd89ea8aacbbaf7a9bdecabecbafbccefacc7b5acb7c898dcbd7cab99bbfaa8bc996c9e87aa97ca7
col51:   998cb75aba7aca6b799e9878d7677aa9dabaa787997ac78cc9a489848557258878b8659766ab5688
ROC:	 BPix_BmO_SEC7_LYR3_LDR19F_MOD3_ROC7
col00:   6855562699465759a7546b36a887859ca658d9a88869899a9d8e9aecba5b9bb999bb976ba97ab9ec
col01:   6888a9a83a6a44a797797679cc659ac6caac8bccacadb9addfb8b8a9c99cad8d58b86bdcb8c96de5
col02:   7769556c5878137935886b87d79beb7bbb9c68b5aaa9fac85899bacaadba99a5df7c49ad8bccdbdc
col03:   7556b97877746779a7589bb5b8aa97b9a8aaaa9a9cb99bcdadb9eaeaabf9cdcaa98bbbbd9899cbba
col04:   75666468ba64678767a7bbb88979888accb9d8e98d87cdcbbab95b8bbcbbaabbbadcd9b8dabcabd6
col05:   28a8845694578a8b989f547a7bab9baa95b28bcd8ababbc6998c88aade9bbd6eb48bedbba8cbb999
col06:   a53445797389729893a67a5b88673baba8a87a7e9dc9d8ddba5c9ca9c9b88aaad8d9bb99c6b9a9ab
col07:   5277759277758465bb86a8a69986975a9ba9ad7989898c97bbbac9aaf8bcdb9ca989ca8bdbaaca89
col08:   74787a77935686576855879577abd3b8c9799ea9887ba9aaf9fac99899edb9ca8dabaa99c8bacd66
col09:   5a945567a76a597aa94dab9aa69787767aa999b9abeaa7edadc79a9faac87b88b9daa9adab6ace79
col10:   5465264a868c89468c8b9598879aba9a8dba9bdca9cca997a7ccc8b6999badb89b876bbbaa9b95da
col11:   5277784958969469c7268b4a9829b868989aacadba8998aababf8d7eebba6a59ba8abb8caca898bb
col12:   786a56a387586756897a9488a8a7c99d97b7b7a9a9b97a99bb9a88eaebb9b9aa9ab86ea86ae9ccb8
col13:   92199566a6a361895a4a8c5a9687d5c878ba97bc89ab9ac9b98bea8bbccddb98b889dc9adcdcbbaa
col14:   345565a6868858b6777797b87a9ce7ecb8a56b9bd6ab966ccd7ddbdba9ecb89cdebad8de9bc9adaa
col15:   686544a68587c7a3863a9668b5756976b897acfcada988dad89c9c8bab8f9cc9abaa7bbccb79dba7
col16:   2573d7679b7684865336b5966bd67ac8ec35ea88a578cd9ea8e879ddda6b7a99ab87b8cdfa69de96
col17:   7321664795751398574b55a737a9b988bb99bb78a9876d8898aba7c9da8ca998b8bbbcaa7a85c897
col18:   633767564815795875877aa4c68ba55bb99a8c7ca9969d98c75f4577bbcbac9b8ba8a7db68aba7c9
col19:   4758457768966638798a6658b96b498a8a4a9898b7b6898f5b9faa9ba69acf97bca9bbada7ab79bc
col20:   586663641375537a875677b73d845aba88a8cb9b67bb78889abe497c7bbbd9dbabca99ebb9ab9aa7
col21:   76855a5567686cbcb854a67a588549b98b2c6baaa99c8ce769bbddbbabb4cab8adb9cd986a6989bc
col22:   134a56c2282383b75558a769856937847b8b99cbba9dd6acb5a99b8bad84bd8ab7ca869c8a8acd88
col23:   5587449885776774b1a77a728b4c5c6bb7c6bb69acb9aa6a768bb66877bba887df7ba78d79b9a84d
col24:   35335593329787966735c4898c9adab877c7c79a9c78776bc7acc7daea977bcda88ceccc86bb9aca
col25:   5574779763b5679266487489a5779c9c7e889bbb79babcba79cd889aca5acaabab9c679b7c8c7aa9
col26:   a23857855577a57896a9a9aca8bc8888a8babc899accabea8adcc788addadecbadc9cb8fd7c9cc89
col27:   764536598a8469b89b988878898cc969cfb6a9d7a9f8bcb9aa9bd9cb8bcebc7cadaeaab86ba7abbf
col28:   8466778a996b7b8957ba5aa5c8b97f9dc7beba9ac9bebbe89cc9bddbee6fec9ac9dab8bdadcac8ce
col29:   4465957767ab87b6756a88773c6ba878aba9bbadb9dea998bcaae9becbade99989bc8acd9c78c9d7
col30:   8459477c876798aa695c76bc88e95abcbcabe8bd79cafb7fbc8acbabae9abaeecd8ccb9decacbbb9
col31:   64358749aa7989b8b84a2a6c89a9a77bccaad9c7da7cbbabb78cdcfbffb9be7a9abdb7bbbec8deeb
col32:   7877786794257a66daab9e7aa7ccbe7baabbc898b89fcb8cecceec9bccceebbaacb8acfb8cecbcbc
col33:   862589957b984b6aa959a4cb9bcbb8acccfcfabb59bbcdddbd9cfaadfaf7dbdaccbdba9cbedea6b8
col34:   645a6728a87748758b88566adb67bacb97b9a7cfaeb8ddbd898e8a7ccbadfdfc9cb9aba98479ab79
col35:   335684587b7b529aa688a97c9cb798abb77c6bc9b9aca8ac9bacceaeddbcfaa9babbccfbbe88bb9c
col36:   9559bb84439a87d84a786798a778c6bcb7acbfcfccccedfbea9b8fadbfba88ece9aa8bcc998edca8
col37:   b44446ca93866b86b96ab7ab7b88cc9b9a7c7ca9cbdbadaeacecbaabac7cccbdbcbdaafefbead857
col38:   976776a65a888877a5676ba8ab7cab9ccadfbccba9ee9ccecbddaacbc8a8dbeccac9fcceadcadaf9
col39:   674a887a9b9762966a679b896abfb6bfcdbb98cbaba8dcff9baaaceaecaa9ecdececdaccbabaacfa
col40:   8786685a776c377c5b9a77b8d8aaabab8bdbccad8acbbad9acddb9defcbbd5d8dd8baabff8aebcab
col41:   6455a84575679b7898bcad98a579d7ac6db98ade996bd97df9e9abcdebae8b7b9bca9fbddae9ca87
col42:   278579a7696b8beb987a758cc97c68abacc7be7ed8cadbccfdbdacbccc9ebfbc9cdccba7afbabbce
col43:   8667977a647ac687aaba6bab98af6ddc799bcdc9fab8caba9ccadcbacedddebdda9ebddabba9aab9
col44:   6a96c2698a5cb6a7cdaa5a8aa9d987cbad9a879c8bbea9bb7dab8cadbdbacbdcbccaab79bc9cfcdc
col45:   765767778b55578498a98a797755bbc9b997abcd89ab9c8dbeecd8acabcdaaac8a8da9a8aeb9cd9a
col46:   455456788799676786c4598bc9977a99ad67c89bba8e6a68b9ccabbcaaace99bc9adca8fea99aa98
col47:   7776a9b656886769c385ca7779ab7b8c9accb6aa9ab99bccbcd987cdf8eec9b9bbc99d8aa9db7a8c
col48:   41374658648c7b5c9a498b9aaa89ac9ce86aacdabdbacacaeada8cccf9b9bcbab8ccba7c9adba99d
col49:   7775676979641698697a779a9cc99b96aebc9bcab7aaabcdbbbab99c9d8988d7a5babbba8e98d9c8
col50:   764639677a79a77896a7abb7dda7d68db79c7a9c9aaa8adf9bbfadc9ae9ecc9e7bccbcdebbb97ac9
col51:   5615455326833455949387589a8547b8ba98887a78749ba657b986a78996b7c6cc786997648a277a
ROC:	 BPix_BmO_SEC7_LYR3_LDR19F_MOD3_ROC8
col00:   53537456762437494462363517663762a54574947332633555762556556864242323512344132231
col01:   9a488979855675a79586757aa5569737689966673576575594431744738336183574645266544333
col02:   576756466465781745927688554677b8135557744468344554554376756472424543115232444311
col03:   664665875466644477859667a8458776577855876445759577553188553668446158556136353544
col04:   6767756458777696777645577476849866496544a423367456664548779356355468666354425351
col05:   864678883855537374847437368983a8687555a988578778572496437233b5765635266214461325
col06:   57656688746655578769725995696665975477a46785566445315463676273251333536534241111
col07:   87577558674787576598867976668899967558878388b67357766684763676556156333457654133
col08:   ab8388576597a66885448a5b8a9764897b7a4a589898758777683956676465664655684172756314
col09:   755888696768a7487563679887886a85778686688845785a67567548649766434a73645442373442
col10:   b88777975839966885a576866a8788787b5587857a6878558697766567a777785576635245263616
col11:   88796a977a59868879a94678485497497697857779b5595577484763a6786665a553375576124376
col12:   77776b9966975683a7894459873546928a8866965667986556876983653545766155762365124211
col13:   875969a78866ac797a7895677a68b778988866638589568a984a5754748465887338944557241676
col14:   667aa797598986a8686667978787896957b97b95674a645687776255897663445234697553853553
col15:   7896677875677958754668aa8988799877a664c469859a78a67768955779a86667745424a3265325
col16:   6a85945866767379698778d988459bb9966a696a767956a365465726676568371597334674637961
col17:   ba97797767a546a4776b659888aa7b898957747866978766695a7975755885745788583595455427
col18:   647a578688667a787784977b8688a6a7856478997876a87858955587864566753867464557345376
col19:   a6a9885a7968c77baaba74b88a675997c9898878679686799866978834677216a2b7343764681151
col20:   68a88c78898ba9ba4a9698aa79678789879ba788693979959877665876a876866527837846245758
col21:   78b76c75889986779baa96a889c97985a699c9678b979977696a57a876ab48755474552834743844
col22:   9b858967969688587b697b68a7baa98a8da99b7a587599a8379875888a37568845a8438546663552
col23:   9878695785869899ca78b99674799bb965887768aa667a7688985a97875559987456375489343514
col24:   99d785557a7d8773689998ca8ab8ac78a99788aa7677889787976796535589745465688668744563
col25:   b99aab9a6a988a98ccb878aba8baa9a887c8b6ab5b776789aa69a995786799635965785759546491
col26:   aa57a9bcdbb899bb999a9ab8797599c7dbca9caaa8cb7b76b8788a868b97a6a9b786346864538652
col27:   abdbbaa679ba888c8c6aea8a887abb9babaaabaabb7769caa5a48aa85aa48844a866b77463547663
col28:   caaac7aa7d68a986bfa897b788dc9aab9bc7a89a7cab78799b8aa99d887a6778897a369538766986
col29:   9ccdba99ad7a9c9bbc7baa9b9abbaaa9caaa899a9a7a9b98db999d99ac685ada7696795778897454
col30:   eb9c8bbaa8aa7bdca9896b898a7acb9b9a9aaacaab9b99ab998a96b796798989985596599b643868
col31:   daba9aaca9b99cbacaedbc7d9acaaacbbabbeabcea9c79a9aa998bc96c6bb9aa8ab695886697a869
col32:   aac99acdaa999ab9789b87b9abba87dbaca9bc97ab89aac6a76b76baa99ba678a876b89486976886
col33:   8c98dddbba9c8cb8b8bbacaa9cbbacd9bb99a9b89dbbda68b97ba76cdba9a98b888b788798b98859
col34:   98bcbcf989b9bd7bbcbbbbbad7adcbbcbddcacb99ca8cbdaceb88ab9798bbaaa7966887a8a798977
col35:   aa9daac7eab99bdbabe9bcbebc7cadddce9cc9bdad9ddcb7a8acbbc8aada98aaaaba8a969aa78677
col36:   aedabbcdbbabcfdfddb8ad9bbbbcdadcddac6bbbcdcfb8abab99bbbb9baa87bb97aa667978597683
col37:   d8cededbcbadcea9bacbfcb9ed8abdfbd9dddc8bbccbccabaac79bca9cb87ac9cab7997c9596a697
col38:   beecdbbbbf9c9acfcbabfc7adccbfeaabebccebdbdbbefcdc9adbbccecbea9c9bb9a8b8c977a9854
col39:   addba8adacccdadbbb9eacafabbccbcbbbefeecbddabeaed9ceae9bc8cd9bcab99a8a88b8ca88989
col40:   9ebb7ccbbac8bfbbddcbdb9dcbafccbcdddcdbcbcfcbddbcc999cab9b9ab8abba78777a968685759
col41:   bdaaeadadccacbadcacdbbfbfbdbcc9dbadbdecabcceadaaeb8ea9adaaba7abadba8de8859aa9a69
col42:   bcdecaaa8ebddc9cedccba6ccdabdaceeacd95cdeebbbb8eeabaadbbc9b7beb7c9ac9b8b68767979
col43:   9d9dddefabddfbbdddadebbcd8cedebdedceceaddfacbcadcabcbbccbdbbad99c99ba6bca78b97a7
col44:   dc9dad87bbcabaabaae9edccacddeecfdeceaaeddedebbcc9dafbabcbcab9b9c8d8a979b97a6c977
col45:   eaccedc9cbccdcedcccbddebaacdaa9cbeadecbedcbccecadcba7ab9cbadb98cba96cc96a67a8896
col46:   cbddacbecccdeadeefcdbdcdbfddd9eaacdbbeddacccce8c8eccabbbb9b7bb89cbcb88bbaaa89976
col47:   e9fecabeed9eeeefdbddcabbeccccccfcccaeffdbedcbddeec8a5baccbcbdbaa99c6bca99ca9abbb
col48:   adacccbabbacecdbeeebececdc9eddecebbebbba9ccfd79cbb9b8bcbbadbcdebbaa9b9bbcc799d87
col49:   ebceddcacba9eeccdacdaebcbcbecd9dfedddf6ebdccbccdabec99bbbdbcbdebbb8aaccb8ab8a9a9
col50:   bbdcaedebceeecbeb6ebdeebcbdaeadcfdebaacafdcabcececeddcbcddadbb9abc799bae998c988a
col51:   ecaeccdcbcddcbbcbbccbbacacbcabdeaddccacb9abdbb9dcd79d98dadccbd88ab9774976a37b677
ROC:	 BPix_BmO_SEC7_LYR3_LDR19F_MOD3_ROC9
col00:   696aa97aa85b85bba979669bc78b93cb689a74aa778677d89758a667a99667925846522579485531
col01:   69776aa966c797af99aa7da4986ba978a57b69baa9dbbb8cb8558b397a97877536b6466854743431
col02:   9aca79caa9b92b889b77769a68abcb98ab68aac897a97a77787b67b8858789885377858793734653
col03:   9788a8c8988a669ab999a8c9a8d9c677ab97a7ba8ba9abca879869a9777876569868754764374644
col04:   99aa9c9c8759a4a8cacd895baaa9bccb78a6a689989b9986aa6a78a59978669879a5766568561653
col05:   7d74ba9bba9abab8a78879b8898acaa7ad8acbba899e98ab59b7a8885857b9358865876545671254
col06:   b967a976bed6a58c6db94ea98a9bbb8caabada9a98bbaaad8899968759c787977976857178776452
col07:   a8285aaba7b63b9769ba9988bcaaaaa77b98db978c8a6c598a868a7788b7b77999487588846b5341
col08:   778abcb879c7b78599a8abab9cbc9a7ccdb99c8b786a5a97475a9a47997b9ba69a3877a885659234
col09:   aa88dab8bacbd9988bcc8abab59b97bd988a7ac79a8cac98abb77a8aa9a9a4678b45543666554113
col10:   9679a79989ad8c9bd88b8adca798b969dba6b8872969a58a968876bba877796a6486a38676678167
col11:   9a9a9d8ba9a8a7c89cc98b79aab8c8acbd8de88a6b8bba8c7ca7ba8b58c9943c6875786839727653
col12:   cb6ab7597c9baab888eb9b99c889dbb5a6a79b889869b9bca6987898a8b5957a6585996765533756
col13:   77a89a9bb69b888b98a99a6bbd8885b97a6b59bcd987b99bb9a9b7aa77a9889bb6575868689456a1
col14:   9a973a9449888baa9787c7a9c7a98c998b75a8e8a9c67ac97abb589987ba78937756869c83658852
col15:   daca8aaaea9b8c7ccd888abc9b9b988bb9a9abcabacbddca88ba9bc8826867c87576765336544873
col16:   a73fa99aba6a779cbd9cb9a87b79a6ab78b979977bc6bbb7d8888889b9a5cb9a869b9b2777647674
col17:   aa9b77948aa65c989aab7a9dd78acd5c96adaa99ba6797a8887a976a4b9ac7956854545369552735
col18:   bc96ca5d998da87d6b899bb6cbccd5d9dab7aed888c79b6ab89b777a9d9a995c6b46773567395379
col19:   9bf95a8a8a89ba98a7b8ac999cc8da5b9da9a3c997898acaaa8c779979a664576899a9765ac85763
col20:   ba9a7898998bacaeaebba8bca7bdb89a9abb5d9aa5aa8ceacaacbbd9775c8b797478775855538588
col21:   87897cad8bbcccbcdc7aa89b7cdbcacdea9aa8c9caa7aa8bb6a8a8ad997978479697889387233796
col22:   bcbbca9999899a963a7a9bc9a97baaae6a89a86baaacb87b8979a5a9b656c9577868984483487653
col23:   66856ca37ba9aa8679a49a8ab8adea7a6cbb6b887b7a6a65b5cba8c9a9c8b9b98696975758766264
col24:   b5a687d9a8da99a78cdaccb88b7ab8b99b8aaabdcaaa9b87a5c758948799899a87a7987768838223
col25:   8bbaad9d989897aa5d7b999a8db99bcbbea8cb67b988cc9c79ddda97bbc89a795469886767547767
col26:   ab79bbc9aacabd8b7acaceabd9cdedbaec88bacbcdd9896b97beb79bab9ba8ba7c68895997668a89
col27:   ad88987ae9bca9badc9dabcc8a9a9cadacf9cd9eacba99be8989bb95ba9ba88a89c5879a977aa95b
col28:   8cc7a8abbdaa9a9dbb9eddafbbadccdddc99bfc99bbe89baabdcbdadada9bba98c77b76997f89886
col29:   98ecb8a98b8cbcb9ab9da9bdcda9ccdda9d9a9fbb8bed7ca9cb59a9ae9998baeba8895779b876795
col30:   7b9dbca8dbeb9dceba9abcabdec9ddabe9abfaebaabdf9cc9a8adbca5acaa9ba99b8ba8966968888
col31:   996b988dc9facb8cefacb7abf89cc9bb9da97eb9ecc9fbdc97bcda9d99cebe898d69c87899ca9a74
col32:   dcbceadabfcb89adcbc8bddd9bcb99cbcbabadeeababcfacfa9c8dbbbcbba8b8a879a9cc5a9cb776
col33:   cac9cccba9eadeacdafdcddbfebd7acafaddccbebbdadcdaceabf9bedaabad7a7b59aac8997aa855
col34:   bcd9addbd99d8eadddccd9fbedccdaadcdbfd9d86b78bbccfa7dbc99c8abba6bdab8a6b9b77aaca6
col35:   bcca9ccce8bba8c99bb87cacbfbfcb9eaefedbebcbbdbcf9dbcbdadbc8abeb8a8eb989b7969b7b99
col36:   9ecd89ccad989cdb9debccddbddbebded9cbbcdbde9ecccdeadccd99ecacb78aabb84c9a6aab7976
col37:   aaddea98a77abcbd8eadeeaceedebebaacebbccb9cddceddaccbb6adbbb8cbc9cc98a7785a886ac8
col38:   cb9cabcbbcaabceeddcfccac9fcbdfaedbfdb8de9dbebddecafea9bdfbfbadbcb7cd7878769ac869
col39:   d89dcfdacac9bb6accfdabdc9ccaefdda9abbabbbaffedfddfdc9c7c8eb8dd99dbcaa79e987aa7d8
col40:   dababccc8ddfbd6cace9cbafadafccfbebdcccec9bbddadcbfaecdfbbcdcecbdbc5b8c7aaa897cb9
col41:   aa79acd8dababc9aafdfbaba9df997edd9beff9debedadabcb9ac8cb7bacaacabccc68b9a9896a66
col42:   bd78799cabdcaf6e8fcdc8bcbbcca9deccddebddfdeabedbebfbbbaddecfbaebb9abba8cadab7866
col43:   accc8aacba5bcbbffce96fcdbbbef9adcaecfedcbbcfcc9caec9dddedcdbecbbd8b9bbd97a6ac776
col44:   b98bd9cbcc89d6c9ccbdab9cccdeffdcacecebcfdeccbcecaaeffb9fc8fc9efdac99bacabbba7c8c
col45:   dccc9eae9bbddcbefcffb9fcfccecfdecfbfaeddedfebbbcacbcaddcddcbecdaafdb9abbcb86c957
col46:   7bcabcbcbaf9fcbbffbf9ddbaccc9eeecafcfbfacdebaac9abccbdbbecf98bbcbad9bda9ccddab98
col47:   89cc9cdaacda7bbdcd89dabccbcfbbbcacaaebcbdeafedbafcbd9ccdccdce5bd9db98bdb9bbdae94
col48:   bad9cdaaca8a8cc8ccd98ccaaefffececcfa8bdaaaceedcdcddc89cbfcea7a8ab9c8cab6cc8aa9aa
col49:   ba9c9ecaabbef998e99eb89cdfdfdfced8cccc9dad8bbeccbbb9baa9ecfcc9b7b979bba9ac8aba7a
col50:   99da9adcadcbaafbabccaeddddaddcdafebbcc9cd99ddd9ccdc8cded8d9ebcdb9cc8e88ac9a9aa87
col51:   9689acbae8a9ca8efa7babbfabc7caadb8a9b98da989bca7ca8a5ddd9f8797b7b9b64b79a6757885
ROC:	 BPix_BmO_SEC7_LYR3_LDR19F_MOD3_ROC10
col00:   5391458576494a7788a8699776887a8a89b98e8798b79aa998a86dbaa797598a9a9a7b76a9988293
col01:   6969447b999964aa79a8cf867bac7698b9a6a9afba6d9aad9b7cab8dd8bd96a9bcbb79999b797599
col02:   7785a867799a57895ca9a67d598ca96c88897aa988ac9c77c9e98acb8bba7aca9877b569ccbd7b8a
col03:   87485478b5888488c978aa8b8b96756ba6baaa9c89bebadbaa786acab68bbbbaacab8a9ac987cd98
col04:   89b38539668a65babaa999add8c8a9977c7ecabab6ba8aaad9cba9bacb879ebc6dadca5a7a9c98ba
col05:   789286799b9a95b89b999a887a8adbb99cb87689ecebaaa9ca6899b9bc8ccb9cab877bbac67a7997
col06:   8a7566676399d878ad68bb8ba6ba9bb8acbcb96aa7897bdaa9ed9ab7e6caab9ab9a88979bb4cb776
col07:   9496945ab99a9cabb8ab9998bbcbdb67b9babaccbbbbcdabbaaadbcb9bcc9d9d8878cbb9b687a8a9
col08:   9677797548598ab9b4c655aae998ccc6b9cb898bcbac8eacd75ccab9c9bc89c86b9b9caa99a89af9
col09:   6257b4458a799a988c99a8a8acaadbcda9979abb9999be78adb98c8bba9979acfb7a89acaae86989
col10:   77593a669a79848aabb8569aca8cebb8aab8bd79b97dbda7988cab8ca6b99eaca7a89aaa8ca96898
col11:   a389559c8897a99768cc77c9bab989899aca9c89a9acc9abbdccfabbec5ab987b7b9aab8bbbaa86a
col12:   c23a696837a9637886aabdd8dba96bd76c988cab9cbfeaabccca9badba8bab7c98dadba996b8b967
col13:   698627856964489ab79775576ca98cca9b8dc8ba78a99cacbb7bbeb877abbb9a9bc99b9a9abc99d5
col14:   27575258a9987a786b8767a7b6dac9a9a788b988c6978beadb9cbbaa8ba9bb9aba8bcbd8a5aa67ab
col15:   5b6578a6a798668698a9bb8aadaa89acbe89da8bb8cabaabbccd8bbabbbadead8ac8697ca98ba7cc
col16:   84889c9264779989caba8b4aa8babb8ba88b8cda9bce89c7cae9bad8ec7ab99e9bead8caaaa98ac9
col17:   a67676547874a586a279aa8b9a99b9a9aacc86588897b8bbc9bad7ad899a997eb98bda88938898b3
col18:   5959b94a7646699979ba6a98878cabcb77dcb89b9b9bc799aa89a9d899bbbbac9878a7b896a9a798
col19:   6a65877a876787a687781c867885bab9ac7bcdaec89d6b9a95beabb9ebaaaa4bb9ab99a8dbae98d9
col20:   8465657586974639998bb9898cba8babb7ecb88cb9769ccada49b679bb8b8a9abbbb6995ccadb888
col21:   443997648799ac79ab79567776a9aacbcac79999baa666bc6b89cc9abbb9bb9aa5aa9c78ca7c8dc6
col22:   786b66764466665689a96aa9ccba64788cda678cca8d8eac9b9ca8a97bc9bdaa8ccbaa99aa5889a8
col23:   7946555584899348779997798b6bba78a8bab7aaababc8d99b6799badacccac9c7776a9bc5a9a769
col24:   43578784377976877b7d8867abbaabbbc7d7768999b9999b89cbd9cd997aaec86b98bab68b798957
col25:   723877a7646849689c88b7869aab87bccaaac9a8cca8aaad8ab98cbaabe9a6aad876a98b88d7dbae
col26:   86879978887b986a78c9aa86c7bdbab9d99dcbd8cacbceafc9c88888bddcacdbcb8cdcb8ccb9eb97
col27:   2858666665b9bb8b94ac99989bdbaf79bccbccdc9aacadeb7cf8cc889c8fc8de9dea9c9bbcb9c9b6
col28:   a55a635894769559a8ca59799988afbfb7cb8889c8c9abdbaabd7da8c8c98bbbb9b8daafbbaabda9
col29:   7417851786aba77aa9c6ca887a57bdabb7ba8bdd9ce8bbbc9db7bba8daeb9acdbbdaa9da9a6c9c47
col30:   5967697779258bc978949a89bbcadbd7ccca98b999bbafbdea9c99a9ce89eadc9b8c989c9abebed7
col31:   5bc96676878879897996b79989b6a6e9cbab99caadbc9789879beb9cbcaaacaee9db9ed9cc9bdcbb
col32:   686959629855a8a968aa9bd99ca9acabbaaacdcbdabfa989c9cbd8bcc8a9caead7d9accbb9ad68ca
col33:   847a55988a99759ca86aca6bbbbad9c9c99cedacaecb9daba9caabfdeacecbddc79aa9c8a9b9ecaa
col34:   a8ab88886a697a6b9c7a9998b9776b7aa9bdb9adebfeccbcbada9ccecbe9decb9aaacba9d88a5ad9
col35:   645657576869897bd98aa8b6bc97b8cbabadabcdc9accbaccdeaa6d9a8ba9cbeabb99ad9c69bbca9
col36:   93669a9b758c4699665aaaaea99a8cbb7ab76da9adaabb9a9daaceaacccebcbdfd8abbc99bda8a5a
col37:   7975925b88976bbb8b699c9b9b7ead99cadbadcfd7acddd9fbcfbaaccedebaa99c8c9bcdeadcb8bc
col38:   75b7978968767a7c9cd96aab9c8ccc9a7ab9be8d97bdebaddaf8c8c9fcdbcc7cdfbba9a9c8a8a9c9
col39:   77758aaab8759b97a9a9a98acbab8bb9caecaaecada9cafacc9aba8ddbcdcadbd9ebdadccdbcaa8a
col40:   a75954878abb8498997a987aa99cdaadaa9fbcbbd97b9abefceca9cd9cdfdfada9da9b9e9dcc9cec
col41:   6279979987776a9bb999bce5d9b9a89dbb8abadb9d97caceaacbacbadd9bce8badababebcb9ad7e8
col42:   bb68889a76d98b7ab89999a78a89eabc5bd78ecc9cbc99bbbccaacb9acccbcf9bf9a9d9faaaba8a8
col43:   6668775993999a9b5bb4b9aaba759bc9bba96dc8bb9cd98bcccbbadecccfaca9beed7c8bbafcbaca
col44:   674a98a9f8c59a75d7b9cbb956767ccd68afac9b99ba7bd9997db9ccbcaebbcaa9a4bbccbacadb99
col45:   74789ad6588599abab77a8578cba9acb6acdd8cc9baa8adcc9bccdbe9dc9df9bbd8dc9bcd999699b
col46:   9cb6646966778677c7887a77888aa8a9daba79e99aa7d8ab9c9ba989cbcc8ccbdabcbcb8dd8b9b9b
col47:   5676ab746a9a5b8a76898aa5ab9c7cbaeb8bda47daca9dab9c8cc9aabf9ebc6b8b7a9a79f9e98ca5
col48:   86549d968987684aad9997b78bcccc99aadcfb9cd6c9d9baabadd8b95ea9ddea99ae89ccac9e7b68
col49:   4a25767558a8996a899c9c59a79b98dbda9af9baaa9a89be38db7afabbab9998aba8accb7cabcad8
col50:   99859969b986b89a96a794b98aa9cc5dcce99caacccbcc89cecedd9cabcadac89b8dca7bbb9ac8b7
col51:   81567555535c56a942b67987a57676297566a6aba8a999be8e888badbb9d877ab7ba987ba9b84898
ROC:	 BPix_BmO_SEC7_LYR3_LDR19F_MOD3_ROC11
col00:   77a786441435587a9c5b98797bc848b5976a7ba9897acc879787b7ccab7ba999f6fccb769d9d9c95
col01:   66a779a888888b8ac9c78b99abb4a86bac8bbbeda8a9cfafdf98fbcadbabbcadabc9dcbbebdb8aab
col02:   7898966aa97aa8ea795a779ea56ae7a7b9bd7abdacebafaadccbcccc7b8bc8eba8aa8acaa8baeed8
col03:   5789c89899ba9759c69b78bcda7abbcccfd9bb9a8bbebcfdbbcc9abbdbddc97b8ac8cecba9aaeafb
col04:   7877a986a797b95cd6a799bbc8b78af8bbaaabdccdaec9cbdae5bdceafbcb9facce9acb9cadcece8
col05:   89765ba68d86b8598b88497aa9abbbcbeba9d7dc9d86ceb87cd98aebbfebf9bb899bde79c9abd6a7
col06:   a687b67b78665963938598bb79ae97a9a8dafd7bb9cac58a9d998ca7ad9db8796a9ca9cde7c6cf98
col07:   597c7776786859a27c8a999a8a9a8da998bc9bc9babbcbb8db9beed7acabbcc4afb9d6aa7adbcdca
col08:   916646d5788b777abb2a69d369eaab69cbb67bdfb597b8adadaa88bb8f8bbbbfb9bbbdc9b9a78aa8
col09:   a648853b6aad8c9aaa3597ce9abc7ca8ccdca69b69dceccb8f7ca8aa7ced89ddda5ead99ccbcca8a
col10:   4577a993c866b5fc6c86698ccb438a77debbabbbca8cf9be9bd99cabbcbd6cccadb95ba898cbc9ba
col11:   3969a9895454a9489a9789b99588b87cb986f8d9bbc48d97ab778cabcf87acab986b996bc6b65696
col12:   9a3a6696b715867887866b9a297a9b6c8d9d89ccaf8cdc798db5acb78eebdcecbcbddca8bea9aa98
col13:   798879aa686b58aaccc5a9d596ba9ab6a8bbcb9c89d8e86a9d999cdfabcccceea8da89ad9ab99cdb
col14:   7a4a43aaa777a746684b7b96a967b9aca66d6cbadba8969a99d5ebffcdab9a89afd6c889e99b6a99
col15:   53356a9b9b789ac7378c9a6adc89e7979d8b5d977f398b76eb69ab88fabecdcdda7abbddcc98979a
col16:   5a17689784969849c85668bccd9797bc795cbccc7aabcddb9ea8efd7e7ce8dbcaea9d9cdbb749a74
col17:   96a36864578569b396598699d9895aa8a8befcc8d685ab88bcaabfa799d9b7cb99a9cb7bbac7b569
col18:   77727a557476968c7a4dc8796567bad9da7c888b76956cac898bda98b9b5bb8b97aa9ccb69b76a86
col19:   578159594a5c58954997858a66e6b99897798a98698668b998ca69cd9cbfaeab96b8a7898a7796a9
col20:   579888a48a62b6778a888b5a5a8e47ac679bab69898a9d9cbad9baa8bbd88a79984d6c98c65b5967
col21:   459b786a889488d899659879a97c458b888d99bb96a899678c8b9aab9b9b98a8897ac8caac97ab89
col22:   a7397a1796476889885979cc4c99b66ac777b866a99bb577da9a6c878ccc8cdc9fb74a9cbc99c8bb
col23:   a699367469786fa7c56585a879969999785f3c8d77dab95aa595aa9bc9b9caca8bcb9aa45aa6dd98
col24:   8856854b87b338979b868b6b8bc7da9abbb85bb98cb79c8e89dd76bdaaacaa9c7ac99776c98b5a77
col25:   7888776b7753567c8776988b879a97b7daab4b8d4bd76a69cbb6dbdc89888a8bb8979ca9694baa39
col26:   7bb845797d8b8ce968aabe578b7adabac9ace78fb7cbcae78b9ccb73bcb7b9bcc89b9d9ccda4b885
col27:   84688ba88aa3cb9cb7daba79bdb6adf99badbf6bc886b9f6c4d8bdbadca7ba7ad6acbcacacbeab8b
col28:   cab89a79787b8bbcb99a99667f9cadbb8dbccedca9fcba9ef79abc8eadebe99cbc9aaaadeb7f8f8b
col29:   6573a5874a968189a9c78a9799a9abca99be79b7baef8bb99fae7ddbfadb7e9eb68ebaa7db998667
col30:   95857b5a888675b7a96d5aaa77aeebbc8a9b89e8a6c8b6c7f9ccaacbdeaab7ab6bb9adbfb6eb6bb9
col31:   298e487387797664eab5cd7ed6f99c99978cb9a9faadfdf998cbcdb9d9c88bcbbbcc9858e7cfaf8a
col32:   c55a58c75b684aaaab99a5adc7adebcedb8c78dd9b6bead89bbfacb99bf96b989c9ceaba93dbd6d6
col33:   63cb8a85a8cc5898a89d5c988b98a7b8ddae978b9cdcfc88d9aa9aa9cbda8bd9ddd9cb7d689d8949
col34:   5859a65bb8a78ac77b6dca9b9bdb975baa9cc8acabacebd8eacdaeb9cc9acb57a7addbc8abb69589
col35:   a9c7598b4cbbc6b89aa9a98979acbed7958dadadcdbdc98de4bd9bbeceecabbbbbcad8cf8a6c9ca8
col36:   9779b88aac689accbc88afddac9bb9e7e98cc9aecbdb9fca8ccadcc5deabbdabedbafaad5f89a6b8
col37:   6daab9a85bbbfb8ec6bb768ffd8a6bc8bcfccababcfaabddca9beab7ac9cbcacadaa99bcada998aa
col38:   c8a8a8ebe7aa736a7b96ecacfda9ab6daf7bdb9acabbefcfbbe9badefd8bcbac8958bcaca9ecdc77
col39:   37aa36b4bb99a9997cbb9cbccb9badbafe9cbdbcb8b8b79dd7badaccab9cab5db7dc86b9bb9bbf99
col40:   f7a688b79dee9ca7bcbeb6ad99eadd9dfbf9bfc6f9bdcc59abbbb9dccb9dad87998abbc9ccdc6da6
col41:   769a7aa64c887869cdba969feb88ee99fecdbb76b4d8899ab9b9b9aaccc9aaeb8abbab96877c7b97
col42:   c768bca9b66795ba8ccb77ca9dcdbca5cc7868babba9dabd9eda7d6a9cbcc6ceebccda99aaab9e6a
col43:   a5a885ba8b6ea997a6bcdaceac9bce9ccaac7f9baaaaac6c6cceea9de8aebcaf87887e878accbb8c
col44:   56788aa69a7589a6ad978caeb99cdcb7c9dcb8ecddcacdbdca6c99ab5ff8debd99ccf4ebba8b7db6
col45:   4775b86d89abba87bc99da57cb8cdda8dea98bb78ccc899aadd9da86eacba88bafeccd9aab7bf658
col46:   b85867bb79a87cac8aa69aac8b898aa89aba997bc75e8edd867cdbbfd6bbbc99ba6ccaababcfbaa5
col47:   884788a7d5cba86978a8ba86e89c9aec7ddc8bcf887db88abcc5b8deffcab7cabec8adbd79d98cb9
col48:   b9c8e58bc55f8b577b78bce8acc9abb6b7ead9ad8faa9edcfb86a7dcd8dcc9ea9bace8e78c788976
col49:   577d88ac898a9b9abca8bbde7a7da87cbab8a86ab88a98aead89ba6778c9bb97dabaa8c8bad8a6c6
col50:   8b772969859468d976afac88d7dbb9f8bd989adb4beaa8ae98aba86fc8db9b98c9cf9b9ac56dcaf4
col51:   826698798517aa748754747a2a7764ba87569997a844946b58a7697b687595b8789a7e49b49a5777
ROC:	 BPix_BmO_SEC7_LYR3_LDR19F_MOD3_ROC12
col00:   5464874749687675a9a8a56566b868c99a789b989877965797636ba985633678785b795892665531
col01:   a8697a7767678c8b7874984b7899a7887da7899af7ca998b979989b8a6d8994b9975637959aa9776
col02:   9956968256142558a8648859895baa66b88596c7a58768a886ad9ad5899a428aab797a4795787397
col03:   58586cb7296775aa999ba68ab89a892dd88b78ac6b99778ba99b9ccaba969778789f63b7aa9b687b
col04:   8b77777588ba877b9ab97a878ab6a9a6cc9b8e986ea9da997aa86a9aa99c9a9ec897a4b9876b7a86
col05:   9497a4988ba89689b896c4b8898a7bbbaa3a6aaa989558d69ce89968b98a7758baa56a49ad659495
col06:   6597886494587864679699a9e98ac9759bb98bde9ac768bdd9c84d9aa99997a97dba7a558ba67648
col07:   b777ab99a7697b6b77888b58eb8b89ddbbcbac89a79988767dab786898987379587bb978973a6a78
col08:   477597617a78b977355775a6785c98c87da5566a886aa498b4c955a5988a86685a96797588477544
col09:   b28885b86d869c99bca76a48e59b9b7b68c9acd779bbc8a76abd9b598a9ca7a8aab6989b697ca886
col10:   768a53bba9a74db7d5b8abd6867d76a89b9c6aa977687c9a849899bbad8db5a7788895787975a444
col11:   79892d969aa5c9aa55a77896ac9765aaa8a68a947acbae7a69b99c6daa8746a976a758b876677884
col12:   b785654a59877b99763aa6f8969c6988899aab9bc9a9796ad98999d9e8a9da96517587767b68b85c
col13:   4b76b58799a99b7c9aab5a8bd9b894ba8aa6aaa989b6b685ad9c899a867b4487a8a8aa9a7cb886aa
col14:   aa64679d968c759766c867989b86976ca8c9798ab8999a8a8bcb99eb77a5c7a8997988a8ab8a89a6
col15:   b76c78958758a729a9b799ccb8bacdaa9abc9da988ab596779e87896b89abae8456bab86886579a1
col16:   87988a7775838b9798a99cc8b99b7dae977eaa968d5997eccba48a9fdac5acc69c795756669a1876
col17:   75aba866749a677999a8896ca8b8cd6958c998aeb6acae49b673868a9868b2a37aa87853d6898d84
col18:   9998c86a77a789cb87a95adac497abbcaaacb6c9c889898a47ab796885b69a995b9959836a187958
col19:   766bba9cba9887b567979cbb9b7c8c8c4b7d9bd9dba789da9b9ca8a97a99b97b79b977b8a8988855
col20:   9879b8978984779d8796a8b99a89cb6698c89cba9cb68bd86774998939a9c8a785dcaac889b92894
col21:   a48688c5b88dba7ba345299a958a9a99ce97bb86ca96a79dc8aac29aaaab39895baaa767a9a5a655
col22:   8b85a9d978aa77a785daa76c888aca45a7889ca97daeaac3ac7a8b78cdd99988879bac58758d9a74
col23:   cca7a998a8687476a4b767879878a89bb96ea6ddd9b7f598b6aba87bbc97ec98768a46698a9b7aa6
col24:   66b83798c49a9997887d878aa7a8a898998aba7b9b987cdb8ac9ac98d7a99a9399e74dd5aa686972
col25:   a78599acc8ad6dada6b39998aa989bbbbcaafa88da6899a98bbd79afac7a997ecb8b6857897b1684
col26:   6dc9bbc97a89bb8bb8ecb9a9aaa9ddcace9ebfcbad9ceadfccc9cbba89b9ecbb66c7c96bed8ba8b6
col27:   7cadaac87c8cabb8dae796eebaadebc9abddbecdcbadaca9b98c9c9ffc899ca8bdb9e9b8899a974b
col28:   87a88ab4c889afaa7b99bacc9baeacadd7cad99af77bad9bbca7ebaccdaadaedeab88e99996aa9c9
col29:   a59a89abcaea9c897abbca9cb9c9b87cebbcef8a6c9d78ac8b9bc9bddddccdbc88bca78b74a7bb56
col30:   a6d99c9db8b69aa9999e979fcd8aaadbdeaceccd9cf8dafacdb7adccdddca8afba989add9979798b
col31:   a8bda9fbadbd69888a777cdbbbdbafbe9aacdce9ebebba8baebdfdbeda8eaabc9cb8a9d8bbf68a59
col32:   bb7abcbc9c979d77adcb7cbefbacffef9bcddfdb8bcbbdbbb7bae9cbbccdcadd9b9da98a866ca8c6
col33:   ad8bb8f7da999bc99a8b79cbbbd9bb89cdbaa9ad9ceadcdfbe7cbbbcdaccacacecdbba6a9999baa8
col34:   d78ec8aacbabe6cccb9c7dcee9c8da7deedfbd8d9cacedcdbbaacdbafbe9ada87a97b79daad856b9
col35:   c9e96aa8ecc7cabbdabeab9ba9de69fdbdddbd8cadbdf8e9f95dbbaadbbfbfabbded9894adc89ab5
col36:   dadbbcbbb99acbcdabacbcdfaecadbb7ccdfafbfeccfbca98c8becbeddcaccdab7eaa6caa69b6a79
col37:   b8ac8b9dfa9aaad9dda7cbbf9bcc8d9ccaffadaabcadb6deccbbebae7b5daaffaa999ecbdb9a9cb8
col38:   9afeadadbb9b9ccfbba8d8dbc8ddcbf8cdceccbbccdbcebdcb7de9eacecdbdbdabed9cbcc99aa7b9
col39:   9c6ce7e986bb98a8ec9cdd9cdcdfadcdcfceddcffbccbabeccbccfbabba9ccdb98aaacfacfafcb96
col40:   9cf8d9efbfadccc8cceca9bfbdcbac9bcb9cf9ceef9dcebfbbc888bbceddbcaac9dcbeabe6aa9baa
col41:   ada9fe7ac899dbcdbbb8cd9ce8db88adbfaedbdeaccfabb9fafdbb7dcdfacdaed9baad8886bddb7d
col42:   aafdef99acca7ccefabacfcddf6efdbfe79cec9fefbdbfed9abcdeccbdcfcfacdbadecccc69bbd9b
col43:   baadcdcb9e8b9cbaeddcad6fbbafefcccdbfbcedc8faaccbabaddffc96f6ddbed7bcda9cbbbb88ab
col44:   9eda9baae8fceccbfbdababcfcbccedfcbcedbcfbecaabacfcecaacbcc9a8c9beb88da799afabdac
col45:   8e9ddc68bbcfcbabaad9fbabceacbaccfbecccddacbebeacd8abdddfaadcc8fda9bfd9eb6faa9bcb
col46:   897bde8abad9ac9bbfacdfbcbd9ca9acffabccceaeccaeaedfcefcd7eedafaeba99dbbfcdb9aceaa
col47:   ceca9fd75dfbdfbdfbbbacbf9efafcab9fcbdcdfdbafcfee9cecdb9bbfdcaa8abccdccbcbaeba9a9
col48:   aeaacccb99ecd9ae999acc7dacc8edcfcdec9ddbefbddbcccabdbebaec9fcd7efb9abc9daadbbbca
col49:   dd97c9b9dbdbcd9ebadca8a9cbdbddfbcdbfdcbbdcddebbd8beade9efafcabad8caaa968db9f98c8
col50:   abea9f9aba8faecadbbbd9d7b7fbfcbefeecedd9abddfdcdebcadafdfdcaafbcad9bacc8dcbda8a8
col51:   dbcaabfb68baacaeae979a9fa8dabbabdcec9bc9c9f9c7ba66abedc39a7acb6cbadbbc7b98b889ea
ROC:	 BPix_BmO_SEC7_LYR3_LDR19F_MOD3_ROC13
col00:   aa47486bdc898b69ba7e6a66cc7896cbc9aaaa9bbe7daabddacc89aa9bdb99c6b799a676a669a9aa
col01:   8a5caacdc986b97bfcc7cabc9cbbedebc7fdeaa99dacaca97f988bbadf98e9b99d79d87cb7cb968a
col02:   879d998acb98aa9bb7b9ba898b689ad9bc9cccc9b9aadaeace6a9998bbabca9998b76ba7b9e9398a
col03:   778a88a7bb7cda7ba96d9c9dbeabc9a8bffdc79a8b8fdcaeb6cccedfb8679baadaa8b9d99b2a9796
col04:   8ccdac9abab969dbb9db988b9d9b9bcbe9bda89bd9dbabbebdecfcc9dababd5c4a98dc8abb74ac88
col05:   9eabacc8798ad9a9fdadba6cf8ba9cbbb9bdaedcc87b9b9db9aa5bbab99cb8babc7aab78c6b77784
col06:   9aecdb99d87c6abeac8ba8dbab9cb7ecdcdadc9eb8c8bab8dfdcafcaba989f9b7babb8a98b69d856
col07:   9ccd969aaacc9a99beaba9abc989dcca99adf6cbbbdfb9a7b8dbdafbb8cca8c7a9cbac8b97b58956
col08:   bc8bd979489bb9cb89d8b58b9adbaafc8daf9fb4d89977dc9b8bb8ea779b887cbf675979c8964798
col09:   cbf79769bb8c6edbced4cbddba8ea9f9bcfbbcccadab88bcccc7ecc8bac6ae89c86b58cc8b4d8b77
col10:   a97ed89dba8b88d8fbbb9b9b89e99ada8b8ebdabc9debb8c986eeabdb999b4c6a9d7aaa7795dc9d8
col11:   9bbbc6cacbbc5a93eb5997a8ab7baab9989bdbdcae897eb88fd968ac9afddb9677bb9bb999a66c58
col12:   9b889ea8b888855b59dc9abacb9ebbd78bbc89b989669ebc8cfbfb8cb8d6b9794c7667f997578a98
col13:   6aa7c899a9776e9b9976caaa58a7cb7a8aeca9d9b8ce9bcb9ca99daad8ac966adab9a538366ab886
col14:   68ca84b8a5babbdb99a8b9ebd7ecd6da586bbbdcabafa898f88b9dbab6cb7a97d86884b78988a9a6
col15:   b5caca6ca7a8abbba8eb9c5c9d99a9af78cdabfd8acfadad89c7869999ba4ab79883a66a9ba2bc86
col16:   b9ba99bb8cd984f8d7798a78d8cbeacecdeebcdbcd6b68a88ca72bb99cc87a788ec77859d7296856
col17:   d586a77547a9784ab7769b9bc6cadd9b8f7ed9ab6c9c757678b9bb8a98aa9b7ab677aaa49b9b7669
col18:   99596b6ac799d8aaa968b57db6b9cd99aaa7e6b8aa58ea76b9bacbd5ac9ecc558abca9a81847a48c
col19:   87c9c759b8cabcc7ac8a6aa7d99798d88f9ccc799c9a878fd7a9cd9c8bacb89699b88a59ac5b9566
col20:   97a9a79697b8898ba8b89bc97c9bfb8ad88a566adad99cd5eba676aaab7c9da889ba6f7b955a5937
col21:   8bacc778a596a78a69b7e6998ce7aabb7c75babda996e69aab69eabb989bd3ea7a9a9a9879668483
col22:   7776998a8994b68abe5b8a898af8b98cc9aea78ad6bbcc9866abae8bad8aa7776946678373678496
col23:   6789896c874c9eb8cab79a8b973c8dc8b8a8b69a8f9c6bc99b8da6cabaa78a899a87589387497277
col24:   699abe7a87a9a9c37ca4993c999aaa89bbaa8a5998a89bbb995a7a8d8eadc8aa6ab3a55aa6a37889
col25:   73b7c695b788de9a5a98ab2a7d5ccddbacace7998abafa7bd98fb8db9e889a8b78cbad82988576a8
col26:   7c7a88ba9ae7bcaabead7bb89ae59babc8adaa7ecbbbbbd9c87cacbca9ddca9baaea9e9a895b939a
col27:   b878e895aabba89aaa9d8a79caaa98a5976f9acdcbdfda9ccb88acc798c6755a966899bb79766ad3
col28:   facae985767998f7a79d85dbeebceaace6badab9cbda89ea9bc9798d8cb9a8a8cadac98aa799a537
col29:   c7a8a5b8778ebaa68d87aabbb5aa97fdbbbab8adccc847b768a8d8aa9b8e8c7b9ab89d898d347487
col30:   79d787db85bdcb9eb86ba976cc88bad9acbc9acfebbbadbabeba7cb699bba6ab7cbb7b9b989957f9
col31:   8688b7c6aa98c95ada8995bbd99d8a8a997c8cbccde5fb8aaf9cebba5caaaba7689ba7b8d586b584
col32:   bca9b9bccd9cd7a7998dcebddd9cfe8b9dba8aeafbcbcdbbb98f9ab6bbccbd9aa9a77896c9595b98
col33:   6aac788a9ad963cbb8b99a89abdf5abc979bacda7ad9cda859ccd98f8edb988a989a9ab8696787a7
col34:   8c678ade89aba7c9bbab9cbdb7aaabfbab8afabdbe9e8bbbb49b799edefeda96b9b789ea39675846
col35:   a6a6aed8d97c75edaa9baacdbf8b98bf8ada67b78898bac7cc9d9dc7788e89c99b8cbd99c9c96cb6
col36:   ba8d7c9a88aa9ca8bcc89ccb8bcdcbadd8998bceaafc8e7e8caaa888cbceb297c89a89ab9a58a459
col37:   ba7a75349ccca9dbde9ccaaaacbdaebccd9a8999aac9b97cc59ba87b9aa9da54dc48a7c99ca66696
col38:   bedd8898ca9ac9b768c88caa9bcdaa9e9bffacfdd967d9a8bb85ad7caccbadc979c95978676844b5
col39:   d9aad55ac57cbaab6979baa6b9d9bd8b6aa86ca9accbccc9bd576baa999ab9cc8898978fa8698685
col40:   b2c3bbe888684cacd4acae87c9f887cac8daadd999ae7bdd79cad7c7bbb7b799c9aabb663a79a785
col41:   666d97daa56a89c6a988a9dbaab7889ca596c9ac599d9bb469d6599668cb8789c9a4a7a29896b873
col42:   ab6969aa897a8d9c96a68baac9a7ab9acaaeb7e8bb8bf58bb9a6968ada9aa99878c8a65d6ab996a8
col43:   9a89887873ca6cd7ba89aa8bb9fb8ab6b9b9c659ad94c85a5accbd65adac333ac6a4779b79d98377
col44:   8688486aaa5987b8b9aa5a9cb82bb9a87abc89a9787ec897d9568c9bafdb76a3b976885a962b6685
col45:   a65abb8a7aa886aba7b6a9ab9d9b8894b9ca998ab8c7769a8ad88c4adba54769b89bb7377429da83
col46:   bcc888a878a699a69787bc7d7b6f9b8ad7c96ebb6caab98dc77ea797a99c689a96a7a66c5b988555
col47:   6989897a576a6ca7596b976ab97c8a5a998a6e9aa668b598b669baa7c7ab9d5851668ba836847792
col48:   8aa8e68f699b57a9bd7887c9a57a69a99bdb779a9b8c8888aa8bb99939689b98da9be76ac784bc77
col49:   b495b98ba895c6a9cd8748c7787c8879abcc79a5a689ac8bbaa77a8ab84466768987788834775427
col50:   aac67bad67ab989a6a8cbb972aaa9a876786a9ab67b9d69867899aa6699768a255a78768b9836946
col51:   153515a652936b4a3a19847986626454688f75723459a6194b528374787545217638834531178771
ROC:	 BPix_BmO_SEC7_LYR3_LDR19F_MOD3_ROC14
col00:   6a97248148e5367729316712847866698a76529c2582419691c5669a5148186a49a6882773214378
col01:   7863348787569d84a9a5a4888a89856437a675c67c8c97b9878775a96756666779b7a73b98a16a31
col02:   3893794887459a89679878bd57ba667a688dc9dc955886ab588a7b5e6b3f7aa7986b8b655a944455
col03:   772756966cc8196277258b788ac78699a7ba668c3daa645ab9276c94e492877a8846869745a98976
col04:   5857c56aa66497797449997ca9993c4a6c8ac96899779c5cbdad6d67579a7b887989865782746689
col05:   646559868a39979c8357a9db869a8386a56d73b68a79a4ca2455949abb67a7bc84444433a5546982
col06:   9678a6977d63785597699b865896cbb6cb4adb996a985b75b8c9998caca74786c59a8a88378a5458
col07:   91d737786a85db97786baa67c8679a99989958e77767a8986b74b96b486988757b87885659422a69
col08:   5498a875487699a48a97b88cdb4c88d5c9c5799c7995d8db9a96748848c89697777b68a51a6a7782
col09:   a971a22a4c59675578968383a3a5a9b997698888ab766aab27b8ca9986c8c8979b8399b56b899533
col10:   2b57585b7b586a66d98a9a659ac5339cca89aaa7d998a459c9cad88899a5597877a79679585767c3
col11:   62844477869756861c697354564a698dab99a5c9b9d87b6cb3dab68889aaba2979666145958c4445
col12:   587728a4a398796897888a67a98b6976acb97d658a755867cb79988c68a7c9933ba59a7344877784
col13:   633339a9b7669ccc9aab6a468a8ca98a88ac88a6a8aaa3797b4c955d9c9964876578694781477858
col14:   87162638a35a43386b9764789a88967a4784bbb6acc936bacd79a4489a6766932729d8b68456ab92
col15:   764a71b8794945789666d944a98a8d8a774da956a6a68bf9bb866ca69ab9968858a7b869487868a1
col16:   5b78b69c766757a988495796996e85e897968879a7c398d9b9b8abc7a85995b4d7a57a7b69737b32
col17:   69963576a83598b88689d39666b8b6b89527666b6268bbbaa958a97598a837a9359c5a6886457a64
col18:   6965716686697a59f856ab9b57b64b77a6955a7679999aa77adb9658ae4964a58767778574979755
col19:   8894837866a17485ca756658b659c69a7a9b858d65cc97abd5994ba8f87a374c789a82a577a97882
col20:   4278183997769129735594857357c7d9ca875698dac6a76c87ab7889a996577898547688a53a82a5
col21:   92369977499aa538958785a7b633a57a9865b6c9c75b8a469ebb79c6fb496888888584766c847bb3
col22:   a62568298c7a924586738979b69a99686f977499d4764997a9a58e397da8aa97a4a81d3399a767c8
col23:   353936996365859587148656b6a94a83a5486aa6a78b7bb992979ab9cc7bbc4cca998a6898449b65
col24:   8676952679356546389468c998c879ba9ab2a78b9ca898582eac6a9765af8a97b9ebba7d697b6354
col25:   b692555939953b5b8785a596937a24a7cc7a7c7d5888aa9c8b9878caaac99aa58ba8bd7968899885
col26:   8487558ab97997778a9b9bbde98199a7989dd69adabdcbc9f68ca89a7aace9a7c77a9789dc589aa6
col27:   9774858977c5b78d7b878ab7a54bea9cd7199cb99f89959bbbbf99da95699a4a77d7897568779786
col28:   d698986a866b9c6bc9aa85cbb9999a99bdba9dac9bca9faa5cb9aa8cb8dcc997989b9556b2a79a94
col29:   8837359b8b58a4679b797ad877ac9c75a8d9abcbbd7a9bc99c7989bbaba6b987abaaaa6b7c6c5886
col30:   5a967769889997d78d7a88b9acba98a9c9c9c8bac978a9cfcca998bca9c99b9cb8a498899569a773
col31:   459a897897a696a88e8997c68689e8bb89a9fb48bc97b99d3beaa9b9edbbdc7b9f8a69baa78bb777
col32:   7ac88859995885c6c679ad788cc7cdabccaba9dc98abd8bdbb67a9f99ea8abf87aa8996b668bec8a
col33:   7847a7de4cc9698778a7ebbbbcc9aac9dbcaebbb9cdda9ddbacacc6b8ac9997c5acbb7b9a998a56a
col34:   77497db6c7c9887c9e8a5d8cab5d9cdc89ffabfdcbf8cc7b9ce7bdd8bc68dc9c9ac9d9cb99c948e9
col35:   86b79c669a9db9bbbbebb9769acc7d9e88c88c8a8bdacff69fbafd9ba9dbcb7cb6a8bdac9a999b6c
col36:   b959867a984b98989b6ccaaaca6fcdb7aacdaeb8dffad5ea7cbbfadce7eb9aba5ed7d8da78a89aab
col37:   8a97769978be9589cabb5d7adfcedfccab8ddec8b89d7b4ee8ddeafbeacb956aaddcaabbbaba899d
col38:   88aa9ebcbab9ebdbb86ffbb67ebaaeaadd9ad7eacaccbcdb76bedbba6cebbcaeedba79795dbe58a8
col39:   56b9c69b6e862d8bb9df8bbab8e98c9faaabccccdfdd8dadfb8ccdc9bcbbefb9edbdd8ababa5b8bb
col40:   c94a2a6b48cbcd89aaeb8a9defbbfedff78cabdabedebfcccafdebdf9ceca79a7c7e4dadca8db8aa
col41:   7778aaaf8b6599c8ccb859da9adbdc9bba7b8dc8ee8affa9a6b69ceaa8e7e9fa8c9afdeaeba8c9c7
col42:   999ddabc1697c5dc797857d9c7bc66debbbe99ef8ad88c8accdcbffebfe9dcbaea98ab9ce678bcbd
col43:   979b67b859ac79bdbd9db8c4cc879cbcbbbbd9eaedbfaabda9ba99bfeecdbaba9bb7abd998e8ffea
col44:   599cc8d8af9adab8dc98ba76ceadccb9b8bc7bceebeadeb9edfcea9addcfbbbdad8bda9ccabdb88b
col45:   ba56863fa6c9c9ae9c88dd8f8ffcaaa8eefbcacfce9b8bffec9f98ecbbeacce6c7facaaa78fb7f58
col46:   8a4d89cbc888adb99aef7becb9ebeedabffbefabcbfbfa8caad8f88cbb8cddd96affca7dbab9da98
col47:   bcb97ad68b9badabacc9bcd9faf896ac9eaabdcae8eace7bdcbbdca6cbafcfcbeb96987baa9ab894
col48:   88cacc7758baac979b8bb9d7b99afdd99f5ceefbc9fac8afdd9bcbccbbbec9eddccbac8bb8dbc869
col49:   9575cb6b9bca78baa6cbade5f8db9aaee9ab99beef9ddfcbd8eb495efa8a9ad5ab4faab999c98da9
col50:   e86daab8a9ba89a7da9adc8bad8f6bee6b9aaded59bbfcadfabdbfdda9ccdec7adff9cc9ccbacadc
col51:   8437c8a669874a5c888869ac4b5a88cbb6aeb96958a479a8ab8aa6cbfbb789fc8aa76ab9d686cb44
ROC:	 BPix_BmO_SEC7_LYR3_LDR19F_MOD3_ROC15
col00:   668423646548375566935375664538571435791458533944677324374b86363673b4354554774223
col01:   5978688549a585438349849736464745588371c5586a5793c1a4959948a7975897b6326658861663
col02:   36966976829797776966656bb956724471c9666537856839364373a8988754668565866874546846
col03:   83b943677b627b9694c66b868649ab968468688576aa4487aaba488758873497b794573a68247712
col04:   6689461534534a7357628bbaaa9585665544a8278b5686796723a9455a323538463676347696a835
col05:   866767b664a8567986589777757857b8a635b85728465c85a6749538b36764b757683b3417836566
col06:   276877b3386a5985491538777827996a867668755565364897bb9846c9983b759876926697384865
col07:   c76a8466795b5677a9495bbb6d799d92abab687686966486a6977679b89959879ba98aa869867994
col08:   84573686a99789838a87798a856986684a956a6aa586a97aa6b77c64736b75469b5a798b965a6694
col09:   865a648597699b8784896879ac57785cb7d665596caaab47148ab4b5c7679969471789687687686a
col10:   87657548889386369a36848a9bb7c549c525a9485c76a7667a877b7ba578ac8555738b5794448549
col11:   a8385a879665bc76995b178c58979b7a9895b87989a888a88434956bb98b5c79677d9a8898958769
col12:   7b774768796788455a977b684a97c537759784b54b834b88897886c76aa47766a89a6684a9696963
col13:   6c7587b755965879578849aba88b7a9bb9c92a78dc8a553985caa9b8baa66966ba99a55745a958d5
col14:   9876937a8983d74877894789495ba77877db95a686a8bba6b6d85876a767c6464a8ecaa786a66779
col15:   863749c855c99895ac8c895a8a46b8998887b88b846bcaa679a96bb77985758765a79897695b6858
col16:   73395851bd8667a3385d75a799a8b6b888b8498a7698777278697ab8d86b8a9b85a778a7b96a2cd5
col17:   67967bb6a3838abdab9e9d8ba97aa77c869a9b99a996cc86a9488dbab78979a7c687996498d39a59
col18:   52b28d778a675868558a88d8788b72a799d377ca98869988b7b26885a68ac7ad5556be7993884863
col19:   5b73c676b68bb7b66d8769ab9ab98a96dc766ab8886ea979a8993ddabc9478586d9789ba79168965
col20:   956b728994a49a55566586a79b977a77a599f89789b4798589a8c98a788ca8ae67b6a775a6559776
col21:   78554b4771ca89788885ab79a8ab57ac9b78b85caba9dac9c9b667b43b899b798a899b657b734b84
col22:   ba7b8b76d54bb94a55da87a385ab9aeb89a99c98998e68f86baa587a9ccab1ab9adb6498a6799778
col23:   b686448844688879c7dea976baba689b7b694a79693a5ca6f788ba895a6abbb7b7647746a8876735
col24:   776a965699c776a3b9a966ee6f6a7b7b5adc7c78a99c8bbad997687989a8c88858ab9a7488a86585
col25:   89955979a5a44ab7b78b7bccad9bc5a8cbd6b59cb7b899ca699beaa747878bacd678abd4b999b64a
col26:   7487ccb9b37a96aabccbc99ab7b8a9b978b998e9ac948cf8cac8cddcafa9b6a89ccb79db7a8d9ab9
col27:   b7779e9864fac9e97676ea8bca779a4cb887b9cda985bcb6c79d5eabc8ebcbc6ada8dd98989aaa84
col28:   a67ca989aabc8b8b75aba8acc9ce699ebe8ab9a7aa8cc89aa86acd6b9bba7d956b98ab8db9c9c8c9
col29:   3b99abcaabb99dcf9c4b98eb9dafacabbedcdb9dc8a77e9788dcfabaee9a9bbadc9d6c89c99c7cd7
col30:   a4656b5a666a887e7b9d6ddc8d99bdb889e69f9f9dcbcae6cd5aadbace8acda6987996bcb9aacbb8
col31:   98d5a96a7c898aa8ba96fdae8ea8dba8bbbdb7dfd9bceafddacdad9baad97b8fadaacc8bda7bbba9
col32:   998aab9e5aaac9cdef66a8aecd99c8eafbdaebacdbbab9ab7ccb5bff9da8b6ca9dafcbb69f5988ca
col33:   e4b6cc747c89c8fd9ad8cccdb9cdcbbabf69bcc98ebcadb979a9fc8ceabcdcb8dbaaed6899ca997e
col34:   977d878e9cbaadc7a67cbacabbb9ca88a99c69aeaddbcca6ddb77bdac99d9f9cccbb98bdb9ea99a7
col35:   cebd59acf9bc9cccab7bb89cbe7babe9a9cadbfdbcab8cb9ca87cea5cfba79e7977abadadc9ba577
col36:   9cbba9aabdaca668a98edbcfb69def99b9cfddacaabfbadeb8eccebeaad8b8e7abacc7769cbbb7a6
col37:   bca8acbb89d7cab88dbccad9bdacb8d797bdabeec69bb9ecddfeaf6df8ca8eadfb9dddc9cb8a769a
col38:   8b76caad64ca898a6aa8ddc7bcbdadcac9af99dcc9bcbbcce8dcfbaebfbccac9dcc5faddbbadbdc4
col39:   8a9bdaad3b99adabcdaaca8bae9d9eea7facddbe9bbaccdbf9ccabbbc99dbaeadfcee99eddd9ba64
col40:   a77ca76b9abad9dc978a9b8e7babef9becfea9bbbbeedbbe98ebbb9dc8ffcad7abee776ddedc9da7
col41:   6faa7f8c978c9cddb89cac9bcceffd9d9dffbbc9ebbeefdd8bbb9bdeb8cbcffbccadf9bbccbcdd9c
col42:   b58997aafd9abba6c97a6addacd999fecbb9fbd8acaeceac9b8ddbaccc9efbdc8c9ba86dd9abbdb9
col43:   aa9cbd9aa8687aeed98cdfbeb5abada9cccd9aceaeaca9cfcab9bcfaaefc9acedfdf86ebdcc6adb9
col44:   ab895b5a3c9efabdcecd7eaeb9aacdcfbc9bab8bdf9dbdbca9fe9dcdbcd8cd4af8e9da988ddbaba9
col45:   ead97afbbccf86cdd99bcaaccb9c9cd9edafc9fdcefa78fddcdcdaedbdd89cee6fcbd9cfbb9bbdaa
col46:   d5a89c9ab9a8abe8f88becaedbe868ceacac77fffe9b9ef8a7acfeec89efccb7eacdf886aacc8dc7
col47:   cebaaabbaa9d8eabfbe9cf67b9ccdbb7aaa8ddcfbbcaadcfc8ccfceacc8e9de8acfcca9aa9beaabb
col48:   abaa7bd9ac77af8dbcc87f99eb9acf8c8eddf9fbbced9beba8cbdcc9cbda6b9a9cfedb686bd9bbda
col49:   b9a77b96a99b93bbc9bacc7e999ec8fedbaadffdc9defe9feaaddddad9ec9dacd9dcd9d8dafaead9
col50:   67aad779accbb86a8ba6bcbb9aefaccddc7fcbbcefdbccbb9ad7f7aeeedfeaaaabcedeaee7bbdde9
col51:   da7a77b85c9594aaab99c697dd9a9b9abdcb8addd9ad9c9bba7ba6e8baaa8d7eaaba98689eb57d79
