ROC:     BPix_BmO_SEC8_LYR4_LDR32F_MOD1_ROC0
col00:   624B79688787BCA598B976B67858F5659A897CED96BAB18789AB98769AB576CAE7979A86A877787A
col01:   6895613A6A8C93A996C8C6A9979CBAD9BAA998E6D9ADDAC888BE989889BC85A5C89B6B87A9E989DA
col02:   59C5766AD96585894399FD98BD69CCBDABE7F698DD8BB9CDD9BAAADAFEBF6C99BCC9D9CACABDA698
col03:   68591767BA78A999C985A8868BB6BF9CCB6788BBE8C6D7E6BCEE77C8B9A89EBBA979CBC7AD67BCCA
col04:   786A79696A798867857A6AEAC999E7C998BB468966CCD9A99B968CFDF9BA87ABCB5BEBCCDA8BC8D9
col05:   993877388562DA878B889CF99BD4A79AF999A79BA9AAAA987BAE8F7657B89AADC9759AF799ABDB99
col06:   88B567879399B9959DA46D5A9A7BBDC9B9B78BC57A98C8C75B87C8B79968BC7B9CC8BAA8965CAFAC
col07:   6585266D569B9DAC65B7B6E9D876B3D8CBA9D7DAACD986AA6B89DA7AC7F8AAC9B9DABAE8A7CC6B7D
col08:   52A889BA1399749937AACFDA93859C59B988B5689AAB8AF4795987CBB97C8CACB996CB5AAA8CAC7D
col09:   849733B99A87AB96DB4E87DDA4A8E87BDA8658AB76BBA8D6B4A799AA4DBA6AA9B9A7B9F9CCCC9BFC
col10:   688C73C5246777A8A889ECA998642DA9B59AD9889BC86DB78A88DBF99BAA786EC99CAA498AFA9A77
col11:   78877B6A988A77AB69CC7DC8657BC48AD69BDCAAABA4D8869C67CCA6C5AAC7A9768B99FC98CAAE98
col12:   796A769A97964B57418DBBCEA69D885998C4B87DB88689DBCC5AB978AB83A964A8CAE4D925CD8389
col13:   A37999448767A839A99ACBB678779A83534AA9BF8BBFBDBB978BAC7993BA787AABE4A7BA9ACC9A96
col14:   89457338B99563678999756857C9869AA8C5598BEE8EBB685B5ED7A6CA89BC6AB77BD877B7789D78
col15:   B89A744759244C67AB866BCB7C8AC69FA3697C89FA4D5AF8A65C89D85B6CB6889B6B989899CA2BA4
col16:   88E383C6B6883BA9689E8B89A9F8AA67CCA7FBCCBBF4BEBCBA8BBF29C89F9DA5EBA5CA6C5D6CB889
col17:   23475889B35D35ECC5C259688AAA8B6A6685F7B957AA7CD76CA7E8B78CAB8D689EBCAD7C69A9977C
col18:   676E77719F5396DC7B9C8D8EC99A97799A97CF95946C6A8A97ACB878A78B87DA96AAAC6D93847A79
col19:   52552A46C8348C796D9C9B7A7A9AB9BB99CFBA89885E8979B9D959BCCA9B7ACDDDA87DB87C9B6A64
col20:   552586AC9BA5BD36BA8A588C98698BC8B8D7ABB6939AAE778B6BBA7687D957ABBAFC8EA5799327F9
col21:   3888C557A789799A487AA787E88BB786BE5AA8A55A7957659AB7B6E7885CC79CDC97E7ADE8887A99
col22:   564AA48A9666ACA8968AAA799FA9DAA9AB7BE8D7A9AB8688B9C38A297788E97596986BBA9865A9B9
col23:   7669482A6873BACB6C67C6ACA4A896BB8AC8B487C568669B98AA7CBC6CE99BA4869388C99C7E88BA
col24:   287B727834A755438CA867A87BD8AB8BAB98C8D549B9C57939EB76967886B987C4A8B9B8EC78B295
col25:   47577AA95D7963547AA8F849DA9A9CDBB989867C7CBAA5778BB798889599A8859793C89AAA6C9879
col26:   3A4AA9C648C8BE7CE8AA98ADDADAEB8ACA8EBCBDCA7BD89A99FB8B995EA7B78A7E98AAC9DD98ADA6
col27:   83469B8896979DA7A89E3BAAAEAAAFDDA79BD9A9F6A7ABCB8D98FDE8D6D58B5CC89CAA6B9A95A8B5
col28:   6649A51499966A58AAD57DAEC98B9BC875B67998976F668D97C8A85A8C9A9B6A8E9BEA7696766655
col29:   99157897C9B67A59CAA89BE9896AAAFE76AFC9A98C8D69AC86ADCA7F78B8589787ADD9F897C699C9
col30:   5837A87A2DC95A979B879986C6C89CC7858BAC9BBBC9CA8BB96CF848D9BA8FD97C59FC8B9A88DA88
col31:   35A9998BB77DA5A8997DA88F5FCBBBA8F9BBA7ACCD9BDF7C6D9CC3CCABCFB7B8BBC85CB7AC7DBBFB
col32:   B995B969B9C84BA87BF89AF889B8BEB9CB9BCAC676CED96787AA89BB9EEBC9C9AD9B866A8DBDADC6
col33:   B78684AC9AB9E3AB87D98BCBFBB8BAD79D8BA69B6AB7A8DB9CBCAC9AAD9D9BDB985D7978DCCBD998
col34:   76B9BBA6DC7CAA45BC7A987BCD8B96DB7BB6CACADBC9ABF587F7D6B8B6BA8DB7BB889AC8BC7D4CF6
col35:   7A839739D6DE9A79A4BEBABAB8CD98ADBEB7DCB96B89B6877B459CC48CBABAB6DC7A798C987ED8BD
col36:   6A76BCC6A989D76A78BC999D76BC9C9D9FFCFCBAA89CAABADBDDACD9888ADBFC8A98DA8E397CFCA7
col37:   C9A4A8796767C6BAE883CC4AEBCA69BD69AF879C7E8486BED79B7F69ABAACD9A7D3ADDACCCE9BBAD
col38:   877AD6A47DA8DAEA9BEE9AE888BEC8BCBAB8ACE9CB8C89BAD787BDC69DCAB8D9AC9CDBA97CECACBA
col39:   775666D7A156F699E5ABAB796ACB5D98DBDDCDBBB788895B9B9E7CAA9B97BBB7289EFA89E7AFD879
col40:   67694A96D499AA6CB797DFFCA8DD9AF8BB899CC9AA5ABCA99A8C9CACD8EA779EA66CEBA7A8C9BBC6
col41:   78818368C6C29BAA6BA78BE87BDADB9A977FB6ABBDAB8BECAABBCDD799CB498BE97C99CE9DACDACA
col42:   6566995C88897C3BA9B8D9BD94CBA7C97CAD9FBAD597CBBBADDD94E6838ECE9FCB598DD9B585F999
col43:   37566A5A9A9A6A6F75A79AD9895B8CCC7B89BAC7CBA6ADA97DB8BDE8B8CCCCC9B8FD86ABC65FCB8B
col44:   7C7586C89BBB9C998BA7AB8DCDF9CA6795D97C76CACB4AACA6AEB45AB5BCADCD998FBAADFACE9A59
col45:   B74A9D9F985954C96B766BE787DA4AD93B97BCC8766CB87B7A4BDB8B988827B6997DB5BCDFCB9BCA
col46:   8A577766A8BAB7B98A97CBCBA76987C7BC9AC789CD98CBC9BE9C5EBAC5AC8EC9BAE78BB96B9B7BD6
col47:   668988969C956998791B5AA9A8EC475B8ABD99DED3468A5CAAB8C987AB5B5A9B9AA9A6BC695CCAC9
col48:   C7A8D44DD68A9A9D939A7F4A56788A6C9EA98879E8A899AE9ACC989BB87BA879B99A8A9C6B978FBA
col49:   B77A549CF78889B99B67D9A67894B8EE89DB8CC7A878A8AC665C76E7C8C8C8A936C58A93ABB7ADBB
col50:   534E679C78859998AA9B259A698BDB988BF89BEC7B97A59E98978B7BB69A9797AE5B7BC9EBCAC988
col51:   769475826524C37A678A5A678A9A5955568AC3259197768596466BCAA4C8788B9A778CD9A5989D68
ROC:     BPix_BmO_SEC8_LYR4_LDR32F_MOD1_ROC1
col00:   7C67A7867539987BCCC6954C87CBBE95B7AA894ACBA789D2938C75A6B894648921C67B696E869759
col01:   B848776BDA7B8ABF8BBDB87B8776AC47CCF5CADE677FA8E8999C9CBF8D6EA9BA6768C9B5895A996A
col02:   969857999587649988F88E8BDBBA9EEBA9F7A76CF7D8FB7BE65AB7A3658358D665785B77A2C75759
col03:   BB858CA46988DA4C979B88D9AAB78BA8878BC9AC787A989C8885A9D9BCBBBAACBABFFE986B8665C8
col04:   A78A7C64AB483DBF99FABFEAB8698991BBAEA9AAF89CA5A8B5FDD774C376E988FA91B1C59448A665
col05:   A5649BB8B87C7B8F997E8EC7CA6BBCCF9B867ACB76CB7778BF5ED7D7A53692D7598F55C896C6DB93
col06:   D5A6BA78576C5A49785B95C7AB7C898C9A6BCAF88C7C6FFD79D7BCA89E9C4976BB888AAA99887A87
col07:   9769B46797A59788BB869AAA9CB7E668BFC676EB3776FD78BF7D3B57987BBC66AC87799D538A6677
col08:   56597276979B79ACBE865C984BD989C6CEE69B45A88AAF598696AAB47A467AB6779BA76A6C9879D6
col09:   B7BBDA99FCEDBD8898959869BDC99D5F9596DC6ABD978A6FFC6E4F8AAD7CA4D97ACCC566888B767D
col10:   B8AA88BACB9948D4BACCABCFCE9D7BC7EABCB6ACBEA5A7B5A67ABDAA5DCD6C84BC589856AC587BB7
col11:   7C17F37769BC645AC6BC54958E6CC8E7D68587B5C8969AADCDEA8E9AC7C796AA7AA5D96918F5DD89
col12:   84B9BB7888888F724D86C6976CBBD89BCAA6786C889BFD9FC9394AD9ABC2B67799667ABB2F648B86
col13:   B97794889B899CC97BCB6E8865CD9E7869A89B659BC9D689B9DD7ECD65797896AFB98E5FA69798B9
col14:   C5883757886D47697F7FB7A9C8BDC67B43A3E8B6FB8AE63A9787977CA69CBAAD6C81AE9AA7555965
col15:   7889B6B9AC9794B8AB8886B7AD97B77BB5987CA88B7CCA5DE77AADDEA597A5EBA7B8A6A99BA7DC79
col16:   D727AA789CA6BE9698B8A9A4BD9ACA8569DCF88B6F39955EAABA6C78999D95635ACEC678839E7654
col17:   56A6CB867C879AAB9E8DD7A4899EC5475D7A7ABAAB7A99A79688616A96DC688C9A38888375695B9A
col18:   52589CAA8239DA78A855586C959CFA85BA7667A593F9E77C884B999E56D5EE79A9465885779AA879
col19:   5A7D69F9975C96B88CA78C8A3988A968A86A9DE6A8CEAB9A85B869BC1CAD77A9887599A959875677
col20:   778A8863B957A6D8159C928BAAEAB966A888AB7B8D96866AAC9F355C6AA86947B369B68BA136858B
col21:   A7777AC37954B49CB8A6A6ABFBAB9BD97B8D9EE786CAB56CA879B8D8AABA9CB3BCAB678859C6BA8D
col22:   43AAD95848C86DBB8BC5A3957B89C74A6ABAFC956259AE97D8A93A5FD979C8A6D69D8CA8265A496B
col23:   983846A9A886786759B878A85D789568CB97FE5BA4AD87B9998A8B697628A8BE9786DA77B5325A39
col24:   7696955884989629C88B77B9B629D9B9A857AE87BA548DA77AAE7EBA78C68BC5B9A8B466EC553687
col25:   6181599894928CA885998E67AA9883A9DD6A89CACAC66788BC859768573879B72A5B8B89755AD666
col26:   AAAA59A7883AC8997AACFBEB8F8C75A99D8CFBCB99B9AC7BB7BFA5BEEDA89AAC967869AC67C79B96
col27:   75A3D5CD788866F97AED8D69D899B8D9DCCEE697CE9597A699ACF7CEB4858CAC35465389F9C6B796
col28:   9B6DCA8BBAD4BA59EFC9A799E8D7BE9CBEB77BE9B99AF87BAFAFC83BAABE8DBA6BC6AADE9B9779BD
col29:   6998A96979941E88EDAC87CACDDBB89BAD7869D9AFA679ED99BA86A87996ABA9A6EDB8F6AB7EC8BB
col30:   8ACAC8DC7AABA6679D9BB9AC6C79EB8D8FDC8F99D8A9A9A9889A97CFD998AC8AC5767D7A9BE5A9AC
col31:   A88E944DC6EBABBCB9FACEFEFDEEBE87BC9BBDF8FAAC7DB99BDB87C7FC9A889BCC8FB3E76D7AA9F5
col32:   4886837B7C69787468BE985EB9DE9ADEC697B669EDBCB6BDA75EFB9ECA8CBD6A9D9977F489ABFD93
col33:   B76958968B7DBCB9CDF77A9EC4DA7BAAFA9CCAAAEBB9DAD9ABBBCB96A9BAC6DAACC8B7BAB9B9DDA9
col34:   B468DABC9AE8E9AEBE85CD9EADD9CDA6E7CBCABD99CE8FAAC789ED588F5AD9BC8589A9ADBAECD9EA
col35:   868AA8A99C689B987CBFDBB8CFBC9CFEBFD8DBACFF99B9A79BEA8C85DAC8FB9CE1D7E777BAA987B6
col36:   DCCB98AC8CACDA7DD6DAEEBECBCB5ABACCBFFCD7CFBBCBFCE7DBAB9ADF9BB9ACE7ACDB6A5ACDAABC
col37:   E76BEB5C5A9A97CA98CAFB9B9D98D7A79E8BBC78B9E9DBCFD7A39CBAEC987DE57F9EBDCAFCC5FBCB
col38:   E66EBDCAADFDCB689D7FE99A77BB8CD97CDFACC6F66FEFCD9AE8EDC96FB6BD7EDCB9EF79B99BCA93
col39:   867D88A66A65DACC6A8788E9CDBBB8B6D92E96DAFBBD88FAD66AA6CBE868FAFBB53A687967BBE7D8
col40:   857897D98C7DFA9CFADCBCAC7DCBEECDDFCCCCCDA9BF7FBBB6CADE579A8A39CE98A9EDE9ABB7BDAA
col41:   AC587B9ED697ACA9AB7FDF7F7DACECCDD8F9D9AC9CDE6AFCA5CDEDB9A87596AA9999F96EBBFB6A94
col42:   B979DAAA999558B9C6DFBCAA8BEA7EDA8B989EDCAB8ECEABCC8CCB98BAA5EFB88CDCA9C8A8AAF59F
col43:   95973B9DA75659A99ED7CEEDCF9AEBC9B9FBBE9ED79E7B59EEABE8AA55D4FB7BBCDEFE9B98EED9CA
col44:   CE8AA7A98BBE9D7C6D6ACBFCD9CCB9CAD68AD9CE679AD8BDA893AB8BBA98CFCA7CA96D869CB77B99
col45:   8696BA85CBBB7DBA769EEADB89FADCDC8FFA87F7A9CCBDBECC98DCCB97DCABCF9DBB8AD886BBDCDC
col46:   7F7BCFBCC8E69CCBACC6A8C8B89CDBB9BB79DDBDAB9AFB88DECAE9EBBCBAA99B9F77BF7C6ABBDBBA
col47:   8986CCAD9CBC8FCAABAECD79FBCD9BCAD89FD7C56F75D8BCDF8D8ABAE9EDB8D5CEBF6FABACAAAC8B
col48:   CC78A9AB99B9868A5ACCEAC7BA9B8A85E7AECEF8BD7ECBA79AD89A6DFE9BBB93ABDBC7ACBF9D5E86
col49:   8852BCA8EB6837DCC9BDC9DABE99A9FACA9ABEAAEC9DDBA9E8BDAFC96BCACDFD68AAB98B6CC7C5E9
col50:   6889B797ACFBFFCBC9A7F7D89BE96C9EACD7DEC7A9CADAECBDBC8CAAD7B9ACC99BB98CBD8EDE6BAF
col51:   997A77E9783BC298A8F5A67DB99AB8B9A887A766B69B69598A79A6756E57BAD964AA9B996B6BA795
ROC:     BPix_BmO_SEC8_LYR4_LDR32F_MOD1_ROC2
col00:   4A5C699B58A56755346899C75797A867B7B8A968869799CA6975C8A39A9CCE47B859778B884885B5
col01:   B64B6C8B97378E7697CA9CF3C5BBD97ABFAFAC9BD9BAAA9BBABA59A8B87FBCA7F9AA9B6AB6BB7997
col02:   53699B84947676885DA986CA69859ABD8AC3CAA66D8E97B5B9886B799EC889CCAAC7EB85C777C657
col03:   B96A89D578B7B48F7AAADC87AADC899DAB6B9DEBABD8DC7BAFB7B9998AAA9DAAA9A83A86A595ABE4
col04:   3665B3C9C9A639896BCE8A97A79EACA75CFB98BCB8C6E8BABCA9FCBBCAA9F4AA7B69664ADB9D9689
col05:   B38587949BA778A9846989DAB96BEFB56AC74B5B97BAC99ACE7B6795CAFEAC56C5798676784B9A37
col06:   5637688989798FA8AB5647DA67A9BF8AFD869EACC98BEC8FCB9A9E7BBCFED9C8A968C8B64D665836
col07:   CA8A75793BBA7ACD7DAA3C699DFCAAABA68A8A87DC8769ACDDBA9ACBA6B9C69C9B88B979487B5A66
col08:   98C787996B64794C898796C6CA9AA9E888BBA979D9B669D99A799BE7BBE8B65B64886D9949953597
col09:   67A97BA6CB9A9975DB7C37DF8ABC9ABAAB8B9AAB99A98D9D6AC9C95CB7BDDC4CA7D8AAA95A5B78B1
col10:   7BAB6894BAA885DBA98A898B6B59DBB8C89C78E9D8B9DDBCFADA88E9FCAAC98DC888DD69C9BAA947
col11:   3A6396939A89367BA868C9DB944778379B989BD7BF9EB977CB79A7B6B997138ACCA9745596987925
col12:   45849A57887AD589798AD97ABC967A9789BCC7577CCA99C7ABBAD6BDA98B4A767876A586C8B999A9
col13:   46C76B8ABA5D85DCCDF7BAAC786D9A8BBBA68FDABAFBD797899CC6D88AD99C99889A99889A45A3C7
col14:   6867C9959C79B9A6A89C96CDC95998B69769799B9A3AAC9997B8DAA8EDAD8CC9777B5B7838789789
col15:   6AC6A6C88F87878AD7A9B7CAA8A8879669BA6BD9BAADA95A9BAB8F6A7ACBD8E6987A25BB99AAC876
col16:   8A6A6659C679B8A69A857A97CAB98B887EDD26E7CA8AAA8BCB8BDA7CAC98DB898AB7996B89868E7B
col17:   84833D537889598797838E9BDC9888B9598865E9D9AA77A6B66C6B9B86C98A59B79896865AAA9746
col18:   3838A8657898C48975BC97398DD8A89DE8ABDD567EA7A97B58799AE995BCD79688888A6A77ABB655
col19:   66A75B9986A89D58A7BB9A89B5CA596BA86E6A488BDB9ABACA76AB8BBA77A48B96269AA93799A595
col20:   89456988736B387A79EB7AD6CA65BB93BD7C8B6DAAA95977969D7ADABBE8B99ABD4B8A6F57756B87
col21:   67496495A52B799887AE62B98998A7AC449BA7D9EABA9CB5987BF9FBAA9DCACA98ABE65549B572AB
col22:   745787687887BCBB6A8AC69B9A9B767B7BBCAA7B88BBFA997B78ADEC9769BC9C5A636997B7A61556
col23:   6694A8587B6718AB667664687B9B8A8D9A79CAA989983EC8BAFE6B5CA988BBBA89B7CA8597577A51
col24:   A37768A185548549B76777798569BA87C991965A98AAB7B4AAACFBA9B67963B82C93A68A677183B4
col25:   8CAB9628977989999B89D9EA67B67AAD3AA65B9D67F8B97BA99866C8A9B7E67A7BAAB75557996345
col26:   8983A7A4C97B945E875ABCB56DCA7C7DB9CDD5C9ACBDAA7C8D9F78BF9BDEBA7E7599A78898559556
col27:   A3C49B775CAADC955B7BADC9C79C6CD6AE7CCDCC7A9AF9B9A998B6FCEDC89A987DF7B737C6686958
col28:   9C95A9A1C96DE19BAC9AEFC9BEDDBA6EB7CA7AC7ABBDB9A9FEBB6DAA68BCB748899FA78869929687
col29:   767AB6B997A999D36ABBBB8CAAB7B9ACA9DD96DABEBCCD88BA9C79A99DB599B7BBDA79A78B994885
col30:   848BDBABB5B8D876BE9888A9AABAA79689DB4DCBF9AF989B7BC89ACBBE8B8CC27BA7AAAB87779A86
col31:   CBAA6A8DB4D6BB9B69B6B8A6887DAEB9DBACCDBB9ABD9CCDCBCFFBA99EC7B7BBDC7985AB8869D576
col32:   B598F99BE8996A8FD3AAF9989B9DE68CB9FB9C9D6EC8BCAEFBCDD8DADA77D9BAF888A7BE88498864
col33:   8BC8BA6DB98ACEAC8EEC9C9D5D88CDACBCF88F9EBCEDF8999C9BAA79B99AA79AD9AD879E996C68EB
col34:   79B9687CAB9A5A8877BCABB77ADF6BBAABA8EF99FCCB9B9DEDB7D7ABA9E88687ADD9BAB87BE8AA94
col35:   987CA959BB88CBC5CAA9FFF656EDBEBDF8EEBC9A7F9ACC99FBDCBDEE97BB928C89AA9AB5989B6A88
col36:   A48B3A77A69EE798CAFCB96978DCA99C9B8CCB9BD96BBA8B9A86DE7BBAADD8696CBA7D94D5373867
col37:   99A7BB7996A8C57A8AC9958DECC8FECBEFBC9DBCCDD879FBDEACABCCABBB7796CAAA9569788C6864
col38:   9395879C679A8EB78CEAA9B8CACACCCBA9E8DB9ABADCDD4BBBA7BA96A7A8B89B85C8876893F74758
col39:   7784BCAA69A67A799879DD89DD9EDB98B9BCFBCFC79EA9EBDB8989A9CDCCDCD6C79AAA8D9DE95CB6
col40:   4C2566A79E9A9AC68A9A7D878AB8B96B9968BD6AEFACBAF9E7AAADA94DECEA98AC96ACB9AAA67665
col41:   B7789BD97C9966A4557B8B98AA89CAEB99B8ED9DB9B67B87CC6BFA9C8ACDC98AA4699EB6595C6754
col42:   A88559C9CCA9B698CA7795979687E8D9AAAFEECEE8EBCDA6CD7B7CA95BEEBFABAAAC99E976B4CB74
col43:   9566F498A485A8AF9A8C987E98CA97ECACAAC6AAB7CCCA798CB9BBABAEA8DA769BC9ABA88B749A4C
col44:   BA8398B5AB9886979ACBC69AADBB88FBDB9BA9B69CC98F97C9BA89A8BACBA8B78875394A657689B7
col45:   958D8BE884CA6A4E8CB8BABAA58A79D9EDBACCE6BCA8EDCECA968AA98A9CAA9499B78A96CCB59C45
col46:   75663589A64BCA848C684A7B9B9A939BB9CFE9DA9BABDC8CA9AACBA98B98BCBB895C7BB886A88892
col47:   89667656863AB8977AB87C7CC7AABC9ADA79B8C9EC8CCCDCF7EF7B77629B8ECA98A6A56A78995785
col48:   A26A646599A7B5B6A4C789885AB66A87A7D8AACA69A86BEABB8DC98BB999A877676B867B5B78BC42
col49:   796B5C3969878A6ACB989B9B9CC77FFD94877EAEC56C9B7BB7DB9978BAB6C878CBDD9BBA6A869799
col50:   8A75A66C8AAC89AA7AAA56BEA7AB69AA9BA979AAECCCCA7BD8BB988A97AD87BCA7A7BB96B8467873
col51:   835629AA6467587688A74A7AA387B2DBBAA7899A87BA878877778B9D8BD799779578D9A94A359589
ROC:     BPix_BmO_SEC8_LYR4_LDR32F_MOD1_ROC3
col00:   68555597998BBF9799BA7476BA5728B8BCFBBADA9975375876B8A48BBC9AA795B8F9A389E8856799
col01:   99575A8898BB6CB986CB9988B98CA76888B6A7F85CA9C6CC99C66DAAB9B6ADB8AAAA968C91ABC899
col02:   966AB9586AE85978BA9BBC9ACC89C79B3CAAB9DEA8CA9DBBC889EBD9D899797CD97979A7AB8CA69C
col03:   B38287E99D64D978BAAA975A5AAA88BABA79BC9A97C8ADFCAA9B98AAC9BCCA8999CABAA6A65AB6AA
col04:   977A979A688B69AB9A8AC88899F8AAAB8988BCCB8C9CCABEACB8ABB8BDCB9DDBDE987A99B8968889
col05:   77859B4879B99955DA9BB89CB6BBA8EBAA9C69B9CC9BCBABBAC98ACBCE56B79EBBD6EA7B7CC895C8
col06:   699C3A499756966C67B8CBAB6BCB8BB78BBCBB9BEA8BBC88B9B9AAACCAA9BEA974AAF8496947A75A
col07:   6A7B7977D78A3DAA9C99CB8B8C7CAE9E5A9AAE9CFC8DDDA5FADDAC99BDBBA8CDACF8DCA9ACEBE88C
col08:   9756A58AA899AA78A9BA6BDA7B8BC998BB7A8ECCA7CABCAEBC78C7BC88BAB5A8EC7BC99CEF9B7C5A
col09:   769285A7997B6899588DA5BAAABADA4C9BCC6DC8979BBC9AA7B9BDECC8F9E8A5CCABAA7B87B7E9B5
col10:   98988986BAA8C77F68899A8B9AAEB577C9C69AD778CE9889DCBA9D2BBC9AAB8F9C6A6DA8AD98AB8A
col11:   F795A467C97A89899BC866BBC7BDDADAF9BFFA8FCABA8EADCBBB48A7BA8C97CBCABA5A65A7BBBABB
col12:   77A68945A96A8BAA89C8A6AAA9B8C9DAC7B98A9DB97EDDB5ADBF788B6AB798DC898AA9A76C48E9E7
col13:   897AB9AAA8E9B87BFBD9ACC99AC9CC798A7CDFB7B7AA9AACA896CBAEC9B66AA8FA98BDAB9C8BCAD8
col14:   6E75A6889989C9976776EB78BAAAA8DBCAB967BDBBA7AE8E9BABBCADEA9CDAECCAB98979C7C89978
col15:   89A7CA77794DA88AC8BABA8BABAABC7BDE9BDABBBB77899B89E87B8ABAD9DAAD78CCCC959BB86B88
col16:   8C86A6676677BA7AAD78B5DBBD8ABFA99A9AE797ADBBEDAC7EA9ABD8AD8A6BCC9DA9BBCB97797BDD
col17:   69D786A8879AA987BA898C7DD47B9B9ABAC8C89BACCB9BD9A9AB9E8DDC8C8C8A7CAB997A7B7994C8
col18:   98BBA4A8CA96AC998E8CBB8FAB8C66CEA8ABDA9BF9ACCE8ABCB6976ABBCC7ECABA9CA99C9AC887AC
col19:   A88A68AB68889A757AD9B9F9D5C86CB879DEBBB77FCB8EA6BCBB989BA9ABFA4ACC78DCD7998AB8B5
col20:   77A874ABAA9ADAABBAC8BC2D99B99BB9C9ABD9DCAEDC196DABAA9A69A866A687A5CCB86C7A666A79
col21:   9796748B974D598BD85A9AA9A6ABE787BCD77CBBDD9FAEBC87AABBAFF77D6889AE87685B79B6FB87
col22:   9B7774B474D84A686A9795CB97AC95DE88B85697B5C77D88577BE9888DBA967A687CBA3A87866A67
col23:   A8996878795B89DB9E799A89CB48AE98AB79979D996CBBBBC8AAA77ADA88A98BAA754AB8AA9778B8
col24:   7866CD9A65A97868BD67795877B799BDB9DBCD9BBAA96BB8AABA8B6C8A9885BA8A9A8CBAB9B89A88
col25:   8A77875A7CB7999FAABAEBAA9BDDFA88DAD8CAA79AB97BA95E98D869AB7AB6C98E7BB7996CC6A9C9
col26:   8AC5A7A588DBB6CBAD69D9EDDBBDCCC7CEBB5C9FDBD9D8BACDACAF9BAAD98BBBBC7B9C98AA9BABB7
col27:   7CA987CBBB7C4B9EA7B89B9CB8C8D9ABCAC99A9BDAA8ADAAC97ECBDDB9ACCCBE8B7BB9D8888A7885
col28:   8BD79BD7ADDCBE9DACFB9CBCA8DDEDDCBDB8FAAEBBBB9C5DD9DC8AACDCAACBB89B9D9B8BDCACDA98
col29:   898D8C6AD99B98EE878BA8CBCA9E9CBCDDAA8CBCABCBEEBD8DCDCDABDDABCA9ADAB889D5BCAA9CBB
col30:   A6D88B6CAC7A9BB89F9DECA8AABCCD698AB9BD88BEBC8989EC8FDEB7CBAD9BBCBBADA99C7A87DBAB
col31:   AA7ADB89B99996CA9B9B98DC7ACC87DEAC9D99CFC7ACBAB8FAA7A5A99A8CC957BCCC8BE8B9A9BABB
col32:   9CAB6BD7AAD9888799CBED99B937ABA98CBCC6BAAED8C9AABBDADAAADE8D9DACEADAB7AFCA77BC99
col33:   688ADCB6B68BB8BC9BABBBABC7DCABABADBF877B9BA59ABDCBBECBCCCCEC9B899A79C67A8BDA76A7
col34:   759CCABEFABFCE9EEC98CCAAFCDD9AFE99BDCDEDADBBACBEBDBF8EF9ABBABC9CD8C9A8B8FA8EE7BE
col35:   697AA7CAABA9789DDCD9ADAAA8AC797CCDDADD98ACE7DAEBF98F88ADDADDAE8BACC78EB9EBDB8C65
col36:   97B9F99988ACBCDB8EABABCAA7BBB9EBBFCACDBCAB8BAABAA8BD9BBCDB9DCBF8FADB97B8CACBDDA7
col37:   9ACA9AA7A9A7CDCA9ACECE7BCDECBEAADCFBCDBEBCDCAF9F9BDCDDACACCECBBD9A7ACCCEEDC78FD5
col38:   9B99BABBDCBCCCDDA8BBEDD9BD7CDA9DDCAA89DBDA8EA9CAADA56DCEAC7E99D7CBFE99A8D9CFBA79
col39:   CA9E9BA7AABCAEBB7998A9CA7AC9CCEDFA78ADBCBCBBD9CBBFABCAADDDFAAB9C6BBB9A77DAAD79C7
col40:   899EA9885BABADAA8EBCAC7CADEDD99AEB6F99FCBAC9BBBDF8CEB9DF7DCF6C9CCB898BBEC8CCCBD9
col41:   FE6AABCAB9ABDBA9BDDDEC6AAA9CFADCBCB8DCDFA8BEECABDFDDABA89D89BC8ADECCC9AEABABCDA9
col42:   9AD9AACE8E68A9E9DCA5C8AAC76D7BAFCAEADCCBD9ACAFBCCFC888E9CA9CDACDABA9CE9CAF9A78D9
col43:   BDC8ABACA9DB7CE9EABCBEAFDBFEDC9EDCB8EECA9BC9CACAEDA8DECABDCCECDEBCFDDBCDCBBB9B9E
col44:   E88C9ADBCC8BC7ADBC89F9EACAA99EBABFD9EB6D9BACA9ADAC9BCBEDFF989CDDBD8BBAD7B88CCBAA
col45:   BBAC87AB89BDAADC8BAADBD98ACCCCBD98BCDA9B89D9DDCEDAECE9CE99B89CB8ADACC7C99DC78A9A
col46:   9FCBBB767BBCDCAAAEDDCACDBADEEBBDCECECEDCBBF9D9C5ACB95BCBCBACCDDABCCAB69AA9AC7C57
col47:   7B9CACCAA48D78BC9DDCD89EBD8FB9B9CC9AC9FCACFC9FEABCCBC9CF9C89CADBEB9A8BAB7DCBAAD9
col48:   5EDBAC6ABCABC877CDED9D7AAEDDACCCEFBCBABBD9DBCCEBE8BE8DC9AFFCDCAD899CD93BBE9ADBAD
col49:   9CE898ABAACE8BEA7ABAAABBCD8EFAFDBAFE9EAC6DCD9FDBBCCBDDBADDBDA8DCDC7DC8C7DCA36B8A
col50:   7AB988BB9CBABABEA9C7BDDAB8ADDEEDDEDDDE9ABBDCEC7C9DCB9CCFAAFDBDADBCC88BBEBE7BC977
col51:   7AA699BE849AAC68B78E86E9AA79695BDAC888CC87A7BBEC8ABB7ABDEBC8AD998ACCA94C99995696
ROC:     BPix_BmO_SEC8_LYR4_LDR32F_MOD1_ROC4
col00:   449567A89678579A877768B57A8998998977488863899989AD9B7AA97868B9A88A77B483B5798A98
col01:   6648435E259565BDA59A997A74D66E577ACB9DA6586CC8BA8A9EBA7AD3C7B77A84DB997CB39A9797
col02:   679699A3AAC7797569988979BAE886647A96E98A4B88C87BB898AAB976899999C7979AABB763A995
col03:   7B9B7276479A8BCDA6859BBA9D99AA7A49A9AD7EBA9ABD9769B8B7AA64D8979699B69996497A5B87
col04:   93789679B996974AAF89698BAA94ABC9CC88A78CA8A9BABCABB88AA956CA8AE8CE6C9CA5EA8B9B78
col05:   77678C949A96A8549C6A9C97986B9CAA696864A78ACA8A797AAB898BBCA9AB95B86C67A768A9D766
col06:   73A79524A6A8986589BA866BBDCCA9A98E759A989CD9B896D9DBA94B5979B6C98C9A997BBBCAA58A
col07:   83C76BB697B89A699A6A77B85779BB998995DDBA6BBCA6CA569ABBB97EABAC969CAA58B855A66B9D
col08:   79B846FFB877B777B899ADBCC45899586ADA2A4D99AA97BB9668AC9CD9A9959B7CA77AB78BC98A85
col09:   999A5C57B67956CC797AB68BC6C7486AA579B9A9A99868A5A9AB96B8B9B99BB9BA8C9B6789A769AC
col10:   4A6A667999C65985DA9B667B98B6B8A5A7B8BC697AAAD9D67BB8CBA8BA8BBA4CCAABC8BB9AA9A8A9
col11:   494B8677A79B74C8AA65BC7C873E79989A78C79ABAAA8AA99D859C8B9AA3877BE8BCCB8BB83A6757
col12:   9797976578669449A878B77B76EAAA688CDB8EBD9A7DCA9ABBA99C79CB98BA8999ABDBA9867AA977
col13:   8636A4979C997A8A7796C8BB9D6D8659BB8D7AAA68999D6DCADC79EEBA997EAAC99B859A8C7BC7B6
col14:   9679C6BAB698A8B7C78569C8B966C987799CA8B89ACAABC7BE9D9B799CC8C9787789CBAD9C896AA6
col15:   B688155875569475B5B68AA7AB6C9A96987AC78DB4ABC885B8769BB789B98B9A9BB9AC979A667AD7
col16:   876895CA7797B9CB8996B46AAB84666996CAEAE9A9DAAA78C95B97A58EB9EA9D9AAA969B8BC8BD66
col17:   C7A9688489798A98A999A7A678A8767D5A9A78B9AC87AB5B697DB9A78CD988A8BA8796D9A986E599
col18:   79559669954997596998A7956BB79CA7DAAAC8989B7AC983A8DA9BB585D99B6C97A8B9C797568B68
col19:   98CA4799967A8B7ACA8B767BA779B59968B99CAC9C9CBCAB2BBBA9EAFA89CC85D8AB8B9B995BB555
col20:   68AB696393A59A796889AAC7AF991C967A78959C9BA6DADBA8AA8ADDADA9CC98BA9ADAA69DEB97A7
col21:   76639B7678A369A7969B9B85579797899BBEC7B789FC9BCCBBD7BA99899BC98A8BC8B779A9B876CB
col22:   4448699788A7257647688AA6B49994AC5AAA9B99ABB6879C49BAABA88B89BAAAA8748AA8998B5855
col23:   4565A25273989986895B6ECDCB98D9997AB7FD5CCB97A7A99577F8BDA8AAB9A9659A8A6747989DC6
col24:   6A9B95A8C79596699BA7CEDB6AA89AAAA9998A7A82A588AA979978C58BCAB969698C6ED89579A768
col25:   5776A96477A8879E659595E867DAAA9AAB899CCB9DC88BC8999878AA8D86A979AAABA9DA7AA8C98A
col26:   97B787A5998A7B9ABACD99A7B9D9CA8ABC9BCBBCA9ACBA99C997BB9BB97BADD96CDCAC5BAA9CCAA9
col27:   887AAAAA8C79A8889A79A7BBCDBBBCBBBB9ACADEC9AD89BDCB98C7B7AA7ADA989B5BCBC949E99CA7
col28:   67A672B74BD6956B99AAACDCAD7BBDDBB999CC9A6ACEECBBBDB5BEDCBBCAB7BCDBBF78CABCB55AAA
col29:   C987B98966978A99CBEBCDDBDAD7BCB95B9DEBF69A5ADBDBA8B88A9D99F9ABD9FB7885AC78B8ADDB
col30:   A8D8A99A869BBBC9CC8BB6BAEE88AC8AB8BDB9BA8C6CBCCDCBC899DBE899EBDA8DC9C6F8ACBCABF8
col31:   5998B9CA779ABB9D9C9CEDA9AE9EDEAAC75B8B9AE8ECBA879DCCACB7DDECDADE9C8BA9B9CAD9AAB8
col32:   AD587879B8798BBACDCC99CA9D8B8ACB79CDBBEDEEB9AFFDACCCACCBEBBCBADBB9DBB9ADC9AAE7D5
col33:   BA689787B7A8CA8A7C9CF7BBDB9C796DD9988C8AADCBAECEDAFAAB8C7C7ABCCFD99ABAC9CCBDA597
col34:   7A59BDC989A799A88A9CDB89CA9AAAABC9A99CBBAA6C9CCCF8DBCCAECCFAFAC8CB68D7ABEB79CAA9
col35:   759BB8A979A99C7789B9CDCBA6FC9BD96DDDCB9CB7C9FBBF6CC8C9D9FADD987FABAAB8C9B992CFD8
col36:   859D9896AA7979CBB59BB9DDDA998DADEDDBDBCB89CBCCECBFCECDCAA9EDACCA6EEBB948DCF9AB6E
col37:   4A88A7B8778B77A8ACBBBB78A9BCBDBE88CAEEDADFEACABDDDCEBEBB9FED98F9CECCECB6AA6C99EB
col38:   B6787A788A8C9BDA6CACDCD9CCECBBDBD8CBACDCBCFBCEB8BDC9DFEFC9FCA9CDADEE98E9B9CBFD9B
col39:   778A5A7A6DCB99AAAB6D75CB9FBBCAE8FFA9E6FBBACFBCEACCB78B9CCBFDDADABECA88D9BAA9FBB6
col40:   97A95C7BAB89BCEB5D78DDBCB7F9CA8CA8BCA68BAC99DDC9CCCADCEDA9ACCABEF87AE8E9AE4BE9DB
col41:   8886C76ABAB7EAA8CAEBF8B9CBBBBDDEFBEADDAAEBDDFDCCFCDDDBBEFDCBCAC99EAAB8DDBDC5EBEB
col42:   A799866868999ABDD7BCB9AB9CCBCACEEDAAC9BF8AB8BCFBCDCADC6A7ACAA8DBADFEB99979ACD9B8
col43:   8ABA7DAA8BB988EEBA99ABDB9ADE9A99AEC7B6CBDCCDE8DDBBFCD7FA9BCACDCBAECBACEBDD6D8CCC
col44:   997AA7CA98E6A99B5EBCACDC9CA9B9CABCEDDADDADFCB9CEBAD98CBBCFEDADEDEB5DFCC9FDACDDD9
col45:   47386797DA997C76DBBADAAA96BB9D77BBDB99B8ACDFEBA8EB8DEDFCABBCCCCBA899CCDBA7C9B8DB
col46:   5687C9A89C5CB8B79A67BBCB99CABA6ACC897978B8ADCD8DCABABD9A9ADEB9CBBBFAEADFB9DA7C98
col47:   37A8A98CC799C5A88ADCE9BBD779CCD8DADBCCA8B9BA9BDDCABBCCBD9CDEDCDBBDCBAADCBBE6C889
col48:   936696796A9AAAAAD86DB9DA5ABA8DDBA7FCFC8DB7C86FDDBF9AC8B7DCBDFAEDDABFEC9BAACABEFC
col49:   698B54A9C9C9B8969B96BC8C9B5ABCBABDEBDCA9E9CDBAE8DD9FD9E999CBED97ABACCDCACADBC8FC
col50:   9687B979AAB86DE8BA8AB96A8ABAAAADD8CDA99A8DBB8CDAA78BBBBD8AABBDCABEFBEDCEADE79FC8
col51:   997B898945A67889865C99769A76C99DA878ACB9DE97C8C89BBBBEA5A5C87AAD8ACAFC9CBBBDBCCB
ROC:     BPix_BmO_SEC8_LYR4_LDR32F_MOD1_ROC5
col00:   7469455681696537759865B19DAA74589545A69C8849479BD7BE368AB8696518587586975A887863
col01:   977694B85659939A9897D7657577A4AD7B857C7B959867C7BBB99788A5D7999B8CAB55765899A893
col02:   56497B8A26A6667A6668989A5568977878A9895B9A8A46EA8976975B8ACC7A564984A9288B88BC64
col03:   565967A96766A866884AC836B54B995B666B5999C7CD8BCAB79AA887A7DB9C99877E6A8755365679
col04:   58588458456A89A67538B77886C88B8A7689AC964B698BB3997A8987A7593A76A9788987876B9665
col05:   55865362665A58787A87975A998B9AAAC9C758848A8B529EA99B6775AB99C89C88B6BC56987B4946
col06:   928824C6557797689568B6A686A5AB9A49DDAAC3AAAB8696889A3CB899A3FC595AD7C549999B9349
col07:   A645944A896596AA76759AEBBDBA88C79499967CC988B499B9C8688A5D96A9397B79C88AA8A76578
col08:   444775736876678BAC9C9B6CA8AAE768E7AC9895B8A7B9874A3CCC7A897A999867997A87465B4B75
col09:   253689387B5884998987BB69968A8D697679ACAD9D75C77B9A875E9BBAA5769B5588A3BBA9879987
col10:   676698A97896577A6A559AC99677A5A5A9CB9759EB994BB96CAB68988D7A6C8AAA7B956979635871
col11:   97B9A9526BA497A6BB8CCAAA87CE99988ACB689B98999B9ADB7FB7DBB579B699A999745468944875
col12:   7B4694718727699975BC99A76A7A689AA8A99A9A887788B88D498AB898AA669C8889882A989A5667
col13:   5556976778A868CB67C4769B6CA876AACA6A7BFA7798DB78A7BA47FD9F6A8B5879B5BCA8A8B57589
col14:   785957885677783989C9A97A8AA846AACBC9BC7789B9A798B979AB8AAA6A8A9948A6D88989637B94
col15:   47A55B67787566A86873B2BA8BBC7B68995ABC9AB9479AB9996883BAA767A9CDBB4997856B894651
col16:   C957794A698999156C777786BAB6BB898B9E398B8CA9AA9AAEA88AADB8A99B989877987979A967C6
col17:   97574589B8578A8689A9B8B97ACA7AA7DB587B6B868DD66855A58B89C578ACC778A796A866963677
col18:   6A84378787885386A79748856994A86A89AC91ABB9AB8A5767AB5ABBAB6BCB9B688878968AA59596
col19:   3738987869BCA7A8358BAD65779BAE9AC858A9A79F894DC879C99B9BDD98FDD6688C96B6A65A9998
col20:   8392F965677A79A8FA78C79B687AA9BCD9C9A878D9A8999A978AAA9BABAB98888D5367937979AB7A
col21:   3442575783972762B788CC997B978D9999A9DABA76BB8C8749B8BB6B888AAC98AA888DD8374A6686
col22:   36577989788487B6A59C99D14877C97A4BD898BB8AD8A9AAA9775A999D78AB9AA9C646878687C841
col23:   566659957A78898A97879787B9A775B599AA496ABD777A6678A979B7A7BB6667A76BAA9628873468
col24:   97BA49954B99357596759B5BB7A9B9ABCC78C75C5ABA8779B98C47988AB8CA9A8AB5A7CCBB9A7C75
col25:   8A8A77788388A7689A6BA7ACFBD977D789C6999CF79CA89AACDDAABA7A897979A8CAA789597B8396
col26:   B967BABAD89C5E879BC9D879ABA8CBCCBC8DB9ABCFD99BD8FB87BB5CBC9A6D6AAA8AFC9D99787B96
col27:   6B6A97A74CA9B6B8868BCB9B5DCC889B8AB9CBC9E8CB59B98AB6B88ADE8B9B89B8868B9BB8756668
col28:   A97998BBBA8A9977CEB5CB99E9E8ACBBCCBB77DCCC9CDAED9ACABBF97A7CBA9A9AAAAECDC6A8C876
col29:   7978B7B996946856DF9AC8CEC89BBCAB8D9E9CCDBCBBADB7DF8BD9BEAAC4ACAB9CB98989B8B89B79
col30:   5658A7B6A9AB77E9BBD98A78999DC7A7BEA9CC9CCA88DBADBAB84FDBBDACDEA79DC8CABE58AA565E
col31:   966A88B898ABABBBD9DBBAABA8B6FFACEB9B8BA9DF9BBB7AADEAD978EEEA78EA7CA8DBA9999AA555
col32:   8788CE9FA798CB9CB9BB89CAABBD8AF7DBA9A99BDBAC869DCCB98A8BCBDDA3BB9B6A9AC6879D8977
col33:   9A878689BBD6A79CBCADBAC9DBBCA8CBC9ACCDFCAACACDEBB9DCAC9ADAECA6CCBBBA8BAA98CB7793
col34:   789CDC767CD9AACBBAAEABCCC9ECBD8C6BCFC7BCA99DEBA6CFC98ABDCABAA9CCDCBD6B9BAADA7798
col35:   B69B7A756A76AEC699CCF9AABDB5CADC8CEA7EAEDCACBC9D7BAD8B69AB9B6BAABD9A9CC78B685CB5
col36:   8997C9B6CAACB9EB7968BA6DDDBC8BD76DAC98AF99BD989A99BA768AEAABBFB8ACCFD9DBC8AAC87B
col37:   C968A568489B787A99BCC8BDBA8CADA7BFB9CBDBEC9EAA9ECACDDDB9C9CCACDBBB88BA99D98B9886
col38:   8EAC8AA5AA98B9D9B6ACF9BD6BA9C9CDEDACE9ACBACDEDACCFBFAEA8A8BADB9CA87E9B796B799895
col39:   756CABF8B7BDAA9A8B8C7AEBA7A9ABBEDAD8EBD98ACB9BBFBD9AAD8BCBDBDDBF7A8ACBEBA9B96899
col40:   6A9AC85A6897E9A8ACB77CD9ABD7CCBBA9AEEBBFDEACDBA9ACDCCCDBCC9A9CA8EDBCBA8CDB898CB9
col41:   7C93A65B5D9A98CB89C98C89ABC88BAE9E9ABCDCBFAECDAEADAB4CBDE8DC9CBACCADB97A7CBA8A55
col42:   97C8F7A987847D9DA75B9EDB9ABADBD9BE9BEBE8BCDBA9C8ACBDECEAA9AEAB99AECCCCB7F7C997A9
col43:   CA979AA9A98CEF8CAA98AD9DDBDB8BFDCA9CBAFADEDADAFBECAECEDDBCA8CECF8E65AEABF8BCC97A
col44:   C7A988CD779C65A9BBA96DDBE7CFAAF9EABBACFD77BCDDDCEC9ADF96FC9DBCABB7BDB9C9CB9EB8BA
col45:   A48D898A68B9B9C8A88BBCCBD8BD9B8BCBAC7ECEB96BA9ACDBECEBB88CBDEA7AAD9CA7B7A69A9A89
col46:   D7CAA99AA799D988AABBCDDBBEEBA7AECDDC9EDEFD9BCAADCEEC89BBEFFCB9A8C79B9BBAE5F9CDBB
col47:   6B96B9DB9CAB6C8BBDD9F89A99EEBF9CBE8BEEFCAC7AC9CD9CB8E9BDDAECFACACCDB8D99AABA95A6
col48:   BAADBDB69BBA9AABAB7EAB9DDCD8AFFABBBDECADBF9D9FCA899DABDC9BBF99D8CD9B9A8A9B79C699
col49:   9897BACA6D7C8EDCEDC9BAFEB8CAAB7EFCECA7BFAFADD88BAC8FCDDAF8AA9C68EA9ABCC89A97EC67
col50:   8A9B8B899776BB9CAAC99B6AC7CAAABBFEAACBC9DDBCDCCC9BD6EEA89FFABACBCDCBBABCBA98ADD7
col51:   BA7ECC9AA76898B686596BB9A9ABCA9CC877B69B9CDC6ABDAEAC98AAA769988D87A6885979C2E948
ROC:     BPix_BmO_SEC8_LYR4_LDR32F_MOD1_ROC6
col00:   DA6596796763F9AAF77DBAAADBABA78D78AE7688C8AC9BC9AD98B996B8A9598D8A89387768E5E776
col01:   822874D7B68E8ABE99CBB9DD9C8BDB7BACA8FBBCF9D89CFCAD97799CD9CEDD98BCACB7BC9FA977B5
col02:   69B8CA6B87976F99A9A87F5BA89DB9AB7FAD8CACCFCB89AA9AA7FAD7CA498BDFCB6C5B9BEA65B6A6
col03:   8768B669569847B99ACA6CCD9AEBCACACD9C79CDED8ECCA8A96D9BABC8EAD9A84D695899396A5CA9
col04:   8B6D49A8AC887E9CB89958E99BE7B9ABCAAAABBAACFFC898999BE79AC9DFAECEBA6FACAA9A875992
col05:   B8975565813C47A899A9ACD789B9FA97AEF9DCDAC995CF87D8ADD9869BD5C9C55CBBE77C7856A8B3
col06:   9866A868A78768BE5AF9786CDC78BC8F9FDEEBCDDBD9DAFD957DD8ADDBECB5AF996CBDB6A88A66C7
col07:   B6DA28899686983C47CA55D6DCBADD4D988B5ACDBBFA699C8AADAA64CAA88DC68B69A67A96876866
col08:   746C5AACED49857C9C9B8A9CA97BA6BCAF9DB8B7DDBDCF9A78A9ACC9ACB8EE9AC7AAD795398CC99B
col09:   67A893A69E97C89853A7DDBB99DDA7C8C9BADC7C6AADFB968E9F6FBEAACCDC7B97AB57BD7A9689DA
col10:   B95895B98A7B7A48CA9CAACBCD98C8FBF9AB7EBC9B6CD9A5CE84E7D9BF9BEC9C777BDCC87B977895
col11:   274A9355A85BC56B8C7AB58862A9A6B7BBADD969B759BE9CBCC69ABA5CBDCB9D9AB5CCBA533669B5
col12:   8576488966AA7CA989896A9BABDA5C5B8E87A8898ADBCA8D7ACDCCDDBCEAE768CAC7B679B4CB9AB6
col13:   97996868489B68ABA517CB4C75B9BDD5C9AD8BBBEBDFF9B5CF48BCB9C8DC9BD59DA8B98B8C8B6CA5
col14:   67981B97A4766887AB98BA7686EB67EA6BDBC47B85BACEF89CB79BBDEACC9569C7EAA9B3B6168656
col15:   87966B8879E7A285A66778B89DD8AB489992EEDAAACD7A4E96A4CA37B7CEC799A788BCB67A59A98A
col16:   739A8789A86B87EA959ECABA977CBAA7CFBABAB9BD9AAA8C8BDB9CDD7CEDE8A9AA987446CFA5A4A4
col17:   4348495958599398A66A8B49589964899F98868BE88BCC668CD68D288E8BDB678D975AB545486936
col18:   6486A816878A93AAD99A7D76CC997B9B5BAD8A85BBA689EBAACBCCCA8A8776C9C6F969889B69B9C9
col19:   4899A6779A8B75A4767B5589DBED7668BA986C8EA7B8BAB895CCCDBCBDADCBC7979657C3BE7D6836
col20:   685396738B8858597D8A88C2B6E9DA68B988798A5BCCBB9C9CA85ABFBC7BE8BBD9C6BCB78376A9C4
col21:   B878C77BC97A37B4979889A64799C7F6385BB58ADBB9CBE96466AC9AEB9B679AAB8979A6A3867964
col22:   4848A2538888897A968CA6888B88EA7DD987A99896D4C9AACA8BAAB9A9CBCB99BBACAADACDAB5995
col23:   788674A796474724A99798B6A9A64949D969C688957AD685D388AD48A67B8CA7AB7C7B9A6C6B7B35
col24:   645865A9719A7A59A7A5679D84929AFDA558CC8CA88C6669CF9E9ABFA9FEB8BACBD99C59863366B4
col25:   348A48879A79B79FA597A6BB9CAC6BC769AA75969A999AA999E7584ABCB5BA7B8A47CA75668D59C7
col26:   D7A96BA878A7B677B6B9689B8AB7A7BCCECCE8CAA99C7BCA6EFE9DAB6D9A5D7ADCBBB9DC5C67D897
col27:   43746A57B68AC65CDADBCBBF6595BADCAA48899AC9DACEE5AB985E99B9D7CCC68ADA9ADA72596A73
col28:   77BAC79B6669DD45CAC9BB7BBC69FC9BC9BB894B8A9BCEA9CEB6DDC6C8AE7B5CAA68BE6BA8A8A689
col29:   8D67CA6475586ABBABC98BEE8C4ABEB6CBFDDFA9ECCB78CBB8DBBB6DC89DD8B9DB8AA8C9659878BC
col30:   93984CB7988878ABCA9A7C48ACBDDDA7ABCA9578BABBCECFFABABBB8ABDBA43BBAC8969AC787BAB6
col31:   56BB6ABBCA6D9B79AA889696EDA49B8C6A8CB6CDBC8ECDBBECFA7BCBBEA89A9E5AAFAC9F4BC8BDC4
col32:   8A9966AA586E4D9B8AA759CC89B9CCDDD3AA8E94ACA9CDABC6CA76ECB9BEC7AD8897AB8775BC8676
col33:   8699696A7476BB97AFC8566D4A6BC58BAC9A9ECAA6C9EAE99C9CCD98B8ABA9B5CACDFA9BF8AA477B
col34:   648FCAA827669ABADE98E77B69FC9ECA9A9CBC7FA9BDAC9BCB9B96CBCBDACABC7FFDAAED9DA7EA47
col35:   534B84B74B6AF78886C49CAD9DAAF7BE7A89D9D9F988A9AEA49DCB8DCCCECDA8B7A8BBF8684968B3
col36:   9B6BA7669677A878BA8D86BAA77CAEAAF8D85ACACCE9899ABDAB9CCCFEABA498E6BC8BCCEA97C898
col37:   AB8B98A82AB4A9B8CEB88DEACAFD9AE9EBB7F9F86CBC6DA9A99B9C87FABEC9FCC8BAAAB6D677A87C
col38:   7FE789686CB6AA37CB88AAB9EA7B9EEDACDDF9ACA8CCAACABB998CCFC79AFDC9CBE77CC89796A9CD
col39:   896A7A5986B64BBB7874AD9AB979D9CC9BB8ABBDB56EAEB78B87B888CDB77AC5BCE6C98EF6A9A959
col40:   B776A5989D88B8AAC7C77A8CAEFBCCA98DEB9ACBCC99ABAABBFD89AABDF9CC5C867B6BCD87D87B77
col41:   7B9A7875576AAB6952AC6C793988BCC64CDBC8CDF6BBDD8CFC7F5CBAD9B6E9B9CA889779B6BC9667
col42:   C8A97DA817C667B6999ECDDCA88BB8FFBB5C68B9CC9F77EF9B37ADF89CBD7B87888B8BCAF75A862C
col43:   999BC8896B7B9A9D9E8639A7E98CFC6CABA9A85ACD8C978D9AC9D9BC87B8D7ACAB9D89AC9997DE58
col44:   A675799D98794CABA8757FA975EBAC9A8FBCAEEC795B5E9AA59C6DDFE9BAA8999A95EBDB89B9AD8B
col45:   9A94767949498897499DDC879BA6DB8ECADCE9FE6AEB9A6CB7BC96C5A8E9D7899B6885A7B8A94B57
col46:   9AB3484B867A6AA9859AC99A883DAD79798E7DB4ABA9D7B8AAD979EE7EE6CBB6BEA9989BCBAB5AA8
col47:   76A979B8A9A2B577EAAB9BBB85D99876ABAB7ACFADCC87D6ACBE9FFD776BB9AFC7978BA78CBEB6A8
col48:   9C7A9A56588579D4999AAA99A66C59BE9DA9ECBC787E8BD9DCDBCDD96CA83BCCBA9BCC86FAB27AF7
col49:   58C47A7736597888A8B4AA894E9C889565CB99B1B6AA8C747B9BBE6ECA888DB9CBBC8D8A1BAB858B
col50:   38A8BCA5688486A5A678599EAC99EAC9787968F6ACC8B6ACEBEB6CADDA65A3A8A5AC8B7D947B8E4B
col51:   7463C497664685446353622A44155B5CB88A4565A2943A99243AA5D5C456A8688B8B878A8A8237D5
ROC:     BPix_BmO_SEC8_LYR4_LDR32F_MOD1_ROC7
col00:   44346316435487A49669B2958A88786A3885676A68585A7767849863787986965A99C676A59889B4
col01:   87262382274676B765A5689774795787BC8A97B3894789C86B7679265C99878B537A8694889949A7
col02:   345759639769597575757A9A756B968EA987A999878C8577A9778A787CC874C4888B8458B8A9AAA6
col03:   66437459648847866494687285B56989A83F999AA86787796689AB8A98AABBB5499A37786483ABC7
col04:   662888589A97586896597897956B758A39637667A77C86588987E58975A86BAB8557897A8879A3A6
col05:   553545899821778795796B97A77875BE679964B7AC7AD987B6B88748A777585677C8A8C9BAA98F77
col06:   6886B3878966B2757879697488896B8AC8998AD5665999B77649B486C99A6798879499BB77858B77
col07:   366A73655A678886854A7796878A798DA89997B9CA9CD979AA99BB879C5A86C6A99AB8A96B6967E5
col08:   43324773388698678B87A8894BA7949EA877989979BCB5A7989B8798B7B5698BA8BAC894559789B2
col09:   67489B596597973878786758AB5764CD5899A88667766D7C89D9CA97A89AB8985BD98566888A8786
col10:   56993876A9877A57B488A6977AB79ADBA738AD8A778B8B74968A9A7967ACA88939A97ACBBA8B6A88
col11:   7524627C7699B78487497557969A69899ACA8897A677A98A56994C7996ADA8A9D8B68B7C8966B8C7
col12:   63582328875896899885576978A686BAB9B6B8BAB5BE8B89765A5CA89895575A8A86887799BAD8C6
col13:   476587983A4764969566596768BAD77D69879AC5A9C8778A9DA8999ACD8D89A8B898A65A8BA896A9
col14:   6611986389688848756778684989AB7FBB986597B997C796A9A8B7688B76D985C8DD88B958869988
col15:   94576665995696755669597795587BBC76D98B7789799B77AA68B7DA8866987887B77CA6765979B6
col16:   7585896776C48758578AA8B787B96D9F79BC86799C57D96A98777BAAAACA8BE77879698A8BB68957
col17:   455286697956357B558277499B7559DFB968778689A889C85999A699C87B5887A9A99BC9A5739886
col18:   5567773555677A889A9A7788489A7BBFAA899988BBB986A68A8FB89A96AB94AB68B9947AA9A99ACB
col19:   38633875965897A9C85948A8A798B79F9A59777CAA59A7A979B89886BABA8A764AA8AA89D6B376A7
col20:   568685946446686665298598956597AF887A55B7A8CB99898CAB87A69798EA9B8B7BA8AC898ABA79
col21:   669746169679B9583A486799757B8B9FEB8855588BB7696B68D9987458B9598CD6CA65CB65C96988
col22:   7369994896754895995388478997986FCB85C67977A8ACB896A9987667AA58A8B7879998C9A5BACC
col23:   3284645586736887B876668985B957BA88ABA58A9DBA9B58B85796BA6AA89A7BB986CB5767A46698
col24:   C55A95568B6A9A85B89A5B8A58BC85AC78A98D9959C79476C6778ACE9AC96BC867A887786CBAA96A
col25:   4878587699759977787999699799C9AFAAAA97C97B98CAC79C987788779D999A79A797D8869A79A8
col26:   7A386985B893477C8997C8478DE2888FAA7AAACAA7C7F9C84D9A879BECA99BC8C9CA9AB888A9BBB8
col27:   65598536A944A3998A9B986ADD58A89F999B99CC5AB8C88C98AABB99B78CDBD676AA9A9A9BBDDB7E
col28:   A9993AAC75358A9959C66B9A7BA9778FAC9EEB789BAF6B8DA99AEB8CA8BBADABB8A87AA9C799C7B9
col29:   6A6A8B99A846688AA589BB75BEBA9C9CABA9B7D8BC89DAACBDADCCB9A7989BA8AAABC9CB9A9BAAC9
col30:   384887AA77CA8A9B5879A9B8AB95A88E89AA468ADCCBBDABA8ACBBCBBCCAAB99BBCCD9989D9D9DAB
col31:   66479BB6868A73C9987A8D9B8DDACBAFBB9AB87BDEBCD989BDBCBABCCBCBB9CCA99799ACCE787C88
col32:   47DA756B9979789B9BB49DC998E99B8E8DADE8AAC8CDBD9F8C9CB77CDCA6DDBB9DAADDAAFBAACC8A
col33:   79A8769AB4869A69AB8B9D86ACCB88FFB999AA99B8BC97BE99DBADCD9FB998BA8C8B865C9AAC99B9
col34:   9977C898796895D9A76ADAAB89D9D9AF7AB9CCB9AAECCBCB8B8AA7B9C9D9B8D8AAB998AB8AB8BEBC
col35:   6A4A9779B987ACBA9A97C8BDE66D6ABF6ACA9698DEAB99A5AD9BB7CABEBBA9BA98AB8B8BC9EB999B
col36:   4AA6A4A7557976D7A38CBBB9A8BA99BFB9CA99B9ABACAA9ABB8BAEB998C8BCBB987DAA97DD8AA99B
col37:   A4886B9BAA889875A688AACB9DBB9DAFEBCAAEDBDE97CAC7BACABABC8ABFBBAB57A889E9CABCAC8A
col38:   587778AC9887DA696B8DA7A8D9F7CAAFCDABA8BBD8A9ADCE7CBACDDDBACCDAB8CABCBBBA8B9DBA89
col39:   576C45AA6876995C9A7A99ACA99ABCCA9A9ADCEB9CBCECAAAB9BD9DDABBBABB6BCB7BBB67A78D7D9
col40:   58954E6B9B98787A7B7B8AAC76AC99AEA87CBC79CCDCDCBDCBBBBAAC8CBFFDBABDACC8CBCBCDFBC9
col41:   56DAA99A5A885798BDBCAA99ACBCDB9EBDECCAEFB9ACBB8BBAB9DCDCACFDC6A89C8CF9AD8EDA98BC
col42:   579B9785AC8A8CB9ED998C89C7E9A8DFAC8CAC8DB9FBBEDBFACBBD9BB99DB9DED8EC8A8CC6B8AB97
col43:   8789C8768B694598CBBAE97AAAAABAAFAFBABBBF9CBAB69CBCBBBBACCCBBDDCCECDBBDBD9C8BCADA
col44:   59A98AA9A79B5AB5DBAABC89A88A8BBFDDBDB7999DACC99CBC78BCDD8DBCACCAA9BBDDEB8ABBECAA
col45:   978859747AA8B877CCC8DA86ADAB9DBF7FAD8B8BFB9CA8CBFCB7DDBBCACAD9EBCC9CBB8BB8FBBD8B
col46:   A9D797871ABA7969BF8ABA78AECFCBAF68AECAB9E8C9BCD9BCEAC99DA8CECCAEA8BBDFBCCDD9EA88
col47:   EA7CD9A77C9DA7ACCBBA8DCBBA8AABAFDDAABCCA99BC9B8787AEACFCDBACDC8BACCBDACCBCBCBBEE
col48:   98D9A79B9567A8ABC9AAEACACBB9D9BFCAABAABBD8CD9AEC9C8DCDA9D5E7DB8DA99CCCBB9AA8D9EA
col49:   9996A5B8D5AC9A9A9978DAE9CACEDCCFDCB89AACBAAC9BD9BDFAB7BAFBBBCEA8DCDDCEBDDAAADEAB
col50:   996D78A48A987C9A9889D99CCCB9DBDED7CA9A7ABBDB8DA9DCCFECDEDEE8CBAEA9DBBDFACADACBE8
col51:   77C699789A596854C896978757AB8CBB6A8ACAFAAAC8B978885BC98A8C59878A9A87B89C88DB88A9
ROC:     BPix_BmO_SEC8_LYR4_LDR32F_MOD1_ROC8
col00:   A674536795569768858767467A847587CA8AA7C56C8C97999A98791B7BA96877B7683AC864874976
col01:   987785DB745AD8878778A8A86688A978C796B9BAAD9CC8BA8FC87A8DA8ABBA9A9CEAB9A99675D998
col02:   4875B4648A766AB388D67856AA889998DACB24DD68C88C6899A9ABA89B56766C8D999AA3A658B975
col03:   7749857767895888ACCC769BAA76C69A8A6467AC69BAC9BB77A48B8CDB4BACA87A9CA9B9876857A7
col04:   A78773666654887AAA379B8AAB85B79A978D6999DB38BAA9A8B8B5699CB9BCBC8DCA8859768C9737
col05:   761BA276A857EB8B5968BBCA93C7A885ECABCB5AAC5B77B9A89EC977D8A9898C977786AA68485563
col06:   A589CDA9A73877457A861966B9884B8CB6C9999C799CB99776C77697885299776887C6873A97B659
col07:   B8D99A9C67A9B88A8CCB6A75AAAD8D9A9F9897CA9CAD79DC7F9AB898AAC9CBC5769798A67B8978B5
col08:   8A3A8C8A883767B77D977A657978C97A5D9B98767999757AA9698C9AB78A6AEA58ADA78B88AAA689
col09:   8966B7AA89878DC479DB6BB9588B98A9A6D8CCDBA99A6A979BBA89C6D8BBA9AD7577754468579A88
col10:   698C6959A68988898A45DAAAB79C8758785D5AAB9469A458A786663AA777FA567948729C5A75A83B
col11:   A966495445A664778B689A89A57AA7AACC759D97BB9989659D8C7BACB8BAEC977D69575957AB7AA7
col12:   956A5558B4B7A7888CBBB8BA99789ACD8879DA8B79784B977D6999A99797968B9A75915997AA9984
col13:   B777879A4C97B5DAA6978D97BBBBAB8ABB86A9B98A8AEA78A8879DACB8B78A8A8A89AB869E65A6A8
col14:   DB7DD6A7895A889599786A866CAE8B889BBBAC4C788A6DF69C9BD83A87B692D69689558597A8A699
col15:   99652BA9C6B8C78EA6A763DAA99A3D99AA9989B8CAB8BBBABAAA89569C7D3A68698C5A5AAA886686
col16:   A9AAB99B5A8BB6557D968BAC67CAAEB4AAA78D7CA9DD89D8BC8AB66AADA899585DAAB4A968858746
col17:   796E5B6A3B8AAA996993A4A976889986D768AB97B78C8C799793795BD8AAA7A9B48745497A978885
col18:   A6427A786B68D9498A857799E967B8B96A881BBC7AA56AAD7A74EC9A89AAB5775A876A7648537878
col19:   BA8996879978DABC6CA89EAB9A98B8FF9C8B8AEA84BB7AAD58A7BAA98975DC86BB9BA5697D58AC89
col20:   944A8687A9A8C9584ABA3878C999CABF7F97ACC89979ACA7B985769BD8CF95869B5A888876A879C8
col21:   AB898875746B987A77A7858C9AAB8D5ACBBEA87FA9AE8ACEBDD8C4EDC88B89877CB67A5666886887
col22:   A767398597926C5BA63BAABBCE77258A7CCAEAABABD8B9B895AB887893B6CB75A7A999776726A375
col23:   58845648B88BB8DCABA875D7CA78AAC9A589BB9B8C95B7A9E6CAC7A866798479A967673684867664
col24:   4969A79A8C96889BA9C94A9A67799AB78AAABD7B7ABAB7A99AB5A95D588788A8A766A838649A9636
col25:   856C7A85AA98977BB7C4A9EB74BC87AD59ABCD8789B8B96ADBDCC9DBA4EAA789686A8C8A2938B787
col26:   798B7A9C7BB7CCBA998ADCE86A8BDA9B99AEFECEBAEB6E7AEBB797CCBDBB79CC49A888DC4A8B6868
col27:   C9AAB6B88A5ABFFB58AAA869DDC9787DADA8CCB9899CDDBBDBBDBA8ABBB9D49996BAB88AB665BC99
col28:   AD88995986969A77CAABA96A87A887C9C9BBCBBC9CAB7BDBD79D9799ACC9BCACA666A6B984E9676A
col29:   BA99889B79BA8D8CBD98A9EAF9CDBBDAECBEC678C97BBAE8BA9BDB8DAC8DDDE7987BAD6886A95AE5
col30:   9BA6C93B89AB988C9BACD988C97C8C9AE699789DFBA87C895D9EDABB99ADBCA96AC8E7688C9C6949
col31:   8997995957C98AA9ACBA9BAAEB7CB5CADCCDBCBFA89EFA8DBAEBDB8CB7BF9BBB8ADA9D7AADCA6686
col32:   C9BBE57CAB6EAAD6BD8B8A9CAA6CDEBDBACDBEE5BDCCDBBE8BA9AAECBDDDA8DD8B7BACB7B86CDC69
col33:   6C7CAA9BBC899CACDC998CFAF87EC9C9CDEADABA9E69A9FB9BC98BAAAEBCAC89596A77A9AA6AF73C
col34:   D6C89987D57A8B8BCDBCDAEBDECBBA989CA9DF8CEBFAB9ECAAC97ED8AA7DC479A938BB6BD9997868
col35:   A897AEB8FDC7986DCFCDABEC6C6DBAE89C9E9AA9A4B9EDE5BBBC9BEDBA8C8BC99B99CBC9CCE9F688
col36:   A39BBD8A9CAA6ADCD8D8CAACABABCABDD7C89E87CB9CC99FDCB8B5A6ECCBEBB687ABBBC95A79B7A9
col37:   D9779C8B888989B9BBBBEDCCB9DA9BDDB7AEC9E8DAA5CBDADCACC9AECACDBB9FABD939EAA9A73C5D
col38:   BC8A77BCB7BCA8D9CDFA8CCDAAAAE9CBAAEEBCCBDEAAEB9C7FCBD78FADDB6AABF54995BCB9879ABB
col39:   ACA964A5AB9C9C7ACAC7CD7CBFC8BED8AEABA8DCFCCCDCBBC9CBDA86CFC8BA996ACFA887BD8A9985
col40:   BEDAB79C9C95B68E7A98CCFCAEDB9DECAD9BBBABA8ADD9A98CCDDBDBD978A9B9C9E77BA8BD8B1877
col41:   A89B8AB59AE9BDBB9CBFBDEAC7DFEC7FFFFD9FCBACBB9DCADDD9B98FC9BB9EFB8BFADAA8879D848F
col42:   BCAC96A4B9BA7D7D6FA87CCCCBAB68C9BA99AFA9BE869C9CAACBADB9A6B5AAC9BAB63BDAAC9A9A8B
col43:   5D9A99BBCA9BAAF7CFCCF8BC6DCB9ADFDE7EDCCECBC7BBCCF89CDBABC9ADAECEA6BDAC9ACBCA9A97
col44:   ABBEC77A96CB89CACBCBCBBBEDCBCBEBC8ABBBAEB8BACA9D7ECF8DABAC68BAAAA9B8B97AAA1766F9
col45:   BA8B9AAFB58B8798C9A8CCAADCD8CFBAADCA89DDAFA9998BCBC999DBAAA49DEAD9ACD9AA7999BE8D
col46:   8C8BA88C7B6AD6AA97A88DB9ACBDBACF9ACEBEECF8DCA9BEACC7CCBEAD8EC9EAF5BBB7B6E79B8A87
col47:   BB8BDA99BA7B9CAABCF9BBDDCABAEBC69FDDBCC9BCB9DB89FCF8FCFCFDBBAE8BBCCBCE96BC46B8C8
col48:   987AAB8BCABC76BDE4AACCBBFB9DB97A8A957CCDEBDE7FCFCB9C8CB9B6A98E9DB9D8B98839B49B97
col49:   ACDE8998B9AC68BFABFBDAEBBE6DEDDC8CF9FADFDECACBAA7ADBDBAEDEC9CC8ABBA87BE8ABE897BC
col50:   BBBCAC67E9ABCB7BDAA8B8DDCCABCBBBBBDCDDBAD9AABD9CD998FE85DDCA9DAC9B9CFB8786B9AB68
col51:   9AD7788BAAA7879CA99C9BCE97B9AE989C96CACA9BABACAEDC8BCCB8A7BB9C4AB8C5AC8A88526497
ROC:     BPix_BmO_SEC8_LYR4_LDR32F_MOD1_ROC9
col00:   48563868B95575A48459767849869A378A6977154665695775855697355142239657473B54959535
col01:   487B7A8AA6A6858669B55BC9978B6652A62548B674547B7696678A8B941793386688665596986777
col02:   679799A526A886A69A596A9B7A882947B975449B99899B68775864D85CA48885686A169585324257
col03:   9B8748A6483996A99667A99B587A8BBB88598A67A4547788A46773BB768AB6989835376525296767
col04:   45B653E9494589579A79655998AA99488D7764898969919C97878B8796528738A75749C16268A625
col05:   9663299D5B7744755576B88765A59BA96877A657B6787A854A8C47B177A796A5668BB83B4658B765
col06:   68227D894A7A985762898D65B554CB2BA72876AA88AAA867985696D68758A9797697B86784A32946
col07:   D9518ABAA65D9A66B969B84D8689888A786B8B68AAC6B6A9A4C988B965E5B7986899895B78986C84
col08:   6586867775498567B8A799DB8AAB367788C67736747959725795974788776BC4B546437A56E37937
col09:   86B38A862BA57C59879ECC897775699A79B9A99A887A99B997DC69781A9B4855A2638924B8ACB757
col10:   5597816D6A837BB6597657A98BC678B5667A8B34BB99D9BA7CD4577A7B64BC7BBB86674A76832457
col11:   C8895896179948767CB799C7C699AC17ACDAAB88D7A8B698757C5BE9A536658B368A87764A78B45A
col12:   6494948B55B7A877786899BA9BFC18849A97B9877967B877A394C37B998988A98B6B98379A499954
col13:   4578C8B888A886A69489AB99AACAC95C8C8866A97B898658B9595899A769C8997C64A36966B76B67
col14:   4747364AA367D89B886AFC9C96799588CA95A579A79A86A837697B9B6989699A8859A3499896C481
col15:   7A57649D86A99AB2A7849A9ACBD9B86CBA7AC9688866A865AC37359986B8764A695A874758698557
col16:   A6698A5D767A8B86A6B9B5C8A977A9957AACBAF85737B7A8B42686C87C89BB549617339AB6957AB6
col17:   66898689A59878A86665C8ACD9BB98876888798B995A8B289A798BA6F996A6677BD5947486874664
col18:   6525837898A5598B649BA6996777597A8689F97A9A8A94A8A7A9595576997D899946469A7C6A2468
col19:   458675B8A4A797AA9A96657679C98885B9D69CA8A9A6AAAA895CFB87875747A6886688887A3BD468
col20:   B78AA67B74894895999A8A9553A9AC7581A7DB798C37BAA759A494DB8968865AAA57784A7B7A8659
col21:   57529688878687DA6A9C78868FC9898598A8A8EABD6BB6979A87B96946F8F77599A874948CC89894
col22:   55765768967977BBA85899A696898B6B8ABCACAC966AAB79776B77A99565C3A8A7B65596B6B49595
col23:   8D8686778457AA9AB99C7E8848A88B3B587AE977879A5AB99B9879477C768884895B9B6A89578365
col24:   97A476A77555949ABA86C8985AA9B898AADCB8BCEBAADAC896AAAB69B798989C6816A38799762583
col25:   6834758886A9AB7A796CB8B8E898CB8A73CAD8E6A9978697BC8AB999C8AA799E3BB48BA8AB55AA7B
col26:   AAD89A69768B9699AC4AA896BABB9FA6CACABDBB7A9DBCD8DE79ABCDCAC865DAACA695D88AD7A76B
col27:   6567988AABE47B6BAA9D9DA6EBCBBAAA8777CBC8B879C6AD8ACB56B5EAC5BC9A7959B7C76EAB8C79
col28:   978C958A8BB788879B9AA9CB9F9AE8CAAFDBE97DDAC9BAD9BB98EAEBA9AC8A4B96879686699C989B
col29:   5885586B857EA89B6C7BAC8CD9DFCABC8ACFDAAB9AD9C9BA6ADC8BB9ABAD979B576A8AACBACB6993
col30:   88A76979B6999BB8DA87A7C797EAECBCEDCEADB9CA8AE9CCABE47BC97C79CA79CB8BBA6C8A884B74
col31:   6CAAA8AC98A7D8BE9CAEBDCD9EACAB8CDDA89A79BAC6DC8A9CBF99899ADB99ACD677C797B6D7BCEC
col32:   636985A498C8C777B9AA97CCBDF9AFA9D9BBFABC9FBABEDDA88ACEE9A9BBBEC8BA8A8DC8AAA7B9A6
col33:   B8983996AA8EB9AD9B9B99ABDBCC8D96DAAD968E8DAB86AEBABA8DCD8AD4E9A6689B8B7CBDB8BAAA
col34:   AA78E97A6989BCBBB8BACCFBA9DDBDBBBECCEB9F8BDCC8F8BCBBAAAAA8B888E978B8A9A9AAEEAE46
col35:   9AA9895775899BAB9ACDDD97BABABD9CA9BEDEDBD5BFB99BA8DCDCABAABDDBA7ACBC9BB9AECAD599
col36:   B5956B9DB9DAA78BDFABFADFBDD86DBBADB9BB8DDCEAA9EB9BAC6D98B9B8EAAC8A8BAAEC64C68586
col37:   AB99EA87C7DDB9CDBCDADDCCCDAEFCC99FBCDBCBDBD89C8F8CADB9BFFAACC8AAAEBBEFB78A8BBC99
col38:   8AA7EAB6C7B877A98BEACFADFDCA7CDFCBBCBBCCCEFCADBADDDF7CEDEBBFFBCACACCCEDCD58F9A89
col39:   659987AD9BDBDB977DAABAADEABDABAABABCACED9BAAAF87DB9EACACACD4FB86C7A9CDA76C7BA9C5
col40:   6699D7AB89B6EBABCCD8F5BB9BAD7ABBCCFEACCBAD96D9BE69CBDADC979CC8CC9BBFE976CE7F9CBA
col41:   F4B8A99CDCBBDCFECC8CDEEEDA7AECDEA9C9BBC7D9BFCBCDBBDCB9AAA6EB8CCE9AD9DBEDC8BDEBB6
col42:   A99857AADA78C9FDBBDCBBDBAC9ECBD9CD69ABDEB8BCBDBFD9EAAB5ACAA9BBBDBCEA9CDC9CAA9AC7
col43:   BBB6D9A9AEA8AACCBCCCB97C9CBFADDEBADAE9FEC8DAAA9AFCCBECEDEAAAF7BBBE7BB69EB8E97CAA
col44:   88ACBCAD9ADCC368AA77FDD8BCD6AEC6ADACCEDCDCCCD8AAFAFABF7BABDDCD7A9BCFFF68C9B8AE7B
col45:   768BB674D9EF9A69CB7DFC8BB9FDCADCADADCEBBCDFFAA98ADBBBFDFA9BAB8B6A7BFBB9999C9B8BB
col46:   AAABA898BC9BF9ACE8EA8AEBECDCDACECBBAF9DAFBCAADDBD99D7DAF99EACFEAAFAA977E97FABA9B
col47:   7C9B8C8C9AADA9BAFAEBDCE9ED9BCDCBFABA989AB99BDAACCCA9ACCD9CB8BBDC9CBAAACB779CACB5
col48:   AA787BABD9E9DBAAB8AAABD89F6EACCFFA9DF5DBDABA9BDDDEBAC9BDBBABDBC7ABBC8FBB9FCAAF9D
col49:   9A898BBBCEBDD6AB99ACCAC9BA5DB9BBBDA89CDA8DBBEEBEABA88ABD8ACC9AA8ADBDCC9AC7C8B8CB
col50:   6AB8B9A8ECB69DA8C999BBCBA9ACCE9CB8AEEAAFCABDCC8CCA7A7E887BBDCBCC7BADA89A99BCEBAB
col51:   578896778A698794D79B6C9A79C57A8A9B98ECD7B799A9C99CD89BC9B7BCA93C9C9999A7C965B8A1
ROC:     BPix_BmO_SEC8_LYR4_LDR32F_MOD1_ROC10
col00:   6476444656455666588475946951773993888858966797575577674836386455196684854B543343
col01:   7465619A475769688778664A659B95996877C8897A8BAA9A76ABB86A89A857BA56599A9887876573
col02:   64548667762878387478C6777698568A75BB947598688CAA66878964C37E56848C88658B66545646
col03:   75549787485575A97984A7B6579A8AA758778A99B67AA6B777A8D6B69876878B5675AA8468796376
col04:   76866554474749625798A4AD9C6988799766BB788A9A87A49768BBA7AC46A8CA9B4769664A669577
col05:   6782776ABA5777759B77A6A88A99799998798B9799A96AA59798A77B98B9A9AA8B7444A789576243
col06:   478C5557464565976A797A8A47897788799887657C877EA7897B959BA8588A926955756755532649
col07:   95577B58A998837A778978699AAEA68BE9B8B68A8A8A99A9798A7898A899AACB8A99A6689978A967
col08:   88575A76895786687A9A6A5A6867B698788699A8AA9597AA98A7399A7848B6789876689643894356
col09:   8653967B959C6455A7A68B797898ACB87A769797ACA7BBB666968779B99C77999679988644A45487
col10:   8868559AA898477687569679A96B89AB986AAB9CA6A75699ABCA6947BB668B69A667977858986562
col11:   59987A6865994A977C76699977A9B86B97997B9B99CA8798B789898AB7AAC9ABA9586B989A8A9765
col12:   2878576A764587595949A76587AA778789AA5A9ADABB9A8AAAB99B6A5B99B9C9986A999686755777
col13:   67AAA6A677879BB9989B7888699B96ABAD6AB7A66AAC8A8B9B978ACA9AB6A89979987A5C8A757455
col14:   7884B998B5CB67748579BAC986739CA8B8C9985878AA795C9599AB97977BDABBAB9A975487A75877
col15:   98988685777C99986AD78796A7B8A898967A8A7C78A99D9B69C97798DD99996B8AA69977A6666564
col16:   7979A7A889B68A6779988697B6AA9D69CBBA7C7A6AA98859A998A98A86A8DDBA6B454B9878755554
col17:   75A7767569664588568B8849898A8789A9B7579B788C79A99889BA6D9E8A769E67A88A98AB88B492
col18:   87765874588977A877B4CA9999C88698AC497A996698A79DAA88A684CC995886A83A497984859A86
col19:   B6878789583956BB9B698CA63A98A9ABCAB8BBAAB97BAEBB9A9A9B9BEC9A68AAB646A98B98981A86
col20:   7C897749479784A8A999AAD75AC9BA7A79899A898C8A7898B7764996AAAB9C899997A6B995867478
col21:   739759B89895C796877B9987C97A79BA8AA6CA787CA9AA789B8BABA69D99C9A95AAA8768A7799A49
col22:   587768876798896C8A8769B9978AABD8BC8579AABA888B8A98ED9D6A7A49A759DA48A74B76987B87
col23:   A7DA986798895A7887BAA7889B598979BC9BB999A999A97B9B897AAC9CA9B99BC9966759AA884587
col24:   87955A9B97CB5899389997B9CA5FA7867AAC79BB9A87A99879799AAA8AB9CA8865B7A68A765577A6
col25:   A786BB8857B9ABADB986A6B9BBB9A5BDAA78A6B9AAAC8BBA67A69A5EAB689AEBB97AB65AA67A96A9
col26:   9966897A8BAAC99E889ABCCDAEBBBCAA8C99CAABAACBABACA8BA78AABBCD8ABAB8A87DCAA9ABB9A6
col27:   78A99B6A777CBAA8ADB7EA79799A76CBBF99BD9ABDBA898A9B8ABAAEAC8CB87CC7AB8CA6966AB696
col28:   89B9999BE8B8AACAABBCBA8AACCEACAAC8DDC9FCDCDBB99A8ABBBCDA9CBABA899CBBC8879B958986
col29:   69A8CCA88AA78DAABAB9DBDCDADBACEABAACECBCABB9D9BBCC8BADECD99ECDABABCEBAAE9A9BA7AD
col30:   8BC8D9BBAAB898BC7AABBB5BCBCAEE8ACABBAAC9CBCBDCDBCBCC9B8DACBDCBC879A9AC55A797BAB9
col31:   A8DA768AACACBAB7BCD9BBDABDA9DDABADDEE9EDCBCCEB9CCCCDAEDAFBBADDEFDC9CE9676BABA778
col32:   89A8D7A97EC89A9BECCEBDEDB8CCBDBACADCAC9BDDCC9BBD9D79FACAEBBC6BDBEAEAB5A8CBB7A68A
col33:   87B8B69CCBACAA9FAC99BA7CAB9D7EA9BAF6BCBDBBE8BC9BADADBBCBAAADEAACDBBDADDCCA998CBA
col34:   878AB9A8DB98BCAD9ADDABDEDAFEFDBD9CDDEECDDBBC8CDBABAECFDBBBFBC9DA8AC9CA6AEBA9BB6A
col35:   8C89B999BBBADBCBCDDBABDEAAFADDAAABCAFCABBBBBBBEACDCFED9BDBCCABCCCCCAACB788EA8A99
col36:   99ACA89C9AAB98CCEDBB9AAC99BEDDABCCDBE9ECDCECDBD7CDBABADDCADE9B7AD7DFDAEBBA5AD8B7
col37:   99ABBBA9AEB9BBBACFABB7BCBFD9AECDEDBFBEDECEAEBBDFDCAABCDBEDBDABCAECEDBCCCBDFCABAB
col38:   B8BAE98A9BC9B9ABCAA5EBDCDCBDCDEEADCDCBEDBDEBADD9BCDCEBDEDBCBCCCDDB8BDDBBAAB9EE9B
col39:   7BD89CCCCE9B9ABAECAFC9CBBFCABBFDBBCFDDCECCA9CCBBABEFCC9DAAEADEFCCBCBDCBECED8CAB8
col40:   CAAD8B8DA9DBF99FDACDEDCFDDBACFE9ACECBDDEDCE9BBBDEAADBBECBCBBCCDACEAFF9A7BA9BBB96
col41:   C79BAC8ADBCECBEA9CCCDCEDDDDCCECEDCCACEFDAD8CBFEEFCBDFF9ADAE6FFDCDBFADDDCDA99ABA4
col42:   7B7DCABCAA7CBABBDBEFCABBFCFDBBBDFBCFECDEACBD8CB9BBEFADF6EBDADDBBDD9DABECDDBCCB7A
col43:   9ABDAAAACBBECACDDBFDEEC9CEAADBEDCBBDDDCFADEEEFEDDAEDCEFDDADDBCEEEEEBCCDDE9898ABB
col44:   CBCDBDCB8AACFDCBFB9CEBD9BBCCABDCEFABEDDBBB9BAEA9FFCDDDECCBCDED9EBF9CEBEDAAD8BBC9
col45:   DB9BAC9DDBCBB6DCACCD9ABBCDCFCEEDDCFCDCDFCEBBDEEDEFDEEBCFD9CEEBDFACF8CDECBACEDBCC
col46:   DBBC9ADDBEA9DBDF6ADBAF7C9BDEFBDBDEBCBEFDEAEECDAABCBB8BCFEBDDCBECECBFBBEBA9B9A7A5
col47:   BCF88ECCC7BFADEDB9FEBFDDFCBABACBBE7CFECFFCBFDBFFACEFDCE9EBBD8DEAFFCBADDCBDCADEC7
col48:   DBCDDAE99ABABCDBFBCBACEFDFCBEECC8CDDAFCDECEEED7BBCEDCBDB9DCCACDCCCDC8BCC8EADCA99
col49:   DDA9AFABBCBA9CDCCBECEAAADEBDBEEFFEFDCFFFFEFEBFFBDBCDBDCCABCECDBDCECABBBB98BC8AB8
col50:   DDB9BCEACDAB78CBAFFEBFFDBAFCCAACFCDCBFFEBCDCCDCDECBCDBDBCECDACEBDECCDEDCD99DFB9A
col51:   CAD9CCACB89BB88ADBCC99DCAEDE9CCCCACCBCAB9DCBACC8DAEABCEB7DDAB9B98DDDE9FAA989BA98
ROC:     BPix_BmO_SEC8_LYR4_LDR32F_MOD1_ROC11
col00:   68A8999788A9799A786B8ABBA9CA8C9C9C67BE8A48699999CAA88ADA4B8A6188779DA589B3B54B55
col01:   9B99CB5AA6AC7B38AAC5BBDBF9AA97ACA6C98899CCCAFBCABB6BD9FD9DF6BBA5977885FB891AB867
col02:   6A7986896C85DEC48C78BAA9A79CACFDC877D9BAAB87799DD69A8A98ABB8E96AD56B58CA48773677
col03:   76C86B7BACA9DC9AA99787DDCA9C978C99BBFDA9DA99ADACD89DBD9B4AC86AAA9B79CA8997A99567
col04:   7EB498997AC778CBC9BAEA8977C568B9BCA6748FFCDABC8CBEAA887BAEB75BA4787C7699A77A9467
col05:   8B756C8CCC8ACC6E8B989BACDAF9CD7EDAA9C987BB5B89BDC98C998ABB9DA7DC98A8598A8A66988B
col06:   859BA88989DBCBD66E98968AC86CCEE99CBB98AEAA789AC9D958AB9B98E9C9BCCABD7BB87D7B5B75
col07:   58C59B87899CAA79BA9CBA9A9A4EDBCCA9D99B9CC9F7A4A8A89CDA7897D67DCDAA6DA78BD66AB881
col08:   A97B996B9663978C99A98AA99CABBBA6ACCB896AD8CBBC7995EB8A98AADCA9BECBA7B78797567671
col09:   EC7CAA6AA8897B7795BA87BBABBD8C6AEBA8D89B7CC89D7BBECBA9CC9C7DCB7BC57A967A8C978B75
col10:   8B8A898A6B995BE7B869CCE89886A9BC8BA9DAC8DA99AAAC6BAB7969D9A5C7BC8768788C767CD776
col11:   479C9964CA85BEACBEBB889767BADB9A9AAABABB96A6AAABE778B5BAABA78D86B8BA549C7A7B76B7
col12:   5896D76796ABA68DB77B7BBBC8ABB8678CABBE8BC89C97BDBB88BA768BC8A8696C67AB67AB867759
col13:   AB6A9988D9A99C9B79B789B8D8B9BD99CD98EFBE88DF7BBD867CCBB698CA988B799C49AC8777C964
col14:   879B94659AA9BB8DBA9A9B38C59AAE9EAF8858B9DEA9AD877D68CE98CAB79C9B87AA4576989856D7
col15:   AD8655C7BAA599ABC5585CC8AB468DAB8A99B7DD799D8EBEDBBAA9AC7ABADCE99B7A7EA867B64888
col16:   97CA9B74AB3ACDBCCD9899AA57C7ABB7BBA8BFCC69D9BD97AA6CC9759985699C65A6AD76E7CA269A
col17:   A98868AD977B7858D69879A7A98A8D8EB7989DC8BFD9878AC899BCA2EE79C8BAD7C87C6A7A8B5B63
col18:   4863859CD79988DBBB867AC48CB2A88E7E7BACAC99695C9BE81A8A7C99B8CBC79ACA8A489B749766
col19:   79377A94B6AA8B585799F8D99CA89DBB99C97C8C7C999985A9CEC9CCC6E599EE89AEAA9888BC8787
col20:   C85867AD985988BC8A999AC877E939D6A7D748ADA9497988899ACCEDBE8558FDA7DABA98B79A2897
col21:   8A8B6A6A988AE8BCC9B6B7BEB8CEFBB9C984DBC9AECAAEBBFB6B7FAACE8EBC99E8D928D79D999B87
col22:   A77CB7B9988A87896B7BE879B9BA86CB77CA5878996989CCA79EC7B9886786997998A999A66E6525
col23:   87DBA67888A85668CBBF8B9ACACCCCB4BAC8AC68BA89CB9DBABBDAD698BA7BA6A79697A8A89ABAAA
col24:   968878A5EA9978898A77A667796999A9C77ABCA8679A997C89A9B6BBCC87859B566B779B6787A9A8
col25:   6AAC7645BA98D8ADD7AAF58ADA7C9B9CCB79DD98A8CACCBC9BBC9AB7994C9BACA9986C7899B96748
col26:   8BBABBBAAAB788CA8EFAABB84BAD9AE9BDAEDACCBBABABCCA89AA9EAA98CA8F7C9C89ACCBADCB978
col27:   79CA69AA947D86BBD7AAB9CBBBA7CBCDCABBBC797B9ACBCFAE67AA9BCDAFB8ABDDDDA88CB978A994
col28:   EBA88AACCDA78AEAC99B6BDCCCB9CACBDFAEADBFB6C9EDADB9CEBEED99BAD9FA8CBAE7A654884B96
col29:   BA7CB8B89C6CAD87EACCB6CA9AA8DA9BFBFCC7CF987BBAC8AA9B8BDA7CCABB97ACDAD9B8DCA84954
col30:   CBF6C9967C8999FACDA89C6BB8AFDDADABD9DDAB8BAA7DBBF9B999C6BAE8EFAB9EAABBA97BBAD946
col31:   778B9DACBC9CB5EAA9ADEBCEB78FCFEDAAAADFBB9DABBABCD8DDCCCDABADD9EAB9E8B78AAB6A8BB9
col32:   9BABBBAD97A8CFAAABCE8BFBCB79B7FBC9AC8AB8DBBBAFACCAA83B9DBB8BDAFD89BAAA6898BD58BB
col33:   FB9AB98C9C7C6BBDCBCCCAC6E8B8BCD8ABCEF9FFADDCCBCFFB7FDBCFBCE88DC9ABF487D8B6B77A58
col34:   B9895B9EBFFAAAEB7EACC6AFEF8D9CBCACBC7ACDED9BC4EC6D9CB7F9DCAA8DCCCB869B7B8999B97A
col35:   A89CC9AABBA9DBBDCFEE6BB6BFCBB7DABBCFA8BAADDCEADABDBD6BEAF9DAFCCEDAA99E9889C8CEA6
col36:   BB79D7B9DC89CCBCE9BAABDFCFEFAFCBCBA9BE9BBCF9ABD9DFD9E78A899BB8AAAFABB98DB9C5B978
col37:   D8B8CD88DBD98A9AE9A8DB9B8D99BBBBD9C8DCFFBBAE8A8ACDCBBACACCFDBCBCAAECB78ABC7AB945
col38:   89DACA765EBEAB9ACAEFDD9DDFCBEDA79CFFBCCCFED9BD98CDB59EBCDCCBAA77EF8CC99A9A9B967D
col39:   BA69CBAD99D997CEBCACF79EFF6CC9BEDECD9AFFDBE9FAEF988BCBABAD8BDBC9BABB979B79B89AA8
col40:   AA988DCB6A9BAAADCADFB8CBCFBABBB9CDEBDE9DAF8CDBFBC9B9FBE7FC8CE77B7EDE8BCE97A9BA96
col41:   EAC988DF7BBBA8CEBBEA99CBCBE5D9CDBDBFF9BBF8CFACDCEFCEBBB88EFBFCCCD7DA9E9BBCDBACBC
col42:   B77C99BBE8E3D8B9C89B97CBC9ADCEE98BBBBCCBCBC7BB9CDC97BE8BD9DEBEC9BF99DBA9898B5EA9
col43:   C9DBB9C7DCAAA78CABAEABBCABAC7ACD997FEACAD9FDFBB78DA98BBBFDCDF9AEDCCABE9999A7CB98
col44:   9DEC9C7DECCC98FA9B98DAABB9ECACACFFEEDBB96E9CBBBEDECDF8AF99CA8B999E8C6E8EDB8DACB9
col45:   ACCA9CA8D9CE8CC9AB6FAEAADBFEC6AAE89DEEC97CDCCF9CECE9BC9DBAFBEABF85FDDAB9B8776CAA
col46:   68976AEADBEDD75B87CBE9CA99B7EBCDCFBABACCCAADBFB97AFECB99DBCABBB8BBC97B4B7CD6AA78
col47:   5D7A69FBCAADC88A9CD95B88AAA8AFBAAAA8B99A989CDD9BF9B9BEF5AE8BFADCACDBC7CC7B8C9A7A
col48:   A7BDDBAAA9BBB9F8AB89CB7BBCAC98ACC5E9AF99AABBDCCAABACB8ABDAC9BFDABDA9B658A71B9A6A
col49:   8CCE8DCABC9BD8CF996AB87B97ABEB9FBEDB98CEDE99BEBBDCFC8BBBBDEBC8D8B7AF8C7AF997BAAC
col50:   C89979F4B9E8EAABEAA79BADBDD9BBD9BD9ABECD9B9CECFAAC8BBDBBABCBBCCDBD898AC99ABB5A9B
col51:   A9DB88876A6B779867BA989B8678738595CAD999BB5789E87AFA9699AB9B988969489B8A7C9BA8B5
ROC:     BPix_BmO_SEC8_LYR4_LDR32F_MOD1_ROC12
col00:   598556475856688477747A47847548747765477787A6796537497997A87BAA68867B93946755A844
col01:   A7555AA5A7597697646688B89877969ABCABD79A9A6BBB998B8CAA9A8CA7B96899B258595AA67875
col02:   98669798A4B566785696669498A95B7587A18B999779699C99467B6678A977796646969766636698
col03:   7839577A6A688895678864679A688AE79B8A8A889989A969A79E9659B988AFAB5976856596799476
col04:   518A57BAD43AA89B964A9976EBC67A887ADA8973999757A5BA3A97858C78688757A78AB7952AA994
col05:   93A863988A7A2B8977757B76D9B389797AEB66C999CA9898BBD68A9ABC5E9889C78785B61788399A
col06:   6878653876346759B26B276997B77BCB679AB76A599686CC97896A587996AAA74797B8A993B57364
col07:   A8CA78A4B677B38869ABB89C85A7D6ADDE887CA7799BBAD889A9CD68AB6A9A8B96A844B7A8956B79
col08:   67A66656A497768A86BACAA589C9466379BA98BE7B799CB7B69AC8CAA7B5977A654A8189786B1668
col09:   7977663B85879779789776BD9C999A9DAD767536A999686919BB7AAA798995B994C548E8759DA4AA
col10:   667C575953B535976A9A9AA6895A788CA87A7A7AAB9AA69797C7398A98989976787589766881AA9B
col11:   7A8768C78278A8686E6497C79CA8768ACAFF7BBAB9884BCA549A966776A7BA8DCA688A8AA98CBAB8
col12:   9677955874787A9B85759A9B59889B5AABCB97998DB9C7F8B94AA9646B9F7A57C65D9B8788A8689C
col13:   548674CC57B686B896A8887AA958C7AAA99B9C8AAAFC9A8AA9979B9FC9A8C9679AC7878873B6D875
col14:   78988A57798855C96874659B98EAB799CDA9A69AA9A9C79BB87C87A865A675985986888C9B3B8786
col15:   669A838B98787B7799A86B8A9888A7629E5C99ADA8875ADAB69B98EC9AA787B88797D96E5497AB53
col16:   885567574AC9A498CD7AB7997A7CABBA9999CC8AAC9B98D89A798779AAC77993A6A94B789955888B
col17:   7594875197A786B559A75E8BCAA789BC9AC7A9B9B8879AADD87A5CAAA94BA7887758B9B6577C9787
col18:   5365A589A94868668594A876A99B697959BCCB56985B977A8B87958ABF5888769C4667A9B57785B6
col19:   6989EC97CA23B5A88A774EDB9ABDA57C8A9A998D9778CA888B7A87EC9E7A78A9BB67AB7669989B89
col20:   6456B6C5797659A7A69A66AE6B8A66473996C989AA749AAB838BAAE69C9BCA87986A7997A8296469
col21:   D868657855A5A8454A68888795CB7DB78A979E9C7BC4978BA797B8796A8E9C37859A587436896668
col22:   697988687A9AA9A67A69586B69A88D99A9C9C8AB99978BC858CA86E994AA69BCDBC68986A2647547
col23:   7893A859B65694BBA56996B87BCB5AC86588AC88CC9B6ABCA86769A9BC897B969667669AA6658B47
col24:   B64EDA887887C799A649977948577A2B8787ABA89699568899896B99CD9BA8A79CC9658897666373
col25:   7A97A8BA52A86A8AB4898896C878896C4C69C888B7D9B878C58FC8AA99AB8B7AB7B97656A6689696
col26:   49899988A4A74DBAA99B899B799A7AA9A97A99EE5B78996BCEBC97AC87BCCB977ABAAAAA5B397998
col27:   9976CB8CA89CCA9AA96A86BABAB9A7ACE8BB6CA9D5F8BADC9B996AD8D8A7A79CD7B8987C58996865
col28:   78A97ABB599AB88CBB9FE9975C7BC9ABB9A9E8BABB9895BABBA999ADCBAACFABBAB4B5C6AB77799B
col29:   5967859A6B77BBC97ACBACBAEBCB9ABBCAA7AAAB7CBCCCA8FBDC67DBD9DE6ABE78B7CAB858549CB6
col30:   B498BBBCC68CC966AD88C9AECB4C9ABD87C8BDDD9A8B8B9989ACBD97ACBBE98B9B9BB9AA9A787777
col31:   E59EB998C988BDB74BACCBA9B99CDAD89BC9ADAED9BAAAA8AC79CDC77DBB9CD9CEAA8C9A95AA8989
col32:   9A99998CBBB88AA9E7DBB7F989AAFACD9DAFBC8CAB7DB7EBCADCCB9DDDC79ED9D5AA683B8D88C8C9
col33:   88A9AC9773A86DBAFAAFBDAA6BBBAA9ABC9F9B7A987CCBECAA9BAB7A9A9AFC89B8995C889B6B9778
col34:   BBCEB59B8969CC97BD69BEBFAAF8CAEDB69D7BAEE8B9CD978A8DCB9FDAAAABCFCC7578968FA96A8A
col35:   9A5C86BDBCB98BBDBEAD7CCBCBD8CE9BC8DDCCBBBDCD9E798CCCB7B8EBCECC9EB7D8CDDBDFAAC5BA
col36:   667B89897789BC8B8AA999C9DF9BFBCCACA7DADDBCD7BCDCDE9DAABABBCFAAA98BFCAAB87786C672
col37:   A99ACA9A9ABDAAAA9CA7BCACCBCCFDD7CBCDCBFDAD9BBBCABDBCAEADBCBCB8C8E999AA8B958C97A9
col38:   AA9ADC7974CAAC97AA8AA9FAA9CBCECCCEACBCBCDAE7ABB9ADABD7BB988CA9BC9AAD9CCDBAAC9AC8
col39:   AAA7CB6B7A65AD9C899A56AE8CACA8BACB9B7C8CCADFB7CAAA8ABEAFB77DBDBB88C698977AB7C689
col40:   CB79B8CE6AB98DAA9EC7AAB79E8A8CB9B7AFCABF8FADCEFF9B9BAB87ABBBAB8E999A59D6CEC5A998
col41:   988C8CBBBAA998E73CCDF7C9B8CEEAB9DADCDDDB7C7ACCFA78BDAD9BFCCC9A998ABDB9BBAABAB88A
col42:   9AA8DA69A6AC99AA9C59B4CD9D98CBBADDCA8DFBB99BAEFAA8AE8C7BA8C75EA8CBA78A879B79F856
col43:   B6BBA8AA876AB7BCC7ABBBC9DCFDACABCEDEEEDEB9CCBEAECFCC9B9FEDBDC9BBCC6BB9B5DAAAAAB9
col44:   97D9BB8DB878CE6AA696BCB99AFBBA7DAEA9AEB9FEE9EFE9BAD9CCA97B96AB7DAC9A6C669CCD45C9
col45:   AAD99A95ADA8E9B6BBEAD7AFACCEDBECABBCBDE9DCBDB6EBBDB9E9A98CFCABCAAADEBBDBCBC98AC9
col46:   77C8C9768B7FABBBDA7DB9D88FB8BC8D8CCD8D5FC9BD7E9BABA98F5B7BAEABB89BC9BDCBECAAA8B8
col47:   ADBBDA9ADE96AAC87C9BB7EB9A9A9DDBBFEA9CFC8CEBD9BC9CD89BF9BEFDCCE9DDC8CCA867988EA8
col48:   CC6ADBB8A3BBDB89DCAEBFA85BBACDAEBF9BC8DEC9EDACBADBBAAAABBAEC77BDDA9BD9BB7BAB996B
col49:   D8BB9EF7A9C98ABFBA98ACB9AEBDD9DB9AAD9DBBBDBDBBBBBBBAEAD9FCDDBCA58CACBFE98998CB79
col50:   9DB89C9CC8AABB99C878ECCACBDB98DEFFCDEC9FCEDCAFC78D8BAFABEBDFBBBD8BBCBB9ECCA9BC6A
col51:   7A68C7EA797BBB7EA9BA98AFB9BCCCA98BB8EAC8ECB8B999BBAFCAAEB99E8A9899399976956A9CAC
ROC:     BPix_BmO_SEC8_LYR4_LDR32F_MOD1_ROC13
col00:   C655CCA96B679759C688BDC79A659AACA7B9AC87D5DA6BAF99AA7DDAAB78999AAB99C9E8CA689C9A
col01:   989A797C7CAAC879A98B898B9ACEACABBEBB8CD9899ABBE9F99FD67CEACCCABAA7A999AA9898C9A8
col02:   748B8A9B75BE76ADBECA6B8DADCA99DA8BDA8C7C7FAAB668CA9CCA7668C899C99ACCABB98B8597D7
col03:   877897CA59E8AAC974B997CBCADBEBA9DE6CA9B766AADABB9C8ACD8DECAE96CEC9CE96A99B9C9C8B
col04:   C7CDBBA73796AAB9AA8BBB78CEBDA8F9AA9A9ADBBCABAB69ACAEC77B83AC9A78CADB58C9DCC6699B
col05:   856EA96C98CB89ACCFCBD98C9C7AAAEA8AB6D5D9CEBFB8CE76C7AEABA8C6DFBD99AFC8E9A8A7FDDA
col06:   46768A96B568CBC89A9B696BD9AAB8CBADDACD8A9CCC9889C8C8DAC96AC8E9CCA8D8DCC8A8D8C9B8
col07:   96B79A77A9B99997B97A6ACDDCB7C9BAADAC9E99BB8B7C8BBB8BBAE77A9CBDA9CF798577BECDCABB
col08:   C86AACA888AC67BB9AA97AACBDA9A6AAD7A697EDCA9BAD7AD8DDC95BADDC87BB8A8A57CEA8CB788A
col09:   B9ABB9677BA998BBDAABBCDAB8C68ABCDABCADBAADA9AA696A9AEBDEADC7ADC8ECBAABBDB896BAA3
col10:   7C377B7EB8B968AAA9CBABBBA7BCBA9A68F7EA9997CA85AAEA87A8ADB9AAACAADA986BACB98D69EC
col11:   B37A66A9CBB5ADCB97D96ACAC99C86CB7CBEAAC8A998D8BD7BADBDE7D7AABACC99969C8A99B9C989
col12:   87776987A995868ACDD9DAAC99BC8B98C979CCAB9D7C78FAAABAB9AAAAAAE8CBB99A7BB888EAC6DB
col13:   7646AB8B9BD69689A5A99996ABABCDDEBD88C99EA8AA9BBBE7E9CAF9CADCA97ABC9AABDA8CA9CA8C
col14:   B77A5999CBBB679A7CAA959ADBCB9C9AC4C99F979A97CAECFBABB87AB9FBB5AC9D8BA8AB8999DCAA
col15:   7888C999F7D78DB578BA9D9ECADAAAABBD9CBABB78CBA9AA89B99EC89868A8ABCBA9AE84C9BBA7A9
col16:   EC88EBB8DC85788BA9BD7BBDCEEACA89BEDFA6CAC79AFA8565C8CAFB9AFBD798FCB8B6C94B7E8CB6
col17:   26CA387AB8795697C9ABE5BBA9F9ABBBAFCCBABB97B7E8BD779DAECA9BD9AEAA78ACDCC999AB8DC7
col18:   A785A89C999FC7BA5997E7DBBEABBA789DAFCACEB8ADABA7AA99BCDA996A99B69D979C4AA9A8A9A6
col19:   A47997979B6A7A69DBFCBCD97897C9ACCAC999A4ABB796ACA9BC99ABB96CAF6FB57BA879A8996DE9
col20:   95ABACBD7BC7D8B99E97D9AB7778B9B97B8A7EA7CBBBAC68C896B8AB8AB8D9ABA6BDCCCAAC689BAB
col21:   5C78D8AA9A8B768766BCC9C9A97DE77AAABAE7B5AABBB8ABBAE9AA9AAD96AC8B5DBDC5CABB56BBA5
col22:   7AADABBBB6799978D6E66D5A7CA9C8B7CBA796CD8B89B89BCBCADB8899997BA8CABCC9D828A9A776
col23:   74B89986AAA7B896A8DABFF9CA7B8C2AB9ABBB6CE8C9AA59BABB9B99CBBCBCC58C9997B8A98B9456
col24:   769ABB7969DD9C9BAAAC79AABD78CACAA8B57F9A8DC89DA9FBB87BAA79DAB8BB99A687CC8969C97A
col25:   76564A599A5AB95FE8BACE9AB9D9CACC8A998BCA9DEAEBD98BB9B79ADDAA9D9DBBABB9ABEAADCC6B
col26:   8999A4B99BC9CB8BFBCCA7CB8ACDAFCCCDDCFCA9CAC9CCAACC97FCCADC88FD95AADB8A7EECBCCC89
col27:   8ABCBC94DDB8BDBDB989BBAFCCBDCCBECBABABBE8CACDDBC9AB58F99CAEDCFCC7DCB58CF87ABDCBC
col28:   CAE998B587CEC797A6CBCE9EF9BE8E99CFB9BFE9AABABBA9FBDBDBCCDCBE9BF78CAC8FDABABF89AD
col29:   985BBD89CACAEABD9CBA99A95ECBCBCDFDA9CBB97BBBBDCFCD8BCFC8DCB9BADA9AAEFCBAB89BB9BD
col30:   D9ABCB8D9B76FBA988B7EABE98CD9DAFAB9CCB88CDBDAA9D7DD7C8E7DABCDBFC7BCABD8A9BCACABA
col31:   B9A7B87AAA8BCDEBEBADBAFAA9F6B7CD9ADBDFABBEBACB9ADBABDCECECE9ADBACBCD8DBFDCCA9A89
col32:   5C8BCEBBCAC9CBAFCB7EBBABBBC89DDAA9BBD9CCB99DBCA98BDB8A9BE6DBFAB97ABBD6DD9A9BACC8
col33:   99BB85989D8CDA97FF89CDCDB9ACCBE7DCFCDFCB89DFBBCAD8B9DBBBEBADBC9BB6CDA68AFCDACACD
col34:   89ABBB8C7A9BC9CCBCA8DF9CDECF9EFCCB9DAACFB9CAD9E9C9CADDADAECEDDBCCEEDDB8DDCDD9DCE
col35:   9AEBACFC9C9CCBD7AADE9D8BC8DEFEA9EEEEDCBDD9DCCB8AEACD969CCDDFDBDC9B8ECE7C67D8FAF9
col36:   ACA8A87AC87BB7CADDCFBBFCDEFEBCFCCCC9A8CACCE9C9AE9ED9CAECA8BADABDFBDEBCCEBADCF8BA
col37:   A888ABFC3CBAFC4BAA8C69EBACEECCBEC9DAFEDACBDE7EDBC6FAEABCFECAEBBC7CD99A8AA9F8AAE8
col38:   899CAD999AD9DA75BDCDADD9BFCDA9DDC8D9BCEBBAFCDFFCEC9B8CDD99CCED8DFBDAFFDCCDCB99CD
col39:   887ABADBD89BCCDBDCB9E8EDC8BEAD9BDADF99DBF7ABEDD9E9BFAAD9DCBEDB9BEAC98BCC9C9CF8CA
col40:   B89B9DB6BCCD8CE89C8CBCFBFBFDC9EE99F9A7DAFEBAAEDBAEBCA8B9BEDDF87DFCFCBA99CDADBCAB
col41:   999A88AD7FCD7ECBD97ABCAE9BCE8B8ABE8CFCB9CB6AFCDBFDCCEACE9DBDCAB87CABAFAFFCFDBAAD
col42:   BCDB8C9CCCAED9C8BFCC99BDDAC9FCDA8CEBCA9CDEA9F8DCED9AFFDADAFAEDCBADCDDCB997ABCDDA
col43:   6BDCAB6EACBBAEEB9ACADAEFBBEECDBBFACFEBFCCEBCAAC5EAACBFE8CB9C8AFFBAF97FA8FABBEDCB
col44:   AAE7ABBBCECDBDB9BDD8ABFF979EBACDFFBBDDA9ABCBEC998FFFDDB9DBC9BDAA68C9BEDB7B88BBDA
col45:   B48AFD8BAACDB7A8DAB8AFB8ADFBCED9879EDCBCBABBBCFCBBFACB9DBB9BB77BEDC9BAABBACAABFF
col46:   6DB8CACC9CACC9ECB8ACA7FA9ABBAACFC99BFB7EADBE9ADFCDCDAD9BBAABB98DDFE9BBFD689BBA8E
col47:   98BCABBA6899EC5ACFEAC8A9A99CDAAAEEC27EDAAA7CBEEDEDECDFFB9DC6CDB9BDCEB9BFDFBDDA97
col48:   CAB6CE8CCD8DBAC8D989BBB9E6F98D9EECCBDBDFDADC79DD7BB9DDB88EABCCBC8ACBA879DBB5CEA6
col49:   6CC898DB7AAB5CCCDABC8BA7BD9EFCBEA9AA8A8ACDFB7E8DD89AFBCF8DFCCBDE8DAB997ECDE99CAD
col50:   BC796A868A7D8C9A9BBC9DB9CFCE89FBED7ADA6CBCCFEFDCDC9D6BB8AEBFD79DD7CBDAAC99BBB9AB
col51:   C388A856B37798BA79C9ACD87B8B8AAA8BA9C89CDA5CC7C8DBB9C9A997ABE89AA9599C7C97A8D956
ROC:     BPix_BmO_SEC8_LYR4_LDR32F_MOD1_ROC14
col00:   455673873291243365736658251C77669A7286397D8378776979445A774B768287264754A5944766
col01:   536539CF6A16833A985C59978F87ABBDA5585B9E8D8B867CD8AA8B8CBA8FA7A8768656A7864AB678
col02:   4819721F7386685262956959FB99C486A9C395A5AE7BA8C657876878B777B9D6876C6856FB776639
col03:   66AA665A3A648A46B4BAA6877AF6DBDAB968D978A85A696EA77CA8567BA3EA8777983AAAB6B5D676
col04:   646A7895A77CCA753674B9A778C8B79886C69BAD9AB8C7B9959565B45C7977666B981A95488A8C99
col05:   873656836899546675A48656A98BE5BAAB774789399BCAFE5CB5C946B386457C8775B9C3B8A585E9
col06:   34A4876654C919BD669C757994B9C88183777A98B9CBC9A87788594A9AB9BAB9998859A497599B8D
col07:   5487818A99CC98877D94A8683747D69269AAA39CEA6779B5C9C988B68AC8BA56C7B957798A837B85
col08:   1579568558BC55894997AE39789769D8AB9876A58A36B78BC7D88A99788A9B88CAB37C8577477684
col09:   6A3793B988A7745A99A49DFA92B6799E79AA977ABB8AA696897B7B74E7B39839A9849A599A8688BA
col10:   2B556B25376D8865687DA5768C7989A93CE99FBB88AAAAC4D9C9AA57A677B8EBA7CBCE8775668B94
col11:   23433756788569A56876A96888BA7A688BAA768A9BB65A6694B89A6B575487AF7987847D8A9CB635
col12:   59C6A3987788D9759897A8A6859A7A396588D6B38B7A96CA9B7AB9B59797998A5986593919796778
col13:   4674476628786A958C557CA76BC6DB969A9CBABA777BEE8C98EC8C6BA79B79F5A77B4A4976B74BAA
col14:   647844678874D47696478B887997D8B9ECC36A8B799E47D63ACE9A9679BA675639B4A49466976868
col15:   5496766A68968848699748BADD6A854A87B37498B8ACCB65ABDC8BB986A1D78A98767D6758773B77
col16:   A7467775697A7CD86A9595456DA58B96B59688579CAA15A78786796369687B9AC55B656779459235
col17:   7A4258788689646576C94BA978B998775C16ACCFB858BAA98C6B989677788CAB64775A4699A4A761
col18:   53886868268C59557AE96E86A658A4B8C97B6C8796789C97C69394A5A49452B7696A69949A584675
col19:   169AB78B9A82855377688A8A5768AAAE57887D7B87899B6FB9889BABABB9C38747D67BD8A38547B3
col20:   4595948698A3599B9699977755688A8559A5CE9D79B8777A5A8A89A857536A3957A3A7947943779C
col21:   511996B4ABA97458BBB955846CBA67989D9BA4C77999B9AA8739D5BAC95A98977789B894D4997488
col22:   53768793B332769675AA7795B88A7A88696483F9986AD74A67B6A3D5A8666A7BA667986594448875
col23:   97945A246657A75C7A692B948876AAAA98F7A6C7959A899CA86CB7769B589D96528A5B2CA762884A
col24:   38845AA8993758766795B6AADB967587967A4C8378595C9A85B994C76968AA55A86686A9A644854A
col25:   66678697A73297AA8667B5CB3B9AA797CA8ABADA9A939977B89F9997AA9A71BEAB786787979858A1
col26:   667579676AD68C96DAAAE7AAFBD8956B98D8C697B8A878D896B8C989B48C9BB7889AB918828978B8
col27:   6A96A8E795568976848B87EDBB988CC8FE9BDBAA789CAB8BA9A89CB9A2E996BBEAC3B476ED56B899
col28:   88D3AB8C9AA7AABB869AABBCAC7899BC7ABF7A89AED799BB98C8BF7C689848BC6AAA9699C6B7B688
col29:   6C85D36EA9B7D6B8C8ABCDEE7AABBB7CDB7E96ECDC5CBAEBBF8CAACB8AC7FDCDA69479A8BD9AD59A
col30:   A57659776859D75B76CCBAA8BBCDB6B99999779DD934DBB786EBF7EE88A83889B87ABB55A78A7BA6
col31:   7579B97BA896C6AEE7D99ACDAB9ECA878ECCA89DD988AEDBC9E69BECCF979C63BD9BA89C7DA9CD99
col32:   78A9DA9A8566784AB899396EB88CEE8FD6DA9ACD8BFF9BD87694B7C8CDDA99A9CACE9AD9C3A899B8
col33:   8329A598B996B8E796CDBBBDCFDADF98DABCACFECB8A98C87CCC7CBE99DD5A89A69BA586C6788DA8
col34:   699CAE8BBCC69ABB7AEA9AA9BACE9B69589ED9DAC8EB8DAB9C7E2B8D8B5ADC7A7C89B6D8AAA5A775
col35:   CD9898689BB8CB9A6BCBCA8ED8D6BB6B6C8F8B98FDD9AAA7D68D86BBBABCC8A93E2CA97A85C58985
col36:   8978C96B888B6999EC9967CBBE8BEAFA9C67E8A9BE9E8A98DA9CB8D6ECDD7AF9899C965B8BB7C6DA
col37:   B67A8DC69B78CEDACFB7A99CDCFDEBCCBDAAAF7FA7CAAAD89B9EA999DCFDB9BDAF58BBAFC7BC8996
col38:   C9B98A78CFAA6ADFBEBB9B87AED7BC7C9CF9CADFA9ACBA89AAEBA7DAE9C7C576C798EDFABC8FA78A
col39:   6B688BCE5C67799CA9D9BADD8B6FFD7895FD8CC8DACA8BEE4ADD9A7A9BB9C66FDACEBB878BA9776A
col40:   9E7B97BBC9BAFB6C87C8A98CBC7CCCA6AA879C8CBDACD9DDEC8ECFBCAB9D9BCBB7E9FA969BA6B8B8
col41:   578AB78B8A89B7AA79CA7B99A589BCDBFA68DC886B9DC9CAD87DCCCB7AFD7B7CBE7BCB99C9A78A87
col42:   473D8B99DA9A96BBEA999A9BEB7B6B9AABDCCBE9CABCAB957CDFACB9C7CABCCB9A8966C8A4897586
col43:   8AB8A9C9BA767C8E78BBA8CCFA9CFE9DAFCF578AAB9CB8CDAABA6BBDCAEA5B9D98B73B6388A887A9
col44:   6A79A89BA97B765AFBA8CCA479ADADB958CF9BCFBB69DCDB9EE9C9DBFC8B988D575BDBA9A7699A46
col45:   9796788A976C88A5C8884A7AAA88BDADC8A864B9B7BD9BE7DC8AA8788AB8AA9B7C9FB88A9BEC6666
col46:   AB7A8D7D8898BAC987DE79B77DA9DAB8CC7B9697BBCEBDABB9CACA76ABC4A8D9D6A7AAADDAA9C7DA
col47:   8BABA6CC9A8D7BB98985CCA789AD99BDDC7DC6ECA7BE87CDFAAA8DACAA999958A8B695789BB7A7CA
col48:   B7E9B4A88BB8DA6AB77BCA5E66CCEC59879DCCC88BCCC8BC979C85F56E9CBA94C785D6C7A8959C78
col49:   BD9578BC99C7889B99BEADBA8B9DDFBBFEDDADDA9ADA8ACD5BC8CCCAB8ABCA86BC878BCB889CBD3D
col50:   68AC869C9BD5483A9CD9DDF59ECBD98B99A6C6A77A99ECEBEA99CDAAA7ABC8CCEACADA8A687966BA
col51:   714875878B9A999697664B9898E6788996689B49749876AE8783487891837AAB766797AC65B86679
ROC:     BPix_BmO_SEC8_LYR4_LDR32F_MOD1_ROC15
col00:   5753676645754372886646966566677958A56B67485B6BAA515A9A77A8B967B7A5B58B97B79CC8B8
col01:   7966748678939895999885B5757A866A97C9D6D699999C788B97698AB8E9C679888DB9C98AB7979A
col02:   8747577845467B28964966A87876A386898887789AA97968B6989799B89678A47C6999874C88C9A9
col03:   45545654589695698378797796777A868972698AC87B99A8878898868AC7989AB9668A97ABCAAACA
col04:   4556566668477638466697A799566988829A595A89988BA88A98B97C88A9CB98AB98A78A9BCB8C88
col05:   A476654658774596975868C9B775B78B8A698B6557AAACB59886BA8C8C987C986A9AC987A8C9AAEC
col06:   64389588657B748555757957A8C948A89ABA636BAAA77977C9A99A99B9788A78AA9AB85899BAD796
col07:   8637555596A64B6688BB7A6BAD7888A8788CB98898BB87A7786A8C8AB6CCA97AB4A98AA9AB697A97
col08:   24674A7789647566A755577A35A478A6B6C8AB67599C9A89A89BA893B6988B89BCB999D959895A6C
col09:   575465689B9A7B66789675858C99759A9AAA9B396BB9AAC7C96CC8A8A9CADCA9B88BBC6CA88AB86C
col10:   85526589A4665A5474285A8895A7CB89BB7569967996A8967ACA98DAA98A85989BAA59999987A8B6
col11:   5975523A4B776765689858659968697A77777898A9BAA7A996783AAC89B978DB98B9A6887D9DBA99
col12:   453256668A57596485B958667BAA568A8979A5AA8ABA96AA978A9C8C7BBADC788ACC8988ABACB9A6
col13:   643A3468A7AA889798667AA3769A78CA9D897777ABA68B8C79B88C88B6B4A88A9B9ED77C95AA89AB
col14:   56C27386A75656777B95767D8BB9776B7988885C9BC88ADA9977A95977A68788B766A9A87D6C99B7
col15:   4397558997667786787699747B79997A88995998896E859699A778AC7986BB9A9BBBCA89499A95AA
col16:   676275348787689895B78A8875948599666998D8AAA67778C68A969B7BA7BAABB678AAC95A9A9CB7
col17:   54242688C465646885467988488A9887A9B9579BBC39CBAAA8B9A8B9B69A9BB987A9B7B886CB97A9
col18:   7653976437569867578747A78A85A8869A689BC69978C666A8985B3B69AD87B7899B79BBB899995B
col19:   5652666666887577AA898BB769B6A77A6979B98CB77A99A67776B8B8A695AAC79A977969B8B998A7
col20:   35777155859569764846758AA787797868677855A87BB7885CAAA8AA88967C68B7797CC889AB987B
col21:   65196465D76758955899787596957A8887A986BA89AAB699897A96B7A896BDA988C8B78A8978B899
col22:   35455785965668869568679B6772AAB8B5787C7C7A959A99B79B9AC778AA96AB9CABBC6B98996A59
col23:   9677486853586698788976C99A5D7A7897D798A9CB4A78B878A99B6779B5C9B759988BA77AA8BA58
col24:   3478532779839546A6383589B7738694774877A997B7C9AA6999B6CB886D9779C89B99B677698ABA
col25:   45844875888A769664768B99A65B88BAB87797AA99BA99A8A69DBDD9BC9CCBDDA5CBCA9AA7BBEB9B
col26:   8776C8947837659A8476ABDBA4A89976C86AAA99B8AAABAABC8DBCB7A9DCB87AD98A8B9AC8889EAB
col27:   597678A6AB996A789BDC7BDBC8989898A69BBAA8C9B8BCABAB996BCABB7A9B9A8AA9AABA9CCCCA9A
col28:   2459AB87376AB5797784E6784DAABC979AAE9B8DC9BC6ACCEBCACB8C799CBAB7ACEC29AAA9CEA9F8
col29:   7878788AA687A97768A978B6AB7AB7669A8BCB69CDCCA5EC9AC8C9B8B6DCC9ABCACB97996EAA8CC9
col30:   63B9665788579477AA9CB89CA77B8AB8BBBA99B8CDB7A9AAC9DA8AB987BCBBA89BBC8CBBACBBDBA9
col31:   9C67894BA59AA9978A97ABAA596AA86A89CABBABC88ADCCC9BDDDC9BAACEEBADBABCDA98DABA88E9
col32:   A95A98D68D598A7B4AB8C7AACA8A6AA9A9A8AB9C8ABA9ADA9AAB78BBCD9BAAA9C9A8EBDA86BB8B99
col33:   A995939999A9A988BB8CABC8C98ADBDBEAB886CCACBCBAE99ED9AABACAB9C9ABBEBABDC6CCDEACF9
col34:   B87656A928669B5ABA8998B8BAAB988A9DCA5BDCDBC7C8DADBDAB9AB8DCEB9CDCC9EA8ACBE98BABC
col35:   65887A8BACACA6DDCD98CBC8899ECBB66AADCA98ABCF8DCB99B9BB9DDDBECEDCCCFC9ABAABBDCADB
col36:   84C97C78668B9A668ADA99DBC7ADA9DF9B9CBAC9BB79AACBBBAAFA9ABD8ABB88B9A99A8A6B9ABDDB
col37:   57B48AB9989978B9BC8A79CDABDBB9CBACBA98ACEDCBBA9D87BBBBDDEEACEBDBCDBABDAD9BCCCD6C
col38:   A885A7BAB87B5B8A9ACBBAA7ACBCAAACCC9A79CCAAADE8ACBADCAABDDBCCC7A7A998A9AE7ADA89AB
col39:   96586A89F78C5ABCAAABAAAEDDC99B8B97B8DDBCFA9EA78D8ACDAACBF9B9ABEDABA7ACBCBBCBCDDD
col40:   6A767899B399BA77CA8ADC8BCADBBACB9AD5B89D6ABBABC8AAC89DABBED98ECCBABBBB8AD99ADBE7
col41:   A97997B7BA86EA9AA88BACABB8BC7ADB9ADC89AAADCEDED999DD9A97BBA9AEAACE7DCD8CC8D6CACC
col42:   A6C6C88CABCA9998CC9AA8AACAD96DAB8B8CDAC9E9DBB99BDDCDCDCAB9997EBCCC7AD9C8BA7CDB9B
col43:   588489B878B69A9B7ADB6899BA9B9A8CEDB8C8ACDDDAAA9AC8BCD9DBDFE8C9CACBC7CCDCF8DDBDF9
col44:   668AA9799B7B9679789ADB9DC7CBDC9DECEBBAAABCF9D8BDBBEBCABBDEAAACB98BCEAABAC7ADBCC8
col45:   748C69A637C5579A8BBBB9C9C9ACBC7DBBB9AD9BA9CABC87D67DBCCF9ACAA979CD9BDD98CECBB69B
col46:   5B9764967998BAA599BDAC79ABDCD98BBCB9A99B9DCAAA89CABBA7DDECAAB8ADADF7ABB9BC9BCBD7
col47:   7AB88A88997ACBBA7ABBA989ABACB6EACCCEDBEBDAFDCCBCCEEDEC8CCCBDFCDAAABDACCBCDFCDBCC
col48:   7884A469CA9ACB88DBB9BC9CACB78AAACDCC9C9EBBB9C88BCA9BACBCD7AC9ADBABEBFDADB8BDB8B9
col49:   949996C7BC7899A7CCDADCA8AD8B9BBCCA7DFB9CB9BCDABBADAAACCBBC7AD9B9CBDCDBDB9ECAB8AA
col50:   578687888B765977BDAAE59ABEBBCCA8BCA9ABA9DBBAABACEDDBCBCCC8BBAAFCAAB9BAFAABAFADFB
col51:   374719877A978A4658B59B76CA8C9BAAB98CAAAB7B9C89DB98ABB5C9AA9F59D96AC78B7A999BAAAB
