ROC:	 BPix_BpI_SEC8_LYR4_LDR32F_MOD3_ROC0
col00:   4176735494353524426665889585974a6863874879769ab46a8525259888638856787a98895789b9
col01:   48496954c5579778a57389a67ca9a94a8aa65994989cc657a7868997bda8cc9d79a8787a7c97aea4
col02:   95668677164aaaa89676836776bb9a5689c9a9687a58d5b9a6c2777c98994878a9886dd58bba78a9
col03:   36525758697458788378895b6355a96b77aaaa46bba6cb89b7a588982a98587a78898aa877b9b697
col04:   6488833643a4786458978777a697b4c58ca89b5d69d598b887b957a9b42849baa58a96879cb8a968
col05:   4576789876a6a4666a7b58984838886b8b77a759da7ab7bd9bb67c8be89bcc8897aa38c88a8b893b
col06:   516438456953779826c56c9968a7668ba9abb74aa7a89999a696979e6aba77ab9ecbb777c89ba8a6
col07:   747c873588988558a67ca67696c8876a977ba978898ba7b5c98c9aa9cbbab594799eccaaa8a99779
col08:   646735937564484468a5759a8b76a99b7a6be8a8e7798b97a5947665d9b9cb898aad9967c9bccc84
col09:   5545858684574aaa8778ca4b77879a5da974da6c89bc9a66ab79999977a999c8c9aa887cae976a78
col10:   3467957865b376b6ca9657777a7587b879ab779ccb998baa79b99aa8cc7b985ab6e5abbbbcb6fba4
col11:   56c3665bbc6b49884489b986a65c99978ba98859c799a8ca79a9a6aac798c8bd79889959ba99968a
col12:   784a847968896ba616874b6699abaaacbcb5998b67b897988aa998967dcc89a98896cb8ab8aa9ac7
col13:   75745b88937aa64987a9678cb978a8996cabb7a8d8aa899ba9c978acc99cdb89b78a8dac98678973
col14:   583448836d8898a629ba7c999a9ce99bbbaa8b8cb9a87b9a6b8a88b89cbaaba69b8a86ba6abb9abb
col15:   4666e56255a68a576a977687b5b996c9878ba79b7baba96986b5bb79aad8b768a669cb899765cbaa
col16:   38597196686769738769888a49a7aaa7898bba6b5a8ab9bc8ab987b7baba86cea69caabb7a9a89ba
col17:   48a876666886966b79969a4868a8797a7aaad5a99999cb88798bc8879c68cab9696698578a68c9a7
col18:   577846635888a5698796a428b9a8ab88b787ab7999b7878596aca87a6b96b65a4677679ae9ac7c82
col19:   728396689b9649658d86a58aa88bc789fd678b99dacb86ca67a9d9999997d5b84e8987cbaa95b988
col20:   b357a78756378765a6c7877aa986789d89b8f87bba97a9997789b3badbc799da9a796a8b67baa474
col21:   726839a757566895a9c6356898ac5a9a9a798b9b8959ab95787fa759b88b697bc9bac77766798c86
col22:   86a49556b59777c57b9697ad88b439bc9888bbc9b9b76bcaba898888ac9787bab9f98ca8ab9e8c99
col23:   7666485576949748888c8c775386ff9aaaa9699a77c558677d6877a77b678866bcb889978889a6b6
col24:   a86868a847489a58958764b897bca9aba9b8aba87acaa7d89ad49a9b7967ba99f8ca9bb9aac289a7
col25:   2677796a77b5969bb8778ba6bbaa8bc898cea97cc9a5c9aca95bb9c85cbc9cbeb7a9bd6adaa99589
col26:   a68a8799987897b99ab97bcba6bb9aecbccbdaac9b99ebdebddbbbabcbb99ac9ababbad5dca8ab8b
col27:   8aca66597ab77aa863a96aa79d6c799c9e9ddbfbbabac89a9b6ddaab6dab7a5da68ac98997b9bbba
col28:   9579ac89b789cbb65bd9a8dabcca9aa8c9baab9f4a9bdbccebeb9cacbdf99d99beacaae8bdc8d99a
col29:   6396779799c99ca7889dea9c8bfcae8bbde7babaabbbb78aabbdab9beeedcbb9c66ba9ba9bbbaaca
col30:   886ba9976db7c666b884b99ad7bbacaabea8fbebcbacd8dcbdaab9ca88bdcc88c7faac8c99cc9bab
col31:   777aaad57abbabac9d79cccf9ebb8abcbc9fcba99cbcabda9dddcaaeadac8de9cacc99ccb9ddd899
col32:   8a69d85acbcdaac8d9d8dce99acba94aebacadababdedcd8cae989addc7cfbccd7ccbdb9da9bbaf5
col33:   a859567a7a79b57c97cba6ac5bb8acddda99f5ebb9b8dbbabdccabab979ebdaabdd99ad8aab6aab8
col34:   5bb6c9ba9698c9cb9b4aadcbda7ecab9eeeaecb9cfcacacdccabccbcddfdd9caaaa9ccea9bd9b9cc
col35:   8ab8ba89948bac8babbbbcbb999dacababcaababc9ab8daabda8cbbbacae99abcca98cba77d84cb9
col36:   5a6c94949abab9b79ab9bba8aa7a99a9abb6baac9cb9a98cfbaacfdbb89bdcaccbcbbaef6aba8d9a
col37:   79888abad8abccac99ba8c6ba9bcc8efdadabcb88adadebb9eaabdfbdbbcbbeabcebac977ca9f9ba
col38:   8896a9b7aa7acbaacaaabbcbcadacdcbaeaebdbdfadcfddd7c8bdbc7bcb7f98cbcaa9bcdca88bcad
col39:   78896c5db7bac8a4bb87b79cbbda9acbbbac99dcaacbbbbbdca9b8dcb8c8cdbcabcbecdabbc6aebc
col40:   a8995c89878b68ad77ebadd8bdcdcbdaae9cfa89d8eaeeccdcffaeeaf9ccbceaca7dcabb7ecacef9
col41:   a8bb6c9866ab79aa8cef9ccaa9ecedcbcbbdaa95cff9fecadacdbafdfdfafacbabcdb9aadadcbddd
col42:   9aac9c798e6788b67ec8ebcfb9cd7e98ebcaefadf8abc9dcacdc9fa8aebd9edbbecfcabcf88e78cb
col43:   5d8797e99abbe9ddb9bada7af98fcbcadcafdaeebeecccdcafddcfefaad9cdbefdabcdcb9a9f9fbd
col44:   5ba99ebcaf9d9d86abbced6bdfdbdabcbbbbcaadfcdccdaabbcccfeebfa9c8abbadb9beddeceadad
col45:   97a989b49a76cb9ab8eeebec9dbc9dcbcaddbceaabefa8bdbad9de8bd9bbebe889adc8ced8b9c9ce
col46:   72aadb678bd979b88af9bfb5bcdeffcccb9b8bebbcececaeacadcdbb9fb9bdbfecccb99bd8cecbcb
col47:   9a6a9a79aaadb5eac9a6efaab9d9aedcfbeee9baabe9c9cbfbbcace8eedb9feeaacadf8dcccbbbcd
col48:   88a4799bbbca9d7b97abca9acef8abc9cfabdeeaedd9ecdccfafacd9cd9ebaccdcbca89abfaad9a6
col49:   926ade7ebad778e8eaacafbaeaecbdcefcb8eefceacca8efabdcbaddacebfecedfbaefbbac9dbddd
col50:   aabbca7da9abbfada789ac8fcba9abecccececebceb9b8cdedadbdbbeeccbddfd8bccec7cbffbabb
col51:   7659976ab3698cba8a8c99cac9777bb997badc9c98d99fcbbcc6ecb8acbc899bcb94aac89c7bbbb2
ROC:	 BPix_BpI_SEC8_LYR4_LDR32F_MOD3_ROC1
col00:   5384146357461228a7759853675374779a687ac9b767a965a868b66a57b867927876a96b17944417
col01:   6b57a67798659acb78b98c78a97acd6bd8d9e789c689999acd86bb76a66d9a7a8e8a87957a68a697
col02:   4b6c9586585468bb88899aca5798abc8fa9ce799b668989ae96798ba8caba97aa1a98b7989588163
col03:   89ba8667937a987849c589d4aa9fd7dbae9647e997b787489db7aaa9c988e7a9bab88768b9b6759a
col04:   6397813767975d8a9687ba99facb69cc88b8bb9ca99576e565a89d8d37b9ecacce66959a986a6786
col05:   ab6978859379677a76874b59a977b9ac8c9fcba997985889986b978aa888978777b75788996a8a65
col06:   6676996584777aa796a7a8aacb85995baba7b7794bad68bd9ab869ac99775658bb6abda8a755a748
col07:   78a81a5d89639cb7b975ac8badc4bd78acb99b99ada8edeba9c5c8bfc99f69cc9578788d654aa6a7
col08:   176634857ca5748775c8b7ba597b87dc9ac9b889cbcd87a59b86af8b89e9bb6a97a7dc6657b79aaa
col09:   75b8b7aa996477c37b6cb6b798b68fb78ca5ab8adaacd898aabddc96a85d6acb999bca8389699795
col10:   67476b5489b6419858486b776c7a5b9a8a994bcad8ccbdbaecb4abc8bbaa5ca74a99a889b4768788
col11:   6786a3b7a7b9895669967a8ab8bc8aa9a9c69b69b799966a8c4968cbbb9757b9aa7c9b4959898b75
col12:   8765a95989763879a76767786cdbba58689b5d8d79c7c8a6a8a798d9acbe797cc7987419274c499a
col13:   62967a67a9988c77b866bcc9daaaac989aadde9c9b9c84a7de5dce77dbd8cbac88a59b857a9a8c95
col14:   86688779a27a66ba8a8937799da7dcd9ba899ae99b8a9db7dd8da9c5ab89a9beaab9b8988a788c65
col15:   567798555478636568462b65a6a96e8aaa9a89c87adadaabaab88dbabff4bc7a7b475796c65a8a67
col16:   699d39883894198877795ca988a79da999ba8be77bdaa96cfb8babc88c877865ac87d87689675ab7
col17:   4586a668687cb886969b889889a6bb999abba97cba967968b988ba7cc6adcd88988a8899a877b3a8
col18:   a7646935685753ba9a97889b8ab99ab8b79aab97c3ca684ceea7b687a7c78c88d8a9fd4479784f57
col19:   91568aa5327b8c4b8b8c8a8cb9bb6bd6c9b8b798c77968dc8887fcdaad79688c698c7b9849997988
col20:   a37a5946445497aa89b57d755c6778b5b99bcad98bc9978acba7b9aa6aad9b8a7d876a787b767494
col21:   575319474476ccab7cc6699979b897a777a755bb8b69697b49797a9cc8b73b99aa7ac6b87b46a398
col22:   896baa779a786a6db4998a8ab88cbaad9ba99779b9bd88aa827b89bbce6c9c6b86a9baa87b89aa94
col23:   7a4197585b867ba7c6ab9573c899b9ccd4768bbcbdd89abfbdc98cbbab89baaa997c5694a7e99595
col24:   44c857649c9c8994757abaa678aa6abbb849a697aa97ac76895a7cc76bab5bacabb6a96a79787bc8
col25:   77a488755969866ca8876cb7a7b9b89dbc9a7dcc38eda8fbecc7a9bb89b68bac689a77888946bcd4
col26:   8a99daa7768cba87dbac77c8afadcca8fcccc9ca6ccfb8bda9d8ebdd9aeabbbc78c9c8aca9bdb6a9
col27:   8696964997b999a6c9ca5eedbb78eb7bbd8a998affd99acedbab5abb79cfbcc8c7b6696b9a996985
col28:   c78b83688395c958a78acc9ac79cdbc5bd4adb9eb6abb89cce9dbc8eabb9ba9abd8c9ccae83d9aba
col29:   86879ab6d7bb899a9ddc9dabbacee9c7eb88bdb4decfbbb8fbb8bbbda9ba7abaacb9aaa5b69489b6
col30:   79864a5a69c98d7bcdabca7bdcc97ddc9a5ba9a98d9cc98bbbb8adac99dbeb7bab998ba8c9ca9586
col31:   876adaed9cbaeb79bf9c79f99cda8febfec9cb78adcd9afaacded9eaf99c7feeeb879c9d99a9798a
col32:   87b96a9e8eca8d8ca7afecabfccac7c5caab8accdafadddcfbbceaabdbbdcdec9daaccbb8ab9a767
col33:   ab6d999d99969bc79ed8bc9cca9b797bad77cdbbba99cecdac9bdc9ce9bbac8a8c7bf7c684c9c99d
col34:   d58bddb7a8acaa9b588bad6cbccbac9cabddc87fcdbfd8bbcdec76aca59dbb7b8c99d9c8b8aa9875
col35:   d77549cacaa7b96eafebc9acae5ba9cdfeac8de8ccadfa9bcdbf9c99cdafb9cd9ba7a9aa9b7dbcab
col36:   9aa7acbaacbb9bab9adea6b8fdbaacbaa5abadabfb7aacdcdfe8addabcebafb99ddb88babaabeae8
col37:   b999cab8bebacffb8dea8cbcdbccfc98bbecbed8ba8abbabb88acc9addebaeaaed88aa8c998bb9a9
col38:   d77aa7d8aa98ebaeacddcdaf9debcdabaddcbdcd99cedabee89caefcc98aecd9ebafbdabae84eba8
col39:   97888989dbccbdbaa6bdaea7bdfdcbf6dbeca7afdaacbdedff79bde7daafe7dad7999bbbeb786eeb
col40:   b9c97bdbcac9ceedbbd8dfe8cf9fc9aedb9dfebcceacfeddd99e99acfbfafcd999cfac9ba7ddbfb6
col41:   b5bc8d9acb8eeeeefafebddbcb7ed98eecddbadfcfcffdeddddcbecbbccfd8b59dffaa98cbcfcbb9
col42:   c87b59ebabb8bfc9fd9acebbd7cbe9ebfddfbbdfacceaafdabbfac9adb9d9bbf8eaebaca9eeaae99
col43:   87d9aaccaadebcabbfafab9fcbcfecedbcea7acebfccdca8dfcadcaa9ffbeabecdfad9cbbfbccf97
col44:   c8998995de8cbbbffbddaebfeae9bbafe9ffc9cebefbcfdcfd9dedaacbcd98cd73db6bccbbc97988
col45:   dc8de8cca96d6afd8acaf88bfecdc9cab9cbd8dcbffaa9bdbecc8b2a8cb7febbcd9ab5a4dca69985
col46:   59aaecb9a7abd7ecac99d9fec9abfbabcebbeea8cadfefecacbffdcaefdadc48fdbd88c8fe9989a8
col47:   87ca99bad8daedab9ddbdbce8aacabfefbde9accfeabcceedc9ecdbbbabbbdbdbbc599c8bacacc4b
col48:   98aa9fdc7bddbcf9e8ccff9cee8afdacd7b9fdffeffa9eefafafedde9d8e9d9e98bcaa58edc989a9
col49:   b89cba6aedabbbbcd5adabfdbf8abfcdaa9dddbaefad9ebadb88d799cbbdbbbbc879ccddfdc8978b
col50:   a6c9c9adac9acdbdcdacdefebbedcd9cb7db7cdecedcedbe5eabcbdddaba9ecbcb9baa6d87eea9ba
col51:   b75b7c589ca98979a89dadccbaba9c9bbfbaaa78af99ac9aac6cbb77cbc99bbf7aac8a4adc49d54a
ROC:	 BPix_BpI_SEC8_LYR4_LDR32F_MOD3_ROC2
col00:   68889619a1987987649a37547697a854a6989977695a8658a85a958b3b246677655b5a6456771434
col01:   68cb9a776abd55ac4b89c6abcbacdca99b78db858899aa556bb94a7877ca7a9a9879da8577282546
col02:   98a83b89b73a88796738b8c8a8a6a667879ba99998868b9699866696858867ed3b65954666622772
col03:   e74985c8677d66ac8a9aa99abb49ab6b7a79aa9e998ad8d87aabbc668c9767887a8668a664669156
col04:   886678baa97e8386867868ca98ac6797989996759bc8ccdc66a587899998a8d5764a786566258985
col05:   db8b858988a78a879c649ad9a9849d87a789dca86ad375a5b36667786a77a685a78897565195933b
col06:   a877a77699487989cb8aa688abaac895b8777a4d9959a9687a567a88bb86a78c698687786458a753
col07:   869b77e6897538f6968ac789ba7ac8b9cdad688898b9b9797bbb49aa1a88d6759c8a258ba6c84856
col08:   87aa8866866387ab98694b9ca86aad7ba7ba9e9c8969d8ca868998946843889c7898663747787747
col09:   78789b9c876b473a779af6abba89897aa98aaa999dbb7baeb6b8a4d97967a6a8663776a388739473
col10:   667a7a9969457799877e99b9989ac8798b9aaa9a989beb6a8c88b89bc97988578b2a58668a775876
col11:   4b8893887db99689888cb8f6db9abb869cb969c999a89aa7a8997ba93ab66964966866648589a867
col12:   778698859c8aa88a9586878799bca9c7aa64bacb68967b7879a8a65b3d9a596aa959698865856481
col13:   a79c8899788a99cdc8b98ab8cdbbf7ed589ca8cba7ba99898a89a7adacb7d76a6a395aa446999764
col14:   b767457b997998982a79ad9bbc8da5a7ca8dd98eaba9a94adaba988ddb99a9b794573b7766831b68
col15:   74849b7a9758899699b899a99a9d96ca6a8ccabacac89b89ae54736a9978a7ba6677799387597679
col16:   8867c9869a69786a686c5cc8e8acb7e7baab6c68aacb8a599a89979b7e898ab98c76568878873855
col17:   8c7765ac756a8bb9aa918c598f99a99bab97d787a8a88aa9c77a99989757788999b76969aa685653
col18:   da6588889b7889bd87a8878cb88c5b96ca9c976976ba59898a957a868b7a79779775987955754767
col19:   a7aa8a6aab76ccabc998abcfa65b8dcfd8d9ba98abacedb86547ac78c999987d8897a3a8989793a6
col20:   76ba5aa7b9888c779a798a65989b87a9a864bac68da79a887c8b57aaa8697699a7794a586442aa45
col21:   5b75ab8aa868c979dba7d79c959999c959985994c98a579b59b987ad4d8a975a699ba4b686947648
col22:   859968996797677c47ec776d6aa5b677abafb76b8bb89c76c997a88758b98896874968799aa7a636
col23:   9b79bc9488c28dadbb959b797868697acce58b9e77e7ab99a8799a79798a596656a4866686a345b4
col24:   8779b97abb798998889bbab6b8d88a9b7bc89baa9c9a67ba8b97b5c787abb94569b98b6797375584
col25:   89868a85ab96b69b9977a4ba9ac9ecaacbdcc9abac9da97497d88a88cab855ca88592a4495a85692
col26:   99b9985b7adb7aca5a99ba7a8d5e8a7aafaeabdadc8adbaa6daf7d79b87875da9a89c92a96787576
col27:   787baaa49eabaa99bcaa9a769bab94cab9bf9c9eb8bcbc4ba4c98dc858f888a9456a78d865655684
col28:   adaaa8bbab6a7a779cd7ccb8bbb6b7bafacbabbbabda898cccdaac99a4a8987a9758538ca546ab38
col29:   8b8988bba8aade779aa98bcdca98ca9cb8d8aabc7c8ebcc89aeea9cdab8cab59a9487979bc869986
col30:   6a93ac96b77a88bbacbb8cd98ebafd9abb8ac997ab85acac98b9b99d87ada999c99aaca896b79844
col31:   bab9b9ab9c9abb9dc89d9c8debcb7dbdfccfcfabbefacaebbd799e85999afbb7a8a8985a9a597746
col32:   bac88858c9bc949ca95dadacecadacb7faa9d9acdfbe7babbd89ca6cd98baac89663e66c888c9c58
col33:   b6e8a9a9a9b97c76cd9cd959e98aafbdc9d98bddbfdbcac8efac9c6d68c8b8eadbab657ca29c7566
col34:   99dbca8d7cdaad7bbb8cbdc6bbcebbdeaccca9cc8fbcf86bbebc9dcbdaadaba98938a78987997726
col35:   a9abb9b5c9cd8bbbabcd9ecdcbbff9bdfade8fcebbaacab58cddd5abcdd958bcaabb8d96a79b8956
col36:   97cac97a9749fe9bbabed9ecb3cbbde8eac99abcefedcfa8bdbee8abfaf98e9c7a9caa4ab6798566
col37:   e8add9d928cecaa8ccdbbbbbbf4dfbccdcfcd8ddddcaec99b9ccbc7babbd6a9aa881a76b88aaa864
col38:   ebbcbb77965b9cec6dddacacd9dbbcc7d8ba9cbedcdbcdc9c78ccbdadbaaa6b7da8cfc6db89bca88
col39:   a879babdbacbcaecaccadbc8fa9cda9dcda9bdbcbc9bddccc8799b97a89bb88eaa97993c79697175
col40:   5ca9bbb9baabcacaabccbdcbbbfacfbdfe9ccbbbecdcccbadecccb9ffbcaa99996cada94bc7a5764
col41:   abccc9a9dccbda8eabde9bcfeeccdeeb9f8fbc8fffec7cb875caca6e7e89bbdaecad5a7a788956aa
col42:   98896889aab7bc9aabbb7b9bb5ccdbdeddcaeaafd98bae7bae98dab96dedc88cb88a9a996aa6c35b
col43:   bad9d8eacb9bf99cdcdad98fceccfbfedfebfde8c8dda9debdfeaaaabbdf7acae6dba679a6888969
col44:   a8a9798c899e9cb9cbcbcbcaca8cddcebbbedddba9ce9cb89adb8abae8ddd9799baa7bcd8679c89b
col45:   ac8c9e9b96ce9eabaa6d9b8abdbdbe9accffdc9cfecb8a8cb9ad589cb8a8cba798cd9ca8cb9a6797
col46:   cbac9dccaae6babdade4f7bd9b8a899dadbeccb7ca99b9febd9cbb8be869dc969b4b7ddc567b8754
col47:   ddaaed9bcabbab6cababcbcdbecedccdffeecadbcedcaeb8bb87bdacabcaac8689b6b99b7885f987
col48:   fe7db787d9b699f99d9fd9abbabc9a8cc78e7dfbdddcdceccdbbacb7ccbb5cb897b998abb96bc979
col49:   eb8ceaa9b7cfbcfc98cdc978ccc7a9bdcdcd9af7fcdcdcbabdbac9cccbca99a8a9b1d888c9759756
col50:   e89da98db8a9f97a7eccdcae9dcdccacfdedede8da9eddcdadb9a78d89a5bc98d9879a86bbb8a675
col51:   4b986abd87ca68bac698cda78bacaa99d986cc5c9dad78cd688a5a9d794a5a9c888a863985484265
ROC:	 BPix_BpI_SEC8_LYR4_LDR32F_MOD3_ROC3
col00:   a884735566a3786799865a87687b7b4656777876678775861698769aa7b999939966749644aa8b73
col01:   8a7a675a76556796b7a7b98babba655587c5899a9786a7b9b9896a99788aa697db79879974798542
col02:   2798b3789ba956959ca99686c7976b78a796769abe799d69997aa8c8c88955588ad985a78cbb9647
col03:   293a5957578975b746b997674797746688ba7c7957b39b968585747766876b9978aa78c957795c54
col04:   546887b9524836897777d98a659ab6ba989892c9a68d8a69658c76eb88b9973bb9774a6648156bb5
col05:   83865778867476548859774989ba79894b9863c4566696895a87863589955976a463ba53a6b89654
col06:   4837aaa777b286a73694c7bb7aacdc89a8678998b56587479868a87a9579b8677668a97755b7785f
col07:   3b6779678638789146956879b496b7bb7b8c777a8c5a63b9aa988ac7a7679a88c9c9b98b96689937
col08:   a36794a8a99866ba289796598797dba76ae7bd8696a6c665896987aa9c9b777b8aa9a8c9b88dd674
col09:   489873a778366a76997d3899978c89a6caeaa77a25b88798b65a86599ca78caaaa9a87887576b644
col10:   6596866d6564a688577976999a8a9b78698985749b7887b97bca8ea6b7545c79db9a6498859a8794
col11:   48268515226357875ab978544a8c6a7b767399b775a784c569799a758a8648c43bb9889696486c66
col12:   4687499937b98a895a99a9a55979889ab998a8d9a4797ca758b7787797799757baa68bc69955aa66
col13:   445895776584564788657788aa865b999ab5683b98a88866abba8c8a9988ab71a5a7b47a7868aa6a
col14:   268458a5764a77983abc65592b78c777898a96939abab86b8abe8965d9999858c8b76a8c8aea9759
col15:   557249944757c747b678746377ba9abbb88aa3a9b88c9877a89898a9ab8999857967b5889b7d6466
col16:   75865699b3b79189895a6885a65a7cabdb48875aa9ba7da89999a87acf687a788d9e696abca5c4e3
col17:   81935583787b9b645a78458985aa8b98969ca67c899799a89479a899796a68778aaa988485947798
col18:   756a3576789977678968c8b93389378689789a89b877a5886ba8b67647a89acbaca39888965c7aaa
col19:   99746764675964aa777c769354799a8985a77a7a7ca9597a9ba9b96a8c778797b87dba99a566c8b8
col20:   a559c97786299597772a89786679b9a75a7a8a6a7a867749b89d97abc9ac99788989c98479c86a73
col21:   94663a859466758963758657a79b99988a979cb8c9879bc9c9a7a6a88ba9a788b4d6b49c8ac7a752
col22:   654464b55a88c549828b68359a67fb89b7a89b6a75d89dafa9a9eb99b868a6ba95958676c9b66879
col23:   35662a59655b9977486cb4866695a718989699d9ab87ab8a86598699899877a7a68c9976785aaa56
col24:   37256797959768b8787b677799dacd78aaa8ada8ba6f8976899694aa77acb79e99a89b8989686a59
col25:   7959a67994778579997a98c898988b7ccbb6cbca8cbcc88aa6cb899d9768a9a79a958877a6756b68
col26:   8a9b97989a77d75a7a9897abaa99a8cbdb9be8b8c9dacb85abc8978dd9f8add8a9bb6b8b9989b879
col27:   87617b7a5876c9c88b89a888ad79c89cd7a7a889c899aa9979cb697aacccc7b8c98789d678a759b9
col28:   b94597a9b845499aa98b8aaa79ab9ad9c7daccb999dbc8e98bcbbaa98a99d8abdabc8aeac8cbd9b8
col29:   769866688b8879b8879789986bca887acb9aaabcc897abacec7ad7bfbbaa876ba7c99a9c9b86bbb7
col30:   9476cac6988c8896a54bc77b8abfb79a9d5cec69bb8da7c59bbdacb9aacbe997cbabcdba5888b698
col31:   8487969778896b9eb9aabc9bbcbcdb9cc74aa8bcbca9a68d89cabdb9eb999aacbcabacb98bc98b6b
col32:   b869a68a3aba58dca97a8afd6aab9abcaad88c5a8ad8aa8ababbabad9fca9baab99afab8a8bac9ad
col33:   73957aa8987ba7768d89a76ab7bab7c9d9dbda9bcbd9b9b798cbbac9a9dbcb6aa98ab89c9cb9c7a7
col34:   8a89a57aa9c87a68d889bebaedcbcceb9a9ab9b9dc9cc96a9bccccffcfcadaccbb9a8dbdbaba8aad
col35:   869675b8967998c72aabdabaecac999cd7bcac8fbccb6cae9aeaabb78abbdc8bd9dcb878acba8db9
col36:   8779c7a956a7a98acaea9a79cbd9babd8cbdd99aac9b79bab8cb9a8bbae7daa59fb9d98a78b99bd9
col37:   97aa9aaa8798a9b688886cdeab96ee7adfb8ddbcbbcc9f8cad6ce9cbadaefa57c9b9b9aac9aa9acc
col38:   4689998ba8a868a6bf987bcbaccfc9cfcdb9bd98daedbaabbdfeca9acfc69db7a9ddc898cbc99cb7
col39:   f9995b999996bb97a9c97edcada9ba8badb8bca9996bbecdc79898ccebe6dabbbdc9b9b7aca8888a
col40:   ab3d98c74ea5a8bd9ab97758aafabbfce89ab89a99eeabbcaedc9dbeadd9ccafadce8bfebbbdecba
col41:   b89799ca7984d78e94499a97b9acbdbda5bcad87caa9ced9acd9bca6bbeb8ccb7baebd7a989dcbc5
col42:   b99c89d58a8be7989aaabdcbab9dbadebc8a8aadccc7b7f9b9d9e9ac9b7dcaaced98dbb9ad9babb9
col43:   b76b9ba995a87aabce6afbf7daab8cacfced7fcbdafdfa79ccbea9dacaabeb9acddbebbd8acecfab
col44:   c89989789989ac9c77ad9dd998ccafb9bbfe9bcefeaacdbabae8c97fac9ffbd9acc8d9ddbccabad9
col45:   ca87b688897c7779bc6bc797a778cba79b9cdb76da9bccadad99aab99f8daa9cb9ea8dbdb9bd899a
col46:   cca587b6c7979ba89c9ccbcd7dccddbbcfa8ab9bcde9bc99dbddedadabacdfdbccab6cb7dabb9cdb
col47:   a68b6abb7bb68a9a9ba98b99ecbceaedeaeddacaaabcf8cadc8baab9dfcd7a7c8adabaaa7afdfefc
col48:   946999c9eaa8ab96cbbabaae9ddb8a8aead9dcce89cecdacaadcbbbdb9ca8dc9adfb9ffef9aebba9
col49:   8789da6d9ba7759eb8be7b859b6b9baf7f9bbfecbbecc5debdbcef9acd8abbabcc8cbb7f88aaaea9
col50:   688696caa99ab799ab6dcffde9dbfdacedbbac7ed7bbaacb9b99baadf8dd9dd8b9f88a67aeaecfb3
col51:   8a496386aa677596bce6b78aaa8bbcc7c5b7a8988b9ecb97ba89cadbc7879c88a46d9986a99b78d9
ROC:	 BPix_BpI_SEC8_LYR4_LDR32F_MOD3_ROC4
col00:   a5a6baa98b98ab576a6bdc99668c5a96a9b89979797b8ecda9ae7d68aa8766586179885788996658
col01:   8c8a96778de97a8d8aaaa878dd99bda8ea8a7d8968c99c86aab7da99d84c7cabc575a9a96866f9a5
col02:   c6c47a7a67babb79a9696ca77db7a87998869998ca8c78c6ab6666bbaa6c9787676b82867a5c6798
col03:   6896a86878aab9889ac8c7857c9c598b8b99badbbb9c7b8868599969b77aa9ac27999cbbcb769655
col04:   366c679b5baaaaadaccbce9acb8a9c8cbc9c76987c9d9bc89b7b9dadba87c79c9b9789abaa79aa96
col05:   8894c699658bf69c3a86bbb5fa9adb6d8cbcab9a678a9cab9b77856847ab6c67b83e9a759cb94798
col06:   954a86cab8895a8897b98a65bd78aaaba8c97eab7b7abb87cb79a9c89eb9dae998aba8976a556572
col07:   9478cc9698658a8ddcab55da9c5996cccdb8a8ba9aa49b979cc75e95cbc4c57b7b79a855a6966758
col08:   78699a89a57c979a9a8bb7b9a9bacc8d2cd9f59cd97a6ba9aab6fbccaaa89a76b887b99b9a7954a6
col09:   868cb69a7b86db8b4a78ba9eba59c98bcab974ba9d9aac9c7dbbaad398788967b885ba97485e4681
col10:   668952557cb787a99b7a6a8a8ca8baa9799a68bb87acabb869b8cbeb9ebc9a766a84ba9b9b8cda62
col11:   aa97856c97496959b8cdbaa86abbbb977aa9abba5bbf49d8bd97adb7f9cc7a77b87c9a2576647616
col12:   8947767a97999699449f88979abb997ba9a87aa69aaa9a596a8b9a8bcc9b978897a78856b55588a3
col13:   ad59a4aac89a8aa6ca9cca99cedbfdba9aa78c6bcadb8a9aa9ba989a988baaa79894793785526767
col14:   769c88dcaa7ab97c6ba9cc7887bad876ba9b9bcb9feab8a9aaab8bba9db86ca59a776b7879847477
col15:   88d97a78a5e8bd6967a8aab67b8577aab7eaa6ab88b69acaba7ba7c99b7b987a78b6567ba5777946
col16:   aaa8a9ab9ac6bc67b9da7abe99ea97a98a7b657d9d8a4d8ba84ba79ac7a74cca6d4c73a798a33562
col17:   66a67bb6b77baaa7786aa9b88abbb67abb799bcbac5879b98cb9896a86a877968b8959664b866967
col18:   566759b9a7897998a698a7aaaa8c9bc7d9ccaca8bbc88caaad6a5b4a98962876a987485964499266
col19:   7ca7bb96ea99a99c7ba9bb6aa8dc8b788adbda9c95c979b6a8c6888bb8ab6753647cba86649d3b44
col20:   7898a7858469688b4dc9baeacdd9e6cb999aaea8999ac86a898abaaa869b6a574b8559aa73667595
col21:   a5dc84b8a8abbbc8aac388a8bac88a8a9ab688b888b8ba5a9888686a999a7bba665997378966657d
col22:   a87e76c9b59985baa569897ba6ac89cabbba8c9d77aa6a779a7887c96af7e8aa9649558869c749a8
col23:   7474c98869e8889789b787d9ba99ca9b9988787a794a8dc8c3b6aaac6ab74c5c9489938647754965
col24:   9855a8a876a856788bcc9dacf86c7483799cdbbab99b6b65b8895a5c79b7a7b6697667583b555996
col25:   a9a89df9c9a9dbbb9ca8accbaad7acbcb7a6adfb669aa88abca76b8a4986a879799947ba96ad69b4
col26:   ca9ecadad88b79db89dbb6d9a899ebc9caf986debc9db889dbb7ad6bb8c9cc89c7b5d8868774558b
col27:   6fd7d65a76a8b9caaaaa5b9fb77cbb5b8a9bc8aca98a8aabda99d9b7bb688a8797789a3a9596b568
col28:   b8c8aacb9ccb6eaabecaaadad8bacbcbd7bcb9bbc9cbba5adaccba99ddeba98bbba897ab6f7aa949
col29:   ca9bb9caabbddbdcea5ded7edda976bcba9ca9c8d6bdc77eadabb8dbaa68698e769b6f89866847b3
col30:   cbc6db69aca98b6abbdfca8e99aaba8dfabbd8fdc8bbadc6b7cbc6abcda97ca79d58ac9cc6757865
col31:   e8ac9d8699999d9acca9afcfaac99cbaaecdc9d9beccca8bdcfa8eebc7aca9d9abc98ab9776bb453
col32:   cbc9cdaec6dbbbc9cc78aca6bedcafbfeadf8edebedcdab9db8c9c8cb8b9cdad98b78bc5864b87a3
col33:   68a597bda9a9dbb9cdccac5acc98aa9cbecbcca8bbdbbdeade97e99eaaa7b5cd6ba488aba6666b69
col34:   e99c5ebbdd8aa9cb9c8afcdce8cdcecfbad9fdee9eeafdbcfcbdee98cc8a7a99d9899aa7d69fab85
col35:   babc7bca89acab7dfd9c9abb9bbb8affccaecadddde7ee99feacfadcb987bc7bcd9797b6abbc6a8e
col36:   a96c69b7b6abdc8d89a8c9de99d79bdaa9cdab7bcfcaaaac8aefea9b9aa59d889c7ba88678778674
col37:   ce67cca8a9cdcdc9bdecbbcadb99c78ff9cabb9fcbacffefaba9badbc4cc8ca8969688c6cbaab79a
col38:   6ac8a8dacc9cceabebaceaaceccbb689bfbac9dbafbbd9fbeefdccbcdf6abccbbe7abc8884b76b76
col39:   a9ab899f8ba9a9bbbaaa7ceaaeb7ec8a7cbefdbff889fb7dedd99beba9bbb6ca779d7a84a544bb86
col40:   cbcd88adbb9efcfbccc9cacbbfd8babdbbd9eeacdcabedbadabb9edaffbd8ccba7c9aac9d87dd879
col41:   aa598a6d7dabac985dcccd8dd9dcaebff7cdaff8dce6ecdaaeaea6ccadccfbaeb44779aa68288875
col42:   b865aa989f9fc8e6ba6f9cdcbafacafbaddbfb87ccdfaceac8c9ccbcac5e9bab8a9baca87967b756
col43:   abaddab9b8cafcedacadcccdfdbfefbaafecbbbfdeffcabfbddb7bdcacbad969accdaa88bbb96a65
col44:   67b6bca979b68bfeec9dfdbdbacebecedef8ddcecbfefcfabbcd9cbc7d8ad8fdc97b86bab88b8b87
col45:   96b6a79abd748aa88cdeaec9acbcbccecacbefa8dadbdbbcbc9aeafd9fbb9f89aab6c9ac6aa7e554
col46:   cbcc688db9af7ab9cafcedcbddedbaeac8bebacbbeebefdccadfc8aaeeac6cbe99c8cbd79377cc94
col47:   7db9cdab9cfbd7beb9fbfbbcaafefbc8bafcb7ecbedbcfd9d889c8b6cf9aafcac9c9bfc9a7a99b5b
col48:   ab978f7c9c69dcd9ccebceaaacbbabe8ceeecbccacfbdfabcda8fb9fbcad3c9896e9a97a9a8c89b7
col49:   9dcfdcbfc8edcbbbbdccbbceb8c9cdf8baafdfcbbcacabd8cccdca9aacaaaabaaba99946c9aa77ba
col50:   c8de99caedddcbcbdcfbef7c8eafbccccfdbcaebedabdfdbfefbcdcf9bbcc9999dc9decab9be5a68
col51:   7876c879e88aa7ab89b8a45bb5b8b76dcaabafb979aba6baa7a97bda9fb9d8987985777bca978546
ROC:	 BPix_BpI_SEC8_LYR4_LDR32F_MOD3_ROC5
col00:   8b765137b687736b6649a62a85aa66a89866955cb987c5686877449761567684566176861586254f
col01:   897949db99379989394a479b77b97bb8aaa5bb987a7888adb7c9a6dbb88a769a44428ba575588363
col02:   a66667177c739668ca688aab9a5978685a65ab89bb57e7898d9aaa6759c77a756575769635156496
col03:   8a9854879628b99a996ccb5aa7996ba7ca9c8daabab969abd7ab7395659777b988798a7648668a52
col04:   68854939a878698b79dd4d87d7a9577d66987f8d8c9aaa7edbb89bac97985c7679797458765998b3
col05:   47839a95995a76997d5b9a6e89c6799a99ae88db75a79cb7669bba6565564884147a4416846896b6
col06:   793d256c759985697a9979897d757989b8856698e57dca77b788a86b7a9c39a865694a464598a356
col07:   6c8777a8aa7f6b98bc7eeaf9c9c88788e8bacacaaa78d7b9aabc7789b7ea284939487a5a58787b77
col08:   a45a897a687b767974699988ac7898a5cb99986d989989968569bfa99ab976875984396868694791
col09:   8286849846796eb9aac7b7c65aa955b96878988b7baaa6a769db98a546d6a7aba4b7877baa8c6659
col10:   8a56894c87996a6c87d9787b6ace98985788ba9cc8867b8baa673948aac6977b859b473724536449
col11:   786796b796a7a58997a96a5977868a9798ab8d7c9b7a7b84979a98d98887c6a76846979697576855
col12:   9417899888673aa9879c88b8854bb894ba89c88a8a5c89459a8a7b86985987a78995997577657764
col13:   794578888d6889785768677edb8cc58877e8b9bea59bbb84c9c878bb8c64a9975569473757869794
col14:   b6aa97568c67a99ab48468c799d86bb47dcbd7d7d9b78bc8dc7b69daa9996158a49858a79486a477
col15:   8a6567617b88ac5994477289e9599576685a6e8a76557a9bb856778987a767877876648588988239
col16:   69c987a88c77798779b687a95886b99c89c8ae9d8aa8ba99cca6a8a9a6a8bba9759688475a297335
col17:   a76889a67a7585965ac76777b8c647656ab77a89e8aa7886bc9999987a97a6468998a89594435826
col18:   68893738356ba86989979587c384b9a8baa699bdea9685788ba792b4b7a5797789a736587676a5a6
col19:   b6378c9c869eab8a9b7b8c7b68da8bbbbc57bb9d9aa6c9a6b87897aa6a8b8a49b98d9974787a6bd6
col20:   887b65a8b7ddb9a79a39c48c579f9aadcd6a999ca7a9a4a865989a97c575898a5b85ab678936745a
col21:   6b61b7ae699e8a9969b857d9bbd8b998bc98759c7c96ab9a868d785598859a9a789785c55b959789
col22:   78379879aa7d799c7a9bbb9a8ba77aab578ba79b9798b8ca9c6cad8ac86cb96b8a7a877c99c67a78
col23:   b587a96ac98c6494c87caa956caab95738b579eba7789978994a7b7c93988b96b775468766138576
col24:   699678d6768ba9a787778a4a899987b889c95f88cbb9a9a9da6b987996576c59a9857a777a2c9756
col25:   ca898ba77c9cd887677867c9a67986a5abd5c8b9ad88de9a9cc896b8edd957677a876d8bcb45c8d8
col26:   7bf8b998b7988a9989cbdfaab8c9cbcebe94abdc998b6ca7fbb9d7b8c89ac77899cb7b9b78aa9976
col27:   769badc87b8c9ada3699fababba68fa9dac8c8d8b98a99d8bcbccca96b88a9b8a29b584b7aaa8a78
col28:   888cb8cc8798ce9cca79c9dbac9bbd98afc8cbca99be8e5cbcb8fbaaa8bb879af5a9986ab1aac776
col29:   b7c7b37fea988abbbda9da9fb8aca9f949a8e8ca8cabacaee9bdccdccc9aa9ad69aa98dbaa376886
col30:   b9e7669896b8ac8ab69dfb854c89e7bd9da7f8efbbbbabbbab5f99dafb8aa8bc97a6c89667688a9b
col31:   aabb9889bcacebbaedacbb9bccecbaba8ce8afbdd9fecdbb9a7fb6be79958d8ba8897d7ab7c8c695
col32:   8c779a5ab69ccddbb9ac8bfcdabc9d4fcbcbcdc76d9bebc7dfaaa9c9c9b9dd889abd8c8a9786a4c7
col33:   a9cc998bb8ddaab7dbfe574fbb98cedb8abfb8deedab8f8ed57dcca9aa5b8889989887d58579c39c
col34:   cbbbaf9baddbc999a8bdbbf9c8aabf6badaacacaec9ab8ecbcad9b98999ddaa98e7885a88887bb47
col35:   dc9ab9559cb6af5a9bbedbb9ecdcb87fbcecebbdd8aaad6ccccb99ba8a86ba8abfd7968daa877a57
col36:   bab949e5d59dbafc8d9bb999d89e9ddbcdcdb89bcf9abb9fae597cb89cd898aa89cad984a987b7a9
col37:   c8d8aa7a7aacfda5b9989df7dbededefb8f9ccfcaf98e9ddca7fcdeda9fecc9b798e7d888e7b5794
col38:   6cb8c8a997dcadacfdceceab9fdbc9addcb7aeefed79cbbbddb7fcd8ccb6aa8b9798cc8a9cec7ad3
col39:   aa596e9cc7cdefd988eccbaceccf9acecadacbbefa9ccbdba8d78dc89e88aac66c59da97b589468b
col40:   bc8b5ab9bc99ddfffadbfcddccaaa78cadfccfafceaefcbe8bb6f9cbde6beab9abbd8d9f7b8a9859
col41:   69acbb8d9dfd99fbbbdeda8abaa9c99cbbccebaabcbeecffecbacd9c7ca8a979acf987ab9a987e86
col42:   7aa98a8a6b9dacabbfaeb7ccbde998adccde7be7cbdd9baaebcbdcbe85c5649c79dbb8ad89b9c864
col43:   aab77d7decefbbabcc9fadbedc99ccaebcd8b9dbff7fafcaaeeeff89d89db7bbbab4fc9c99c87694
col44:   cb8e99898bcae9caabac999cfd79d9becdbfcbdf1f8fdfb9cbcedb9cddcddbcaca9e8b5b8c8a8b45
col45:   87a8be75bbdbcd8edf7aac8da9aab9c8fcabcccdbebff9b9caebdad7cdbbe95da9bcccca9c8d5b2b
col46:   79c8ca9ee6bbcaf9eababedcb999efdcbfdcdbbfc6eeb98bc8aeaa8c8a9a9a8a98bacbcde86b6767
col47:   cbd8bfafbdccbbfeb9acebedcceabac9cc99becd7bdf9f8fecbdbfb97adcbcccfaaada693a9b6c98
col48:   bab8dc7999dab9aabcf5bb7cd8cceebadff7df99ce8ee6aaaeb99eee999bc9c57ac6b789da8b9959
col49:   bbabc99acfdcadcbcc88cdacbc8ec7f7ddeedcbfbabfc8dc8ebbbe9feaadcbb6bbc79d98d58bc87a
col50:   899e86d5bcc87cbce9cda8e9c7bbfd8edbbdafecdcccdacddde98c9bad7e8b99b7b7aed879bca9a8
col51:   b77a5af7a799879b779cb765ebde99c4eaccbfaac649a6fbf98bf97d889cbab776c98ba3ab974f5f
ROC:	 BPix_BpI_SEC8_LYR4_LDR32F_MOD3_ROC6
col00:   f767598979759c88577988a8965b3c88cc9a8b7a8d5b47a79669bb95f55899a4bb777b7cab456466
col01:   88a8a85967998a97aa8a8b8bcbba678d7daadacc78dbc8e8a8bd7b789a77abcc3a85ea88acab7a67
col02:   55999689989b5955a969755ba9958bba869ab6a6b7c9bc99dac7ad8fac89c88a46967b8a8a874815
col03:   a68888ac9889ad698869788b7b48cbcbba7b96da97889abab9baa8b88cd789bac75c67979b9b7e84
col04:   336b86555979a669a99b977ad7a9bba69cb9d8bb99b7888a7b9cbad89dc6884999dca889b8a67c93
col05:   77a6cc78a5774c96a95899a79f9b8cbbbb9a9adb6de9bb9eb999a899b5a8aa7a98968c86ab878527
col06:   9a8797ad6a986987b64f6abf8b9b8dca2daaaab9b9aa9aca99accc8bec7aa9b9caac77a7bd689657
col07:   2676868498387669bbb99cb8a8fcbbbff989c9bcd899ba7a889bcc886ad8ab89c886ae9b9579ba6b
col08:   7486778959b67697999cb6be66b9b98ca878bb9accba9cc98b86b9c6cbdaace9d5a38628a8138998
col09:   85bcd69867776879d9a69ca8977bccdcad8a7abadc9c9baa8ddab8bfccc9be8fb59ca94669fb8977
col10:   a9dac8a97b495abababdc9bb899a8cdcac9689669b9cab7baa788ccbbc9a8869acaab6a6a9b57987
col11:   a969866d58587a984a7b88a7bc69b8fcb6abbc9df8bcaebb9876b9b778babc9dadccba8b49888987
col12:   6776d59496aa88baca9979b6b8d4c89ca7adae7da8c7ba2cac88b985e9a9bd8a77876aa7998a6358
col13:   7c993a67996bbb8bd897b87c8aaeede88ab9ab9baaadcc9dbc98b9ace9bab5878c8db57987a7779b
col14:   b96a8749b9b86b55c96e8abbbaec65cc9aac8b7dbcc8844c57aa7a8b8c799a8387b778a88a958654
col15:   89ba8b86886cb799ab8698d797598acb96aa9bbddcdac9aba9bacc9b78a6c8999d7898b998a47377
col16:   b77787937ba8a999758649b96ab7d7afbd87c8c9beb689c97da79aacabca598bba7a9b7889869487
col17:   f65ab6698c9b87b998b79daa98c97a89b78588c9ad6ddd38a965a8cb78a996677a99979979a76c95
col18:   77667ca885488c8a6da6b7b9799968aa999b987b9fadacbcbd87d7d98f4789b97ca9b6d681865933
col19:   4ce99975c98698ea9abac8a9aa796abac6886a9b5ae9d76cbbc9c9e9a698988f7e59448c43a9a597
col20:   56958584797a4883a6a8aa8aab799d6a9b9b8aaf76c88a9cb7aadcabbc68b78a8b79b56788377974
col21:   8a68697ab76a78997a9c8d9d8fabca89db9b89a9a9b77ab9bdb7696bca8e9caddd9a9abab9885677
col22:   899c6b688c9a7b6ba79b86a9999cb78c89ab7bad8db6ad7a6786aa7abb85528b78c9587798559765
col23:   a638998a7b897a993c8ce8be9bbc4ba999a9ab7dbba77b7758dabc9cacd8d7adca97598b7a976886
col24:   855d99b7b7aa9ab4ea8579769dbb8caca79d8dad8b5cfacda868b9a67c7a84557ac48985586b459a
col25:   9583a68b7a88a6bb67ea8edbaa4f9ea6cbad8a9aaacaca99fc9f9ee8baa79ac9893aa76781c5a863
col26:   85786da9ccbde9ba87d5c7ddbc9e7dbd46f8c8accdb5f7dafb99bcd9d8cbda97bcc5cb98989868bc
col27:   9a678a9bb99989eea7d8cac7ab99ddceaaaafabaacc9c999a7cdb9ac89e78b9bcb96fa5777728ccb
col28:   b6a567bdbabaaf88d9c9d9ddaca68cd6ad99d8cbdabfbaba9baaacb9bbb9eb8cbbba977569898599
col29:   a1aabc869996cac98bd7abababd9dc8ac6cc99aa6f8aca9d988cdebafbb89da94c999abbb75979a7
col30:   a596cc8c999a79cacaacdbbbc9beada6a6999e89db794cd9cf8bbc8aacbc899dcba74d5e946888a7
col31:   ba5a98ca898dc9b799fda9fedcfcfcbadebf9bcbbccb89ad8bdb9cacddfcfcabbc79999cb8836994
col32:   9b7884969848dc6ec8ac69e7dcbde7cabeab8cbd987bacfd9988b9f8b999a9a8abba798a738978b7
col33:   cca7b886a9d7bccaecbabaade999abeda9dbbeebe88d7fbfacafe8beadde9cb99b99c7a799d99b78
col34:   898d88a7cdb9aafb8abb8ba7bdaabb7aecbbc9aecbcbaabcbba8aaed99bcdbb7d8b9c97bd8a6cba6
col35:   aa8799adb6cbbac89bbaab459e98bf999e6cad4addc9cccbecbcbdb998997cefdda98d97a9757a87
col36:   866386aa49da69bcee99d7ba79bbeddb58ed8af7bbbfacab7cd9cbbc9ababa9bb9c8b5b8abb35768
col37:   5ac7ba9bacceadc9bb99af9bacdaad8b9ab8baecebedbbcceefe9bdc9bbacecadc78da9da8aa89a8
col38:   aaac9856bb9ebcacfbcaddf6dfbedfacdad9cdcabf9beabcb9cbbeacdcdacd8eb8b7bc9b7aaeaac7
col39:   9ca77ab6c87bd97accd8fcd9fc89cdeccbec8dfefdfbfbbecdb5be88ba8aad6c9cad9bfabc9ab968
col40:   baa78a9dab9ccabdcbbebbbcbbdc9acbcfafc9c9adddfbbbfcce8b9fd9cac6daae9a98c998a7bbcc
col41:   9c8b5878c89b7dacbc68caa9b7decedfccecedfbdacbeccc9baacbbdcccfa9bdaee7c8cc98897a57
col42:   aa8cb5d7b6eb9bbbf9aadfcb76cabbcfbbbbabebcbb7eccb9cbdbd9ca7b898bcaf7baec8aba98bab
col43:   66ca7cbb89cdeacacb76fdc9cafaccdd9eaacddbc7a6f8fffd87ce9cbc898bedebaba9c6ca77f8b6
col44:   ae788bd8bbb6b8a9999dbbacd8a5dbe8dbfdecafde9bd9eeeaefccbba99caecb9764da8cf88a7997
col45:   d9bcd67bbd6dd96994987d9ccc8cac8d99cfbbbfbea99feddbbb877acdcecaa8a6bcbaa9bd87cbd9
col46:   88797aae5b998698babe9c8dcd89debe8cefbbcaebacc9abea8dacaacacb9e8cd999c98cbacabbc8
col47:   aa886bc75dba8abaacbac98a9edd9cd5e9999bef8ecccc99a8fb9dacea99c85aca69c7ba5a5b9ac8
col48:   76bc7aa9999cb76bbe6a938d9d757a9ac6aabc999dccaf76adcbb49eb997895fae9c7c9bc7c7abb9
col49:   8c8ad7a3a8bbc89baab6a9bc867ccacbcdafeb7bb98a9d9bfbbac88d9d6abbd999cc6a99ba8ac99b
col50:   ab379b8a7deb876b97ea5a995ca9dbc58bfbdeedcbcdefab4bbb9cf9abfc9eebcd49a67bcb8e8986
col51:   9a87a6c9aaa7ab5c9a7a965b9a6a8bd9c9ab79a6aa95e697977988a8ea99a7899c876b9b7891c9a2
ROC:	 BPix_BpI_SEC8_LYR4_LDR32F_MOD3_ROC7
col00:   7e6aa558889779796885788768ba68a68a3588697bb89969abb98b746b9b79996a6aa39c76a97396
col01:   c65d6696554758baaa7a87a78a99cb89ab6a664c5acab9b589c99aaaccb9c6d37788b6b68a9a8fa8
col02:   74aa58776969586879a8a995896ad4c7d6c9bfaa798a8c77b68acc9bd857b789c7bba5a569877864
col03:   7865b9b87a7a69a8ca996cd79bbebd7da89ebdbd7ac7bc8ccaad6a6a9b9a9adf97a7a87ba977985a
col04:   6748758679b9c87b8d8d787498b8a7979aa5ca87b7a9e9966a6aabb89a95ca5a8a796796b9758868
col05:   869ad5879b86ac48968a9a9d8666acaabda988b67bd8cbe6d997caca889bb99ad6abcabbc9d9aaa7
col06:   a77575769579a5a9a7a99d8aba8789c8bab8968a89a98e9787ba8998e5ccb9ac9c686866778bcacb
col07:   7764955857ad7896688bc6b96b8699899cabb9a7cabb8a9bc88993a97acd77c85a96a687a56cc787
col08:   82a55a58a897ab88c477a7ca989cac9c99b97bad76b7c67b79c8aca885b7865ab9b838989a8a9974
col09:   95687dac7bb8697888b496bb6cdacaab8cbab99ba7aaa9c85aab987997998899d6769cbaa887ba6b
col10:   c85877bb7d877c68a9592ab8b5d9cd9aaaf99c86acc767ab87c9bbb8d67b7648b99777997ae8a6aa
col11:   99a84c3685b97495a69cc789598b9a97bb9ba95797c8ba8c4ff8ab6aa79d57895387a8b778ac7ab8
col12:   3645c996a69998767838e7aaa8798ba768cc8c9b6a999aab779bbaabda68b88c66ab7b9a6aaa965a
col13:   9494a6878877bb98895ab68c6ebbb89a7a7b5cba6aacbb47cbb8686acb89647b9966c7c998b59776
col14:   573489698587769a889966a68777a599989b9aa39cab3b78bbab8ac97b8688cbc7b67a766aaae788
col15:   796ada868a746d97895979aa5a996cbcc67b989ba9ea8a97dabe5da9ba8a78b865a58da993876779
col16:   1466a7798968a99bb5c6486a97c8b6b9b779a8889ca9b979ceaa89696888aa3a7a687a4bac9698b6
col17:   6665ab68887566789878abaa8b7a9978cd9aa899779beced5bac78788888a79899d475936b6856e9
col18:   a168696aaa839a8c869799986a6996ab989c6ba7dbc687a7bb98aaa7477bb996a84b86fb88757c66
col19:   76a99c79a6cb96b699ab6959a5a8556b7aa59b9a9b98bb8a7bace59a9779b89583c857a7489c84a6
col20:   638846b899846a8757499ac696a8a7da5cc6c9686ba9899988ac8ba76989996389895876569c7b97
col21:   854576abb88bbb5778c79b6998c735a5c8bcc89b8aa7da59aad6c66a97ba76a654b8b8766aa7a6ca
col22:   65473c6765785a7753ca5a946989889978aa677b6668bcc78d7ab699c8a6aa7ca7b9a893bc98564a
col23:   7555579968777775ba8b9647ac4c78b7a97a97aa9c9b78bb7ca89a7769a7bb9b865937866ab989b6
col24:   868a769a975967639ba7859997978bc8c997b385baa98a98b998a7a7b77886799566b9a9689b7895
col25:   9569a5658ba685c89996799f87faabbcac65947989cbb9a9bbc7a96a6a94878d4c77896a87a7767a
col26:   837a435a5994a8bc89abecbb9a97afa8bab8e7a9a79a94c796a99d99ebbaab4b789a9ba758c88a97
col27:   665469c796998999897b7b7db67da8878e64eac799aa599aaa86768abbacc7aeae9ab9a79878aca6
col28:   b885f8a684995a9e89a8897b899a6cb99678b9eabcabb9b998b9cb9bcbcb6ca86a488dd8ea85a816
col29:   b6836897a99bd88bbac9a999bbd8bec94cde87bbc8ddbf9bbebacbbde99c758e8696ab5c78a48991
col30:   b988aa87bbc78b9b9c9a9989e99664c987dbbdebb7bbcdcc9abebcca49bdb6ca8887a947b4b7aa77
col31:   96b69b67a79597a878a95ca9ab8cb9e78cb99cab8accbd9ac8abb997ac8bcb9bebb7abdb89c98aab
col32:   497aa6ab89aaba8ba8a9a9aec99bb9adaa99bd9d8acaf9bfd8abbaa98cbaadaaf69caa8586b9cba4
col33:   968986a8aeab9dd75c88a9e8a6989db87bfbae8d9abe8b9cceee8edd976c7ac779a9b788c6cba97a
col34:   8bb98b8b59cbb88ac9eaa39cb99a87e99aabf4aabd9bc8beddb8bab7b5aaad79998a9ba9b99787c5
col35:   798a9967ac999ea899a99aadbb7aaaa7bdadcb77bccadaf9bddb8abb9abe9df8dbab799aa97c857b
col36:   d7767baaa8c7669bd9aa9aabaadbba7afb7c777cbded8abcaaa98aa6cfa9cc798a99c6a98a58ac78
col37:   acf5d89c99999a8dfd98aae9a7a6adc9acbacbe89aeedaababb88a9a9a9d9ecaea8bbaa8bca8b974
col38:   aa98da9cbcaa798cabac769c6cbbe7c9fb7ddaccfbcbdbc99ad8aa9bbb998b85b7e97bebccaad9b6
col39:   99b87f88da58caa699a9b79ba8bdb6e9dcac78ccbacfcabba8f7cf9ac9baf9bb8cdabb89a8988bab
col40:   bb99edba97bc8587a9ddc8dd8ec9ac7cbda9d7a77cbccaaa9a9997bba9cb7e9a569893a875a6cbb9
col41:   89a96998daa9c95b9ecaa9accba9aad698adbd9cf9fdb5dae8c9ca9b2bbf9dc9a9a6b78c9dab6ba6
col42:   ba84a9daa988bd79ba8979ca698cea9aa89cadcbe9f7cbeccb9ea8bbccea8aaa86a59a8397a798a5
col43:   b29a6a9c9ba6c9c777acb88ba9c9ad9f9c69ddbb8c79b8794ab9efebb98c9ccbbbe8fb99dcaa9886
col44:   977879c98c9aaa77b9bb9a5388dab999cbcdecdbf79ea9ba9ba3baa6bd8dcc96e88cddbbcaabbac8
col45:   987c8859a9c79ac976b9a689bafaa8abebb9c9bbb9cbdaa6b9cbc9ca7ca997b97bc7aaacb889bda5
col46:   89966589788fc9dd84688859bb9c8baaabd8dae7b8dbab9897cd9bbc3abaa6dd9a87a59c6d6abd99
col47:   8b9aaab8b75caba98ada98b9b79ccaca8cb79ddd89c7cb7beadb7aa7bdcb9bc497e7d989aaab6ccb
col48:   698398c98ca8ac8b7c596aa97e5c99aab9caab7dbbac8b98b8bda5bc878fdaa5899a8487bdbccc8b
col49:   778598a988cbb799baa967cca8d899b8a7ef8779da8acbb9c9bb66ca9ca9ca78f8bb6b9d9ba87db7
col50:   989a96b9cb6985b9cd9bbac87fcdbbbabfa9bca896baea9dac96c9cb8caad8ac78a8a7998aaab997
col51:   8927b677a5789ae7a5786a97784cb6d66a666849588b5ac6643487c56a587596676a48a99578a876
ROC:	 BPix_BpI_SEC8_LYR4_LDR32F_MOD3_ROC8
col00:   22798454867396885888488595675a3c8947b8774a37a7495965564843aaa5617174a7765636658f
col01:   8b48b67ad6859889856875a495687e99ba779cb97869899687a37779967c9698774888859e8766aa
col02:   db9a3a57a8bb8185899397c85a797b35968c9ab88866566b9ab49daa8899b5a7868562556a4886a8
col03:   6599a2c7687b888878b2687b98986c69d8bdea59b679b9559799987a678999a4a6d6894a64456976
col04:   2aa7b899597cc887969599a7699a7b8b9889a599aa7899dbfa6a7a8b9b5298999949a8379885b2a5
col05:   828a888a8989b8699676c89878a8a769f8baa7859b29b6c85c998aa987857aa94968776a65862671
col06:   896636253657c75699398a58bb95c5a7acb8a97887556b87a98a78b4a758c5a543286669276a6374
col07:   a7956869993799bb757ca8976a79abaccc7d6c89c78abcc69baba77c97a5a8d4a68566a547b64895
col08:   3a577967bb399892a5b5a8b948a89ac9bbcbaab9bcc887c7558664788c975a98688c599376877573
col09:   7598966649686896885958da8a5ab8bd876875c99ba9a78799aa8d7b88a75682a65b6445693487c7
col10:   5a96a76a89ab8877796a9a6a674ba899aab8a939a8aa4aa9abb7ad68975857795889264846969878
col11:   367648964867ab48899ab659ab8eca79ccb97bbcb8d8b8988c79aa6c888a47b65c5aa5b789749883
col12:   a8a5883aa5a7a4586969a897ab69ad9d8b7ca68e87acbd8a4877868bd5e9848848777a7596748356
col13:   89a89886987985aa9cb75cae7b4b78a8ad87ba8cc88c6a9478a5c89839d895895998ca675873a55a
col14:   6875349594b89a8497bb8a69e995a7abbddadbd7ba8d9916a699c8b69a9a78a84ba966b8496b8844
col15:   86a6a6584c578ac9996abd98aa79a98bdb8cc99878699ba8a89b987999a6ac78a7589785a5863895
col16:   99aa879967485798aa5798eb9d7babb7aadc8aac86c786b6dc68957cd9c8db9dc585352784752955
col17:   68676855796999cb799cb7b998b78878ea79bbb8cb658ca5a89be56a85b978959a8a6687981837a2
col18:   4885889867884bb9a769c8978687ba6897c888a97a9a696a5a65a9996ab7b65bab57582769763967
col19:   b577b5757949adb2cda885b789c677cac97a8aa9568899789889a878a79b67699a6b866296866678
col20:   244547696c758359c87988bc74366a487bc9c6ac9a5b8a9c9aa69a789569da6bad2a795893495396
col21:   ba957a87a78c7d49cab6879999b88c598cba969b9b6ca978ab9bbca889c55548a9b8a96733567623
col22:   7786b9a895679c9b8869a68aa99796cc8e88c8ac997a874c7b8c479aca75a639b7574b7677a58531
col23:   54367869a75ba9b7b7b78a6988ba997997b79bab8889986a8cb9a4b77b8c767775ca9548b48b6565
col24:   5744977668777c4465a79d7aa6799787ac9d897b9ba776d649b86769a958aa88b588987977678495
col25:   5c9a9855669a7aa67b59b99869b85978a98f9beaccbaa9e9783985979a25eb8cac859a3796829b54
col26:   b5775b47669a8899a77a53ecdf97cb98888c999cbddbe87bddc9b777ac6cc7a9789a88775a48bcac
col27:   779479d96789d4d8657b89ab96ac888b8974cd8b98c9c87a8baba968468ceaa7c97aac9365947658
col28:   888b8aa97cbcb85a66b8b99a9cb7c7bddd87abdcdbb9ce85ab9ccb6b6db8b9d8cbbd8bb6c899a598
col29:   c96aabac8597b8cadafbac6bcad9a9aabccb8faffbd9b95cbddbaacfd9bab97a8a96789782996995
col30:   6aa88ac9f7899a5bdaab999aa8dd9b7a9787bb7b6a9ae78c6c4ba968aa9a69b8ca8ab89795875685
col31:   aa26ab8dbab99bbb989dcc9dafcba6bdceaca9deeeaac7cdbcfcacb9ed7a98cc9bd7aa9a5b9a79ab
col32:   acb797ab84dcb75c7dda898887acbbf9fa9abf6afbd88cebd9dba97c98a7ac8867a478884baa8997
col33:   6bab87ca9b978acd7b6aa69cdbecbcbddaa9bbcf96b9c7e8acbcaaddda886ad9b8a7c995b45caa87
col34:   8ec985aeaaadbeaab9dbca7dcdcbaa9da9ba8b5abaacdccebc8dcbe9ccaecc69ea768aa88959ba95
col35:   adcc8aa9b7a8baae5ddeae8cd99dacd8faddbcacbfc7e798fbdcbaddaceacacfa97988bb9988b7a8
col36:   dd88689957aebccad9a9ce7b8a9b97ceda9dcda7cbac6cbcceb7cbbfc9c56bb7a8b98da95a5888a4
col37:   cba779869a89ca9a88bfd9cbf9bdcd86ddbea8dcecbdbedddde9dcbcead8ef9a98aa6998a8787368
col38:   8b77fecbc8a6c79b8f9dda88a9bbba8d9ddddce5bc8ddbab8cb8caa9b8dbbb7dac9a5a99a7779b7c
col39:   abacbc9c75b958caba9a99d98a88eab9daca8989bfdbdbd7cc7ad6656bd9a5d7cc9779a628896ac6
col40:   b6badabbbdbc7bbbc6ab5eebb9ecabcbbd99bfd9eabcaed9daecaaacbbc58ab8e8ab877ac87949a9
col41:   998a6aaa9a76de8a7b897e9ca8da9bbdefded89eceffd9cbeb8a98b9cc89ebbad98a89aa8f599981
col42:   c8cddbcbdbab9a9993abb99ab899db8fe9cbbbdc9cac8a7a7fd9cc9e7a93ba98869c7d8b89766a57
col43:   8699b9c9aa7abafdbd98d9a9c9abae9eceabbcffddecdc989bbebdada9bc8999beba8b89c9ab89a5
col44:   c8b8b6999d856facecfacc6979be99eab8dc8cbabbcbcbffbb9f9a9fc898bbc9ba9c9a785865bb55
col45:   f999bba396a9abc8ae9baccd8dadbca8cdcbbdcedcacddacb9cb9b7acbdafd7c8bb9f87799b5ad88
col46:   acac67cac99b398c8abb9c8b9dbfccbe85b9efbc9dbfceaaaabcbaafaddec795bca798778977d798
col47:   8ca98cca9ad79b7ada89acd9aa88ac9dabccdbebbdfebebe9dafbadcddda9baa6b8589b686ac99e4
col48:   b9bea99bba6cad8dbb97d9adcaa5cb8b9cae9bf9cd8cacdb69bbbebeaa85aec7c87b5ab99b7889c4
col49:   eaa8c8badecbadaaba8cac88cb7fbbab9c89cb8dcca9dd7dbbcff9bebeebc8ecaaa7caad9c89aa59
col50:   bbbcae9c98698ba89fcaa9bbe99cdababdcbc7d9ae8dac9aff9aabb9eadcca9aaabb9c9597898996
col51:   17998a68cc41a9ab6c97db98dbb8a99899f5a89bc8bec9cab96b798aad85c7988c977879548658a4
ROC:	 BPix_BpI_SEC8_LYR4_LDR32F_MOD3_ROC9
col00:   f1334426895466463585195642755575677793976669646665679695b7a986695579a856677495b8
col01:   77676a845686a38b965573952489588b696887db8c75996866a77867588978888875a7c7a7786898
col02:   42a45774b8261236886354777688478dc59894b5578689556797576a8b85989775a395986488b798
col03:   754781658164867a598aa56986a5696996b6777879789a888688a55e5a988868ba8978579765a998
col04:   782174575917379a8977c9897688856c7a9cc7a87573b6a75b8987a96996367b9a87576822656983
col05:   93647885b66359569a8669b835759a679963886988c77aa4688d779786bbaac997897959387a4bc8
col06:   9751482668655595665766637496595775956ab6a885b959b9578b799989b6747654c69866786467
col07:   56a4835576431a5b67655357baa7598aa78ab9b6c467697c7aca73b38b7c87a99959696987a6d978
col08:   464454899496558b577daa4629b77a996b6969959986a77786a769a5a988889294a97b98b77ca2a8
col09:   4572726647a969956496774d76b97987a798886b789a955758aa77897568683a8a996795a7589898
col10:   246398676665763446678a9a75856567a6755877988b6586d558689a6aba395bb754e7bc818798a5
col11:   435646d49886356797769a6585966668a975678a6bb68d8879967799686485889865d598897ab65a
col12:   41847a7666379579a3b7855975a69b378ad9687886c98d88968988a55987a668847647b795a897ff
col13:   39a6865168687775495a97678597a986767797b9ab98986879ac79639cabab69cc7a9957797cb593
col14:   8555a6595678397a7a9794997ad6a8c9959853b289797976698869579788c9abb58858baa8da4ab8
col15:   6545685466477259758774555487867459877799a9b67a688ab9a5ba8db49b595699347d786ca377
col16:   6133565534838492576b742846865bb8a686926684a9998ac9a8a8b99895a79a8784685989a89c5a
col17:   255317774778476458667676c8657977989876d776b856782a978ab66b994c98a8756869793ac475
col18:   57543866948356756566a76a975977a89479c8a7a97799a686878a98bbbbc9468d97988985968b77
col19:   332577667566c885855998a6c7a89464772b9b777aa68c5b86aa688aaa6b9798d972568a9abb4aa6
col20:   5b639686388774986a5c784a65776a89a78669a98a5558ba6287ad7ac8638a57b99595897bb7a878
col21:   73142816276869565c989974a5aba5588798878baa6b37688576ab7766c695a799b99d9969879a57
col22:   4a7873355577957556b56588a6b68976a58975a89b69b99567d866597b88b779895b9a9a88c4b898
col23:   7557446445978797665782587677896486ab778893a8a8877e7674b795bc7b6999a9a79698c95663
col24:   667756545474786557655667a78ba329a7489a84896ab667a9c9877bb8979aa76487879798b98688
col25:   87654666645735893918887655aba86b8a6839898588a89a9884999bc9b8b999bd8c77a57978769a
col26:   a7452773a97576a9669c8774578abb876999a6daba9bb76cc89ac8b694aaabac6a88d8abf3bab968
col27:   95668879a7a4665dc879589663877689799b8988a8998abb8b67785dbb9d96c86987db97e57ab999
col28:   58619698a99a98599988999999aa957ce97c8c8bcfa7bbccdb99abbb7cabc7c7aaa7ab696a5988c6
col29:   56489a578658c88bc8caa74ab88caac8d49cccba896c8caebe7da9ac7aeb58b97da87aa99ace7ca9
col30:   669b977b4682a995697b8368b9897779da8797a978b97bb7a7bdadacb97aa99b37d696bb9acd87ca
col31:   58a976a9899d67768897c9897c778bb7dbab9a89aca9a6a788c9bcc8ca9abcaa8acdaac6999669b6
col32:   8878738777ba6796a9a9cb59dc9359cc898ab997e88789cbbdbaccbbb5bb8ae8a9d6abba8eda99f8
col33:   3695778b6798cb9a66ca878798a87b9986fc989fabbad7a988babaacbb9cbb89bcb856bbca9a7ac9
col34:   7863689395c899877ac99999a69669c9d947b8badbccae9b6adb78e6f9d8b7cbca9bcd8bbd9daba6
col35:   5979878a685b5579a79c5ac699789bdad98ce998abbb9ad9d9d8dde789edad89b9b7baa9b67aaacb
col36:   531486867486759a897969ae47988a9bd799989a89d98a95aaabbc98caab99bdaccba8b9cfaccca9
col37:   8796989a897697876aa77d8a66898c9b8aa69bddbb8c7dd979cadeeb9b98ddbfa9e85b876d7a9ed8
col38:   956899b79a96bb7dd8b8d79dad799c9b8bc8bb8bc99899898bd9c9c8aabcdbadea99bbb7dcacaaac
col39:   933c8864979a989bba8a8a9c69aa7ea9bcbc9cbd97bbd497ebccab9cc9cbca9889c6bbb9c6adbad8
col40:   6563787487999a7ba688aade878b88988cb9c7b9ac9d9ccacceaac97aa88aab9fa9aabbaabc9bade
col41:   766aa8a8877cb8badccafce897f9dcaaabb9b7c9becbc69bda999d9b7b99aa9abbcada8ac8cb9bf8
col42:   639799798886c8a89ba6477beb9aaba9a6b999b9b7bc5eecadc89beeca99ba6cb7a7b9ed99dd9e89
col43:   2a897a98add787a9c9cc8a8baae989cba7d9c7dacccaad9badcb88cab9b8da8cfaeaadd9da9d8bbb
col44:   a86664899aa9787b79cafdcbb9bb87bcb9aad8cb8ac99caabeaedbba7bba5babbcbaaba8bacacbac
col45:   47a47667699889d798b7a99a79c99aa9faea98788e9b998aaaac6bb9dcc7bedcc7a8aaacd8ab7acb
col46:   8767b85989b88caa6caaa9c969eea799cdef8af9c8dbfd9cdededcc9ebaddbcea799a8b7ccb7edbc
col47:   7895abaabd9a6b9688d56b9bccb8ba7edbcaa9dcbbabacb59ae89d9adcdfbd57d5a8dac9cbabcbde
col48:   2999774a77b99799caaa96e986b9b8895dd998ccbc959dacdc89cdddf998bb9d9eab6ab9c8bdad8b
col49:   758ab77bba99b8bc69b7989ac9aa79ca5a9b77bb98ebaaabd599ccdfabca9b96aaaabbd84eabc6a7
col50:   98a679a763aa7b89b88acc987abcacd99babdcccb9cdcabaaaba9da9ccccd9bbabc98a9d8978a987
col51:   875683986664a85c88a7865ae8898466ca867a5aaa9b8999b6b5a978cca9bcb97988bbb7cc9acaf6
ROC:	 BPix_BpI_SEC8_LYR4_LDR32F_MOD3_ROC10
col00:   a8ba22358683686884a8c8594667858779db5a8b8478976b66844472b3ab71755d46744198496258
col01:   553baa8c8a594c8478abbfb69877a858cb8a7cacfad8777c46a37b989a2429213688c58c8479a487
col02:   9938b5aca9b674b697483c889bc653b9a4a888d85766c99bdf796635b5a96886847699351595865a
col03:   5b845bb9d7b4a8ba8848ebb86599d985f9a678bbc989a8aaca8d4664a66997b469c6687561778a52
col04:   526b6a3a9aa5775896eaeaa99baa57d9aab5a28aba9badea8553cad8877ab4988784866765c989ab
col05:   a989b978acc878773bc864dc8c989b85b86c3ab739b75aa7889acc8898896ba3b5799974a679c758
col06:   8927b7989b8b664554ba7abbad8d6c5b3a9c7a86aa99ac5a6b8bb7a59477788671925d8673658795
col07:   c8698588a7cb7999697aafba798ab899bbc8ba8af6b87c9d6c347a45b99a3949478691995bb76463
col08:   a9798b6688cabb97cddb686bc9aac8683c68896965aa7d69d956aa949a92b6bc9b88736988958761
col09:   ac84d98c78785764b99aa9d8ab8b6c6abb85dacc9adb78bbdb3bb9bb9ba74ca679d764768899878e
col10:   7869ab7b9a89a76ca99cb9b9ba97cbaa77da57b6a7baa6c7999a88659c7457b6b79a49958632658b
col11:   5995b97987728779cab9889ba8ce9aa7d996abcd6787b9b8ac98baa88b7a97ab9459797bab387583
col12:   e8d4c79587ab5c959aca999db68ed5aaa4ebbad8b9c6875a877da6a7aba9786b869bd77792959e68
col13:   9ab9976b9aa686b85687b9bf5abab8cbb796a999b9aca7899ae8748a77cabc66957658c8b9656891
col14:   7799b4db9bc86c886ba9eaab7579cabbcb9abae4e8a9bcbaca8a687789a7885a73c6bbd6899777a8
col15:   89696ac778cc48bba4a74969c9677898a8a96a9888a975d67968ad8f57c968b67658888967696a77
col16:   1568a76799a857a898bacbbb95989c78a99c798dbc6bcab88acc8966c8386a76a9b9a4c48957b8a8
col17:   899d96d576d772aab68769889886666cfabbaab3b6986948c8cbbac9a86c862b93ba7697693477a6
col18:   5958787b74759ababb9a9fd4a7889a58964a6ab6889ac89aa867b786c569639487798937853857a3
col19:   278998995b6968778aaf8b8d8a8fa78cfd6abba6a8787a7ac5c898cac8eb9b7b9675d27199b68a87
col20:   b8b5a9899a78a9b87d58776796977fa58cda6c58b6889ac8e2b7a7b9ab8746b8668955673357875a
col21:   71a7766898aab7673b8abac58cac79c5c9bbaeeb7dd667677c8bb82a77a8ca75ba7a7c88bb18d677
col22:   aa7a49489b8598c8a8669a9b8c99bd7ca66bc6ca5b9cecac8f47bae6879869dc49ba8687aa8a9a43
col23:   b894a569795aa557b79aa5abda675dbb6d695b7c6c8c87a9895b99a958b7786388556ac84a59abc8
col24:   55669948babb99db8777a6b99e4bcb8ba4aa98b95cdcb999b8a772a768ab5b8aa8947935a7655a89
col25:   9b6ab998a8a5ac9ba8cba9b888a5b9bb8a9cb57cb9adb8bbdc86bda667c895665b7e86b5b98a6a77
col26:   99c88866fb7ba7aa999dc8cb9ccb9f887b9bbeba7b79bffb98a9b788b9b98ed9eb93c99aba9bd887
col27:   2b7c78489ab8a6ca6dbe9bd96877dcd895baaca977bffababa798ccaaaa97e6c6788aafc38a8dc76
col28:   99749b98a9aadad87a99dd7aac7d99daaccc78c5bbba7aabcce968aa9eab9aab9bbba9dc68ac79ff
col29:   8d8bb938dadb9cff7cbab6aabdb4b9ecaac9ddceada8cbbaacdeefa36dcdf86abab8c7b76888bbaa
col30:   4d89dab979b9c6b9ccd99ccb9fcccbacb776dbbc975c7cfa7cc9b8785fb8789888cb8998989a8b68
col31:   9bbab6cbcaccca7edbbce9ad68e8eefd9daccadc9daca7bac8febdfd968ab6ecf98aa8ce9973954a
col32:   69bace89a77cedf75589fddfbdcbfcbbc6a995fbfcbabcabc6cebc9ad9bbca85a8badbb8acccba88
col33:   f8b88797cdee9a6879acb9dca8f9dcbfd7cdbdaadcf4acddcdabbaa9e9a7dc76e79a6b8ca6a86784
col34:   96ebbc9bafe8bfeaafedbdcb9c9cacfcedac99febbd8acaa8ccc7ddbc9bc2c9aeac399c9cc68c578
col35:   68b68a896baab7f6cacaafcabfaeacdddbfd69cd7f8daea98e9baaa7b9ab8cda7bedb9788b9abaa7
col36:   9bbb9edb8cdae6abfc8c89bb979bb99cef9d96cff9fa9baca6fabbcaaac99aeb9dac8cf2ca777bbb
col37:   f8a8cdeccbcafddbd8bfcfbbfaa69fbdfcfdadfee6e9afbcdca9ac9ec99fec9fa8f9dabb8c979ce9
col38:   fcbcaa96bcbfcfaa8d8eba9775dbd7bfbfdcebefcacbdbdecb7ba79d8fb8d9c6caabab7daab9d7c8
col39:   acc5b99d2aceef8fdaeff8bf8a9acd69ddc8a6bdedb6adcae987bce96cc6ee867ba8e8979c986a85
col40:   9caac99da996fe9fadedbd7deadcd8eddcfdebbca6d96eb48edefbdac88afbace9ceadaab7adb9dc
col41:   ac9fb5addccfbbb9f9cadeab7fa9a57bdcc6a8dbbf9b7aee8d69acdbdbdcbfa9c9cace8fb866cead
col42:   c67a9c9c9588cccddb9d9bdbbbbaceb8dcc9ca6abbcdeadc9979bc8b9899b89a99f66bb3c777afc8
col43:   aeeafdcb8ef9abac8a5cdcd9abcae8dff7bdedc9cd99abecbc9fe7bfcbbeac9cdaecda89c99dc9ac
col44:   bbfbba88dabbbdb9bbcebbbbc93dbdd8accece8ca4e9fbba6fd9dbfafd9dd9a6aba9dced7a9bb7bd
col45:   9ab999beb8daabb9a8a9cd7ccab7edcdabdbaaaba9e5a46fbaccf79a1cbefbdc58bbcc979ab6a6b8
col46:   c8c95cebca9bbecbd9ccb998bcabb9db9acce5fca9ddfdaf9bceac8dcdab6d6e89ab9bcc8aebad99
col47:   bbbccfbca8db7cc9cadf7cdceefcaaf7cecc9afbeecb9bcabcdadae98d9ed9aeeadd53989dcfd98b
col48:   adac868dfcfb89accce6f9fcddfc9abcebce9bacbbb6bbbbaaf8a6d7ca75bcac79966df8dcbce9bb
col49:   aa9ea8de9988cbe69ecccc8f9ab5bfcca8cadbbaea9afeaffec7bcebba889bdabacbaac9f8d68f7a
col50:   babb6debcbe9ecbc9ea99c7dadddc9acbcafdcbcdd5a7d69bfbfbfbbaaccfcabb9b7cb8dba97fdc8
col51:   b7b88a77fb49dda7bcb8a7d75aab7a9aa7eed86bae87ca89e88d1a43c888b8b88aaae9a158b458a7
ROC:	 BPix_BpI_SEC8_LYR4_LDR32F_MOD3_ROC11
col00:   6786146246698288a8a77968894874984745818489596a465aa64689885864e8857588875a446772
col01:   876627c789673aa7b9787a5baa89caa4c9ba6b8c7cf97cb8c99c9d37fcbaa9d6657977acc978ea78
col02:   679744a5d8da5bae96a77a8a936bda76b8a88c79969999bacb98fa9897ca9a8b8a798bb88778a84a
col03:   968b236c7977677a7c5a97abaaacabaca7a9d6aa969d777c8de897498bb69ba97a8b86b9a6656656
col04:   5794aba6b88547c875796cb8b8b7f8c67a69b7c79b98977b5a9aa9978ab98bad9b6c799baa5abe74
col05:   4aaa368784638968acb5588498e97a9898677d8d9891ccba599a8b5895c8bab668b785bb8e98ac97
col06:   836459ca8b9b47a466a9c7998acbb6ac87786ca9e2b79ba77a67bc68aea9599ba986bb98b7ac4a34
col07:   7aa56a7cbc13d9b785e5c8fbd8889bacaaf9abbc89ba9a9af9c986aecb78ba8b9a97c9b978988884
col08:   aad65b9697aa88b9dec7996ac9b9786db2ec6a6769b9c9cba8bc89788759e87b84b82a89c8a86739
col09:   78889674466ac4e778a5b998b5bdac9b58fcdacdcba67cdcc8aada95bb698aa8bca9957663d69b75
col10:   765a975c5a7c794a85a58b6e9c58cc5bb8cad5289a9985dbbe6bb79aeb8dd79ca9b99955c68bb6b5
col11:   4bdc746367925ba6465cab36b9c787699bb898a6a99c89aa9898d95b6deb99cac98b78ac65d568b8
col12:   9878896b8497a9a78a7b8692499ba829c675e65cdd8cb5bdad8c78b97ace4c6983b679b7cc454565
col13:   689a85947a7b889926a3b1b7c976db86b857867ba98cc9a9a9ba5b77997c9b6d898bb9967777787b
col14:   7b58858948d9ad975c88db8ba67bca5d6dbe9a8b98ccac86abdb9aabd898b9a97ae9789bba766994
col15:   8978765769717d6b98978bc6745d5a7b68db65e8ca6ec8dc97dec79a29978caa9c6685a66b869773
col16:   b671689968f4a9a8988958cb6c8788989bb6ba79c8ab959bdca6bbcebca689a55ba69a9a47867865
col17:   5b983a478a968a9a5c94baa8789c88af899cdd8c4b88dba567ad9aa9ceb94ac49a7883678ab5b7ca
col18:   9678558a785867759964662c978485b5b58b77abbc8b8cba789a9b799e8ac68a8a791b2e67566266
col19:   499bd1d56a8ca3c66da6d978a39f8d9a9bcaa959cbc9ada7cad79ab7c59ff9db9aa988b98b67d895
col20:   6b97a9996455b5877d7a87d7baa8c97abb69a8cc9da78e88d65678897a9977c869856a994a6b5b7b
col21:   659a7978596977c678796787aa5896b8da9bacbbb9578b9d6eb9c8baab78877b7b97ab7996d77a36
col22:   a6587883a8b47957799acaaa8b98b8aaca46a9c8a79a8dc889a8589c9cccbad7aca8ddcda33ab4a9
col23:   278885c567b797b99ac7b8b9da96bac7a9a9c4577a8b3c978c89bab7855ea87b79ab4956aa557796
col24:   7a39465a57c97b6d968e7848b78ba8d9384cad7c56da59e7eb9ab78b9a668867798a3765b67c9885
col25:   686866b59bdcc7caab88b69a9d4591cd6d556eaaaa689abaaeaaa86dda5daabb8c69569a89c8b689
col26:   9876b98445dc99ccc977c999ad98ac5f9cdb9e781b58ca79dfab8fb9d9adb89ae6addb9cbaf9c7d9
col27:   5bd479868d77a9b9d8a7a895ecbb9f98ca8ca6cae98b8b8bf86abacb8e78cdc7ea8ca697a6b78564
col28:   9cca769983aa9a6ab769a68eaacb9bbc979c8adbb7a8cb9ab98a6b9ac7687db7c9abb89a687899cb
col29:   bb8a7ad8a555acb6b79fcb85d8788993b7d8b9aec98bd99efa9fcd8997ac7baac7a7bbdc4a9b77d7
col30:   49686b6abc28989ab8d999b9dbcf8ca699ea8faf98abc9dc7cbbed9baaaac64979b8987c8add98b6
col31:   8a8986a9bc884bad9abbb29cebbadbaadcbfde7cdab7ecbd9e8f87babfea869eccdaaa5cfe667583
col32:   8daacdabba899bac8aec5d99c79cbaac8d9bceca7cec88dadc9f7c8cffecc9adc99abb79adab8a97
col33:   6889f97e9aa8cca68e9badcabb9bb5acbdebdee97b9cabbb9e78cf9aa6ac9fbbbcc9c59dda97ac9b
col34:   96ab98e78baccbac7eca979eaafbddadcbfbfddbebfcfc9c9cdc5cbdef59ad9cbcc7aa967deba7a7
col35:   e966aa8768989ac8b8a4b7ba78fff9ecdcddbabafd9ecaaba67acc6a6feebbdde7badb9c9b787ac6
col36:   99da66bd7bbabfa99a8a779bdcaa6bbd68a9cccab4dbeaabfdb99dda9c7bbca7bb53fdaaa99ab996
col37:   6ccc7bedb79c959bb8ecc8caa8fdad79eccdfedebabdcecbb9fbbeeacc9f8bcab99caabcc8cab995
col38:   bbc7b6fdbbabcfdecb9c87b999ceca9fabcbbefbdea9a9ecf9dd9ed9ebcbcbfeadbb79bbac356ab5
col39:   dbcc9e7abcd9885ccbcc9b6cedcfe9cbe7aecdbafebdcab8b9b9adaa7bb99d9e7ae6e9997969abd9
col40:   c98a9c5768daaef68ed66b9cdb9cddfedbbdbdaafcffbe7bbe89eadc7bbcbec9f6a8dc6eddfba664
col41:   b7afacac989ab9aebac8cba9abbcceceafbecddaf9cefbdcdeaadfecadadbbcaad9b999acaba6bb8
col42:   b8d84b8bcbabdcb98a899bbcaead9b9b7cb99ccfc9ceecbb9bbbdbbbccafea6ad5cd9c4aead95be9
col43:   789dbcbb65ccbac7fdedfded8ac7acfac9fdeadffd8dbdddacccafcfbec99fcbd8bcb98bbbabaab8
col44:   b78c7b9da9bae98dfca8cdca8deaeca9fccf9daddacecc9dc89bdfefadef8dacdaebe87c988beb98
col45:   9ce8a97795bcc89d7dcdfb7b8edbbdcaeeacaee8eea9bf88ffceaebed6bd9dedfccdab7bec9aaa63
col46:   9cacbadfa9cc7ad7cab7b8eaa99b9b9adabfedab9be86999cacfda69ddcbefe6da99779e8ba9ebb8
col47:   88acdadab7a8f9cd4cdfcddeedb9cbc8f9dcd96c9fe95bcad98db9cb7f9cefd987bdab9b98abdbb8
col48:   8dc9c9879bacb8aa4c799fef8cdbdbbccbfb49aeefbaca999ffa9aefebe9cdbbf9ba28c8d9e6cab2
col49:   afa8cfb78cbeeb6bcbcde9d9ebc87f89cbddebabcb98bfadb7fedbb9cebedb7e9dffbdc7ab6caf5a
col50:   8cba9a8beccadccd9c9bce6abaef9deab6eabdcbebea8dcec8ba9cc9bbcadddcbab8ad9cab5ea9a1
col51:   88a7a5cb99b6c73baaabcab65dabbc6fab998a9a6c97c68da988ba97a989b6b757a99acab86e948f
ROC:	 BPix_BpI_SEC8_LYR4_LDR32F_MOD3_ROC12
col00:   234896147989c74574476535558563143a87769269cb719348777437388965b24979b685a6792568
col01:   66646a7766347a46b78a88872895c99c98969b56b7c897aab6c6b988b6a834a9994cabaa8777d989
col02:   355586368889956677b9975597a7b79a95998aab8579779588787b857adbc96459aa9a9a8a88aa49
col03:   28a9b76745a96477a365ea58885b65a79c9896598ca969ab79948839696a96cc777bba574878a93b
col04:   4978994373997397767795ae5e95744e9ab78669675769bc6b7758587a88e6dbc4677889794586a8
col05:   1663768522a743817587667d69585668899469969a9479696b796a8b997866565c969b86c85487a5
col06:   85745a27395794b256aa54789c78cb7877a889959598889ca88b8cbbb6b86bb6aa59b4d793b5a996
col07:   555955545568792799766756e6a659b96b64a8467787a97599794bb7598994c97ea5d75977757b85
col08:   4446635855553738985688a7c4f56a47b2ab999727b7a5997667a796399b8788575b6889a7978c89
col09:   8241167785777896d8776a7a885689bbb4b79899895686b39795875589698b3c59859998a69b99e4
col10:   843295572a899b765398999adb87ba799baaa5897ab72777669c6a9a986888787c99a99988887988
col11:   6645895755646637877888196898a986b67687aaa9785a8646b99766578ba8b786b9795ca6869789
col12:   875836255776a447a9866b61a5b467b59774b6a8caf96a877cac669ca9967a594a886cb78a557aa8
col13:   7869965798a879699a9586b57936a8c64ab9566b957348aa86688bca3a8458987584b5859993aac6
col14:   654a34676777479479678bac88a5b5986c4bb96c4b467c736ba977a9777a8bc5ab8c6a77948b95c8
col15:   55228a95379777a968648599b75ba84cc9a76566955b8958a669aa995d589a666ad6676765689a57
col16:   5795961686857369a57897885a8a87a99a55a8ab84a7a7a55889a9a996ba77b8385898b85b999976
col17:   55635364474877b8b5a8a8447665baa378b88a77999666578176b969999588689249d47889896b76
col18:   6257267494464658976489a374a27777a58798a4957ca687b9696678678c6947b83b65a949888a95
col19:   748957448986778796a999a8a89b9d999b9a829adc87666b8cc795acbaba886ccc677a93b5a6bab6
col20:   4857551567969a6a648758697bc59996537c95b67988aa9d7bb866a6989599972888944477b6a6aa
col21:   19447685a9b78687a99845b79bc7a87b6c679acb6188c1788569f9aa787a5a76869a5a7966c74b95
col22:   573725847934678369597a8e7b965887a89aaab979897797796a86bc29b94259897ba9c8b899bb57
col23:   343778357673893479628a948b4837c886a788c755794c767289a646ab856ac7885ab887addb7854
col24:   655656679913986a65585896745ab55779797b758aa7675bb978b58a875896456524a977ca6b5777
col25:   7451868a73989aaaab56789bb9b688a8aa7c9caa56899a76ac7a87ab77a8a5aaab76a7566aa68ab9
col26:   8217d99886866a9a55567cba9b986bb779e4a59ba79b5a698ccc7b88dfd88ab77a79ceb769abb8e4
col27:   4799778a849c7c5847a4c958a789a9a69697d7aa579bc89989593b7a99a9ac9599ac8b78b7a9bc77
col28:   888956597559b6998a779a363959aa88aa969b39b5bb88c677a7db7a7b9b8bb8a89ac9c869fc78aa
col29:   42a7a885887ab44688a85987c98858b9e99aa6abdb3eb7bac689c788dd98d696ea997b79d8a9c999
col30:   947776b96987c8af8967a6768acc48abc478ac7b847a6bb9ab779867ba878aac8b89aaa6839a98c5
col31:   6897a3879a56e79866bac9a85ab49da78b7d8bcb5ac7fc5caec88ac6958ca4dbaae9995ae6a9ed86
col32:   4957899b9b6aa8d9a8ca99a778b699b959a8bcd9dcaba3a6a8a8e8c78b998989bbac99b5fdaeed8e
col33:   76a6a8c849a878898ba69eb2a8b79ba89cd8c896b9aaea7ebab78f94ac9aac578cbb97ba9698b67a
col34:   95a97897799ab67998787a899bca9ae8bbdbc89bd978a9bda9ea88aaa89bcd7bc868a75cabcda8a2
col35:   1426a86cb696893746ad57ab7af8b686bddab97bb5fe399ab87ab7cacccaca8a8ab9d9b9d6a7999a
col36:   697b996899da588a9a8ca88999a9cab8e8adfb7eababdeb39ac9cc89ba7baeaabaab97ab7bc9abba
col37:   87394dbc8866a6aaa99789abba99eb8d989bfa7ba6cdeacb5fabab6e9fa5c9bae67acacdc8b85c99
col38:   69ad8378aeb8d9d6cbca9796a8ab9baad486faeca69acb7b799de8c9aab9b8e6b8abcc95aaaa8cdb
col39:   94666586e5c697d7298a85a98d8a95a888aa999bb9cc989bada94c8dc9e9abac8879cf9fb79ea8a8
col40:   7869498a97b997c8a9aab7cc89899da79bad9eb7b8cb5b9889c7bb6cdcbcfe6aea97bfd9add8abd7
col41:   3a5a57389bdad8daa8967c9b8cd9b9c9b999d7eda98897aac7b6aca9aacbcaac7a9adaca89aeb8aa
col42:   478b948bcd5287ab487a7a7b86bb96b8ababa89aaaabbacc99d6997a9aa7fb9bebb5d59bab68dbcd
col43:   99886c999cbab878786dcabcd6ac98aaced89abbc9de998dcabd6cbd9deb8baada7a99aadca9c9ad
col44:   52b8bc39ba6ab88c9cb9a2baca67abbb9bddbcaab7debac897abad8dce9986abfabadfcbecacc5cb
col45:   aba788795789ca899ba8a76996b9e8dbaa9c5f8998bcca76a9bacb99acdee7acb6b9bcdbaaca6bc7
col46:   76b4b7597b9ba99499da888b96c4ada8edd8abaaebcdab5a8bcefc7bc6baa9dfa8cdbc7ab9cadcd6
col47:   6a8ab884a96bc88a498789c89ca8a88bce9579bada57cbcbacecca99db979aa8996babbacba9bcac
col48:   978b88b6599aca98b938b886edacbdcadc8acacab7dbf6a98ba8ba98ccf9bba7bc9a9f6ba8868c99
col49:   87ba785d5859b6a9cbb6deb8fa999a9acd8aad8989c8c9cae9d7bd9c5baafdb699bf9f7cafd9aca6
col50:   76745ab67a798978a8888ab86dbaa7b8bbbea8989e9aadefdacdc988c8c8adebb989eccc7bcb79d9
col51:   87e25546b5866566ab5749828c89ad98d6b9a89666798779866749aab79aa8ca959b68999a887ebc
ROC:	 BPix_BpI_SEC8_LYR4_LDR32F_MOD3_ROC13
col00:   a9c781ba65c7a689686b758656aa89a8d88a58b668e777aca958925a6a7a958588129b7593975361
col01:   668f89bd97a7989ac8ab956699a9a97c97b8cabdd994bb75c99a75deeab7cc76d757b7755689a477
col02:   8bcbb69a6799948a9caca5848cee9899d79699677c2888aeb999abad6a7b78b49ba3d9677c68b826
col03:   9e97c87abb4a9acc5bb656ca5d9b7b8cea699bec9d5678d6d689d69aa7999d6752a7959ba1781aa7
col04:   6e7c86a999798889859a7c8c8bbae96a9596ac7ebdb877c99cfa78987b9bbca95726972977443635
col05:   aa6b47e944857266a6988aa6b996a9bb9cd7becb7bea7c9958aacf89d6b3878a947b475675585945
col06:   896819ca8b6e47989a9a89c8aa88ab9a97dfa789b959b77b8a7a6887b5b99e88aaa873738c568496
col07:   79cab9899abaa6bc977c97accc9b7cac8ccaeb8daa4dbcdc8d9e79b7968b8c89a588967479497aa8
col08:   b86585719baa886ba85b7a9bacc7b9cc7ae67cdcb978baa9ab984cb6d7774ba967a28b5885b86274
col09:   b76f8e96ac48ebb999a8ab8fd7aab8bbebaa8ada9a97c9899ba88b878ad7889778689954abbb6772
col10:   569f767566aca97ab378a996a7ad89cdd9bd9987cc6d6cdbba87bac1ac89b9b88897a755238a5827
col11:   884bab4c986c9888867a9afc9a98b99aaa7b7babd9aaabba88899a897c79766a38996a66a7499847
col12:   77b86d5b587b9a759e4b7a999bddbaca4aabbcbab8997acaa9a666bc66b676d76aa875cb56978158
col13:   aa7a99ccdd89aa88bb7aa79ea9a7cdaedacc97b8a7da8a8a9ebcab99c979592a5592677768aa3a98
col14:   87c426ea97b9bb8b9abdd78aa8a869897cbe586fb87bcb8ab9aaac8bca944b457b988a6954749535
col15:   9a8a997a69e6eab9b985aaaab9f98789dcbcb999aaa8a98ec78a9976889c893989a788647a851886
col16:   9779a9b54bba7b63659acaabc89baabccfdb99dcbd8abaccaa9b7aa968987ab876c99a58a7474777
col17:   6956a84a977889569eaa78799b9bb88a6abe37788bbb9b7caa96aa4e9aaaa869489f7c6976345932
col18:   8457997b6898cbaa976ba8775ad79a7ec99bcac9ebcdba9cc6aba9898a67a957c9989b8846486684
col19:   9babab68bc7699899a8a6a99f969688ccaa9b976abd86b99c8b87acba8a75bc7a6a588a69c639567
col20:   db989689dacb9b69785398b7db79ccf9bca96b789998b68ab5ad779bc4aca69c8889ba9c88997662
col21:   85a6899a7889896a795a977a57a89ba799c9b69f99aea9ab974b8d8699ab87ca39866a5977875764
col22:   76c767bba79c9ccc698aeab798ac99a89bdab9f9c77878d977b5a9a895a6a775786cc67abba69365
col23:   aca98aac998b8b92785959baaa998888bdad889a58b749a9bb6f9eb97a9797b56966a5794636b972
col24:   4954d659657778b879569ab86bbabba77798dc899698889978aa6ae7aa367a8a4bb5969677927984
col25:   98994aca8c989b9ba8cc87aca8ba9ca89aebcdc87fa87d8cb7dc8aba9a68b8cb8cc8989a98c6ca75
col26:   c8e8b7ababc9a9bf99dccaaba98baebebe89dbbade9cfbeaadb7ceb8b79ba7a979d988b76b88b879
col27:   6abc99be8bd9b9aba97eb9fcbb9eb8acacc8deaa876b9b6ca7aa7bdba99a8498bac6a9a6b7788777
col28:   7aa8c9789b79afd6a9aeec9a5bdf9ccbafbf6cbf7a9c9ba8c7fcccac6b984a99acadba38b8a97b96
col29:   6799c88b97af589a8cb4c9fc3aa8e9abbb9fc9ffc7a69aecccaf89daf89c8d9af88896d9876487a4
col30:   7bcb58ccaa77bcdb7b7ccb7eb99ab9d969dad99af874c85eabc98baabebcaadcba77758ba7aaa955
col31:   aac8e8ac7addcadeadebb7abd99dcabbcdc7fdebfaedc76facccbcb7baaadddcccca9d988bc8cbc6
col32:   764b9c5c8c97a8aa8cda4ed999cafb7deb9cad8edaadda8b59efdadec5bacdbcdd6b9a87aa76dac8
col33:   999989ab9a98995aabfb7eabaa4bcbd89bbbaccddbaadfbcb89aec9cb7c7caecbdd874b69a845277
col34:   abcda8ada8db9ba99ebcbfbcdbb7b98afdfdfaead9ac7afafebdaca9bbcfaaddda9ab97996577b8a
col35:   eccb7cc9b7b8cbcbbacfbabc7a9cb6bbab9fbdccfc78dafcddcb9dbbd7bfbdb8c9acbb97b9995762
col36:   a6a9b76badbcda9bf7da9f8acb9acdcfbbaade8dcab9cedbcbbcc9a9ae9caf8b89bca97b85f79985
col37:   9aebcc9bcbcadaca49698d8eabacaccedfca9aacf7aedccdccda8eacbcbec99a99e8bdda6c8ba673
col38:   b9dbbbbbcec898caf8cebdbacad9ceac9abccfc8ea9fc7fabc8bce7aee8cac88b99d9b986b95acb8
col39:   caa8d77ca77acbfbce5cacca6a6bbb9fbaadefd97e9fdbcecdd99cbbb67a872abb69c8b9ea795618
col40:   98d8cb6ea8add9995ae999aecadcbaebfd8eb9caedaabbaa8ea9f8adbbb87c89a96f9ad7ab8886c7
col41:   988ba8bcd87bccbcbaaebcfafcbaaddcda9ff9dcfeccaa7fc8cbdeabc8cddd8c76ba88a9a89a7bb4
col42:   c97aa6bcc9c3a5bab7dd99eb9a8bcacbbcbcb8dcbdccbbedabceecdbbba8cc6ada7cb95a8dda677a
col43:   c968cde9aa8dabaee8dfecdcddccdcdefdecdaabdaccb8bdbd8aab8a99acc9fa6c9a9dcacca9b8c7
col44:   8ac68aadebafbbc6adbfbc99b9b7beacacfeebabdbcafccfeaafaecf9ebab7a9ebdb9d9cdb7abcaa
col45:   baac599aceabbbcddcb8a8bdab8b9ecbbda9cbbcaddcdcfabbdb9bce86dcaae9b8688d6a9aaa8aa9
col46:   69dbd6d9ddc99bcba9c9dc9dce96ffbad8ceceb7aabaaccabfccecdaebbaafbddcbeaeaceb789b58
col47:   ca3ec96d98cbb98cdaac9b9b8cafcacecffcccdbea8db9dcffd9abacdcd9da996f8bbcc8ba64ca99
col48:   cae8b9e6accfbbeabcabdce7e79dbeb9efcfbbcf9c8ce9ccbddfc9bb7a9abadecb6dba6a5be98965
col49:   b858b67ab6c9ca9b7a9a9a9dbaddbabdacbeaca9decd9cbeecae8abcdeababfecd6c8bba8a7c8799
col50:   d9a79eae7d8bcfecca98bba9fcebebfc8acf8e9aaede9bbccdccc9a9dbaeaebbbbcbea6aa9886ba8
col51:   953877688dcc959ba487a9b7a89e9dc7caea88aae668c8ba68bb89aaedb7fb87877579a796785794
ROC:	 BPix_BpI_SEC8_LYR4_LDR32F_MOD3_ROC14
col00:   251141356541847867164aa8648a597479799459ac88ca9a8b93aa7a8ba799aaa5b8c8bc759a88e4
col01:   1376679625688bc7698979c87b579976d799e77969b58acbbc9bad878aac9cdde8ab89bbcdb7b9da
col02:   5683333447743548282c54d47578b9a7a7cccab77ab94aab89ba89d9cba9a88dbc9ba68cc8b99c7a
col03:   738377368677ab59a24783d9bb9b68a8698ab9a5addb86dcaaa99aaa9b88e9b9efc8cbbac67bc88c
col04:   555628677754468674976a9ab9ab88666a987a7a7c9999aa7dc8caa8a9adcead9cc9cabcc89a6bcc
col05:   63426645b948557a7597679ba789a944d5ad98a69b9867f9c9799adc6c6acaee9a8ada8bdb9d8bdb
col06:   3547744516656893b9985696a76e7a9587978bb88a87a9bcb8bc6cab97dda7bcaedadbf9dab99aab
col07:   11561678764b45155874b8a8ba77a7589b868959996cbaabdb9c6dcbebdbb9decabcf87a7acaa999
col08:   8731873693669727937a7586a887a8bba8895667638668bbbac86969ca8c8dba9978bb9b6baa9bda
col09:   25476688576354a74999997a9d7db989b5c69ad7adcf98cdabad89babab9caca8b9dd9fc77787efb
col10:   52514863b815a9594b96858579637977db6c989998a8c67c9b7d96e8a78c79ba6795aba68ba7ab99
col11:   225635461793b845a7668879976a8ab9bb6a977c69d958a9a979a8d97b9d9bc8957adcc6acba7ca9
col12:   547551425b566a6b968a9a47b4a84979aaaa8a8bc6e9a5c6cc89dd9a8ac5aacebbaba88cd9e99d88
col13:   5187675486645885486677964995b889a89999bbbabfa99eab9c5d7cbb8a86a69be9a9f578bba7dc
col14:   5312456239543765776a6986998959867a89aeca56c5b8bc6778e89d8b99d5d8886abacaab8cab96
col15:   447b8943376584a6265869b5654b7868b9a8a79a69aeb979dead9d9b79bdb9aa78bdb97dcb8a8aa9
col16:   3135527724d4956cbb867678676669988aa8dc9a6ba9aaca8cb99789ab78c7ac7973fbda7978acab
col17:   3132564474579665556667a8a8b677a68c879a6b97a87996ee388aa96679bab8b9d979bcb9abd788
col18:   334767868597c9947695a8ab99865a798a9db998caabebcb9aadad9aba67db8b99c598c5cdea9c59
col19:   364388868964586c6746c588998b75b7cb8b6eb97896ba4a9a46c9eb8abe6b877ca9caaa988c9b4b
col20:   451491668199934574765774576b588a68956576a9b8b8ba87bb79ba6a97e9ad878beb978e8a98c9
col21:   26a9445779668757686987888387a5ab89a897799aa8888abcddbac8a99a9aaaf7ca8cac9bdf8ded
col22:   5365286915555986c688656cb497967b886c8a957aaaa9889a5b989cc698aa7ace8cbba99ba7c5c5
col23:   234853425774775983479595369986d798a89589bba7aab85aba86ab9899b66aec79d79dfe974674
col24:   66396726474768687a547454ba79865b7a6ba88b76ab5aa9a8cbcbd96678aaa79a9a8ab9bea9abb8
col25:   1643638666538986758359b695798ba8abbb869a97bbcbbacbc9cb96b9b9978a9acacbfa3c799968
col26:   3685a83397769ac88a8868a9664657a4aa7fdb9aa7dbbc668a7b9cdaa89adbdbf9feb9c5b89ccaca
col27:   4677549536a8694a459bb8a986c9a7cb978798baab8bab99dc98eb9649cd8b7bab8fafd9a79ea7bd
col28:   72134666878ba78b938eb967ca599cd77acbcc9a9bdb98abbccb8ab9cbfecea6bbbfadadc7be6bb8
col29:   17546a458866978a79868594894ba9bbaa8ccf9bcc99caabbb8baaaabbcd8aeceaaa8fbafcbac9bb
col30:   63769575963761bab7729a8d97b8db6dca5aac7ac9c99ab97dbb8ecacccdcb99e8b99e99dbdb4dba
col31:   77928537cb9584f6995b76adc7aac87bc96bdb79a83b8c7ca8fbfcacbeb9cbcbdd9b99ddeac9acdb
col32:   454a9bbc766377c9a7a89bd9669d7bc96a69b8a87a7b9c9decfabbbaee79aa9cfccdb8bbbcc9adea
col33:   a361a9b785c8959788b99b978c8a6b8da9cdaa99cde6c9da96dbaa89daebc9bfb6dacb6dbff9ab7b
col34:   61355569687aba93a5a7c939988accb7cacca9a89cdb8cbceb8c9cadccdb8ebce7d96598faacaac9
col35:   83668ba647885898a65996b88abcdc9ddba898c9adb9b98abba8aacecab8dbeacae597cbeeda9cac
col36:   558653757746b7747aa88ab569abdc89cc9fca79d9bb7bea69b7ebddd9c8aad99cfaa76bf98c8e97
col37:   6868688569b868a4977b676bb6787cb8bbd96acababead79d99cecca8cce9efa9db87ec9c8bb8dcc
col38:   5947878699766975899ad9d88ba9a7876c7bcc688bbbd9888d9ccecea9adfec8badafb9fbcbcea97
col39:   976989656a8a999797997c69c6789db8a7c7abbcabaab98d89ddddeeaf7ec7cabbadb7a9dbbab99b
col40:   9484778899c6aa499e58caa98877d8aba89cfbbbbbba9969c979988cfdabebc9eacb8accc899bbfc
col41:   b88488792548458956a855ca96e9a9a8b7ddb8978acb9afaabdc78ebcdcbeeb998fabcc9acdcb9ac
col42:   6287875637767859a6a9acaa9a7ada98ada89df7db9b9dfac8abefcabbd9fac89dcfbbcbbb79b9cf
col43:   386546a9dc536a5c9a8a99accbada749b779ab9acdb9acabbaecbccabbabca9fccacaf9ece9acacf
col44:   6976369a58856758b8695a958977ada787cc8acda78ec9cb99fadfb9fbafdcdcdbdbcbabfcacbad9
col45:   5959c9738c767d999997a69ae967a9d77ddccc88a8bdb99dc8cce7bc9cfbbd68d5dbcb9a8c99abdb
col46:   4967c959a6ab57bb6599e9897889d9b9b85cec8a9dc7b9c9a85bbcc9adccddb8e9e7bab9abbcd9ac
col47:   b88599598579b5b89a47b35b59779a88c969b7dc9ac7ddbc8aade9bebc9abb8888fce9b6bbada7ca
col48:   3253467876a7a846d9cb687cbdc887c999c89b873bbb8c7c7e97aa7bd9cfb8a99be6e8badccd7db7
col49:   94466a4778b787849a5aa98a68aaa589b79898afabacb6b98c6bdb99a9bcdbc7aa9cbdbbeadcbd8b
col50:   87466b27a688d96559a8a767bb88f999a8ab78ba8dbc65b9ad8cbcfbcfbbdccaebbcdcbc9bfa78ca
col51:   13428614a638478947459699586887ea839536aca888888a9877a87aa48bd97789b79a9ba99a6a96
ROC:	 BPix_BpI_SEC8_LYR4_LDR32F_MOD3_ROC15
col00:   895755c455a75a7868b63a565987b895b7cc897a98a49ab666aa4999b9ca9998971b857688395672
col01:   e6957678668a9379984aaa8cb9b6f9a7fbb6c79b79bedf797a9aac68cd7bc6598733bb766868656f
col02:   568c39618c45783a44ab48778795b8b98666a7b9c99c87ba897cc97b7aa52abbb9559776a8748687
col03:   9d7465a5b4779567a55a8bbba9bb8ad9ed9aaa97c6a8b69aaccdcadbb6c89da7ba6696d8584aa898
col04:   87a8a45669b66aab7a989797abc78c9aadc79ba875cbbba79fa8a9a8ecc88888a67cbe66a9c788b6
col05:   6497976589754a6989ab9c88da4ec7c6aa7b8989adaaab8cc9daa7aaaa8b7b8884b7867db9c97777
col06:   75545985948796bb57aaa658679dc79d8cabb7da79eab89bcbb79b8caa879eaabdd8857569826453
col07:   c7537a367687b8ba88a886baa8c89c8a6abc9eba9ae8cbc99bc6cc9ec98bea8a4ddd78668b88b876
col08:   7587445446754988b687956897ca9cb989e8c99cababca889d996babcf59ac8c39bae59799558471
col09:   6b9b4a9a66a774975b94c987c9dc8abcbabb6cfb4eb78a98bacac8ecdbaacbcb98ca9acca8d88e84
col10:   7989858667c79b597b4b96b4fca9bca8b6b87d7da776b9aca8788dbd69bcab8bb34d46688166c796
col11:   75a98843674b59713a779a697a9d6a7ac9d7bc787ebd8cc56b6bacba6a8aae66876c59b5b999a375
col12:   96568753759899968859987a948ca8cad98b9ba898ca899aa97a6bb5a66e76769a7ab6875628a965
col13:   57475976866a8648ad8b7ac868b8bcb68bacd98ac9aa585a799b989aa9ac59c4b77a7a8da8a48879
col14:   58566787b54797b87696889abc8a7b9acab8888c9ba79d876b79d8889cbd5789976b8727b75aa775
col15:   6767695958e76997c8a98889dba98ab88ad69c98c78bbe89baaa99babb7bc86bcb69a96ad8859c59
col16:   57978958d86668a77578cb6ab679dcbc7d789b897b8eb98b8bfb9967c7b965a9b3bab99ca757ab97
col17:   673548677a9a889a66ac4529a99c669a87ab5cbcc86c9aa996a986ba5c3c4f776bbba98996855977
col18:   776a468676ca976b7986596abd899cab89cc88b7988aedccbd9887a8a6c9bb98ca387695a4458576
col19:   97787386a8997b8dc9a888aabc787899a7aa8769baeb97ba87f97987baa9b9c7bc59e785798da885
col20:   64489746978456a79877b7b8629aa89b693bc86897c6a44a69e9677bfb7af3849bb2878a3b778648
col21:   987789476c889a9a6377ca9b966989784a98b89b487598a7bbb7aaa9daadc8b9d98eaba89c598842
col22:   549877753587a766889a87aa9c754799ae7aa7a79a7a98b85696879dbb99b6789a9a747216575789
col23:   77937b4389a588949a5974a5d9a265bd6ab97b89899794d55ba8a7baa89768a499698ad998646473
col24:   97582b868a4a65c9474c9896d698679abba98a8978c786984b9a9a977b99499a99b79acd76869643
col25:   a5a7558ca4576ba77879c97b879b9877b7b986aac98d899b78bbc9ab97b9aaaade9497a48a797457
col26:   987c6a67ac88ab9756989a99e75bbbda6b89a9a858977996e9b77bc9aabdda9aa899c5c9d8b59a53
col27:   57579bc6bb9b848d4d46b6eaaaab8bbaeadddcabccaadceafacbd99ed9fcd8dcac973bab89ab7b95
col28:   9997599da49696f6689797cc96aac8cacdacab9ea9b69eeaeb9acbb7cc88d9bebbb8a96688a699a5
col29:   a33859567499587b57d99ac8da9c897899c89c968d9dda9c8d87cebb8dd9adabe7ca98d777c8a7a3
col30:   7869a8258966b9979b8bca668b79c5c8dbe7abb9aadfb9ea8e8acdd6edb8ac8a8b998b4877aa49a4
col31:   997b69478857a98eaa9a5a87d9ae9cbb9abdbecd9abcadfccdcdfa99dfddc69b8a7b9e9c99bb8777
col32:   849884369797899a48ab6cbdaaacefca79fbdbafce89debb99c9aacebddabddccbda6bb8bd6285a3
col33:   69b9ab867cb59bb58a6a9ba6dacf9999badacbcccab8ddbba9abffeacd9c7bd7949baccb7a8c5c5b
col34:   8a75a95c46ba96734ad9abaabdd97bccabcaab9bed6dca8acd79abc8daaa9be8fdba8ccab67a7b4a
col35:   779c8799567ab89dba96b7a9cacfadc6b89ac9ef9ab7cbcccbacb8ccabdcaac9b8d7abc6b8bacaa6
col36:   68aa99585a78ce5a9ad9ccc78889bb99a8ebb9c9d7ebca8babf8a89fa9ba96b7b9aeb6a9a8987898
col37:   b8b6899d99adc789896aa8e88e8aacadd667c9acdadcdbbbbd7c9abdafbcda777fe7cac69ba99cb6
col38:   784688aa8a65a88896bbca8699ba9bd8cab7cadddbc9be8eeaeddaad9badd7ea9b6bbad98da88887
col39:   65a6997ad887a8f8888b999aed6c98d9facaeffacfecabdb998fcbcaa8ecbddcf9abab688afab576
col40:   85455aa7759778998db568cd877f4eb9daeced8bdcdbc6a6cbcf9dc9cbeabaab88bca69ab88b9755
col41:   998835b9b887cb8dfcaacad6daaddfbddb8dd9acfd9dcdfda9c4dd8a7bcbc9cdcae9bda78c967689
col42:   b88cda96aa84d7aabbb98db6cda5cfb888988d6aaecd8badfbfdbaa9cbc99a7ebba8c6c98575ab67
col43:   7b6a899c78aa38d7bbccced7fadba6bfbdeceaa8bfced9de4be899ad9c9d8879ddcdea88894999da
col44:   67b7a5aa447eb9a9ae9b899a6598ebaadca9a7aeed88be8cbda97dabacbdc7b7ab8bc9b8a5db8b91
col45:   589966a8646898aad98cb98689b9bc8c7c8ddcbc8d7d8d9bda9bdc869ebae8898b9aac8a97a6b978
col46:   85875537aa9bc9c9aaa5eabb9abcac9bbfc99cdb8dc9acaca6bccadbedb989b88ea98a37c93b9c93
col47:   56c8c878a9769c67c7a9cba89979baaeccba9fecea869bbf8fecbbbabd8aa9859f79bbbb96cc4288
col48:   93a4694aae5a894ab986fcc89aa8dbb9b8aca8c6c77baa9ad68a9bcc8ce97b96a8865aa789a76864
col49:   9d6976c9398975dfa9ab8abb7c8caaadedef989daaaaadfdbccadaadbaaab7adbbccac7b9a488854
col50:   65899b999a9899a8b76aa78a7e5985d9688bbecae9adcbabcadafad597bac9a7b9a669a99749a789
col51:   6a514499a8626359745a877baa99478a8a8ab98ca68a968a6859c5d99cd89686c77555ab766a4164
