ROC:     BPix_BpI_SEC3_LYR4_LDR12F_MOD2_ROC0
col00:   575577779566349A738868793646189777767826579977267B5A4A86697939A667654344A46A8623
col01:   88486B68849988824579689778A59988799A8577DA96797868A767747958B928A7B86654757B5764
col02:   74C89B8695835833967495A787875AD99749677B7569A5A985A759765D5A69A69693A897B9868984
col03:   4797AB869669A94A758D958A8A979B468A7968A7AA35768AC6A898F86967AC886799558967968675
col04:   585BB679A684A94985B4967C8978869A4949B85668A579B698498696A888878546574A775953936A
col05:   A283768B44868653566798A9879B9D67D876A478967889986634A99964585969638986586A786988
col06:   B6857A22A66485A839A5878998C7BA26976A6ACA59A798A98A97959776977C6C7839A57894867595
col07:   87376B888A9998459B9A879988E568B5EA7B92776A74B98687B87C5BA79645759A39875876765876
col08:   4376974768689A6497B79998438877888A7B48A6675B798789897AAA75B744B599596965B96A9868
col09:   988365896BC5568966785658AB9A7CB8BAB4CA368BA986589998645B781A97858A79CB6387A69B84
col10:   59A9689898978C97D93AAC98898A7964887B8599A89868A8989BAAA996766678598B9867C474B683
col11:   37898B66DB687868A966B87A785699B74AB9B87A9A9379A9667A89A7AC77A77745687746CA375795
col12:   366588998A747B3B57668589A5ADA78B988A7AA7B793C9669887D4449775A65917AA65A6C768A696
col13:   6463B8AAA66B868989CAA696D8BA796BA8A57D8977877ACB8C6AB55B6587AB668A57438595CA6678
col14:   9B567789B987C5A85A895776A9A6649AA655C68C689789DC66499688CAA7A7AAB696869A45749456
col15:   54241B779A57AC9368B55686AB68E74A6769A8669796A597A7A7B47758A89A9C9A876A7983775795
col16:   15767C58887C59C59AA59978AB8664AE77D8C78C6959C8978A7795A8B3B35795C6A6736986A78A71
col17:   978479567C675747468A6B6A768A6A8A4848C958A8A778A67A57A794AB86A4A78649868788956455
col18:   88968478B6A48989A666898B97574B867867D266B87996778C568788777867B476A9678777344647
col19:   766789696A784A756979996988685995AC88665CAC895878BC978A7CA786477B76597A63A6865726
col20:   73694749A756996868A587C4668989A86D7B7D8897F6A4AD688968C9589CAB6A9C88B8A596947957
col21:   79853B1767A5A7A7B84B8976B78993C89789699A8AB86986467A666979C8B87538A497859365A619
col22:   985678AA8888798C979B799896AB6677BA97A67A64D76C996A78798AC59C689589767797B977B8A6
col23:   37A6B587366997799C7358A789475B44B59BB968B97A5788748757848B8B778A8BBA877477656864
col24:   DC987947C886A8A5A4C697B9889B6A5A6BA97BE877889459A6CB799A8997B945789585526A987765
col25:   7BB5957599CA89A9A8659A9AAA389868788B958B7797B89C9AE8AA88A869BC58B67A98595587A4A8
col26:   8A97859788787777AB88BDADABF9ABD7877AB8EA89CBB84AA9B89A68BBA496986A955B9B78D89C63
col27:   65A6896889897BB4889C5A96995CCABCB6ACCB6ABAA8C8FBC999BA9AB8A88BCAC9B8E95457857896
col28:   667AB9BA5959ACA6C8B9BB99B7ABAB68AACA9AAA9C9C87DBC8869ABAD8A989D7BB717B49ACCBB5C9
col29:   9988AB9AAB899994B6998A9786879B89BDB9CA8BBC7FB6BA889CB86AA779D87BAABBB76B765AA7A6
col30:   8A96BB98D9A97AC6666AC8AA8C985A9ABC899CA9B7DBBBCA8ABBADD79CACAC8B8AC788779A779A8E
col31:   A67BABB8DCBB989AD7BB7A8AAACB6C99CC9B96A8D9ABDBB6B9ACAB99B9A747CEBBB7B487A8A87895
col32:   A8C574BEBA86B9AABCABA9C9BDF9CDCEBABBEBD9DBDBD98C7CA8898BBACAAA9878A889C8B9C4BAAA
col33:   97ABA7678C5BC7C9B868B9A768B97DFCAA969E9DC7AC78ACADA7BABAC597AAF8BEB99DA6BC76989A
col34:   D89CDA884BA5BBCFA989BFB9E9BCCBBABDAAAB9AACDAF99CCDCCAA7AADD887ADE2B8A7B9A8BBAEAA
col35:   7C89AAB997ABBB9988DA6B8BE7A9DBBA69CB68A99A779BBC7CA9BAABB89BA9AB59C9C9BAB79A8A6A
col36:   8966BE787CDAA7D93ABC79969889C9A8C9E76CBE9CBDCDACCCAADCBBBDDBAB94D6CD7AD97C888BB8
col37:   C69BBAFA68BAAC98DBD8EEBCCDACBDDDC9CAAADCCADDAC9DCC78ACCDCCAB79B9A889C95C9A7A85CA
col38:   DD997BDDFA98ACAABFBABB9BBAD98BA9EABBBBBBDBA8CBDAEAD9DB7ACB8EC9E6D9D2AD8789A79CDA
col39:   A6B6ABAABB7BA7B98ABAEDBBD7EF9C8A986D9CCBC6BB8AAACBABA9B8A99B98A97D97B7A999AB8B97
col40:   CABD8A9B78C7989AABBCCFD798C7C8A9BADC9ABB9B9AB7FCC799FB9889DCE9CA698C8B879B7A96DB
col41:   AA65CFC8BCAACBAA8ACA8CCA9BEACD86DA9CD89ACDA9ACBB7AB8BBCDDADAB75DD6989AA59BBBCB9B
col42:   DDB9B6BC9BAFCA9DD7BC8ADBA9D98EB77CCC9BBAB97BAA9ECFAEBA87CDC898EBADC88AB96D9ABB9A
col43:   A9ABB9DBA8CDACEEE8BDB7DAECB9E9DDC8CCEDCFD9DEBEBCCDCD7AFBABAAA7BCBDDDBAAA9ABCEBC6
col44:   D7AEC7BC87BCABAFDB9CCFC6B6AABE799ECC8E9D7BAC8FAFBAFBBE9ADDFB9A7DCA9DC68898A6996A
col45:   BD96DBB99CBBEABC9AE9CCEDC9BD8C7ABB9CDBDAD8BE99BD5CDACAA8CDB897CAA8CEC6888889DA78
col46:   D896BDDA9B97CBCA996BCADCECDDDCE7CABA7AA996BC9C8BADCA97DBCACBB7C8BCAB9CC8AA7AB9CA
col47:   BA89BBDCAC98B8CAA9F99CCFD9CCECBBAABD8ABEDAABBCADAEEBCBA9C6AADCAB895BCC8BBAACCACB
col48:   D8AAB6A8C9CCCCB9CA9DAFABDBCAB8D8B89CCBFBEBBCCAFCD99CBAABBB88BCBBCADCDB99DECAC976
col49:   967BCD8CEA9DCACD89FABBB9E89DBA8BCDEC99BECBABDC8DC5BCAADEAD8A9DECFAA8BDCBADB9AACA
col50:   B9CABAAD7CBCAEB8AACBDBA7BA9DDBEDADDDEACBEEFCBACBCBC87AFAD9DCBC8CA8CDDA8AA8EAC98C
col51:   A9B8788A9995A8AD6ABABFBB89AAAAAA8B9A9C9A5D797C8B5B8DC9B79C6BA498A9989DC6D4985DC4
ROC:     BPix_BpI_SEC3_LYR4_LDR12F_MOD2_ROC1
col00:   748B587A5684F8422D468A679582694759B392A968CA5C8787A8399A178A465B782A244554786553
col01:   838887C663878F8C5586DA899B98A8B789B887A88AB75B89A355479998B89C6A4547846549936528
col02:   72A8B748B994694C78A99889886926769A6B4AAA99677B6849723FC96A8688856551777672492549
col03:   78C36D526676966978BA67965A98B6C8897CDFA767A79EBABC978B9A9C8977B5597795784819AA64
col04:   A3781699768189573A79575BB8B269B7F97C67DB8C5BC7A99CA98AAB5C6B73787995551454568697
col05:   29A8AA899546B66C5F47A18A78C9779AC84CD5686B89AACB775A24AA589664774577377855336436
col06:   579467566744A76685AA67AB698988D8B79DD8798A67788A679A94657C6A65296836765B98638546
col07:   C79C2181B8A746BB9BA98BCC7A89B3EB9D577B982C8999ABBA7B47849878849BA47447459A765829
col08:   5948A79465336388BB89D76C8866979C97792B68EB47A5DC9B66A789693888698488286653866C24
col09:   7157A485464A568A5A787C9BBD97E79BEA97C5D4698A97A92BDA8875461B7B65685A678445A26553
col10:   854754854B4667A75A8B9B82B76AC19DA76B794B799656A9BB7B83988A15578C9867B51372788734
col11:   4C5657A86A56387338A84A77A78A77AAB86B86EB97846A6C7CA7D44A836774A4678775A246255685
col12:   645685A88899C49766C69859CD86568887ACA797FA4F6A89928BC6BA7786B76676884717586A7663
col13:   77C7A1968778979ADA7CB48C758354DA9C6687C8B78B9999B99B25289965984B876A574574642A56
col14:   7857BD5B73769AA6CB5897A7B46AB8B47D8A89A9E77A9B7A7269AB775699A75575956C5869792613
col15:   98A8A986AB769596A639969A96854657D85A79DAC9CA4B773896788564A18664B86494361A778755
col16:   6969B6AB64BA493CA76A85BA7C5A5A9FADAA6BA866976C974DBE486C879538799A464B163B758595
col17:   4856666879999C788A2794A765ABB99B8BD858676CE9AD95A6247687578395875636448377975765
col18:   7651A458A7847899E8D67C866ACC53B85CCA9499AAEAC69646636B77B67655A7557427489349317B
col19:   596A677589AAA88B66F475A7B5545A994FDD67A7C68D8959A57B88A8674A45455AC6596882756246
col20:   629925B97A678A8A99C99A86A927EA29A97AA788E6AA98FCFB8873866995587B37778548548A7353
col21:   937B699496389A7678CF9B66889747C5A8A7CAEA376B46B9C4997B523A54284744674236537632B4
col22:   76A43AA8577BA768DA4A39A896B98BB64ABACBAAA57B79B9B71756A768665786442741599819A389
col23:   985A55B9975AD4E898867689A57497659C79BB785A8B44A4659865595762686A89334587479943A1
col24:   6668975A585789A7A95ABA5B5995EE5ABD799AA99568897C6B96768737A6C7586667436656862494
col25:   79877956A7B8C7B7BA4746D97AC9AAA98BAAEC797BD6DB99A41896849457C9563484748958329C67
col26:   DBB97ABBDA9879E9B6A8BD77CB7AA8869B6DD9BFB9B66BBA7A878668AA856595877547A846C69B55
col27:   7A93577C876B47AF97E998AC89896DC79CBA8BD8A99FCB9C9A498C8A8567329766967A7689187261
col28:   8BB99D7C39FBAA7B9EA3BABFDBD9DA9AC8899CB9DCBB9EA9A978876BAA985A8B65A9686A9B6857A6
col29:   9BA7BDCBF7AA4BB9ABABAB78979A9599EADAADA8A9999AE99BBC978687A697867B98A99888B88574
col30:   9D5A8E78EE5B98AA6ABDABBE6BAA5C98A9BCE68A48CC9BB9DBBBA8F8AA5455AD87A4A88686852869
col31:   9F9CCBCE9997CABCA78DC8688DCB9897C67CB98E89BCCC7DAEA57B8D7BAD7AB87ABC634BAD66A866
col32:   99A6999DA867CEDCCCCEDAB59CAAB9BABBAADB9E7B8ACE787AABBC56C868A89A7985A9A548294A98
col33:   76DCBCA788A59C9AACAD68E9BBCE6FBAE7CC74BBDB9ACECBA9BEB48BD8B85958476A736C86A67B49
col34:   5867A9AA9F977A9C9A669DD9BEE99DDDFBCCEDEEEBDCB99DEAAE7D6ADE79B798BAB9CA97CA799852
col35:   9B93CCA648DD85A9DBB95C87F9CFBDEABCAA8DDACCD9979C8E7A799AAC68A6AEB7669AA7797688D4
col36:   96BB88BBCA89B7CBD9B9D9C9A79DAB6889AABCA8E9BEBABAC8B9F856A98BCBC78A8A78875F5437A2
col37:   AFBA8BAAFB6BBD6E5DCDADBCAD9CDC8CC97DDAFE7C5F9ADBE887BDD995AC88878338798E586757C8
col38:   BBB6BEEA86CD8E8ACCEBA99C6EFABAABBADE9B9C7ABBDEDABFBEE9AC8ADBB9C7D9E9799C99B8E947
col39:   59587FAD7AB9E8AFCDBD8A9ECCC9BBBA89DBDBDDFE8FE7AF7DA85998B7EADF6485815B68A8398B63
col40:   8AA889CCACBADFBCAA6DCA968CBB7EDDBCBC97C8CDBDD8ABFED6EDDBBDB88989675AB8ACC889A777
col41:   95BA99AEC79DD8BADC9A9AEBFAA9BA7DADDBCDAEAC9A9AFBBBA7CBCFBD8B6BB65B8C95486835D7C7
col42:   9B8799F975CC9ADCA7E8B7DDFABFEFAD9DDDDCCBBFDA8AFAECA9D9A7B5796B886B69368E98C59A58
col43:   BABBABCBA5ABDAB9CCDEBD9BC9BDF8BCCECEBABFABDFFFEAD79F3E7DA8CA9AB89B7B98A69968C74B
col44:   ACACCAAB89EC8CFBBCCCECBEEEDCDDBD8BFDBAA9B9B8DDCBC66AA589CABB76E5CAA65C87C95A47D8
col45:   8C4A68DBD9B87DDDBECACD8CC9AB799ECE9CBCF4AFEBAAB998CCBA8B94A2A88A486B7DA786A8797A
col46:   F9DA989D79AAFC6B8DBAB7AA9BABCCF9DCCCCACBC9CC9AAFC9CACD686DBA9B3C4C795667F8998787
col47:   6ABCBDDAEB9AA8FBDCACBCDBCEA7DC9CEAABCCFDDEEBAA847A98CABCCADCA8FB8A48978767B553B6
col48:   85CCAABACCDABADFCEAFDADB88EABB6CFC7DFCC6ACBEFC89A5AAA8D8C9FC78AC7787AD53876968D7
col49:   7EDCBAFCE8978CFBABA9CEADDECAFC9FBCDC8EFDDEAAAACABBBA8B7CBCAD95C5B6AB769886886688
col50:   A7C6CEDAD9D99C9A8E8BECF8FE85B99E8E98FBAD9CBD9FDEB9CECCDB7C9EE6A5AAAA73859C969D62
col51:   B47AAA518977789888B988DAA9CBD76BC796BDCF7968696ABBFCA39B9B7544959729685476431519
ROC:     BPix_BpI_SEC3_LYR4_LDR12F_MOD2_ROC2
col00:   643912617444185111494B467568218783579C48763859168989195A79334576455B536736381631
col01:   5375789C728A567AB6685A545699E974AB4777BAB2B5A66797AA966BEAB8B5964956E675B9969934
col02:   7485A67A5661497365A575666A5DA6978A76658A9A9C82657375AC8BE7A79AC9BB7666958C851772
col03:   48675354A497A56A8887B889B61B96BF9975B99A458979CA6666686797396B82AA49259866843323
col04:   55968573777B47A65977B6D8694778BCA87B4869775B788BB977D9D9C88569928A7AC78787758355
col05:   A267C671648368528885896769686B99666958B8A98A58B5777785898899B5AB695674798B6A3448
col06:   4574795754786741C4389A89367A895ADB6C89C7C7B96AA737CA8B86779696A9676A469B57537843
col07:   4767678645357599966B95377A7969659A9B989BAAF9966B9B4B5C79C679BAB789A4195649757344
col08:   935566788457994A868B6598778A468977948D9C9999BAAACE998A8E86FAA9A976996759777A9B21
col09:   3767463A644C765466229435799A7D3673EB95974AA85C8AAE7CB9778948997B5668C67CA5796C3A
col10:   4449552B88A447B77975B96A894789A9BBB7C597CA8752979CB6AB89AA75A5748954868B878B4597
col11:   C759138655769875679767896B7A878B7B7C79756A9B9CD6358A68B5B48398C96B576C6785668774
col12:   1242556145286B776748B98AA99B7764BB38D45767759CBCB4DD89AC5AA59A89839CA6684763345B
col13:   9896A8858565771796C9673C8A48BCA6677B7A9998876E96D95A9ABAF9948AAA9B788686D9665294
col14:   958446896A7874949B659A87A38923AA897DC5796976668767A9BD89A9BA898A2D98956A77AA9864
col15:   396248931B6A94777D8885575A765D8C794787B98889DB7A9C86E5B885747BB69B48835644446B96
col16:   76A8687836453B85996C987783B778B2D78AAA787A7966B66AC87A8969473FB98B434456B5A66B25
col17:   67A34362175887596B7698AAB8A85AA968697A998ACA8B68B76C5A8B7958B849846A958569933453
col18:   4A156546983A36869C519497967A96CB898987458C88A7ABAA758AF98D75B69775B57853B85C5993
col19:   2645477883B5968774A88B87994388AC9DA85C8AC927AC5AA3A98A9B6977CA966AB7998A93886986
col20:   1241482442776986D95B4A935466BEBA999988B6D856BABAA797A9C99ABC7876C66E7974471A327E
col21:   74498C57377BA5A5C759868A7A7C799588976CAE8B8ACBFA9B649C8BA876379485AA6972164AD894
col22:   3631944777675A7478A9DA6A95699788B99CAA98977966AEC978798785D96A597886987647974995
col23:   64595225F5357776652C484A6A48BC6B9A79BCCCBA3D9AAD45A68976BC6557348398993929643795
col24:   48756626788B7A2677888AB6676577987A786C9A8C898F9AA6898A38566799A496765B85577B1496
col25:   8927884A6875779BC99D98BA7A8A6899A69C8A869C57B9AA8B65898AACEA7D66996B835587745611
col26:   244653B6A379B676687D9DABBCEDADDAAF67BB6CCDDB8F9BAF99A89A7977FBACAB5A476DC6AA9678
col27:   5558797CA9957DA7769767C937ACFD8B797BA77FB9BB5BCD8CA87AED7A97CA6A79AC5898AB696778
col28:   491457859575AD97BC989AC7DB78AA98FFBAA8AAA7C7B8CBB67A97B9A89BA7AA9478BA986A7A7697
col29:   B36996A687BB6B8A859D9ABBBAE9ACC998DBBDA8BA9BACC8C759B78BBA6B69A85CB9A8AAA9D667BA
col30:   9689877778C797A68A8CB89AA968B668BADA9698CCFD86CCFA8CB9F8B8BA8A798B8CC6968C867A4A
col31:   3884AA768A8BC7DA968ABA598BB5B7AABFEEBACCAF98DBDBADC8BCAAB97CA6C7B86BC9AC8CC79898
col32:   A88898D85BF1C9AACD9B7AEDB6799BCAC8EEBDAD9D8CEDCBDD7A968E859AAAB9BC798B9889B519D9
col33:   AD54A979BAA7CAAA7469BDB88A99D99BABB9C5DBBE98CB56CC997A6CED9C7A5AA999BD75BC7CA575
col34:   847657997CABBD984CCCA8B8CBF7AAB6D5CCCF8BA788C8CDDDD9BABBEDBCCB899ABA8899854B77BC
col35:   9B99AD56F8AD9AC9A8698DBEABA8888DBBCFBCDAADEBCBFDABB9B6B9B88A88DABCA7C7B9BA7CC99D
col36:   68695994CB7B9978B9EA8AABBDECB9AF8AC7AEDCBFABDCBD8FCC9B9BB99969D5B8A76C87B9A78735
col37:   F678CCABAC698AB7AA7BBC9AC99BCBFEDB7FBADCCBEC8DD9BCDCB788C9CACFA8A9C78C6ADA65C999
col38:   9B988B96B8A4BBC99CBABBADCFD8BBBDABFE9EAE98EBDE8B8D79B9BBC9ECCABAA9D9ABE8EB68C6A6
col39:   66748CC2C8C895ACBA8BCCAF9BB7999CEB9EEF9BCFD9EB8EB99CB9AC99FC8CCD87799886A9EABC96
col40:   BE7AAA9A9A998C8BDCCBADCCBBCDA7B6CFCBFC9DAB9CCC99CDDBBBB9D9BC89A7CCC87DA8A5AA9AA9
col41:   59977DBBB77C6EA98B9BD7BA7C7BAADEDEFBBB9FDBF7CFFABACFACF7B8ADBEEB89DAAAC8AB695BB9
col42:   5A6771B77959AAA8A8CBAABDDDCCBFAEBEC7ECFEFDDBBB8ACABBABAADEC6C9B88894BA849899AAE8
col43:   8CFCB699A8D699EDABBBACDD9F79DC8ACBFEDECAFBCCCDEC9ABEBCEBAFEBEFDBD7BBC588C869878A
col44:   896ABD69BB889B787ABBFF9CA9BBB6DBC9AEDCBECFCFDFC5DBEAAEFFFC9F99AEC9B9CCBC988A93B6
col45:   D8838BAA8A9A9C9DBBDB78BFCB9DAE89ABECECBFAECB6DBC7ACA7989ABBB9AC97C647C7CCB858893
col46:   6ABB468BAA8696FA6CA79ADE9AAEDCC9B99C9ABBDFACC9CCFFC9CFDB68EFD6BA88AA8C68AAC85933
col47:   CB86BFF768EB898FCA9ABA8EEC88CFA8ACDCCEABDEDCAEDAD7CB79978FC9A9CDE8BBD4BC9B6AD88A
col48:   ECBA6D9C8FAA5BD98CABCC8CFFEFBCBB6DFCEF9CCDBEACA7A9BAD6FBACBE9DEEEA89A9BA9C3B7B94
col49:   8ABDB9A8BAA9A7CCEEAEDCAD9D8ABB9ACDEEEF98ADFBDA9E988799FA8ACFCB7AA8CE6BFB66A6B5AA
col50:   C5AD7AD99D9BDBB8BC8C8D7D9ADABBCDFAEDBCCFB98BBDC8BA9CB9E9DFCDBC9C9F8BAA8ECB6D965A
col51:   7998B87995987AB66BA9A87BB7D8CABBBCC9B5CDDBCE4D98B4C94CC6E7DA783A8476B78755555BD7
ROC:     BPix_BpI_SEC3_LYR4_LDR12F_MOD2_ROC3
col00:   7451342862348545886595D7653A8989587BE8748837947C67FA336C67778B63A5A5868356789756
col01:   B6C3388685466878675A8A686987B8C5B159BB79A598894E6B8AC8A6E567798BA876AC58C85A95B4
col02:   84587655654387878C8997A796587D5BC6A9D99A8C97C8D9AEB7986784BA8B858794B7898BB97898
col03:   8A6358736689A389A89899278939984BBB88B7669988ACAA98CA7859CB9D8566476879578CC77748
col04:   574469BBA7536368B75768884579579EB7A87BA875E96A4D7579C697A89669A6894864912698A939
col05:   75C846879597895A865AC8D5B687B8A689A973AA969879B899A966B95A739669455997AA9888C9A5
col06:   738168B6765876857597BA67798959A89699CE9AA8985A879A8688A49A749898759986893A68A9A9
col07:   84748A4A696442C96A88A9CA9C9B68CA89A87958C99AD99B94C975788CC9C8774A43869B8B959A76
col08:   5567687987257555AB68838B588776988C6BA89A8BB7A7ADB67978BC9889A647C9C5799B588C8A68
col09:   C5959348464695DB8598698BC883B78BCBB7945DD897769A668A978B98A7979859563DA5728A62B4
col10:   817857B6658786568C9C9A7543898497993EA866AAB986787B97888D6AC4B7779BA65A5997758AA6
col11:   966B6764698984978756A79987A67989769ACA997678D9E9CC49479B958A966658668B68C9B769CC
col12:   479667779AB688536BCB58978A995779855B59B58AC93C999BA8B675AA7BA8A48B66A9B77677A585
col13:   89729593379AB6EC49B898CA98BB6AAADA95F8A87BB99A9CB959497C7989768BA57A846B9856A7A4
col14:   9664B6A993656C9A59879756A8A69AA9DA98B7B6CBA9DC8BB69BCB987979898A3979968988997889
col15:   656AC84974878A8A797D98C79794BA69867CAB8597497CA869AB7BC97894877E99B94A766BAA69A6
col16:   77627977A866B8777D577ABA7A9EA679A7B9BABA97899B6868B9B97D8C9AB4CF78A88C418CC97A59
col17:   898B496D66AA6695A788CC67AA78AB986B8B9A6ECAA8DCA89A886788C5CAA79987A6A8D998977B58
col18:   738843B7866B749879A767698E74B587DDB6FABEA777A1F59889E9CD6D79CC9B9A367ABAA78C79A6
col19:   775567675CA78795894678A87A7687E95B5A8EB8D977689B6CC986B9CB98977B9878A9948B67C9B8
col20:   5567686A355956D83BA9BAC99998889DD889CAA897CB9A9A5B8C68CC8264679B855C7BDDC6989AA7
col21:   A183366686A5BBA8688798B778C99B9AA55ADBBB68779BAA688A86B996AA7777F75C5689A8B59AD8
col22:   828576D7489941778838A8F665C5B989567A5737B69F59BD64D8AC68AB97D8988BA5C924CC699855
col23:   5165765975C9986A69689A96C999DCCB5A6735A99B85787B6BAA759696655988A995B8276654A65A
col24:   7A988E36479659AC96599BC6BD5AAC89A9A9B7CAD8B45377A94A799797DAB6777AA8A55887657665
col25:   78C97486B4ABD78E68AA96D99487AAA89A9B89B79AACA8D98A78BDD88997B898799C9B87998979B9
col26:   9877C56C89D7A5BA7CA9E8C8A95A9B89C859AD98BDDF9BBA98696D8E9CCA9AC8ABD99CC7ACEAC798
col27:   AB9C377BBB7DC879999A6A76ABEDA9C79F6B8A9399C97ABB8B999D58AAA88BE9ACAACAA4998AD87A
col28:   98A7767C59781AB97BBCA98ADBBA99B868EBCAAB996ACAFD8BBDAAAC8BA58CB9C9DB9FCEA99C7C96
col29:   688BB67A6B8B855676FCDDB68AAC75AA7CDAAB7DBAD8BCDBAACB89ABCA8998A6F6C89EBC86A7B789
col30:   37AB77A897758989B99EA77A7D9CD79AABDCCB87BCB8BD8A49BCBC68FCCBB6CB87CC8BF6CC9BA9B9
col31:   C75A5967767ABB9BC7C99CBD7CABDA9BADCC989C9BCB939AD9CD8FCAACFB9BAACE8EBB66AA686ADD
col32:   79A6A5A897EB8856A8D6A87E6B8A88EEBAEABEBB5ACAAD9BDABBC99DDAAD9DCABDAFBA97DBBACBDB
col33:   AA8A79B98ABB6CBF87FA7F986CCA9DBCBBDCE77CCBAEBC9BAE6EADBA89999987ACDA7CAAA8BCA98A
col34:   B698A7AB67A9CBA7BA98AAAAAA8D7AEFEDCDC7E99BEABBCFC9FEEACFB7DBAC7BBDCCA9CBECCCCAC9
col35:   6657B687BB79A9CACABAFEABCDBACAC8F8BB88DADDA9CBD9B9BEFCDA8CA8ED9CCABEA9AABE99BAA9
col36:   7BC8AA675C96876B7BCAFABC8AA99BB8B9CCCBABDA9ACEA8BDBBACBACDCC8886BADDDFA9DF6CBADB
col37:   D8D68D7A7A87B8A66FBBACB5DDECCC8F8CDD69CA5CCACBCEADBDCECCBB77FBABBBCEABCCABBF9AC7
col38:   97649C99796CCB7B99CD6BFDCB9FCCCADCCAFB89ABDFADB99DDBDC8DA5EBACABDCC4B9DCFCCC9DFB
col39:   9889BB99A7AC9A67B99C8AB79C7DDA8DADDAAACDA99CB998CFDBFAEED9E7BB9FBB9B9D6CAE6BBAC5
col40:   7A8A996C9AA88AEAB97BB8DCEABC8DD7EEBADDEDBACD8ACDCC9ACDDCBCCBDACFCA7C9EDD9CFCD9CC
col41:   C787BDC7BBACDEE987CE8BCBCD8BCCC9CABCCAADCAEE96ECCCDAABEFAEF8DD69BB7BD8F9ACBEB9CA
col42:   9885A8B7DABB9BCB9BC8CACBFADDC8DA7A8CDC8ADEDFAA9BBCEBE7DA9BBEACD5F99A79B8CAC9CEBA
col43:   AAD9BAC999E7AEDCF7EACC9AF9DB79BB89CDA9FFCBDDAE9CEDB7ABAFB6BED8BBFDE9CDBCBDF8CFDC
col44:   A69AB7696C989998CAA7CCAACE9BAEECFACEDAABE7EEECEBAEDBA8ECB8EDBBADC89A8DABD7BCBCEC
col45:   9CA87F8BA988799CDBC7CCBBDBC7DA87CAB99CBCEAC9C7ABD5AB9AEADEEFACBDA9C78BFBB8A8DB9A
col46:   CBABD76BCAE8C6B9AD8DBCCD7ECDEEBEB7DE9DDCFFDBDCDFCE9E87CEB6F8CB9BDDDD9C8ADB78BBAD
col47:   88ADCBACBACCACB98CF8ECBAB9DBCC9EBEBAAEBFE8CCCBCEAFCACDB898BCACBBE8CCDA969EEAFC9A
col48:   A86BBC79FBC7AA9C97CABBBEBEDABDEDA9EAED99CFDCABEBC8EDDBCFBF9BBF9F9CAFCCCCB7EFDDDC
col49:   8A9B7BB89BEAB9BCC8ABB9AAAECCCDABEBDA9AC9CBCCE96ECEEDCDEECCB8CDB8DA9AEDDABEC8CBA5
col50:   AA87CCB6BAA989A8F9A7D9BCC9DDCCCDFECDFE7D9BCEAFFB9BABDFDCBACCBBEDAC98CADAABB9DE5A
col51:   9676A6A4986A7898B9B795AB889BCDBBAF8CA98BEAAB969BDC9A9C85D5A9BA68CA8CF9C7A9CB97C8
ROC:     BPix_BpI_SEC3_LYR4_LDR12F_MOD2_ROC4
col00:   681545115596397324731447746478578569AAB956978B4445C76867697693956682488875B86772
col01:   A77562179815468B9A73496AC6A9898A76767A8CA66BA6BEB6A886B99C56B979A967F8868696A665
col02:   974473634A975449A87765A7688A7A8D9886B98B991A568A866B7B9AC879897A8A99AA4A97887A97
col03:   A659B68165687A6A975A677988787987DBB99AAA72B47F9A979AC9A5796948D7DA585792C5B68997
col04:   755277866965445C67566697657688A8794A96C955485A888877B86A7577997A8987888B8B77B648
col05:   617515666994568BA85466A847981986A86C968C764679D9A8858999AACDDC7BD697925946799468
col06:   3AA64137B6145772446A977598678C9869A677A94A4AB9C835689946B94778DB6C9A65B44B969A87
col07:   6953445459874832789BB789866CB6F797BC6B7498B8998ABB889AB69A759DBA7D74A972996A7853
col08:   577786678A5C445568B7562B9677B75CA46887885AE5C989B7BE2A9C97B65B7768CCD8D785A77B87
col09:   A86168583599CB79445759879B9858CADBDAAB9B999A599A5C6C55BA6C7669B8C9B669588557B7B8
col10:   AB625A9B8926534886A9989B687AABACF97A6D8B967C9CC9AA9BC73BAABA79A98ACA7965569C5A97
col11:   35855557255A3689769487BAABB4B9A9965B9AB9DA7599B677D95BA587AA8C598C78BA6999A74487
col12:   1134A7695876768424658377672B979AB99A789896C6D7DAABD488CFBD6C96A8DA55A5499443797D
col13:   5847665AA8574676C9479A6978A9C958A76EEDB87B7DCA6ACAAAB387AA9BAADC4A98B6A8C859979A
col14:   4581269A626926758D69A46A36BD6A66B98C95C5989BA8C4BC78976C795585668A87CA7896865B64
col15:   6697A9A774847BA86945898758788A689687E7624A8A9B88A97AA85AB999D84A66AB98789667D883
col16:   281738877A16565945B28B6888879DDAA998AAA5B6A97899CFCB39CDC736AA67B64AA87A657795C6
col17:   3786B752887798588A98869459369958664BAB9CE9B75889AA569399C76C7897BC654689464A5BF2
col18:   7B6895A9A9659A6A4888A737B8BAAC994787A56AAA89B9A95BD8BE96799A8C877B7A8C78CA964955
col19:   775963478A78A58AA7B5569A9B5B76B97BC6A99DBAD98A65A688AAFCB7AAACA59AA6A3866F797A8A
col20:   77564693288D25C654D7699787799AA8AABDAADC5DABB8A889CC79D6BCA8AB9A9769B5896A79A847
col21:   55696668A4876A346995856897CD86B89BBAB8984C5A9889B9BCB5E97897BBB89B6A89A56775A577
col22:   4876A75C8758A596B979679B9B6B86A8C9BDD6BAACAA98989AAA9F8A77A8AF878B4C5A9A454928A3
col23:   37A6978165985969445B8A5595C8CBABA9A887AAA8BBD6B7B7AB9FCCC75C897A5EAA977A57886944
col24:   5A26769145579B7424A878A778CA89C9CC569796CC7D9B7A9A96579AD5775DAA8A9C9C888AC77676
col25:   9A38B696879757A87A94BAA77D5CA37BEC9CA99B779BB9C988ABC97BAC6A9BA496C9A8BA99D7ACA8
col26:   CD6C9B85BBAA867A787B8CBA85CCA69CC7C8AEBDCEC9BCE9CDB98C8D8AD9BAC886A98FA8B5ECA9D9
col27:   88987B848C7C8C8799ADC999B67ABB4F56BBABEAAB978B95E886C89ECBB5CF4AA8993CDD7B8AB538
col28:   7D87A978CA936677BBA86899B87CDAACADEEEED849CBA87AA869DA99C769DA78996AA999B978CACA
col29:   9A8C75A18CB54779A8566A9A6A8B98DCBCC89DAC8ADBE898DABDB8A8DABACCBBAB9CB899ABA788B6
col30:   987BA5B996589C688A8598C5ABCABBC6B9AB96DEDB9FC9E86DACFB8D8FB6D8A8EDADC8C789A855D8
col31:   8C9799958C8C96B9BBCBB8BA6D9E989CBBCCBDACBC9AEBEFEA9C9CCB9A955EC8ACAACD968C8B9A8B
col32:   485B66EBAB799BB64AB6BAA9769A8BB99C9ADBA7EBF89CBBBABE8CCC76AADCD9B8A9CBB9A9BEABE9
col33:   9A98AE8A97BA768A99849B758DBC9CF9BF4E8DD8D8DCCDCA7889AAEEDA8BBCDF87EB79E9969947C3
col34:   7499B688D8A57AC88B7BC4E9EA6CB6999A77DDAA5DCEBE89BCDF778FAFDCB9DB7A9A9CBA799778AA
col35:   7A776BC9A73DDAB7CE999BFACBECBC7BA9B9FCEADDAA8CBFABCDCBFAFCCBCAA9BCAC99DB9BEACB9A
col36:   C77B78666A57A7898A97A9CB69CAAAACBAD8DAAE7CE9BC7BCBE6AB69B9C89A8D7B8797E7BB5A97AB
col37:   A54ACC9BEB9E89ABAA9ABAECBEBF999DFDFE7F8ADABF99DBDDDBFDCCBFC8BDAB79B988C998AA87A7
col38:   7A8896A97B69DE75CD8B4A7CBB8F9A9A7C9AEDBC8BFCABCABBE9BBBFFADAFFADFCD58DB89BC8BBC6
col39:   7B9A76A7A699889AE6A8A77FB7AB9D87E9C9BC8FC9EA899ACA9ECA9BACBA8CBDADBCBCA8979CC897
col40:   9AB9969D47C9EA7BACF8BBA67AA9CD7CADCDFDBBCEA9DEBBBDAD6D8FCFFAA7C898EABD8BC8BD9988
col41:   C8B96D7A9898BC8CC769BBEADBBBEDECBAFEABC9BACEDF8BCCFC89EB9BACDBDBE9A7DACD87CB9B8B
col42:   95776AB9D76BCBCBBDEAD7BADCFAB9FFFACADBCBECCDA8CD8CDED7DB9CA88DAB8EBCBEBC7CD7AADD
col43:   AA9BDBDBEFBBCC87DBB9E9D9B978DABDDDAADBEDEBDDAA8DECC87FACBCDDFBD7CD99C6D9B8DBBACC
col44:   8C99C9996AB8B69B9C9BABBFBCBCABBFDDBE79FEDEEC9CFFF8FEABDEAEADEEC9B9FABCF99CA889AB
col45:   AA788ABA88BC918A8A9DBAAB99BAC8BA9989F6DCAFCCF7CCCFCD78FD8CB8FBBFBFCEFBC9CA8ABE9A
col46:   8CABA95BBB5AD99AADA9399E9FBE68BB99CCD9BD9EB9CDAAF9CA9CCACDFABBCDBA9BBCC8D89A6AA4
col47:   7B8BC7E5EAA8FC8ABD9ABBDCBDD9BCD9AD4A9DB9CFBDACDDCBBC8CBFDBDC8BBFE8DBC88ECDBCDBBB
col48:   ABABCDD7BA8BAC7C6FA9EDAFC8ECAB8CA7BDECAFEBB9DB98DF7BBAEAFC9D6D59BEFDCDBCA98CBC9B
col49:   9BA494CBEA989AAC5D86DA69CB7BDABFFCFECBCFDABDDC89D9BF9DBCABD9CBEE6BC8BD58EAA49FB9
col50:   BE8C97C7AB97B6BCEEDDDABCDB99BFB9CAEEECDCDABAE8BDD8D9D798CEDDCD8BCCABB7DBBC99ABFC
col51:   B89A7D77AB7BA35BAB5AC97BAA9B8ACA98DAC6889C99BB88CCBAFCBDBEECACC9BABABCBA6789DC88
ROC:     BPix_BpI_SEC3_LYR4_LDR12F_MOD2_ROC5
col00:   4756A7C5C85B25987799AB797A787B97A9A978A6ABCB99D2C4A757B45475646427A45443364639A6
col01:   B7A997AB895BDA9D795BBEAA9866A9E9BA6795BABB7C767BACA7AC9C7BB7867487CA49D264A98756
col02:   78498CB969B877A797F9C78999C886879AD7EC88B9BB9B7A7A5859AA76A89AB7779657ACA8A95A66
col03:   767C965D6499679786BDE696AC88ACBCB576A6C67C69BAF6988EC7A8C859E8966C96A45BBA869868
col04:   89918B7789BB99EE997BBA69B8CFEE7C9AB87BD9ACACBAD99868DC78A796AC5D58B4B89A58A675C8
col05:   4A689865B5ABCC75A98CAAB6C7AB98DAAC98B9DA98BE8BA7B89C97B787876B87956446868A829438
col06:   6A487AAA8D4B77BD7B49886888B9B8AA898C67AABA9E9B98599A8A8676A8B5A86A976876B8395885
col07:   697C7CA99478CB8A9AACBCBBFC9BE97ACB8BB9B9CDB6C999ABAD9ACC964CBAA98AAA9BA87A98B892
col08:   7AACA89857989B79B9B8896AAB9BB78B8A899AC8BBB7A89C9BD8698D6A762C6A68AD987CB9CA7BD5
col09:   A9D9C6BE7A9DAEAC88B9ABBEA9CA9C8FADCAAA9BAB8989ACBC7978BB858796B8B7989B9A26BA8AA6
col10:   C8A7798A78A7C8CA9B7B9ACB789D9BC7BBB7AC5898B9956A14E6A7D76988CAB996988974C8669864
col11:   7B58A99B8ABCC8B9B6BB898969B9EC7698F89A79A9BCA67C89BB99B5B9BABD5B4AB6956B8B67BB45
col12:   A996BD56799C987999BA2BC994966786AB83A6A89995AA96B9A97B86AB8B9BC6C69BB98657B666BB
col13:   91789999BC7AAAABA9DBAF9AAC9B8B9CDAB9B786AF6CCAA789BC76AAAC6AADADABAA987996A87A76
col14:   996764B58BB997699AB996B5C9CA8C68D8AEAC6B83D69AA782AB89B996A855C7A3D77A6688877959
col15:   99B99CBCCA8A7A785A9ACBBBA999CC7987AD9AFD8B999A8B9666988ABB8995859664667BA896B669
col16:   B28C9977BEC67B678BBC59B8CACB9BFAD7988BB98A7AA96AB7AA9AA779A646BB889799AB497BB776
col17:   AAA7678679D99D7BDC8E8ACC76B9BC6BB9879A9689A5BB9B895D886AA9A9AB97887B68887B97A8A8
col18:   769777BB8779DCA989B98AA4C6A9ABAD89A9C8B9BB9987C8B7A6877A78AB987965B7966865BA8B67
col19:   656A7998BADB4AD89ABC7AD9CABA755A8F7BAA9DBAB898D8D994AAD8AC6C8A5B5A739767D6C4B699
col20:   9AA78AAB8598B8698D88D8C96A89B96CAB9D9768A69AB9787A7B9AAC8BB7A6475AA577A9C5678875
col21:   C5B69589E9ACC966CFCDC9AAA7DADBC7866C8BAA75B8CEB773DAAAB967B59CC8A9A8B9BC647A9788
col22:   6B988B7E6C98B96DDAA9D89A785ACAF797B6CA8A48B9B6C8B9679A7BBBC6B8889C69594769CB9586
col23:   891B97ACCABCBED9CBABA78B8C8CA7BA9E7A779AA89AA697A976B89999962758D7989875A684B555
col24:   6B88A9BFE696999A6987AACACB7AAF9589ADD5D7B9BACCBB9A5698889A84BA979795EC46689C7C85
col25:   8966BBC8BAABA9D8A9E88D787B7988588CC8B9C6BEAAB9A9A7B76C887A9C8CA6B6A69B5C796BA997
col26:   A975BABBBC68FBBBB6AA5877CC8AEECABBB9B9CB8AA9CAAB9CBABBBB6B6F5B996B97C88B97B9CCC9
col27:   A88E6C99BABB8B97CDACC6BA9A98F8ABF78ACD99CCEADCDCB96ACEB7CAC98A5BBB9987B675A9AA67
col28:   A98BB78ECE8D87ABBD8DAD9CAD8BA9DAD8AA8BFAECBDACCCAB5AB9ECDACBABAA699996CB87B88AC9
col29:   AB9A97C9AACDCC9EA8BBDBDD99CBBCBFBCECA9D8DACADA8CC7C9CBA78BC6BBD8B989DCA9B78C9C68
col30:   B9BA799AA7AAC7ABBDCACFDA9ABC8ABABD7DCDFDA89CBEBCBAC7AD9C7C699A88CDAD9E9AA8D8CA84
col31:   9ABC9EDCBBCCE8AFBEBBAA9ADEBAABCFCEEADAE9BEBDBCD9FFE9BBCE8EBD9CAB9699B7DAB9B7B78A
col32:   C7D77CABA8DC89EAFBB9DBCBC8EFDBFCAAC8EC98DCBB8CBBDCCB8E988A988B8D989B7997A9989C98
col33:   BCBBBAAACAADAC88AADBFCDC9BF9BCDAD9FEECBDACBBBCBE89C88A76A58DA9C95AC56CC75A97E9AB
col34:   BFBBCA8DBCAD7BC8BA9AAE8DDCECBEEBEECCADD9C9FAAFDAEBA99A7BCABD7B9BB9AAC89976997998
col35:   C6BABD9D8B9FBD8EBDBB7DBB7A9CBDEAEADDCACDA578CC99D99F998BAEBB7D9D49B6C9D6987C8485
col36:   AC99F9CC9FF99AFAE8FCDBCAEBBABCCCFDDBD7DDBFDCCD9E9B788CA7DA9F9DC6B98DAA9EB85C77AB
col37:   79BA8F9ADAAEDFDCBBDA9CCFDBDBECCCDAEFAB8BFDDADACB8FBCBA999C8CDBEA9FDA989EBCC9BA99
col38:   CCCCABD9AAB58D9A9CFCECAAFBCDAABCDACCCFF9ECCBC999DDDAE9FED8BDDCCBC9BC89F8ADBAC87D
col39:   6AD8BCD978ADBFEACC9CCCABC9DEAFCCFABECAAAE9ECBEADABABBCCBCA994BC89A9CACB79D89BDA8
col40:   BABBCA9CF7AEB8AC9CFDDACCEC9DAACD8EABBFDBB7BCC7DBDCD9AFFADBC998CC8AC8EBACCCBECA6B
col41:   EBF9ACCEFBACCCCAD8CABCCBCCFFECCFEDFADDCACEDEF9CCE8CDFC8CDBBADC9D9CBB9BC9BB6B7BB8
col42:   8CA99CD98EDEBCEBDDEBECFEBFECEF8CFFFCA8EBAB9ABCECCBABDA8D9CDAAB7DBCABD7CA987A9A99
col43:   CCE9AEAAA9EF9BABBDC8DCFDEBF99BECABABCBFDDCFFA9FAEFCBCDBDABAAED9CCDADDA79DCCAECB6
col44:   7DD9DCACCCBBDEECBADDCCDDB8B9BFCDEDCDADFFCEEBDDFFBDB8BEFACA97CCADC7AABFEA9B9A7ABA
col45:   D6BDCABDB8DB93AFABABA9CBCBDFA9AACBBDCBBDDDBFCCAACAD9B9DBFCB9C9FB7FEC99AB88F6799B
col46:   ECCDAACBEDC8BBBDECBD4C9EE9FCABABCACFBCBD8CC7DFE99BAE6DCB7DDC7B9D9CB89ABCD88EAAF6
col47:   9697BDADDFBC9FE9ABBEEAEEE9FCDDC9FACFCDECFCDECEFEAABBEFACB8B9CBC799ACBD8C7EA7BCAC
col48:   A9AB8DA9CADCFAAED798D8BCFADEFDCECBB9CFEFECEDDFBFBEEADFADCBCD9DBD8EEA77EAB9DCBB7A
col49:   AACECBEAB9FBEBADF8FFCEADFFACDEBDBCCCBFEB9EFCEADECDDC8CFD9D8C98CAD997EAAE9A9A7BB7
col50:   BC8BA9CBB9CDDADBECECADDDDDBCDBCCBCFD9EEEEBCABBAC9AC9CAEADF8DB8D9D8A9AB7CBED9BABC
col51:   8788CABB7FA8A89B9798CAD9A4CCB99CAB78D987A9E9BE9AABC7AA7D9BA5CDFB6779C9946DA67A8B
ROC:     BPix_BpI_SEC3_LYR4_LDR12F_MOD2_ROC6
col00:   2136274355132348796B37A691288847779799795B77BCA3886B759A9823AB693A8C8B7563889747
col01:   953884783689886956745998C68A7AA55D86987CC9A7298C9BBB7A9ABB8C7868A8B7B9D8A959CC6B
col02:   14325465175677476D8495A98945679D9B574946BAC69B4D748A8B88C8AA68977898744865984967
col03:   3468326A864D836965979588488C66BCA998A9B6BA668983F5837B39A66A869799B85996A9B7A8A9
col04:   59554477678382D59D657859776A79BCA57D87749C7BD89AB6B4AAC87247BBB7A6AC8B8C595A886B
col05:   9686849544A3469686787987C8868C6D68C57CA8E8BBC55E6EF5988A99C7C5CD79B84BC87B8B6B9A
col06:   6A5568597A8677AA7D4958D7739C9FBB97BAFF96D9BD9C7B6A85EBB7DA8BBAB6C4597E9CD859669B
col07:   5524596955786689A6B59B6B68E78A6DB9B5AD689975A886AA9688EABB99AA77887AADCA786989A6
col08:   14678549814497826C4A89A698878CBAA657BBDA4A5DBAA68AAB989A9B6EA6DCA8675A7DB6CF9A6A
col09:   7467485324B5BBABA9C553BA6A64A76C789ACA85B6BBACCBA5A58A8BC796654399D7A688BCA698B5
col10:   8443377A4857697A784A6774447B6A7A69B96A5FAAB78A9C73BB46B493ADAB77DDCA4BA9B6C7B58A
col11:   7225734758515965655549E915AB7A8AAA939A89DB59A985A9E8CA9B9B7767DB6856BB598A59BA8B
col12:   788A423B65777B74B979C84537783B8B7DCC4276A9BD8D5B6BB7988CC7CAAA648DB9BC557476B7B8
col13:   46644635AA4795583589ABAC5ED18868AB99ACA689B8FBAEA84898A7AB8AA86B7869A687B6977797
col14:   24996766686B87373B69CDB8C57A7D9ABB8B69789BB9899C998AB88C9EB767C9897C48AB74C6AAB7
col15:   42B6A49282675454697727647BA9ABAB79AA9B999886C88788A65C988AAC7B8ADA7698AE9B9B9D45
col16:   55734A69B485652636886394467B79968695CC87688A9A886A8BB7B97AA9A665C8BB88A7AA9B8995
col17:   688869895989887975566A59B99B899B7867A969CB7E2959CA986A8AB78C5A9774BAC9889BD5A774
col18:   85441587A78964565A76B97A9B98DB76C965989A937A7C56896B68BAD77AC77BA856A7997C3959B4
col19:   3335A54B57456964BB7479799CB9BDA6357CD56C894898BA4DB668998C4AB9DAA7C98999C4767BCB
col20:   673344674B33211688379888859B7BA6ABC557E59B98D8C6B8AEB88BB799FB95C929B9A7963AB96D
col21:   24856B576C75716958565A9979A49C688763BB98B79DEA6BA999799A8BA78DA968779C88A9577A64
col22:   4655956488566843A8766A6867A6C67A88B4CF7CAC978AB36BBA48B7A9A7AAE9CC89DB88B9998AA7
col23:   57416595653986786749B89555A3D876F978954954A6AA6C9B777789CB7EB56797A99C9C56979B8A
col24:   56287A664899672A1B667567546A686B5A7A9977BEC7BA8A66DBDAAA8696B7D55D8994758B995AA6
col25:   2B23989697CAC63765496959C597AACC69A6BB8B76768A976CA7966B79BC7AAB9D9CB68D777C7896
col26:   93541C7AB798668CC78B6B77885A7A89FE7EBCBDDCCFB759DBCCAEDDABB69BBE889C89AC57A677B6
col27:   7A7C8777A87383AA95696B979B97B59768D8BB8A99FCA7ADD899B8ADBBE7C876BB7899BB9FB6BA99
col28:   B514BB688D4866585686888E7BC7A899ADCAACCDA7BBB4BA888BEDC795CCB7CBA8666B7FB68786BD
col29:   9BC98A5B7853614BBB5B5B7A5899CDD7C66ABCDA8BBCCEEB9EAB9AABBACCD98DBBCA7DBC98AAAAB5
col30:   9AB597468653278996B9B6C6D868AA9CB78AC59EAA6C87CECFA8BCAC8F669DA6ABAB8ACA9787A994
col31:   CAAC55996AB67BDC4A479CEBDDD46976ADC9DCDF8CDD8DEBDCB6DBC9BB9D8B99AB6C7DBAB98CBAE9
col32:   79598DB88C67E79BCEAABC78A8A6765CBF79CBECBB8BAFDB999ADB6E99B6CB8C9E88CBDA5D67C6DB
col33:   A56584549B68B88387C88CAAC786A6C9ACCCA8BD8A6A68CABA4EDBAABBCCDE8C77A79A69BB99AA98
col34:   6699B277B7A9B86CAE67BAB798BACED8BD9BBE9DDBACBDBCAEEDBA86FCBFCE89CBFADB678CCBADB7
col35:   4455A8B6778DB6BAC6ADBCDA8ADACCAA8EE9CBDCAECCCCEB47CEBA9CFAACFA8BCCC9AC7EA7F9F9B8
col36:   7B681C989A579E8A89CB398689659C9CBAE9CBC7ECDDDDDEB7FB798BAE7B8C9DCCECBB8DA9DD8AA5
col37:   96747788889A5B996C7ABBA7BA9BBA7DDEBAC7EFD7CFCBDACBB9CDC9B79DC8CADA9A79EDB89CCBA7
col38:   99C8B58A579AABA9A7B9A998A9F97CF9DD9EFCCDC89BCBBFC5FCF899AECABACC6CDAADA89987EAEC
col39:   697A859A6497777C9749CCAA8999CAC9DACF9DAE9DDDBEBCDACD8BDCA8CCC9DCAEE8B9CA9C9AB983
col40:   9632A6885598A72C93A886C9EAA4DB4B9ABEABAB9A8EAE6CCCAAC7ADC9BFF747BC8DDB86D66888A9
col41:   6557449763456659784CA3B8BB96BCA7AB79F8F7A9C86C8C7B9D6478E9F6BA988923A98ABAA5953C
col42:   BA98A7A6AA98BA9868E8B66B586ABB58BAFBAACBCCDBAAEBAFACD99CADEECDDDCAEDCD8799BA967A
col43:   87B58B689A2AAABD6BDAAAB9BED6A9BFAABFCB8BABDB9EDBEA9BDB9A9BA8E9BCCD9BBCA8DB7CAADD
col44:   9C5858385A983A68A8669BE9BACAC9A99BBBCBFBAC47DBBDA5DA9DDBFAFBBA78E8CBDDEF6998EB8D
col45:   58E96BA7C46847398B65AE6DD55B8AD9ABBFCEDCDF8CEFDFEBBDCB8ADABDA989A7ABE995CEC6EB8A
col46:   946A7AAA46699A88A9CABC88CFCDA8ACCFB9DCF9FBCBCF9C9DCCBAB9DC99AC9EEE9CBABBAA885FD7
col47:   8C57D965B9C9997876BBD8BDD9AAB8DB68BFDBADCD9A9DBEE8BBCBDFABBF8CBAAF7BCCC7FEAEDDA7
col48:   6B6A99BB8A86ACAE95D4DD9A6BA5DB9DAFBADBCBDEC9ACFAADBAFECBDFDDA9D9775DB9F95899DC98
col49:   8B752989C9BCA6EB79968BBA8AA8DA89ECAFA9DCAFB9CD8ABFB7ABA9DDBC9BBBBCCBC79C9C6EEA54
col50:   C7CCA2759C87A97CBA77AFAC89AA7DDDBBBACFB6BFCDC8CB6AAEEBFAB9DC8EDFCECBDD8BC9BB8ED5
col51:   8C7448B9449473B28AB96689A4CD9C6A88BABCC9A74A6DACA894ABB8D9CD98899B97EAAA879B758A
ROC:     BPix_BpI_SEC3_LYR4_LDR12F_MOD2_ROC7
col00:   54562658616733435A4984552A6A45B84947A772B9A8AB575789679775A887864AAAAACA5BBB9CC7
col01:   735649568389A8598A83A67997A74A768A9B9BC86666C4A9875BB99AAA96BC8A97BABAABB9CADAB7
col02:   745356446A38737A8236997778B89A859687C86B77698887BDA8A9AA8CA8A77CC97898A8DDDCCB58
col03:   6443871596836856736956A489674999AB8878A6A894AB86A878CAABA96C8A8B899BAB8ECCD8CAD8
col04:   197878684487A6567C78942985C67BD398A789B79788C479B7D8EC98AA8899B8B89AAB8AADD99C8C
col05:   6657255631437A6656457576876A5697B86A976AB578ABD99A69A78877778C9ACC9AB9A6AB8B9C98
col06:   651777695555696A4359956A66378967898857ACA45A7A499AB99CAAD7A79A879C9A87BABC9AAC8A
col07:   4567724473953586778799594B998868A46AE976ADBAC7BAB9CBCBA5AD8B99B996CDA7CDDBCACBA8
col08:   151676575545BA6894778DA8A988A6E98A8789877B98ABB79847A88B99836C9DF897BBCB99ACB9AC
col09:   46355754783866156A5A695779B892A8B77998ABAE9C89C8BB9B9B9A78C9B7A99CABC9CBCB69A888
col10:   63557963765A6633494B747A48B6889A688B899AACCC65988B8B778DB9BD8B8BAA89AAA8BB5B8FC8
col11:   4246365A753A546A4A76789A9B869B96A7BBAA89B9A96DCBAE6DD6B7A89AC7DBDAB7AAAC9F87CAD9
col12:   4356674529668AC4A9786A77B65979B8A957A999A89B8CB884AB77B9695ABB86BAC979AB78BDA9BB
col13:   257338945655788175A8758576C66A799999AB67EA49A799A8B6A8BB97B7ADC7C7A7D9CA989DABD9
col14:   67278715964457598BD5798A8666677C5E7BAB77A5C79CBBCA88979A7A9AB7CBA5CD8BB79C98BDBB
col15:   61355237343776766797867367797AC62CA96A997796989979A9BC97ABD7DBBBAAB86CB9CCACF997
col16:   453563684367A4A767C9996B7579A776A5887A9789787A8B9769AABBDA9998E7C8A7C9BB9CB896C9
col17:   16425777612658A95A996A7755694784756B497976C9998CCCACBAE877A8779ABCAAB69BE8ADCDFC
col18:   53473469A64749986464946B657589677C8896BA4799A9BBB8887AA9D9AC6B8896BAAB9999DB78AB
col19:   45446656959478778436A7989796A6A5987856788AA8B76888D6A96B98CBBC7AE77B76AAA8D9BCAA
col20:   475724357959575465836889DDA798B98B5C85B7A8EBAD7BB79599A8D6B689BC96A5BBCA9BCC8C99
col21:   3361623877354374768648887576987A7967AAA9C8B89DA9DBA9C6B9D9DD7A7D9BBB7CBA9C96B8BB
col22:   33326548B95766877B7C87A9654897796B8A79A7C8C89A74A97997798AC9ABD59AABEBB898B9BCDA
col23:   73223654649B4339B96584748784A7867967867B779B8889BB7C998AA7BA7B8A9BBB7DDAB8CAA7B8
col24:   68567685346A576657566445897888689A867ACB67B6BC9CCAE987889869967BA896A568B79AA9A9
col25:   8558846A595828697798AC9997A7897387B97A99BBD9889C9566ACAE8ADBB85B8BADB9C978EAAFCA
col26:   6789447595B8593688BAA8999AA8ABC63BA9DBDBBEADDC9AB9778AEB9BBCD879DAB9CACCBCBAA9A8
col27:   92634C999898747882A89896A978999678CABB9AB89D9EFBACB9BAC9ACBBB7C7ECCECADBBDACC999
col28:   6858A785CBA49B7B7566A9BBBE976A5D88A8B8AD9CBACCCBCCDA9D8CCABACD9B9FBBCEDBC9BCFC8C
col29:   6646768C6875A967D797889A4CAAAE9A8CBABB99DABBAA79BDBEC99BC8AEBBBED9ABECAB9CB9DFDA
col30:   9C8D7986566786977977AA68A68886BA68ACE89C7A89CD8DBCABDBDDB87DCC9D8ECD6ACDBDB79CEB
col31:   86A94976898978D5B969B76C7AC978CADB7AB88AABA89BA89CBDBDEEACA7CDCBCCC9FABDDECABFCB
col32:   54666765B79A7A4C89A8D8D9AA9A99A99798DECAABA98BDBBADDCDC9BDD9CDFB9EADCC9C8CAEDAA8
col33:   568B7A957859978B7B98ABB8DDD8CB8CA7AAAABA98CE9AE9D9CBDCADAD8DDCFED9CDCCCCF9BCD9CD
col34:   8A9747AAA85788769B76989A97DC9A999ABDBAE9C69CD799AA9ACCFDBAD9C7CDDBCC8CDB9E9ECCCC
col35:   74778987AA5A7ACAB86DCE86DAFB5A5CDDB8ABACBA7BCDDBCA9DD9AAD876CAA9BEEECCEDEAAACAEA
col36:   65A795668765885478A678A9A77ABB5E5BBCCABAABCBA9BCB9AC98F8DB8CBFCDECFCEBEDCEEBFEBC
col37:   A6765B7A69A96C79A7789DA8DC9AAA9B67A6BEFBA866C8ECF6AFCCBBDBBBAAACDDC9DDCCDCDBDBBB
col38:   58797C998A9896C68A99FAE99889ABADBAACC9CBCCDBAC8B9BDCDBFCDECFADEAD9DBDEACECFBEAEC
col39:   A379949BB77979B65B65A9B9CB8C6D5E988BCADD9ACBA9BCDBCCCFADE9ACCDADECBFCCA7CA8E8DDC
col40:   A79467989D6A599C696AB7DA87D79ADCB8B7DC7AAA9ED9DECBCFFBADAFEB9EEFECDCDCADEDEABBDB
col41:   9937B885D879BAB7897A69CCCBB9ABCACCBFD8BB9ECCDDCEAAFBCECAD8EBECDFCFBCDBCCABFDDCE8
col42:   7684A866998678869DB8C8B7698AA998A9ACA99DBACCBEB7EEC9CACBCACBDEACBDEB9DFCCECBBDDF
col43:   9679AB798B996AABAF87BB98A7CCD98A8EAC87D7BDFB9DCBCFBECBDEDDDFBBAEDCEF8CAFEECBDECC
col44:   3E6A97A69896AB58B887BC9AAB9AA87C9E98FDACAABD9CE9CB7CAEB9CFEEDFBABBCBBEEBECCEBFED
col45:   5874B57879C788BA958696AAAAD9CCA9C9AABD8CC8DBCB99DDC9DBCBA9EAFEDCEDBDDBFBBEDDDDEB
col46:   887399A8A79BB87A65CC9E8BADABCABB9DBAAEADBCCBEAC9FEABFFECFDBC8CDAAACEECFDDBCBEDB9
col47:   856AA958D8966AA8A7BAAD7BB9C9FBBBAD9CBCECFCAD8DCC9BAF8BFDCACBCF9BDFBBE9CFD9FCCEAA
col48:   85A596B7A6A28B44FABBA89AB978B98988BBB99B9BAEB9C7C78EBBCDEBFDDCC9BCCFCDBCEDECBFDC
col49:   667997D74CA2BA96A8ABA9BBD9CCCAB8CAACCABBA8C8DABAA9AECABBECAEECFAEBBDBDEBD7CEAEEB
col50:   4657A9B58B99B9A9B7D889B88CA5ECBAAABABEDAAC8AAACADBECEBBD6DEBA8AF7EDEEDFCEBFDCFAC
col51:   66478B69CD466659998663989A89EAAB578A87AA86ABCA68CACEABB89BACA9BED9E7CDDCFBB8CCCA
ROC:     BPix_BpI_SEC3_LYR4_LDR12F_MOD2_ROC8
col00:   5627AAB9878791975B3BB5A95C9BAB8797B8C5767A8A9966836A647A36A8B7C569B4466555838BB6
col01:   65B297CA992D648A4CA7C768AEB3A784D639AB98B88B7BD9C96668A885D9B8F68CBAE93777968AB4
col02:   98A4DC8859789A7779C99B88BBDE9A86DDD8DD48BA979889D6B967BF999664B48A7144B77A9A7C77
col03:   7567A7876779698A96887ADD7978EADC9CA9956B776589B97A77C8CB98797AB68498AA6677C8C856
col04:   819A89268AADBB4E88D88B9956939CF8876AA7E7779B94C2CAA9F9959A9FDADB6927D8995567A8BA
col05:   6D67658B9BC895A893AAC588F797BAE589D77F7C89BAA7A4C37687CB768B98C6ACA9B94A9763687B
col06:   555996AB9BB8BA8B55C97E9DC7AAB7B77659B799CA498AA8AC7489C87C56B69B7847A689A6779898
col07:   8662969A479B66986A797795BAA989EA778BD79869999B65BB68A9AA996A9C999973B869AAB6A789
col08:   86AA9546A95A879CB94758BA778B9ABC4CC879A8AD88CD8AAA9D6DC9782ACC6986785ABA355C9747
col09:   795A797AB9A95C65AAE99CE7D9BA898B87998CA89B8CB8B99ACD93B789CAAA7A989C99ABB77A8B54
col10:   B574CE8FAB776D6B693D7782999CE9BD9BAE85A797FA7BB7B2B68BE9B89B7AAAA8B7AAA87486D745
col11:   17D6D699A5797898AA95938AB89877D9ABB96C9976A9C7BC8A9888687544B7A5987A8C7956B77839
col12:   94526C7979316A4698689A6995CAB5BF7CC9EBA5A766677CB8AB89AC9D99AE943B9778881A969956
col13:   C7D86C6C9C8C9A7B2BAADB6AD879DB7BCADF758C8A988C97887A9FA5935AAD79C5C9A68859B8B585
col14:   48C588A9B49889A76EBA7D89DB9988D9786A5A9D6E7A7B7F969A47A68C7B778AB5696A82B78DB5AB
col15:   B7A8ACA8A96979999A986B7A8A587BE97CCCA38D4FA98BACC9BA97B8ADA8889BAA6BCBB9A3689885
col16:   7771685688A46CC9EA489AA9F8A4A8ADAC7C6B8AABCAAB88CA96ADAAD98567899E3369ABB779B7F7
col17:   88FB978559B97B95595A9A9BBAA1BD78C57A9B6AA1A7796AB596C86BC987AA985B8F566744791859
col18:   49776B778A6BB98A97B8A587886B8B8BAA7483B96D67999B4CBBBAA4A8C4169CACC85B68A74695A8
col19:   8768A774CAB8577749D6AA9779496BAA9F4BA9A6A8CA979777D9AC8878BC82AA8B8D9796D7987596
col20:   67AA78D58DD576B977A98279639A6968A9BAA675AA9C959B699597BAB6DC99B889B66DC849899AE5
col21:   956B6C8CC9A7956687B87559ADB7D48A49DD968B79BC98A9DC98A98956AAC99685668C67999DA998
col22:   7226B76C6AD896878AB3BCB98777DBABEC9A898AECBC8EAA4BCC797B7779AB76AC5D1C6FA773AC38
col23:   389984AC9585CA46679B9A9A9ACAA8BBB8BA8A8357D4C6C9758AA889793EAB479544745743B9455A
col24:   48883A886676B858B858C79ABDA655887B699CAB9ABA46C8CABA947D77799C59C6A765B86676A747
col25:   7799A886D4599967C5EA9A99B7ACC6B5B97A668A8A95D6CC6C7897ABBCB89AD6B6C96B968BB6979B
col26:   697A8488CA7CA99C8CC95AACDCBC79B888D88A66DAAA9AF88CA49B7798888A8B7A8CFA7DD9C868B8
col27:   98B7C766859A8BE7BBBABDBFA6E9A98CD9CAC996ED9B7CD5BAC7CE7CD93BDDB89BA999CABBB8CCAC
col28:   84987CACCEAC7AB6D9D9B9CA9CDBDCD4AABCAFA6BDBAACCAC98CE7A7BC79B9DEEF8A9C937C88DF6A
col29:   ACC79A3CC996A89CD967A8E8889AC8CCA7BCDACFF8CFBBEC797BAC96ABC79987D9BD77589D9E89CE
col30:   BBA79699AA7BDB7BBAAA9BFFBFB5DDBDA7DC9AA6AD8D6F9BBC9B6BA986ADEAAABB9BF48BBC9A5A97
col31:   679D758BDBAC6AD98BAB8DFCBD8CBBABBCE8B8BC6ED88CCB6FAAFA5EFD9CC5BDBBAC9A78BA4F887C
col32:   6D6938EA8588B8DEDCBBA77D7789FB9E9CECCBD8F988FC899D5DCCCEAAB9B7D6A998EBE69A88997C
col33:   8BBA8A78BFAB9F8C6CB9CCFACACCA48998FBE9ABBB9ABACB98A5B78BBA95CCB19AECA97CCBCC8A66
col34:   A49699998D9B9B79D8DAA9DCECCEBDCCAAFBDFA5BCFFDA9CADCDC9AC8C9ACBBA97C8A8C7D7BCA998
col35:   C8BB8A8AAA7CB9DE5A5BB9BBBEC9FCEBB9BAAC9F9BAC7BADC8C98BACC8C979848B8A9988CDCBB88A
col36:   A69BB9DB9EBFCCCFAACFCDDD8CCADFEDCFC987FDCB9AE78DD7ED7FBABED9CB98AEACBC6BBD8AB69A
col37:   ACBAE76DCAB9A6A8E8A999B97ACFE87CBBB89AEDFFDDC8BCDBAAADA79CAA8ACB9AA89AAA9AB4B88D
col38:   D97978E9F69CDBCC9BFAB998CFCFDBCCAFBC8BBBD5B69CD8CCBFAAADCACCF99B9DADCCB9BDBD9A6A
col39:   7C79EA88CB9B5989ACC8DCBECB98DCA99ACCACD8BACBE9ABE9999AAE7AABBE7B9CA99CDBAA77A96E
col40:   89F666CB4B9CB97EBAE8EEA6CD8DBE8DB9DBDFECBBECFBEDAAB6BCCAC7BABE9C79AA9B98C99AB7AB
col41:   EABACBB99BB4B8BA9BC9EBAEFBCDEDB9DBADCAC8ECDEDBBD995CCBB8AEB688FCD9989B859AE7B89B
col42:   7BCA6E98DBBCDF8FDEACFEDABDBDCDCBE8CE9FACACC9F999AABBFCE7AFABDCBC9B989CB6A775DCC7
col43:   DD8B9BADFBCEA9EAAACABC68CDB9A8FDCBE98FC9DCBAE7DB8CEAE8BA9EBC59B968BCEA98C8BA8C6B
col44:   EBE8EECD8E8AFCFBD989ABBBCABEFDAD8A89AFDBAFA9EACACEAD9BBBCBDC69A8DFCCC98DBCA6BCA4
col45:   C8CBB9DDFCADAA78BFCE54CE7EDDDA67DCECFAEBFDCBFBEBA9A8EDBB8BC9988B6AAD3B9BAA9ADA89
col46:   B99C6D7EDEC8BCBD7BCCDCBCAD9CBAE99ACB7F9CCABABFCD99E99DDBFCDFABBCC5DBE9D6C8CCDAAC
col47:   79BAAB78EB9FFBF6CD8C7DB9EEB7CBD9DCB88ABBD8BE8ACCCC97E999EC6DA9C97BBACADA886B99D6
col48:   69ABB97B5DF98BBDC9FBB9FB7CB696CBD8BBCAFAC8ABD9AC8ADBE7BCB8CCBFDF975FAC9BB9997CAA
col49:   8858D95DC6A8CB9B8BCCDDBC8CAC8FBDBC8E9BF99ED799B8DAAABCCD7C8DC9C6BB85C9977FB8AA9A
col50:   8CE8CBA7BD7FB8EA8FDB9DB9CAFCD66CAFFDBB9CDA9ADBB6799AC79AFE5DBAC8A9BDECC8A6BBA767
col51:   8484A9A79E9C8B8C7AB68A9A99C4D7B8BA9ED7A8BE89C78C7249A9A388BA9777C676DB429598AAC3
ROC:     BPix_BpI_SEC3_LYR4_LDR12F_MOD2_ROC9
col00:   8F1784718724B33656567676A858835757B6725B5A27389564863378AB8797676656337875574225
col01:   979855756588983758576777A666428A78DB6564987BCB99988AA67A658785DBAA578C65A5668A91
col02:   B778955685589455599798A2878755599796A988BA7778A46698A799A87487A7AC4D696969778577
col03:   56656677355846786C646A9866777BABA9B74B5B688A87186E68A8A98ACA6E48C9475538657B7244
col04:   7868695788429AA8A799A476787AABC6B6A77B97669B68FA56CAA6DBCF99C99BA5999AAB64868474
col05:   4646B3349773868769A656BABC8798A99488397B8AB94A79985C8B675987B8838958B6293A96B565
col06:   759494775653494AA5A869A99A679992D7A7A68869375A57999C9BC7DA9A95A5797766CCAE6867B6
col07:   5667788688858894A9667377455985897AA8898A8A86966AB9679A887CA8A869A36958767756AA77
col08:   55747555494557A666664389B542A866D96597A7889577B5C687A7A74C85B986788C63A888665979
col09:   98162697449C98518897B78995B796888E6789985EABC8BC8AD464AB94DBC7A88A7DA78769B67AA4
col10:   2676747992818278897A8878A679766BAB769BB679499B9CAA8AD78887A7795B888B578A66698A17
col11:   233554A762A856655A29B728A58787777B7478369B987BA6CC6687897C7999778376597796855676
col12:   788185687A6A4824656896879668BA4999675659BD86B5A4AA98AB8B4A8E6A6688477AA6A97A6467
col13:   3968396545A85567A79A87A55578A9665795A7E8CA798B88DA566A87A599879B59B598685596C847
col14:   536887748B434764B69773875BA9A7A456B9ACA99658588A89979A796A667D4B74A9A9C6A9688945
col15:   7657465937586685785636A777876BAAD8AA9798787AA57BAAB57D7898E7A788B4998778AB73A399
col16:   56626A764764679A888989C7A46AAA769B87FC77D59B96A78998B6ABB7A688B97AA87877789C9796
col17:   74365353897886587B9587A67977A549A98C8B668D54456988569C6B82A98D8788878A5976897735
col18:   55229348885555879985878586967A75999AC6B57B57DAB8EA98B7E9B9F687AA924678A5B699D897
col19:   68475497854B725A3736878565664764B99C356C7A59BC8B99A893AA8B9479B8AAA686A8BB952987
col20:   55A578447887546616787AB8B6655AA47777686D7878A86879CC972BDA79B9977359973864955576
col21:   635551646436848486B84799499B495489479B89B9AB687668988A76DABB98DBB9A8857C44746446
col22:   42654792361476494A6566A9877A9473998977B8A6AD58A85886C57C7997AA59A6764486C8789855
col23:   713667354657146993376899487976985A74AF5E7A998A639BBD9B96A9A8CEE69759796568836664
col24:   3693336759688A38778458765B89967C59AAB787AA8998C88A7689D84AB977B9BC87699A57747A66
col25:   3857767959155D95A55989669A79467798DB9778A9967B39D8E94BB69A9BB88A9A9977588767827B
col26:   857A96875697388588694AB8C7ABC7ABCB4898996C9A7CBA7ACB8B9AAFBB9AACBB9A9BAA65A6478A
col27:   686A53857567974588A7BD889B4A979EAC3BB495889B9BC7DA8AA8BB8CE8ABA999866AC984889862
col28:   69667B685A4859798A778C8CECAF999AD9AB7A899B75D9A8BA99C97B9E69A968C9B8785C98978967
col29:   318443445DBA489985A3B97A955B67AD9A8A87A84B8DDA878BB9568B87ABD9D9ABAB599985875886
col30:   75884749AAA26786B5C799A8DBA79AD9997B8A9F9CAE777B6B949E6999A68CD4AB78287AB679BD87
col31:   59996764974997867B9389AA876AA9DB87C8BCB9E98AAE9F9CAD689D9BBCD8CCACA98BA99A8E596C
col32:   859877A498D6379AB7698969ABBA4887CCCA798AEA88ACC9B7C8988BBDBEAA989CAC89DAB77688C8
col33:   5A97987E566C4669699A9A8BA6CAA7B9BBBA7BAD699B89B78ABD8ABAA9ABAA8968DC6C9A9BB889B9
col34:   9A7AA875B65B86AA7999A9B67E9F9ABBCBB8CDBB7BE59A8D6B478EEC8C7AAAAA9CAAD888577B99C8
col35:   675969886A896B699598C8998CEBAA9889A8A98B6AAABB9A6DDDB9C84BA7BAAB7BE9AB9A88B56759
col36:   D797694A6568B98A9AB97AC9BA5AB95B9A9A4CBE88CABA88A7C87DAC9AB89CAABA98CB6A2A998987
col37:   7788946A49584A79695CD698CA9BAEBA9CD9AACDBBA8AB7B69BBDB7A8CA9797B8C9C9AB9988D8696
col38:   B89A8BB9BC6A97B986BDA8A7BDB9AABE68A8CCDBBBFC9AAAEFB8EB7A8DCFE7BEBCDB99ECAA78A766
col39:   9766966A99AAAC94A989D36E9CAB99BD999B8CBABBEBB6DBA9E8EA8DD7B6C6BD8BAAC989648C9C5C
col40:   8986A668938CD9789A9AACADB97DCBA99DF879CCB8ADDBCCCABBAAA89DBDB9BCABF99B9DA659CC79
col41:   76659B869C8B9688679BCBA9C6AAA6A98AAB9BD8BA87ACCEDCB9ACCBC9BBAA9ABCAA7AE789B869D8
col42:   979A77A787A996A9B868C798E5AB9BBCAC7FBCBB8989BAD89AC9B7A9ECE7B9B9DBD87AA99B8D7884
col43:   9758AAAAA947876AD67BDCB999C9DACAAAACAA8FE8ABBB7EB68CDF8A9AB9B9B67AAB787B865AC694
col44:   88645978BABAC5A87A879ECDC89C7ABACBBCDD98FAA7C88B56BAB9BA89989A9E9C9ECA5A76A98AE6
col45:   9887C749878B8CB6389A9D89B5BA9C98BC8E9DC9AFA67C5EACB89F9DBACAAB76CC89B98C4A698856
col46:   A989A9997B797879A679CA9C968A5CCBAECFDAC7DC9888AD5BB8DAA889A8DBCA89A788AAA77767D7
col47:   9929836766AA72988DA9AC7AE79B89D89CBB9DB8AFA8BBD96DA97CD98C5BBC9A9877A9BB7B86A986
col48:   68898C798A58B6AC7BD9A74E968ACB99A8BA8AADAA9CBDBA9ACADBBBCBAABFD9AAAD8B9BB77DBCA7
col49:   874AB49174978A98BA67A9BB6975A57A95CE8FB89E487B6BC66DC99C78B675C7CA6B579886BB8764
col50:   6CBE6789A979899BA8D69ADC7A8DDA8CBCFDBDAA97ADFBF86EBCB7AABBC6BC89AABCCACA899A7C96
col51:   196A77274D48653837B67486589485887988677BBA986B948978BC8A8A9AB735684796756774C786
ROC:     BPix_BpI_SEC3_LYR4_LDR12F_MOD2_ROC10
col00:   52897546B839B5552994A9C1E87B8797A9E76499B876DA879DC6879AA9989A68B8654886A9F5879C
col01:   416688B7D9B2AA59A8D61785777A7ACE67A89A7C996AC979AB68957A979ABC7BB64CADA6485A6884
col02:   349C375A97D5476757C9C564B67CBF7B8A9C6A87A99BCA88EA8AC8AD6CB3886CBBA69C585A897A45
col03:   66695B95882B768B66BC6793A7572BAABAB7DBACAAD8AC9AEBBAB9FABC8FBD866586F9646A558739
col04:   477985889874A598AABA9A99964BDAD99BCC997D7BD9C8A4AAB7CFC38A8E9ECCCDB89DBA9EA78874
col05:   87A18776A9B5C7B4A75A9A69879B9AFC99F58F75EB9B9AB885BBABABA9ABD678C4E9C485DA784BB3
col06:   8859996747A57698573A89CBDBB6ABB98A86CAABB968FDACEBCB88CAC7BAC9B6D6CFCC9BBDFC6ADB
col07:   556764B98A89B64889BABB5DCCDCA999AE69DC7A799BB6A68828CABCCB63B99758794C8B888C9C98
col08:   356357786D49B7A8728C97887A9D7CD97CFAB7AEB99B898D59A967BCA5C89C66A64A99AD6819DA6C
col09:   7369735A78D9676AC795A7889B69CC65B9A7BC85789AAA9EA8D8BA67FA9C6B78968B89DB7AE879C3
col10:   A73A35CC65C79899A86A76AEBABE76987CB73AF9986FDA7D79AABACAADCA8EC7CD88DA8B96A7B797
col11:   68BC659EAB8757185C5BBDBBA575BB7CAAB8DCCB3D7BDC7475E97B8988AABB7A87A764877B7B6A96
col12:   5A69658A659AB65BACD979A84C9FF8886D999CD63DA6E9C9679AAC898C7D7ACAB9C76789E54D6B89
col13:   628989665A9BCCBD9996998B86F5BCBA54EAA9D8A9965CC88768989B98A6AE7CA74A4D7BC8AD68A6
col14:   A8594856876A92677CB37598B29A6959ED8D3DD9FC7977A9699A78AA9B6ABBAAD869B787774C7B88
col15:   A7569599967AC969B69A6F9B9A7672A96896ADB97B9BF9B9577DCABA9B9CBF7A9864957AC57AA7BF
col16:   13A7AB6958D66587ABA77B768DAB7ABAB9797C8E8789BA99AB7CB6BACA8DBAD759894AD7779E799A
col17:   4A9375C58A8676A7B5857864F887B8778BBBA6D8688A398689746CF8887875569BB7B89657597315
col18:   56A77774E6385ABAC488B6DCB5686BA5DAA6A7766985D6C79AFC9FB7BC876AB7AC878A47BC6899A4
col19:   97877972CCA792699847B8979CBAA8A9AA5A69B9AAB79A96AA8388AAE6CB7B87847C99AD78A87948
col20:   A4564576898B77847A8768A7D8C3A99A98F89749BAAA77CAAE887A789A4BA55D6B975C887D57A7AA
col21:   97566569B888BA76B7C69BAAA967BD887AC597AE694A4B57A6C5CAB7889EB5ABB24B97996AA68B5A
col22:   F6588588B7E878C5A64C79B7B7999A68BABAEC89797CA9BB8CC9B57BB389796C778BA897B9A7C9C7
col23:   568842AB8878C22AA66A578A7C67677B6A8C9C7959A4EA6A6993994C69CCD78E679DC9A7888A2477
col24:   2A68B7768985E63665597598784BBAA998B6A4BD89B89BC68CCAB999E9B9DA6C9EE5B787ACBA988A
col25:   8378B6868898B5767A479771987B9CC5C79B6868ABF8D4B8DA787A888979A4A9B966EA64B9697782
col26:   5A47989B3BC94A7A974CD99D6C9995E9ECBCA9788FBCCBD9CDBAEBB8FCECADC7ACBCFAAA6ABBA9B8
col27:   996AB799BB9CBE76A7AA5AC8D6BDBFCB97C6A8CCCBDDACDC585ECAE5ECBA96B8ACDC567AAA88BCE5
col28:   8678658C9DE99899CBC58B84AACB87CA986A9EDB97CFABA8BC9DBBAA7CFC5CB5C76E669BA99EF6B6
col29:   96B88B67AABEB596A768C7897B96EAAFC7ACFA8F89CA8ADFAA7CD9CB8CC685D6ABAACCC9BDAC7AB9
col30:   C73B66786B8A6C99779C9FBAAAA9DCBCEDCE89ABBC9BE9C8FC8DE8E5BEC8A9AAA6CE8DAFBDA9ACAF
col31:   7B8ABB9997898E799C6B5EB96AEAE6B9CB6FAA9B76AC9DA8CC3DA59BA5C8FB9D69BABBBBC7B657CA
col32:   98F67DBBBBA6B9A87BCA7C79ECBF7BBCBAD84CF9F9CBBCBEECBDD7B8EBFAFA8BACB4ACBD99DC9AA8
col33:   7785BCEADD83869A8A797ACB9CCABEBBBAE78FDFCDDEBCC6BDCCE97B8CBAD6AE9BA4CBC7FAAAACA8
col34:   897DBBB4985CDAE9DC88B8A8AB9797C9EE9FFDBACEAB89D7FCDF97C8BBAEFC69BAEB8DDBB88C9DAB
col35:   967C8ACF6CAE865A7998AB7EADEABADF7FD8877D9DFBCAAB9BD6BD8AAEB9DB9ACDA6CD8DCEFAAC87
col36:   D6C6C787A799BCDBCD8E9AECBE9BA7BC7BCFAFBD7EAFBEF9BCF9B9DB99CDACBCBCBDEB9DCAAB9CBB
col37:   778993ACA6DEEB88E9BBE89C8B9C8DDDAB7DA9D7DAB9BECD8BE8CAFAFCACBEDECCCAF9BB97CEA8C7
col38:   CC94AA6BEA98F98E89B9B87B89BACB9DAC9F8CDD99FCC7AAFA9E6DADECCCFDAFA99BAB6EFACBC9E9
col39:   DEB49D8C88DA8C976CDB8B9BBD78BFAC9AABB6EBADBA79AAB9B9D9DBFC7ACAB8BB8BAACD7B59BFE6
col40:   5179866BB789E6BDAEFABF999877EB9DAFBE9D8BFE8BFBC9EAF9EBECCCABCADDDAE9C9F9ABAAAC9A
col41:   767BC6A87EAE95967AA7A7BAAB9BAD7BC89DCAAEBC66C8EDC7CEDDADCA9FAE9CDFBE59BEA6D88AB7
col42:   A7C76995DAD7A97AA937AABAC7CCF79CED9A8BAFABFAFEDDAFCABB99A9A7BBD5BDADC8D7ABCF6CDF
col43:   5798899B7CE7BAB8A99996AB5E9BDCBCBEEEDAA8E7BE99AC9CBDA9FD9BC9DECC756B78CAE86DCABD
col44:   3E87AC9B7DC68CAC49C9CDEBB9DDBABA9D9FBBCCAFAAECC7E7FB69D9CDCCACE887BBDBCAE7CADCD9
col45:   8B8896AB99A9DACCCD5DB79DBFBABABADC9E9DCDBCCFADEDDAADECABB6ABF9DF9F9BBD58DDFDC848
col46:   98692A977599CCAE88AC6699EB8BB9DF9AFF799DACAE6CCCCED8AAC7BDF9ABDAFDAFCC7AB9D5AAC7
col47:   97887A98D89EB9787D89C6C86EAFCD9CA9BBAF8DCCC7DAFADAC9B99ADCBEC8CDBCC9CD9AC8CC88BB
col48:   5B96A8A9A8D9A9D8D7DAAAB58B95CCAD989AEBBDA8DDECA5BAAAAACFB7AFD968ABB97FC7D6B977BC
col49:   A765D657BAABD488A8BCDCD8E96D7DB8AD88BBFBA3CD4EF9ADA8B6BDEB6D8FAFBAF88B79DBCEAA8B
col50:   96F5AD66E4ABA7899BAA7ACCBC7CB9BBBEABF8FCBDEFEFCA9D7D9CCFBFBA5BFE7C99D98A9DCC78DC
col51:   6575695D8BA78B996989A9EA349512A659BD3888788DB98AB92BBAB6C887A9597669876B988ADFB7
ROC:     BPix_BpI_SEC3_LYR4_LDR12F_MOD2_ROC11
col00:   969466488C8845A875C6C8699998B89A97B66783797C8995C9BBAA9769AAA78AA98659597A879426
col01:   6AF75CA6489E8AA85994B7E99ABE6FA7ABB7B4CD89BB69CAB9D5AA8E6F99AA96A9B5A84649124864
col02:   6A88455794A886568897BB7B59AAA88DA488C7CDAE5C985BBB8E8888897A9B67B864E8A4C8EA4628
col03:   7699A74AABB7879997B688BB8C68CE8B7AA6C9DECBB856FBA4979B99A87A89CA788A3C79889A8799
col04:   A588D598AB78A6A978A38D79BA9897AABA85BA87FABDACE9CB88C786569A8AC7AAABEA7896B5BA44
col05:   7A8A78775643BA79BE2CBA66A7DCFDAD5A9B957A9C8A8ACA4E6BBB88B8B56C887876899A17A68767
col06:   AAAA876A778B9D679C756C8ADDD89F68A7789DBB9BAA49CCEDA97A9AECD4675D88EE9568A969798B
col07:   756C998BC56742B888CA79BAA92BE8D9A68FBAA9997897F8B5AD9B87D7BDCA766952489578B55733
col08:   875B6D3689CBFB8ABA6CBABBBB88DB4D78B5AB8BD8AA9B775C79BCC9ABBA9ABAEB9B966877582899
col09:   C8778CA9B6A8D5B8BACBBBA9BAECB88DC9D8B977DBCBCB6B7FDB8E99CA8B775AA9897C589A79A668
col10:   8B6ECB86CA9B869ABBA69C599F6C76A9CD39BAE5898A8DBBA98A58CC9BBCA77B88A78D4578899667
col11:   9974C9977B98B7877B8A4CAABAA6AAA9A9BBC98767A75CACA84AB4D598C575CA83B48ABB3465689A
col12:   C37778A889885C8998697C58B69B86AFCAAABBABE6A378A6DC99BC95DA9C691BA9D9949869737A64
col13:   95569C4B78B968E56C7BC868AB82599DAACACD5BA969CA9CCBFB997984CADDC75994A99877A36964
col14:   A8959C6B6778B87AB76979C9AADF98965C7C99BB9A89AD94DC8CA79CACCAB7AADBABB5BDA8773984
col15:   B7A65696A3C6B5DAB7AB989B48A66BBBDB79599B88C5B9797944BA9BDBB9B5F9A596565658677888
col16:   7745E97A7B3AC79DE78C9CA88AADEC7B9A9CBCB88D6EBDEBCBCA997B79794FBA799CA79C6B878885
col17:   9CA2879A96AC9855CAE8A8AA68B7886696B5C66B86899CB7989BAC8AB679799AB66779A29A7838B7
col18:   B7966CA9BBA777A96868EBBCCA69ED9CCA79B9BAB8D69B9BABAF4B69ABCB6BBC847AABA8A4857E6A
col19:   6BA9B8AA56597A5C944A8578B67A768C6EB98A7BB96C95AAAB9A79B9C8B8BBAA898799655887A887
col20:   29986A7369AB4AB759787BC6B7A36AEBB8BFA9B98A99867AC98965B98A8A87599B8B974684869897
col21:   5B7997697BA789A96979AB799986A7BBD98A89996876699A98A67C8D877A6A8B786677A56AAB6589
col22:   967877878A98B9C59B988499AB9B98AC785BA6BAFA9D7A97A9993C4ADCADC7858B787B8856766779
col23:   855885987A969B69AA6C65B93C9DA98697A9A89B8889A786A5BD96ADAAAB6CB7976D7D967745659A
col24:   8A68B9978BB8D9CD3B5697A9699788CACBA68AC5AB77989A79998BEB8AC6F57B94A476687A7A8983
col25:   7498A83978B97399988C6B67B5CC987BDCA3AC9979BDBC9AB67A7A5879559B9BA966464884879592
col26:   B75AAB8A9BC786B79AAABA9A9C9DBA8AC9DDBBE7A6CACCCEC9B8CB8BD7BCA67A7B9B9CA89B385AC6
col27:   AD7C3A889C8BB9A888B8BC9EB9988BB9ADD9CD67EC6BD8CAD77DDB8EA9A9C69D865F7ABA86A96876
col28:   C59DEBA99DFD8A9D8A8C89C979BBBACDBAC7BDECAEBAA7CE77ABDD88ABBC78889CDBBCC8CB74E967
col29:   C9A8779BAB769AC7898478A6BBCCA9CD79DB96D9B76CC49AD575DBA7769B79868588C88B78B95784
col30:   BC5D9AC6A9E99C9B9CCDABBAB99FAAADECBCA8A9FC9BABF7F8BDAC9ECCABDB9BCCBBAD48A79A89B7
col31:   5798C8CBAEC8BBBFEABC6BD9EB6BCBCEA5D8CA9CCFAAE6CFD7CB9984BAB6ECBB7BC9A8969986579B
col32:   BA8B8CDBAABCBEABFDCCC997BDC9AADCFA6BBBCFEBACDBDA6BDB7DBCDCA799E977A8997A8B685B95
col33:   6B7BBD59DBA8F9CCCCCBC89CDA89AAEDC8FDDEBCDDCDCFBCE87AC9DCCBBC8778A8CCB9AB8BA8AA97
col34:   CDA99CBABAC9CAB9B4DA6B7C9B6F7DA98CCB8F8B9EFADCBAEACAA9BE9ECF7DBA966A87999DCC7877
col35:   EBA7B68BBBAB9CBCD7ACD8ABAD8C9FCCCCBEA968D9BEDCCB8B98F8ADA9B4DBA6DABB9EB86A9AACC8
col36:   BBD7BAE5DECAADADCCABAADDA5BECA9DFFC999BCCDAF8CCCBF4D8BC9FA98BB6AF9C859D9D9CCC979
col37:   A9BB8B7AE9B65A1B86BAD8BB99ABECD8AECBAFBECADBBDCDDDBACC8BADB8AAC99D78BC89EEB78CB5
col38:   98FACCCC6CAEBBABCBCB8DCDE7D978BF9BCCEAABCDBAEC9BAD9BE9BAEBDECBB998C7BBB7A9C9EA8B
col39:   C9B59ACB89BF9CCAD99B68FAFAA9DDEBEBC7BFC9EAD8BACADB9EB6F9CDFF819BAFAAABDAB9AE8857
col40:   AD9D7DDDC7BABDAB9AEBA7CBECDADCCDD8ADB5EBEADEBF9CBB5CF6C9ECE9ED9BF898976CB98A99C7
col41:   98ABE77DBBB898ECCAA9FCABAEDBBD787B88DDCCC7B9EB7ACAACA86BBEA8DC9AC7A7ED9894CB8C92
col42:   AAB7AAEBBEBFBA5D9CD9FACABCECEDBCCFADF8AEEE93AAE9AAAACFBCD8CA86ECEFACCBAB9C9AABA8
col43:   AEBDFAA7ABFCB9DCADCFB78CC8DB9FBCF8DCAAAFBAA7AEC8A7EB8F64AFF7EC9ABD97CE4A777BB788
col44:   BDDBFC9AFFACDEBCBDCFCBABDBDCADCBFFCDAF79ACCA9DAB8AABA8CBAD9AE9BBEEEBAC898A7ACF8A
col45:   27DD898CB9DBBDADBDACDBEACFCCE7B9FBDED9AD9C8CCFBC7CC99DE9A9CB8D9CAEDD8D8BADBAAD88
col46:   A9DDD989B878CC8B9BB9BDDCBDDDEBECCFBCFDC89DBB6F9BAEFCFABCD6FB8BD99AC8B79BAA9868AC
col47:   AEC3EAEA9EBA99ADB9BBE867BFCE8ADEDB99EBBCD78B9F9ACDBA7CBBEBDB9A98A9A7A8799EB88AC8
col48:   E6A8EFD8BEB9C9BC9EDCBBBAFBDBDCFDFADB9F86D98AEADDBFEB7DECBEBFCEABEB778AB788FDF769
col49:   9E9B899BCADF898FBBEC9CDDD8EF9B7D8DC9EB9ADEDE8EAD5B6B95EECAEBBBAB9C8B89BB9C8FC967
col50:   BACBFCC78B9ECADABFA9DFBCDDCFEDDBEBA89BEDFEDCA9BEE8C9BAEE9EE8EFA77C9BEBAD9C9FB77C
col51:   967E75BB75AB7CA89A9A9B8BBEBDFBE7B69A78989966465CA8B98E99CBACA8B986C6593C29789989
ROC:     BPix_BpI_SEC3_LYR4_LDR12F_MOD2_ROC12
col00:   88B96B8698978AA8AA879766D97B975A598CCAA93D88B758888857AA877478835636872697256543
col01:   B999BBBA98A98A7ADA8499987C77795B9C87ABC88657AACB8998CBA5756996367A28955587735894
col02:   B86EFE9CA977666C9A897B8D8AD6C66AB84BAA88BD96466BDB4857A7658AA6687841779456469467
col03:   B9DBBA5C9ADD7878A8899A89999BA8977A9A8FBCA2A9B987B789B856963B8A577C57A8376787838A
col04:   67DCC98AAA794688CA99A989CAAA8D9B8CAB46AC9BA9E839574A69A4B3AC8988864786795C584A56
col05:   9AA9C687B9AD6CDA67A9D95BC9DBA9788A9AA92A7AAA89BA4C5786786C5A779657B8676786639328
col06:   8B6B9A976AC9F977A9577D8D978AA99B5988889B8B6B9556799AB5A69B5A4579B6936A8777578585
col07:   C67BD786F9A9C9CB7B79AC9AADACCB988672EA7BAAAC5989B9B699BA6C766A553857779966974375
col08:   6EA9AACA98878988A99CC8B768B97DD9978C8BA876788C77A7A6BAB8A4AB5CDB536BC47798943B17
col09:   AFCA8CBB8B6A97DEB8AC9AAAD9A68BAAA886889778DB74693CB86B96A69A78A6C666B7B794689759
col10:   BAEAABBA996A996B9A9BBB4DA9CC389A7C96A6AABB99E98B9A7B895689759877B65A578854767A34
col11:   BA6E889A9A86B7688D9FA9A8AB6BA8AC9DA69A9889B899C869A78885A88A777859754777435A4222
col12:   A6BC99C9D9967CEB9B9C8CA57AACE89AAA9BFC895A9997BB9A79B979789446C6756857999323A624
col13:   A77AAA9999B9BD5B7CA86BA876BBDAABAEAAB7389298A5C89B868AA879D468789765A2799B676473
col14:   B997BE98AB9CC98CAF998B7988B97878A98899AAA6B98AA8BB6BDCA8946763A757638A6765967695
col15:   ABB6B99D7BA69FAAB7B9A859D8B6BD87CECA87AA78C85879A9898768C25A66947886894865368662
col16:   AC99AA7A88C96CA7AAA6B8B997B7798C7999C975B8B69AAAB947C9899BA9845556868A866AB951A4
col17:   CC994786AC96C9BC9BB6996D78BB98B5999A78DA78E5979869C89957795895758679766665655455
col18:   98B64AD789DBA3B95BCEA8D8F5B98485CBDD77BBB9569ACC799A79C88BCA6AC97785796797745952
col19:   BB79BB676CAB9C9B896999B75689BACBA99A89A9C8678C94A869795B7866978AA459655865736969
col20:   5B6A8BB67898989DABA98C6DCAC989A5779A8BB9ACBA985BC8967A8B87878B7C769A5C9785788483
col21:   9C96BABDA8D5986CA8A79ABBADAC7A777D7EB86CCCA878825897DA989E799797A956667A19879247
col22:   A968C8F9A9AD7A8B67BB8BBBC58E7DA6989CA9C7AA7A78CA9A75A8796557BA5A758885787C718966
col23:   C9B87968B849867A9ACEAC6AAC87BCA68AACA9AB78563AA79B79747787BD779358569C8689757827
col24:   8A98BA9AA99977AB9BA97AC7A8A877BC68E779ABBBE9C844B6B97BA96688989D58654767AB986B59
col25:   A8C999ACDAAA7CA87C99A67B6C989AB58C96D8CC87AB89B686A8A5BC69596A2485489956284475A4
col26:   B888CECAA99BCABC5BBD8CAADB7A87ABBB8E8DA789967BABCCBDDA8AAA6C9CC9CB87668A8A4956B7
col27:   C89BDCCCD9FC8BEBAC89FDB9ABB88B6CDB97DBCDD8AB997C7E96977FB67A9699AB7689AA99A5C567
col28:   CAB8EDAEE9EDACC9989AADC9CC9BEDA5A6D89898B8AA7AA98888E898ABBA6BBC9899A996A9565579
col29:   7B9BD7C7ABBCAC996FCCDDBCC89AB68A8A89ABB8A88987B97A9AC6DB8ADAE5784693C769A8778769
col30:   CCB8BB97FB9CAE9FDBB5EBC9CDC9DCD9DCDBBC7AA9D89CB6AF7CA9A88CABBAC9ACB7974989847AA5
col31:   C99BD99DCBAAFB98ECBECECCACAFBCD599BCA797BCC898DC8AD7BA9764CCDDC7BADA68D655CA997A
col32:   ABC6ECC9ECCFECCAB8BEEDAABCA5DCBAAFBDE9CB97C4F7AA7767C79CBCAAEBBABABE96B9795787C2
col33:   BB8ADD8BBDCAECBD8DBB5E9FF9B8CBA9CCDBA8CAD9ADAB95996D8A6D79A8B9A6B8B9BBAA6B79888A
col34:   9BECBFBCBBCFBA8BAB9CBBB9BBCAEACABB8BE87788AAABA8BB7BCC569F9CD7CA8B88687BA7B6AC95
col35:   CBB9AFAAB9CDDBCBAECBCCBBAFD9EAC9C6EAC5998BABFAFCBCB9A8759CAA993598991B57986998C6
col36:   BDEFDB6FEB98BDA67B5B9A7CB9DAFBEBB97BD4A9AAECCAC6A9CB9CCA9A7A888795A89A86A869766A
col37:   CBDDABCBEFCBEBDC8BCFBBCDAEACDEDFFBDBCDBECCA979C96BCB8A979FA7999967689A727688A9C7
col38:   EECAA8A8CFDBB8C986EFF74DEDBD8ECDB99A8DCBDDCF9ADBBCDD6AC8A8CC987BACFDDE29A987B399
col39:   C9DBBCEF9FCDABFC9DC879BCF7AEA99EF8A7CB8A8BBDB8BBFBB98C9D579ACA8B9A58A6B8B688E894
col40:   BB99AEADBBADDDBC8FDAD9DECDAEBE8CCDFDBBC9ADB8F5BDABA988B99DCD99A87AA6CB7AC9B9A6B7
col41:   BBCEE99CF9BD5DA99DCBECAAADDFB69BBBDEAEB999DC897AC9BC997A9B5B9CA9C86B8BAC65A59C65
col42:   FE9AC8E8AF9CFBCBFCACD8FDACFBEDBE9FCEEBF9CAAA55BC9ECAAC87A9787B483B87A7A87B5C7C6B
col43:   CCCFDB9CCBDB7BBDCCBFB9AFDCADBABACDEACCFDC9F7F99BE897DABBCBA89B9BBA57A8B8A9A6B9B7
col44:   FFCAFFEA9EDEDFFDEDAFBEDDEDDDBA9FFDFADF9E79ACDCDBDFC79EBC9CDCC9A7AF2C88D8AA879856
col45:   CBAAC9DDDAFCC8AA8DF9CBDEE9BBEABBED6CDC6BADA8CD7AE9BAC9CCB9B8DDCE89B66A997AA7EA66
col46:   CBAECE8BDB9DACBA98DCBFFDAC9B9CA9CAEBBBA7CC88D88AB9BDCBDBAABCBD68C9A6A7B998A96768
col47:   DB89BBA7CBEDCAE8CBBDDADABC6CABBA9CCBCCA6D8BAC98BC868C9C77B7A8AD9C89A48B76AA5AAA8
col48:   E68DC9B89BBCEBF9CDBEBBBDCCDAEDE8FBCAC9CBAC8999BA9CC9A9EDABBCAF9DA87B84A8B8B7B868
col49:   BCDBBCF9AADA9D7ABDEBDAFC6CDBADDBDBBB8B9FADB8BDA6FC8EFCBCB9AB8B6598B9A5A9BA8BC8BA
col50:   9DDBDC9AC9CFBCCADC9DC8CBCF99BCBFCBEBBCCEEF9FBABC5CEB64EAACA95AA8D9B87CD7ABD799B6
col51:   C8BBDBA98B9BABADBAEBABADD9C9A8B8AA4D9BA8A59AA93B9767889898A6AA4AB78589B698865457
ROC:     BPix_BpI_SEC3_LYR4_LDR12F_MOD2_ROC13
col00:   4586381C1A67834D887D769BA89B68A69888BA85572887B2AA68669597C8879779A4251463853363
col01:   76B76A779A977759B9799B69C5A98AA3788A7A8A9B95BB88A5A85BAA7B397AB79956716795613353
col02:   59788849B87B7B588B593978A3AAEB68C97B9AC799D76479556B9657959158797B66735887A57364
col03:   9B97B8857A6B78A7699D7C8898BBB8887A7A89D1699A95A78778A7AA76678885B965645756223257
col04:   27AB966A78A9A85B93A76DB9A97969D7A88A96BEA5A57A784968588C437AA997998665A9639A5A54
col05:   737689A8778779A978484E98888C797BA9B68B88CE7BB978C8986664D9588699A578986943215572
col06:   A5B656977A657C79C9C8889A979B979BA99C9956979698B8869AA68596AA9545A747699859683646
col07:   4645896A69979396BAA56888AAC9C9489A97976AA769E879A6A8A89AC8A6A89A3546927749749864
col08:   7A849B5177779235758A9889B797A789ABC9E6DA797B6797BB69AA8AB546B5687769A95656419697
col09:   948BA6B9DD5A7B718E9AB74887AA6BA7875DA9A79C8C5BC8CFAB8959798D589C567A7797A9857667
col10:   87AA74BC387ABA7366A7997AB8DAC8A8AB9A7D77BAC8A8AB768789697A8B3867565A818277655573
col11:   B76266D87B7A898A8887B6B78889CA85DCC997A998988AC8CA6C989658AAAC188578754255A59525
col12:   4966794677584798BAC66BA997BA7A6A96BA367899CAA965AC49689DA78B36658894673597238321
col13:   46A749888A597558797A89899CD856ABA59FB9B5A8585988959A599A876A86A44797A95929584692
col14:   65A9A697BA779A95AA867BBC999998A99544B8C9AA987896B686B9D9A999B7975578819685775749
col15:   695987E9996966A8A68C7A69899C98B9A8989A79A97A878A8C77AB6A67A9D7B91B66947954375452
col16:   B978454A5C4A7698578A7AB6AB88887B789948799D99698994AB885BA8A57A679869B87BB3847745
col17:   968473785764884A89338958579B6838C589765586786697788AA6568788779978984B8477527643
col18:   A6767564BB476656958CA89678AAC78A8C6AEDB988978A999A8E877999BB94668698647A75333653
col19:   A93B38778A25878A76979587D78B9B697967599877978D687B89768A8CA3B889A883588516726171
col20:   45568685A819798C66787768789C7568B488B548BB6786A99A4988CBA8875268A789637856784377
col21:   8687367A67687A98959A8BC6B66B6A98E7AC9B7A4984B594A966A9AC6C7528754398853675563314
col22:   A5666789A7444575777788A759784A794A9B9873566C987879675BA788769566A469556525254615
col23:   597AA875796898369679477786A989958BB7A77766C7A79996667B785698976585857567BA89A516
col24:   86486669A4E857288877885A85879897D888AA8899A98676977889887A87A6667857A85356975445
col25:   76578887A888879A87B7857A7B99D989768869A5A84A867668A468587784A7665957B94496727183
col26:   BA9B9C9CE8ABA9C96C669D9AEAB8BD7A88997CBC6DA99977BABC97D98BB9996688B79769645A9956
col27:   AB88CA7DAAB6979767BBB9798AAA58AABDBD788797A8BA99BBA9C747AA78DB9384C687A9462D95B5
col28:   79C88AC88CADBA99595C9988DCA8C66C879FB2CDCEA9CBA9D8A88D7898AAC879BA717BB5AA884A95
col29:   98AAAB888767999DAAC9AB2BA9A9AAA769BBAA8B5A4AAB8B49AA79B976BA97AD79959957891A5859
col30:   5CA9AA979879D9B877ABACBB997B9E8BBBB8BC9AABA9D8A8C9C88CB88CE868B8B4BCA677A677A366
col31:   AB8663B8C8B779A7786987ABBBAA898DB7E8DBA9BCA7B6DB5A89D62BC9DD888AAA9A98AA47A67894
col32:   BA79B8EA57A6A79B7A9BC95A8AA8C89769D6DCCACBB9DB979A8B9DBD94AC7997CB9A6675A9A97746
col33:   CBA6DB3F75B89B99A9799FA8AC68D8BBBA9BBA9ABABBAC8DA9B78A89B78D898AAB98887757776358
col34:   5DACAB99A5CB966BA9D79B8BCDA9BCE8AA8CC9AA94999BBBCCA6AEDBC68F8BB7348AA5A576977857
col35:   96A8ACC8D5A6799BE78FA998BC9ABADAC779B9AB68E6C848CCA6A9B9A9B9A7B6BBAB98B5A8558776
col36:   BB9AAE96BCA8B9A9A9FDA898EBC8CCDCBDDBA8BDDDACDAAAB6DA888BAACB5C78BA75B77B9967A769
col37:   C7DCCDBAAB58BB8CE9DE8A9AAAA9DAA9BDC9CACFB9BBCEAA9DACA8878DED8AEE9A879A69887B8897
col38:   6CB88A887859ACABA7877CDAA9BBBBB99E96C8BC79EC88BBDDD959C99CA98A6BA87A8BB9B7CA7884
col39:   9AB59A9AAA9CC958ABAB9ABCA7B69CCABB8B9DCBBBEA8E6A9A9A9BFBCAAA79C9D8B79DA855366B78
col40:   B58BA9B7B8866CB8FA9BECCB9C7BD955ACD98FDAD9C7E9CBB8C9799B9C8BEFBCCA98BA9D677A8CA5
col41:   C689B8DCDB6A3CA8A999A97CCC9DDDE96CA8DAAACC89DCBAC8CD7B958B8BBADE9AC8A786A58EB773
col42:   76A97D8D98AB89A5EB7CB7CC5AAAC7CCDACA9889ECAEBC76C6AADAADB88BB88EABABFD9668779683
col43:   A9C8897EBBB978ADDB989CBBCEA9A9BABEBC9CA69D89BED7CB9B98DB9ABBBA8F796CDABAD697658B
col44:   AB89ADB9896BCADAB8CA9ADC9D9E99FABA6BA9CDDADD9AEBBADC59B5ABAD98B878A9B69DAC994999
col45:   AAC976989C9AD8AA9C6BBDCA997ADCEAFCEFABBCACDCAB8DB99E798D8A959CB96B998D8AA15BA653
col46:   9A98EAAD97B79976BAA9CDA8ECA8BCCBABCE9C8EA8FE5EBBABD89A97C6ECA8998A88656667B87366
col47:   5C98C7A9AD6977BAC9CAE4DCBCC8BCAFCAA9CABAF97A8BABCBA9989C8BDCB97ADACA777576A75966
col48:   7596DC9878CB989AACAA7ADF9BA8CB7B9ABBDACCB57BC8B66BC99AC889BABCB9AFABB99AC8ABA588
col49:   88C7A778BBB998C98CA9EBA7BAB99BADD9B9B8ECB9B77C9BACABA87A67D7AAB56AA7887AAA69B976
col50:   9BB669A37979ABB9AC899DA689FCDB9BBDECBDDBBADBAACBA9CBACBFAD9EDA8BBB89B9874A57898A
col51:   A887D9AF577585B7CA75C9AB69D996D799B545B89A9B877EB5A6C89CCB9A97A69A98779536557431
ROC:     BPix_BpI_SEC3_LYR4_LDR12F_MOD2_ROC14
col00:   515A52233594346585468649C5656B78B7B8AA798C8BA99AAA996AB699E9B66A9AC9A79AAA7ABA97
col01:   65264583796257589578A584889C8689778BAA8CAAC9A7BA478BB98DCCB7AAC9D7D9B98C77CAA9CC
col02:   547763538566885482889B778CC96A7B96889BCAAA9C87A889AAC8ABCAD9CBD9CCA7D9AADB9AA98B
col03:   7326556427764A816569976758867968AC59CA779896A999A88C99A7BB8EB6A889D9FA8A689987D5
col04:   3651544239935593976A4A79775499958777E8AC9A9BBD877BB7CA7AB8A8CC9C9C7CA8B9AD97AA9C
col05:   26726388343953999565BB5986AD8AB9A79A8A89BAA9BAACD845BACB899CBAABABB7AAB5A99A9A89
col06:   244469357A68577478BB9A667928C6A888A994C9BD6B8CBAAA877BD9AA788B9AABAACCC9B86CC7CA
col07:   44265444759747475545C8778A9796885B87988798898DC89A8DAA979C68A9C9ABEA98BDB9BBAAC8
col08:   111555135688555577641A97553B9A6B678A978BA7CC97A9A8BC376B9889B9BAA977CB5B98ABA9BB
col09:   437A466887869353676A7856AA9977769795B785A9C66A6CAC98AD9ABACAABAD8D7CBAA99EB5BB7A
col10:   64225648336675859999798756A7C689888B99B5A99AAECCBCA98AEFADAA8C9B8B8C8C9AD6BA6A86
col11:   63666348673549356566D6747786B8786487A588789B966A7A9B7ACDBA9A9698A9A76ACA8A9B9ABA
col12:   4464345654717438947787769B77976B76887D77B88CAB598DA98CA985BB8CC8CABBABAAD8BB99A7
col13:   322411667363457853652867569693798986B79599BA68B996A88C899BCAA98766D799A9AB989ABB
col14:   48757221A542784465876A866668786BC786A7ABCAC6788AA9C9AA7AA6A9ABCBBACA8B9DBACD789B
col15:   62723485374446646565A3889887A879867977A8C8B98AA9997AAC8CD898A8DA99C79A9AAB769ACC
col16:   635865513674648758596A779999A88A974A89668A98B5A99A8BAA8A9C99EAA99BACBADC7C8ADAA9
col17:   1134454576532562868A66946798A768399698A769979BAC8668889EB7AB6BB89896DA597B9AC69B
col18:   143367434472738869865696957978CA6B6BA3A999B789D7C6BB86B9A8C8B9BCBA99C87BBCAB8CB9
col19:   22335754377A3697467588687978978879BC779AA98BA8A89E87A79BAF789AABA8C6B8CA98AA899A
col20:   73542545616577A877547B5778427867A95A9AC8986989AAB9699A9A99AA899A8DB69B6AAB4AAA88
col21:   5123147867663569578599A69579686AA96694B9BC9BA68BB8A6A9957A9A8B9D6B8D9BBA9898AD9C
col22:   544122765867465896385778793697A878849A7B6A999BAA9BB879B988B97AA8ACB798ACCADA889A
col23:   44334731547337757646956576AA59B9587AA887A9A88B9999B7ACCBC886859A7896BA8A79AAB7A9
col24:   61335334215235937A476778887677A9896798C77AB5D86E98959AB699899A9ACA8BA979B9BD9C96
col25:   522346519266447489578578356A77998695777989A675998A88A6BBBD8B8AB8B876BACCC9CA8E9A
col26:   54756384656266647A83766B6B8AB9ABA7BB8BADAA8BC89DA9A8BA9D8CBC9CBBC9CBABB7BBAACAAE
col27:   375264665886386743A77979588BA8A88A7B96AC67A89BABAB6C7BA8ACA7A68CCBBD9CB97AA7DCAC
col28:   6536B6589657A69586987ABAAB6B9AACB77BB9CB99B89B99BC9AB7C89DBBEDD9DDD8CA7C8EA98DCB
col29:   67454351A6969778899897838566A989C7A9A9BBBC95898ABC79C9A8A98AB879CCC9AAA9A997BBC9
col30:   5438A45747996559A788851687BAA5A8BBAD89ABB99D9B9CCBAB8AAAAC98D8BC89CDECCDBABCBBAA
col31:   954646776676987B677476A678AB688AAAA88869AA69DC89C9D5CAC99CB9BBAA7BACCBCBB7EBA9AD
col32:   565765586887977778659BBA9A79B88999DC9A9A8899FAC7B98A8ABCDBDCAFC9DC8EBAF99EFBD9BC
col33:   58433A63A787765556B89BA8BC9A89AA97AB9C959B9DBB9AB9EAACAA7EAAAABB8AA8DBA7BCEBCBDA
col34:   279945798976367889589AB7AAA898888BB89AA888999CCACBCCE9CDACDEBACA7B9AEABBDBCDABBA
col35:   645886A7794647688AA6776A6897CAA5899B699ADCAAAA8EADF9ADCAF8DB89B9BBABC8CCEC98AECA
col36:   84655752597B887463A5AAA98799BCA998DCD8C98A9C5C9CB7ACBD88ACCCACAC899BE8ADDABCABAA
col37:   656457A373557BA96969A6879A9A84BA96ABDB9BBBBDB6ADBDFBABDC94DACB8CE7BBDB99A7C9997E
col38:   3574568867788898788A78A688ACD88D8E8B9CBBCDDB9ADCCCBDDDBBDBCBEDADDBCBCDBCAADBFCBE
col39:   47679A49696B7A7799A8898788AA9C79CBC99ABAB8ABFBBA8B9B98AD7EEDD8BBA98BA9DD9BBBDCC8
col40:   7489596697978978849985B9A97978A8BB9DAB979CAA9ABA6BAAECCAD8CDFBA8CBCBDDEBBADEC78A
col41:   775755C78765B495B8BA9A9B999697C897994ABBFA8ABCBADA9BEC9A89ACC9CACB8DDBCADBEBB8B9
col42:   46666456679659A698BB687ACA999AACB997988ABEBB8B9B99BEBBBDABC7BDDCAC8BBABDCA9DFAEB
col43:   563695765637858A6A8787983A969ADBCABAA89ABBBBCA98EAACB8DBB9BEC6B8A9C989EB79CCC9CB
col44:   824584585888A89887A8BB9856A9C89CC9ECBCBB9AAAFDB9AAB7BBB99BDDCCDBACCC8DDEF8B9CD99
col45:   54666862769346765697C7A9B779ACA75AA9B8CA9CBAB998B9DBBDF8BBACAECABACAEA99AABBBBDB
col46:   4656466B9359698BC67698799996988B9A589AD9B7DBAABECABFAE999D8B9AADBC9BBBEECCB9DC9D
col47:   656457866A656977599CB768698A7787BBC89899CBADBBCBB7C79BC99ACCBEBBACB8CBB9BCD9BAA9
col48:   17587855565368A779D667A99AA996B889AAFBAAAB9ACBABBCBB88CBDCAFCCDCDD9BBDDBBBDCEADB
col49:   2747946769557B868A97774696ABBC5BB8CC6BBB7BACADC99A988AABCD9C8BBADDB9BBBA7BBCDADB
col50:   2785865954689597858A7A7ABDBCC6E99DA78B7EA799CAECCBABFECBB9B9BCCDAAA8CCCACBD68FCB
col51:   71284395984B987645776686A87589988785AC5B9968AB8778B7B9AB98D98C9BAA9BCA97CAB8A889
ROC:     BPix_BpI_SEC3_LYR4_LDR12F_MOD2_ROC15
col00:   44A766164837C8B6966A8B4176B98677917CE67ACEA397997AB7749AAEC89A82BECB9C9785A9A666
col01:   A56746C788B94A558A5BA8698679A76BBA7B87BCBACDBF687AAA9C9AB87DECCCA944B4788ABD59A4
col02:   9B666889637A8688AA5989B789C8A88946AA77BC856BCB696A89DDAB6795D98BB97D9AA76798897A
col03:   5447BB979A96C39A882746BAB9A9E6C99CA3887D7769D8A5BBBABBE97A8AA98CAC97769B6ADD7799
col04:   78677196866847899727C98995EB5DA8B798D7AC8B59AF9B979C6CBFD86B8C79AD9977CAC7BA875A
col05:   6A64388A7AA57A5789898A87A8A96BAC7BCFE79B88A977CAD93C99EDC7ACB9A967CD6AEABC7AC97A
col06:   8967877A8661877765797A9ACF7AC8B8CBA9DA9954BB79EC9F8B7BBBDE9B9C8A8689BB8DB5857B2A
col07:   7A667AA75868A978689BD8C7CB9D9ADB7CBBBBABBC86EBB8C97CDDAEACAA6BEDDC99E8CAA996969A
col08:   69793599978A775767888976A8B978A8AA9A98BE4ABB889CDEB9CD8BCA6BBC8D9D6AAD8B9546ACCA
col09:   7B958688689A78ACB74A5988B679ABCCEDABCB8C8D99EEBA7BBA978AC8DDD8A8EB9BBA96997CA759
col10:   A6B565697678A968AAA56A8959AEA4C897A7776A9DBCABAC6ABA97BE99B9CC4BF95ABA7F77A7A987
col11:   7876AC96A986457B48A9A9B69DDBB7ACB6D839AB47C8ACCDA6FDCD7CFA99BA8BFE4CBA9B89B6A97C
col12:   8A946A4398894A96998786BA9879979688DAADBE5AC769CDB7A96A8DAEAAAB86BADD99ABCA899499
col13:   857769BA6678B858785D9AEBEBBA9CC898BAB89DDB8CE8EABB9CC7AABEBDBC67A7CD7BBDA779E8CD
col14:   8187785CB8676887BAAA88CABB9AA79B9F6EABAC79DB9C9ADABDDB7AABBFB7996C996B98AA785B69
col15:   59746778877985588A568BA996A8AC9A87C6CDACA9BC7BCAA7DC9AAEA9A5DC99EEADAA9B8968A7A9
col16:   887243468896796C7BB9A8B7AA5AAC89BA88BA978DA6FB89C6EEA7CCBCDABEB6BD95969B8AA96A7C
col17:   695316A3677CB576ADCA89AA8AD6EACBAA7BACBBC8978A8A8BA889898BA87A89CD6B999D987DE7AA
col18:   535654616AC8C476676A8B799A7A7A7C7AF8D7AE7BC97AEA8CBBC8A6BCAB9C967A98998ACAA863A9
col19:   473939A2A789937D85A98969BEAECEDCC599799AD89BD7DBC89B8DB69C8A7C9D9ADB5C9B9ACC9999
col20:   5857568B89944867633B587897868DC4DAAD7FC87EF69E9DBB7B8B8DAB89885A6A8CD9A899A66889
col21:   558767C847839989A9A59EA4A8AB7B8A7FB6BBDCBB998A98C8CC599ADDAAD9BCBAA8869D9BD9964A
col22:   3BA548635A876986BA9986A97AAEC8A9F886BA98A7789CA8C85B9BBABABAA5A9797BBA3C8CB85649
col23:   59A3466825B768886B6788B979A8BDCAD997C669B8CA89D5A689B8DCBA8A8DBA86A97AA77787894A
col24:   7B963C68A55996B95D68885979A97ABF897B89A6C9E8CDDAEC6CC897E6AC787CA7C459D6B898A8B5
col25:   546974658AF87AA8C96AE89C88FC856B4DE5FCBB87D9AAB9CDCCAEBB895BCD7B6A9CA8889AC6A788
col26:   5ABBA76B84C57898A7DA8A8E5BEAAB79C6DFBBC87EBABDDB9EBD86DCAACFCABAAA6A89BABBBAA9C9
col27:   9A26A548997CA46387DAC8A69B979CBBE7D5CDABB7AAEDCC9955C9BCCCBBCB9B8DBB8BCC8778A979
col28:   D4699E6A47797496867DB85CBC9F9CAACA9FCC9B7ADCBACCFFC75979DBE8ABB9C7CD9D8BC8EA6699
col29:   58578C74C9BD884F885ED998BA88CCABA98AFEAA9CB8A8CAE8CBBCD8AEC9BFB9BBC98B695A9CDA9C
col30:   996A75C7878A64B89898A979B97BCCC99AD9EFAAABD8BCC8C9AABD99B7CCAFBCC9DAF8DACB5BAC7A
col31:   D848989857A99D68AC9EBF9CB9FBCEEDBBAABBDBDBB9CABDCA9BC9C8CBBBDBBBACCDCFCBCA989DAC
col32:   788AB9989569C78C9B8AADABB9BAE9BC9B95FEB8BC9BB78FEDDDD88DBEBB6DBCCFCCD8CCDB8C4748
col33:   56BA8BAB577AD767ABCAABEBB6EBB6A6D8BBDDADCD8ABADDBC6CD99ACEBCCEBBDCAA9DC9A88C6CC6
col34:   97787DCA378A8A8988C79AA88BCA8FACAC8EBACCCCCABB79CBBACFABEDBDDDB9BBCDB786BAAB8987
col35:   B8CBB568987B9B8AB9ABF9B9DAD79FBBC99A8D9AFEEDACED9BCCCAF9ECBEADA8DECEBDB8BCAD98CA
col36:   B736D897BAB98A749BCA8778869ACA9DC9FC9B7CACEDDE7FCBDCD9C99FADA7EBFABDCAFEB998B8AA
col37:   9A68A8AAA93BAC88DCB8BEECFDCBABE7CFBCAA9DCACDEC8B8CBFADBEDEA8CCFC89FCAF798EBAACC7
col38:   783A9CDBA79788B7ADBF7BA9EB8BBB8D7C9BFACDBDFDABFAADFBFECBAEECFDAFADDDBAC7DAAA5EA9
col39:   556494C8788ACBCB76789FD9CB679ABDADBAFFE3BBA999BBB98DDCEACCC9ABC8A65CAAB9A88B983B
col40:   8A79BCA5A8A3DAD98CA8FFFE8B8AC8DCBC8CD9DCCEBCCBFF6DBBBCBCDC6CEFCE9BE8AE7CCCDFEC95
col41:   373676CA8DD7FAC84D8DDCCB8D9FE7BAB9FBDAACABAFDAABAE9ABCBEBFFEA5DDAD9D9DB6CDDDAE9B
col42:   871ABA8BC97A998C8C9CACCDBDF8FBBBCBFEC98BBCDDEBCFDEACFFFCBCFCDDACDFC9D8F8AAB9ACAF
col43:   7BEE9687BAAABBABCB9ECBACDBACBCADFCCA7ECEEECFEBBB8FDFCCFC9FDEDAA7ABADEAABFDEB88D9
col44:   A4AA6CA89ACCBD9FBC69BDAE89BB9C8CBBDDCCCDBE9CDCDA8ADA8EADDADCECBBCDFDCAACA7DBACA9
col45:   9B8AC79DCAD9E8A7CBFE9DCB8CB9CEDCBF9B9ACAD8CFBFCDEADFBBFDAEFADFADFA98EEDBCCBCA9CE
col46:   A5958A558BA96D4C989BDCFB9CBB9DDDFBF6CBBBEFD8CABCDCABBAAFFDBFC8FBFE9CDEEDEAEEA9DC
col47:   A78BE89CA6AACA6A79ABCDBC8CBCCFDBCBABB8C9EF8ABFBFCECFAFBDBC8EACFFBBEA9CAAC8ABACDA
col48:   C96BC56A9A8D99B9689AEC7988A9ADEAABFEBC9CCBCEFBABCD9C9FC6EBDF9CABBD6DEBCBADBA8DBB
col49:   A7C6BB5B7A8DCC6CCBA8ABFEDDAD9BBDAECB8BDCBA8FACAECFBDFCF9EECCDABABC9EDDBDBCBDBBB7
col50:   595CAC8B87C7BAD9A7ADABB89CECAC8EABCC8D7CB8FABCFDCCBE8FBDEBBBAFBFDDF46F9FCDCA8AD8
col51:   893B77A9A8A8678B7A79A9BB7A8CD8DE6CCBBDBC699A97D9ED7CA9CBBB9B89FC8BA8B6D8EB79CC58
