ROC:	 BPix_BmO_SEC8_LYR1_LDR6H_MOD3_ROC4
col00:   bcb96af7df8ad7bfeeea9bcedbeddfffffbfbfccfffadfcffbfedeffdffaffffffffffecff9ddcfe
col01:   ea89892177477867859c58bb8887aaa87cb79ad66b8da8aad9ab8ba8ddb997d8cd7c8d9aaaa6789f
col02:   c78599a3888587859594a67ab9d7aa9788a7a9bc6a6c898b97c999acba99acabaad978b87b8c998d
col03:   a68949778559667595695998b93bcad93a889bbabb8cb8abcaceaa98bc67b9bfeb8adb797cccba9f
col04:   996495866766bb8caaa7798a9b99779dcabb8ad7aab9b79aa9c9db9abbcb9da99acac7889aab9cef
col05:   b47c3466945a6a66b9a9998ca8da5859afb9c779eab79aa856cb5eeccaa74fdacdb7b9eb89cbbbad
col06:   cb4985a6889557b8479ba6a85a6c99b8aba677a7aa5b8bb987edc7bfbc79ab989d9999a9aa99895f
col07:   da91c938a8788a847a78c58a6a89ab67479aaa9fb9e9c978cb9beaaeab8679b5cafedabebb8764bf
col08:   f6474b68758892767a8b47a629accaaa9b3e5c8db989dbd768bd5a9cba8bbfab9d8bac89cbdbb6ae
col09:   a748398769857a899d9385b8686897465879acbaadb5d977acb7fccabad86879a9ab999a89aca9af
col10:   b4a5b9568686b9a798a97ac68a8a784ca79c4a89acccae8aa89aec9a97a778a8b6b88c9997dba9af
col11:   a72774ab75b5ba67a9eb6895fb88597b956988d6ac9e79a9c6b8d7b98abc69bd8859bc787adba8af
col12:   792996756b7b82689b9aa68766b87779bc76b7b97887d578a9b98a8bbbbdada9db8e899a77bc589c
col13:   86524879568dba4c95c768dba967caacb6a5bad99a8bccd2dacf69bb39caa9cbe9d97764a559df9f
col14:   69b34455a48aa88a79d5b978abcabb7cbeb9a85c9ae87b9a99ab8df9d9ebbd8edab89a8ca788a69f
col15:   82669959761a9699baba6c89b56cabccaee69b98a7a8babbc9ac9da5aab958bdbbcaad9a9925ae5f
col16:   679b3868a787a797bbba78c8ab4aba89cccdbc7cad9a898a87c8ccabbac799c899cb8bb7a698699d
col17:   c6887356541c98c45c777bd8996beaa97f97c8dcaaabc9a89acaefccbb897ae8a7ccc6b968b99c9d
col18:   d15682575799c99b8b6fc8ab597bbbeb67796aba57da8bedca5d78a9996a98465769bca94587a3ad
col19:   b285259785a6a938a678449c728bcab9acc887bc9bcbea7bae96a7988fc89a99bafb79dbac78b5fd
col20:   c94576165a688acb9b768c597b9b699a6a89a95daaa78bfabaacbe99b76c9ccb8ca9a779aa96997e
col21:   96456947865a768ac8c3ab48b8ab8a78dcb87b8ff6ea98669daab86aab77a9bae7dacc74ca6c885f
col22:   96885879986d8e97cc8ecbb6bbc96c9acaaffacb7ffaf9cd9babaacba7999498f5c75aa67b855a9b
col23:   a88676499a7677a7db79a8acaaa8c8a88969a768daacfcbba4aaa98bb56a98bbdb8ac78dfd8ebdbf
col24:   e9aab28ba9c778a95bb89b99699b66968c85f88976ca88987cabcd9ea9a6a8d8f4a8499c7bc4886f
col25:   f69a76979a75abe76c758a6993b846b8b7999789b98a8bd8bcd9a9dad6cc8bd8caa9a88bc89a996e
col26:   cc8c796887a57ac4cc9c9fbeb7a8c369a9abac7cab69fa98e9eceed9dbd9dfaad9abcccbc9a8b8bf
col27:   faa85959b94aba7aadcc96aa5cc999b98dc79598a96cf88b8898bcddc9e8ab789adefacbcc89f99f
col28:   e8ba9b9978a87bad8bcb5ba9a4a8ccc7ab9b9cb39a8eb8e67e8ceffcdad7ffaad9fe7a9aba893adf
col29:   fb9898aead6abb996696ab977adeea9abcfaa87bb9978cc89bbbcdbe89d7bde8f7d9aaabae9dae9f
col30:   f98a976879cdba9aa99b6897efbfbbce977d8c98e95bccaf9a8ac8d9ecdc8b87ea99dbc8a7accc9f
col31:   96b8475eba88fec9adabd7abbaeacabc99ac9b995d9fdbfbc9a9989bacbcbcd79bfb7a7aadbbd7ee
col32:   fa87bbe7bbbaaecc7c9aedb89deabad8accbc9bd9cc8a8befababacc79a97afeceedcaee9cb7ca6e
col33:   f9786b4ab8b96878d78bb5bc9e9eab8bbccacbb89aefc7accaa766a99e6b9bbddbbaaa89897ebcce
col34:   dc685ac877677aa7587abca99bccaeabca99dcc8a89cacbedca97d9bf9988bdb8efea9d8bcfb9baf
col35:   aaa9669577b949ae69baaa9769bade977a9aba789cdb6bb8b8baada6bddca7ccebcbfabccadd89ab
col36:   c9987c9a8bc8467ba8cde893ca7dcbc95cc9d99ad983aacf9cad7acab97ebc7a988bac99aeef989e
col37:   f66b7d979b7cba978b9ce8e97c8a899abcceccbdbbbaafd9debddbfbeca896ccbd9bcdbaa889edff
col38:   f8a68e8889954986baaccfa796aca8bbbadaaace78dcc75dddeacebff9dbea9bbbad2bcbcfdfe9cc
col39:   eab98bd8aa85889b89bbbcaaaa98889fc94cfd89d9b5dddcb7fd9bfbfc9dfb55d9ecdcbcfac7bebf
col40:   d9bdabc7987c8ae957cfd79a6daacbcbabbbbd8eefe8ccccecbccecbbdaccdbbcdecd9acbbcf8cde
col41:   f7948a7ae6878ea9cbc99b5ad99c9da7bdb8bacf9dbdcb7acbadbeadabbfbdc79efcadcbddebceeb
col42:   bb8fbf99d98bec5d6ac9bdc5c9869c9cabbbc9bacebfeed7ccdddedbff99cabc9bcab9adffd8bbff
col43:   f9769ac58ccbbfcc79bcb7abcbcb59bbabf8cd79eddc9b7ebedbbede9ebfadbcf8fcccaceccbbbcf
col44:   f88da4daa8ebcdbab9a7a9bd9cda6bfe9beedebcd9ea7ce8ebacabb7eddfa9defb82abaedbdaeabf
col45:   d84b9a98acb8ebad7a9a29cbee9da5bdbbcabdadcffbd9b7aa99ccd76cb89ed8887ddbafaba59cbf
col46:   b7dabc7bbebfa9cba695deceab99ed8b9fb8acebed5aefed7afc6ccdcdc8bea87bcbaba8ab4b6eef
col47:   d884e52e6a789badac9b7aaddb6dca95a9cadca9aae9c9b9b9dcbadacac97bc9aac9ca8a87bfd86f
col48:   c4a959baabdda29bbdddbc997afcc8bdaabd9dac8aedaedffbefa4ccebf677bbaeabba78a9eda9bf
col49:   ab868888bb99cb8fbdcbaaba9bd6999eaccab8bbcaabb9c9bad7cfc9caeaaba98a8bce9fcbefdb7f
col50:   b6398d997d9789a9ea9cfe97a88abfaffafbcbcdfeacacfcfdeafdf9bc8f9acba6afbbb9bcdc7c7d
col51:   babfcbdcfcfcfdbfed9fffeecfffdddfffcfdcffdfdfffffdfffefffeefffddffffeedefceffcbfa
ROC:	 BPix_BmO_SEC8_LYR1_LDR6H_MOD3_ROC5
col00:   ebffbdf9aedfabafcfffeebfdff8fffdefffbefadbebfaeefdfeefdff8cfffdffddeedfffbbfebcf
col01:   e8888a57b5293abc769fb9399a82bbab99cbf6de86baeadf9bad7edb79ca5a87999bd8a867ac7bdc
col02:   f754ca8cb6caa998babadbabcb893cb99b6baabebdbaa7feb7c2cbacf8bb9e99bd96db9a99a9ab7b
col03:   ba5666439c6767a6bb95bc8c89ca67587daaba8f89c9ad786d9db9cedca7b994c9d78c8ab8dceaec
col04:   db58fc9d78a6ac66bbcb7ac9c8aab8fcc9896bccabf9d89aaf6af66ca5bba7c886caee9387b977bf
col05:   d3b5868b9c7497ab88d868696889a768ccdb889bb688b9ac9ef9a8a48b6aead8cc9ecc9eb3a88a59
col06:   6991d375a7aa668bbb9aeb6698fbdd99eab87fbdabde98f6fcc8ccdcbd9aa9969afababaa7aa9f8e
col07:   e81c9ba79a7538679b9a799bddccde8c9c8ccdedfb8ca5a7ea9aacccaecad2e7cb9bf69ba8e3a678
col08:   f74ba5c67cae77baa577c598aa6f98f89c9b6b5aaf8a98797ddbb88a669bddcbb995da9c29c6b8bc
col09:   f6c8879734b17ba8bbd8689dd6bcbbb889baac97aea98a6e887c98cfdbbbb99b98b6c6ca57a3e999
col10:   fc8adbb8799b7b6aaa756a2d989c8abcac99de7ae9b99a6a99aec7aabc7bc8a86c9c847cbb7f835d
col11:   e84a75a83751954a76cd6a89677aad7c6979ada8b898abd86a8c9aa8badaaa758629996898ad8eca
col12:   ba6a9b8a8b8a6788b57c4caac9e9c89cac86da8a8d88ab9ac6c74aaa9ca9a9cf8e8a7ec99798f66d
col13:   e5ae8b662875d76a967797bbccb8999bafbfafdab9c99d4899ea8aaa772da87ac64dd8837ab89d9d
col14:   c9786cc868888b599a7bb87c79aba6cbba7899afebabced9b9ae8af56f77accda7d99c5da87fb9af
col15:   fda8c49545f9567c5977398a99f966d9cdb8a9b938b8778ee8d8a899dd86a98f68779b7a6b4b8857
col16:   b8bab8b5947a55acba9a69998b8cd9b6b7786bbb89ee889a9da9d88ebd779998677799b8937ba69c
col17:   d97c746c78896c8877c97c7fc799ba76bfa8bc9994bd9ce9bcb9b9ca895cdd77a4db76d9889d9a27
col18:   889978849b88ba9a96a698a9aaf7ce7b7f8adac9abfbcdc97abfc755bbce68ca9599cbcabedbd67e
col19:   e59d674767888787b587b6bb7fc789b8cb6ba68a699bd87aa89ccaab886a9fa5d8ae68a9cf7fb6c6
col20:   d68766a899a869c99e8d4b8b98cada9bdae999d9cc5ada9499eb68b7c875a7b59a89dd9997a9a48c
col21:   78a7bc35b83777f687b6a769aae96c899c998869f6bbb7f58acae98ae8989bdeb8489ad7b7eb7bbc
col22:   e385b8e8579989ac84a6c9997ab9a7cdcbac9585a7899886f8d9a9ea765f9869a9698d7689c989bb
col23:   c5a5688b7b988b786a7996b9aa778a965bb8c7cbf96cedff9b3ed8bb85cb9a9ecbb78ac5b9c99bbf
col24:   e7a5ac4b44b98a667988888bd5d3b9b5c6fb7b9dae898cceabaa8f96f9ab5b8abd69b5f98c86238e
col25:   ca69ba9b7b6974398c93c87bca9a689a5758ba8a9bafdeacccc59b84df9bca99ad9bb689ca8b867b
col26:   b5588daa887987ca8b9bda9acadbc97dda9eccc9ab7cd9985b96c98895b7a8dc85a88b7fd9a6a78e
col27:   eb766cb74cb7bb7ab9b67baccc7ab7ddbeb9badbecc5a9f7eba7abbcf9a88689abefbd89aa999b7d
col28:   eb7c8787dafd59c7be387cbc6ec98dcccabacdcad98afd98abdb74aa7abf99b88e985b3dd993a78d
col29:   f98777b8aa9ab4849ba989ac8978869e797a6bbbfac9da68c5d7b6a6ceb795aec8ccad9e9cbea88f
col30:   7fb8c78d7d7b98accaa9b6aedaea7938f89e9cabf8fe9d99bcdda8b8f8daafc5a4b7b9da8d7bab9f
col31:   c46bb999896a7ac3979f97c79cbb9bb9aaa67d8b89caacfc889b7a47d4bc858cadc8cc99c9b99a4e
col32:   c96a849698997d8978fadefdcb9d87eec9ab786b89c8da9b9b8ba6d8cfaa9f88c7daabbcafca86bf
col33:   aec979a9bb855a9db999a8aabdc9bc89a6bbba7b7ccfdd8dcc9c6b8ed76f968bfbc4bb8f889fb95e
col34:   daa67dcd3aca76bc9e6da7e7ceec9fc78eb9fc873deae9d7948999db7c9b9b9bb9cca683848488bf
col35:   b759599784b7a79a988bbb47b5c7eccbbbaac9ce668b88e9ad288fd997ab9b787588b729ba5688ab
col36:   f2b958c8897aabc8dd777e7ada7b76aa7a7a69b94b3b7ccaa9bbbc9adc9bab786da7db8bd6c7a8ef
col37:   aaaa69b7d75a88bec6976cc997c8e9bcb76badfd75ebabfc89dbb6da75759d76b9d9d8d898b9a7ae
col38:   fbe7c5c8918788eab8ca7bac6b468cbbb99ecfadd5cc9eaa7899cafa7a7c6bc974bbfbd9ecd8c7bb
col39:   db66b8bcbaa867ba9cb98fd98b6979a889c5da9acba98ca9ea99db95c5a99a626bacfa669beb988f
col40:   a46a7a983a9cd9c99b858f5b5bd78cbbbaa9ccaaf9abdcae9df8a7b9a59bb5c8cbafa9d8a9f99d8d
col41:   fb77999756ad9da7d7998cc6cd9aa4dad7c9aa8bbbecc9b5aafc95b98baba7a88c9b9c8e947b89ce
col42:   ed7abca53a6b6bdbc6b78a8cac8afbbaa6acbd87dda9bbddd9cb9dabacbf88deaa9cc9aab8c8bcef
col43:   994c8abca9cb8a7ed78a9bc94a9da4fdbceea9becb8659b7acdacf79dcbbf78dbbed79bab95974cf
col44:   fc8a7bc9afa95d9988b39a98bb5a9bc9dd8dc9cdbacb99afdb9faadacafcccdbb79ce6ca5289e69b
col45:   f399434da8978b6b9bae8ada7a89ce999c9baca9bb98accdcdca78ba87abb7d7fbed768a86989e5c
col46:   c92bcb9a995ea9799ccbeba569e9b6c99f9eaa8f8ac9b7acedd9d8bbcbcbb6c8eaaba6dbaac69a8e
col47:   ea96ac17c6a89a79796a4a7a65baccce85a59787f98ddafe84eded69bab89698e537d7a7ba8598af
col48:   b4a87988b788759567b9af6adc9ac8c8df6abfbcafd9adaffcfdeca94b579e98f9b99ddc869a948e
col49:   ea7c85c7a9a79ae65799997a6a88da8bb887b7d9a8ac99ec8b99acc9dc6878f78da5fda6cba597bd
col50:   c669baa8cc986b98878b876eb99b9acc666abb97ba978eae9bdd6cc6b73c9a98a96bfbb69677a9cb
col51:   cfbcefccecec9cdcfcf8bedffbedfcaffcceffbffffeffdffbdfa7dffefeceaedefcffdffdbcbffc
ROC:	 BPix_BmO_SEC8_LYR1_LDR6H_MOD3_ROC6
col00:   a89c7adcbcbafadddbbff9f98ffefab9ffbbaffdfefcdffffdecfffffffffafffceeffffcacbffcf
col01:   a8469965a886746651988b9664b9699b586b7fbe8958cc8d9bb8c85b87b8bb58797bdc8b7467b8bd
col02:   c8665796d67466986b6894b99778b7bb8b8bd7bc96b67799b7dc6b67b977b788c7a7887bb9b6cbb8
col03:   f79553974b69b8b7bb9bbbb5b978b989986bbdb5bbcb7bbbc8d8b9b969d8959dbbcb967b7b98d888
col04:   c47677367676b87966869b7c9849689b89975b9bbbbb8b7d9f76479789cb8ce76bb7bccecbb8cb2d
col05:   b7b7699882b974859669b66889998bbbbb9c9b9e8bbbbb8b7fc88be8bbdb78b8bb9788b9bb7b98da
col06:   cb4594176b6968b99849b9bb4bb5598bbb69999cdbbbb87b8ecb96fd76b7d9f84b879f88bb898bcc
col07:   b2887976b467957b96937466d9b9b79cf6898b79bdbb8b7db48d78badbcd88b98bb985685cb978bf
col08:   e75867958869867cb4748598d898c86b8a5bbbbb7bb4b6abbcbcbbbb68c9bb6b88ccc97b5bdb8bb9
col09:   85786678b865856699a48b6b8b6b9c95b75bbecb78787b9b8db9bb9cbac984b9bbdbebbc8eb9cb5f
col10:   d76b36576366b499957c6959b8e86bcb69b959cd9bdb86b4bbb8bb78cbd7b8bc789b8bb78bc85bbc
col11:   c48b84777634b698c958889c65b88989c9bcb9898899e8bbdd8bbb69abbb999ecedb7bbbe9eb969f
col12:   a575679787177a898878867689bd987cdb5bdb989bb7bbcbc8bbdbc9c6b7bc97887b87b7b98b6b6d
col13:   c65973779763867555674e9a2ba97b8b76b8a9bd99874ac69bbd7d7bc7bbbb66b68dbc67b6b9d98f
col14:   68b48357956897846b78a85b6cbb478b88c788bb56a868bbbb88bcb8b8c8c76bbbb97bc796be86bf
col15:   b8343788997b89849858cd8b57b899b695b58c8c8dc3bbbccb78db9b8bbbbc9bbbb88cbbb7bbc98c
col16:   c3879568666664a536375695aa67bc946bb86aabbb8cb99bbebbd77bc6c8bc9bbb8bc8cbbd99db8c
col17:   d5884146b4696b5b7b974a7689488489979b8bbbbbbcbbbc67bbd7bbbb8bb6ccb9bbb98e9cb96bbe
col18:   7948749786766f48b76a6ba666c879869947bb8bbbbb98bf8dcbbbbdfbbbb7b979bbbb8bc7dab7cb
col19:   fb79647786594b67cb8b58967cdde86c6b76cbdd897dadbcc9e8a55cbe88cfc77d88bcf896b897bf
col20:   d66642626bb478587699a77b569b6b56b888b67bb9d6b99cbb7d899bac9c4bbbc9f8b8878798899c
col21:   96558697967888b679487b79c776db77bca9a68bb9b79d87d699b98e95deb8da7cbcb7bb878bb75f
col22:   fb6667385b6555b885b987977c7574bb698ed988b5e9b698deda8bdbbebd99bb99798b88b9bbc75e
col23:   857788a7863959b88878cb9bb957b8cb7b7b8c68a5bd89cbbbd9bb99cb98bbb9c888b6bb76d66bbc
col24:   9885767aab478487878b68b8897b57a9899b985b7b8ca9c4a987bbb58bb6b9898dd9bbbbddd679ef
col25:   e8498769b7689b766fdbb9a8797c9bb86a88bb897bb8bb69ccabbbcc8bbec7d8e8b7b87bbdb9b7cf
col26:   f8616bc77858683aa976c9b998d9bbb9bb69b59bacb75db88b9898d9b8bbcbd4b9897bcc8b84bb6f
col27:   b67b6b78b93b4779bb7a878f9adb7bbb8cbbb6bcbbb9bb8bb9b9989bbbc89bcbbfbebb7bdbd8b6cd
col28:   85577b7d8376858a766589b79bbc8989bbcfb79e8cbb8bc89b97bdd96bbd98b74b7bbb9bbb7bcb9d
col29:   a7486637956869c8da67869868b7d9898c7cdb9b7be998979bbbb8bccccebbbede7bc8bbdbc97bcf
col30:   d499c8c779a559799c8c7b7c9989cbc9bdc9bc8bbba9cb8bbf5bd7b9d8bbbacb8cb8e89bbddcb98c
col31:   ba958873968853b53bd8bb9bbdbcda888c97cbe8c9ab947be9fcdbb987c7989bbdcebbcbb88bbcbc
col32:   c5567b5698b68888ac988bb8997cc98bc77c997788cdab9b949ce9b5bbcc7bd6bc7967cebccb97bf
col33:   e79bb557a7a78cb9699cfbbbcdbabbb5abc89d8d9deebcbb9adbcbb89ddcc9bce9c99ccb8cdc8ebb
col34:   a884598868157ca98bab89bbdbebabcab98f7cbdbadbd58bbbbe8b975ad9b87f8c79b9899acbbb8c
col35:   d73979b8a6888989b99bbbba8bbb9bb98c7cbbbbba8b8b8ffbb7cbba5bbbdc98fcbbbcb9c9bbe86f
col36:   a9c5897b5859797686768bfb9b6b9c797bccbb8b7dbb9b9b7eccb8bacb97bceed9dbb7bddb9b7bcc
col37:   877118b9788c6bcc9f5c89c98abd769989cc6edaae898b9cc9abfbcafacbe7bbbe7befbbcbdbb78f
col38:   f86cb9663798b7698887b6899bcabbc867bc9b9b685b8bdcbabcacb7b779b89b9cbc89bb8b99b99f
col39:   94468688a698c68a9778b8797bbbdad9bd99969f9bbdcced8a6bb7c8abbbb9e7ab7a9bbbdbbf7cbf
col40:   c95b397a565a887b5788abb5b4e86bcbc9aa9bbadcdedbe9b9b9e998ba796bb9bbacbe9b9ce8c78e
col41:   fa9b7b775898786b8b9989b8bbf9999a9f8dbb4beb8abb9c7bbdbb98bc9bbb899c9bbbadccbbbcbf
col42:   f78596859b89769a86e689be9c8ebc97799c7df99988bcb6bddfbcabbddabcd997dbdd99ac9cbbbe
col43:   c8837989987399799899a78777dc9bdb8ed8bb8ba9cbbbcd98ccde6d8bc7d99faa7cbcbbd98cb89d
col44:   d89587ba49689a68858dc89bbbba9bb8888c7b9bd6b9ab99fbbc9cbbbbdbd5e9eb8988ab8b86c9bc
col45:   aab799917787969a57bc89b99cc9bbcb7bfb89edbe9dbbebbcbbdbab8eb8bd9cdce8bbcbce98bd9c
col46:   a4577b897b7a8a878a87ddbbc9c79b9b8bbdbebdfebb7cddc7cdbbbbbbe9c9ebc8b9b79b79b98a8e
col47:   a48674bb6b7928766b578868ac48b87ba57dc97dc6cbebcdbdfebbdc8a6db9c8c879899b7c8a8bbf
col48:   bb787838675798bb94e98dcb98cb99c9b98bb77bb6c8accbedbb9cebff9ccb9bbad8eacbbbb86b7f
col49:   cd9bb99b777b9a9b6b8a88b788b88bcdb89799e6dd9befeaba8bdfb99ebedbb8da5edcbc99abbbef
col50:   e7777ac545744b68c689859eb98bbcabb8bdbcb9698cb9cb9fbbcdfbb6c7b7ecb5bcbd8d77d777bf
col51:   dbfdfdcfcd9cdcdafecdbefdbfdfedffffefffffffffffeffffffffffeffffffffffffffffcdcfff
ROC:	 BPix_BmO_SEC8_LYR1_LDR6H_MOD3_ROC7
col00:   bcc9bceccbffcff8afbfcddffffdfdfffbfffffffdcfeedfcfffeffdaeafffbbccfcdfeefffffbdc
col01:   8a7bb986b9bcb57aaa9bda79d95a7a99bcbb99cebc686acdebb5adb75aa97bc7a8a7d9ba977ac8aa
col02:   c47787978ba85a988ac8985d99bda8e6c69ecc9c9e68dcd88ad8e9cdb888b949b3bf858c44865c7f
col03:   e58999b9a989b78b8e89a8db9cda9c898bafa8aefab8cd9dabdc77abca9cd788c997a958b9f8ecbf
col04:   e71697b6987b58674aa86aaa7779bc96897bcea988baa88cabaeabb87b57888b6a9b9cb768959caf
col05:   fa567eb66dba8997999aba9ba99b79f9888bc8bb8ac9bad4faaca8abbfccbaa7dbd6ccb6b95bc577
col06:   f9aaa5977d799aaaa6799bba9bcdc59b97c49cbed69cc8cac6cb8f8a47a7d9cac9bbcc86485f4c9e
col07:   c667cb695ac79b9989ba97aa9bcbdcb9a8b9bafc88c8d998aabbaacb8a8a799b5b7c8faac689b27e
col08:   f58999d77779d9c9d6bb95b9b76cc8a8b9ebcacbac9ae99bcbc9888bacbc99a9a9b8859bb558678f
col09:   f898a8bdf9a77c8b88abc9a6aaa99bae798d6fabd8bc7d8ac7c5dce6aa8b86b79a83ac5797cbe86b
col10:   f86ab848bca498a9797ab5955ceaddbcad7cbbba98add969aaaca8796b999aa997c9c7bd748957dd
col11:   fc9a9d9c6ad9aa9a8898da7a638aebbcbea9b78b979ebcbba9bae67a7ddbfce9da9c5987b7c48afc
col12:   ab7d8853a63a68b787a899c986badeaac9babbba9a9e99b6bbc79abada87d76a8dbbcf778995967e
col13:   dab64bab879c773cdb9995bdc796594b88cb9984bbdab98cbabaabb879ecab77988c8b9a6767c8af
col14:   e32aaa896abb77bab6bb8aa84e888c999b7bb9abd8bd9babcbbcadc68857bacc8c899c86a8a67a9b
col15:   e998a6566a968959b57da9acaa9ab573a7daec99eeb778acebdedfb7aabcdc9b76aa9a87cb74ae4d
col16:   846857989b3d68587bab9abb798ba8d8c89c9dbab5fcd7cfccc98cdda6ddcbcba867bbab78678598
col17:   b7b7a6369c7a6988bb9bbafebae8cafe8d9acce9dcbe88cfacddda8bbbc9a9ac5877ca7b9a8a9aef
col18:   e8789945ab69576b99c8aa67bc98bb6c4e79a6d97dbcbb8dfaa9da96fccaa9a8cf7dc8ac5bb8977f
col19:   ebb98aa989769697aac57c9ab7acba7eabebaa8acbbaeccdecaac9bbb7cc8ac5d967bbaba9a8969e
col20:   a6898874758689a9a8589bb8887a7b5bbd7aac69b87f8d89dc8a85fc7d99b7c9ac78f6dab96c5a9d
col21:   fa47a7c7784d757eb4ebbcaeacdb6bb9a86878d67dacaacacaf9acafbbbae97c8aa8bacba9cbd96f
col22:   f958a6679ea8787abbabc7acccc99bd89ad6e98bb5aadc99869faa69b7a79ab8b9f1a58793e7988f
col23:   f969588ba989a7aa869878ab76ba99fe9b8497ac898e89c9b8bbfcdeabcc89dbabaab9ab588bf56e
col24:   caa8c5a97997a849778b8bb799b8baa99eab69bb9b78cd56cfdcaab8dabfababa67a77bb78ba37bf
col25:   9b69ae6dcb769eed58baca8997bcbdbcce88d9a8babacc6dcfc9cce989caab7b3b8abbcb39b87c9f
col26:   e82d7478398b9aba869c99879cbdbcb98a8bbd8bceab9f97aab8c8b795c98e779a788bfa9593bacc
col27:   f89b88cc8b9bab3bbd7bc9b886b7bb6cc88fca9b98abcffbcbc8e5998998af9bddaa5a88b767c7bf
col28:   f99898c9d9ac9197c988b9ab89cb9db6abcbca9c98ecabfcb8f8bbaaba8c699a9aa8cb995ea49b8e
col29:   bacaa97cd9bc76968ccbfbdb9e7caccecbcfcbd99e99cb7dcb65f89ccfbd85c7d9dbda8c8ce6848e
col30:   fab6fdaa5aa7a5a8c7a6aebacfbdaca69dcdbcbceceb7ac8cbcccccc9cbcc98cc787998bc77b78bb
col31:   f95ba3678979a99ec7b9bbfbdbcffdfb9fbe7eae9aacbbeadbcd9979898aca78d9eca6ea7abb7b9e
col32:   bed97ab78ac5ba99adf8d3bdbf9fabbeafbbdac9ac9ed9aa79e8ceaceca9e9978daca8deab8797cf
col33:   65bccca8b8b7dda9bb9bc9cdfcbffefee9bcbeeccddededdceeb9cec6ebbfbba89adaba8ccceaacf
col34:   d96fc979dd7afb6cedc9befca5df9cbdfb6ceedcc8d8ca7fdbc9cdcbbb9e6dbaa8d8d9d9ac5d9aaa
col35:   eebbb6da657eddc7cebbcf9fdbfbbcfeecb7bfaecefffcfded8fb7aabc7dedbbcb8bbbc9f9caa7bf
col36:   f8aaac977cd98bdbd68eadd97dfbab9fcace865b9bccc9efcaebbb8ac9bc9ccbb88bd9b6789998bf
col37:   f7bac67c8a78a7beddacaeb76ebe6c9aae7adf9e9b9f6d98edcacbebebc7ccc7ab8dbd9b88b987af
col38:   cba8dec967ceced9bd879aac9aab7aad677bebecaadbcbaabdedfaad5fb5febbabaad6bda9c46b7a
col39:   fc379cbabbbbd6cdcfdbcdcf9ebb8d6d7dec7cbfcdcca7d9cfecbbbbbbdbdcdd9ddacdaadb8bca8c
col40:   f89bdacac9da8bbccbb9aa9a696bc9da78d8df9a99adaacbbdfb8a77ea9a8eb5bad8a96a889a6aaf
col41:   f9aac8aa9ee872b7acaa8ab9fdbd7abcaadbc88bbbbfefb9abacceddcbac99ad98c9faaaba9ac8bd
col42:   fed6cad9a9bbb9cb98beafca98eccf8cc9bcccfdeabcaccaedacccdc8e8bb9caa8eae8cecbedb9bf
col43:   d8aaacb97d69aa89edb7a8dacf6ebcc8dcdfc6ececb97cdedf7fc9cafdacdbcabfd9cc9acdaa59bf
col44:   fd88b9aa7d7bcf97c9e99afbdebcdbbadbb99dcbbcec7aeaeecbf9cdbeac8ecbb8bb99e8fc6c917b
col45:   eab9fa9d6b99c5c8ba79dfbbabafcc78fbabffeffacecffedbdff9baf9cacdfeb98dc699f8ad5fcf
col46:   fc589af49a8c76bbbfaabcacafcdac7a6e9aedebdbdf9dbbddbcdafed9bc8c57ebadddbc98cdad5a
col47:   fba8dd8a593a6af98cbdcabfcc7eac9efcbcdddd8bc9d98a7ddfade9ee8bdaa88bfddb88b88bb9ee
col48:   c8dcb5ba9aa8678a84cccec7bbceacb5afdd9fabc7bbcbedbfb9ebebbecbb9badd9a9bad67996bac
col49:   fbaa9bcbbc877aa9edac8cca9b7aeabc8ebfcbbdcbb9afab8bb8fc766ab9a6eadbab9aaca59dc6ec
col50:   d659689bb3abc79a66837a9db9a9aaaf6acfbdad8fee8dfaec79afbbf7baaba8c78adacaa7779daf
col51:   d9fefdedf9fcffadffdfdfefffffbfbcfffffffffffeffffffffffffefffffffffbffffffcfffffc
ROC:	 BPix_BmO_SEC8_LYR1_LDR6H_MOD3_ROC8
col00:   a889ccdea6a99bba8cc9bddcdccddecbdf8eeafdc8ecefefdfbfbf9babdc8c9effebf9e7e8caaddb
col01:   a7145846124745856664889888955695c757c9999a7d6c8a98aa535a76a7a8b948977689785ab78c
col02:   b37864275615b636546ad79a3a59b9a787899aa97a6788c9a78c87d98b9698a68c6788b7d67a795c
col03:   d569754577558b84639b95787587ab89bb769a7676699359a6898c6b5dccafab76b869648dc6659d
col04:   8637366876542989776978495477b99e799d48868c97bb86a977ebaa8939c9a769979c874658a9ae
col05:   733644136a6888657766759948b8a877c77769ab87ba63688bab9999876b9c8979c6a8aaa9797169
col06:   8665433397a886873b534b85d97589ab677b84aba67ea9c977a99aaa5db8ab89a7cca978c5776a5c
col07:   b56169355415654364592599a79899a98a6b9c88b8a898e88aba89aaa8cc978899aa557699b973af
col08:   f656377744577965866357bc89cae7aabb8a79b968ac45aa69c8c8698a6a8475ba89777975c86b5f
col09:   b676659257434685858877647c88bc8689ac59baad9a77a7a5898b788c6c898bb67ba489884bba8d
col10:   c578aa54755769787889847789bda868a77d9a69a9a8baa39678c4a8c7baa6887ca8a7a98886bbbe
col11:   a863ba8715a88478877b758697bbba3a9a88a3846a79ea78adadc6aab799b4989369aac75b558cba
col12:   854a49776797539667c9662979732c959a86da6686a889aa99ab88c99ba88b98b7a7996997ec999f
col13:   9368785446476987476788c5555678b887aaa7b7c878d7babad98796a6869a88997c85867988a8cf
col14:   852394651584596799b89698789386b67a785b7898a49796a9acbaade55bb98b8bd4bd7a9b7b799f
col15:   c7627576588576978984768995795a469897bb8fa69c9a7899b87a97aaadd6a88c78767889776978
col16:   a45a84756297562486587789cb7638ca8799a97bf496a768bc9589ec77bca9db5ca1875c96a999bf
col17:   c515434875644855767a4499b674ab87976a7a9cb786ee9bccc8a8b5aa9a8978b8a64aa8e9aa869e
col18:   665855871765a5846565796776a7978d7e76999ab88abda99b6a97b6b7dbbaaa9c998587c697a78e
col19:   94153671468798667455baa8887b7689599a598c47ec98cab7b66a7989a775acad99589b688975b9
col20:   b245649778687357488b987967b7aa589aa5877b8aa6aa9abd8a8d97998c78cb9dbaaa9ab9b977cd
col21:   891297375b496565c755c9687a989b49a8589ab8859ad7c66bba8dab6baba95cacc6989bc6a8bdaa
col22:   863685563635969a85996679977b7b8ba8a85c5686c7a9b89aadd8b56b9c9a775aa2c3a8586acabf
col23:   c918a8996667564b54794ca756773a94696bbb83a9c9be8aaafba89ad8998b7766b9998da6c87c8f
col24:   a9759a446a97a7c893444b86aa9b7559798b99ca37ca8aaa7ab8c6ac899ca699ba995985baac8cae
col25:   a559473c7aa94873ac9bb9bbd56a9a84966899cab587cb9ca979babb9785bad89cb996def66ccabc
col26:   a985887668779597b87978db8b98b98b99a989cc879a7ab67ac9cabdb97a897ab7c77c898b7996ad
col27:   f8a4adc85ca58a65969b8a8da86aabc8bb9ac6b8899b7abca9a8bbcba8bcca76a89ac9b86cd7bb7f
col28:   e99785435b7534879976a9dcd6776cd9769999beaa79aa8c99c8cc9bbaab6bcaabd9c999ab9888bd
col29:   d8965467678878767779b4878999899c95cc76daa9eaab7badc85bc68e986b989987698ab799ca7c
col30:   79585764795929778a8a7cd796b9b8eaad6c8d9d6ddbcb9acfaa97b868bc69abfec85868cd75889b
col31:   cba8537958586598c989bccbab887b9ac98da97789aafbca8b98a9dfacccdb786a6998a8b7cb998b
col32:   f48896687766bb768959bacda978aa899bc79ba869edbaaaaa8cc99bcab98df78ab79b9ad9adcb8d
col33:   d68b9687694a9488a648bc9aabac7bd7b9babca79bb99ea9c97b8dfbc6aa98f8baeac57aacbb7aab
col34:   f676b97ca958b96659b7b69dbda89d97bacbabacb9aba8a8baaaebdd4999a9cbb87b8bc8c9ddb76c
col35:   a858687a9b797b4b898d697d9aaa95cca859a98b97c7aacbac8aa7aed84c99ca85aabbc989887ccf
col36:   c65c79a7965388c8699a979ca9c79a6a8b75a8c9edcc6cd8ddbdca7bcbcda8bbddc8c8da58a8aaee
col37:   d688a9897c666cb7776969c887c9f7beaaa7baa7a9a9aca89bf8adac96dbbcabaeebdba9a67bcbff
col38:   b98699997a6789b99ab98788a696ab9655aaaee9aaa9bdadbaabd7cca9e6caababcae89ba658dddf
col39:   d98947a669899a78588ab68d97959b76b999bb99cabfe99b9ebbbed75b79b8dadabd9b4fbcfdcaac
col40:   e3b9a987a98c9a77caa7a88d9aace9c9b87abeda88ea88f99bacaba798aa6bca8cbbada6aa7798ac
col41:   c5957598a78a8958f84a7cc98999b7899d7b9abcabd9b7ab9abb86c7dd8986b88cc88cbaaa97bb9d
col42:   c95997799884a69adab5acbdbcd8e8cb9a9bccdd9bddd9ba9b956ca99bac9ccba89bc98aa8dabb6d
col43:   b98797b47666b7b79c798bc9989cceabca5baabe9bba96aa5bacba89a7eb67eab6eb89dbb6c96bcf
col44:   c6498749aaa96567699a9897dabbb8b79b88cc99abac8898bbfcc9a39da7aa8d978eebafcaa689bc
col45:   c77893c86389a9968d79796a88ecdabc8bccddbb5d99c87ab9b88ca6899b8c89a9a99aa9acaa6c9d
col46:   9797a944948467a9a35787a96c7bc88b9bbadab7cbfb9baccadc9d999eacaadcba9a8868bb9aab8c
col47:   d46897b64769984895885b56778c769787cb997bd7dadbbb7c8cbbc858bee9cc9acbdbcbcd98c98e
col48:   d6458665893b7cbad6b698b7758ba8d8aa9e9daecadf7afbc89c8edfe97cb7cacb9acabb799ca9cd
col49:   d77a446c898b6a587a88a78ab7b7a699ad5b9ba6ad98e6acfcdcfc9cca7a8aa78b7c988abdfbaacf
col50:   f455858577b79989a85d67aa9a8968cb8b6b78bf89a9d9ab9acc968bb9b9bbfd8ae97ba8a8878dcf
col51:   cfebcccbaabcacdccebfaedbfdbfdfbff9cfedfeeceffffefffffdeffdfbefffcfeffffdfdfffcff
ROC:	 BPix_BmO_SEC8_LYR1_LDR6H_MOD3_ROC9
col00:   6dcbcfcbabcb79f89a9b69d9f7eeffcfddaeaebbbeed9ffffdcfdfcffddedffdfffffffffbffdf8f
col01:   c656b85b5675854866b8754b6c4557bb89abb98b78d79bb989b7cf975bbc86ba8bdadbb789b9c9bf
col02:   d55954868584793b45776b76936999c98967bbb897d9e999a7b7bb7b9979b9b88db6bb99c8b9b6bf
col03:   a697723884846855979974557a79988965695876877bd8b7668db7956bbbc59988b7b8b797cb7bdf
col04:   b772386656694567568b465b58b93679cb9898b87a7bb9d5bb689598db7b9f5bbbd7c88cb278897e
col05:   7567894b687a88895bbba8bb6b8b85c9b984b9c78a897ca997b947b87b778ba79b79968ce3c79b6f
col06:   b479b45677c96b37694897a8858bcd63a798d777b8668ec488ddbbbaabcd8578b97abab79bcb8bcf
col07:   c97aac73744676849859776ba8b9d97a5db88babb9aca7cb99bbb7fb7ab8bbfc7bbcb79989ceccbf
col08:   8496b886a596725486b996699ccc7bd8869e999789cb87987977b7673586c9b7ab5c93c7bb89bb7f
col09:   c76a9bb56496629b377b89a7b6bbab9c89a89b9626b5b7b8bc6bbecc99b99b98b798648cb989788f
col10:   b76b4b7656929366d9967b86986b9eeb88c878b999da889cdb8edea98fbbbabf6987b8bcb8d9b9bf
col11:   b88759b947a376b7646868bb957b7a9bb69b38b99889887a9b78b9a99dfbd697bbe9b7c99da7b8cf
col12:   f5868669565a44948b67839b378aab99abba8b7a7996abd8678edbb9b79bb88c5b5baabdf8bc776f
col13:   e67649a753b458b97ca85b87dd7b8bb77c9aadb78972779e9a98cc8dc8bdbbab6b98ee8bbb6b6d6e
col14:   c81787777866ba8b3a768ab9ab79cbc887b95bb9a7dbbdb68e7ad9a9ccebbbbce4bcabec99eba99f
col15:   e589486667658c669479b97b6ac587a6ab8bbc78c9c8b7b4eb99b88998dbbbbcbabb88b8675b7abe
col16:   c8458976cb7698cbdb7599678c87c795b9cab99a56998aacbfa89bddbbcbd87c9bcbb6bacb6cc5ef
col17:   745672645684958a96b856bb997a99b89999b98979988ab9c877c9cabcdc789a9c7b9cb7bbba978f
col18:   934174856548ab88776cb8a8888cb879bb9bbc88b798a89ba9ca99b9baaa87c9b9abb9678b9db77f
col19:   b73868aabbb997aab87b6bbbb85abbcb89b949977c9c8b49d9b9ab9bbb9bb7b9a7a9bbabac9487dc
col20:   d679a7ba88a76bb7b7968b99b66dc99cbab7ad6c8c778aeb86bbcbb9bb9bcabaa86ba6dcf856bcbf
col21:   a8b49a667aab956995884b78b57aec9929b8abcbc9ebc8e9a5daedfbb9c8d8998bb57bb75bbacbbb
col22:   e9b777c67b7b89969b7aad697b899b97bcadb8bec6d9daeb8ccbf9aaab69abcc7b78daa9bbc7a9ef
col23:   c8d89988acb97b99b867cbe79a647975caba6a9bb895799bebdfb9bba7dbb6d59db9c699c2bbd93f
col24:   b768a8bb775aa8b7a69796a5a999b8998aeeab98cb8dccbdcc9beaedbbf78db67a9dabbbb97b7ebf
col25:   a98bb987678688ba99b6569cc999ab9ccb76bfb57bbc9cac9bde8ee6a8e898b9b59cbcc9799b788f
col26:   d598ab89699ba9985b69cdbb7d788c7a6b9b5bc8cda977a99badaec88dbdba8dc9b7becd76bd8b8f
col27:   e589996b876c664baa946bb9ebd9a7d577ac4a79db9ab88a9ddbbebb9ceb8bd989eea99bb9b6cebe
col28:   897679bcb9aab9d5395997bff9994a8cbb8cabdbd6fb9bd9cb8cbaedbabdd9cdbc89bb8becbbb9bf
col29:   98978989369967888ca9c98fbbd9fabddaea7deaadb89eccdbb8cbdddbba87ab9cccd8cbbdbbdcdf
col30:   f7b98aa498a7a8b6878cecbcc9b89ac8acb9bdd9bafb6acc969bbfc8d9cb9bae78cce999cbbda68f
col31:   d779b9b57ec59874999dc9cbdaddfaebbbdcccbcbc9d7bbddbbbbdccfe6d89abdddadb99a8cbbbbf
col32:   ea95a4998989788a985848b9d9cdaccea7afbb77b99c7c9f9acbbbfccd9bcb88cad8a98d78bfbb9f
col33:   a878b5836a7a75b6999e9886bfbfbadadd8eae7db78a95ab9e6e98cadbbc9bb5abbca9be26ac9aef
col34:   ba899ac9bad7c9887b9a9c6798699cebcacea8cacfbb879ff9cbd9cccdbbacfbdedbcaac799d7fbd
col35:   79b9769899a8ab8ba8ac58ad777bd6c99aa7c869abebedfdcfaaec8cec7999fbb999daefa7dc888f
col36:   b8bc8489bd99b9a74d9bccacabeefe99cb979b69daafedddeb9eefebcbbbabcaeef9998a86b9bbaf
col37:   e6a7996b669b869a889c86c7d8a8bbb99aab7bbdbabddf9aebfaccbbf9aadbfbad7dcc7abfbc978f
col38:   fb9c698a44cac5ab97e98bce9a9a7bcf8ec9afcae8abedfc89ddd8bbcafaebd7aedaaebc6e8dbcae
col39:   cc6aac657b89b98a6b9bb4badc9caedbdcffb9dbfcb9bbdcfde8c9bdcefbabd999baba8bc7dd85cf
col40:   c5bc867cbd6aaea9897778abf9dcc9bac8c8b8c9cdcacaaaf6adecbb9dcbfb897b99bbdaa98d5ccb
col41:   c6c8b8b99b95986ba889abe7abd8ababdcaca8e8bb9abcbdbc9bacaa9bbd9dcd9dcfcbbcb6ddbbef
col42:   cba8679c9d98b869b5aeaa8a9adcbdbdbabdaebaaec9dacebcabbb9c8cbed9eabcebcebefccafb9e
col43:   c78788779bab89d897b6bfca66ad8cd9cc999eccb6bbcbaecdb9addedcbbddbafccacdbdcbdbecde
col44:   fa8d69a5d79baa8ca7b9ab5ccbfcaaf9c99ffcdd7cfd9bdfc6bebdccebbdddbbbbaa9bebfdfbbabf
col45:   d77dcbd9a783778ba8bfa8dba5b9bdbe9ea9cadbcdbecbccdafcdda89ad8bbae9c5a9b8cdecbbfbe
col46:   b895d977979989a6ebdebba9ebdfaceaaa7ccb9edc9dfafbcee8bcc9a8abba9afceda8ccfaec9bae
col47:   f999a889d5f85795bb8c9aa89b8aaa8baebb9cad8c7feeeefabcfa8b8edbcacbbaafdcc8bccc7bcf
col48:   d8835c8c6949bb7bb9eba67da8ebcc9c9bc9ddb9aaabcdecf8bbdbceee78ccbbcdbaacb9da7bcafe
col49:   e67aca4a4bc8a9ab97a8b9abd9dfdbae779e9bcccbecd9dbffbaadbbbcb9bddecc9bddfbbbabcecf
col50:   c97d9cc948ab785a89b9cbcb97bbbb78b97aa8bcafaebcbfcced9ccdcfcfeaec9bdcb9bcccbcdbcf
col51:   b7aefeeffdeebdfedeeee9ffffcdffdfccfcefcfffdfffefffeffffffdfffffffffffdafffbdffff
ROC:	 BPix_BmO_SEC8_LYR1_LDR6H_MOD3_ROC10
col00:   fbd9ba6acaacd6bda8aceccf9aacbeffacabbcdedccadacfefceddbecfafecdfcddfde6edcdcaf9a
col01:   8778576b953b977a885879189ac7b9aba83669899dac99a65d7a7b8aa9c9787dd7acb77799778b6f
col02:   c6866a9876125334986969755668ab78955b866887ab5a977a865778548879889aa5869a84bb837a
col03:   d38a794557665676a73498878ccc999c99a773bba89cac78b98889b8689a887fa85bc3b86686997a
col04:   a6799646676b6898679c699878c699b59ab9758b6ba89a79bca89d7ba8a9bad87ca9bcbb9b6aa93c
col05:   c68674aabd89964b78697a99baae6c47985a9b9c9ccc958c9878b89c876bc2b7cbbb9a895baa7e6c
col06:   c3459777897a76ba6557585ba794856597a7b9787a9997b8b898a9bd9a9788e86da8a84c696a7879
col07:   c87b85a759756a889577685d9898c8879889c6dbca87b969a8398897b797db989af6c68988a7a839
col08:   c97865a57555a676a87b5964b899887677d69a9cbb829b7cd859b9a7996a82978b99b8878684694b
col09:   c8ba6776163795abc988ba4aaab7859995a9a4aabbb97c5ca8bae9bc98bcbb95c89c89a98559a96f
col10:   cab3773896a684a5a677966a94ab98b68d79aac7abd786bacaf9e9be7ba9c87968b64877676779af
col11:   8382487979288589da8838bea888b98448cb99b7dda3a7bbcaaa9999d9bc8aa8c6da6ba9abd6775d
col12:   b35389469486a67c755988878a9c6896b87ca9777bb6675aa98ba58ac9a87c958a65b67867739c3d
col13:   a42886444a66ac6569ba7957cabcc7988bbbe8bfc98a8d9bffbe978db8a595399ab697ab98bba59f
col14:   f679b56a89864a748ab9669799dcacc7998898a85887b88a97abb9baa69c88b78b7988958877558d
col15:   9546bb35c87698598a958799caa78accbb9b69cccf6a7bca7767f8b9a9a896793cdb76ba576b976e
col16:   97227b63538835566776888baa7a75a97db8a97acc9ad9bb8a9a9b9aa98b6a9dc9c8679b7796c87d
col17:   c659a9596579998c7679798c798ccfacaecb8bacbbfc9e77b9bcbb86b6c68798aa79786895db65bd
col18:   884b8656385784b89a968bb4a6aaa8b9aa8e9999aaaabcac6a477aba94a53b877aaac68b7a72889c
col19:   b5528889989d8895967a7abc897bfab9c8db88bb98eba9e5bc7c9cdd9ac899bc98c7989ab87ba8be
col20:   c95758787a775cb6589a8b98559aa98a7b949a89caa8ccbc9c79e8eba87977c96b5a899ab758886e
col21:   878a4868b997c8a7979ce998cbcd999a69d839da6aaa8c9dddc99f87e8c7aa9adc9d787ccbb69b7f
col22:   b8787895868b7b7498b8878a8a9c9d7abab6ea5bc6db7adabaeb8b8b8a7aa8c9c9ea99ae7c99696e
col23:   8448758b4ac78686abbc6898ae8b9899e8a9c5bccddc5888d9bfe99a68adbab9bb9c967869896a8d
col24:   b48b6a7a56b697aa889bb89683a6aaab698a387aad9aa7dc6dabac87c7dc98a8689ba99adaa5c9be
col25:   cb9aa7b795bb899896abbabcb97a788a89bbab7ac9b8baab7e98affeeacbca9c9898a598bcbbcdbf
col26:   da98768faa9c898bae7788a9c7d669ab977b99bc9acaa8aaaaea8dabdbf8678bbb8b98bb7d85aa7f
col27:   f96bbbf77c98bc8bbb9c8bb9cd9c7be9b89db9a6bccc9e9fbfe9ca98fbba7adcca7c9ecab999fbdf
col28:   b7b685aa9868698b98a8ada8c7c88a8b7abdbbca88976999c699b8ccbb6abedbabb8ac5b7967c78f
col29:   fa9b8dbdc8ba8f9cc99dcbbcca8dc9ea788ad78ed77dd9cbc99bbcbdc9c89c8bbc7beaa97ecbcbaa
col30:   e79a76ac489ce78cdb97ab68acb78bddc898ab97bd8cc9dbcab9a898a789969cda89b9f98c6d978c
col31:   fbc9a48c7c7bb9aaaace98ada9ee7cacc8eacacbabb9dadb9799b7d88ce8cf8eef8ccccbfbbba3ef
col32:   e9987baa68bcbcb9bcbdbf7adab9adccebb89aa9a9aa9faaabacdaad9defbba9c8a6a7896d7ddaad
col33:   e898989d99ab8bc69acaaa89d88dbcfaaddc98dcdcf989fa9caaadca89bda9a9fffadecbdaa8dbcf
col34:   db79aadaab88b99dcdab6aafababc9b9ea88c9bcccd9ce8ccbc89addaaaca8aec898cbbdbc9dabaf
col35:   ffcaaaaaccca97c98edeba9f8cbea9bccacceca9ddbddcceabfeedcafc8a6cdcabd8eabcbdcf9aaf
col36:   f9c6ab98a89a59fc9cbfba6cfb799bddf79a9d8a98ceeaebdc6be9c898bc8e8b6bfd5b8cdce5bccd
col37:   f8bbcad58ba87c8cabc9debcc7dba8bfb9ebb9acdeded99ceafaedcad7cbbbddcaafbbfcaf9fdbbe
col38:   eb8a8ad7aa6b8c9dbac8ca8adbdcb9e69fc9fccacdcefdbbfeecfcccdbac7cdda8c9badfe9acbcaf
col39:   febbbfbdb8b8ccc9ecaaabdb9fbdbbc9daebcbcd77bffdecffedcbdeddeddd9e9abbbaaea8ccdbff
col40:   f9caceabdcba8aada9cbcbdaacbcafdabdecdca8cddab9dbd9faddee8e9dbc9afacbdca9ae9accbf
col41:   fba99cbddbd7babc8cbcadbcfefcdadcfdbbccfbbdbdddeedafabbefefafecedfefdbeffbfaffdce
col42:   fd97b78b998db89bcb9f8bbddeafd6d9ab99effd8d8da9fbbdcecdebbdfbbdbbccacbea9ede9dbbe
col43:   faecbdbddedecbfeda8bbddccdecaebef9df9cdf9ea9cee8bbcdabceeaacfdeddcfbdcebcfd9dcdf
col44:   fbdad9cccebfdadda6b889becbdbcedecccbbfcfcbecef9dfdacfcbcddfbbbfecbadfea9e89b9fbf
col45:   fe9d97bdbbbaa78befedcdceceeaacbeeedfdcfcecffffdaffcdcbabefcfdbb9bfddf97ffabbacdf
col46:   fab8abedabfcc7baafac89cebdadbdcab9effcdcefcdcfdaeeabbfdeedeada9acc7bfaadaeebe99f
col47:   fe8dcecbdbcdbfeaefcabecedf9f9cdfacefeecfeecdcdcefddedfdbd7bffb8fb7efeeabfccfeeff
col48:   e6b9ad8c9dadeacba9cf9a9ba9e8ab9dafeecb9bdfddbbe9ccbdfddfdb8faa9aeeaab9cccaebb8bf
col49:   8b9b8aad79ccccc9f99fecd8dd9daecaeedbeae9edefffdbcdfdefdebaecbcfcbe9cffcbedebbcaf
col50:   f836c79dabfafc8ebceabbeaeb8eda9ccccd8f9d8fcfbceecdad8fbfccd76dbcbcadb8ac8ccead8f
col51:   cdfcffdfdfffdeffffffdffffceefffdfffffffffffffffffffffeffffffffcffffffedfffffffff
ROC:	 BPix_BmO_SEC8_LYR1_LDR6H_MOD3_ROC11
col00:   68a8ddcdbbd8bea6bc97e8b9bdbbdfffcecffc9fefafccdecefaaabede9a9ffff9bcdfeffbccdafa
col01:   79398578471b7b315457487aa8aaab994789789a9a68a9ba959a85bab8a998b75a8a65f993bb869e
col02:   972644955a7aa277366557685957695957698997aab955768b47bab88797d6b693859794547b464b
col03:   a585b6664644157878a88937a699c59879a3989789b8c7397c97be887b6bdbc9a7899c7baa39b87e
col04:   c955757291479a59a8677a479a439789c771979aca4b988ab8ddb897b396b7747a74b5a783527a4d
col05:   c7aa7666865977759595ab7a87aa8aabb885c6d9da6b9a7b9e86888baa8dbb978eabd86899a969b9
col06:   b95a746a869c485687627ccb776ba8da6c7b859695a6b95937b5ca79a6988cc5ab65ba87478b699d
col07:   f76c8aa7ade8788688d9895bcb9956dabb97da98dcd985dd88a998b9eeba99bb6abb9b98dbab898e
col08:   a585797863865595677448aaa795a6abc79958897a99628699787998a79a9a6b6aa78676866ba7ba
col09:   8568a6336466644b678a775678b7b6bcda858897688879979877dadb99baa6aa73a8b9ebbd697aad
col10:   b85978a482557568b79a3a4677eb9cacd89bae89a767a6f9a98355969c79c7d989c69769a886888e
col11:   d6688789356a79a87a759d96cd9a7db86a66ca79b6d967aa76bd7b78ad8dacb78ac9e69ca9fcba7d
col12:   a71637974a57559a52557575696aa6b5a86877fd976b5679bb8aba7ccacc6c9a899649cb868ba8bf
col13:   cb7c46a498736b69aa8c89ac47aaa699999bbb5c75a799ac5b99a89abd8aa998cadabd4867a588ce
col14:   c6774733564b77d5971ae665998acacc8889a6d54c3b9b9867a8897bc7a67899b6889a9778aa89ed
col15:   d587ba99a869789a86d94768b86c8787a98b6b99bc798e7cb888dabccbabdaa8888a747ae98d888e
col16:   a63679993865876988ba699b88cc69999249ba8d469a595a9cabc87a8acbb9ca5c8caf9a9d8aaaaf
col17:   f3a987c77738d898a76a969789e77676b7b778e9ab9cb49e9abb577ad9acaa9b9bdcc8d69679987f
col18:   953667571175566a87676a7777ca5886ba9969b8799b9986ce9998a99b79ba879987d5b9953986ce
col19:   c59488648437797957989a9abaab78c8947ab5e88c69b89bce99adc8e9abb9bac595686ab8b59bbd
col20:   d66743a79938865a6477ca88b979897ba99c9b8758a769abb9476cc79acaba9a8bcacaa9dbbf37bf
col21:   ec8886c26685a899667cc8867887497bb9ba9e97b9acbbbbc88a9aae9bf9cc76a7aa96ebc5b3bd9b
col22:   f77b79b7365749aa56938a4788a499ab799b8686a88c6c8aa7edbadc6cdcc4588a7dcb87869a68ae
col23:   f3887b99886b6ac984958f6dcb7aa99cb8ecba79baa98abcdcd9db9bacbce499d79ea9b8867d846e
col24:   ba874b58b667996c8888b8a69669b9ca89978b8b894ca96bb8c7a9d79acbb8ca8c8cb4a89ef7c98f
col25:   ac76653a78cb6c7cb8d58a696ca7a7a7a89c989ad9ab99eaaaaf8caa9999e986b9aceaf49acbc98b
col26:   a69aba5b97978a486665a7ac7aaccba99aea897ab87cbcdbaaa9dabb8c9ac9d897b89caa978b588e
col27:   f878c49aa85899d99ac9798bb6bfa7afbcc6e97a9bbfbebca9a8ffeaa8defab6ceedabacaddaba8f
col28:   b9aea86d9a849ab9adb97aabd89bccac88baafbac77adc8f8dfcb8aafc8acf9aa8f8ecc9e8c959df
col29:   ea787798b8abc7cbc9b89b89cdccbeabcdc8deb8c987aaae9bccbede8ab9a7acbdeec8cffaccdede
col30:   b59775c96b7b7a88a4b9aa8acba989a7bacadd6ddaadaa99adbceafca9efbbabbcdbc8a6bb8e8eaf
col31:   d76aca766b989397c889a69ccebce7dfcfaaa787abd99babab8fbbcffeaeb9bdb8ced9ad8b7e98bf
col32:   b83ba6998c98e59ad9b8767acabbdbdd9569b8ccbc9ed8ac4dcdbbc8ecbe77cbca99bcccccd8e8df
col33:   6882c8f9a9768eab56879d9abd9aeddceebeedf6ac7bccb7cfbbbce7fcbeeabaaaebdebccb7fccff
col34:   bb67ebcb8a5ba96939c8a8dbcbcbaf8dcfdf8a7e7aef97faceacacabcbbd8b6a59db89bbe9988faf
col35:   d75b89879679a8666bcdd66dcbcaadb8de9ea96fc9cbc9baaabcfcb9befcecccadbcf9bddbabcedc
col36:   b98cb8ac8c96789a88b6aa8abeceac8c9ba7bf8abbcfabbebdc9aceddcb9facc99ccc98abbcbf9ad
col37:   f88a6a83cc9abbcbdb9dfa8ccb99ba8bfbaccdcaa99aaecdc9cddbfacf5b9faadacdf7cfddcbcb9e
col38:   f448bd99898a98ccb97dba68999eddad9abbaae9dbcddcdcefbabdbf99caf9d9cdbadc78d9d9e7cf
col39:   d7679eaab7a798ab5c8a8b8cfbf5ddcaddbec99ba7bdfeba9bbfbdcecd9edccfdec89d9feeed7eaf
col40:   f979b7c8bbcabf6a98e95c7caae8fbbfaecb8da7bcacacc899a9aaa9ac9eb9bcabfefe7dfbccb7cf
col41:   ec7aca9959cb888ddbdebdad8ba96677aed8eabb978aafdb9ddcfbafcbdccbfedfbefdbfebcedbef
col42:   f97b98b86c96c8887debd9ec9cac9dc9a96f8fedbd9fdfcecaddddedeedc9d89ffeee9dbebdcfaef
col43:   da8caa6b8dfca9a9a98dbadbccc99ab8a7cbc89abcdfdd9cfffedfbedbd9ceeabef9fcbfbdffedef
col44:   dabaabd79d779afbaa5c89b6b88ad9b9aa9abbcbe9b8ecbfb9bdada9baad8b8cedf9dddaabbaecdf
col45:   fa6acaa7bbca796cbcebd687a5aecbefdbace969ddba6c8b9acaee7e9fafdfaafdac9cedaaddbdbf
col46:   c599ddb5c8b978ac878b99baeccaaffabac799dcca9ee8deffaca98addeeebd9cdebbccbe9cbbadf
col47:   eaacb97b8899aa8786abccc79d89cbad9dac69d9899aeb9fc9cde7f5eb9cdbb9b8dccfafabedfdde
col48:   dba5a67c7a88b9db5788bfcdab9eeb8bbbcabbae6d699c9f9c9cbb8be9ddf99998b8bfbbfcca5d9f
col49:   f89cb768abdabb78ad8cfcff9c7cbbcbca986dbab9b9dfecda9fdefbfb9bfad9ddabdacbcbfbaddf
col50:   f58689ca996aa9a887b7cc8fcb999dc999daecc969aa5b9f9ccacfec69c99ddba79ad9dbacdabfae
col51:   df6ffe9eefedfaffcfffff8ffbeffffffffeffecfffdfefddfdffffffdffffffffffefffffffffff
