ROC:	 BPix_BmI_SEC3_LYR2_LDR5F_MOD4_ROC0
col00:   c86785478a77592b555674796ca9a7878a5cbc26a9a73693479ca686c774a87a7977773567995631
col01:   55338586675981899b7a4b6e98ca8dbcd9c9a99aba5bc98989766eccccae5d9a8a65a98755644312
col02:   977645695233a6a68468a8bba799b8bada97a9a577a9846597789979aa7614ab5986b8c8a4466545
col03:   9959695a98a878a79b95b59ab7978d69bc869dbcafb8a87bbae6a999969b9c8a996a77e54a675344
col04:   89a62a869bb889a88c687acbcd9edca8aaacd9b54b48cd6aa6c9d78778cda77cc6aa9a9674845225
col05:   471579588873988499a87777977a889bec96a9aa8777b63596479a75d8b4d754e98b979366642531
col06:   716b3a4bb7789a666b77b69ed949fad659d98599779b7ac75dbd63b99cd59b8da65b484569429a84
col07:   857874ba864447aaa36abd7ec78cac7caa882bb9967e67a76878a67a588aa8b78785c9a473286672
col08:   66889a97488b69a8c596c96bcac659cb89998cca9ca998aa986b779b85a4d9495355717842328364
col09:   5a674b7b9789ba67a6bbbdbec99cc999a8ad48956ba8675a5d8adccbbca98a9e679b73977b486465
col10:   dc5444a799a9534ac6e9c9acb9a8a8dba8b79b659988ab93c8787bb95ba6b89587668a75a8677555
col11:   1826588a752a55c4a6a8a698987558b8c778ad887666a6a887679588bc47886aa5817746d8854515
col12:   a664a799797596679994c9bc67896677adda8aae9f8896668877b38bcba8d567a84ac667e65855b5
col13:   85ba75a7868c96978a5aaf9879aa9a996969dbaba5aaaa8988777cccadbaa4a9dc867a4c48a9481a
col14:   44b835778dac7dab69a88887cca89b9aa9abce4dc89773785a77a884c75dbd755837858827763633
col15:   54878a997b786769a98db7aacafcdbae7c955868e6aaab9ac95bab6aa9a9789ba7867a6865a76534
col16:   c77a831a34a7d9ddea56daecca9dbf99b99a9bd8bb7ba668ac6779d98ea89684a98aad976a595857
col17:   56a755948537855847ad9b92949c7b74b99c99a895abd77593baa6ba39793788aa6994ae74985951
col18:   494776a649a9894b8569a8cc6ccacc988cb8b5b9ea98c89c6c82766957a556886a36944a85846365
col19:   485578387ba78687a856a96a7c9978bba98db99bd7c5f99989fcb9bdbbaa69895aca8ba859647692
col20:   3747b9459a443a89b88978a5cabdacd8966a8a99c8a98ad78c4bc883b968846a85996a97898a4184
col21:   b6b5286394bd6b588a76879cbb88baca987daad9ba88b68467ce9cd96b9f498bc7a77999a5979575
col22:   57678588c887985bb9a9aaabc79aab9cc3afbab7bd6cc86cbc9a97bad998376a647887a7586a2661
col23:   56266786746a76aa89a6597c97caa88b69b97b699cb96588886588aa5a974aaab995722848997854
col24:   39629646878633774a997798cacbd99a7da9a96b967b97ca943a989ca77899d396d5876728485798
col25:   8b65741765585bad996dbb8a698b97bb8ac8bb6aae6b75c8bda88be9aa5889699c164aa64a673113
col26:   a8b63acbb86b896aad98ccab7f8ffdbc9bde9efc798d8978a7c7eacc8bd9dfca99abbba79a99d846
col27:   789557688aa9ab9bdaa99ccbf8bebe8ec7cfe6dd8688c894c9999becabadcd8aa6987c6899a78579
col28:   568987999babcab587ba898ddbec8becab9d8f89f9dec88d79beabbadab89bccb55ccb6bb7c97467
col29:   4a4ca8a57878c84c7ab87e97e888fbca97ba9ab5a8bbd7d7a78cbdbcbb9bb8d499fcc6a766896957
col30:   2687bc68ba87cbad8ddeacfafcad999acdcac9cabd7a9ecc97dc9daaedfb98b8c9a9d889b8888c81
col31:   96a46b66c9658c48759accdadc996a9b9ef8efd9bbaaa9ea9b7996ffb8a9d9fa5da8d6ae99678557
col32:   7878459a699d999d8babecacbcc8a88ea5a8ebbbe7eacb9aa9bdaedbabaa7bdcb6aa789b8bda95a7
col33:   8c8bbe8986bd88acbadfd8cc7abfdd8b9bbebb99cca9baabb5dff585cd8a5bfbeb9a88dca9689458
col34:   6a7a9587c898c989c9b8cbcc68eddaabf8adbab6d9ccb5bdd5a8cfaaeb9bfc6a89e9ca56ad47a498
col35:   4966859ada9a99ab4faacccaaee98bafeaec8595a9a9c89aa47e9bfd578cc9b75ba85a78ccb2b589
col36:   6686c87f67869dbacdbdcb9cbc8f6decaabbb9dcd8c8cccf7e9bcbafcfb9caac8d869e6a77b996a8
col37:   a954a7b96bb7b88e7b9cac99b7cfaceccefdbbacb7fbbab79af9da8b9aacabbf9bbdccd49a9897b6
col38:   97956add8cbacdb5898b5ccddaccf8c9abea8e95fef8ce6b7f6afc769dcba7cbc9c8da89a5f98d85
col39:   798877c6989765bdb855fbc8cdd95bfddabaa86baa7a9a8da99bcfdecc9febe6d7cfa8a9aa9a7a77
col40:   9a69b66e5a5b99bb7bacbd7cccaca9c9cedfedadcebb989edccb798cccc9bbbe5d788bd97f969975
col41:   89976b99bb988835a88e9988adafacff9dbb9beabca9b8ddd989b9fbd9a9fabc877b88c66ae85798
col42:   9a77cbb8c599a679987ba7cdf69fcddfcbdcbc99dccbdbdce9b8a9affcbb8cc9daa1bacca79b9478
col43:   55b6575a976aabccceaabbfabcdeacfbd9e7abe9ac7b877bcc887d9debe98a6bcbcbaea9baba7459
col44:   6797856eaa78ca65c98acbdafc8adc9dacacbebdabcfa9dbaca988f7cdddddb8cc9ba5cb9858546c
col45:   7986a76a99a8c77d7aca99b8bdbfd8c8bcd8b9ad9d79fb9b8daade9bfdabdadaa8bcb9968c889c76
col46:   bb376bd88a9bb9abd79bce7b85acccbefa5c98c89c8c9e86a8a8afebade8a97baafb9988a7b892f5
col47:   95aa449abc6bb99cbfecddaaeaedeb7c9a9a89abaccd8cbad8a86bcc9dcebac9e8a8baf566bbb978
col48:   5f866546996e7d89c7bedabdac78b97d6bacbc7dc9b7a9f97ccaded8ab9d7a8acaaea7537c9987b8
col49:   37a87a5b79c8684889abfb555aaf7c5b88d8fcead8d97a7b998b69c9cacd9a9c9c86685757c997a6
col50:   aa498d97a7abb66787c79a6ddcbcc9dcad89ab9a8bbfb788aaccfdcaaeedbcbb8fa999b973bc8a35
col51:   b4888398a6566997489da9687a494a957675a57896666345bd7b68bdaab89874976784613725585a
ROC:	 BPix_BmI_SEC3_LYR2_LDR5F_MOD4_ROC1
col00:   166315549721676457456889888696696c46a6468a7a528489454b8776855845b955845961321143
col01:   6693597897946aa9b76869b7aebb88889898a59a896757aa88479baca989c9a59859a49699746652
col02:   493354777554a8bc9ba7b68cf9788c8979bd96758b587b73874b4bdba6988b655da9aa679b485852
col03:   652697a223972aa6899f5a98c977aab8d97b899aa98baa8c97f69847959c9a8754e45764868b7564
col04:   58959b58955b76ba95baa89a98f99a8cc979669d99a6a396a8c99a977b99b58ada6e666894886677
col05:   8b7694475b4786465d3988997a9ca6aacb689b78cb95d9a98b6f99a9459c85593396a58a6aa38575
col06:   355185486b859a977b99adb5bec8b6ab8d98aca957b9ac95adabd8bcd76996da7586a363d83841ba
col07:   a8839174d5925a89accbc9cbb9ac8897dcb8a6bcc6db79c96abc8dcbcadbe979cb69c9689b676863
col08:   45686a8b958393b6984a9dbc7b9ac68abcba8a9d95659b677ccadc9c587ba99a9cb7b8b6357a4953
col09:   14957997979994499baaa9bc9aa9ba6b5c9a2edb7d8b88a97a8c5ab69cdc5999767a6999a8914585
col10:   a677884a97cb9987bea7aaa99e9bbabc93fe96bd6dad779cabbcbb9aa9cbbdd68b78796785976547
col11:   56735c68da87759f8dd89c788957987a9a86c4aa5a9d98dae49766c876a8a7c8a8bb7898887a4c92
col12:   1446572886a948966899aaa9a6867988bb4c8c97bdb8a4e79adfca98cda9c684389a6bab58545875
col13:   3547b59998b848685b583997bababeadaf9e9c8aaca8899ccab6a7899bbb877a9698ada885743465
col14:   3487776a6c4888a77f9aaad9b9e9a678a799c7996bab79adf8fa9c5d5ca98886e9d7b8a5fb18aa69
col15:   a87645977168688b9b7a7679a653ac97bbb5caa7fe89b89a9ab68b3f6cb78958b5c9c87937b856b8
col16:   9a77569b3ba29bc789ecb98868c84adaea88acdd6cc89aa889769d8cb975bbd978a77948cba74a71
col17:   455776688686477657d9b7a88997f88a9acde7887d7996969a7c8ab99a986a6a9a97867a77745384
col18:   7772448459774b7e6a6cb9889b7a999889a8fa887bb896d7bbe8b997aba87a7aa89887f64db57796
col19:   825443b6a488797c9bc4cb89cb98abbdced88b88c9ec9acc889abbca8bbcaa7a779ba769b8ba8456
col20:   431553285789765a69796aa8bbca797bcb76aa8a4b995898599c9b7daac8b4ad875b668548977496
col21:   23792697f79a98767869bc6b9d9bbcdbc9979d7abc8adaa5a899d58869a9a865a968ec99758a6878
col22:   63668568647767975689c7c9895985998c8adb7a7d9eb5ab8a7b79578599bf88a9ba59d556a7b864
col23:   2666a569887a5898bce6aa7878ac9a89bac9a8c88b85abb9a8aad88a98cb77bb5b8ca95695964778
col24:   8656479538872865979cd42cc7be9bdb7cba995ca9a9bbcb78ca88caacb8698c5c8b788955787678
col25:   96967a8a8898a8796caa7b8acb3bba99acab88f9acbacbfcb9cb88aa9ba9be8b8957776b5888a9a9
col26:   59887798aea8b864c9bbcd9bdcd9ac9ccabbabb9cd8aaf8ece9bb7becbda9bc78aba9899cb87a9b4
col27:   85484548868adc8c8a77cbac8ccc58d9ba8be9daa88dbbdedecffbacab8c9a6bbc88cc559b88a749
col28:   92877c9a987a8ad9c99c96af9cbc9bc7dacac78ece9bceabdcaebbbaf8a7a8dbdd87a98aa875999b
col29:   7795b6baf9ba9a6ebaabcdda78abc9adb7bdfcbea9eebb7daab89daabc6c2a88ca77878abcc6b9ca
col30:   84878b69657c89b895999dbafec9c7afe7cdbbcceaeaebadab97acb6a9c8bd6a96db91757bada766
col31:   6a77a7a8b7aa8bda8edf8ed78acccbbeecebcc9cdcbaf7acfdc7acadddbea9d5ba7e976a9cb79959
col32:   a6b89777878ba98afbbedd8fb7cbfbbbbeb9aadadbc9ba9abadabbdcaeeda99a98afbe88fbd9cc87
col33:   8a37b9b86a6898aadbc7cdca9effcd9788b8999bbe9c97dbbca99ed8eabbdaab7abda984b7769789
col34:   5a988d8a5aabcacffaabd9bcaddbbdcbef87d9bdaaeaad6ebcddaadeeb98bf8dcec868be8a6698b6
col35:   5988fbb97eb8aaccbc9ddb999facacce985dc9cbb9eb9aef7ac8bedcbacdd6a88c9ad9c99ab9699b
col36:   997989ab8ada8b9adecb8ecf9beddc8f8ea8c89b8b97abfca9c8889ed9cabaa9b97bac8998c5779a
col37:   bb8bb8abccc8eafac8d9f9cabe97dcb9cc87c9ab6adddbd9edeb9bbfdebfad989a966ae97c99ab46
col38:   585e4c98dc89ccbddb9fdbacdd89eec9dbacb9d89accddacbbac9e9a8dcbdbbccb89b893a9c8b887
col39:   918999bbb9add9c9c99eb8b7da9798ccaca9b65aaccdb9b8b88ddbaccab7dc6f9a9b8c87a489a645
col40:   9c9957fcad97ddcba7aebcacd9bd9dc9bf8e8f6ebcaca8acdb7edccda899ab9c9fb8ac6bb79c6aaa
col41:   6796875cdb9ddbc8cbf9bebdcbaabab8abcbd87acbdcbbe8dfddaeecbebebdd8bdbfa7ab8a84bbb6
col42:   666446bbad93eacafdfc7bb8d875d7bdaac889dbaa885cdd6aca7bcca79bceceaab88a6a59adb567
col43:   8aa79899d87ba8baccfadf9cded78adc9ecfc8dcbbdd7abccbaae6afcdcafbac9cacbb97aaac87b8
col44:   8b774668978cbabb9aacab9d9bb9df9accaebb99ecae9d9b4acecbf6cd7d9cf88ccd5acb8b58bbd7
col45:   97ab8b97c9a596edc99edbabbacc979bcfa6debdfa9faf9bdcb6cd3ca7ecc95d8d488a9a9a9a7bb8
col46:   96cc7b4a878b9a96abacba7a9ec8ccabebd9d8f9ab59ade89a98ed9ccbebaf9ca9d7b7ada9778bb6
col47:   d96588b9a8baafa8b8bbe9defea9cfbd9cfabeb9ceecc98fc8d7aaeeebadfaabb99dbaeae7acb7b2
col48:   5868797d6abba89bd8b8b9d8b7cc9d8dacd6debd69ec98ab9ceceb6cb8adc7b48b99adaa68c9bcc7
col49:   8a9b7bcd79caeafaa8add7798fbaa7bff8dedeeefbcb8bbedaa9b89aba9baa9ebd98afbce9d99bb8
col50:   3989ab99cca8a88aacd8cbcdaaa89da99cabfcc98c8b7edfcdddbbc8bb6cec9ab8a8b7ac85a85f89
col51:   43656b889776a66b666956b78a8b8a685dade86ab6967ab88c988999a89a7979b5292aa66a3655c5
ROC:	 BPix_BmI_SEC3_LYR2_LDR5F_MOD4_ROC2
col00:   436a69556c7a7479aa89788566975a9c747967c59a869e64879ba736a869dc86aa786763775535d7
col01:   967a4bb777ac8a5b98b6cbc69e7e8a6d98999b999999789e98d7da9db4b8c9a6889aa87b876d8ac6
col02:   a88a7b855c7a9677b95a6daeb6898a98ef8b885f98a98b859bbfaa7fd9bc769abd89767897657a8a
col03:   857787c8b787baa9859abc7a7deed775af89dc77b99ddca8b8b976cc9aca698c8b7967b4a86984b9
col04:   47a78b7a9bcb8875791baa679aeda89a99a996a8cbb8b7adba8c7989aa99adca699998a8287459a7
col05:   7b7668799bb67bbb968c96bdca9b7aa38a89886aaba5ba69afb9db89ce77cb966a69b5a8aa6379b2
col06:   2487b9b8699b6a9c9dc77ca6dcddfb8b99f9f9989ac88cc8cbd9b77cc9c696a639c8868b58988a59
col07:   86b686bd884a6d9e94c5c88a8fa5ec88978d8ae8be7c8d99caa9cc78bdcaca88d728cb6266b675a3
col08:   63438a99b985b9ecdaa88aaccabd8a75d75a77f8baedcb9be3cec9fbba6ca66958197d4994562863
col09:   8b778b5a8cb9d9bffd9d99f5aa7d99cdcca98d75c9bc9cdbbbb8c6c674dbbe9abb4b79bb94846868
col10:   7a34426a9d7afb8abfb98a97bc97dbcb797b7d94c9aba49a7bdac78cb6c69d7998a5abaacae69878
col11:   955a814aa78ba4ccadb88765ca98a995cd7a88acb8aab876de86ba7a7fca36a68781aab67b955744
col12:   6658398ce74cbdaa67ada899b9e88b798e6a7a7aaee8b7ba7c8bcca9ade8d8869aca8a959b56b731
col13:   667966d678536d7ac9aa8ca9b7cb8ba84b86a7a98896ad6e88cc87d5cc784a9a8ae7c7869a5988b6
col14:   9a782863bbebd7bcbbabad6a4a7ab599c7b89cbc88754abd6fc66bcd69796775168898979569aa46
col15:   95176878a984a59babaabaeb96996a9ba95b9b9a9b7a6a89dbbca98fc7dd7866b7cb747b6464a889
col16:   37b8ab83c88a897d99ec6cd96a7cd667b7cc8bcacba8678c98c7a97faaba99dc97a8a989886a9255
col17:   37884172a4c76a4c75bd4c88baa959cfd799cab3a9ab85757b9a977bc868c479b87454475859578b
col18:   6a1a9864bbb67e7cabeab5eb7cbc9aaa9e997d8fa9babafa99684bbb8aaabbb8ac589967251978b2
col19:   57768a9aa787789699b9d9e7788b8a5ca9883b78887a96acab7b9a3a488f9bb9968eeb6a8869a868
col20:   2667757bab675caa69bead85cdbd99fcab99bdf9498a8af5b989cd99bac88b89975bb887c9cb4687
col21:   5d3c685665994b2cb5ab8a7bb8a9dcaae7795a78d9b65a95eda4ca7bb87ccc6cbb9a899a88bb4825
col22:   64559a8969996599985e9b9add448789fa79bbdd979e9ad68dc8a85988c6c765d79a77977939a884
col23:   58577898995c78ced8c68ca6ec6d99656a6bb8999aa88bc97978bc99588997498982b88a7777a473
col24:   347a693877577a39a8eae99abb8cb9ebea78aac8ac8ab99c6e8aba7b9c5869bbc96aa7799a767868
col25:   9a876798988c8ba8f8c97dcb9ba6f89eb8dc787689aba986a9695c7dcdbc867b6f9d5a3765777791
col26:   77978af8986bb9c86cd49badf9aa99cbefaa9edbd8bb8eaa9ebfefaaf5a9ba7f8da85ba987789a95
col27:   975ba899b8ba7eaecca86eba97eeec9ce9bafe88ebbc9bbbbbbb7a7eacdbdc6dac89abdb69859762
col28:   997d8aabea9ebc9cccebaccdcc9a5b6a8bfffa87d6ceabf8bbdbabaed8ca9c9abb99ab92847d78b8
col29:   c4898faba955d8a89dd69ddeb5bbb99bcedeaafff9bbb98caccb897cbad74a7c879cc7c9a7a74717
col30:   98878cec985696c5ccc88daa779f8f89a9dacdbbeeb8bfcd8bba5bdbbca9bc7adabf789aaa49b5a3
col31:   b8aa9b8bdaafca898fcbb9b8a95cacc8debbdc8bbaab7ce99ecc788bbea6cc9d7c957eb9898acbb3
col32:   d9596487cababadbe89d8a9cbcbc779cf7bfdbbcc8fcfacbebbaaee9aabd9a99bcbc7cb9bc7d8857
col33:   ca979ad57d7cd9abccbd8ecd9aecdeabfba8be7addeacda8ccba9ba9dac88b7bb89dd8a689b5bab9
col34:   3d98c7a88776ccae7abacbcd7789eb9acecabc87b8dca87fe5eebeb9baabecdba88bb98568ab7ab6
col35:   67b99a998cc89dd9cffea8ebd68cbdf8cff888cfccebfcda9dc8e8a9cbf9fa9c8e9ca7a8697759c5
col36:   87646b58689ba9988bdd8cdbbcc9f69fadcfb3bb9dcdc6fdabded9b89c997fad9fc8cdc9b7ba667b
col37:   5cc579998ad9fc79dcabcac8fd6ebfeccbcfbd9dbbf9bdc9dcfd9afe9feb9f8bbacaa89977c75938
col38:   a9c9d6b9cb8aeecc88cfccddebccd89bc8ffffce7fadccc8bd9aafd6bda7fa8caa6bc9866f9aca88
col39:   99db78988d9abba998ff8dbabdbbbafbccbf99dcecccdfbbcf9cdebafbdace9a76be7c685a9a772c
col40:   8c49875a6c7ead9aecd8bcdbbecd99cc9c7dcb89ccca7c9cacbcedeb99faccdccaccfab7bb7ab877
col41:   6a4565a58cb9b9fbfcc9fd9ecacab88dadfaccecdcfbdffbbbf9efbea8bcb8c89a9a8fcb947a98c8
col42:   5ba8e7ccda8b87ceddacdbcfa8e9fccaaaecb9ff6bba7bafcecabcbafc7a9cecbcbad89cb7898789
col43:   89ccc87b898cac77fcccd9bef8bacccefabcbbe9aafdcbfcea8bacdbfd9dfcb7b95b8a8dcd493a98
col44:   996ac7aa97d8cbbcdcddabbddc9a9c8ebbbdb99ad9bc9bcbbebecebea8abecb69a9dba98e479a95b
col45:   c697979b9eeafdfbccda7c89cc9c6eadadfdbbdfc9abaeeddecbbafafc6cfdbecad8937986c76ac6
col46:   48ebb9785cd589ebbeb9caeccceebdbffabdc7fbedb7dccbbaf9bf9cfb9ccdcbfba99ac8c7a7779b
col47:   b969858887b9f9f8fc9a79caab8dbdddabbafc8cc6bba9acfeeb7adc8daabd9a6becdcdcabb9b995
col48:   67879bbcb67ac8abbacefcbd9cbfa5bccd7cedfbcbaeafbbfeda8aac9ebcbc9aaa7c4b96a6c93b68
col49:   279666778a9c9cbbcbac9e79ac7c778abbbb9ad9ed9dbdbecaccac6bec87a96bdd197e6a9bbbb666
col50:   57b59a8a7bb9e8b899cc9d89ba96bed8cddfaafcabefaecffcbdbb9b5979bcdaabbbcd777979b5ba
col51:   52a1c948a25459b269486798a9a9525c8dca59ce9889acc48b9897999b48aa787b9abb97a7339667
ROC:	 BPix_BmI_SEC3_LYR2_LDR5F_MOD4_ROC3
col00:   4a763967783a93269661895b56687ca76a9a786684b455a95a9a3815986b66627a14767766412611
col01:   a66876b98a96b8da988b68b85b579a9b8ed878779798768aa5b85999ba569a77ac72782556678272
col02:   9153b7a797c9a64966a4b9a57ba96acaaa7ab7349cabb758a978a56678778e798a7955ba97a89864
col03:   2a88868a7b97a87acb5dc377a69e8fd86a8a867a8895b98ce78a985859965a45679a556767867357
col04:   8a97587aba716489ca8ba68bb8379d9b6daad8b77c68abc577575c777887b786baab6598d5a87a66
col05:   2b987f5b9baba8cba594863787a6aca6c9d698b6d89be68b95dbb67a9997a5c78b97888849569561
col06:   615477bc986b592638d889979946a489bc8a7797b9777dca69c79c9aba8b3958a8488883a6671792
col07:   947c97ba8beb989998aab5ba7c678ababcac99b4bab8ccb9bb8a9c993a8656799996b8784987a794
col08:   7737977c68b66b8bb6978bc58867c7aba6adbacba6ca78a88a78c5475a8badb85dd8b5abac327369
col09:   9ba59ba97c48b9a955988c6ab9886bbcb99cb8f99ab7b8bc677c97878b839aa84689378888a47764
col10:   a49dca65b869984dc8587aa69a677bb9eeaadeacbdcb88b59cca277b8a88cc9aa6a9a88186685892
col11:   197af99b8a59be76879d7698c97ba889c9adac9a9bb89a88bdc9c7ba897c67bb798a89a86774b6a4
col12:   569a789d9c61a877ac986958eaa88ac9a99a98bb879b98bcea8758aa88858a7c89699b8858827a93
col13:   a871667baa7879bb9ac88a9e98bb79ab9889acbd9bbde98a9a7c65869778d97ab58a886a955b576a
col14:   ae66a89d8779a89b7697c9aebaa98895abddbdfca5abe99bcc7d9cb8a9bb6987ac87ad6387865776
col15:   68678a78dbc9596cbabfa67e499cd97878cd8adc68d9af81d898979798ca99a9b3b8c78957449754
col16:   69b8a89aaadc99b978b8b9adda6a8ac9bab8ca98a7cb8bb99cea8489b77a787b89959b8a76a73726
col17:   886cccaca97579ac7bcbb99ae7b8ccc8957aad898ba89e8abdb7c819bbb6cd589646978556a65646
col18:   a787788a97997697cbb7a8787775dbcb98ba8cbccb8c899caab6866cab87aa695879799796855672
col19:   8887888c8b8b88ba989be65a9bae9c89a7a9cb7ccbb799996b7d966a96889c8ba9aa9695978b6554
col20:   355878898ab99a9a89b98a9b85977ca6baa9a5bfa9baaccbad6b8ed979b89c89aa66b8866d466437
col21:   5a4a7a6bad78aacaba9db89973d9d7acb689caaaa596aab7f8a9b87a9adb896aeba8889b59858966
col22:   6876647a9babbb29786a8c8ba8768f9b99caaadb8db9cd7ba9a8a8bababa6b679ba97416496b7779
col23:   13769879b8a78c75d7b8b6ebb96b5bcae9b59bacd99b979bca88da8dd7a697e77c844a7477868481
col24:   465cb9996a68ca7a56bdbbc76c7adb69c99c7a7ab9b8aa9a8caa8999b89dd866589a8879a8746a96
col25:   6569ba4e754c99999b88a7bccbcbbbab69698cccbeb7b9caa7ca99cdbb79caa7c999c7399a977744
col26:   a48899d6eb9a99ecccb9ac8fb9cb9bcabebdbbebfcbbeff9bfba9c89babbdae89cc9a876897a75a9
col27:   78b8c87c9a7aafb9a9a9babc9ac7c899eaaa6cccdadb9abb9dcb78dc9b969ad79aa7bc9955bb7889
col28:   8a6ccd6ac9d8fcd6bbabbf9c8baadbe9bafbb9a9bce8bafbccdd9bdabb6b8b8a9c7cbbb77b5aa7c5
col29:   b97bcaad9d8aab8bddca9fbbcbc89dbcfbaad9cbbd98dcd7c9bcddccdcb9b977aac9a9c4b8bab767
col30:   58a7b6a6ababc9a4fd9aeaebf99ac959bd8cadd9afecceabbc79a78d9fabd98abbc8ba6aa97d968a
col31:   8887acc9bffca8ab7aecb6bedcc889fcbafbddfddbffb9fdcdaadcbd7afbcb6abbbaa79a6775b979
col32:   a8c76ca79bdfb9ca9aabfdcbba9cccd9cdd9bfadbba8b7bcdb8cccbff8daaadcecc9d89dd99ca9b4
col33:   564aea7a7eccceaeabf9ebebcfbbbdbffd9ccdbcacbcda9ca679abafabcabe899c649d599abab788
col34:   aab7b6aba9db8dcbfccddaacbadaceabebaa7cccdad9cbc7cbbdcdcdcecdbc9addfde88c89abe78a
col35:   87888ca98db9daf9fe8bddfd9c9bdabaadc89b9cfc8afded999cbacb9c967f9cbd9b97baa7c7b765
col36:   aae6a7898ab9edbbb9d9d9bbdf7daab7b7cebc58abcdaeccb99baadbbc7a99a8bd8687da9a8a6d59
col37:   dcbbbc99aaba8bcbacdabceaefcdbecefa8ecdaebafdcecddabdc8facddc9cdbdacb9cd9cdb4a9c7
col38:   a9ac7abfcbeceddbfe79ebfb89dcddadb9ddadee9cbbaaacbbac9ffdbebdaa7ca87bb69cab969f4a
col39:   8ab859ebc9bccadacebc9b7babae4ddc95bafadaddb8bec7cadedab89cea698ecbfb7bca98aae47a
col40:   86bb98d98fddbd9ceccfafdcafcbbcadabfbd7dcaf8c8bbdebbc89c9afa879ceaaae759eb68ad946
col41:   78c89aaacfaccb889f9deafcaa9dbeebcfffdfbdaa8eafbcfdea9edffbaacaeba9a88c8e78766888
col42:   cacaf687ccfadebaea9cedaebccbd89addbdbcdf9bc8bbcaabc8bb9eaebbb9c87a9ad897abacd794
col43:   68becd89aee6bf8badc99bbfcd9efc9cdbedfccabafccdcfeecc9bceacabcbacdfea9cea8b7f98e4
col44:   798a9bd956ddcdbfcd9daabec9dfbc9faf8ffebadebadbbbecbdb9ccefccf5cbaa9ab9cbe6767c38
col45:   aa8dcfdaa9d9acabcbdfba6aeecdfdccb9dbacc9cd9dacdfedebdcafdb9bcabcd6b99b68bc66c867
col46:   6bbedb98c8ddbabcd77ecfebbdccfbcbbceffcaeccdbe7aafcaddc8bebbeec6aaaf9daabed7a99d4
col47:   ea99bebb3c9ddc9fcbfcfdafabbbfaffecccff7abbdceebf7fdfd9cddbeeafdc9dcc8bbaa9aa9978
col48:   9a9d9d6aeccdaddabcbacfb7bddb9accbd78cdcecbfec6eccbb9b9ddbc98ddaab89c9ba9b9a97855
col49:   7aadbb8ffabcbbbecb89d9d8debaeffefcffcafafdddaaabf8cbdbbb9adaae5fdafada99cdccba78
col50:   959aeaeb8acceedcdcafdf9aaecedc8faedfcbbfcc9bfbfcdcbbccbbccdcbd8ac8b9aaad9ac9aab4
col51:   a978adb7d977c7cf9b8989deabdb9bcdacbdd68dcccc99ca795cb7cbaba68797d97b87887962bb75
ROC:	 BPix_BmI_SEC3_LYR2_LDR5F_MOD4_ROC4
col00:   645233556169477165386a64c5b967449584a595748757613a176548667768375635545458539837
col01:   68689479687663664486d4279a5b76a5a8a866698859d8865545c8a9a45a4556687c8b78b94a7858
col02:   637536a85453249b66c52c779b478c44aa98488b9a87b487b9a736695678968af8687887b9372962
col03:   54652552665726437b965c4988a357d97acb47b78687966864958699b6877b279788468b7b1567a3
col04:   4ba85a26676356574a7788eaa774734db584965cb865a985b4744a5778c989866897563454847556
col05:   11895954a3367674697594897684b8bd5a69a8aa96976865a935967478b9c5554b59867486b75585
col06:   135666694a77aab89975bb8a488b879fa687bb57a78a5886978869a1868789894278b97a28915485
col07:   35927a9729aa276c684786c96669a8a6ac5aab9795a7a37488bc647b7bb87595b64966a77565b684
col08:   569344a648888a52862358b48868479b879a9aa99b3aa975798ea9a67688b968967767a7377766a8
col09:   57378586598386476776964977a98794a7985a68b979fc773898877c79b9a6a66399847896566b75
col10:   9658596863635a6a776785d6b87c9eaaaa6489c6b9a5278564849799cb97734475785a869643a93a
col11:   333874a7448655558487287736768a53c5c88e7966b95969879889bb5784b9a3a66797776aa5c153
col12:   156a55a9887658677387a7479a6a6c88a38fab87977baaa436875bb99496a7a6768776367a696359
col13:   196846677a8486459437ba6579978b8a87c7a8a59939579582c785a66a647696875a952879167893
col14:   47368c2a755518bd778b6b68bb989979bc98b9b8aa9b99a7887aa85a4a798b98c7835a8849957576
col15:   55482985446676549864d9c95376689986a4c798b88b86a859a67a899d2cb66ab747611978b43487
col16:   7575c87466688aa6979ce7b7a7b97a9b57689c88c679978573679389dab77bba5da4a963496a9282
col17:   a6557539154679665899598977aab9e72cb848928896a59797967678a69b9668877aa9b866886966
col18:   678498874a566356bb63b367558a577acbbbcb8c769c6a868a6a6a8b7488279786b54c6586845788
col19:   56745486558777e7bda7bc8659ac9998ac88989acb8bab77a8694399b5abb77697aa8a798887b485
col20:   2646766a752348a7885a7d7877ba65c6b89bd8b7356b7da5588a8848c896689768987985b6755794
col21:   3156288943891453698695a887a9a7cbb9f986e99b5989987687a98279ba7a87c974741764675c98
col22:   2844689a6aa6747aa439b86b8789c877c9baa88ca6c5889949598ebe77a7829367a9e69955986576
col23:   62a9b989b83767778557a59874a4eba2ca5aaa748774a879875a9aa8b59a888a776675c69835a362
col24:   765a2785b389aaa8477a94a79864ba77ba8b9ab9b85a77757a979755b6b7688a4c997964666494c4
col25:   8676a98687a988949599a86b78bab9859b6796788b79a596976d464ba9c78bb768a57cb99768d962
col26:   7396c46a64555866a76cb6ab799caec97dc98acb69a97b77aabb668ba8a8bf6bb788caa7bbb7cbdc
col27:   8673794a8787a8359949a76b58c9b9a99bbc879cbca389a69ab77b6a967ad6669c9ba97a9b985675
col28:   778588a66588ab5d94cca89a7ba9abca6a98cc9b888657a6c8899ab6c9a6886cddbc78999496bc78
col29:   7299f59765848ab79acc7a8aa7c9a69a5b88bbbbab96b9baa88cdcbbd98a779799b7da89b757d87c
col30:   18a266686c8c8a699da88bec756b789b5a9ac89cb5de7788cb8a969f57aa98cbc9a5aab8ba98b456
col31:   547bc99aaac996d57ab79dcc5d9beab5a8abd88caaca88a7dadb8a8bf698fa87887cc9b67bc9b867
col32:   8356c99dc8aaa6b7c9759b89c69fbc9a95adc5abc488d8a9baad9ade9888cccce5babbba7569ade7
col33:   67c9b9aa6d85b894a4bc97b97a8cd8eb9aa879ca97a99a934ba6bcb9b58a99d878b19aa69e9ba589
col34:   a686696abaacd9abdaa68aa9d9978eacbacbacfcbe6abbac6899ac79eb889bcb8aaa98cb959db8f5
col35:   7776aaa6b485a5a9b93dbaa88bceccc999b98aaba86db6a6a99b99ab88a6a9b969adba6b9457a597
col36:   98b3aa8c7799778d9aa46b68c6ecc8c9b9bbd757e8b6cb9ea8a6cdb9deeaace68a896b67cca7b8c8
col37:   a7659a7978c8a88bdaadaba7ca8d88dfafbd89badc8abdbdcfe9b8aac89999b88b997af9a88dd944
col38:   956a6c8b8958ba7a9bacefaa7daa65dcbca595e8c8bbbaa79a89cab89d8abab999a5c8db9a99889a
col39:   4754296989889dac88bcd6b859d6cb99ab9d6bd8acad9aabac8cbbcbabc9eb89999ca7cc91b9b517
col40:   33bb8b87c9a79c878bd7aa78efccca8a9a9addf9b7979cbccca8b9ac868cae89ac9b8c99dacedbba
col41:   567aa9986aabac99bac6ddcaa99c79bae8bebcd97d6bbbfdc989ed8dbaa997cc999ba7bbe9a99b8c
col42:   9368b99c897a98aab8c8dbd7969dceaadabab5fbaa89aaeaababddb5b9c9aebdac9acc9e56ca86a6
col43:   79c77b8c7c996a9d7db87dbfccdad8daadacb9fdcbeca6accaaabbcbacfe7bc6d7adefaa5acb9a6b
col44:   69a9b788a5888ccbbccc9caadfebbeee9ce7dbcf9dd9e9badba8ecd89db7c5e8c95aad9fb8b699cb
col45:   6589a884786c8a88dac94adc989ab89c7aa96cebab79aa9779898ccbcc79868a8b9d7b59deabb843
col46:   ba5b7c7878aa8879f8bdacc98aec4a67bbdbbada8cffbbacdd9ad7c89bac9dd8ecaa7de57f7d96c7
col47:   4398b697a7dc9ceb9998bcbdbc87a8babdd9dcbaa679badd9acc96cfcbc8dae9babb7eabb8d8bdb9
col48:   75645eb8a8a56ba8ddb4ae9a89bbbebbcf7ddaacbabbfcafba9cbaccde797dcd9ab99bba86bdc9bd
col49:   3aabba9979c76caa99898d9a8c58eada868bcdcabceba999aa7d8b9bdbe998bbabae8dc997769d77
col50:   857a7a99a87b89778d9be9b8facf99ba6b9cdcbcc8eba98b9aed6f9e8cadbadc9c99ccd88c9bb9cb
col51:   165a6899673168676265a1b897a348bcf9e88569889a9779a7a8ad98b75dbaa97779a9aa75768b56
ROC:	 BPix_BmI_SEC3_LYR2_LDR5F_MOD4_ROC5
col00:   5c5693688896695497a768b7c7a79a8ab78d8daaa454ba78b7c899b858a66c665af768a4999dc563
col01:   6885999767887a97447cbba5e816876c96a7c7acb7687c888869a89b759eaa898f66c8a89b682879
col02:   52345466668c66adb78a989947cbcc9caaccccc95ac955ebd7ba799c5add9865899e5c17956768a8
col03:   485258a669c77848ab7a97569599fcbbe895e9fb1979aab67956aa8ac9e977999ad89a67b6936895
col04:   5c66a85c634ca69a77bc4bab9cd9aaaabdcab9e3f7a9da96bb8cada7e8cb89d7ba7577a667aa9654
col05:   54674b456a25a8a488a8baab9779b78b9aac996be78a8fc8a899abb6e6577bba969ccfb68968b7ac
col06:   b723ca95ab4b9b894b87b659c7f98799afcfd99bd9cbaaabb8e7779bf669bb7e9aa775bc74a5f778
col07:   5489ba87376c6a7a898be6aa7b8a7a7bbcd6bab999cbcbc9b79acad9c3eadc878b786b777da76978
col08:   7534ca75775196b66ca6c84a7a6bcdd91cc87868aa88c8a98abfbebbc88cbba89cbbc6965828f745
col09:   463aa6b57a8b6dbad86baca67c8bbcbac2fb9b7d7cddbb7ae8b53cb7edd9a99b6edecba78aec9894
col10:   638448c996a29876987bbb9a78bdbd87ddbbb8aabf9a8cfabfd8cbb78cabea79a7ba66ba95877b57
col11:   56a56974a638135d78aab6989cb6979a9c68cc8aaf8ebb89b9c8eb99a89c5c8debbab13c888e6f55
col12:   b447538a946644a76ba8aad9a9c8597bbbb9ea9ddea6a7e75ba9b7b5d9cc8ab449796abb65fd4c99
col13:   8743a175a7a5a8598abb8a79c4778d8884cb9b7a98aea68a95ca89dcba69ab4765a9bdb978789b85
col14:   62553a77b567a488ba9567b569996d36a8b78da86bbde7a849b6b986aebaf9b6687db794876887c6
col15:   778c7a663957969b57abcd9b79a97d9aaa687cd8a3c8b78979ca9597748878958799db952a6aca68
col16:   14123477778888aaa4799b79a898a6ac89a77938b8f7aa968ada9aa678b7679dac8c8c97bbbb9998
col17:   86492387b85387734467ab7aa684db97885897774a99c565cd8d785ac5896275ba66c7b69948774b
col18:   1617539479c529ba529b4b7abba8aa7cb7c8b78ba898ae78848dbf85ea58bb9bbeac4477986b7975
col19:   445a99597a795642797dcc5a6b6585c77ab898b7798898d96b4d698388588657c8c6f5795a76468b
col20:   2668247a759915176aba895a89c9a7aaa868c5997464d66ddb766a8827c855c479b9a9a77cb4e466
col21:   35767178a56799b5a868bd277c7cab9a4d78b9e687b98396768458797a5f747774cc69769a88956b
col22:   46343435687585a97a7989a79567c96389a57c9e6bb88968c6d6aaa6a5c397a96daa6b88a6638a83
col23:   831646185a497885a79689a5ea9986aac889ca88875469a884c774b569a75bc79c8a668777d69542
col24:   533118759856699867a969889c95ac79d797aa976888a467a5bbaaca3898aa871aa7a6973aa8a587
col25:   85b9b8937249b69699ac9bc879988b87c78e959b99a8a9b6dba4a68b9b76b5a7a9c76a763b68669b
col26:   6a5b98589b57dbccada94a99c6d95ba698bb67c8699bc6ba9ca5bac5be7daa7b7a7bd4a788665da6
col27:   4598ba9cd878b84bbbb8aa9dc88b9df598cabb79a9aa5dcd939e6bbbe9a976b7e575a8cc8a679b9a
col28:   9458ce996576679c88d89bdaaf8a9db887a77bebaaca7977dad8b7e9bfbb69c98ac9a688c876e985
col29:   c155e48b9934966bdbbbbda99bbc9f87bb9cee8bb9a7bb899ab6968a8c59b8bc3c999a78a9a8a595
col30:   59478ab5a596cbaca8c78b9bca6accdf5dcdbabde7aabaaa675bdbbae7dabac8ca9ab983bcc1bb88
col31:   66a557a7876798a7ab9a68cab9bba999c9abeb7ec8bdc6699ddbfa9cb98e6a799996758397762b84
col32:   688187b9698784b378867b7bbadfad9acbc7e8ecb7bba9ab97c9dc86ebead8b77da9ac857c686997
col33:   27aac69696b6f767578a4bf7c9dbabe9c7cabd8ab878feaa89df5d99fca89a69ab9aabdaaaa26a9c
col34:   75188639769d9a6ba7c59ca58bdbc9dbd3a8aacba6aaec689bbdeda89ae986b9dba8c7fa9eba86f8
col35:   77b167bc669b7787d67aaee99dcaecb89788afc7b876bad8c98a65987ce7f9bad5a7c8b873aa67a6
col36:   55775a7eb776b9999dd7baa898ace895eafed8a97ccbacbbb9ccbdcbd8a89eaa6bbcca5cb3afc7c7
col37:   4798654bd797b9c4b6aabd89eaae9cbfce9db8fa89bac9a9b99dc9fd7be7fcaabd8aacb975b88498
col38:   1a6caacfcb65ab8eaabe9ab8a9effbb8fcbedeecbb9c7a8cbefb6daa9ac9a9aaaf7ddd8bca8b6788
col39:   6c57888c7ba4bedbaddacb899e8cbac999dbddd898a868cbb95c9b8cfa8a87bb799caa9b9a8abab9
col40:   b4798aabc69b4377c687dc89ebddcabd759cde9dcb8bcbaabc99caa5b9d79a9b8f9acb9e47a7f369
col41:   6a899c9d8b2cab8caadbacddbeadaacaacdcb97f89b9bbdf8c8689bbf79866eeacedb8999756bb97
col42:   557a7a8ac789ad8dbabafcc8d9fbeced5ac8d8ba5dacad8a6c4dbec7f767af6bd9ac8786a7cfd8bc
col43:   77a899bf8cbabbadacda9cbf5cf8deebdcbcd9d99b8d7afbd77dbcc6b6b7cb98aab385accbaa98a7
col44:   c6aab99abaecbe88eabbffbbbccfdeecbbfcd97dca8f7ddfeb99cfc9a9af9b8d878fbc7aaa8859b8
col45:   bc7b9cc8b89fdaacecacfba9af9edfeebff9de8ceabda98ecf9b7ca9babea7d98949c8993396a872
col46:   89eb9e7b87c6dbbdebebacc9f999aacdabffbdbf8ae5cfd7bdb986bb7accb8a5a7ab68c8b8ccc798
col47:   7b7baaa9e999abdb89db98cbc8cffcbde9ddcbafaec97acf7e98888a9dc9a9597a98c888768b498b
col48:   4c7aab988a9bbdadbdecabc8cffec8ba4dfebdd6d98cedc9b88d9bedbad987a7ca8d997acca7ba5c
col49:   68b9cbbdc9feab7babe9bad7bdcfa8fc8bccd6ae695898cf9cbdb98c9a8b978b9968a6c687ae8963
col50:   aa79a97da8cdbbb6fc7abbc9baeef6abfdafbbdbca9fb6c9eaa7b87becff87d76c8b8a88c17698a2
col51:   a7797e798a5f59cc7dac76bd8f8cc99aba5dbb683b98a6873abacdd87468788987a8684695b47676
ROC:	 BPix_BmI_SEC3_LYR2_LDR5F_MOD4_ROC6
col00:   58767496368751559997757aaa784588a8698955456585954687898378456512244372193347d671
col01:   58931866767a478a839cb999669a96c65c87c95863565774968998a9776993565ca67785669a3b77
col02:   8437c3849b4967aaa778ca97cb8998dc96b99ba378766a8b6b9aa58d7828988b6467855aa8a87996
col03:   534756855c267799658795c79556c67669c9baa798a78679769b789975676754969686876857a636
col04:   817a9b46a8967977a4b9a4b7d867c64a885b866acc9c9c7638678aa857655687a943b83a87aaa987
col05:   191973539879495847a8677dab4a77946a7aa976a984c9997865898b767db64876b7763686365466
col06:   75578567769a979972a9a57a797c8899a9a9aa8ca59abc8aa688a797a589a86599cba9565587d942
col07:   95685a45794686b889b72a858edaec3c8a886be788b8dada7bab7ac79976971d89aa9b7657a75588
col08:   634871588786c62b657869a58a8aaa7a7dacb8b7c95ac57898959ba79aaa7674696b87ca8892a147
col09:   3667643542289566626767476b966589d6ac98887aa98a9999a8c968a99b646776697b776973b964
col10:   572524346576937dac9b9459887b975899887b8ecaaa98da8c8a78d9a885a6aa6a9b95888b76caa5
col11:   654d574557653156697548787ac65886888a9a7ac988c46aba865a9ac79795c86a9788868945a868
col12:   67258485646793988a7a7878a699ac9b559a67755e767a897ada76548a86b969b98aaa85688879b8
col13:   6156877561552838967599c8495895888869c79689c7baa788a8b9adc7997b86ac46689887759976
col14:   7662a486846748855a644694b8c78b857aa877a7878a93dac9d6c7b7b86b8b88d77568999347a853
col15:   52427a78317745865a64777665f78a96c8a696a8697797bab4aab85a9768daa99c8c58697564c586
col16:   646447766b325544768685c78878bcd786a69aaacb589aabdbbc957a7ab9da6a78cd59b8b7758667
col17:   451132784556779a6797cd94976b96e9ab98398984ab97b4bd79b8b2b986a85a88a6659476a68378
col18:   47837a4565574873cc54ba73887a7797b7745797a8749967999aa79b8ba9c79a8b8768647a39599a
col19:   49b499356255874749c6a5c7aa65c66acad92c468a9a87a98bb58a9e5977ba9d589bb8a79385aaa8
col20:   619527668576b765bcb99686a7888cab8894b4c878a6ba76d7aabad4958bb6997d99857488878786
col21:   52414a34792182666a6677b758abc8979a79a88987b7ac78ca37bec67b876a6566a9888455381769
col22:   453695666774747967a6c8a99a57777a9969757594c78bda9aac89c9d949999b896ab9b747995872
col23:   32332796663663b6986caaa7779bc96883d7b46979b888b4a598aaab77777a69b8598668828396a8
col24:   3446854856b685884c799685a99baba959b76a8858c96abaa56aa6aa9a8c79988798b356a6698687
col25:   432754755874779694a78e95c9c7a9b7abad997c5998b997ac8a98aaa97ae8a6986a58659acaa667
col26:   25b39566754859d7c6b9fc8987aaaa9ad5becc698ab85a97dcbde9abab9bda988aeb99f68da8cb99
col27:   723178856c794a978669a6a699c6dae767a6ba8bbbca899b8889a9d99ab98887d7d7c98d97d9948a
col28:   385575764697749689b788688abc9b9cdbba7d7a7a89cbb7ddcaacdad9f8bafd7c8e9ac9a9aaa898
col29:   5485665983a696aa86a7cccbbc9683bc98dcbb9979bac9f38bc8b9c8ab8ac9ba88659a89ea9ebd8e
col30:   264623542479699d8e8b697c8b88ba9abd8addca7b8af87b7cd9b9cb8a98c9c9abcba889bccb9d9a
col31:   68744668792899aa66ac6786c9cbc9dcb9d7698c987bc8aaebaa9c9bfccba6c6edb9bc9899c8ca8a
col32:   4841b67b6887568866aacbd8adecc9e889b89cbfbdbdabcc9e9fdebdb9bccf7daafa79987bd9b789
col33:   54765749978737a9988b9b9b898e99a9a7bbcdabbabdccc99fcbcdc9b8cbcb79a9c89b7999b6a8a9
col34:   5ba4b188b79989c98aeb979f9bbebfa89ebcb8e9ba9b79accec6e5dacbaef888ed9accaaaae987c9
col35:   7a75b58a937a79a7ba9ba9bbaaebbbac679cbbc5a9e9c99dac9ecb6cbbda9bdab76cccdabaa48b78
col36:   77986955857a468a7b3d6a5b979bca9bcabccbca8cd68bc98ecc7bcdcba97a8acd98bac9bdacdd99
col37:   97c99b9796989b98bbbabbb85d79cbbcbaecacc9ab7acbbdcdaeade8fbcacad4dacaecba9cdbbad7
col38:   37c5a698595a7887b87aa989ceca675d9a95c99cca99fdee9ddca8dcde9c9cc9abbcaca8aeda89a7
col39:   673376a88c657a6d67d879a99ab6cfcaab9ab9c9b9d9dbccebccdeacdecbc9ec7a997dbcc7abba88
col40:   a69598bab9ca7abc67b6beaadca9adbc8dfb98babbbccdad98dbfedfbeaabbc9cbf9f9bcbd8abfa6
col41:   a8938a8b48968bc8bd9aa9cdbcfbcebcdddbdaded9afcdecfbec7cddeba6cdc99fdd9cd9ddcadae7
col42:   6b898b8aba7a8aad78adccbca7ecac8dab9bcfcbaecfcebdebdabcdacccaedbacbba6cedcaadba4a
col43:   7976cad8a9bc8aadbdb6c7cbabbed9bdcfdbfeecdcaececffacffbcaffefcdfeedcdced6bcafc8b8
col44:   a7789aa6caab88a8f9c7deacba9fbfcdaaefcdddcfedb9ddccbcfbddbbedcbd7acffb9b8cafbc9ac
col45:   677acbca8aedabc8a6bb7b9ba9baabfdccedccccaaddace99aebabfddd9cccfccaad9a8cdcabba59
col46:   598b79ccecc998cd998baafbcdbecfbbd8efacdfcdcbbbe6ddfebecaddfbecccdbccf999bb9ac8ba
col47:   9697b698a98cc7bbcd9bfabbd9faadedea9bfdcda59fcfffcefeefebcbaaadfbd9eaa89d9aac7c86
col48:   aa9fbe99be9eab79e9bcadaebafdbc8bcdcae9ccddcffacf8c9eeed99eecddbf9aebedb4accbe8da
col49:   aac97da9cccaaaf8bcc9ddbeefa9acfecb9daacadbbfaf8c8c9fecface8fdedcdfbb98caaa89ad9b
col50:   b668ccbcccdefdaae8beedaad9fecbc9bccbccbfc9adfebcfafefacdffaaca9aa8cb7aaade8bebea
col51:   74a546c97aa677ac68a89b977a8eca79e9adb96dc968bba8a5a98a7daa5a6baab987d769776aabb7
ROC:	 BPix_BmI_SEC3_LYR2_LDR5F_MOD4_ROC7
col00:   8593585171878ab6a978968a7a87b8c8d6a748699c67c97562774a6595d93875a67997b79d65786c
col01:   84a6b3b7677d7c25797f7c7594a89778cbbd99d8c89ba97d86bac79bb7acc5798dd8a6b4c9b95975
col02:   a7b3685878b7aa75abac984c5b9daaaaae8aa9b98a8859abc689c67b99b98d6cc5775b989875dca9
col03:   9a76a8b5e6bab8846b9aa64d4968acbdbc8b8ac8faa9addb9986cbc7a9dec89a7ba6857c9d9d7bb6
col04:   2875a5499d866783ed58ccb996ada86b7aa87b7baa6bdc7a8afb6bbed97bf5a7acb9988c779c67b7
col05:   977785758ea999e9aca9fabcc95a6edba8bd6489adba9d9a9cafdb478aa5a767aa6b968bc9658666
col06:   82878a58668dc7dba7969978c8aa9b88babb94b97aa8dce8abfeb9bd9b989978989786aa785b5786
col07:   a79649b8ba9c7a7aabb85383a8b7cddd8c8a8989acdc8abd94ac9a6dba9a49bb98645279c7ca7cc6
col08:   5b6987b66989a9d8b77c858d899597ab79a6879d9ac28987ba969c6a797b7a988aa8669c8166b955
col09:   75696ac9a79a8db6768a77abba7d3a9bbbc9a878dccc9e6cbb8cb7498d8b85a8aa3679aaaa779ab6
col10:   78a67a9ac7b9acba86b899b98659b9acfdaaac8bae8bfac999a6b8ac88b9a97c8958a38aa7a8c878
col11:   67b878887aaa9bc68769c9abac7a988dbaabaaa78bb9865a8b979758a7a37a95d64a67698a993696
col12:   6a6878a856a87a6bbbb5caa88caaa6b8bc8e899cb7adab78a8bafc9bb958ea855998a797ab78daa5
col13:   5639bab39a8976bce967cab9ad99daa7abca99ba7da99b6cace9879c8899a957cba74987a85b69b8
col14:   76a986788687b7bda96aba89bcaababb98edb65b5a9bcba997999a7964575867966b49a392b9554b
col15:   8b8a8b98ab9a699ce9999aac7edbabcba8bd97baaa9cb8beeabcb9a7798bbc99789eb9a6b6776555
col16:   75c57569b5b9b696ccbeaac87afbe989a88969919ebaeeccb9b969abb9af858786678a7964a565b5
col17:   69b895979bbc4359b569898a6b9d69bea9866bca75ba6696cba7db8dd78b7c85949986ab48a588aa
col18:   a34b5b69a999aa6ab68dab7fa9bbac5ba8b9c76d887dbadd955aca7bc9b8bc9772399a66927899b5
col19:   97728787598d69949ccb99c698d79aeb9cc8a69a9b9b89b8b1a9bc6e8388f6a86978364999696a65
col20:   846677cac9c4978687d7daee99bce8abb7fcd9bf657eb89898ac9ad97d9695666397a9b58d3a9888
col21:   6a9787887896a678b8da8a8cdebbbc9bb9cb97c68cc8aa7dcaceba9c6c876ca6a8bda9bab87a7797
col22:   1746597278a859777ab8a57b98998a9c9998ba5b979bbb99c987876b879a66785a9869c8968595d9
col23:   7865a989ba8896aa9b99a858ac7ba9d7af668dcbc7a7acc88a8aaba899b9668689a7698998989684
col24:   487b6abca6663a5b8878789acbb9fa899aaea759a89bcbb7b6b789e65754a97a8dabb52a68e49899
col25:   896a63739a477b86849cc9aa75bbab8b8ed7ba997aecdd9bbdebd4acabca7a897ed69897b96ac486
col26:   777ac55eaa9cc8a8dc69aeca9dacbab9c88fffa9adaec8ec9bbfcdcdab8b8d9c77a786bf98aa8cdc
col27:   78a97aa888c4b9c98ca5bea6daf9cbfc99bdbcab9c9ffdebfcd8cab69cbaadad884da97bc899ba9b
col28:   7658a8a9a9c69a79d8aabbaab98dbbaeedec95dbe9c9afbf8ccec9b9eac6bc8d7fba8dbbbcd7895b
col29:   469c987c986baaaad3c8baeccba9a79abb7a8aecdba9df7ffaeebff8c9aaeeb87acb98da99e8b97a
col30:   59a9de8b88c9b9fd7d99d9d8eac8bcdaced79cacaa9caebecfcebabcdb8a9abcbdb9bcc387b9cde7
col31:   b2788849b9d8cb6acab98dca988a9e8bc8bfccceecbcbbccabadabeafdbccffba9a9eda6a99cb96a
col32:   678a8779bbdd89b9edc9debd9bbcc9cfacaedebcdaae9fe9867798ceacfafdad9abbbbcfdbc779ba
col33:   ca3a945aaa69a98997acbbc7dd9bfaca8a8fcebffe7bccccccdbeddcf8b998c9faafff99da8b6765
col34:   8a567cb4fbc9a958cbebbccdf9acbd97cdefcd8edbacc7cecadac9ffbaa6fdbbbcfdb47789dd96e2
col35:   8877ee6f8b59c99acdb9aacfbabddbec99ebddafdacff9be9bb8afcff9bac7caf9aacbbb9ba8cac4
col36:   57c8898a3ca98abc7baa9a9bab5aebbdbbbaabcafb9ac6bddcaacbaa9acbaac9dd99dacbc88c5997
col37:   b7866bca89e8ccc7a5c89bfcb98c8aacfbdcf9e8dbbbebb7c7bfb8df9aaeacb98a879acbb9ba88ba
col38:   b8a738bb7a8c9e95dcdc6cd9bab7cbacadfbec99cdbec9cadbcebbdcdadb8a879a8da9bddeeb88b8
col39:   3888adcd989bab999edfdaa78ad9eab8fb987dbbb9acfacdb97b97caaccf97cabfb7ebbaaef7ab76
col40:   c5a98cc98799faacfcbba8abab9daa99e8c99dcd8bfaf89eaeeda9bb9bdabb8dccc87ca8bdb57695
col41:   6679b9c7bda77ddb9abaa9fae9b9bb67fccc77b7b89ddfe9fc6a9aec7dc7fccacd86c9b8ddb96bab
col42:   4385968c969fea7cdacbdc8fec8bc9ebcaabbbeba887c9e6bbcc89688c8ccc68bd8bcabba9975a98
col43:   a57488a78a5989dd9a5b9abacb9aacafeac8a7a9b77ade9cd8baba9bdcf9c6a9e9b9fcd3d9bccc98
col44:   4ca9bc47b79b8bb6abada997bdbabf3c9cb9ebdbeea79ad7d7d9fed7a8caeca9afa7888c8daab98d
col45:   87a7bbdca792b898a97b6add9eadc8dbbab9adbfa7ddb8ed6c7ca9e9eedcb8cb8bfdddcb9589db99
col46:   85697b9b677abb678debbedbbcb7fa98dc99e9ec87bb8eb8dbb9a87dabfbeaecc9adcac5b9c9be4a
col47:   694957a6755c9d85559ccab9bae989a998cb9dc9eabcad89efc5fc8cb7ea8fb68c8dbabc7ccc9ab7
col48:   2baa59b98ba9c86cf6c6bc7ccbdaf6bacbdc8b7d9bedeb88f5bdcaaeccc97cfab87aa8dcafcb879b
col49:   39968bc7bcca99b89aa973dcaaabeababda9eaa8b7aedb6eb9b5bbccea7ed2c6f96786ca6d7bb767
col50:   97869b8998adc98f85988a88b8dcb9c98ecaeca6abbcdcb6dbd8bcebfdacdee996bcfbeadccdb8aa
col51:   43479447796879b7a89a8c3abfbc8b4eb637ab6696676a9c496a7c7a77caa468a6e5685aa848a696
ROC:	 BPix_BmI_SEC3_LYR2_LDR5F_MOD4_ROC8
col00:   16323245424451674aa8581612995a8565456c558488b4569a6b86a96a8a5e8da575448731a13666
col01:   466467a67c9878a7b58a6499ba89bdaa9ba8aa9997796aa466587889696945969a9a648c79475b37
col02:   3742336568287688987694b756565b77d8a979bb786bc5577a8768ca77a79a6aaa6a95b468c67836
col03:   67325554789bc56639788679ebd9a5b8b5a687db865b8caa7c6776897e96779f8556877c86535b67
col04:   623841ac5976aa86a37ab3a66a8c846cdb57d8a7a8ab99c9aa699ae9c967a8545a78897562253796
col05:   a13b97757ba553c87465435279e716ce887ca7b8a79b5b8ab24786598b77878abb5576a785644462
col06:   7395885753a3839a1c9d6957943b8aa7b8588db954b7aa5a9a848b56883c7b799478564888865521
col07:   152448668499953457ac84759698ab98d76a889c775b87a3aa9958a4bb987d579b67863857844556
col08:   454451366a93958747584996ea98b67adda7a7699a5ac77a84bc689959a2889677697553875a7567
col09:   726392a796a93657259796886cabd5d7a76accbdaf8ab96cad79bba88c57975577c975c789478a58
col10:   7656313995539567789a887a6988a877cbbce9eacbacae5ac9899bc76372c78898856a87aa54c617
col11:   96a49b8668889798699938baa9d9eaad8a8869ab7496a7ab888847869659859967bab58837b92959
col12:   7667846a8b6c467c486a967b74998bbb64e9c89b87d88b986b8cbc99a85a9387b9aa78525887e659
col13:   341488697383578a885c4b6afbb899c996acb7db88946f86a8ac8886868c59853b69a8957aa96787
col14:   65277a65326887899a76786768b9b8c7a8b71d7aba9c7d91ba9c9da9b8b8c6658c58d45746767586
col15:   7a626754642d87ac979759bbd98cac9966b69758b9c59a7a76a99a7ba68db74c7a7cb586a5828475
col16:   69539465998859ac979877d7859baaaa4adf9cdbbaf7a7ca678b8b9b9c77beb977a97a8a6a9b6258
col17:   45723644575337177438476736aa76638b949bdbd9c85aaca8999878c5a4a76888b9b955955886a6
col18:   59471777476749a959b677ac39a8a9cc7a87dca7b86767f6a8c897b839beb488cc69736826787552
col19:   2566953668d9878a469886b6b9bb7a75bd5898d97ab98b9a878988a9a9996a9777987d8c77659974
col20:   1823866792b5a45393a885e6aac68689d9cac6a768c6a9bad55eb87ca8858798d84897db6b88b665
col21:   4357b77895a64665b8936ca8aba987b8bc899aa9ebab88899d9ccab389b697889a8ba68769a8a93b
col22:   6437345797757d65bc3799926b8bcacc9a7983bcbaa89a88959c79ccc687ea328886de4864b3c839
col23:   65715125798374386b895b9767bd8bb78aca8e596b887d668cb98797a5aa97867c88ad7a6885878a
col24:   75378c6369767585586798857b7b9bbda888a898bb59a98c9a6a863acc4a9a33b7c6996665a98554
col25:   8576369684a573677366699a8ab757ccb98a7baaf87a9988748bada89a77aca499af59593a79486c
col26:   29889a8c77994ea77f867b78779babba8bacebdadaad636abeababb3d79a9c69859788abdc97c687
col27:   49b8b4786a49369797cc9757bcccbebd9d9cbac9bb9e97759ac89adacdab4e96f6c6a58498bbacc9
col28:   956a8bacb78b85bba98ede8be7db6c9acb99b9c7cbb9bedb9f9cbb6c79cba998caa9986959a7b778
col29:   4456aa75a36b7aa3db88c9aebc9a9b9dd9babda9ab7e9aabd69bacc8dcaac7be8c677b9399965877
col30:   97554a8baa3b97aaaa6adeabc9bbcb9af9b99dbc9ad96aea9becebd6deebc6bddeaa9b868b5e64a5
col31:   77565868aabcb6ebabbc89999aafff9aacbbdccfcbcc898a8ae99dbbe79ccaab76c5fc66786aa995
col32:   97bba978bcab787aa9dc9f6879abcbdcdcfd9d79de7adf8d89aaeeeec9edacacbc7cb9396c766ad7
col33:   88778699b7998c898baceaea7da98fedcdad9d8cbd7c5da8faddd7abbacd9db8bd7aa9bca78dab93
col34:   c6954b5cbca6759c89cbcb95bb7de9dabb9eebbd8dbadaedfb79b8bdafa9bcd7ac8b7a5a8968bbd6
col35:   d5b59aaabc68ab9caaa8bd7ceabcb7fc9fdbb8aa89daccd7ba8cff9df9bd9d78acbbaba8bca9e959
col36:   5c99c5c799eb6b888caab8c8bc99bb68ceb7ec6dbccacdbcf8bfecac78faabbbdca8c49c89cc6a66
col37:   9643aacb9ca998cb663ad7b7ecb9e9fe8bdedacbdaecb8b8acedab9bcb8af7b8dd7bb97cb67a6aa9
col38:   88c6857c8a84d87f9b9dcab98cbccb78ebbfefdbcbcaddfbaddbcdd9edbdc9adb8d79bd9ccbbd968
col39:   c849d9d7a865b79b9aba6f8acf9fcb9ebc8fb8dff8fddcedf8d9c7cf8dcbbf9bda9cadbebb69996a
col40:   42eb866bdacdbb66b68ecddc99ba5eaddaeccdfcfccbd79bccabdcfbcd89ccdcaabaa9d98895cb86
col41:   8899789a7c8757ab79bdcb9cbcdcdacdcddfd96eb99fcbcbe9aecdcf8b9cc9882babecbb8e5b8c85
col42:   699e5998bd87ecb98b9bf9cafccafcaedcabbdffac8facbf99ccae7fbdcdbcbabba6899a9bc77798
col43:   975989c99a68b47a9efa96b887ef6b77dbcfacbdde9d5cdc7ac79bfdd98edcb9acbb97a98bcbb8c5
col44:   8bbcb36ac87ba8aab95887dd9c9abcfcecadbfead9bbbae6adadcfcafddceb86bda9fbb8ac99d989
col45:   cbda9689aba6bcf9dc9ca9eafcbd9ccbb9a89ce4fbbaaead699b6fbbddafacad8bfecabbcb8ea9ab
col46:   484a98a6abb96b9cb9d9959cbafdba98bdbbfbdedeaaedfec5baddcdecc688aaedb9a8b99acc87db
col47:   958d4ad95a699bdbfdcacc8bfef8afaa9bedb98ffdf8cbbba8bacdfb9f9fadcabaa9dbb96ab79989
col48:   7a7bc679eaa5e8f8caaaf8aab7cabe8eda9cea9caee9cdabc9bacabd8eabcf9a9aa9fb89e8bc7eb7
col49:   dfb89c9c97888b87da89c8c6eda7ccacbacbdfaacb9afac9d8d9dda9cfcbaf8bccabb88bae9eab98
col50:   a797bbb5b68abc79acccbffc8eaddbebdfacbaaba7feafd6a9fedda8cda87c6aa4d9876b94858e88
col51:   4c78a6a968a87764a994889b9ac869798d4d887cbe89d465b49e6588869babae7485ba9795458561
ROC:	 BPix_BmI_SEC3_LYR2_LDR5F_MOD4_ROC9
col00:   176143544659676255633784a368862675a568878749435b296a81a495557821567444354a255642
col01:   38454496556857a48779697888859a987a61846479a956ca89557878b785788685d885ba668787a8
col02:   2442467572ab96966a25458266b7ab6799a4aa9657b9b67c276975b55b68a7a694a5748875865884
col03:   64668654c78a77434955c89585839a6667767b6969894589758a847765a65b666129997596597a64
col04:   544725882884686896b8587574588869a689ab989b977a876629a8b689a5a98b667749754b994566
col05:   4653248878698655464286a87866768857775659e69a59887896947a9a75769a7ab6766854b84766
col06:   a782311a8765b3787778a869956858a4b6b5578689a79678779896c863b9ada894aa689887767b73
col07:   533364768685aa76746ba9584c696aca9bc856b899a8797a69669896c8465899569897c87975a448
col08:   6776723b79766867a7ab97b8a97a858a38b54a7658db9b57696774796b958a6147d6744759b6955b
col09:   343477461586877775698783695557aa66877543b8ac9a86ba887558579a88b66977855987276997
col10:   75669714736b756a646289a9ba559caa8998ac468c599ab9b7796a768873a76988a4897977797785
col11:   834686764859963747c7797688a78488696bb5867978a84aa88976757a68599a689b77b7b98559b8
col12:   74582886468877a95a767684a8969669358795847b99b257875569975b8aba787896a58778687978
col13:   646977894766988847a7aa5ba7a98779a7788985ac7b98849795aa57887687993b58b975d4388957
col14:   5b19a498986874a484958aa6d46879b5acb99576a9a89887288888769cda79cb49a768ab95769975
col15:   15978385883798a85b8c7a75659aa3a577897bbb5b69d7a4668a65a569b8baa666976848b8999874
col16:   52487579767a99a9a9a797976b7b8688a9999a9877745989598b789bb5aa868dca8aa6baaad88785
col17:   14526939779a975596a5a88768bd75aa4869ac8686887a998778796b87a79b88489697a897b99897
col18:   383753677764188894c8568baebab79b89bb7c9a9779c86a79899a78aa79bd88878495877b5896a8
col19:   64565678697887b8a88964659ba6ca498ca899a7a757778c9b897b5b7869896974a4aaa7c96ba884
col20:   5493655a56787c88a8a5a599ab96c9979ab76c667c99c8ad94b9b758b9ab868795ca5788189687a8
col21:   89687955986765499a7b843a9a68897d8ab5a86a579a845898b588c7aabaa19837cb7998987aa796
col22:   518177a7797766866cb75a77b876c758bab596899a79a879a8c67995738c45abfb92aacc76867738
col23:   5b7289a8796ba839c836a9b796897a78439c8d798878786a72788b7a88999876357799ba88946645
col24:   358b82a86656b6a9b79a85488bcc7c8bca7adabbb99a4eda695768a9a59a7a5b9bc888a769b75659
col25:   b37645a5479b75ba747789b67bbc89ab9ba8a9bbb8ca9aa8ccb784bb6b6aa9eb86a9d599778dca7c
col26:   59b797776cb74b899988ba99cbabb9accc9b9cad9b8c8deb5ce9b7dc8ac7e8b8b99a7999aa98b885
col27:   5259878c585798bbd78ac7bb7a888bbaa89798abb9dabacadbbcbd995bee96b8868479b7878aabba
col28:   74b75686888e88b8ecbc86bda9eb9bda8a88b9cfbabb998d768b9e88a88a98d9b9d9b99ab9accbaa
col29:   567986b88acc74b96cc99ddba99aba8b8bbdadd7bcaa9e98baa5889dbeda9cccae98ce987a99ebaa
col30:   5355969ccc7ac977ad6bbabdbb9acad9ab98ad9668bca76bbc87a9dac68bd899d9bf97b89c79b996
col31:   788b96869888b99dbd8a9bcfbafc99fd7c9bbabbbbdcdaac9bab9fdae7babcaaa5cfdb9b9cca9bce
col32:   6b98d69b8ac7aecb88da8ada88cccd9daedbebccabfadc9d9ab89dbaa9bc88acaaadbeaeae9a9d99
col33:   6996a66bdcc87bbb978b9cc9a9ecc7cd89afbcb9c9c9bdcdcbae9aafbcabd8fb7bcccccaca7edcba
col34:   797b7877f9d8abaac669ca999cabcb89cbd8bc9bcabbadac9afebaab6a9c9ecdceacbada9bab8969
col35:   973ba88aa769b79a888fddcbc9cacdab8aacb8f9adcabfbbbbbad99b6ae897cf8dacccedded8e7ba
col36:   88a6b97ac9a8a988d8cea5bd8bca99abddcf789b799eabcaabd78cac9cee9cbddbc9cbdcaa89deca
col37:   557598c9a9a8cacdb6cccb8adbdd9beaddbc9ca9deceade99acdafcaebbdcadad8a8b6cfbb99a9ba
col38:   859aa5a49acc8bcbcaeb79a9b999ceaacbd9cabbace8eaacdc9cdb8bbbbccdec8b6bcddbdbbbdcbe
col39:   5b698b988dbb79a98dabbaea9caa6bddbadacbabbdbd9c9fcbbadcceb768ec8dbebbd9dcc8afcb8c
col40:   a77b7b6baa6b8bba99d89acfbfebebaeafaecab9ddcbdbbbd9aedaadd9e8fe9abde7ee98fbe9ddfa
col41:   487979c9dc9b97b99bcab89babcedaefafcbb8a8cccbe8fd8bd99fdaacbbbcbccdc6a7b7cbccfadd
col42:   9968cbacca6c8b99da88b987aacaeaa7ca8aaecdabbdedbafcbd8eaccbbacbbcfcecdeafab9dfbed
col43:   c8a897d7aad89ab8cbcc9fc9eccbafabfb9ca9b9cbd9ecaeaddcc9baaae8b8bcce9ebdbffdfbbdbd
col44:   8899a9cbebc89a9bf8a8bbbcbbaedcfcbbbaaf9dccedade8cad9efbdab9bebf9e9defccbde9bcb98
col45:   9777978ac99bb9c5daaeca96b7cdd9c9df99fbedaadaacbceedcc95edbbeaacccb9989c8fbb99de6
col46:   576a595cba9ffb7bc7c8c8bdbb6d9cced8cbec9eadcbc8a9fddebacbbd9bcedfed9cccefcf9dc89d
col47:   8d3aa8bac9ddacbbeb889be9cbbbdddefcdefcbbceedf79bdfcfcafbfcbe9aceefecdfbfdedbadcb
col48:   9978799bba9fbbecbbac9bb8abdc9ccc99cbaa9bacd9cc8ebacfabffafdbecefcbecbdf9decccdad
col49:   96dcdcbdca96bb8aa99b9abaab9aefbeccedfcdcffded9daddddd98ddbecdcefcdaadc7cbbccceeb
col50:   ab9a95a9888a8afdfbba97baabda99bcdcac8da8dbcdbbd7eabedcfeadeafaeec9b9cccdcbccdaab
col51:   a94a9ab7dba99798b5bcccaaca9cc88aec8b8bcad9779b8a79cbb9e9ac9b9bbab7cbcdaa7b9acc98
ROC:	 BPix_BmI_SEC3_LYR2_LDR5F_MOD4_ROC10
col00:   3747878974b85a8b957a6879a67bd84667c58774b9773992485478167785c685b58a98b8a6a86996
col01:   5488b9d8bb7367b7c758acf9caed8c98ca7778ccbaf66959489bbbbceec84779c9d88d5a6a766a76
col02:   b878c1968899b799b899d8b9efd8ba958fb8eaa99adade68a99db8c589b367a7a6c7a74a9a79c896
col03:   e97878679988653b7a8c9ad8aafd99bddabbbabb976acaa9998cc99a87937bc797799c87c6caba99
col04:   b961a79ca3b769caa987679aeb7dbcd5cca7a7e8a8ccbad5779ba6caaa9478985bd99a7c9dabf67b
col05:   8248b49bb5aa966a5887abeb9eb9eaa68bcb798697ccd98969eac697cd89b9b7f8b7dc7c9c6ca8d9
col06:   7aa63799a78799c589998a8c88dbddc7898bb6987a89ad6889dc7869a77a956cb6b8be3aa87856a8
col07:   59877876496a8866595d8c8abbca89889bbd6ca6a8b79ba9a9ba98ba8789a87c69dcd87b9894a75a
col08:   647a9743867776c2a6998957bdcab9ac8893bca4a68868aa8b7c59a6abc997a76a4ab9b4cb7b95a4
col09:   4758ba28787546968faba9d78f97c8689ab856989c8accc8889a9d9c86be68966a8bb8aa6b9547ba
col10:   a692ba85788c89bc699469bb35799c8ca656b7be8ac79ab88c8464c79ba57a5aa999ba9798aaa789
col11:   66546766948967a8bc9ac379abac897ab49a48695ccca9587c97b9ba789886abb8895479c65c8387
col12:   88465754b787e767a6b9977cbc8c97e97a7cc74a4ca788898878a8b9789667ca7e9877b798687889
col13:   97798a7a6739b75ab397a8ba8abb6b766b87ceb7cbbbacc66a969a8d99c6cc98b7b7bb87abaa98c5
col14:   5523a58aa7676896778863bbb9ba699aaaaaa67b976a75988c3d86bca95a8a773abba7eb6597a768
col15:   468a7849595b84b3775877bc9a9998caa8e9b94d9b6466bcbbb8c9779b93687a9b77ce8669a49aa8
col16:   8972937b77a4ad529696ba98bdc899b8aa3ab7dacc9998b9bfa898ada7e5a948aabcb555b8687d55
col17:   2625877786267865579888a8ac9ef4bc866bd6c6c6a7a75c677958aa5b99839986a899548688ba99
col18:   6675879ca875ab6b34aa87aaabbaab6955976954a9c8bccc8b79858a6a997da8586cb85c764b5774
col19:   891a458c6b88a767b8c89a7dcd9b8b9bb5dbb5ba987baab99b9ca6a98ac984cdaab8688b69a95988
col20:   3298994255b49a8b99b88864cce889eaa65997badba3a98a9cdcbb89a999bad92a7b9b69788b5aac
col21:   5578b89867d656ab89da689d88bcba9cd799a5b7c6b8b68daacaa5ced98c4a5a8f979a9beaa8d8c9
col22:   735668567846aada8888db95d6dab6c89b978899a89a9cbad67ea99715766789664699ab7779b899
col23:   2386439637665558aa997c7d898ef99689b6b9be97d87a68a9a9c9a9d796aa9b6b939a9cb9cd9a77
col24:   557586378aa688b998867b979969bac6a8787d6769b578bab89b524768d6878a4968a967b999a695
col25:   55695683698d4966d9c873b9888daa99bbd8988b6978a97a97b59a96e877c79b9897ba798adca77b
col26:   7b94c894dbac8d8bcd89aadcdddcbb9ab9d9b4fc8cbbd99bda7bdb9583dbaabbaa94e7b9a9bbb698
col27:   a7bb7a89b7ca977f9eebbabdabeddccb99fab88c969b7a8d8bbade8dcdecacd7cbbcba8b8bbb4ae8
col28:   5c6577aa6eeb8bdb8bec9adbbaafcbd7cacba8b568b5ba9d8baa9c8faeab7cd788cc59d89edd9ccc
col29:   74875868c9799accba9adfeac8bdf89bd8cb9ab5a8aa9b8ca5ebbcb68bbb9c8ebb6daabb97cbba94
col30:   19889b78bbb8999a8ba9fb8adc56bcd9c7998a7d9ddbaea69eab96cca89a7d74ac78bddef7b9c9cc
col31:   8a76b99bbdc889ddcab9d95befcdcbd98b9cbcccbcdfa9c8fbae8acdc99bbcd95dadbeca9ccaa988
col32:   7492a9988add5bac8dcfb849baa8fbb999dbcbbc7bcb99a98e99aecb8aad6febad876e9d7b9bab9a
col33:   79b889da9aefc8d9c6afe5fcebbbdaa677cb9bcafafdace7eedcb56df8ba99cda9ab88bafdb7eba7
col34:   b8bbc79678b8b8dbc79968fdb9cac985aaddcdfcbb97cbeb878e8bcbfeadccaaddf97d96a68af89c
col35:   b778c99a8d87acdbdcbadc8ca9fdabb6c9cbaa8dbcda5bd9cca9ddc9b5efcdabbe9bd9ad3aafcced
col36:   87798a87ebf5ecaabdacfbbadbceec98c89e8babbbd89c7abbc8899abadcc8a9aec9c998bcacd8ab
col37:   59998d48eadaaea9aaaddaaeebefbbfd8ddaeed9aec9cdfea8abdbcbfcebd7acbbdcd9ddccc8a98a
col38:   a765b7accadfdda97bb9dd88bcacfefcfcabf9cab8f7daaacdbe9bfda89bb88dab9eadbcdba89db9
col39:   c9f9b8cba8bb9b78aaa4d9bfbca7ec8d6aad9b88db99c97befcae88cbcebda89b69bdbac979b9c86
col40:   c8bab8bca6cac6878bd7bce7cfb8ab8adfcfc8fcabdbfadb8cadc9bbccb8cad7dedfbce799aaa8b9
col41:   87a8c9a8b7d89ddaaf96aacbccdedaacc6ffbccaccabeed98adb8bcbe7dbbcbb98a8dfe9dc8bc8ab
col42:   66949bcacea7da89fc87d8bd6cdaeec9bb89ee7be7ab7afba6fbec96cad9a9dfca9d9efcbedaf7ad
col43:   69798b979baacceaaf8bd9fc8aaeddfbf9ea6aababa96ed7fdd695cdecfcb89adebbcbbda89cfcd8
col44:   9ad9d98bd997daaaefebd9b9cbabaaf9becddb8bdf9dacb9d68babe9bbebf6bc8bca9bb7dbd8faba
col45:   a7ab9b9b8afdaaadbb5cacbc79bbbbecdddaa9cbbebe8caaca7ec89bbc9bbdcaddeb98998ccafaab
col46:   868cbb78b7bcaf8ca8da8c8c98cbe8dfcdcfccbbcde8baec9fdeb8f9ebc99b8c9abfde6bceac7cb8
col47:   7788aca9baa98ec8d9ba4a89abdaadaadbaeeddf8fecbedab9becee8b9d8f988cdbcfd8aabcaaad7
col48:   9ae998a7a79ada69bd88cdacfbae7aebdbdbccaa8cebb9aee6acc9fb9a97cc66b6dddfa9aaacb79b
col49:   799887cdd7c7ccfbbf7d8cfdb99fcbadc7ca9988dc8ceedd9cadea7ad87bbac99cebb9abb978bde5
col50:   ad86e9967799bebca56f8cbab7bcde7a9bebdec8ec9dbf89dbcdaabdebc58fdcd889a88abbeea7ad
col51:   4885b78b776a79a98996dbd5788b66bcb9acadab87b95bac99c7896bb699ccc5c9bbfa97999b63aa
ROC:	 BPix_BmI_SEC3_LYR2_LDR5F_MOD4_ROC11
col00:   56844555541663878786479967865475555448343b447247555359763a88375456a8451a55264714
col01:   512988656974ba978259a56822a8976ac655788851a657799743b683b3799885747a787a7658a553
col02:   777556465538362835398a397bd58687ba88a849856845a654a88765a82977993578a9a663596884
col03:   263736688671576679878be5b765abac838757756989586b6858847858d6d565635467694699aaa4
col04:   a3286898768337a388499599aab86b6ba99787898a8776959738c88ea748a86294a5b98177844aa7
col05:   6315558a4b563278876c5956a37d855b957cb776c444d51b4965b7b8c5869aa57798b99684a69747
col06:   6466377687bb14a76a69796678adb8aa8997a878a442fa88785684a6b8c978aea99746737458a562
col07:   63a98c84c7664779864766698a6ab8596a97f88ad85a7a8899b9b69ca98759997778568897686687
col08:   6663668845b959a756a88dba6a99796ba6886887996a888873abb685aaa8198a9766a658787255a5
col09:   28188657869657776a77a9666b79aca8b47aa8967a79759675789986496a767d9a88688255383843
col10:   9472898927d52ba8c696788947a327a9a999988498b94887bc78a667a766c578d658456962956467
col11:   753b5b565658784a84c47c6bae8a7bab8b86676a7787c6a878879a9c6759b9a677a6b8999b659637
col12:   4778455976838379b8aa45a869989ab7bc76a879a999864658799879249c785469a7434588499aa9
col13:   35757377a76734798b8897b8c8b959478d89b86866a878b9c796858766a8c75136b97348557a56a4
col14:   7668537c9786975dccd7877bccc787a8e98897be975b977949d9b7b8c8a59556a989888c87677c89
col15:   675798c698799a7878a6a6eb77bda976a5b8a967a9b89957887bba639a6968b88598592888996589
col16:   b57b893768778c7b5aba8969bacac6dbbb579bbb9be89bc8b84969b99569c876678585989832a8a6
col17:   2748668678375965b2877787877c9c97c928b68d5988c76897578638d887ca85a8989957a57b4676
col18:   661458a5d9554897aa8a996c7b59687b8dc7a8866aaaaa9a7a458c6c899763a5a739647b85573784
col19:   62a5883765696965cd68f879b9c8bca98acbcb99857a6898a76cb778968ac5b947c8946766786675
col20:   6866459959a918a3a48c87975b99977cb97bc959868a774988ccc7d7966759788a644b765cb35897
col21:   668879775889a56a4ba99b89d8888a7b87b46bcb656a96b87897b6b85a67b9a87a7aa7ca768a7949
col22:   4973754698a67758795a6b48ca9b6aafc9955b9a95e5a7a87a9b77d99dc866a889aa75b39ac4b6a3
col23:   43875b6abaa5778a779b8b7ccbc8597ab7cab6a8b78acb7bbaa8a6a89596769aa99957aa8a454793
col24:   8877685a96588c9b48b8cba9adc566999bd7998a66c975a6b59bd89bbe668b8a449a9966689b7486
col25:   182aa59974399babb48ac5aa9ac88cadacd96bc99989ab78a793889a87688faaaac86b838768b657
col26:   3858b97ca9a9bac98aabfad8dce9aba8d79dbadcbd98e78b8a6bfeb9cda89a788ab7597678bbb9c6
col27:   6659688b7c795b8b9e99a4acfb9c88898d6788999e8bb999b88da8bf57656cac9868c799a9b788ba
col28:   57ca8b87ca8aa9cb7f7bbdcc89bc9dacb99ca8cc69ddbbd68aeecbdb9fb9a98acba8ccaa98963b86
col29:   787a89bbb9a7ba7cec8c898cdf9bbb6cacdcdcc5a9fcaf57ba7d9fbac6ab99b8eed97b657a8bbb7b
col30:   859a5cdacb9b8a8c8abbdbadcb8bdcbbb955998a8bbea9a9aa9cb9b9ad9eacca78868b89b87ca977
col31:   499b7a9bebb96c8cafdccf8acabf9cbfd89aebbaaeb8d9c8bbdc9adcbeae7b8aabccdac79cbcacd9
col32:   77caa9c787baab9fdabceb6dbecb9dddeacadadc7df989edd5bb7bcafedeaad998d8a9ba5cfac8ba
col33:   cc5a68699a89a7b6bc699b8cbacdcc9e9aaddadac8db88abb9bda778bdcbd86cb7df9b899eaa9ca8
col34:   8ada97dabbbbb59d69abaddaa9ccfecddb959bfbcbec8dabb7d8ecbffcdcabccebaec9a9abc7bf8d
col35:   88c8ccb98bbdc9a9b8eacd8bcbeeecd8a9aa8abbad98be89c8dbadb9baab5bc84aa8c9cbdb9b8c89
col36:   9b7d99edbcd9ca4daf89fbbabdddace88afa7cb9baa9b9eccabbddb98bacc578b7c59d7a8af8a8a7
col37:   caac9aa8b99daaedceddbca5bdda7c6d8a98cbceb6abedbbb9a6decd976e6c89aaec8aaeb99bbbaa
col38:   7c799ca8ae77b8dceac8edddafb7ebcfedefb58dbb9aeccbeda9b8defcddaccbc87abedcaa878ba9
col39:   abad989abc8678cc9cebc67caedfcbcdcbb9daeb5ae8aba9e9afecec9c889aeaccbb9b75f9db9b7b
col40:   7c98c98ae98a99cabbeaabcccebfcba9dbbdccd5bcb8dcb9d9f9a9bcfccda99bc8fbaebb7d9abbbb
col41:   4988bdae9fe6bdcafbcdfabbeaefffb8afc9db4ca797afcdb7d9addc8aedcebabccdbadeeddc9cac
col42:   a98799acbbd9cf7bbceaca699cdeecca799ddddfaf7bc96edfc9eef6e9fa8cc9ddd5dcc5a8c9caca
col43:   59b8b78a99bed9a9acdbfcceebeddedfa8facad6eebfc8ccffafabbce87a9adab79dba4adb9dbbdc
col44:   998ad89bacacbbecba9aa8c9efcbbadbfecdf9c7abebccccbbccc8baaaccbcdac99dbca9ccab9dc7
col45:   94e69bbd996dc9f9d7feccc8f8cadaaedcceefbac9b8e7cfeaaacab9cceacac9fccba9b9fd89dbba
col46:   cca8cba9aecdbcbbfdeabebb9efacdd9edeaafddb8faccba8adadafda9ddecd987e99e6aae9bb886
col47:   bcbcccc7c68cadb88bbdbbdbbfef99e6dd8ba9fbb9edf7af9bdefc6cdcaaeabf8f9afaacfdfcdc98
col48:   9b8cafdc5fce9cfaafbcccd9afb7d8f8cb9acdccfa8aacc9ec8ccc9afc9ebdbfba8aaac98a998eb9
col49:   77fb8ecacb88b98ac88facdadabdcafafbda9a7ffbc7d9fccc9acfcbcbb9cee9bc5ccc9a67b7edac
col50:   6cdad4ae7c9dbecbcedbafdf9afbcedc8cabd7bdfdfcacdddeadca9ddbd79eaebdc99d9baefbcfba
col51:   6ba4799a38a89b6fa8b9797c8cb5adeccaab979bc6b6a68f49cbaba7ac9aa7aab68bc88689a8b898
ROC:	 BPix_BmI_SEC3_LYR2_LDR5F_MOD4_ROC12
col00:   24365728779511654584b783645686732662a71789546662a4775387654b74652457141341325974
col01:   3147434464852a97835638549684886557776667988898c677896a75a86974973848998883987269
col02:   667349735116899743463859687864793898a75178b93b394d97a76b989d65695852579694525691
col03:   3766a8758442556173775688754c476969b9b5866ba95a6474777967793855a668976a4256876472
col04:   35a5159647b75888868786463796697a8695c9466455ab698cc58487953557638891766744689555
col05:   52225512857667446b699768997578898746986959a777ae638567637586983778975957c4836916
col06:   7686276885b143588729957c478689a7798aeee653e999887a3c9877771761649a49353885a48254
col07:   6265796785a698aa6469ba6799a996a6b5bc753576d789a6a777b9b48a695ba97a68955928476657
col08:   427545888a7967848795a6984686b796b9a7959a5c7be986b879da7aa5758888755864557576a713
col09:   844a437337b76672664535889688b38988a988c97a57869a862cb6456498166188b5696d84876562
col10:   6118774556865a676a4558648c44a57586777a7a8cad297b998a795b597a885468442a5c78941436
col11:   8243b7697787aa9bb8468a5b89c7a5687d8ab66bb4c7ac96a7787a784b473884486439248625a485
col12:   6481414577768576d5a366545489eba9a975719857778a89483d76ca7c4975799975765642675931
col13:   185887a67483687985259aa5b8575845888abc88ac458d883c87797aa89c62687168948b88776621
col14:   54237467947878b9775cab81a8877b76969756d699aa881aa789b8767683888961ca995857662482
col15:   3336496668187b747b7719964b599a94889889c9b98ca66889997577a15999656a75759595889984
col16:   515627586551778a6737874bb9b9a9ca998d873b777a878bd88947854a976aaa6995479369a44821
col17:   a4484264aa86b64a5a8977448696799a85adcb85885779858a8a577a697b563751367a8848315113
col18:   2753675b717584998a7785667979399699998da7b77e3a968786485b6a4a993a6675665247576453
col19:   48972b477284bbdac8765965d8dde8b5ac6ad73a799c5596a7c66548b694971ba7997857c9773834
col20:   555556435388b9496a769a485769779578986b6a8888889789869939b586a9996b5b6976a6576738
col21:   566368738347b886c97b6a7aa8d896b9997c955a58854766b88bb7889a5878a57ca98a56385a7554
col22:   6241423979957c6676955b68b987844a798bd8c667658c87888a66977b38a1d8979886a7768b6454
col23:   34756443957a976c78597965a95a8b968885489d779bb98894886579a69396a656db86d377447894
col24:   6868969769736a878b36b1a5636a74763a9669a987b4758ac5789884c77a45a26a85644398465574
col25:   9717c85694a97aada79a944999f789bebb6d998a9a8a7989699995dc77aa957ba58858a927776774
col26:   b9968b957968bcd78c9687cbac7d87989cbea5b9eee5a7bc8b6ad7d6bd68da7ca85a5766868a7284
col27:   b85677a88a8bbad6a84ba948b7788cefb8a9b99497dca9bbcab9ac59579e95499a78765a67776545
col28:   b88a86a4658cac615c97bbaa9a9cab4dcfbcca9acc59addbeac7ba89da74b77da74885aa6b97b779
col29:   558bed8cae8c8b69baaedf9bba6bab7cab97cdbeacbc6ab799eb9b79796b98ec9a84aa98b85bb676
col30:   86395694b99a9e6bc98bb698bab5897d9bcebbaba8ccc78788cb89c99aa6a97766895bb6b8779959
col31:   c9519c7699c96b88bbd7abab9cbabc9cc9adfbdceacab9b8a8bacaa79ffbda8c979c29599a776916
col32:   7669789685d5aaccabdb99abbda6ecaf9c9afdbabaeccb7a8d9acc8ab98dbeca9dbb985449c77b82
col33:   5e7a98badc8bb9bb47b996abadaff9daabc9cfccdde7db4abc6d64988c7b9998987b9546966874a7
col34:   87a7c8a5ab7ec7987997cb8fcdb898f6edcdfbe998d9cdceb7dbbf97a889dc6babb65bdcb887cca5
col35:   a9598d89d9aaa9ac79aab9aab9ddad8dcbccaadcccebd99b9897dddc9a88cbfbc7da8aaabc798a44
col36:   889975e589dc5c7d8abaaa8d98bf9d99fcbecdcbdceeb9a9acca97bc8aa999cca9beb8a856ab6425
col37:   897ba46bdbacdb88bbadacacebc97fddcdfaddbfeedaec9eae7cca9acebe9bac6889a8babcc66877
col38:   b669c99699df9dba89be4bba9be7ebabacbddbccddccededccda99789abaadbb787c5ac7b9bc4b29
col39:   8b6d9bb77c679addccd9bc7bebebabcdccccafd98c9cadaae7a8ab9aabb8efccb88d6b889a87b644
col40:   aea9c9bcca7dacbd8abadab97bbde8cb879caf7cbbcbc8a97dcb8bad8a9c8cb9be9a69697c98c384
col41:   ca99ca89aaac96abcb6ddabfbaa6ec5bfbbeccfeddadccd9fbaaab9bb8a9abea6b798c948c9a95a5
col42:   8acb98a47b7bbb9abd997eada7b7ac7bacc899fcde7fbda8aaec9ad9adea98cacabb794cb78c7896
col43:   a9d7dbeb9bcdb99999ccf97bec8fbcfdddccfcbd7eeabcb8bdfebfbfa8fbedb9aee4abcd9c47ea6b
col44:   ea9bb99c779ccaabca69bbc8befdc8ccbdfcdbfffbbfccadd89dbbb9b98a97c9fecca97ba7cb887a
col45:   a9ad86cab9ebabfaa8bd8deaabcfccecaf8acddffcadd9cbd8aa9bafcd96baa9d7babaacbc5fbd98
col46:   96b967cbcacaacabcadfebcbcfd8cabfbea9ecdfcdcacadfcdeccc9ddddcac5598ac98b86853bb88
col47:   c88b969a7abade9fcd8bbe9bbcaccbcdb9ffefcbcfcdebbf8beeb9e99f9f6acda9da5fbffaa697f8
col48:   8889dc99bf998bbab9778ebeadbeb9fec8ecbfafcc8cebeccc48faafb7ba77df8d7dc59ac8bccab8
col49:   597bedadbaea79cac89abbf9bc8b99acceeefcbefcebacabfdcecccbcbd8adbb7f8dfdbb88becc72
col50:   7e68bca989da88bcaa9abb69da9ffebabadccabcfccfc9c99eec8dc7ecbdad988d8abcbd96f99a56
col51:   97774bb8b986ed6a6acceacc8c96588bbdbe79f8aa9cd7c9cb989b97cada8968a6a6d99987654ba3
ROC:	 BPix_BmI_SEC3_LYR2_LDR5F_MOD4_ROC13
col00:   c716641448581186a287457579864655485a9b9ba69a6565b33453655646ca55387629791a517593
col01:   69b7888a3868889d78869199b86dc7bcacae8b87a59697d6957c8b9a8a6899b679697b4764887658
col02:   972857964863762b7558795ba98767a9967794b788d38c6b737978aaace689187545975978458751
col03:   847937584b6a58b77aea4989b75798a77b7ac4ebaa9ac99ad8a77b6c8bc859d74b569b7599379774
col04:   26c976a8459958b47866a8877a595b6cdaeb7857aabc8cc886cb9d595bcfb95b5bd91b7a77926865
col05:   25875a6369cd669668a78cc68b7a68714ebfc9cc77b89f698aca7b99785a88818e54b38b86374738
col06:   67759944966888b8cb88b87b7bb68ccc6b5dc6b8a78638bba9ba7767ab99bb739b3479796b699968
col07:   4cc6393765a5a486f4a894459ab879876ab97778ae886c977b7e995b798789766a76a7695a845775
col08:   76646b763367688898ac98868999aab7a998cb98789897c87769aacbbb8abc78ca875659dbb63429
col09:   9666158c77c3678758969a6cddb9ab57ba9bcc75bbb989a8a7a76a59daca95a8b6ba6a1887a52369
col10:   c5476796b6887b9497db99888ba5b97ab55caca88b9b696ca7b78c88867aab89cb7d7465d4839484
col11:   581a968666b873a629966966a88be979cc84a6a88bcab8769bbb6a864baa9c96a379a17494817195
col12:   697556c49686776dab99ba3869b9a9c88c6e6fb7889cd6b83a8777dcbe87983589d7887727477686
col13:   878d5a45a8878252658a966777e656798a78cbadba848ab8b9ca5ef656aa85d8576a7a8884c81585
col14:   6646735b875987786b48a3967985456aa886998748e4d96979b9989beb58b9854a7949cd88886561
col15:   57738c6a796477ba777878678b869889b4bb7a6689aa8857cba6a7aa6999c99aaa67976677596686
col16:   638887a579ab7b887c888988aa66d98c96f799abac7aab8969ab9bbb7849a79666d6ac6846283731
col17:   495576893a958a78596a657d7793e66b9897acac69e68c7b9959897b885a99576a49c88b68635373
col18:   73a6484846658985769776d5b67899c7ea7b8abb969c65cb7d3ac9bb8a77bcaa9989858467767b38
col19:   8a3a977a649c5a8b64aa78767b7f38b55bbea96a68999b9968557846cbaab872876b9a9997663953
col20:   8987976aa642885469b7787cb8ab69b9689d9ac9b395ab8a9cd886bcb6ab8885265669726a54a946
col21:   c97a7b87a486a9c61889a968a5e7cd8996aba94ab5559bb9bb88cbd899989bcaa969969865946765
col22:   115676a9684a758976899a4a68dcbbd879d5a9aaca6bad74c87a687cbba5aa3ccab667482b464766
col23:   47763768976669a77bbb2b7a7ab775b9258cda879e75d6a585ca88b68f9b576ca65878868a63a562
col24:   6688775a6675687646971b47fd7876a8974a6a976b78a69a7777e6d9f99aca88336d84a7777846a4
col25:   6655a457928b5a6cea277989b6ab889f97658996a89abca69bda69867b6a6758a868ac5163764332
col26:   aba386548668bd75d99dec9cbaddfbc99cb89aba6b6ed89dd8aba8bbadfeab5b789acbdc47c7a51a
col27:   74764767777b7a7bb9986b8baf8c9acabd9aceead8cb9b9aab999a96abccaab8caac65bbaa976985
col28:   97496b7999ea9a88dab9adecfdbaabdfaacaa7a7f6aac997bad9e8da8d69ba9cae9b96dcab875666
col29:   76a9796ad8c969b88ad98bd7a7cdd7caba99bfea7ab99baac96a6abe7dfe6bbbca5a67694899c693
col30:   96a88687bad9c9a499d9d97ce5dbdeccae9dbcdd9ca9ca8bc689d8caaa889b8b87b8a7bc9899a849
col31:   63a65887858b8b94baca7ebb8bcbf6f68b899bccacbe9cdc9cb9dc7abbddb8aac687ab989d7b78b9
col32:   b7c5a59a9aa8a99c2a8acbebeafaa9adb8daacedb7396ebacbbf9bc8bc9dcd9bbb999a9cdc779995
col33:   3799cba9adcaaa878d9e6accdcba89c8dcbcbdbd6e8ba9cbbd6cb8a9aafedbbbe69ebaa8adf9b4c6
col34:   b798a574b7beb9c6ba8a899adfba9ccedcbbdd89b8d9b9dddb6bbb8f7b99acb78c7a9ad6c88c89dd
col35:   6cb9a7949a789a5dbba9b7efdba97db8dbca9efbebcbcedbb6bdaabacbed8fcf9c9889ab5caa5b8b
col36:   76769aa7b66a79b9bb56bb7b99cdabfafac6dcfebcfecbadbd989cc99a99897cf5bac9b67976548c
col37:   7669a8889a6689ccb9bacbffabd78caaff9ccdbcfdfcaac7abcd9faa8befddcbcd9dccbcba8ac7a8
col38:   9d8dc98788cb79aa9aaadaacdbdecd89ab6addadadea9dc79cdcbb9cfdb8acbfbae6a8bb89ec796a
col39:   9798dcbb7a89aada99dade9ccbaba99cdccd99d8becbbaeac99e89cccdcafb9abd9afa7ac9f867c9
col40:   a95888aa9ab6a9857e9e8cadadaadbabbdbcfbdcdc9baaff9aacb7faeee8cd999deebd99bb95bac8
col41:   6685d6a7898abf7c8c9acc9bba89f8baea8abbbdffaa7aedad96cba8dec99e8aaaacba7b6e976997
col42:   cd557569bcc8999a76ba9976dacaeaefebfbdab5dbcdeccec9cbfeac9bbfcaf95b99979694daa598
col43:   e9c4b6a7c659a7ba97e7fe8abbdcceedfebb8aaf8aacffbcddebdcbfcfcebebafa9dae7aeb8a8c54
col44:   6a5a8b65ac98968d6aaced9dba689ea9cad9d8dcb88cc8dedaebc9ebdbddbcbecaadcb99cb8a69b6
col45:   668d69896c989b99cf9f9cccaccbfbb9d9fbeb8af9cdcb9cebcccbbdddaddb9adcebadad8ad98a99
col46:   69898bcbaa9e9a89bcbeda7bcb66baddba8dbecf6da998cceb9cb9cad9bbbc8cabfcabbbbc8dd897
col47:   9d56a9957999697a8bd99bdbc79cab8996cdcbd99bebdcffac8cdfef7cf7877aed9adbdbebab7e7a
col48:   bcb67ca8fc6b69cbdeadbbd999bacd9ce89cb9a9b8a9bccc8adebbabc9e9fcdafabb8deca796ab9a
col49:   8786d97daa879bd8bbfbf97afc78adabbf5a8b8adaafcdfbdfcacacc9fc7a8c9fae6c99ec97daa9a
col50:   66888847bb9ca86b9a88cc7c99cda899eedefc978cfdaddbcd6ea9fc8c8bdb6b3da9ca8db68b77d7
col51:   599599a874645a77abab798aa69b87a99ca6a9dcb476b6985de96869bb84da99ac54d779b73758a8
ROC:	 BPix_BmI_SEC3_LYR2_LDR5F_MOD4_ROC14
col00:   6528877785234825b8a74374737569c8a86365965c4b5a6828c476978566446a6439547681553835
col01:   ab7817c999aba97b88797c477696aabda3b999aa9eb97b48ab5987b69856656188a8e8a668546817
col02:   87a7f596788b875c84b6b3a7a878b87b9b6929bd9a594d98baa995bc885787788a951b3679865845
col03:   546a888998b89978676d8a748968ac8ad7baba96ba979a8b96a57b4879866a48b7175a45a6888a78
col04:   84969167689c797798a79a5b8588ab7bdbc68c9d8b9b7abdaaa7ca6b6a76863996a8958598584798
col05:   79c34377889a656caab88889c9b84b667779c9975b764cb8bab8589856a889ba4a85599767666956
col06:   bc76644984476198b9bbb6c88a8a789aa898bea7a9bba59aca87a2878a8abab79aba58789897c877
col07:   ac9699a798ac7ab9989886abbbddacd868d8caa78c8789baa798b7abb9b86e6797794ac9b7896799
col08:   8a285b767799ab99e2a8a97b998a9bbca88d9db8ee998ac4aeb8a989b78b86b9899597979a568766
col09:   b464a7567858988bb898a8bc8ad9869f8dc6a99acdb99c9b7a9c97ca8a5aa4bba9585999ea958784
col10:   6764a947a77747b89a89ac895aacda99889c667b9937cb99a89899aaab6b658858678c9848a96756
col11:   6c37a7884879bd6b878acaaae6babd5b7d6c7ecd857a847b6bd7689abb6ab5589c7ac77a88884877
col12:   4759a7a69679786a7288a865b9abca9a7b8aab8ba8b66aa99a97899a9988cc769659765766997998
col13:   5778a699d964b9778cbbcab8a8b699c7bcbbaea8aa9c889ca978ecb99aa5b6bb767575a567545796
col14:   796a369897c9a9a997397b69988baaaaaaaa9bbbbca8c967ab97b86587899a9cd7a8999586556d54
col15:   685988894a756489379567a896aa9a999acdaa9af7abcc65978a9d88998a75b8a964988955318374
col16:   63668679697588ab87799589d9a6aab6db7ca59cc6fca7896b945eabaac83c7884aaa5ba56855648
col17:   7486a7856ba8748a85875879bc77bcea877e9caba499a8a4a6c85a797a889b4ca78676776656a773
col18:   8a8373697417677ba7876a89a96b9a67776b7d767ab7756b866a688a799cac8e9a7bae3673b26766
col19:   c9766bb857f9c99948a7ac9cb99a77abb78bbab9ed697ab8786a79b8b4894a876b5c7c8897977556
col20:   8a4c7557aca996a4b878a8777a69dcb49cec986b5d79db489a667c97a89ab9a97a97659467656595
col21:   3846a876597a9a58aa88b9969888bca78afcdc9aba678bb7a8b997aaaa58b788686596839a5bab84
col22:   7e4d4898989bbaa6899777bbb99c6ec7dcda76887eadd98c96a8a87fcc699b699a888b7c6d635756
col23:   77489979d9699a8996be8baaad8b9a7cb999b9bba9999ba98887ac76b995c998a9698887876b69a4
col24:   89b77666688b6c7d688a49ccc8b8abb9c78d8ab49b6a99a975b9aa7b89a64f7a76976ab66b86b858
col25:   8786b789887888a99b7bbdcfca7bbac89babc9a7afdcaa8dcb99a7d99c99ba8bc858b75abc9695a3
col26:   9c7a9d59977dcec98dbbcb9d8d9bbefbdaadcc9acca7da8adbabddac6a8cc76da7eb7aea79787699
col27:   9879a7a866cc7c8ca7b8f9aadf979db6cb89b7cadfbadbbc58aaaa867a9b8a4b85a8aba9788b8a8a
col28:   699959bce9cca77cabccb86d79decacdbdcb9deacfdba8c7a98dabdcfdad9d7c9aca8ab1cb6ba977
col29:   78a76c98a77a96dc9baeb9c9aac4d96bbfb8dbed9cfbca8adba8aa99ef7cafd9aebbbab8abc79867
col30:   7aba776ca7896aaa6f7a767caabcd9eacbdd8d9ababdc7bded78aa8ca97dc8acedcbb48a599a99d7
col31:   8998aa8c989e79a999bbfb7bace99cfcf9fe9ebabaeb8968bcc8ddcc9adf9cbbfd78daaa87abb889
col32:   bc9678a7957bb8a79c9b8cdbbbcfafbbdaccedfcdeafccc8adcabbbcdbdbbdb99b97af998e8a8dba
col33:   b9a9ba9c84a8cb5aceac7db9bcbbab9bfb7be9dcfaecad7bba9ecdcacbeacc7dbabe8b99edcf89b6
col34:   8a9b9ba9a7bbbb9db7cfb9cbbacbbd8bcdfefeadb7babd6bdab99bfda8aeaa8bed8cbba6caab89b8
col35:   a87fa89b9faae6cb87abbb7abebeaeadcbcac9faacbbbaebb8a9cacf7bcbbbcd9bacad9ebd8b7a88
col36:   a67aad67a97a8a9bacca89baac9cacbb9ca99dd6ec9d9d9aaad99bc8bcbbb8ece76b7a86738769a7
col37:   aa98ebbd6de9d7c9ba9eef7bfbeeabebfabcddcef99bdbfba9badccaeddbefd989cba7cefaedcbca
col38:   9bb8bc8cc9c999b8acacdabd9acec7deccabaa9dbdcbcecacaaceddafbaadcedd8988c9987577726
col39:   e995839cecdbbabbda8979ccbb9c8ffcccdc8da9fecbcdc8cbd9c9add9ebaacbecac9caccc6a8af9
col40:   6ccbcc78acbd889ea9b9bcbbfa9bbdfcfbccce8fcacdecbbcdcaaacdabccfcf6f9dbbcd8aaaeaf89
col41:   cbac6d79acfdac7da7adedbdbbbefcccaf9ceabeda9ededdaecebbdca9dfcca9abbacd78a87bb989
col42:   c99caa5bcbbcad8bcc97bdecfaaacdebef8dbdccaecea9bcd9bee8beecaccfbc979c4ab996bebb8c
col43:   deb8dc9cbbb8c8ad9a8acecbaccbca9fdbfbedddcdaeaccc9eecbeafdacbfa8fdfccbdabcadbaac7
col44:   e4baadabc7fabfdbfc9defb7dddeadddceccecfcebdaacedacdcecfaffbcafe9c8ba7b6afafbaa9a
col45:   cbcae6b8ddba9bcdbcadbfeabbc9b9bcffdcad9bef9c9adcdbcbbbcf8bdcdebcbd8abe8db5b8b8bb
col46:   d7bdddbc9aae89bbb8aefbb9bdbacd9d9edfcdceccfcc8dccccfc9e9bc9bababdac8cbc9999aa989
col47:   99b9adbebac8899ecbeafacffbafbbef9fbddcbacfdbdbcdbcbaccfdabebdc4ad9fa9cbea7c9a687
col48:   ca9ada9a4befbaad8abbffecb9aec9daaeaccddcaacb9ac99bcbaede8ebea99d9eac9ba98b8b6896
col49:   dc7888abcabbb87eaccbbbeebccebacda8bffddacdddcceebdefa9bccaafcadaad9abcdb8d6a9ab7
col50:   9cccfbb7b8cc99b8bbf9abadcdea9cacddeffeaffcfdafd99ce9cfcabc5dfb9eabcb8c98ddac9cb8
col51:   ba98a886897b7bb99cdabb9a9999af8fb89cdc68ecbcdbeaac8caa9eacbbae696b4999e89888a496
ROC:	 BPix_BmI_SEC3_LYR2_LDR5F_MOD4_ROC15
col00:   225867481436a87d6aba8aa78a5875a799769f7797898687bb7aac58a9b6989aab6994b68b9769b7
col01:   737956947d8869e9b79298789b4c9c9b5b6bdbbbfba9b9ba959799cadb778ebabe7aacad9bb89b8a
col02:   76539616278b99c7acac99f897dba99c9979aebbc9695c8a85986ebbb9677a87bca893a89bab9c85
col03:   3193457a6987a87a999f7bc79dbd8ccbbb878578b67dcb958c9aac98cbacb9aba9caa7ba5a688bb6
col04:   753476848a789a277bb68dbb8abe3baab88d9be867a98a96cb66c6bca8c9d89accc9d97ca8c897b6
col05:   11417ad68988a69a97acacaba97c87b9db7cf6e565aa5c87f97d9a78b9b898c5c8b99c9788a49887
col06:   4a7596889ac87898a7ba89b6698a8bef8969ae9cbb68b9aba95c48adac8c45b7b8d6748c995bd97a
col07:   45275868a67b888926698d967acb96aa869dbba6cdea7b84be98a75ba6998bb98b78778495427c93
col08:   653b27594a9689a77b76a9cddb8bb66ad789c98ac98da8ea9a6b9a9b98a776a89b3699b797478b47
col09:   bba6a8989a8a6bcabaadb8788cc66ddbabeafad8968a8ba979ae8996cbc89bde9aab98887997c59c
col10:   7879b8987689aad8bbcbb89686d9ce8ad7ad9a85a9abe99bbaba7b68998aaa8a8abc99ba79aab677
col11:   3495466968da978a7867b84a8bbca9c789a8ac475c7d76898c8a99dad8a7bba7ae9a2bc7bb876949
col12:   5974b8b97967899857cb7bab8687b66cbcb7d89bdcd7c6aa89cdc7abb95ca7beaac9c4bdeaab9875
col13:   34597618627869b537a887baba769cb9ca95d9da7c88bbc78986d699679998aab39ab9876bbb6985
col14:   5894c697976a8a89aa68cc7696a5cf8acb7ee6bec73ad9ccb79997bcda9bbb9ca9ab9773669aa5c5
col15:   968a55aa5969b859ede8a89958b8d97bc59bb7baa9b58978b47ab989c6b8989cb47ccbbbb9a788b5
col16:   55452678b97a795a5c8989c88a8cd9ad599cbbaaef9bc988c84abbbb578947cb95868b7c87b667a8
col17:   34c53578949694ba6997858989a8acf79ac99c938a67aba7d96889c668a6a9a68568967789c998b9
col18:   9458a34878766bcc8b56d956c99bb6c99398b89bc768697d65a89559db89a5baad9873ab7a6697b5
col19:   153986167646754b89829669979c7689a897ad69a7a88849776868987987edcc6c9c8aa66c97b667
col20:   565656a228b91a8aa9c97a8b9799b6bcaa7db8a87c89687989cb8595679bc9a73795c988a89b5562
col21:   747769a58853978499bbbaba97b8baaabaa98acca8ad9a8b99d777ac7ba567ab5d7ca9ac59dbc878
col22:   537a5999b87b8a568b7b648ba9b9b99c98a67baa78997996c99a795bad7998bdba2bac5789d69bab
col23:   6274376889aa8c566389d7577977ac596ac86cd5a66c8ab98b98b98a989778c7a8a777488265b886
col24:   2863b5655878759955bb78998aa9eba6967a99c8587ce67b888e6b8cb9797b7baa76aaa7abba7996
col25:   1765a98a1a38ab57d5898774a86ac7d8db8769989ac89b9bba9769b8899daacb79ca7a98abf65cac
col26:   895a8c7b787aa8bd9a9ea9adbb9ccbcd9aac78a979c9cbb89a9bbbcbbca9b6cb89e99cd7699bca77
col27:   fb758779b6b76ca8cd5acc9d9c7bf9beacac8889a9ba7fc8cab9deb8f7bccecb78abe5faacdb9998
col28:   767aa9c68b8aa9d7b6c7b8cc9dd88abf7bacca6eab9fea69d87afd79c47a7baa99adab6ab7bdb5b7
col29:   5a989be688b757a7d87bec9c8c89aeb97cadcf9a6cbb7bbabca8cdc9cae9d9ebabab88ba58bbd8d3
col30:   6666c5cc45eda68ebf7887aaafea6b8bb8e7d9da889ac8c9bca9b96d9b68dbbac9a8abdaababc985
col31:   55758b99ce99997dd5bc6cc9a8ad5d8aa999f9f5abaad8b89b9dcbb8b9dcdadba7b9cb9db7bce7c8
col32:   473aa89ba9bbcccab7ca8aab6c8cc9acebaa8dcbcfd8cbba4cfb9ac58aa5d5b7aa9bbaa8cb9cce9c
col33:   7a77876788ce88cebbbbb47da8bbecc9849debcb388ffa89acdaadbcfa6dfeaca799dd4e89ac69a4
col34:   548759dc5cbad9a9a8c9bab9c999c6a64ad8ceb8da897d8fe8bc9e9964a8aceae6c8ccd989a98c5b
col35:   699d7a69ab88e9a5dcccbdefdffaf7f98d7bdae9c9af6aecefc899b9dabbba9ebc7a99abbaba9af7
col36:   5b3aea669c988bbbb9afd8aabaa7b99dbbeb9db6eeccc9a9ac9db589ceaaabab99ababcbbb96acb7
col37:   6a85bca956a76869a9a9a6a9ecdbccdbeab8bbfaa7dfeede77d7ac4caabbefebf3ca9bd9abfc9db8
col38:   ac786a8dbacac9b9c9bba9a87a9db7ecdecd89fb9886dcc9daad8cbacdacdd8bfcbdbb9bdbc99cb7
col39:   5684ac9a99bba6c99cfd9dc9adaedf7fbdbba8d5e3d9d9ca7bddbc8db9dbdbed9d9fe89dcb8baa8c
col40:   58bce87a9daaa97a8999abaceef89dcdc9dabea68f7a69adfcf8fcbcabaedb7da8da77cb779a6daa
col41:   85489cca95b8a659c9cd9fc97c9babcaeec75c698a87dbcba9f7d7bcacb6ccdbeb9ab9afb97e86aa
col42:   a977ab999a589b8add9a95d8dd88cc99dfdddca77baca8dc99b7bbca78e9d799adacaaccd6d8a495
col43:   9cc99e9ca8c57baa998bbabda9ceb7dec99aa9a99dabbb9cddcaead9a79fc8cecba89979ad9c9aa7
col44:   19798cb5789aab69ebca8b8bb9bcedaf8adc9de9c99df8c8dc8fdeadc6aa8eca7677bbaaaaa696ac
col45:   8abb7ccbce7ab9a9849ba9beaac9eadccd8baac9bafe989eaaac8d97cdaaee978bd7ea8bbb7ac8ad
col46:   b5a8b89fbbaaa9c87997caaab9c998ca8cacce6cdb8b97a9befaa8a7cacbcfdcabf9bf89ba7c898e
col47:   66c67897a986996ac6cb9db79bd7deacbacbdebbddc9bedb3bcccaffda8da6ceebecccc8a7ea696a
col48:   885887d9aacb898aa8898d69bdcc7ea8cbdcdbbafcce9bc8a9fcc9bbc9cca6dafdccbbad8bcbdbaa
col49:   6296a6d7bc2adac67869cb9cbceddaa89dadbbccefcdcd9c8ac889d999d8a9bba6ab8b9a99dabb99
col50:   79bb98b9cecd588697b8ae6a8d7ab9eaf8caebaaecfabdcaa8b7abbbc7bc98b5ccb98c9aab88d7cd
col51:   8b6528ab6977a64d697b7a8679d9c8ba8649a98aacc65dcbbaa7dbc6ab7ab8498b584c9ebabca59d
