ROC:	 BPix_BmI_SEC5_LYR1_LDR4H_MOD2_ROC4
col00:   8a99ba9dcf6eedbbbaf669afbbfcdfdfdcfdffffdc8eebdfeffbdefffffffdafdeefffeefeeacefc
col01:   616242236635849799487d8ab4b7aa97a98775a9dacec9a49dbc9c9588689ad59de99de949c8bd9f
col02:   b7737517236a678a647b4a7ba8aa7b8879c788c859886a599c9a7ab69ab7799aebab98c98b9cd7c9
col03:   78684475a866898686b5bd88897e7d967586879e8bcaad499aa8c7bb79bcbeaa9cbae96a7baddfaf
col04:   9545a6766699c9b865793769977a79b677a9a7978bb996c8aa78f98b6d99c5cb95bba6f7c798bb2f
col05:   d8677776263286ad5943779bec89ca5598a9789d979b998c8acbbc85eea86c7cb9466b9abcdba9bf
col06:   6427567746956839795b9fabb58a67daa8ab6aa88c98788caaa38bae8bbe88c5e787ba5bbaeaca7f
col07:   75595457479ba9877468a69aa7accc8a9bcada7cdbb996a9aaad9bbb9ab8b7cead8998abbd7adc7f
col08:   834377a5897a7b3566367a99999b89b6979a989d95e9768aa98faa9abddacc7db9d88ba9bbabd88f
col09:   9488549765957969bb732bb8798b7a9687959bbcd9aeaeaa8a786ebfdbabfbb98c88baaa98cb99be
col10:   f646664599a98b76589bac9ab8aabb888a7b9a5dab79cac9c9acd8e7c8a955dec9c7ec8bb8d9a7bd
col11:   e5468358cb8993c89588b8f9958976dbc7b8d997ba9abc8caabbc9cc79b7ab9cc8f6a99b7669cbab
col12:   776656779a285777756966a7627a7c979b89aa7d99a9b9cccb7786aa99b9cbf8acc6987d8a6697ac
col13:   99625478734a686b8a978aa9797667387c9cdcab8dac69b9d9babcdaaab9a9aa7ba9b9cb7b99c95c
col14:   f316394466584688a9655878698898886bab89c8879776ba99b9cacbfda8bbde9b8b79697979a89e
col15:   9786566769b6855978785a7b594aa9eacfbbd78bb99d8d8bc29b8bac979979ce6c8a888c6b9cdddc
col16:   b44165836679857469867463a68a9a9eaa4a79a4bc9aa8a7aa9746b9b998e9dbda67cceaa99f7a6d
col17:   996399486466ac5966668778d7b6ac7ed89aabe9a9fc79da7cabcbaaea8cbbc8dd8baadcadca8c7c
col18:   95375572bb4ba9a776887b9ebc8977896ad9bbdaca9ca9bcccc7c7b9c89bb95acc69ed9ac8d769be
col19:   c8c5777c8568d46859988a8ab96d967cfb97bbabcaade779d8bceb979c9da7bdaaa9e89beb5bcf3f
col20:   757274446146857b7872d58726ca59ac8598dabcc2aac999ae99b5caaaacfabc96aa9babcec68ced
col21:   e61b64678767cb79a7ba77778967a77d9ae7999efd6c9996a9bc8b87ccacba4cedcd88f7b9aa899f
col22:   d82565399345a9c86b7b4b9b6c5877acae8dc77ccb9ec8ba88b8b7bd9d8bcbbebabb99999cabbcab
col23:   e53376964b55763988b75dbb95b69cdcbacb5ccb68a897c99979eb2c8bbe9bdaaacadea4a9eedb4f
col24:   89667888598db487788c7b8c9a889a3cfa7d9ddea5bae9d9859fa4bebc8ca97bbcabb57ad9aaac9e
col25:   b75669899859ab7a6787ac85abe8b9997d78aa69bbab6aba7caeb4cdb9ea7ac8eaa9adf8a9aeaabc
col26:   d3989b6595bbb98c859a897c858ead8b7a85d9999ebc99dad7ba9bac9ba86dbbbbe88bbfe97a767f
col27:   e6747679b96a69a7856599a7babaab8d9bcabc68b9dcb9c6a89bbbdfdbdcbffaeba997cbbbccce9f
col28:   e55aa8daa886998add688abec577dba87e9cbaadaddc89c6ab9bfc7cccfcd9eaca96ac89a8aabbbf
col29:   e876868559a7b86a78578a98fc7bf8ccfcacaa6e8dac986ba7c99699fecb8cbd8ae7b6beeca7ab8d
col30:   c65ab59a575959d7b79bb9a9caa5b9ddbaacdbedbbac8a8dcaca5dddbce9c5db9b9d8bbeccb9ccc9
col31:   85a7785587571b7a6a9787b9ab989eaddba5cc68acafd8daa96d7779fdabba76a9b69dab6875b8ff
col32:   f6784599679987abbbb7b489addd9a985aabca987bbcad99dbb8fcaabb6ea8baca9a959aa5d5eadf
col33:   b8896866958538799bb6aad99fc6cbbb988a7ddaabbcfceddbdacb6c8ae9f8bdcb4bccc9c8ad78bf
col34:   c49a75368d7bc5ad9bc8ccaeb99b9acadcdc9d8ccabcabcaaadc9db7ea9ab6bbc57daba898ad94ad
col35:   656889796766acb6cb8ebb98ca7a9bca8ecdb88aabbfbecb78ddabd95fcbe6cc76eb8e8dc9bd9b9f
col36:   e89896659b9f7b6c8adbab89ba99797cddccc999e989cea7eafcddbdaa9ce9ecaabab8ebcb87ddef
col37:   b5679799988ad77a57ba9ecbfb8bcb9e7bcdc7b9bfd7b3baddc99a9bb99eaa9ba9bc9b98ba4beadf
col38:   f7a487ca778d987a7957a8cca958caab79cfeadeabddfdbacccca8bdd9afb5bdb9ddd8bd7a99baee
col39:   ea4657b949aaa769b96abad88cdcabada9cd989ebb99ccebbbc6d8beb9ebf879dfd8bef9fbbfaabf
col40:   fa77b7aa9b64aa9aa7c7ace76788dcd999a8f9bbbbcd99ca8b8aaddcccabbcaacccbdeadedcdbbdf
col41:   e883487976ab7a88b999dbbdaecbbd7abd8c8ba9acf7bbdfcaf987ccdabdd97ccb6dd9b996eaec9c
col42:   dc7648678998bb57698a67b99dabe7cec8ff7eccafacb9cd9bbdb798ffc9eeadc8baa9dddecbddbf
col43:   f97975a55a8a59897d87cad989d99db69faccab99aaacdcd7ceb9ca889ddc9bbddbabaad86decabf
col44:   e98a5978396959ab77acbbaed9acafcbeae9cfccbacac879aefbbccadcdcfcc9cfaee77eac9ebaef
col45:   fc9b3c99b76c89b5b7586c8aebaa8ba9bfbbdbcfccb8dabaddabbebd8abd76b8eabefaea7a9d79af
col46:   c76558a9c76674757feaa6a5daa7fe9baaa75eedddc7a8dcbc9edc9dc884baaddca9ab59af8a6edf
col47:   c7385c5825977277896966adccaa5788cece6ddf998dcbeafdcbddccbb8587cbe79afcaa9d9ccacf
col48:   ab579b56a78d89d896d8ccaa8fabbbc89a99db8c8cecdccefdcefb8cbe7a89ad79dcda8dbccdecaf
col49:   f57797a6653559a8bca69d89868ac9c7adaecdcbc9b9cacbabafcca8da9b9978c7ddbbc7ad9dbaef
col50:   b665a97a6d757a679a87999b5addbcd98cb9bbdced9cfbfaec9bdcaeac9bbcc8c6b7ac9caacecaaf
col51:   ccfdabecdafebdbca8fabfffcffdfeceffffeffffffbffcfeefffffffffccbfefeffeffffeffffee
ROC:	 BPix_BmI_SEC5_LYR1_LDR4H_MOD2_ROC5
col00:   997abc68986dab9a99da7ccfc9cdbbaffa9adfae6cfd7ccccbcdefebbfdefebeffdf9bbfbdcddbfe
col01:   a627b46847774896677a598887fa5a956ab96987859b99ca798a5a8dca7a99a6c7a58fabb5b9a6bb
col02:   f486566a37399858449ab647b64b449a9b75a87886a9875ead9d69cb9759d7869d8988976db9c8cf
col03:   a7748886796978577dbc9786a76e56777869d97ba776b5a759c777caabb38889cb9987cbba67967f
col04:   b62c9397988c675baa4b6a79ba797aabba6a4bb875798d88aabaaabbb9ca98ecdcfa9797c745c8bd
col05:   67857799772a6ab66697c799bc7a88a9a8a88d8bb756c66bb7dc999bb9888ca5ada58bcab89a699c
col06:   c76476a5333593876a978769a9848cab5b8ac92a6c7abb6b779894bda8ceca88878a9a974dc9bb9b
col07:   c57759a9c6b49b8b8267796778cc8ad3a9bb9c7b986b78ca89abbaebc7ccd8ccb6b9799b9b7cb6bc
col08:   b44472a889568255558c47a58b89a8b9889a77a84abaa8987aa99cbabcacb7a9b9c776879696766e
col09:   a68757554558898798899c665ccd999a7c9bbc89a86798abb9868eb99cd69baaab868a89babcd78f
col10:   c264755567777966a6a52675d5acb7998a7c89966968abdabbb5669cdbcaf9accdba88a5a8b7b6af
col11:   b676a446614c63766aba8a588a9abbbcb8ab6aa7989bc6cbaa7cbc9de7b9b7d9a5baaa9ccbb9b7ae
col12:   8419589949467a8588649b9b789a6a9a5769c7abaab86698aa9abc9bba7c7aa76cbabbdddab6c7df
col13:   bb674766a9678986768d57997bb7a8b84f8ad8bea8a8a6aa9a8b889debdafaee6988a9d9b89c77af
col14:   735875435475a87aaa8479c9c9a7d9a88cb8babad6ba9998b47a8adf97cdbcc548b6cac8bbcec7cf
col15:   c9469986a7769868a7888b6c8cb8a4868b99bbeed9aa897abbacecb7beadae7bcaa9ccab9adab89f
col16:   e6598775976889ba67898ba975a7f74b6a986bada879989a96c85c9b9ccb989fa98ca8ebbcb9b9af
col17:   a47628467737ac55c83789987cac88888abbacb9abacb86cc9999f3d6f87ac88a9e9bc5c9ece9c7f
col18:   875332715577749a6ba787c8ba89879a8c89e8849ba7a8c99ac86bdeace9ed7749abaacda89ab7c8
col19:   a737647767b97bb99ab87bba77ba9fbc9d6cb8a999a9ba89bcbc9ac87dabaca88ebeea9bdb95fbdf
col20:   f9557786aa348aa698a868a98977be7c9a9a998cb8d688b7c996babceeadcbbabcab7eaa7dfb8e8f
col21:   d8688a95aaa694959a5885d6ab8a9b9bb4abb8bbbe9a89b99cc9bfbadebdfb7b9b98a9bcbbe96acf
col22:   95872b78a5c87b867b9a76bc7665a789766499eba888b99bc7abeffcbcabae8b9beb8baca9ad99df
col23:   da8777bc6d9c7876aacaa699898bbbcc8896a9cf978bbaa8c77dccc7acd99abcc99c899ccbbc979e
col24:   d29498b997a669a6aa8999ab38878f8946ca4a9abacbea89a99dc68cccbbebbeddabadab8a8ab9ea
col25:   b9888b7ac868dcad89aa8aa89bcb9b99b9cca99f7aaa9adadcdebdbabfdc88ca9ab96accaa7aa8ce
col26:   f69ba96ba87e6867d7a78697c89986cdbc9c88d9bc7adaeba88dcdfccadbf67ba8a7cebb8bdcdbaf
col27:   da77c76447b687ba789ba69eacddab88e6ed899dddcbf7bab7df9ce98f7dea8deeedbc6fcdb9c8af
col28:   e8569bab4abb6abdbbaaa99a9acc679c8a9fd5fba9a5dabea8d9dbdebcbccdecdacadbd8bedbbadf
col29:   d84875abb6875c4889688a7eaa6ad8cbaaacaca9c9dc9c8e9ddbdfecccbcca9eceddffbedaefbcbf
col30:   b787839a95aa95467b57c6ba48dfa9db9aeebfebacdbcd6edefa68df9b7cdb8ada88dbebaddb9bde
col31:   c789a6a9a9768a6bbdad8ad88bb8dfaacc9cbcddbdcdebcdaccabeefdafabed9fdcae6aaeadadeef
col32:   7b4a988697dc776879579f799dad8b9dcdab9d8adbaaaeceecaafdaddebceda9eeaacaeb9cebbebf
col33:   ca78a5aac7a596bccca86b5cbbadbbed9b8cd9ebbf9abacecaacfeedcabbfbdcfebcbc9a5bdfbccf
col34:   b956d8e99c97998989aa89968abac6bdcbde8a6b4abebc67c7edbdab6d79fcdfaedd9cdd8baab9df
col35:   f25537aa7979a789885898b6bceafadbabbbfcafcaaffdeae8d8c9e9efbc9abeddbda9cbfddcbfff
col36:   ab456775c7aab6aab89a7978577c888c8da88a9cabdcadd7fb9abc9cddcbfbdbfcbadcdd98eedcef
col37:   eb879a75d6aba5a79bcc8cc779ddc9cbcddfbdcad99bdcedaabccdbfeccdeacae99bebcddeabccff
col38:   a667597d7a989ab78b99b8d99bcac9bc9bcdbbbd94addaa9daeadfdb8aeefdcbecbdeec8ebdfeadf
col39:   d997b4c7ba998a9b7bbd9dc9ca9bc8dfbbbfbbcad9cafbdefbeeeefdecccbcdebedf9aaedbcebccf
col40:   b5b767d845a9aba99b89a989e9ab989cadaa98baecadbcf8dadb9cbfbfccacc9bacdcdadccafeedf
col41:   b867b8c88a6a59c8799fc679bc988cbcbd9aca9ebaabadcbdbe98ecbad9cdd9a89edcffedccac9ef
col42:   65a8d887a79996b9cbca8dabbbeb89cc7ad9bca99cbbcbbdff9eabbeea9dbabbecddddbdecaddcff
col43:   c4878884a49a6ab98a765a9ce9cc9aab7abb9dbff7bdbcdb9fccd8cdfedffbafacdcfbefeccdcacf
col44:   f89995779a9da5737c9b9887ce8dbaa7bacfad8eddada9fccbcce8bbbbbcbbdeeffecbdcaccfccdf
col45:   c2478a8b9856987a887ea5bba58bb78edaedfbed9abdabcdaaeffed9ecfabfecfcbec8dbe9bccadf
col46:   b7a8b669aa897769cdd7ada8be3aacdb9d8bce8bfabcecdfdebe9bcdcdebcacabeeedcbdcb8ebcff
col47:   e6769759988a7a8975bbaa99ea9a7ac8af8ab9bbbd8daecadebedd8aedeaececdfbeecbeff99aabf
col48:   a849879b6ac9b79b69aaada8cdebddddcbead9f98a8cdcbf9cafbaccaa9e8df9bdad9ceaf9dddaff
col49:   d668938456b4e8969c87bddbeba9a9cdccbac5ec9faacdeffd8cddfbdbebebbddceefdbacfcfcd8f
col50:   d779a78768b7abaaaac9ca7d88da9ceeaacbbbceafcaf9edefbb99fb99c99dadccb9eddfcfcbcabf
col51:   c9ecbee9bbabcfffcebbdffffdfdfffbffefffffffefffffffcffeffffffafffefcfffdffdfeffff
ROC:	 BPix_BmI_SEC5_LYR1_LDR4H_MOD2_ROC6
col00:   86d69ddabccf89bc999ceecdffdfccefbfdefcfbffcfdddfef9ffdefffffeecfdeeffaeefeffffef
col01:   a744783668a667686a7aadb9c49c78bdacabdcaba99cbc9beebdc4bab9aad7d9edeeba6ca9ddfb8f
col02:   67ab957974aa868a7648bcac9db8bbfb79bcbabf8ab57aaacf9dca9d58bc7dbdaeadd8cb78bbb8bf
col03:   888aa7a887877a7889bcadcb94ab9ebecb8ef8ccadcbf8ddcaaabdefb799d8e9cbcfd8cd9daacbaf
col04:   a7739a49746a766a697c9777ba5b98a6acae96a8bb9a6878c8aa99fd9ccbc8dcd8abf99cacdaecdf
col05:   b91998976777b56757ac5489b69968b9ab79679cc97cccbdcb99b8ab98ecb9db9dfcced6b7cb89dd
col06:   e97766a93588556779986aca8b9baf978d97b8aabcceecc9d6baaacd9ed9deafedbeccdabadadbcf
col07:   a6496697986768799aaca67aaa9c63c98baa5c9beadcacdb9cee8cccc8cda887f8a77b7cbabbaabf
col08:   c75a74686c9c58886b568b887aaa7b9d77cbaacd8bc9a7987bfde8ecdacdec5caeaf7b98aabac7ef
col09:   9887577767544acab859aa89cb6dbbdec9e8cd789aba9b8bbed89badedcbbc9bcb9bc9e87cfacedf
col10:   a374496186667867985f9789caac8986a9b8aad8ac7aaa9b9bb7ba7b98abf9ab9acaa7efbaabcaca
col11:   b74897a848758d69a8f89d4a8779ccbbb8ba779ac79ccbdb59ab8bd99db67ecc79ab9c8a87c89ede
col12:   92317a83586a477788aa4baa9aa99b78bb97e8dad8b7acbab87aac9bc8fd99eacd7b9aecb779dcbb
col13:   b2a5853a6864a55bbb8ed9a6a9ab5e9c9dcc98cb76b77adbebeeca87f8ccdc8a6babbac98d79abee
col14:   c857648377986a97898ca569b877b8da79f4a99c6b77a998aaaccd9b9db9bc9c87a8aba7aebda7cf
col15:   a8669aac85667a8a9ca7a9dbaaea958a69ac8cad97facaeda7ccca87db9d9899aaaa999aec9ea6bb
col16:   95866a55438877989975c8ab69a9c76b6cbbc989dabb8abbb9bc99a97dfbc8c89ba8dbbcc3b86aaa
col17:   f2695588674c96a497978a9788a9a57cca8bc5a988ae7ccecbaae8a89cecd7adf9d8c7acacbcba6f
col18:   97492856797657655c68b968a5ca9bb69d7caabd7b8c88b9ebcc8d7deeb5d7ab9fd99fbacbcc999f
col19:   87753987468876758ac888eb797acb6fab979ecaa9c88ca9dcfcd8776cceaea9cdad9dc8b9bdb98c
col20:   c7666856675a346458849b896b87ea6aaac56b5d8c889dd7aabab8b6bd9ac8b9beecdccdbacc8dde
col21:   b56497346588694788959779b68c77cacdddaa77da7bd8cbaebccc9aeb78ccf9fbce6ba897c9e8af
col22:   ab679564566a6979597a65b6a8bb789ac69a7cc8a9c9c9b7aad8bcbea96ccbabd8a6b75cbd9abbcf
col23:   f8663879595998a7965aaaaa7a6a9b9b97979da9ba9c8ea99898dbcbb8d6e8bcb4a99aabcdbdcabf
col24:   87544764777458e8767659788bab86b498bcba9a8789da7cbb7d6ac88cafbacca7aaad9e9a7dcc9f
col25:   84947166a4497c7876a8aab577c6b9c78897af6adb8bc9bc9ceaebfcbda9c6adba88d7ace9e7b99f
col26:   a9269875b7889a38779599cc89a78ca9aa788cb966d3b7abaaaacbe7c9deddac9a8fdacaaeca6bfc
col27:   b6a694366bc5367798997be97dfc59ca97db9a98cbbabcc9ecb5ccebefcbac9ccb99bcc8cbcdddef
col28:   b686a89aa553985999778c6d947a9c6c6978ca88a9c98ad5e8c7affe99ccdcd6d7c7aeea59cfdcaf
col29:   d799857a57c657b57f8cc9587abb8bddcbd8edbbcf9b8aabecebbccaf9bdc9fcbde9bbdfcca5ea8f
col30:   eba74679675775c68bd7ba9ba9b9b98ab8cc998cc9c7e8acba9ca9cccceecbbbcdfbdacd69fabbbf
col31:   a66a33475aa7818ab97b5dbbdaac7e8ccb778ceafb8c98acae78accaacafead9aaa9bc9d7bbbafbd
col32:   e6a687946558a6ac899d789c88cbe9a89d896adaa99a7bcccbbcdcccedcf7dbb9d9dbabeabcad8ff
col33:   e4967aa9458776b7888b7aac8cce9bda8b79a8bba9f7cebbaccccbacdd98aa9849debaccc7c9debf
col34:   d9655b4671785a587daa6aba7bbfd7889eab899eb9a9baaaaabdc98cacecadcacdac9bcaa7b8aace
col35:   9a86578696a98795689a98879b8899a9cd5ea8bd97ddddd7dccddfafacd6aa98c88c8da9dda8aacf
col36:   d6857aa9667aa799d6bb6abaae7a8b98fccabab7bccb99aeddeab5bd7ddb8ebf9baaccca7a8bffce
col37:   9548668687ad69a8ada66bb9968776c98797dbbbbbdfbbade9d78dfc9dcdcc9cfecbcb8bbbea9dee
col38:   c54957763b66ba87c689b6bb889a99bbb9cb9bb8ab88da7ea979fedadbdcac99bcbdaaea79beacce
col39:   e788858589999777aca699c9d9c7b9bb994e8ab7fddecbcbcd9b98acbcefbbeddd9fcadbc67ccd8f
col40:   9734775a9c5a78795a9988a7797ce99799b99abb7cfabd9edba869cccdadab98ad8dbecfa97ad6bd
col41:   c5645694637a65859899b7999aab79aa6b86c988ceba9a8c6aecb9e9977b8a8b9dcb9cfbabbad8cd
col42:   97785bb789a7cbaa88eb6cd999daadb96c8dbd9bacbdfdbbc9dcacfabbad9eabedbbcafccacc8bbf
col43:   95559488997688b698c68b8dc89aa9b9ddbbcaca7ccfed88dddfebabeabbd7aaed8faba8efaaa7be
col44:   a57577876b58779cb99b9aa98c8c59b8bb8aba989babcd99ccebbd9fa4af7dcafaa9bbcaaefaae9f
col45:   99457686477968b94984cbaab5a76c88cdbcb8bccaddcdeaddeac6edeaaab9e9a98ccaad9eebbcdf
col46:   f6687769b98836669997bab9989c9a7c9d9ca9deba9eabbd9acacb9c7e9da9dc8cdac9dbabce9daf
col47:   9988658494289a58776b988a67b88779c9aabcf7ecb8cbf99edcebbd7accb99ac9acbda8b8cea9bf
col48:   a644483a9697a669967aaa9ca4abaa96a8d94d87cbcdecbddedccbfbcafeb98f9c9d9bec9bbc98bf
col49:   fa666745857a3587668849aaabb599996a6bafc7abcdbc79adbbdc9ea6d9bfa7abbfae7acdaacacd
col50:   b64867c5c185f525168b87cac858c8b697bca9a89ba98cecdadd9c9c9eccc8c9cdcbb7bfccb9aadc
col51:   97b8d7fdeedb9b9deaccefdbaeffdeffcffbdeffffffefdfdffffeecfffdffeffffffcfffeefffdc
ROC:	 BPix_BmI_SEC5_LYR1_LDR4H_MOD2_ROC7
col00:   a6ac8cad9aba7dcaabbeedceadbdbfefe8dbfddcbbcccfccdfbebaeadbdfdfffcfeffefdebfdfec9
col01:   b817748825a3688669475696987aaa89faaa9ad58aab8898ca79a98b76b888aaa8c6b8b7c9a899cf
col02:   9275a898545599653789787748a2979a886ab88c97ab97abcc9979cd7a9ae878b9dc9ba7a78588ab
col03:   f978a3836b67874ad98b88a79d886a76db887b966889c8bcb58ab79adaaa98cbbbb6bb9ca74a76bf
col04:   c64277859775ca678ab6b6997ab7bacba87cb89cd99a99bbb8acdcb8a9baca88dbbaec9dd9acb9ad
col05:   c99956a5995a657ae999a8a52ca976aabaad9b58a99a89898aa9c99a9cc9cb9a8acbcbbdab78a5df
col06:   c6a67885828998a87a69a4bb8988dcaa8f778b65b99a9b488a99b8aabaa9d4aa8bd98db689a98769
col07:   7386b8776a76ca576a93968875986a5b9baaca8a699b8aa6ab8845965a9886ab66b65b9c9aa9cb8f
col08:   b8759554767478a54c8a6974a986bb78aa8dc999c878a978bcad677a47c978878b9d99889ca7999f
col09:   a3774655a69a9775767795ab98aa99abea8697b98baaa7dab9c8995d98b8d8a89abbcba6abb9ab9d
col10:   bb772578989336b87ca7956ab8bc7b9dcb98b8a779b9949a9cbb689b9aa9cebaa9ada79bcbcccabe
col11:   d8567587368b6778b7a9f57b679d8a99bba986baa97ad69ac9ba99bbcac8cd898c88caac9ba797af
col12:   a7643672587a6a77879a6878aa799997679c8789a8588b9a7699d89b8b9bba75ca4a96bb9a99ac8c
col13:   d36868557a8a9d66796b77c9a96d8b8c7d977cca98a9d7b8a6978a8aeaeb787954bb7c969697ba6b
col14:   c92598886589995a77959ca83abaa8b7d8957b89a79aa9a7c97ed3b98a8a9c766ab9ba8b9c8faaaf
col15:   c276596a46a73997a367aa9cabc8b9caa7a99aa9c9c7aa5b78dbbc7a9dacc7bbea6c897badbbba9c
col16:   b659866763b76aacb8a99abb98da78dbbbb99aaa9a78a97977acb99aeeaa8a8a8a9a938dc96ad7af
col17:   c22275781578888949a98aa885899aea965869799ab99a79896fadb7d99adab6a9eda799acb87a9e
col18:   a53343648a7665658978986a879697ae7bd5aa8abbb6a888c89adacacb8c8979a8a95b76696cdc7f
col19:   b7884618986867887999969d88a7acb97d5985a78aab5d7997bcdb9bb8d9da58cbdaa88cc96bda8a
col20:   c15a77678955958c9676966794c8d9b697876ba899ab9a8999acaadbbbb8f868899a77da9cab9b9f
col21:   e6548b7776a6b98da6bc7abaa6b9bba97a9db78b789ca99b979aa7bac9abbaa95abac7b977d8e7af
col22:   d8a9669a788777c9898ba7a896778b994d9999a86ad4b6e9998ababc9b8a7cc87bc989aaaad9bb8e
col23:   ea886a87b87c887a979a79a79a55b74687ac96898766cea89459bbddac98bcabd9dab6ba9bec7d9e
col24:   d853858a77a699799a6a7897b5bd88db8b7894a8d998aa96d8c76ddca5ab8cd689aacb38879ba9cf
col25:   e87776a868a559ad7a4a99bac68ae99ab7c98baae5ac97b859a98a9c8adbda8a87addc8abaaad8af
col26:   d888a76a87699aac89a97595779976ba9777ac89985eb89b79ebba6bab99a8bcc9dad7c8b997cdaf
col27:   b8846575698c8a783b878a8aba6699aace78a88cd6ba899a9cbb879b9f8c7aaabbb8dc9bdaaa68ae
col28:   b9a576889b9a5aab799aaaedaa9989db9ba8bcb79aca9bcbb9ba7ac9ac9889b89aaaa9cfd6becdbe
col29:   b55c258b9ba95c75abbb6c7a96d8a89aab8fb7a897dbc8a9aa6989beea9baae6efc6ab6cac7da9cf
col30:   f6597769798c698a76d8b6ca8aa9b89a9f6aba89c97a8996a8dccba9d9b88cacacdbbbf88afabbda
col31:   d445a87a9888879858766dceabd989edbabd9bbaa885ba8cad9cbbfcaccca8d99ccbbadce8bda9df
col32:   ba479ab987595b6b44786cdddddb7c89da9dc999beadbbbeaabcbdbabbbe9da9cabbab9ca9cd9eaf
col33:   b74aaa857c99966a6dba99cb777b9bbc7bdbaae997a9addc9b9bbcaccea9cabe9cadb7abacebdcdf
col34:   c95887aa6c76378656a9c89ca8999c8b9addb9c9c7aacd9d6b9bcadacabfadbbaa88dceebdcaacef
col35:   c36c875996a6986ab9838c97cbb7aba9aab79dbba97a8eb6badf9ab9ceacbbdbbaf9cabbabbaafcf
col36:   f885ab879865bab79797a998b8cab997c9bbaa9aababbb8adaabdbe9a89baeaeada9bb9c9bbdcb8e
col37:   ca653a6799668897b75488b9ad79a88caccacac89bcc9bdb8bebacce9ebdb69b998dcccacaa7eeee
col38:   d67489b88989559769c977983f7aaba6dd86bb6d7baaab889ccabd7d8afbad9caedaedcaa9aeeace
col39:   a56566899679ab7baa79798894ab58bb7aabcbac88cebcccaa99aafdccbabdcb8ad9dc9bbb8acc9e
col40:   d9a798496789c484a87887b8d799c78b7a8baaa7c8bbabbde8bc7a6ebbecbabacabdfacb699a8cdf
col41:   c9699a7565b86dc898baa8a9b7899beb8ab98be979acb8bcbcbaeaccdaa7d9ac97dbdaaaacd8bdef
col42:   d569ac9c897788556aca9b9a8c9a89bcbcc9ccebb8d889eda9cdaac97f9a8ac58c9aacabee9dbacf
col43:   ca687a86a9997886d899daa8a88ab7cc9aac5eecabfa9ccebd88bdb9be9dda8c7c9dccbb8cffeece
col44:   c77875868a8798a77c78cc66a6a9a9cb9977acceaaab7aed9dcacabccabcbddcb7acc88abccea7be
col45:   c686797779768a927a98abb9c9788ba7bcdb6ab8ccacbacc9b8dbbab8bf9dd8cadaadfdd9bbfeddf
col46:   f7689577889aa5795599965c6798ab96bbbadbbc8c9aa9fdbdbcabab98a9aabdabacb8be8cecab9f
col47:   b564a7856a8478a8a957b78b886adabd6986cbca9eacdad5cdaa8bcdc9b8cbbc8acab9ab67affd9f
col48:   d5777689a6979bab994aa8987699ca8b8baaeccaba8bc8bcdc8bb7aa9bbc8c89ea7ed89ba6a9cbef
col49:   c5c54669778489b9ca69ba9899dcc7aacabc989eaaacfbecced9acbbddbcfcbeccabaacaabdcbbbf
col50:   85587986566b934764b7797a8aa9dacbdaabab99a4d8998ab9cdaaa9b8cdad9b8cd7b9acbe99accf
col51:   8bcda9ae6fbbbabedcefeaafffdffdcccfadfce9deefcdfffeffeaffeedfeeefcdeffffefbfefede
ROC:	 BPix_BmI_SEC5_LYR1_LDR4H_MOD2_ROC8
col00:   da9c7dacfcb8aa8affdfffffcdfdcfbffffeffffffffffcaffefeffefffefeffcefbffcdcdfecedd
col01:   9737569687c678987a868b97bbba7a898ad8caca95bbbad8a9bab8eae8dcaead9cf87cadaf88caae
col02:   ba7735715b63b45c78377798abbaec8bdabc8aaa9abdcbb5bac996bbbad9db9bd8abb8c9dc8879cb
col03:   64b9657a6a375c8c76a99bc9abb8abeb9ec8b99ae79a9bca9deedba9d8b97aadce99ebb977e99cae
col04:   a85689688579d6598a4a8abc8a8978e7959ab8cbdaa87cbbc8eababadcc8adaeeda9aecaca97a8af
col05:   d549798a98a86b7a7856999999f8998ab99bac8babcc9cc8bcc9f7c9e8aadebee7bd8bebb98a9a7f
col06:   d79968698678677baa7d9b8bab6cca7aada9fba8a99ac9abbdbdcfbfdbddf9995bffebc9ac67bacf
col07:   a8958995566999a6da9bcbaaabd86a99a9aefc8be79bc9ccaabfcaccbaa8e9aefbaac8bbb9b6dd8f
col08:   d756955872878787998bc96bd9898fdaca88cec878898bcbbfcb88dc98a89ccabfb9dface8e99dce
col09:   f57517a5a978aa467b9aacdb7a946698aabd6ddbfac89baaaacbbafbadbea8cd99979cb9eabcb79e
col10:   a96587286b47979989bdb7a9aca89caaadb9aab9dd9cc998cbc9eca7a978c9d8cacac9ad9baa4f9e
col11:   f8273964847c7b6aa68a7a5eb9dabcc7b8d7846bfdc48b8b7acb89bbdbddcfc9defe8afdcb6baabb
col12:   a8354a55588caab7ac59ca896abb768c9d9dab99c8b997c99fccf9c9bdadeb86bdbceaaa8addaacb
col13:   b58995498933878a99bb74aa78ada98e9a898bc7b9dbaada88bbeabacad8bee76ca8cba6a8d8c7df
col14:   b56484b96769647899959978cafaabbbcaeab78c9baac9ad96c8cd2b978ab8bfacc99cacfaea79bc
col15:   e8878853778a4a9c755a8babaadc7cbabad6d9b98f8ebbbaadc8cc9cb7dacabbc8c88adc78766cdf
col16:   c24a48985676c99979a998bcca66a8c98bbac9a9c9da9de8abfc8ecceaa8afdbbadaab5baa9c9caf
col17:   da798573649a9a898a596c9ba9aaaf9c999dc6daacbaabbbbd9bdc9a9ccedcddd9e9c79be5abaa7d
col18:   d657666a264a7a76e64e7aadb9baab8cadbb55ac4fb999eaa6ce73c99ad58bc6ad9b97cad89bb99f
col19:   8659848625554c7797b8698998dbb788789a99be99e9ab7ae8aecb9cb7ce9bcbbcdfcb5ba986b9af
col20:   a41946895158798874789a7aa8d9c9ab5899ecbc9e9dbbcc8bb9abbde7adbbbc9a9d86bc5aa8a8bf
col21:   7774795587bb6a7899b876785a7da87aa79798abdabce9b9ecaba78ab5b97bb8cb79a999bacda88d
col22:   f847598864a554889d9ba675c69bb99a7aab98bdabee9caecc8bf97ada68da78dda9addbb6bcd96b
col23:   c7595546228a9989d9897a7a7b58ab97cc67a8b889887c8debdaf9ad9ac98bdaeaebb99acacca88c
col24:   e2986775597a89a8b9aa95ca9cab883ab758b65d7bcb8fb98cce7ae6ca7a9a5bdaaeaa79979dc6cf
col25:   d636745a599568978a9848a78baa97868da8ceaa97ba6ca989a9cae8d9ebe8db9dddddebc3bec9ac
col26:   97684678786676479ac58a995887baabc74b9c868a9ccaa9b99afacac8caca87aecafe7dbd897aaf
col27:   e3787b778367c88999879b5e8788d4796cac77b7ac883a6aa8cab8feebb9efccccdcabe99accbb7d
col28:   b946d856954aa98d998b646b6c869a594b9a9a9aa7eda777999a8cbda8a9bedf8cab8edeed777fba
col29:   e9777aa6779d697baa568da668beba888ab967ba79d98bcaa99ebaddebc9cabddafedfbddcad9bcd
col30:   e63a798645a6689a885d8ba588cab6ccb9ba66858cbac8ac66babc98bbba77cfabcaa9988bed89bd
col31:   bc9c98784a95fb8bdabc8b998bdac987b8d7b9c9acb8b89d68bcdbb7badb8dfac8d6daa97ababbeb
col32:   97898b6d6d687ad8cab5d56b7ba988cb79dbb9c889886a79da9d9bceb9ccbbaccdfdec8c9baeeb9c
col33:   c4746512b9ab488876a4b7a89786b7b5bcba8b58b7c9c97a99df6bdc8f9cba8edddcaf9bdeebebbd
col34:   985457855658a4b78a68c56bb99ba58d9ababa9ca87a79c98bbdbb9eea9ba8fdde976cd8bcaadc8e
col35:   779668886b5b6b56779867c99b5a968a99ca998bb79b88d8e98cbaa9b9b9c8fcfeae67abfdbbccdf
col36:   c98677875466984878ba88a98b8a8ab9acaae676ce9ca49bfefabde9bdc9aaacbbab98fcb8eeaa6f
col37:   d273297887755b8b6aada888a67aaa8c9967baa5baa8bd9bcbaccbecee9d9c8abd9dcafcdfdcc8ce
col38:   caa9965768666555a79a687a588a987b6a67da588d7a4bbb79ba7db9a7fa9e3bacaadeae899d96df
col39:   f596b574736f988b667c8468c36ccc99c397ac9aaceccbc8ccbadb7dbc6ccb8ae7dccbacddbbceef
col40:   8986799758a7a75b968465a99b298bb9669aab9d8d9ab9c8ceabbafccccbd9ac9aeccdc7df5a98ed
col41:   7449aaa5887bbb799887969a9776baab58aabfaba67a97bcbbbeacdc9aacfa9abbdcbdfdaabbe9ac
col42:   b3a877877c9a97899778b7b8786859aca9a879cba8579a8bd98daaeb8f99edca99bcceccdbbac8cc
col43:   e99a67998799a996a79a5a9b7eb99c8b8e8dd8cb59b8c8bbbdbeeecdcdcbdbedcebfaaffeaaae9ee
col44:   ea8a887789a979a7bcb56ba997dc5a8bacac49adad9dbc87cc8cdacac7dbdbdca998ccebdcdb699b
col45:   a9bd95767aa9a577ba9647974bb9bd7bd9dcd6dbe89acaa9bdaa98cadfbd9ecaaddab9dbbcbb8abb
col46:   fa686987aa97998bac5684a6a8b99989bd9bacf9a8af8a8e9f9da75bdafcdcb959aca9decebc7ccd
col47:   d275975a78a6cbb7acc9daa8b98b8a9c8abbca999b9a79cccbb9b9dbca89ba7cb9989bc9afbb9c8f
col48:   c59565a451a7aa6ad3dd6758ad8b79a75aada5a7aba97588cb999abbfc59a898dacbfba89fc99b9d
col49:   c845954aa4c9fa6688a7ac96779a7daa8b8aba9aa998bbdcd8a8ecaaeb6b4c69a88a7daa9dfeaa8f
col50:   7773387755899769597779796ab473a5b8b56989966a8b9babbeb98bddabab966a7b798b9fdb99ba
col51:   76ad9abdbc8ecdf8bba9caccababeebfbbcdeedfbffeedcfff8effefffffffbcbedffeffffffdfae
ROC:	 BPix_BmI_SEC5_LYR1_LDR4H_MOD2_ROC9
col00:   cccb9effc9afceacc9c9dacdd7feffdedaffeddec99ebaabeefbedfc79adacfffcdfdcde8efcffdc
col01:   a967c8685989b27656867489aa8966c9878fca9a8e85687fa7bd3a98b5788667aa57298849966567
col02:   cb6a67865597a78c799c9bb99b789cdd2b7c89c42bacd8cea67a97aacc76589bb8e7a8cac95a826d
col03:   f86b8bba8b57c9996852739879cbaeeaca7beab8779788486c889dc458db4997ec9a68566c845a6b
col04:   d9db9c894aa76cb886748a881d86bcba9f767c8bec7885c798adbccaaaefaa97bbc778d99a73765c
col05:   f678949737a778d9987a69989bc7cbbda9aa88739c797a8ca98a9bbb6cab89a6785b88878aa86848
col06:   da5687aa8c8b474474a89c9579ebb79dababaeb38a9a96a969b96a7a9b88857668844d867889b357
col07:   c9b675898ecb6a845aaaada787aab7ce6d6a9caaaa6b2a8a675bd85deb9a97b967687a98a58a9998
col08:   8a5bbd817a98698a668c57ccb9986adc9a7a8998b7b3a59b879bb5d99879c8c29a75d2797aaa997e
col09:   69828c95a6cc8997979bac9ecac99cdae68b97d9c899c84da98b86659bc77b8c95c659b979b59759
col10:   b8787cbeba676719486c8a99ba9b4c99a97c7be8a79c78beb97b8c7da48ddc8c879d668aa5c9357d
col11:   d967558b757cb97ccb88b6a9d999dfb8387abb8b84c8ccfc56bfd6949bba997a7b76facb864588ee
col12:   f665ab655767a4b9b977aaab799dd8ebd77a6bbc64b765c85c69caa9eb6bbe9b7695b88cb8867a9a
col13:   ca94397bba69758d6db5a5976adcaaae9eef98aa939bb198cb6eacba885aa68766ca861498f7aa7a
col14:   e54996775848d7a489bec6988a75c8b99ecbaf9a8bac8dbbc9eb4a7ca977779b8c79b2a97b86562b
col15:   ba88ba2aa69a8bc4a98697adadcbccb39afdb59cb9c78677989975aeaaca9bc2ab95356ad56879ab
col16:   bd5885995a69aa5d8b9987a9acabad6779dcd9689bb8a7dbd4449d7aae899b99e8a74a6b78baca8d
col17:   779894c3895a79989a9dba7aa7accccb6d7eb9ba9ecb84abb898c79cc578ba989974b47e9879c96e
col18:   e87468476879a9bb9ba76abcb9acd9a6c88c7cba8f87ca8a7a95abbeac87885b67f6668a3bc96b3e
col19:   ca578b6b58687bfdba7b9b8857b4ceabc9abb6dda4a87b8bc59ea6a76a974ac589e988887694b47f
col20:   db885698587b674c588b8796ecbb79bc8f8cadaa6a687aaa798be9e8ce6ae89a5b76d5b687cc9a8d
col21:   ccd8c7a938cc9b9ac99acb6cc895ceb8fa9fcc8aab78a958b7aad5b97c9a99e985667699997987ac
col22:   da79a9859888ab8bad9597695d98b99d7c7cadcbf8dbcff6c89dbbdbebaa4bc7ab6d686a95ccb6ce
col23:   d88c899a5cb96ab86c8dc99866af8caac45ebbcccba3aa3aacda7ed5b8bdddaa9a8789bb8bbbda5f
col24:   c1ac7ec596798bb8cd299b7ab48a8ac97daa8afdcb9be9c78b5edbcba9c98ab8f98a76997b7796bc
col25:   ce9a984aac58b9d99db39bcabc9797eabbbc876eaab68da96bb888ddbba4999bdb9baca978ac6b9c
col26:   faa978c96d889d9da77f5aeccaaae974aa9b8c99af76896bfababa9c999ebbcbacb9c95a8fca885c
col27:   e69a89bba9659679ac5b947ca8cb8cbc57c8c99b6fda8d79be9bcdfdaefdc7b6caab8b97bad9e93f
col28:   e87d9b8bbfc8a99aa7999c59aa96da9bcb8facebac5ebc9ace8bcffcca9dccfc6accbdddcad99abf
col29:   b638889aba8b8a39ac5ea9998ecabbeef8d5c6bdb99cdbefc9cacaefebb8cf6a8d98b9fcbe8bd39a
col30:   d8689b958dba97a9a7dab887c7ee65ccbbad9f979a88dafbfbb877f6edfac6adba599ada8c96bdbe
col31:   d79a89899fa7c7b6b79c8c9aabacfefca9bafa9babad8b9e8c9bcfccccaebfcb8afdccdaecaf7b8e
col32:   b898579a6c9da97697cac9bceccdcbdbaf9ebdcc988b6cbdbbbdacafdc8edbf6aa7cfd79ac8bcd9f
col33:   f99888b7ad9afa5c66b8caadd9dfdcfcba6da8ed8b5abfbfab6fdc6fdad9afaecbcebeb5abd9beef
col34:   987ac998b99399cd685abab99adff9bfb7bab8c6a9dd9db9babedeb6e96a9fcddbacfaacabacebaa
col35:   e5779a9877597cb5fe9bcb97ab8bc9eaaac99aacca79ce6a7badeadf9cdd7abefbdbfbcfc8abecbf
col36:   cb47c687796aaba67da978a8a9abdcdc8c98faae8d89fffd9d8b9ace8898f7c869aca7c8d87b847f
col37:   ab79ad864ca9d7b96c46b9dc6e87c8cbbb57ce7acc79ddeeadecfc7fbfaea98d7deecd9ad8acb7dd
col38:   f9759ac896d78a7a669cebbabd8e8cda8aba9abfbbbfaea8dddcfbbdb9dabcd8a8bdb99cabbccfaf
col39:   e88adb8a6b89888887edf9ead9cdbdbebfceadddabb8fa9cccf9d79deea7febffebdbc9aaceb97bf
col40:   fc799daa788a77558978f9e6388bbd9ccdbebd9baf7facad8dc8cbbeca9ade8cba94becca7aafddd
col41:   c56ba8dc9a7bb7697aca5accb8c999d9e99cbc589baacaebbbfecfc999ebdcddebcd9aa9db9dfcbf
col42:   98d92cab9889c988bba65bd8cabbb879bffae96c6cdfbb6d87a9ececbf6a9e6adaffb7d8f9fb799f
col43:   f679aaaaab9c6ba679979bbebeb957d9f8e7df8cdcb7dedeab9ccd9f8f76b8fb98ccddae9adc9fdf
col44:   fab87e5996a588998b6bb886caebc7b5a799acae9dca99beccecd8ca8fdffbdb8bf7d79fc776ed6e
col45:   d59ba99ba928b9bf68badc79a9dfbdccbe58ae87c6bfccbddb79acc9aecaabcdbbd79cc8afb8cacc
col46:   c956a577a9a5aa6b6c7bcaac699abbacfcbaf9bc9b79eddeacdadd9feceabbac78fba898be89c87f
col47:   c987688a7b6b8b99669c98767ae879cceb7c998ccfabccebcaeebecb89c9c97aadfcc4edfbcffadf
col48:   c848a89a57ab4fb3997cab79fedfdb99a8c7eb5cfb9edec79cbcbe8eaf7cbefae6bfcc9ccc4ff8ff
col49:   f67a5db7782c3735acaaa8b89a76cafaab99adabbcedcf9bc6ccccdace6e9a77bda9d9bea6caeb7f
col50:   f73d7968aaa87b8e57c7b979cce8b8bbfa69699aaca8fdacf6dc9dfaad8bca3ec7bcacbedad8e79f
col51:   bba7889faefcfdcfbeffdefdf8fbeffffdebfecddfdefafdffefaadffffeffffffbfeaffeffffddf
ROC:	 BPix_BmI_SEC5_LYR1_LDR4H_MOD2_ROC10
col00:   eadb9b8bbdadffbcd88feeeffbffedaefdebdddf8e98af8dffce8ffffcfbacd9dfeecafcddfbcc8a
col01:   c57b8998957c57a6686d7969986b86a99b599dc6be88ca9c9a78899d94c8cb678ab877aa57bc7879
col02:   e698a6a68893d94b7c5cbb8c8b9ab98b9a969dcbacab79a879a899a8c8899687d67ca4c88787987e
col03:   c87b8c595b7994628766886e8689c78a8b789c9989abac9c7b7baba88857b97a7d8968857897789c
col04:   c38566999966b95b8b989ac9aa8c87979a8b796a5a98cbd5b98cd766baaab99a94aa9949baa965ae
col05:   c8db77997ca88bb6b7dcca7cb98abb9aaca7cb987cad68ab6996886a67855cac97a487886c69988a
col06:   9a953c4976c99a4ca8a7988d9ae9ca9856b799d62977597a789aaa98859468a7bb779a86bb58758d
col07:   d738d676997788a898a84b8aa8ab686a8bbb9ca89c766a3a6bb99b9a77cb5aaa74bd896aa743875c
col08:   cb66399a5a63a68889989b88788ace8995c9cba9878aabb7b989a99987c779b7798d8864a757682c
col09:   d29935786576595a97868999a9a7969886a81ba7abda39a887cab79cb8b88956daa78ccb896cc56a
col10:   d8655543854887765a6b8abbc57b69a7899d9897a98b7bc9cebd98a77b8947b88693b752587a454b
col11:   da7776598c5b769a6a8a64797a45a6c98c7b6775f88aa489a7bb9cb7abb8aab9d9a798568385577f
col12:   c8a4366678475678897aba668b8bb7889ba78868789a88a6c9b8a8b8a9879687758a19965c93991b
col13:   938866649494982558a6885ad9b59dadaaadbc99ba9a97b7c8acaa87a57f98c868ba28b978b47787
col14:   997678935697a246787b68baa9f9987acb8caabb6cac8ac8b7d687d8a89acd9b7696586869c577ce
col15:   c8996b9b56a884986acc8bcaa69cb8d9bbd8dca7b9ca7ecda9b7ab8b98cd3bbaaabbb9649366778e
col16:   97b98a86986ab5798b9c99bab989abacdaddcdcb7be695bb7bac99b89cc5969977bba79486789d7e
col17:   f74779b54875c897caabcd99a6bb9c5b8c99edac7769efadabda88dc785cc9c6bcc9a98a3a76566c
col18:   aa4c8867e6965dab98caaab35679a77addbca9b7cdcda56a6769caa57b6879aa9985b8b6c67ccb58
col19:   b78589bb7b8575969ac9c6db75cc7beccc9cbe9cdc99bebcba9adaac5c5947a99c69ba573777a849
col20:   7678b9ab976ba89a6b89279bc7bbadc69b7ba8947bbbd89bccb8ba688add9db6b8ac868abb49918f
col21:   a84d27a96bbc95a7945b7cb9a7b88bc98bb99aab699df9bcfcbbc9a8a87d79bad96789657b67997d
col22:   f48352778689959799d98b68d9c58c9ef98a89aca6997d96b7b969ca9887bd9ba89b8786d57a589c
col23:   d75a9a7ac9a598fbdbbb7a788a99e9aaca97787d9ec89aba8cbc9baac9bcc879988ad59bb8975c7c
col24:   ea983967aab9b957a89a8b75ba8bc659a96d6797bcce6d888a8ad8c995b99a8ba79aa886786bb97d
col25:   d659858b98b9ac8ab9b9eabac898eabaaabbbcacd9c798c78c9debbcaa98cbacce796abb6ab9666c
col26:   e7a9696a7b85aa965becb77dab897bfaaa5e7ac59aaec5879af9bcbca8abab98ecabacb99976986a
col27:   fb4d89a9ba6a84d9eda7ccdb9798aaba8bafe99dbcbbdecacbbfdb98a9ccabd8969a9db678798a8b
col28:   f97b9aba649acccd5dbfbba98a79c9b7bf9b887cb98a7dd9acddebebd8ebe9a9abdba89b8bca686e
col29:   f9bec6cb99eaba8debc5b98cd997cdaa99ccbd8cc9d7bbb8b9ddcabe9b8aacceac8accdb7888686f
col30:   f9a9c9caa98cba8d56fbba888cec88bad95b8dbacb9daae83c89bacddcaa6b95da8da9b58697c98f
col31:   f998b9998ac7becc9accbcaccacad87bbbaf8abc9dbc96b98aeadcc9cc9ede8dcbca8cd867ad9a9d
col32:   f4498a7dacc5c789db7c8c87b8ccccca9bbd9aec97cac8b69c69dee97babb8ba569cedcdaca86b6e
col33:   f5c87bc97b97b9c79edd98dafc99acbcdfbda67ebc8a68cabaca97a985bbbccaacaaccabaa8977aa
col34:   fcb99a5b99798b98bdc979caf8cfd7aba7b9cbb9ccd9cafa8bfabaaec89acdd5bdbaab9abd85a69f
col35:   fe7bcaa69a6d9abfeeb99a98bcb9cdb8b8eedc9aacbec79bebefb5b998bddaaaf8ad87cab7cfa96c
col36:   f77b69beafe99d99dabecd6ca79ddbcc9da7a989becaba9caaf99ab7e9d68d7bda7a98c9eaca6c6d
col37:   d9bb99b89a7acaecdcc9cabccab6bdb986bcb98dcabecac8befabbfbbacee8edbf9afacfc9d9876b
col38:   fac7d4ccabfbe9bb87dd7c89daecfddffebdc8bac9bccafb9bebbdcdb7c7bdaf8abcbbceebc97d6d
col39:   fadcfccbdbb9cacbbca9abfbaccabfa7ca588cfb7badfdc99cabcacfa7a7a97bafbeaa99d7aaadcc
col40:   fd9accdb69cbb89dacfa8cea97bfbf8dcfccaac7bbbec7deefcfd9fcab8bbccbeaee9beabfecca9d
col41:   fabdcedd7d88ddbe6ededd9acbfabdecacadcbedfa98bec7ceffbdb9a9ec94c7aca9ebfaedd9bacf
col42:   fabfeca99cbbcbbceabddb88c89dd978abccbc9cf8bbcadbdcdccffcbabba7cfafa7abb9ebcbc99f
col43:   ffbff9dcbddabaeafadecfadafabbfbfcfcb7ebcccf7adedeebeececddefba77ebdb9ab999cbbb8c
col44:   fac79ad8aa9daaefd9d9a8cbbb9beaf6dcedc999dcbfb7bafcccaacf9fdacad8fde9ebbbacb9b76d
col45:   faaecbffcbec98bbcb9dda9efc99db9cf9aebbaeedccaafdccbbbbfbbacc97faa7aedacbe95ab58c
col46:   f9bb9cbacde8ecbbfdabddcbdbcbdccdc8eafa9caeef8ecedbeb8bfacdabdba7bdddb6ddcdac89bd
col47:   fc9bcbbdbcebebeac8ce7fabeaa8da6dbedfbc8afbacccbbacedd6cdcedd7fddde797a8bdbd8a87f
col48:   f9b9a8efac9ccdceaced97fec9d79fbfdbeaadea9bf7ada9ecafd9cfa79cdf99abc9b59a9bc99a9f
col49:   db8bbcdcedfbbd4bdaccc9cd9abceebcecaeccfca6beecedaeddcabdf8ec899c8d79a7e9de8a9dab
col50:   fe5b8cecbdcfad7ababeedabbbaeabdc7baccbdbc9ebeacfecf9ccbefecdc6ba59d956ababaa85bf
col51:   afecdffffecefffffbffdfdffeffffefffffffffeffeffffdfffefffddffff9ffadffeffbdcfcfad
ROC:	 BPix_BmI_SEC5_LYR1_LDR4H_MOD2_ROC11
col00:   67c9668866766769869b66798cba9dabeddacaa8bbab7b7b8cac8bca9ab9aacdecfd99baa96ebc98
col01:   9411414152343254314427188621488338774775968a599866855a568556789549ea65899b96996a
col02:   c5675522117421311547385398876778557459571979797b8586856943698845658b4c7a9589a6cb
col03:   c652215384813156825487177646bb86956347743666459747956955aaa597789875626a766877a8
col04:   a63236a221133152741536b926448295596896564536757678176a4da57b888868862577869a967a
col05:   a373578311222677665479738a599747768bb86a532319897947e9a99b887a3886bb759acc99856d
col06:   77211557425734256416174b814ba556548674616727772a98959a77354899ac7988576aa749c98e
col07:   614731a4444534351156585257759698a96868956769775867839aa87998299769b4788968b96d8f
col08:   952742431563353269792615789a66ba768b68697e724a54a5457155d7669588456867866679759e
col09:   81418351334343327136464645896794496577789799155479a5b3b8b758587e697b9688a7aba6ad
col10:   73237255556434764a746765376668cb68496696788727986a5a71a87ba6888a788b365bb97adb9c
col11:   74177644261739341785a896874694a49774458a6786636767ba97959aa9795ccbab79b7b5e8577d
col12:   9116463235616578476369754a6387ab965a956734651496293456a889dbc4a775d8c879a74796ac
col13:   86221443143438745436997b977b9574883a87d278887c3a9b4a87cba79aa89a88859c878dc8787e
col14:   92251136122613175484444a966b8b963b76479921479a698a4ac5899bb897464aa98c69867b999f
col15:   934333311588771a96395784879868a83798589652b78348b989dd3c69c9d9598986784a7c9c7ba8
col16:   7322131223269838487958638579879575677789566996668888ba5797c97bd6c7989889cc99b69d
col17:   a2337533a456857468a5ab747b5ca7a66697ab8886999979848984b58b8e77b5aaaab69c678a679f
col18:   a23121317667668973766718b76d257b87894598959889879956a87995c89e889bca47989b59797b
col19:   a313715534937455342a8a75699798877b9857566826658b7798a7a8a7dbd648796a76897999986f
col20:   7127a145554a3149786485a739c9db79947154497856776d88a997a978b97678a447a89ac4a98a7e
col21:   835466446898777467658753357869799c6c6b68686b8d98658ba6cbabb9cc9b46bbab897f569bbc
col22:   e785536536663818b655896288788bd9656b8666858899b9aaa79bc59bb8898c9a67bab69a6878be
col23:   923372b55746633b796584359659a3a5596b6d6a9a469b8957cc67b987a87c966b7ab9b37a4baacf
col24:   6848787b426863846955669a8587b96c58b8c87675886993989946a84b4a8cba847a586274a9895f
col25:   a863757466b746c965a7a78885b7949a966678b9b58a69759a8bbeaab9cb8a89ccaba89a7957caae
col26:   91796886598796d5667686a98aab667cd76987b6a679acd8a988b9b9a8a89ac8a8da974bc987685f
col27:   b6657a48968d84584788ac7b889647bb95b6aa8796ab97d97bcba786abbbf89dcab7d7a98dbb98af
col28:   a567377a99a8654868b2794ab8aa76c44956ba8966a97a9b97ba9cb8aaacab9abbeaba78ecb58c7c
col29:   a65889777656861a699787b87a995bbb98b62e9babad76da799ecb9bb7bb78d799c9a9bceaaebabf
col30:   c95243985768a65d9a989aa8cacc9b7cbcc8aa94a9ab7779ca89bca7ca7bfb9b9ebb8aadba7a7e9f
col31:   8867877746c8743568c8ca99699889baac9c8b778b9bb97e99bb87bcbcaecc6e79acfbfb9bdcbc9f
col32:   d55664146b76847585257b7aaabd79d89b6b98a7aa8ac8b8a9989a7cddc8b88b9cb6a9ed7abdabfb
col33:   86477516665959853998ae6a47db779ecd8af8cea8b89acc76bc879dcdb797dc8e9d68c999bacecf
col34:   a9374936a6aa79b99788bac88da7ad8abdbbcbc698c5ba996bbc7a68abaa79fdf9eaa8d9acab8c9d
col35:   b6573a769587697aa48a88ab9af7dc8a8ad89e9b8acbaccc8ebadabadc7acaabaaa87aedb7bbbccd
col36:   c5b99699666688cb67589787878c7b7d859db78868bbb8a77a99ccdbb6aabebd999d8cbec6bba7bf
col37:   d5b6988b97359a868858a9958cb899e88cc98b8bdabb777b7977aabbdca8ccfbebb9ccc9c78fdaff
col38:   d94298b7995b9837697b9b786aab7d7bdabb6d89aa9f9c889baa9bacbb5ac9bcbba8a6c6ab8bcecf
col39:   c9868b55398b7a9c577aaa86b8bbe77bbd989d8acba97e8bbaacbafecfaebebddbdacc999bacabdf
col40:   b39b6767a9488b75d7baaab6acbac9ba9b6eb969d7b9b8a7aacfbcddad98dbcbebbdc7b7dc9be9bf
col41:   da7867a66858767889ab88856cd78b88dabc7a89bacda8cabb8eccaa4cae9fcc7baafbcdbeccbdcf
col42:   a917795ac977b689a98caeaac6a8bcca998f9a98d7b6c77ce96ab97a8cfddd9ccddbadbcdebccbcf
col43:   c768574a87b736c95b7cbabb6a9ca9abde5b999cccb979dcbcbcbcbbed9aa969dbfcadafcdcddbef
col44:   c98885989a49898888d95bcb67cb67a9bb9a8a98b98a98ac9ad9bcccaabce9dbbdbd86dedfadc7bf
col45:   845c698b96a7a76589886a89ca9caaba8cb97bb99cdaec8d99d9acac89ddcacfbdcdefbad8bddecf
col46:   98946967c97b89668b6b9987adb879bdf3bc9a9dacabea9ebfab9ca8beb6b8d9cbc9beaf9cceadef
col47:   e567788979a9884abdba9b78cbfa99a777da98a9aa7aceaacabd8c99dab8db8bca9becddeecee9ed
col48:   ca546586ac989a8a9b8bc7758d88dbbcda8bcbcc7789ddaeaac6bacba999b8cb9ccdbaca9afcecee
col49:   b69392a969989dc9a6aaba7bdabb988ecb78cb789998baec8dbccdbaea9b9ecabebffcbfaecbf9ff
col50:   a84588387774697895bb9cb9a7bde9ac785bbbda9d6757b8b8a9ddea6d8baacf7bfcbbabf9dad9ef
col51:   9a8ea6afbbdcc88accdfddcdfdfdfebefdcceffffbfcfcbefffbefcffffffcffbf9fbfeffefffefb
