ROC:	 BPix_BmI_SEC2_LYR3_LDR4F_MOD4_ROC0
col00:   f358273527658518325632969471b165a74a7749948487e746687676862765962954647143868214
col01:   867868899788a888e7b695367d736a8b4aa8c589567c86cd44657897b53c6897984556a692275a12
col02:   b4454866a74737479a757697d6628776e9a858574559bbb867378ad5697b9576632b998792726676
col03:   566735646c9375938a54a99a5926c3759b4ab9a5ad5a4a256853997aac684c866669546596164857
col04:   64657879a989998aa4a9baa78757d79b388abb57b788895849a9469ca5b7bba475554868c7c42734
col05:   3789825697a96a97784a33b895678977b97aba5a878879a77b4888b8997465769852654829992683
col06:   b27a666a8867578a78965b8cba8a86a98897ca8acaad74677b697a8796c998575947787976156284
col07:   9689577a59777666966548abcf79ba2887f9a7cbba4858aca996a9b6b7aaa8a59a55b7a7a7866a86
col08:   767a9a4846547db4a57a9977bc75ca8287b99ba656787c7767977888d75889626b47dbc87e355871
col09:   6b586a8757d774963664b5b97c8b5ba6aa6ae689c8a789a9ab89359d9988785da8a56394a5855754
col10:   68392887b628743639694569bc8a9aa99c8865b599aa5a879c87b9896c7ab5799e7a66a749987146
col11:   7289873477b4c3ab77e686496854ab677c7b87a9fdacac4997a8b55bb957aaca9545b7762c5697b4
col12:   b5775565dc784637a756687694b9aa8cba65885ab2688b784779878993658ac5a69ab7b8a46a9636
col13:   64774b454aa77693966a6897976989ababe7acb7db876aa7aab8887cbd8988798a99896575447277
col14:   a477887a7787976898756a685aab6c6b3c98acb9aab9888c97b7c6d76e795757864557c858656a83
col15:   63667286757a8776baabb9a7b7966c88cd8979965568a8abb8785a4a68a976547848c8b567836764
col16:   6694a676a688493d9a5b687bd95acc9b96caab6cab84557876abc57ab7a86687659576c756834595
col17:   64553a999c5aa975886a9f8799aa9a96ae7e4cba7acba763d989658baac77a69999473b57885c262
col18:   9925b6763948619584886987a7b9b988aa7f6b8b7b98aed46b69997a299956998267b8b631777667
col19:   79986835385aca9a8b87a567ac7698c589ba7787ab7d5ab958b8ec89a5fa988b5a783736978a9154
col20:   687a6b914862997777b8c954a83677c9bbac4aa6799978a95a985d9c8a87da789c4877675a6888a1
col21:   76693988a6b562ba6b56a97a68bc8b6b84bd9b6bc978c8c8c7ca99adc8fb69768778a8a8979c5876
col22:   8969b7a7a8a68959b49827aa9839a9abdbd664ea53d7eab978cd98a7ccbf37a8a68a589b497a5991
col23:   416695ec55697c886666386b4cc8cb9778d7ad5a8587ba755a5898799aa78595578896268a74aa71
col24:   8749658777b986a77a757a97d66aac597b9988cc975bd68a9aac6886c95c8c79db87869774567a25
col25:   daac9c87ca87995a77d6bab8a78b8b8c8b79a6b7cd96aa9b9dc9cd6e6c4bb198b7a67aa5ac37b863
col26:   ca8dbc77c677bab698789589ac9ea9abefa8cba6abcbac9a9cbc48cb8adbbadb9cea8aeaa68a987c
col27:   8c9f83bb7989c9873cb8bbddcdaba7dbceb9cbbcadcbcb9b998f85e97989a7aaa857e8e9ca9c5895
col28:   9a98268b8a587ae8b6999daaad6dd9beabadbc9ebaebd86bacdfc99987b8c779b8a88c4c8858a696
col29:   8c9ba58779badba9ecabaabac85cddbbfd8db9cad98ccebccbea89cbfb8d69bab99d97988999a778
col30:   3a7a97aa5cc7879a9aa9ab77db99c9aaee9e9769baa888fc7bbbbca8a99a9c6bbc8799998798a7c5
col31:   db5877b6bfc9588cdc9ddacbffd8da9bcccb7fbecaccbdabbaabdbfec9bbadabac6b9a99b9c35bb9
col32:   d78887e89abe9bcc899c8ad6d98a9bd7bccbcbcdaeaab9cbe9febebc9a9faaabb8cab7d95cac68a8
col33:   5a8bbab8bbac9dbbcccdbdbdefcaeeac9bdcdbdbfc9bdebaeadc7b8c9aac5a8ba8bba8799c8c9ab3
col34:   7b9aa8db5b9ac8ba9bb8aca9afb87fb9c9adcdc9fcdeed8bced7cb9cbebbfbd688e89cbbda75897a
col35:   9875abccc79a78cacbb9bbaecf8c9cdddadf9fde6ededbf999d79dbfaceaadaa999c4b9cd6ba9681
col36:   9c5bc9979b7bfbd86aacbcbcfcbaccb9ded998dbcfcacc9bdebcbcb9fcac7c98cc79cabb6b6cb963
col37:   59bbc9b7bacbbdebaad9dda9ea7beaf8dfbcfaacddaa7cfc8cffabddacbceeac9ac599ccdb998a9a
col38:   a89a9cfdaba999bc68bcddbcabfceabeebcbbffdbebdbabecbbfdfdceca9bcdcc89bdcbc7d99cd98
col39:   9aca77cbccc99caa7ca97b9adadcc9acbb9bfddbce89cdc8faeec9cd9ecba99ac6aa7a6a79c9e85b
col40:   aa778abab9bd8889c9b8ba79e9acefddaf9caddf9acafdcf8fcaeec9dbdd9fba96e89c774aaa8d69
col41:   ba6bc6abc7bccbceddadddcabadebfafcc89efddecccefddccedeebddffedeafaedc9978c9dbe99e
col42:   bab8ba98a58aedabcadfbcaafabcafcfaa6999d99bfffbcffc7aacce8a8a8bac9c6a8e7b6c9a8898
col43:   bab7a7e8ebad9ccd9cfdfffecdcdcfedecbee9adefdcdbd9cbbcdbcceaaf9ad8abedda8aa9ba8bbb
col44:   9db8eeaedcc9d9f9fca9edeaecdfffcaebabdcdccee98f8f4cca9dfbaebdf689fab69cc7dda9c6a8
col45:   b8ac748bcaaa7bc7bb7dd69efda8baeddbdbbdfec7acfcecbcfbba9aead89ae7bbdaeae8b848d998
col46:   adc9c8cacbacadafcb9ededcacdcdbbddcddefaebadbcfabcbc88dcce9eb9b9bbdb99c8abe8da89a
col47:   badf8bb7b9fccdaed9bcfdcc8ceea8ecddcdaeaccd8db98dadfdcccf9edbbdbab7db88f8cc899ccb
col48:   898cc9a98bb589abbdcdc9e8bce9dbd5eebddfaebca97bd9cfd9fbbdbfcbabbbd4f998d688c676c7
col49:   a98e9d78bc7bceddd98dacffb9bef9ffefdeebccccddbf8accb989967ccbfb6b998c8af9daa8cc97
col50:   7eaa8a99cacdb8fcaabbcfadbe7cd9dabec8c8bdf9beadaecd5d9c7accdbe9cbfecaeb8e7c8ac8b7
col51:   8ad9aaa9c68d6997cab789daba9a8da8dc8bcdd7aeba9ed8badb9788a96bb9a6568aa8989949a993
ROC:	 BPix_BmI_SEC2_LYR3_LDR4F_MOD4_ROC1
col00:   7d4994977b966878679dbe498cd7c84cc7ecabba5a9c7bab8c887867b88a8679ca89ba63b9588635
col01:   5879a797ba87a9daa9cd9a7b78bcfa9869bc98d99c99b7879a8a78ba9c9bbbb886749a755787a767
col02:   71797839586667ab7bba9877b6daa9a6cadd9b8989888aab66da719ba7c68d76d957e7667678bb94
col03:   86aac7a96998bdbcdaddebacab8bab9b9ab9adbc9cbd9999f9c4674b6a9ca9ced73c784f7f9c4389
col04:   93ab8369a5b8a659b9ead9c8c7acd8dbaa7b69aebbfa7c7d7a9fb7d766777a7b889ac68674697465
col05:   69938889636a68988a4bac8b9868a88c8ad8ab7c9aba8cc97ba49a66d989eec734c88577b6945995
col06:   9595847a8eb9497786b996b99cd8cabd8786fedfb8666ff799aeab9e5aa9b486ad888abc875b3787
col07:   955a989d9a6a9977d7aab7996888da78fa8a9996bbdb88dac9bb7b988d897c97ac67768a8c696a93
col08:   8588a9a68d64777aad68899a8894d9bb54ba9edb6a6ca89947b9eb39da5558a6839887c7a9b98649
col09:   577968947ac7d8b98b7a878ada6a8bc96cb9abbbc987cbbaabb9b66b7a9da75a6998987b8ac69356
col10:   49a8dab766e69ab6b2b8dca9aa99bf9ab7a987dbb9ed9a98ae8e8897d9bbb99ccf6a9987a7957a89
col11:   56e56cc695a74acba4a89e748bf96aa8b7caba88ca7a679deb8776598a6b797cba1eba4a8b4875f7
col12:   aa28bb9ba7d9755637dd9e8d8b69a7897e57a7a8db7878dc6ab7e9a97b5ab98a57a6a9a652b98673
col13:   33577397533c688a8babbd8bbabb86aa997c8de8cfaebbb87eba8aa5ea8ab69c47759a6aab746bd6
col14:   9487678b9b86756978cb87884195cab6c7cde66ad8acab7a7ac7ca7999c9bb7386482559a6777513
col15:   a44b745bd8799b558ba966c9aacbc88a99cd8ac4a9bbfc99b6cc9986998a5c58d788875646aa896a
col16:   8b19a9a95998eb766aaab765abac9e8cab6caa9d6bf78d8aa8fa9dba7879787aa88c8872564977c9
col17:   877c66c9888b85a697c895fd558888ba12b8b8aa94fa69899d8a8ab6d3c85af77d9894ba656a37a4
col18:   a9b9787e76589669ab9858b8b7cab45d8a976d7799cda868bb8a9769bb78c6e9b5a4bb67aa74499c
col19:   558586b5879c7cc97989a8c6f8d5abb8a697b59ac599d9ad56ad9bc97897d9ad7ab6aa95582ca9b8
col20:   589859cb459a948c9beb4976a98999a8bb66bbc7bc8a99cb74b9788a8d568bbaa87b2a794a77a756
col21:   8a87468a6b658cb6687869887989776caba68a97d9ca4379798685867a6aaa9889729bd7b696a694
col22:   449865557a65998c79bbc7885aca87bb9c4ab6a97a99bc4d977658777bd898bcb387c77b77199853
col23:   7a878835858378284c8875797bcd8a66adaba7a7559789c9b66b7bac85ac9a738964ab75c77a9a59
col24:   aa9629578b2c8948688a89b97b5a79a68aaa9b5a5699b368a8bad66c99a8c95b471a6638a7765174
col25:   b997b5754a896886c7b967a9d5b376697ac9897e57ac58c7815bb9f6c89bdb6769986a98d8b949d4
col26:   37578aa9895dbbc9cb8aad9c9aec77dc9ee9c79abde9cac75ea7ecba97d6a9a9fbdb7d75999d7778
col27:   8494777b786b999ab8aa689c9be8a7eca9ee9c7edbc779ebabaa7997b997acb7ab6c8d77a96f99a8
col28:   a77b1cab48a788a98ac8daaeb7d9caab79adcc79dd9dbbdac9ad85adecc97a87c488dab97f68a7b6
col29:   674198b2595584598a9c8eac6bb9989b9bab8bc8b9aab6dbc9c8dbddc8a6b9c786edda7ab7ac9b84
col30:   98867aaa98885cab99cbaae7fbaa789bbe7bb8ccfb79aec7a7cacfcfdbaceacb98ae7a8daaa7799d
col31:   a947795b966bd7cbbccad99ed97dbbc9fc9aceab8db8c7b8999ccdbacbaaa99bbcfaaac76a566d7a
col32:   abd55b86cba59b8988c886b8efb7789a9e6d8acc99cb78eed9eaddbf99aefa5ab6d9a9e7969b4a7d
col33:   6886694ba96abad7cbc99aadbcfcf8aac99caa5cbaddcdcec5ecf9cf9b79f6c79eaeb7a9ccc8c377
col34:   6979b9a9632eb779a8bc97d98879cfdc7eb96dca9ad96efbebbecdad6ba796a7ac959aeb75bbab98
col35:   d65a9d79586c69c69a557e6e8c9acafad9e8f7bfabacbbea5a86cca8bbaccd9ebcc9fbcdb7d7acc7
col36:   f995898588c4fda69dddbfa9ba8ba4adb78de9eeaa99f5aceecebb8fbcbd64cc7da9d79abd8b877b
col37:   886c8ac7acbb997a3dadbbb6b89adcacffdf8fcaee69ddbc9d9c9d89ae4aad9dbaae89eaeb9992a1
col38:   497adaaa8b99af9b676cdceaba8aed6fceaddbaabc75a99c98598aaa8abbcc897dbad7d6db99a995
col39:   898aa8a86b299c47b7c8bb7f9a6cdb768fc99bcaed8df7bbbef9fabff98b6dcacbbcdc8b5b58e5a2
col40:   664c6a789c898c5b969d3e9e89abb8cca9abcc8aadacb8aaefdafd66bd6cbe68babc97bfdaa96bc9
col41:   aae9988a567ac8cd7989a58ae7b9ce7cbcde96accaa9b8ecacac8c8bcdc9ebd9baaaadf97ac89bdb
col42:   87bb797cbc965f987addc76bc8ded5cfa97e7cbbeaeeccf9ccbacaed8b9cadbdb5cbe8aa8bda7868
col43:   5587d8ac7a86baa9bc8bcbd9fad8bc6feec9fbbf87dabfabdeafab9cc968ddc9da78ba967a9caac3
col44:   4868e64aa7c7d9aa779dccccf96caed79ba8b88cabe7cadb7cdd7babdbab9e77ac99939aa7a689c5
col45:   496766fa999a767ab6aac5a88fffda98e96cab8dabbbbbe9d8cc6aabacb84a89ba7aaa6bfbbed857
col46:   bb95b49b79ba9749d7be8b9afe9fbcbfa8cc78cad9b369bc8a7e9cdbd9e8c99a8a75d88aab99b465
col47:   996b86875d5a59ba9bcceecaddbbbcffcbf9bccdb9ccb7d7fab8fccbcceb9fac8b9b7cea9b789778
col48:   7846b9c55b9a8d5e7bdb9a4c78ba87a9dcac9b68aaad96867eebcd499b6fcca8f6ddf999b8c88855
col49:   2985882966aa7868888b9acb67e997ccfb86696e97c87c69fead87bbcbfdb888beb7c6bdc966da98
col50:   8144e946879ab79abcbcc9b9defcdccbca999dfcccbccc9bbf9ac8a9cabfcb6b8dd7bee45a9a6897
col51:   899577666743a36395a7a79c9c8ab997e49f45bacfa78cb55de277965ab8976b6a8daa9c6a678342
ROC:	 BPix_BmI_SEC2_LYR3_LDR4F_MOD4_ROC2
col00:   35823368973a67765469b44665556659768c8a678558c57a578787696494a588416a78414b796546
col01:   747895aa4b9c997846577a8954cb869789aa7c76a7ca9a568678c7749a758976467989a5a6178987
col02:   664a87868a66a677a8a96ac99ab6797a2778c7bca499888966699c77c3a6d98a7686536675268887
col03:   89337b99a49865a979778793788b856a966c876ca758ab65749ba8a5ba868762748557b78746b868
col04:   843686885a5967574b57ba7aaabb9ca5c76889688667c9a88a897a9a9789b986b565d4956779c659
col05:   86a578a87466997b99aa5769579c665f77baab9da7777ab79885699ce997966587574a629356b46a
col06:   35559aa85a5846bab9a455999859967abac967ba9a84ac87a99caba83798b99769655775547a7b78
col07:   779956678bac7857c6ad68bd768ba8978b7a878cdcd7caa99797587963b57b886b5378497a898c65
col08:   168894a9e7766a89a6b8b87688996ab7cab4847ca6758a7b89c776a8ad8b5c6867b9aa66857ad594
col09:   969677864cb7b96c78acad56b9c6d796a7799b977a9895c86a693a3681a33c78879958a61b475c71
col10:   776687aa7639a576c8895965889ab98b988aa8b8e978abcb8a887b79948a77a58587ba56cca757a4
col11:   68784a49a6b84998b888cd66659abb88dcb9b97695b78a87b999b6797b9a477569bb965877986859
col12:   575aa49ab7ba864b68aaa5696a97b8c7c7bc7a9b9dc9876d59aad678885a691659586648898a87c8
col13:   786677b7797865a97898875ba978aaca78698abb9a3999bb9aa94ae6aa79aaa6786468a7a4798877
col14:   88366888958797c5975acac6769c9e8b77bab9a8ab9ab6a97bcbbbbadb9acb7ba7e6a5a6a5b49e3b
col15:   8696c487a28645b69894aba6967bb998a98b84799899a9bf868789eb8b957ba88588b96b4979a6c6
col16:   455855768578446886689a76b6ae99c97abdb69dc9bb879899888a77b7b95ba3a8a9957b68496a57
col17:   46785668999a9a68c8895876bab778c986749b78a6a996a97a69979978b58965657879a888939478
col18:   923a389897c764559774ba9d64ab4cbc9bbb92ab885898758c38557b8c4ba888967a677b7696aaa7
col19:   9669b77a9aa95b7c549989a8988979b9999b99baa8c7a59abcb96c5d9aa685a69bab89987767aa76
col20:   726887a439a756caa7a9b8ca8bcaa8e9baa899c9d7c798aaca99b49b88a7b4b98bc89ab9c75777a9
col21:   9697b5859698a5467855796989a69a7b5ca96978a8769baa9985a88a8b8889c6879a88886b849377
col22:   89b98467b556a855a8a4898d9aac299ab999aaae79cbdb8bab988ba7a79cc88988a8558998859958
col23:   6c9957c77bb86685b88c59b689b898a9aa9a86a5d8975599b898a5a9a84f5ab7b88b9858c67bb78a
col24:   676987899a784697de9c887a8bbaaa8aaba89baca97a6adbab896b88ab877479998b7a7728dca9ba
col25:   8798899977b9b98ad5abbb9eb88be6a9699aac89a3aba9a77ca94bba9acba659978a58766a959784
col26:   98aa889b7f9aeac6987e9697aaab9cabb99acaba9ca7bdaab9aa9cc97c8abde8799ad88a8cbecdb6
col27:   3679aba5bbc6779a89857ab8ad78cbace8f9b7a9a887bb9ef9b697c8a8a9ec5a88e5a1eb46969988
col28:   a8499d9cb59bba9989b7679dbbc9bbb9a9bfa898baa9dbcc9cbb9b99aaa69dcc9b6cadbbd77cad87
col29:   878cae7dc8b96869dbd9da989a9cb7ac9bf76adc6bcbfab7578be9b9a9eca87bcb7afa79cd9adea9
col30:   d6a8985e88acb8b9dbb888d95bdaaaadcdcb78a6baacfaba98aceb5f9b8adc9abb7acba9ad97cada
col31:   5b7dacb8abc789c98899eb9da8aade68caeebd9cdbbbe9dadcc7f9abd8aabd6d79cec7bdadbbab95
col32:   89b7b9b8d99a6b9cccabdcbbcacb97dbbcfdaddcadddbddfbaadc9c98cb7a7a9cadd9b9aac6c8bb8
col33:   a9a97d7cabaacb79aadaacdbc9b9b9dca89caeababbedb79be8deedddcaf9aaceb8c98aca768aa9c
col34:   b98aca878ccaa7aafabaecd99a9ddb8afbca8ab9ab95bd99bdad8badbbdeccaa77a8bac9ca99b8a9
col35:   a9e7a6fbb98aaaa9a79cbbc7b97f5cbaddfa8bcc6bd7cb7dbecac95c7aed897a8dcb9caaa87c8a9d
col36:   c8cb869bb96b9bcca9ae89a6addbcaa8accae77cb9bea9e7ac9ede69c979a9db6d8b8ccab98dbcf9
col37:   a8996ccad9ad99aabd9daa8ecdfcccdce9ccacbfdccf9c699aad7cbebcdcaddac9caabaaeb8c7bda
col38:   7cbcd7c9b8ed9f9cedcbac689cc6acdab7ebbfaeb9cc9b8cedfadbeeaccc8facaddca795edf7bebf
col39:   bb8acaa8f7aaab978f8cb7cbbbc9daadda7ec7c8addbaddbbacbb98fb9bbdaaaaadccdaccb9c9db8
col40:   89c59da786e7bcb8acccc8cbbbeab7bbcccabdadeb9ebadbcccc8bbcd99fcceddaee77bbb7da8789
col41:   a9cbca69ae9ba98dbae97bed9dcddfa9ecad99cdbcbcad799cccd9ef6da8bbebcbbd9b89cfbacb9b
col42:   87698dc89bea88a9adacfaf99cde86d8cb8da7bdfe9efcbcacbbdc9daad88e9ccd9faa8b89cbd7d9
col43:   9a98c688a8878d9b7bbb9bdcdbce9c89eeccfaacbfffdbcac8ceceba8bbb6dbbcaabc99b8899b79a
col44:   b66aaa99bccc89bb9ebdd89eeefcbcfcadb9daabf98aabfb9bdcdcec6bcabac9ca9ca7bcc89cdacc
col45:   8849b6b9b9bdcba9bbefaacc98ced7cdcdac8ccf9aceedbc9acdbeac8ceb9cbacc8abdc7e8babdca
col46:   9a699a9c7ab4d6b9aa9aa6dc89cdcddf8f6fbbcb7bced9bce9cdeda5cdba97d7cdcc7ceb77b9ba98
col47:   77c969ace5a8dcc87dadebaacbd7bdb9bcfc9ecbaabd9efacdeceead8acbe8fad8aa6eecbc86bf68
col48:   6a6da8ccaaccdb9cccbbf7dba9ce9b9faac9cc9ddabaeb9cbaabacdacba9f99bc8dadbc9c8acadd9
col49:   a7d89dd8ea8a9bd7d6bda6dc9bccde9cc7bbbcfbbbaccccadadcfddbddddabccccdacbbada9baddd
col50:   b9b8c9985af999cbb7ab9d9bcdd9cabcccdddfcccfbccdbdec79dafdbacfdcbcc8acbafa8febeb99
col51:   889995a79399a69ba7794a7cc8a8d8a9acbba8cc69bccb9fa8ab8a988cdaac5896d7da8a99bbaa99
ROC:	 BPix_BmI_SEC2_LYR3_LDR4F_MOD4_ROC3
col00:   7295752a4546554783469873779965585489996864b8a77296987b83a987a5885b36537538284712
col01:   747557764855a425a9667a38a776477cac898b9bb468a697ca6cba9a9d878b68989778579454a767
col02:   672568426668a87a879837486c87785856836b7647a5774a5a7967c8a89bc8997766564653464135
col03:   455241648658945987a455a77968c4656a946899487baaa785677a89dd3598b97855765686565364
col04:   778598555b51865664a86a697a7b5ca968898a7748a899887dac777579778579786ca68716644457
col05:   633577c98853b6498868539c87b2878a65a7a796966aa95b6899b9777a6688988689746878354546
col06:   2284756a9746888955769aa4ab597ca95377b6696a9759b3b987a7386a36b6969a59b68555955454
col07:   7654466788554a898aa94898586a876ab799ad8e85979eb77c89ba99a78a7a9a863165746565363a
col08:   3373787a663a635b579a6679b78a796cb84a796899698a7854d984998a7685456879599485835754
col09:   79788376651c767569a5bb87968a6a94877995979ab7a6a7c6698768b9787a9865569775687658a3
col10:   887151289468148669688a7a79a78b49a9858a989576a8584aa8ba695887759a6784769694145c68
col11:   466b5546a57ba673696779c798959969996898a979d7a91b9888aa98899687665368776675748286
col12:   555536588967548767aa888999786966a8a88979a2d4c7866797a988b86877978798877874288647
col13:   957a852328776899356868555989aa37a5caab7994788a99a4978c9acc77578ab995683776885468
col14:   73466345758835468278ba86b89b97987e9ab7ba9778c85a87697a7b755999397968564955569416
col15:   96679768465986778988ba98a7c987aaa7997877a7989688b7b98997776778a67767833887747287
col16:   66368765b749765b6957548489555a95996788b9a8a69688a7b798998a787a689958989456248774
col17:   47794883b666585866a73c6868996868797869b7789c7557b77767b669866767863d284757649476
col18:   267851563792238956793865878778b978b96987a9587867c5a6769778767b96a6366177a83b7443
col19:   737777787653783877248a87aa99b8668c9a86b7a98957873baa3998b57a69457aa496448a268358
col20:   795696548867995878979958988899aab769b9bd8aa898817a788865a955aa5957a6d8586228a866
col21:   3495976836895c667a59777778ca977a539a8c59898878789a48c6979969c7869898556865b615b3
col22:   9b586354674b7363668a9969535956948d876966a585869968ba675a7798bb954958885796755464
col23:   66647694a6938a34a95c88d956a6a5889958778489ac88a774797b6a7767576739471478b5663282
col24:   71168526854249747377348a4865736886b796778b8a66684a8a77673559a98657568826a6416753
col25:   6886783657898b778ab668d8a99988766da78d48adaeba8a5599aa79a9887a8a6b6568555874794b
col26:   a7b86a9877a884ba989778c87bc98866a998a7baaa684d9bc77a9587ac7caa78ab5858b596459784
col27:   6967396774888928988887a9a8aa98c8597788894b9ba79aac7bab9879aba9c8755967656a649858
col28:   1846669ba68bb759a77a6c9cbab8ac9aa8bc8dbabc59a9acd9b89a9b97bbc67dc8999aa9896a6584
col29:   5588897d388989b7ba9cacaa77779888a8879b8958ba699bbbd9c9bd9977a85a47a59b785669867a
col30:   4626786467968a7659661a887aba97caa9a79aaeaa98eaac8bea8ad8aaab184ab7b8a788969592ab
col31:   998a5c877499a97d989b879abd97b6ccd9bbffaa9a97ababab6aaa9cb9bce9bb699777995477b794
col32:   6a597879a4aaa94c9ca85b8c9d99d98ac77aaba79caca9a7c6bb8a5ba898b7ccba9779977a658726
col33:   5587799aaba9ac9b59c9dab8dbaa98bb987b7b78a88a899cc9aacabca98ba97979a8b77477167767
col34:   7684589a97ae889997b9bb7da99bab66b7b8d6acbf9ac9ab7aa5b689da9c8d8aa89a99c38b67768a
col35:   619699799779849b9a89caa9ad999b9d8bccc88c9d8a89aacccb8aa8a7888c8ab8aa79869a69aa95
col36:   796a977799888b8767a98bcc8ca9667dbcbaa85986769abeb7a6d485b77b9d6da79b989da4876877
col37:   c688bbdb88b9a69a88ba9bdd8baca99ccbdb9dadcd9a7bafba898df8ae999abc6a9abb7a897b7495
col38:   5977b698a9b8acb8b79e9daadc7a78aa999dc9abb8bbcabc89bab9acaa95b969ac88886b6aab8a99
col39:   7776988bb886b8965a58bc9c9bb9a9b99cb8c9b8ccb8bb8aa7979a7a898ba9876c87ba7a667789a9
col40:   7b8bc6acb35b96c9a7aab8959a879abab79a8b987d8d8dc9d979aaaea9b98a6a5a958aa697ab89b8
col41:   a9777c8799aa5e76878cbcb9ab9e8a9c9dbccab8ebbcae9cdaa78bcca89aac97a8a99886a86a2686
col42:   8b954d9aa988a668ab6ac6a8a9b7ae6caaebb9ba9abbc9abbcc988bb6ba99a996bb8859b98797679
col43:   a4b88b8d7b757bbda8b9abca98badebbca88ba9aabdcc8bc9aca89ee78ab9a89b99ba89cb8a59b75
col44:   7938588893879c9c975b97bd9cb698d9ccab797a8c7fbe9ea6886d7ba9687ec7886d96b9d9878b78
col45:   87b847b7babac7678bab7e7a9a88baaca8a8bc999c8ab8a8cd8bbb9b7ab6a989ba9b7b6775cb9538
col46:   98797767b9b9ab877cac9cbeab99ca8dbb6c978ac99cbaa8babcb8b99aab9a6b8b8b776b8979a785
col47:   6899a777bb89a9cb8f8a8c6d9cbbe98bba89bcbcaeaacb999bdba9abb888ae95b8b99aba998a86b8
col48:   668aba776677c5787dbab7ab9b89b9c8b98a79bbccb8bc9a6a9c9c87898b9bab69c969c898b8a318
col49:   8779a788abaaa9a89cabbaccaebaa8cb99c88addbe79a9a8bb7b7d87a898ba97aa68abacaaa86879
col50:   5778abc998998c7b8e697bba9969cc8accbce9b9d9b89caaba6bc8ae9ac7c8f9a9ca77a69757d978
col51:   687756759a886a6949cda9895abcb7ba666aa96d9a688b68a89dab84a578a4998c678ac668665666
ROC:	 BPix_BmI_SEC2_LYR3_LDR4F_MOD4_ROC4
col00:   4536395334685457725a37555536852859a7671676a65827b45895c749a857177735785815564242
col01:   b7247787866785ac8558999cac7676869646968897a8b6886b57d9b97579689599798564699a6355
col02:   5a463634847528a96547a62a7ab788956987a8ab7a9898ba7839b9687b77c59464aa86718686a534
col03:   635686784629a64a856b69665476779a7648895868aa7975699549956967b67e97435b697a154c46
col04:   46474788a4a179c6558c546ac789689988a5bb87cc9798a6b685cb57b68677a77858584157688763
col05:   9945796576149684a5878997677bc9a378674b897db687b6655995b8c97643448868469777975475
col06:   846615381b6986787a686788996b8baa89b9a99a54b699b597b8768ba6b6c84578597b6237338674
col07:   477a99955ba996589667b4c9396b758ac75b798d995c7aca8a788948d8a9364588399656583a8a85
col08:   3767677a16878969a679a7a7a88ab3979879976a887b997a96bc5789d66ca4966c977847474a8775
col09:   796687a8a6c74767aaa889977896a74ad7887bc75aabbe98d8a888897b9a85899779657847a27585
col10:   39777a8b9c498b8676a599788b88b688e8c9ccac9a9b9787999cc55d585db8967a89658b81676715
col11:   456617938a66a9877a9a7a9aa885ca478b7a599a76b8988b77a9ab77988625a8a946749247943457
col12:   8296d1946597b8847589477a47945a7a686b6d98a96389779d9c965877546a47876b7a8655752565
col13:   647977b98667aa563965a7598d287737679bba9e9a79969da97b548bbbb578976995418498367786
col14:   671a76a75bb8579cbb994db8b884b7894a89ba757caaaaa97938aaa98b588a89a757385799977874
col15:   26a9647578469976a6774a5797b879b7c7b97ca97b979ca87779896a9c887a378998261567886999
col16:   62668858b245aa56869877a798aba8da69aaa57aabc9c9b87b979a7b8b58785a7587987745958622
col17:   64893197794b6568ac6887868527957ba7b779acc49a8c6799a89784a8484a889696797b56683817
col18:   6247662737a87b7926877884993688d685aabcdbe69876a99997c7a9a96779664656879765a46632
col19:   37465aa67ba9a7c74cab4867885a9ca9b766aacaca799ca9b8b679788aa6ca6b8939a54773595a44
col20:   d48aaa876a76445885647788cb7456a9a79b6a987686db78867c8b79b8a55a799856597476599865
col21:   967ab4885c5b5969a88459579ab7c9a75d7b7968d8f89886975a887acca6896778aa5886b387ba14
col22:   779d768678a9b9a8799ca4645cb889aa8c999a988c79ba8a9b8d9abb77c867785c66777c89675545
col23:   8776a5665799b557578a9cbac667c96a6889cab8a6a2c3a87b5d821af9a85885a99866946488a39a
col24:   877ca888888859898799a898998b77f8a789c9bcd9bb877db9ca888687b76997aaa687587a759b77
col25:   89b77ac9ba6b77447759989aa899d8ab9a89c49b999bfa9b8d979a798c75b69e958988a558979775
col26:   97a6ac9dc9d98d7869b9eb6c8ccdaba9cb9babadcbdaab8aaa86aa9956b77d8d6ac8bb8ab786a599
col27:   a56a78976a6aa9997c8487b87a9b7ab9bcba9da9a999d8d899d6ac9697896a8b799db569767645b5
col28:   ba8399ebbc7cb8c9aa6c7abba93a99acddbbaaedba8ab48c6ac6a59a95898c7c795897ad67a66775
col29:   9a77b89c5a9a8aca99588be88d9dabccddcde9bcab9acc6a895cd9baba9baa7ba8abb7798f7a8873
col30:   aaaa889ea87a9bda6b875baa7cceec4ede7cdbaf8debb9bc599ad8abbb9ebc9d8acab8b6b6759c56
col31:   9badb9da7bad9cbacf7c89acbbba6c9e8b9fbbbdbbeacbcbac7a9dac8ac9b88a8ba6ea5b8b8a879b
col32:   6a8a7dbab69bcd9acab89fe9dc7a9caecdc9cea9afabdcfc7ecc8aac8fbcb98cbb67c87ac8b95889
col33:   78caa86797b89a9caf7a8ad7b95d9aad8cbcfc48cca8796a6c2ccabbea9b997c78849888d859b9ba
col34:   d7af99d8c8adbb79bceabc8e6bbbdaadeecaaccaeabafacfeed9ba8c9bbc7ab8ddc9797888d94968
col35:   8c97acbc99dd9bebbaa9ccdbacbdccdb6abdca9dbfa99bdeda9cbaaadc98dbb999c9aab7b9797b87
col36:   ab8ca9a78aaea9a8b79a98a9aa9bcca9cbfecbdcbdbafedff9cebc9aaaba9b9decac78fa9a76b978
col37:   fbe88bab79eb8caccaebbeac9dd7abbdaccfcafcc9dadbb9be97dd5addd9aeb99ac887de8a7a67ba
col38:   bb7d9dbecbdc9b6cbcd9dbcdaecbcddccdebdfecbdbeabac6d9bd9cddcd7bb9daa999bbd2eb88849
col39:   8a7d59f79c9beadce8aefacdcbd79adacca9dcddaabaddcbddabbedb99ba9baaafc9baa8b77bb779
col40:   9d8c8bbcbcb79ba6a9cda8c8cb99b9ccaecddeeacdce8fedadc8fc9be98b9c89cbb6eacbbc69bbd3
col41:   8d9ce7baccacf88abccccc7affcaaccdcdaedee8c9cfddbdababdfb9dacc99ccdd9acf9e7bcdca49
col42:   acccebcacaaacdaaaabebeca88aa9abcda9abccddb69aa9ecbf8fea8d8aadd97b5ab8cccdad949b7
col43:   aacbceac7f99c96cbbcc9bed8acbcecfaedebdad9fb9aebbbbfcbc9afcecec6e9ccebcccfaccab86
col44:   ab8bd9bacabec8beadecb9aca7dde8fcdfdffedebfbbbaeaebfdcdfb9adccabfb7eefac6c68aae7a
col45:   b59bad9999abeadd9eccaccb5babd8aaaddecbbabdbb86ccaffcbc9bcf9bed9d9abb8d9ad8a58a77
col46:   9baaebcf79a9969cacccc9dceac9fcbcabbcca99b9c8cfe88ecb9e99cdbdb97bcaaecc689cb7a997
col47:   b7f8f999ccad99bccbcacfbcc8cacf9bbbebedfdeabbabe98bda7ecae9beccdaeb9c898d7a5d7ba8
col48:   ba9f7bbcfadabb989bd8ebacbaaebac9feb4cde8ad8abc9caaaddbbcaebcd7cbacbbbcdabaa995a9
col49:   99baca998addba9acddbeacdfbcce7ecdeac78dffbbc9bbaadab8aadbabadecaca9bddf9ca4bbcc8
col50:   99ac8bebb9cbc9cad9bcbebfa9cfbcdc9bdcfecddbddbecda9bfdabeadadcb7f7bdc8ba9d8ac8a6a
col51:   638678a9c8a89ac78997bb49ca87ea5a8b8bcbd8b9ba8bdc9a4b9b7abba88789a8aca498a7989925
ROC:	 BPix_BmI_SEC2_LYR3_LDR4F_MOD4_ROC5
col00:   84873866776375728797a8544aa867597ca7aae5789499b6a88b9785a89a9896a896653515673454
col01:   97986869bdaa3a8c89bcb8968a9679bce89db8dcdd86a888cf999b966abac748a8a8689778688856
col02:   6a489865966c658576a7a9aa89599b68d46b88aabbb85a9777b89c99aa94dbb764259877a5788a92
col03:   8e87aca845bab99688a1a77cbacb8c99bc77a8ea9b87a9aaa89a9a8b68a9b4ebe9a8369477724c77
col04:   8ba77995699b79a7bba7a86adad9999aa8d8aa6aab89b5c657bdb87daa568b7739797847b9656797
col05:   888abaa6cb89a68b884a88a7759b7b7ec98cac87e86889accc59667ca9467baa267b98a9a67a4762
col06:   886c548896c66d786d68a695b96957ae9aaac79dca7a8ab985d6bba79b99a4c998b684638963799c
col07:   586a479497b86ab7c699aa5c559899698acbebd67babfd999b9958da8bd97689878d936b25469753
col08:   96b87565c55a79a4a5678a76a99d98898a7aaaccda69bba968d888a778e7988b9d6a687677566b43
col09:   65b86987695aac8c699bb965abbbaaacb8eeea9cc9c8c989899daa869b86ab9bb66d5b59b8797885
col10:   23856b78796999996aa99d88b8fbaab7879bba8ba79bb88c8976865ac89a48768b76a967baa94a68
col11:   779596a8abb95b479999aa5bd87bcdacbc7caddb9877ea86aaab5998a4c7883698c75d5788294886
col12:   594a785a773889887a6677d96bee578d8bacb98faadab6886b5997aab89d8349ca5aaa8454ab4865
col13:   37846d7ba7a889d8f95999be99cbcd8bfd8bba89c9d9a9b4aaa99b9599cf7db99c56998a7c665697
col14:   67c6ac91449985a9ac74c7a85958a69ac8a788cad97877a6a88cc969abab88897888593a3cba4815
col15:   9b6a7568ac7d5b7998dac768ad799479cd67ccbbca9ba9bcc7b8877c9b76ba8675c9977767789874
col16:   5ab99296bd9477bd5c96ac9cdaab77bb9b9a88fc5896a87898a9ba79dab8baab9ca99aa768935877
col17:   86874898ae68d7b9395498ad3bbc98daa8cecc9a9b7668666b59a9779b9b9568b88986b876484146
col18:   8a49863a8b5c7965b67579dbbb878acbefea697aa7adec9bc88789c9da7d8a8569989ac8576436a1
col19:   b798598aa877996993cb8a97bdb9afa86fabb7ca789cc973b87879aa27a7caa9a7946789c6587852
col20:   457379ac879798ba979b68759bab69ad989b9a9aa7bbcaba77b8ab9b794e5799877889659b584425
col21:   d87b898647a9b3ab967899b8b89adbc797a8a595bd89ec94b99bb9aca7ab874996be893874a93b65
col22:   399ab996bc8b88a9786bb999ba9e8bbb89e7bdc6a979fc97b9946994a98b69699966688b66487576
col23:   8957964b69a6a887c99a679cca9586acacabdbaa9aa8698647b96b6b789696a69784796aaa447742
col24:   99c7399a9459caaba86aa8586ddab895f86daaa9c7dabcb9a9997bda6b6a4e9b4a96687d68866575
col25:   6aababb569a9b859a968ab8ca9bd7bb7b8df9b5e9bc9bb54aa96ac976798688888a989ae7d645789
col26:   b7c76ac797ab8b9f96da6a99db9cafaabbea9b7aecce8a8a8abbac59bfbda6bb999a6856bbb57771
col27:   6a595b996985b69ab9bac8cb7caccbdbc78fecbfbedccaabaa849aa8dd7b998bb99a85a97d6788bb
col28:   b73baa8f9799d9b799c9cbb88bbaacafb7bdbfbeabeabccbbef7ac9a7dbabfabebb7a98764ae8886
col29:   98a8b888999b878ac78dab99c97bccc7c99c9ab888cb9ea78c9bbdebcc99ca7bdb96acb799a79ba5
col30:   86a5578b97b85898b8bdeab99c7bacbbadb99bcdf99ebacac6996bebab8ecbb9f98c99ab94567777
col31:   be97a7a57ba8b7887c8ba79cd8dbcab9cfadcb759bcea9dae998bdcbeabdb899397b79b99da5ca6c
col32:   8c7799c786aaa68986baadbcc8dae9bcdbaafccdddad5997ccbdbbcfe8dd99a7d8a879a996becc84
col33:   3ce98b85657bb9a7cc8bfd8f8c9cdbddb99998c9ec99ad9ccbaebcbd68afcde668abca888358774a
col34:   9b8b9afbc7bad88998ecdabcdac89b9dabdeccfb9cc8dba98c4d96ccceca9b8e9798686e79cd3bc7
col35:   69779885ba5b9b4adacee8a8b8d9bcacdc898ec6ca9d98dcabeaf7bbcbaad88599aa68c7a76967a5
col36:   87a98bbb6b6d8bdc7d98acf9eb8589bccbfbdbabafab7898fd9fff8a4aefebcfaaad75cb57baab96
col37:   a8aa88b68b8b6a89b6ccaacadbfeebccb9cdefacacdcaa9dba9be9ebbeee6ce7ba999d9c6c838499
col38:   9aabb8bacbdb9bc9986fadaddadbcaceefcdeeeacbdd99ad7aa9bba7eaaffa98ac4eadc6c999ac99
col39:   9989a8bbdba6f7f9d8bcf799cedccaaebedda9afa8a9edeea7cccbacb99fcbbac96ab9488a9cab6a
col40:   4c7b868bb9c8b9acadc9b9f7feaabdfcddeeccddfc7cecbcdbd785dcaeedaac977abbb6b98a87886
col41:   4abab8b8888b8cb8b637bbcbcccadfdcce5debabbfcc88a988c8eebd9ca8ddbebb899ddb7c8769a1
col42:   dc88aaaaa9dbdbedaacb7c8cfddfacd89aeadecfc8d89cfce98eb9edb889bd8db9ab89aadba7788e
col43:   6ad935b99bbc9d96879dacbc9dbc8bce79db7fcbc99cfdfbb88b8ccefdb999d99c79bbb8bbb79138
col44:   9b768a9cdaa77c8adadf9babbcbcbcf7fa6dcb8f9a9b98bcbf9a99cfbcccc8fcacddcda78c897ad5
col45:   9bca699abc897b8d7aeccdbcac7dcdddbcc9f979da8f9ce98dace9afdcc8ca99fbe8959e99a88975
col46:   79caaaaaab9bf9c6ab8dcacb9dbe9796ffbabc98ecfcdb4ee9d9fabdbbcccea888ab8aac6ac8bc5a
col47:   b3decea5779f9a87b9dcabd8c7acabdbbcfceec6bcab9eab9c8f7cd9dacb8cabeb9bbfaba8c69859
col48:   6a68daaccccca79d8ca6e7c9cbcb9abbccbcdfacb7a9bed98badad78a9bcac9f8a669b928e99d79a
col49:   7b6b6aac9995a86899da3cb78f96babcac9bbfd879accd8aceea9dfcd96f8c96c888c8d8777b9887
col50:   9cb996ba8f8d8979b8bbd7bb9e6bbae9a7ea8ddbfeeccfc8dedbaea8b8dc878acacaa8a8569686e6
col51:   9178615599679d6786c79aa9899bb9a4849cb5ba7aa66aa8b9888b8a87a899865568575758577914
ROC:	 BPix_BmI_SEC2_LYR3_LDR4F_MOD4_ROC6
col00:   55585493266a968483497665999b7598b947c5547474c976952a847635161826a288343358574464
col01:   384392a599589669758aa864958a8a67a763b4995ab6c6745d566a58d985564b998457a5565b5584
col02:   5748177ab95679a97a69b7535867a84c98a6c878a8d4ba8599859b87669c951471964b8cb6474967
col03:   866565a73677297667abd7685a6a8676a775cea7aa7bc86bb8c75a775a5c766857374879957acb95
col04:   7725936769d8b66a76a59baaa4769897b975b7869857876867aa27838ba4b8599ac87a8875a77697
col05:   783371874673593928e697b7879b899781ab85769a48972996865755899696547165577488677136
col06:   3467997955a7c868a9a9ac868959d8a7576a3c49caadb9997b86747a8b775289ab69878856189957
col07:   4865a7b867475779b8d785bc7688a58bad78b695a8d78587599c8a3a78286794d75699768599a979
col08:   658275b3986ba5729a9b99994899a7aa986456b8aa67ba866668bf97a888ab9a75a9686537967898
col09:   8943763786d7aa96589b9c94c8ab7acb94a75ca6a78898a87597ab8787a8739a87b59a58357ab844
col10:   7764585894a788a698bbb9859cca69aa88b6989376894a997978a79ba9c7e9358ab995c8a75baa45
col11:   73667b58759479a958798c497b958aa77aa79a88a888b7996b8f769ada983ac56785877ba8a78586
col12:   3896b8885747885a3867687b6b88ba88786a4bb8a69c8a95879d79987788b59999b3847784c9d867
col13:   8557965a876697587b87a8696aadaaa966c78a88569688999667a97a9996a949a659b269a6a89986
col14:   588577d3787699879788ac8976acbab7f5bd4574a96887c97897d9b77b87739ca8886b97b859a696
col15:   552755479844b86848ac7c969a959b4485799cabb679a895a66997a89784cab6669963b35cbc9753
col16:   677a7b67697c999675b79a8aab88cb9b9b977cbc7a9adc8cc7a99aa8869bedcbc8697b97a7658997
col17:   91313667a6449aa745998a69946b45964597a6b964a76aa97855e9b5b9996879a85ca79a8889c583
col18:   789346a548b79776a7b8ca98777a8c9a6e4a89b5778599d987a899877aa884b9569bc7679b8967e9
col19:   477667737895b89aa975a989aa67a99ddd879a88b87b9b98b8c6b86caaad95888a57777aa7a97c96
col20:   5466767c9a2559a6bd9959879ac7bcba897a84b97dc6ecbb5aeaa9bb85e98b87c67464a68cb8c8a7
col21:   846989596a637578bd99b86bbc8b67aac87966a5b5bcabaa99ab5496a5a596a5576a967499a9aa69
col22:   666786676952b6c78ca3896d5897988baa3e99cb6bc7bab878bab9a7898a8b29a9b846aa578aa7a7
col23:   7536478a75774567486987a4baa5b8b7c98cf778aa988ab6989bb995da787478a945c6678ab6b695
col24:   2239a6d987a976b8699a9867b65b99978ab9a5bac7e8a88bbac79a887a99ba6ab594b6a8888b8997
col25:   15858769aa9aba77879a7b69ba79a9dd95999bc69a6b98d8a97b8ca56abbacb99c877aba7b66b6b7
col26:   98a887c78d98989a7c8cc3ccaad7cadbc8977a89ce9baacab8bad9a96b7bba899bc887b89899dbc5
col27:   3979b699aba9888aac5a6ab7ccc98a99a9c95cc97c8bab95ab9a98485e98aac88ab9886a978799bb
col28:   a5a788cc988c56a99e7b88ab777aacaaaab98bcccc5aa98bd969abb7daac698a8b8a6ada9ac79cbb
col29:   798d6568d9788878aaac797b8d9bca9abea9aaf8dbea9ecba79b77b9c9ba7b7bbdac5b6c6bba69da
col30:   7c76989aabc9a96b97aa6a9a999c4da9f789b9cceffab96cd8bb98e9c79dbac66c898a888a679cbc
col31:   98a6a96c9ef6babc79a6ebb8abb8fbcbfacc8acde8757c6ecca7ccac99c9a9cbdcabd8d7c8bebe8e
col32:   4aad3b8c9abcbba98a59998cd8aaa8c7caccacfcbb9cb9aafe6df89dcbcee9bbe8caa9ca96cabcab
col33:   8a9b88799ad7976ba8c985faaa78aabaaabcdd69b9abddaccb9aacdec67a9aebb99b8dcbd9cdab99
col34:   f8e4ada89dcabdcbfadac87ccf8988ebbeabba6cccdfc9a9db9adbb9a99cbbe9ac9adbdcbbbbbfba
col35:   44cadaab8b7b8b9a899aac5a9a8abbcfda9c6a999de8edad9cca68caabfcebdcebaccaadcafb9c79
col36:   b47c85b8bbb986b7aa69a99ab8a96b7bac8aa85dceafcaacecaf799cdaaccb7abd6abeae66c7bbeb
col37:   88a58aacab97cb8accad7ab9babafcebfedacdadea8cd9caabcaebabdbcbdca5b899bb8cbbaeac8d
col38:   49b9bbd9faededceadf99c98c5ed7a9eeccfdedaf9f98f69fc8cc5de9dbcbeebebeccebb8cfbfa6d
col39:   7947bb9896e7c7bba9c99e87babcbbdbafbecdbc99bcce8b9eba9b8aba999a999cbcbbeceeef9ba9
col40:   6bccec8899bcbc9c8dcedba6a8ab9bdbceddeaccabcb8caabbabc98b8abbebe9dbfedebbcddcddfa
col41:   a889ca9ac998cacbadbbc9998b9999abadbbcd7edda7c9d8dbbdc9aa7aabbaabc9acbad9ccaabad8
col42:   8bdb9c9876bcb7cbdbcb8ccec89acddecbecc9fefedbbfcaaac99d9bacdebdeafebabd8ecadabba8
col43:   9565ba8b89fb6bbbc7fdad8bfd9acacb8addaaad788eebad9fbf9bcad9c9dbf99deccfdbbdd9e9ac
col44:   e9899ea8bdc9ba9da8ad5cdc999dadcddbdec5cabcafdfdddabbacbcbdbadbc9dfbbbaadfbbbbfab
col45:   7987a7b9a78dc9bc998b9baa8ebaa98efecaeafabacecabfddbacdeaac8c9dbedabead9ad6bb9b9e
col46:   aab7db9acc28ee76bcacbbdbdbddd6bbcabcd8cebeaacb9efbb8fa9caaa7d9edbbced9ecded9add9
col47:   a689a9ba9b7ebb9cb5d9f5ac67babcf6cdddc7ebc8e7bdbdbdbbcbec9ad9ceaabdcd8c9bdc9aacd9
col48:   a677d759f9a99e78a9cba97acadafcebc7bbbcdacbead8bbbbc9bcbc9bbec99ddedabdeeeb8fb9e8
col49:   c9bbac9caca9c8a6adb7899ab79dabdcfbbdccddfbcfbdeeddaafabcbbdecaeccbdeb9cb8debfbe7
col50:   87dc19ca8a9bcdc99bb9bcc7ba9abcfbcaebbbf8cefbdfe9cccb8cedfbfa99ca7bebfbd9edffabda
col51:   7376664aa95a97697a984acc7ba7c6ca679797cadcbbbb8ca88bcb9b59a79accf59a699aa99a88d8
ROC:	 BPix_BmI_SEC2_LYR3_LDR4F_MOD4_ROC7
col00:   75883566a8575789896577985879789b7ff887d89887b58cc8678ba598ab8ab78b6969cd6ca59c88
col01:   679565bb96849cab87bacb98a9bbd59b9dcc9abb998dbb9aa8bbaa9b99a94a79fdd9995a9e87db51
col02:   95849b5875757a8bb4c8d9aa9cd9bcbba7bc88c7ba8cbbfaac989bb9998b87abcce7deb9b7cd8a58
col03:   74696b977689665a76e9979a698a778da9d8bc79fdcc8ceabdcbbdce7ad8abcbcb59d9b99cfac683
col04:   76928794ccd7b9ba5589c8db5cfa7b87aebbcc8cda8aadbdcaaabca9cacb9978a99cb9984989aaad
col05:   489644858a7ca999678584e578aacbf79a7e9aaa99be6aebcb7cb9ab86b5bad6cabab98a7abdc89b
col06:   577668a5c8a78cbb8a7a9a67b687c885fca98d7cf9ba9da799998bc99aab687bc9d9b98569bdcb78
col07:   56395567b799aada68939b798ea9a9ecb8c7a8c7abcf8fbdab88b79abab6dabab8c8b8aa8bcadbc4
col08:   638589679c416969946b676893888837a87aa8d7887cbabdab8bdbbb76c88c99b87b8aba6d485aba
col09:   6663587b894369abc95bd79588599a85aad8bdb9dc8a9c9eb7a79b7c758cd7bb9bb9d9d9d6b9f9ab
col10:   7976897ca8387397885979dac46976a98d9999cce9b9b9abcbcabb9cb8a7a96b49cbbfa8cccd99b9
col11:   9a5667a9878967858bb96639a7c9bb88796ca7a8badb7deb6b7b796bb6a2f9abbe68a8ca7cbb68a9
col12:   58897aba588999ab6ea7b976a7aba9989cccadac9bfa85887acecc7bbfcaeaa5479b779ea9798874
col13:   14a5868abaae76bb87894996669a9acc8c9bba7ba8948798c669f5e89aadda88bbbcce8978d9cbf9
col14:   67aa898bbb7a1698b9dbb8a8ccc586d99a7caeb8c694bba7db9da67a7c7ba686ca9cd797ab9dab86
col15:   b51756aa458b59c8895aab8a94ba79bc9d99b878a9989c7959975bbd9a8abd5bba699599bc876c9c
col16:   b864799b97c8b7a9bab789ba9afaab97be99ada88abcb98eda8bb8a8bb979a8adaccded9b88acbea
col17:   a56282ab9a68764c8a98b655bd38dabefb76edb8c66a87bb9daaa997968c888abaa9887c6dac777b
col18:   629d77777889c99c94a888b898acc7888add6879bb9bcc8daace98ac68d9bcbaea7cb97999a89a99
col19:   3a48a632a388b6aa39897737e87a9abbf5abbdcaaa5bbccab8b78c7a9bba98c5b77a4899c8a6c8b8
col20:   6775853ba667bb44c898a6557a96f7aac5a6cccb9ab98dc9adba96c8964ca9a66978a99bd6a92ba9
col21:   35947798b9c5274a96c8a46cbc86c9897bbcddaa599a8b9ee989a8889ba278db7b9acbcbeadd9a77
col22:   8a6ba587858a8b867c698986b9bb9b899abc9cabb99c1a76ad4c6678f9bc96a9ca9aca7ae5a9a46a
col23:   555a7a587865771489aa7763ab659bdbfa959f8a786a5fb594b897dc976aea9578689cab77a7c88a
col24:   368165459cad9899cb7b798bbb6999cb9769e98c858ccb9ed78a8daae66aabaae79bb87aaaa8bac7
col25:   63c7a985ab766a8767b8a6da9cd7a787a8999eac9a96b3ebd6ba79b8c77b73cd93e9e87869b9d885
col26:   a9ca8bdef7579788aa5c99e8b5bdf8bacbcd9badb89bbcb96bcdbbe69ccb7b8ecdb8ca59bdbbd9aa
col27:   894abbb99c8bab766bb878b8d8a97ba89ca9acaebaacac8fb9c7d97c69796aa98acadacdd89896ca
col28:   36998c6b568bb9ba7a5b87b9cabcbb9a7bbebaeead6efe4da9bbc9f9b5abbd8dad9cbbeacb9b8dd9
col29:   6a68983cc8ab7895a695497cc86c8eb9bcccadcb9fbcbac8ddadcad8f8ac7c67a99bbcaaca989b9c
col30:   77d988b5c79668899ef8a58ba1b78d9c69bebe99cba9d6dbca7ecedabb88bffaabca9ccbb9cb9ed9
col31:   3abbb4aabb9bab87d9daaa8bbed7b8cebae8aec8dadff8aeffdaec9ccc9cb888b9f679cdd7bbb999
col32:   7abc869bb647dab8b98b4aba98eccdbfecbb9b8c9cabbf8bcbb9c95cbba99ccdade9aaace8dab986
col33:   8aa9bb96c7aa9a9ab8f7c99daeb9daeeeae99bf6bdc9f8f87f8a8efca9afcddccd7c7c6b76dd9975
col34:   89a6b5ea58a79dbebb7bd38db5baaeeadcdccbfdbad9f7dbbbaee9bc9deb9aeddcc9959dfbc8bc4b
col35:   ad838aaba9ee9bdc99aaa7eacdcca8a8cffbededdbbbbfd8b9b9a97c7958bbe98f5aeb876d8b9f96
col36:   6857ad77cc67bb98a99edc8aeabeafcdaadeaecbaa8afefacf9bfdbfeebfbaafbd66c9ababbcb6ac
col37:   579a99bbae99cbbbbac9aabeddaaeadeecaba9cd9deee9ceee9e9bdeaa8a9bbabadceaba8c9b999f
col38:   9a97a6adf9adb895cbadebbcabdd9faade5dbbdcdf9ffccb8b9acebbbfacbcb6fbdabcb9cafe8ccb
col39:   9cb4d8ab76cdc989a4d7a8deadc7fdbdabcaeace9feb9beadccfeaddddad9ccba9ab8aec7888a9b6
col40:   9dc95b95898aca99ba7b8a9dbcdacb99dababeaddfad78c9ce9bd89bebccbcbbecb88cdaba9c7d99
col41:   a79acba8b765bbc7bbb8b9bbeb9baae5c8b57aa9cdf9ec96d89d9abcd6ceab6ab9de6ede789ccc68
col42:   c8c7979bba95c7b7ccca9cddacbdbcebf9eacd8ebccfdd7cbbc8cec9898babbaad9c7bbab9fcacca
col43:   ba88abc7c8a4999bc9c7da9cdbcacde9d9df8a8d999dbccab8e8fbcdb8b8dcb9befbceac8aaacb9b
col44:   84ca86abd7c9b9c7a58bbffbec7ed8ce9caf9aca8fdbcec8b9a8fc6caba89babdbecb9cabed8887e
col45:   b45aaca8679baca79cbcdba8f86afdfd88edbae9d8cbbcbb9c9ea9aababde8dbf97bedbccd8afbc5
col46:   c78bd4b96bcacabb6c8ceb7df69aba97afcb9eee8bec9ebebdcbeedcd9cdbbe9deaadabb9bac8dad
col47:   858b668ffadbb988bbab8a98dedc7b7ab6bfadce7f59bcb5aec9e8fcbabbeb8a98eed6babada99fb
col48:   668c469799db99aaabdac7a7b978d9ddaccdeadcadba98ecbad8abbfadccbe9fd8aaca8edaddad9b
col49:   78c5a7ad7aa8bd9c69b9b77ba8ba9bac99bbadacd7cdc7aa9c9aac78f9da6adfea67bc8ccfdbffbd
col50:   9a9cecacabba8afb9bd7b9889bbfafdfebeda9a8bd9c999faa9ebbaacfe9bfcecf8a9ae9bcb7cd79
col51:   a5a798d85777589985756b7899b75b2bb789da6f7998b99d97c967c8b554987889a8acacb79694a4
ROC:	 BPix_BmI_SEC2_LYR3_LDR4F_MOD4_ROC8
col00:   1f4989779ab6c54a556a683979a8b9b9a5a8997bc8896ad76aea969caaa68dca969c698aaab6ceaa
col01:   ff47577698a1677b8b55ce786abe6b8638cbc9e8bb98887cc9ebaa7c97ac9a989aaaa99b555aa8aa
col02:   f27626a74a7898579669b779badcc86a86aa89bca56aac6aa99a9b97bbfc6e869a8d8c75e9898db5
col03:   5f5b85b6767c775b8ca89beab9999bab96899b84f78a9aa8b8d9cccd9a9a78cdc9cc7b679998b8a6
col04:   56887666669567585cc896ac999ad998dab98bbbcaaaabc9b98cd89af9988b8d5bb8e8c89aa98998
col05:   48a637898896a57b7987778ca7e9bcacaaace89b87b7688698c17d877998f96cb868998b85899aa5
col06:   8578659687779898bb77a89c8a79499996cdc99688b988aa7a88fe77cb8bbeacb5899a7ab56da9cd
col07:   868366858c798aa7a4ac9787a88aa6accaa7c96b6c997af7899aaaa888a9aab9a88dc7cbbbdaacb9
col08:   133976899a59a99747a6fb999aeb69aa987cc79da69c9dab7b89abbb985adaae65d87abb9cb84889
col09:   8959899778498e7a7ab8c87b8b8eb947ab8aa8c766ae7b7bab79b9cadbbadc7aa8687d49ac789a9a
col10:   978697a99b17b95876a89aa9eb4aca96aa978da8e866968ac999cb5be79dd8b7ddba88879ac67c78
col11:   532516a678595a775896a7da98a876c97a5e777587ea9a9dd8b7cac995c9985ab5689a9ba889aca9
col12:   57266496a976787858ac8cc99b28a7b7d89cb7dfbb87fac9d99989abe7e9a9b9977a7bb6e86688e8
col13:   999787878c4a9b527978ac8ca78b7bca8aaab799c9e7ca599cb9b979b98d8dcc688b8b9aa8b5a9d9
col14:   8876598b995a683c55a549b6bcbd8aa78779ac7b78bc96aa9977ccc9398699b787d9b9a588bcbae6
col15:   56a586984887b99a8aa38c7ba5aa9868c899b59ec57be6ae96a9acbfbdb7b6aba98b9698b8a7cec6
col16:   8529648b67746e76cc8c9bbb8b8b8996c9bb887b9965679a66ed55abd6ac9ba9898bbaa6d9b9aa6e
col17:   46447491978b8a77a86487c9ac78876776773ab775c38b39998b79a57a978abd789daaa685a49968
col18:   76937538a5878a98975766ac8adb74cfa7b895ac88acc9e9f9c99ecac93bfacbcc69b7ac6c89a8bc
col19:   56658a57a6995a98675a778b8899ac969da778bb9c889dabbcbbab86adbaa9aad782986b5795a97a
col20:   87827a5957887d79699869d96ab7b87a79a69a5996a89c5d9dbbb67a6dac51eb8c78995967678459
col21:   9369574848496b595686889a9679aac9cb9aab5989b879a78addacb5bbc9aaaa9988c86b9cabbb98
col22:   4a92c696b28853b7d7a438ac7a474bbbcada5a5b6b894a59cbabb8c7aaa494c9a5a63ba8c868a9c6
col23:   96457b565779985b96c5847e64aba988a99888b8f9c7479dabbec69ca96c6bc97b8a797bb9955c8e
col24:   3576b47557677753ca8b89dba9bbc4bb98da778baa799dba7986d9ea7b7e49a9b7c8776a569a7bb9
col25:   68977569b66675669a9879bb9daaacb7b78a9888dbb68a99ba2bab89b8dca8678986899b9dda5c9e
col26:   46a59a798b8bdddab97c5bbc8c8ab9acfb78aca9bdbab99bd88aa7ca98ad9e897dd8b7887c657b9a
col27:   6a86988da9bb46c89dbdca8abbb9bec9ceab88da9c7ab9ccbac9a8c9d8f998ca78aaec97c8b9ccc7
col28:   669a799da9d9c9a6aa9dba8b889a8d7bbf8fbded8a7ebcecddfefeb9fba67ac9895d8b789ba9fbb7
col29:   8478779875b8b5c879ca6a9d5c7faecad7b398fb786bbfb99acadab6dd8bbfa8ab5cc77cb9bdd7a9
col30:   9765886a35b8c9daa8a9bbd9598fafbb8aa98cf9c9c9efac9a8bb5eae8facfbdbacdcafcb8accaab
col31:   9562688bada7bbabbabcdb7cc8ead9dafba887ab9accfcaacdc8acafdcecbdee8cb89cadfabbdbed
col32:   9a7ba8bc69888ababdbc7ab8addfcfbcdcbd7adbb9adeecdfeb8fbbad9aba8bbe8daa9c97dfebbd7
col33:   47a67b27b7e9b97adaaa9ccebddabddcaddafc68ab8dea9be79aeac9dda8bc8da8b5ddcdfad6da6b
col34:   898882ec8bbecd995fabbacadcd6bd8988e9b89bb9c9dacbded87ffae997cad3b9bcbbfdbd9b9bdb
col35:   abb5a2bb5ab8cba8d8bacca9ded86afcb977baaeaabafab93e88d99c8dc7de897aad85c6ccab989a
col36:   aaa975889d8ebccc8bfd9ebadfbbc9deb6f7bcbbace8bdbb7a8b9abddbbc89aeeeb89bedea7b89a8
col37:   88596bebcbc8cbbc9fcbed8b9caadb7bdd79cd7fa9ebcbc9adecb8ebacdacaca898cad88f9bffefc
col38:   c6bd848bc9af9c6bfdbfacdebcb9dfbc899ccebcdcddabdbdeaeeffedb9ddbc9cd7ebcb9ada7afcc
col39:   6969bcaedf7ab9dabc87adfa8bc8cda9ccbabcebc989dac7c6bbdb8fc7afaef89b987b5cab9afab9
col40:   b7997d58baccebaabcc9d98caef9dfcbccbecef8de9a9b8fbcaae8e9acc788dfdbbd6bbb9aa7bde9
col41:   6998c9ba6bbaaaabdbdcbdbac9a7cacb89be9fa9dc8abdcabbb86aae8c8ced8f9fcbc9bba8acaacc
col42:   57987da7b79bbbd88bcdccdcddeca8ccb5fe78aebfbcadbbcbfffddda9a99dbdb9e7676889aac8b7
col43:   87a93aa9bcbbefc9dbbaeaacca9d8abaad9b8aba99a7bcfca9dbfcdaccfbfdfebeadbbbefddcfdf7
col44:   88a9f79bbb8ab9cccbcadcf99efbcb7be8bfefbcda78cde9ebececfbbddaabf7cacd9ceaaabedbdf
col45:   b557caabcaedaa9bfb9bf8baaedcfdcc8beaadce89dbbcdaa7a8b8bbb88acabbc7dd6fdd8dbfec8f
col46:   9a62b89da9ca8bbcbeb8ddabbacbfa8dbcabf8dda7facddaacaaee7dab9bb9dcefaa47dbc96db99a
col47:   d6bca9f8b8c98799fab9addcce7ebdab8abb7baae9c9faa7cfc9abe9aabfcc8dbebbaadca96787ab
col48:   5c96b98bb8baadb996999bdbdcfb9ccb87cbeb6cc9eaccba6aa9fddabbbbcfed7dbc6db999db7bca
col49:   b799cb8798d96c99acdadcf7cabcde9877c6cfbeaaabee9f7bdbdd98d999c989a999798cdafa789a
col50:   59cb7cecbbc49c9dd7dc79b9dee96e9bfcddba89bdfad7bed99eca8b88e8bccd8dcee88af86d8eab
col51:   967597998ac77a8a79b48f7aa86d6c6a598b69bc897caebbdc9fa967a6a664799aadb4f59a977be3
ROC:	 BPix_BmI_SEC2_LYR3_LDR4F_MOD4_ROC9
col00:   6538448c39bb572b48a776c2798bb9b888c68895c99c765978dcaa59755276a8768ca7aa6a654788
col01:   5799659558bad99c87a7c86aaa999a948a7bd89ae69d98877a6bb9c77b9c398c88a9d69bb9c58aa7
col02:   a95b9978b68976b8779a9c67d7aaaa888aa7e799c79dcb8c9ba8bac987bb67ba998ba6d4728a9998
col03:   7747667897799a7989cd7ab7aaab8a8bb9bbbcbad97aab77f399bc4a78baebbaebb8cb7d6bac6a88
col04:   87965a5997b69a5cb9997e8d999c5899a7a9b99889acaa9ac8bd98bccc4ccadcda8785f7bc97bb88
col05:   496924c3879787b879657dcbc98dfb77abc398997bbdcccdac4aa889a9b9899bb9aadaab779ca9ab
col06:   653855834ab6c787a97ad59cc98e9bc76b9aaae7caab787b964abbb97b94a78ac57cb877779b67b5
col07:   99888478897c7a7bbcbc7ac9bbb7aabb9bb7ab7bc6c8cdba9daab7aa7a998d98ca95fab9abb98cab
col08:   8697c49777b5777b68b9c4bb7744c79bc7cba59d99a999bb8abdeaa6adb79c9a8daaad7c99a98859
col09:   4654856753b99879b9655b89c99e7b7aaa99a65bba87a6a769ca5996ab9b297699a9eba9895795ba
col10:   687139a6a9589ec7bca89ac6699abbaca9b8a7ebca8aa9f997eed827b78b8a8acba6b5bab896bab8
col11:   a986aa7795567a668a3ba99ab2cbda69da7aba789798e99c6b9988b468879774cbf7b9abab99a8c7
col12:   7747b869595a25aac4b6b7689dab79a59cac97dd8ba8b89ac79c8bacb877689999a78b99c8c95cb9
col13:   844565878bc8569d479aaae9f874b8a38a8cc9da97bbaaaca957bba99bcc8aea998ca8977b998a96
col14:   9488738afc98778a8b9e899e9b99a8baacaccc98c4bcbb8898a8967aacbce78bc998899c67b98be8
col15:   4645969b6896ad79b59ab57589a8b9b788acc7ba8b49987d79ca795a69dad7cadc78fa9a89a978aa
col16:   6657da87b736795a8da699bbb79b79e7c99a6d8aa99aa68d98a8b9c8899abaa6b7b5a785ab6bbb79
col17:   457673544959ab797b9eaa5768b7a99b7aba8e88b3f9dac7a65aa97ab95f95da69a7db85ba98dc37
col18:   864578a7a675c8d78ba8aa5ba984cccb199a88a6bad98d9aca64ac68b9bbbba9cb4b7bcaeca779d3
col19:   59676a4a99a3b8a7a88caa7ac9bdfc96788ad78beba9b66aa85bbaacc8a8a97d9ac9a9c77ac99c98
col20:   65396869778aa76888b9948ca89ae9b38aba76a8ba82a9a67985b9996ba58acab6ab8c8a6ab4bba9
col21:   3278876668858975576d989bbae9de87abe69948bab9bbb88b99bacaaa87b7a787a896c9a69ac9a7
col22:   55a47179a38a97698789d9b9ccbacbbd9c9cbacb7a7ab589b8899c8cbba8e99a79bba6b79bd7b947
col23:   7695574289669499a89a8aa9d9acb89bcd5ba446a9889dd8a8ad57acca97d89cba895a588caba495
col24:   355b56846b7667895a797ab9e759bfac9ce7d9aaabbcb9788447afab6c9b979c98688765766aa977
col25:   499865b37968b79aaa7788cd78999c7cd9988a57799e99baad87b7bece7dca7acc58b7789babf7ba
col26:   859474769959a95ba9c86d7bb8aaccbfe9c9abcba9e9a9dad8ccbcba9b9aa7aabce78da999b9cb97
col27:   5586956ba6c59ba5aa5a99bdbaddaacaceebcba9aa99c8aeab6ef6b9895a9bde98cc9c8877a7bcea
col28:   a4bac589b5aca6a66ba79c8aeaae98a9f6cdacbcbaaccb77da9ddb8bc9a9c7aa6ba8d899ccfc85ca
col29:   67998d9b8a66ca999b4a7c59a69daaa8add9cabcaaa698aa77f9c9cc9aaa5ababacf9ab985accc7a
col30:   77a888756d985cdcaa7acdda8aeaba98c789fa7baccadc7eebcaddedecaaccaccebadaa8a9b8acda
col31:   676997b976b899d6dbbaaadeeac6afdab99cccabbaccd9bce59b9eadcccafde8c8aecca9b7caa6ca
col32:   799bc8b776acb7e9899cc9bbbc9cd9bcc8deccabdcadeaaaedc6bb97c9dbb9bbeba9fde5b9bdcc96
col33:   5999b8329b86c98bdbd9779cda3ebbb8eacefadaabd8c9a998a8aadd9c78b9b77aa8daaabcc8acec
col34:   b667a5abc8cab69b898cbdacd8cbeacabeb7e88aca97edbbcaec87bd9edbadadad7aadf9bbfbaaa9
col35:   9973ca77d989c6599a7bbefaf89ab9cbaabc8c988bac6a9fa8bbaca9eaa98bbeafbdfc9789dc9d7b
col36:   967c6aaacabb87a5789cb8c9bbaaebaae99ad8a9bdd989c7c8799bffdbbacdbcdceb7fb6b7a8fa8d
col37:   85b59c96bacc7a99aadb8cc8999bcdd9b88becadbac88ecbce9a6cc9a9efed997cbbebc9acbbde8b
col38:   d9a9ba9aeb7aabbc78ddcacabdba5daeacfc87dacbcecbdcecadd9adbedba8dcb9b89cbd6cccecba
col39:   9d994789787a9da89ad9cdabad98bac7adaafd849d6cb8ddacedc89faabcfd9bcaa7cd9a99abbab9
col40:   98a78978a989da66969bdbbdccbcfc8eaddca8aeeaafcb8ac8abbbcbe78dbdcbdeeb9dcd77be8cdd
col41:   8596768c467c8bda9bcfdaae88bcedcdb8ada9d9b78dbabeb9becb78dba8bb88abebcdcdcbd69bc4
col42:   5c997aaa759b97a5aacccb8dfebc8fda9ccacbc98ebecdebf9fbecf8ccdbae79dafbbaccc9acdb77
col43:   7687985c87c98dd4adacaaa8b9caddfb7c9db998d98fd898cb9bd9cecb99a8999be9e898bb9c88ef
col44:   7b679c7759b8cf96a96ccacdfdcbdeca69dca9decf8befcc7d5baebbfb9bcddabba9b9fb7aebdb8e
col45:   a8987a549e99a897ccc9d9e9a989ab99cceddfbba8eb7bddbcc5dcbfcc99ad8cccaebc9e6aaa7adb
col46:   9869a64aa9ac6beba9cabeccfc7d9bbdbf8afba88ccbcaeaf8ccbedadd9dbba9d8bbdbe8bccdccbd
col47:   8797a6b9bb96dfaabbcbafccbbdc88ecbb9abebade78caabacc9cbb96aadca7abdd8eb7b9be5bacc
col48:   6d28759e8bb8e7bbc999aac8c9bbdabccf8dbacabac9b6bbc9de9d79eda8ebbfdbbaa8ef6f8d6bc9
col49:   82588ab5a999eadacc89d6c8969cdaa9aac88bb79ad9cbadbccbeacd89eddbedc9969dbaad8bb9c9
col50:   8564766c8b9ba7959ffbe9dabbc7cabceac8ed9a992decbbde9abdf89db8fdd9decdac8ac9cbccd7
col51:   33944648c759465899b5a73b59d9885a8a6bdb97966ba9dba65997769bd58ba66dd6bb89838a26ae
ROC:	 BPix_BmI_SEC2_LYR3_LDR4F_MOD4_ROC10
col00:   a348574575a878aa98996bdaccda7a8a65a59eaac9c5667cba999a8c6e78b8756a83a786579c5669
col01:   77a63795775bab8d88abbaff977dc899c77beeabbcadbbcd57ce8aebd78abba4ba886b53aab79f97
col02:   6548b56c76a844bb9f9c8bb88bcbbbcbdac88aabd79cc99de986be9989d96a6cb5768b3aa975167a
col03:   7762857c778889b9a8849c6bfe77ca6fdb8c7ee7bbc9fcabdac8ce89ccbe987bb9b79a9cb89b7695
col04:   5757ab67ab97b5b7baac8b3ca989dbd9cbdabbb8ca9cbba89abcaacbca88d99cb8a989adb8a8a76e
col05:   8567986b8976dbcb7fea65abec8be89a8dbb9999ec9f9d7c87d5c898dc98aacc99b77579d9775c7b
col06:   ba883aa5dd5868e69c985b59cad12bab7bbbaac5b6a9b9c6788a89cfbcbc89afa3b7eb9bc6feb78a
col07:   5893769c8b777babe58788b9b8f9ca5a9bcedb97dae6d9dea69c9eafb8a79987bab88a871888ca83
col08:   177b899ab87b4a8babcbbcebbdaf956d94faa9cc98b999dd9dbcbdae9a7ad9cd7576d899b78b6888
col09:   676959a78ad8b9cb9688b6ca9bd79ab6b9fcdcac8bfb97b7ebb9cac9778a99779a7c6acc6aaaaaf6
col10:   76755ba8b59879738dba8698a7be78abbac9968d9ddbbaebcbaaabb99ae8c457888d7faa5b9c6a48
col11:   452824453b5bdb9bb5e9999b8faa8b9ca37cdb6e8d9bac8cae9aaaa8cbcd796bc72cb887a779ca66
col12:   87675c98878999b8c6afcc588ac8f8b87d6696676a8b97abbecbbafdbbbbbd6bd895765b8847dd68
col13:   6877b87aa8888a4f7757b9c9a9cc9bac979dab999bacb9ec969bd9da9aca9b718d637d5999ab8758
col14:   3398777735ca86aa5898995ba5b8776cd9a88699bcc8bcbbad7a9db9acb73997a97c48766c789ba6
col15:   51857439b695fb98d986abacc83ac79a8a6f989d7bf6c8dddea88bad4abee89bb99eb7bd5a7b5bac
col16:   5847477b46ab9a989b924abb8ceafa6479c96addf7b9aedaa69ff8abc69bb8edccadabb7cd6c99b1
col17:   17665865447ca1882797a1aa65c98da7ab8ec6fe998ccb78c6bb7a77f8cac8bbb85a8ca6b564a872
col18:   65574777978bb5993b958c469b79a9c87b58ced5887a86489babe76b69a5c679bd9986aa796aa5b6
col19:   4577a264bb4c84b887a7b85999caaba8cca99aabbb7aaaa8c89baf8999b9c88fdda9aa9a77b9bb67
col20:   658861929a66838725a96d9a957a768a99a9599bb8ccc8a9b9bc877adcb7a8ed8a297ab7f6aa6868
col21:   46728a55724876a7b797b88dc5b8a976dccafba8979bfca8bbb969bba697b98bbbbabac995aa1d47
col22:   326a957a9a4868c967c58896987959a8c6bb5c8d9d9ccfb68f886e5968c8cab8ca78a5ba7b79a576
col23:   44c643787686d569d8a7d5a9a4858a97da9abcb7aa7b5ba76c6cacc795e9bebcdaad9a7549577963
col24:   5655746a6647957d58b8948a9cf988597afa7aaacafa87797998a87bb74dc96d9c9bc5ae736759a4
col25:   4583436198775765925ca78cabae49ab88979a887979589898ec9eafabb8b867cd888a9787aa74c8
col26:   a2c57a58b89c79bf8f854b888ae76c99afc5b8add8addea9c9daddac9bb88e687972aab8a49b5bb3
col27:   5257866cd48876bbbd9acac58bc5897d78baeab9cd75aabaa7c99cacb9acfd9a6aa7bcc45aaa858b
col28:   aa6387d84ab7a99a86d97a7cdcbcabc9ac78baadecca79cbfca7fc9dba7baadaeaa9a97b6dcc58b9
col29:   7769519687488a49bab5b4a8ac667a9b8ebabccabb9bab89bf79a9d9bc8eca87aada7c69cc97568a
col30:   7876864d9a88b4d87aa677ecaccb6deaccb6d9abacdaecfabcb98f8eaaac878dabcdcf9dbbbabcaa
col31:   6969568878a8b9a9a83b8a3ae7b9a86addd86dcaeaab9bcbadffbac9dc7abe6f8bdaacc7b76dbb8a
col32:   98775a7aa89a797adcab85899beb9c9bc7cada7bbcdbdf99bc9cbc9ad99cbddecb75998588caca76
col33:   57ae87b93876689598d98b59c948adc899aa8a8cfb9bc9ebcd9ddddb86f6fae978ce88bbaa588898
col34:   6898a6897879238b659a7bacbbdbb9b7acbb6baaa879ebccecaabffdaafac7cb8cbdbbbbd8aaa8ab
col35:   518786799bc899997b8bc9e9f8a9ac98baebbb986bbfd9cdc879aabbccccacbfcbcbb78c7caa79c6
col36:   78677ca9cb969489689c3a98b49b9ec99ababcaaa8bacdeae7b69f9badca99c7b9d98b9ba79ba74f
col37:   8846468a8cbbad96b8aaa8afca7c9c7acaeb8aa6ad9dec6cbababa8bcbabfcabb69dba79b9baae9d
col38:   8456b7a588abb85fb78a8c7bb9beb9bab7f9bc8cdfc6ae88cbafcd77ca9cf99a9b8cbcdebaa87884
col39:   544397ca6aa8a9c8c295a8cf989c8b9c8a8a9aaf9cbf8ecdab9cce8aaecc8dc798b9abbc76cb5aaa
col40:   98b948787b79b8679bbb8d9acbb99da8f9fc8ebc9bbacfc8dca6afddbcdb98cfa9a8a7f9bb899559
col41:   5898b67b9744aa889b8bc4a96988cdd68be7bdcceaa7ca8aba8c8fbda8eb9d9a8c8877a7c78da9b7
col42:   78673d6ae6abb77b6ba8c987c699c99f6ac68d975ddceceefba7edb79df7b5da96feab9bd98b8db6
col43:   89788a685d8a78db58873e4a789fae8c5bdcaaadb8f8dbbb4cc48cabec7aefbaa898abacc5a97896
col44:   667b6879865b6c59889a99988bfa7c949b87c9eab8bccebccba5f9ccfbacb7d84f9aa777a9dc9a39
col45:   54849b82659bda8b75be776855b796ab7cacbfefabdbcbcdabd8baea8bbed99aba88a6a9ca6997d8
col46:   a878749536989ab997d659a6dc95fc348d6bf73b7ebbc7bee9c88dab7d7bd9aa86db79faa988aba9
col47:   bb8995796ab66c77a9aaccac9bb998bbbcbbbd7bcddeafa77d9cbcbbb86deeda78a6b998c8eefb98
col48:   f464e8d7ba668a79897cb8b8eeda997a9984aa7cc8aadd679a9a7aadf9b6fb469aed6d7aca8bcb8b
col49:   779889566c9b7449d76c95b87987b59ba9bb4987aca945bcba9187d99b78a9cddc8ab86757cc7bd6
col50:   9bb2965a6bb79c89aa598a6767ac8bacd76aea99eddaabdcabebbb65aadcd8b699a788abaaaec387
col51:   1286698368797665b81778b776a97457763ba958968889a687a567d6896ada797ba8789645634877
ROC:	 BPix_BmI_SEC2_LYR3_LDR4F_MOD4_ROC11
col00:   415566666866a6964886a6899a8765399a8b786878b7856db638c4abad64ba8773682692596638a9
col01:   71695677d9468a7da88f57cceea687a979d7d8b5b9b387bb88c5666849a9dda8b72aa7bbb4b655a4
col02:   83774846a4ba75dc9a63669ec86a99896b8d87ce8b979c978ba9488599d99a769b48a874a98a8898
col03:   7c54ab46476875996575499c9d97ca767baaa89896c5beaa85b8d8a7a7a59988987a769aa9766298
col04:   67567b477881528c6a9b7a58dbb7764d685c7788ab98abadab9bc7cb986b97babacb78c997758769
col05:   84347756a387f766764ac8a5857c96e89c658981ac5ba6bdc5cebb797a99879b6998b997b5866675
col06:   6d13475795548487a79b8d5497998c77b7cca8ac8b768a78989d9b97c8baa9a77dac8477866c9264
col07:   94685956a89da9778bd7874b9abb8c75dab8ab68c96d8ceca8bbc9b7a7c9c9b8d697638669ac85aa
col08:   98667962464729978f8688c9bab9d97babbab87b7794aa788c6e999c9d7b99961938698c6767b795
col09:   5bc8a5774578688945a96a8bb9898a98b6ece99a9ab9965a9b9bb622ba8bd46d986b895598a38b46
col10:   557698797957247778a56cc85898ebf5878999babd6d935babeb788a5baa7d867765764866aa67a5
col11:   6665675d47566392499e668a9ad5789aba998ca688c97799f9a9ad9a8d858a77b8aa896675877a63
col12:   39964567a256578b397768979b9979b68554676b8db4cb8fb9a89abb9ac67c79abb9885ca59b9545
col13:   9885877767b4abaaa6d8688958b87e9d7b78a9577daec9bbc98c97d79bebcb79b6657c8cbb7ca554
col14:   756136864677a98959589976a7cf99bbb479ca3acc8cccbabb65c35a5ab9c77bab55a677a6695479
col15:   667593329c4c66a8ba7859b88cca75879a9ac8d7a777a87859c5a9ca675ce579888c564b9b65db84
col16:   d7585947a896875c5c875776c8b95aadcb7953c9aad6b9a9bdb8dbb93a9c8adb69a78876b6b64849
col17:   562834798949387b938b3b9c98ab69ab73b9996aa87fc78c9ad2b86aae5889bb65759d3aa65695ca
col18:   686817666a776768968869bd9a89758e9b8b9ba7b8bacaa97e86b7d4aa5898777599a468975513a5
col19:   866a8458696764a6694da895bd9a888ce77ada9c9799bb6b8dcba7acae85e5b86789777a5999d391
col20:   4347579557aa8769786865d68a97a5ce98ffa8aa97c9aaaeab74f59a9bc79c9cb979c96883aa983a
col21:   729d7849659599865a881aea473b9eb878a6fbc697784bbaab796bbb9ca6aa6bc7ac9795a6352596
col22:   6978b77ab4973392787c558bfd955bb86a7a7aba6aa994b9accaa7a5a99c38b3a977be6594887662
col23:   45a194568a39779b9ab874389cd8aaa89976b9ca57cc844768a7c9d95cab6a7a88baa9aaa8c67635
col24:   57445744666794875586678b7bbb586a79c6ca77bb858c9ab52a9a989b964495c847a95565466272
col25:   478471c478ab785b79ba787b8abcab6a9aabcab9d9a58e8f875b8b4b7aaba897768ad7d886356454
col26:   849bae669985958c9f99c789d77b9c9b9d985c7d9fdcd4a7b8bebbd7ebdfa8969887d7996ad88dcb
col27:   583b9875464d9cb58a9787cc48b748bba79878d989b9cbdaacb8af67aa8a7a6878664d9fb758798c
col28:   8386944984aa88bac875dadac9ab6f8da8bfecfca89a7d9dac7fa77ccbbc997baab44798b29a5ab5
col29:   599a879828b8db349cad6b9cd7bea9a89b8eabababb889abb8d55d9bd7b99aba98dc99888d745871
col30:   9ae768543a878699688466a78a6b9cdc5c4d97b9a7bc679ce888de9aec9ecb9c9c8b9b7d6ba7c6a1
col31:   eda59679798bdfcbb8fbb7b8bf9bda8cbcfb9dcfdf8ccedaabccb59cccc9aa6e9dad8b8a9f9ab89a
col32:   8a9b778a9989b9c9fe986b987a8a99a7d9cc987db8cbdd9dbcadabbcbb9f9986b6c8cd7ecad797ae
col33:   759a968a5b7ab8a6ddc8c8a9eea95b6ad9da9ebbe8cca8fab9aefbbbc9bcc9a77ac6878cebe89d6c
col34:   67867599baabc7ac8bbabcd7c8aa5fe7beedfceab879dd98b598ab9ba9bda5aab7bb5cb88a8bc363
col35:   6a17c878cb8a9bbaa69fcbfab997bba9b76fa68cadca6fbddcace9cca9b8aabc9c999a9888ba76da
col36:   5a97974894be9889afa7ab9ebab9bbcadd99bd7caadcc79bcc9feb8bba8bacba9b989a964aba99d8
col37:   73ca7dae98aca9696ecccebdb69dfab8afdd7cbfb9fad6fcf99bdeac898f5b9f9abbb8bac7979d4b
col38:   b52ca85b96759a48b8c7edccdfadfd8ecbaa7b6efbdd7dfa9a99c8a8efc88a8b99af6cb9a9bb59c8
col39:   5646c3c975699a8f97798f8adbdbcf86ca97a9cdddaabb598d8c99bd8b99d8e7978ea9b998ba9867
col40:   85c9cd7aacab86bbc89b9cbcad99adaddbad9df7d9daeadec8cfccd9ddbcbdbcb6daacc8e8aaad79
col41:   77768baa7b798dcd996cafeadacbcc7acc97ad98a9baee8bfbcb9aa76aebdcdcb9cbdf8eb8bef968
col42:   b5693a868869dcba7c8dc7aceaaeba6cfef8abab9aeced8cabcffabcd9ed8caabedac8a877d8b8c7
col43:   8596bb8ac997ae8db696ac8c9edcdeae9c5edbd87fbdb8fad9deddedbebb7c6edbf79bd88caafbbd
col44:   b788c6a94a68a7c9876acdcdaaa8debdbd97cfadcbcbedddfafbcebcbbbcd5bdcaa7c9aacba787a8
col45:   3238ab4ca9a96699aabbeaeb7dc98998b8aee8ba957deadbeb8c7bcbb9f6b89c79aedab3bd85987a
col46:   6cb9a5779b9cb9978bde9baccf8eecdab8abacebcebcacbdbbc8afbe9b8fcadfab7d9a9bea6b8973
col47:   68598a9cbc887d8bab9e7bc79bbfd9ffb8adcc89bfdecbbbacaab997d9bae9edbfeb8989679b979c
col48:   581679d8898999cdae9aacbaaaecddba9cabc9dabcac6dea9fc8fe865ea899bcab8d594d77c77794
col49:   6786c6a9887e8d8b6e69adbebccbb9adcf98ec8fb9cbac7da9cfbece8fb7bbbabba9b966ccf9aba7
col50:   7aa79889af997b9ebcbfbb7cbc9b7bdfec88adafbb8becceba978cfb98cc879a6a8cfdd9a789dd64
col51:   79758dcc6387585cbd988c4a9996e79bb9698bc877b9b58fcc986987da89a958c88ebb7649c6a6c7
ROC:	 BPix_BmI_SEC2_LYR3_LDR4F_MOD4_ROC12
col00:   14587973745468476c476825627bbb78a9a66537736a88969cc5aa4857653696a6e999836977ca98
col01:   9196696c3b8798bb97897a5b879a9ac6a867a7a8c788a9b9b9aeb5c9b68a97b76b94954877949bac
col02:   a6a93474585717764566729957cba795bdca88a9d79cab9b7b9997c69a8bb9a4b99997768b7a6958
col03:   587398439a554234795a7b6d3669979868bbcabb9a98a6adbb88ba9dba8cbbc849a9bb9a9cab987c
col04:   674868693886657454668aca879aa7886a99bba7dbca99baebb9bb9aac8a9f7c9aa95b7a9797ab98
col05:   596539359998a48589a974a6869cf5bb98c67698a67a66baea479bbb9855da48bbab8ab3698ab5b8
col06:   315a8696858897859838798ab966bb888a9a9bd777a97aa55888bbc58989997aa6f77e89989aaf77
col07:   751878d858887845b5899a95784bb88749b7adca796a5c5979997ba69986c6c78ac889698da5aad9
col08:   63878a989691467494a8ab5ab6887c7a7b87ba7b86647c95d7867a56899ea5998698a9c9bbc78bb8
col09:   55b4645b5787a788868697ddc999769a78caaaaa999ab98bbbba6a47a8a9a9e67bb597a5969ba9cd
col10:   44545a85a36989a47694b78b8b96d978aa677b789967b89aa839b98c9f7ac9adc859976a866bbb78
col11:   31a78585b99886875a775786a759a6879a98fa95b7587a7699895c87849867a96776958a7696787a
col12:   458177aa439685a964197798999678a986a6b9ac63aa7967ac897978bba6caa85aa89b449b43b965
col13:   b1657b769a4345288b86897878bd65fadb98ab996c969979789937ab6bbd7c8769869778a9716c9c
col14:   767484655a44688949997b8a7998d49ca787678c87e657da8a58c6d6aa6b589b8c5a6a45bc47a9bc
col15:   737761d57b586779668b7acd794b867a99aac9b755c7fd6aa7474589af6b87785a4976989e937779
col16:   5741b3965a778e877683358544b97a964c49893c9ab7b9bb886bcbaa667a8999ba9998aabbc8a894
col17:   767846867a6585765686889879a8a5bd8a9d8af6835475696968aba9a7889bd7a7b86b8b5d53db76
col18:   26659997958278a3a79579b69bbd58ac7a8ba7ab968a98979c6777db998987b77ba9fa7e74cb589c
col19:   786868924535984a5ca6729975d8478598997a98b87579b69aba9a7c78a6a6b987ab689999986859
col20:   47b648687677a877478458d4c33bbd966b9caa57a99885a99aa69b8b78cba7bb585da9886a6bc78c
col21:   1537a56586865573189775a568a9aa94ad9399dc7798849a946a77a7a99a8b78b898bd98b668d78b
col22:   5577863769983879d9b79796787b5687a87bbe9e97857a689c94a76b659e8a98a7878bca569c7aa6
col23:   6656b453955174766257278868e67bdf4b985b8caaa967bb8985d779927ca6b97ca7ab74b75678b6
col24:   1bb56b375559788688789a999ba8c5665c679a8caa9ac676bacca9abc788b5778b6c998aabc79878
col25:   59776a74767799b34317a47a8aca44b98a95c99c9c8bac8899ba7ca6b7c7797949a8968896a6b698
col26:   834cd96ca86bc266cbaa699deaac7a397ae8cd9cbdce9acb8da998d85bba9aa98a79cbb8babb99ab
col27:   95ca958caa983caa89bcceb8e3adca5aac7ab8a96796abeaa8e8db84fdaaaba6c8cb9d2bb8b9a8d9
col28:   8762878986cb964b7897b8b85ba99c8baaa8f77cad8c957aa99ccfcaabc9ccb6a67987c9da88e8b5
col29:   977a8777567ba8dc69a4d487dcc8aab8bcc7f7ab777abcab68cf7c8dcd7bb8e9b767779e6b579ac5
col30:   669886c5674d988c96b5a966da99a8accc99ccbcacb7c8afabb9ba9aa9dccec87eb88bc6c8bed8eb
col31:   8167b69687ba6bd8aabeaac8c8b9a69eb9977ccbbb6dafab9bbcba99cdbacbbcbb8cacca7a97bb9c
col32:   86878c178abaadb79a84f88ac9e9bacafadbcb89ffd8be95aacaa7b68a7b9b6a88979887faaa89bb
col33:   6a79a87e6adabcc8edaeb9aad9a79bc8b999bebcc7ac8fd6bace9caca8fcfa8dbeacef49aaaad8c7
col34:   4488a799989efa5bf8eb9eccbac98bb7adfaeecebbbddcb8da9dcdaea979aada8edbb9caa798c9b6
col35:   988f9887a5bbd98cde89ea98fb8da9adca9daacfa98d87ba89abba5afdfcbc8fa9dcaaaa9aa9d9bb
col36:   69a4bca8c89bcac8d8baaa6dacddd9acdbba99dadcbdaece8b849d89baccf4e9dfd8adcc6ca8a99b
col37:   79bcc96dbd8da8b8aedcca69dbbbf99ce86897cacb8baaaf4ac9dbabfed7bacfabd9b8acc89fbcc6
col38:   a5b6fca1b989a7ea9969a9cddffcbe9fbddf9ac98cdcbcdbcdedaca7bdb9cb4bacffabc6ab87b89e
col39:   77897b2a7969959aab99cb5ad6ab9b9dba9acddadacf7d9b96bd8aacdcfbbed7b5fb68c9e7bba8cb
col40:   7787b7549897d57ab8ceccbaccb8df8c8dae9ba9b9edacc6ff87bb89aba8b99ecbba9cbba9a8d9bc
col41:   686a9696b6aa98a8ac8b9a9b99ababb8b89addfca8b8bbca99c9db9abc8cabb788c78fcd7ecdcdc9
col42:   c669c9a4a959adf98c5abc5acdceec6ba99ebbe7bbdb9bafd8c7dc8af7bbf99ca8cd9cdd8e6ba7b8
col43:   4786bccc49b99a7f8ab7c6e8a7a7bed6ebaaba65dea9a9bdc9de9cb8fc9ad99ab6f9dd5acbb8bb9b
col44:   878a8aae81beac4abaf8b8e9fbcb6bccaabdabdabdcfa9bd9bdbec9b49bb68baaebebdadb7f8cbd9
col45:   7b77aa859eccaabada869fbbfadac8ffdbed9caabadf9b5b8ac99ab958e9b8fda89de5677988ddac
col46:   59a9cc91dd7d9cb7ccd98ac84cdfd9ea8ba79c93bfaffdaac9aa8998d6bceb9a78dc9ab799bdac79
col47:   a9aa74897c966fac9ba9ca6bbdcd98cbcdbea99cadefa99b7dfac79cbfa9cb9bdf8fadfedaacabca
col48:   588a97b988bc979ea77a98bbfccad7dd8fcaaecbf7adc8dac9dda9dc9fba9cc88b7e99a9aebd9aac
col49:   aa99a4a979caab68c9b986ebcccaaab98ae9bf9baec8bccabc7948ebc6cab9cabbec97b88edc6899
col50:   89ca9b8aa9ea6987c8d69d49cdececcaadc96aad8b9aa9a87fbacbcebfddf88bba7cca6aeb96c8cc
col51:   7778b9b3daa5a285995b66b77675fba69679a6ccaa789dab665aaa8ab7b999aca97aa6a99bb74986
ROC:	 BPix_BmI_SEC2_LYR3_LDR4F_MOD4_ROC13
col00:   67679175554755374545637974782457897b38436a567956585a5999798487887776847894876953
col01:   3a647567365829683688473ba8578d6695a76989684585ca749a898a85a878b8868798ad794677d8
col02:   8375394486758689236586978899284877699676b945b8a888c99894a8aba7a85888855687aa7a74
col03:   72464667a574a469796a4867788978767697a5c59a9888a86a576676a88767b88667c74698879963
col04:   84576866795869838787a9b9789777c69a6885ab86a8a79586b7b7ca87999797995c6a879aa65865
col05:   525686553869789877997a56a9d59698588769a98b5778686a7a4a598aba688997887ac58887c7a5
col06:   786497567896589657577b77846977b5957997645897aba96a6c959b953888b3b98969a85b997a66
col07:   39565b56777893a585b769a687887877b979889977bc98a9ab67ab79a9597888aa9a8788aab87998
col08:   86855676585776a98879997b65b96677978abb687aa66aba88aa78ab97bc677b999a8786a8b77aa9
col09:   386a3172a95b576586925968c77b998a979975aa9789c58585b895888c759a8779889696a7759769
col10:   47651795b4888ca9a8a78975999c877ac8cc8967899777994c4ab958989974b9877c9ba88785bb68
col11:   76727998a874795b79a4935558a79ba5a8899798aa784a7bba6899963b8a7788cb79c769a9b798a5
col12:   9757988aa4598579a78cab859a73885497dcdba77899a7aa89476657b6668b47aa997a77b9589876
col13:   418696787979859999a77a5a9956abc587b7a8967a978899ba9879b8a988766878a8da6c9aa76ab4
col14:   5974678789937ba8b5c9a977556a68757c988ba79aca968c79a88398886c77b79896b49bdc77ab95
col15:   54398887c976a5889c645ad69687776a9b778886867b9986a9767948a97887a8778938b978988894
col16:   79439398765865778aa6a8967a78a7a8789eba788d67ac8aaaa79b8bb698a88a89ab9788b5995a9b
col17:   57566666987a469278a876b89884aa93ba7d77babb88a5b7aa988a9c4a7b989998c9c86c6bb8b778
col18:   38867717666655c7896985bc7c976ab7b6dbc68ac776898b9bc9bb7db6a695ab9dcacb8895aaa899
col19:   276692b9883a864a7a57a9b9aa5aa89a678699a7cbb9c8a6c8cab89a9b99ba897abb9799ab88babb
col20:   876454668746584a8788968a8a7b7789a89bcb7a99aa896a896a85a9985eabbba7d8979b88c88ab7
col21:   573777678989c9655a8a68788aa987a6b688a7a76797987d97a8aa7cdbb9eb48a98babb856a8c9c8
col22:   958a7896979a99386cb97968b7b8a66858aaa6768cad8baa8ca78998b9bba89968aa9b9ba6bbb89a
col23:   77988778679c899b8995ab99ab7a6a789aa8b9dc79c7898be9aa998db8a98b879aa7b879b8d6a8a6
col24:   867897388787b5878ca98bba698a6aba7ccc8899c9997ab99aaa6bb969b9bc69a9adadcbbbc99688
col25:   86469c937b739a866c656b968bacaccb8a89c8a989d98b7a9ab999bb8c9cb9aa8b8b9bcbd7becba6
col26:   8b6aa96a98c85ab6a999d99a9acba9cbabdb8aebab9cb989a9acaaaecbadb998989dcbc9acdbaaba
col27:   988937a8c6a77868a86b8bc9abaca6bb9bbab6c9cabd8fccaab9a9cadba9cbcacdcc9b8bebbbacba
col28:   697998a988b9a9b88898bcbc99a78ccba7ca9dd9aa8bbba8cba7acadaaccdacabcccdacbddf9dbe9
col29:   69766787a7877ab8caba8cc8bea779cb8a9ab9bba97aececdac8cdaa9cc7aaaacb889caa8a9abbbb
col30:   9587a8b86994b9ccb9b8ab8ac7acb9dadae99d9c9ca9c98bab9ccbccbb9bdcecb88ee9b7ddba8ba9
col31:   88887869ab8b8ceebc9c9aacbabeac8dfffcbabcbcd8ceba6dabcdcfeccdcddddfba9acd9fef69ba
col32:   d6aacba9cb7b9caacbbacc9d8baccc9abaf6de9bdbcccdecddbbd8b9bbbbfb9ad9dddeddcdcbeaab
col33:   6a98997a889b7a9cbbadbada9caaaba9c8dbcdafcbc97bb9aaaab8c9ccecfdd99cdacaefbbbebadc
col34:   88abc7b8cad87cbcba8daac7aacbbdb8ddcdd9cabdbcbb9b9dabdccac8dcccea9eba8aadefabfafd
col35:   ba867987997cb89bcab79b99a9cbaddd8ceebaeba8ecbccdecbdc9beadafbacbdbccaebecdabbdd9
col36:   9dba978a78b97aeb9ddc9c8cab8c8babbcadbce8cbb8cc7ecac9cae8bbabbbad8cdfeed9beb8cc99
col37:   b8bda88a8b9b5cacaaac99bccccdbcd9facdeeccccbcbcdaad9aeaec7aaccbaccdcacffccedddcb9
col38:   bba9c9b8caaabbcfaa98ecb99bfdbaeef9edcceddfcc9affd9eddfabccaedcb9cdbbb8fcfe9bbca9
col39:   869aa9caca8aabb8b9d998a8cbbbbdadfacdebbdcdeccbabca8ba9bfabf9befdbdbcebdecdbfbee9
col40:   c79988b95bc9bbbaab8dabbcccabeedbdcfdaeccbceacecd9aacddebeebdedddeccbefbfbcceecdd
col41:   9669d9abb89adadcbebcbcfd9ba9ccbfad89bbbeccbce8cbcfedfcfceadbdccbadccebbbf8dcaee9
col42:   6b7aaaac9cbb99a9cbcbbbde7ebeeddfddcbccc9eafffacbabcafaeddefddbaafacbeefadd9fe9c8
col43:   c97bbb7db6baaddddbf99f8bcbdd9c8bdcedb9d9ccebcefefddabecfdfdceecbeecdcecbbecaecbb
col44:   8c7bb699bcbbbc99acacabedbacaaffdcdcacdeadecfbefbebebeeccdabdfddcbbfcffddfcbdabc9
col45:   a87a9a8ad87c8c87cebbadbd9caac9e9decedbbdeadbc7dbdcdedacbcbbcabbcced9cdfafccbf8fc
col46:   a9d68ca9bba9c9ec9cc89accbcddedceecceafeccddced79fdfdeddfbafebddefebededabceedddd
col47:   b96c9a7799a9bcddeb9bbccedcbbfabfee9bbb9c9ac9baccbdaddbcbcccabfbbdcddbdceffdcdcfb
col48:   bb87c8b7c99ab6bb98eeadbccdcebdccccdefbddfccbe99fcfcbccdaecbebdcddcf9bdbedbbaccef
col49:   d89dbabd8b9cddd9abbecd8889ecd8d9ceceab9ceddacaacddbbec7badebede9fdcdeedefbdcedec
col50:   89d8baadadceecc9accdbdcedf9ecbcbdebcc78dccd9facbdb9aeebadfcdfedbea9bddcbbafdbbea
col51:   7aacc78ccb95699abb9cc967bcc7cabcc8ca9bc9c99bcabcbaa9cb8ba7daab9a98cbbaacdeb9e77a
ROC:	 BPix_BmI_SEC2_LYR3_LDR4F_MOD4_ROC14
col00:   7756387466181254c5452988376654644c8944898443667969b89c88796764665827358561163611
col01:   87581184a6635976855a8a598888c68f837756b8867ac889dcb8b9a7726b99b248887896b4865346
col02:   7a7265898a75789597c6476a9846a7b9a57aeb846858a9c37b8898eb8c879a8a8a372694a423a553
col03:   5263647ca68788794e564856675a4b6be27979787aac9b569a98b9687a85e87a6548947475539847
col04:   5856b743386c2b75687849b5c7955b83657baa97863768874bc9157c88e74a78a89267679288a373
col05:   7658641a5924a99ba285da58b98a7d99889948c5a434c83879a9985c4c9756443c75778a1698a945
col06:   7378946194d674656ca8a787967a9d9abb955996377779c67799a76a8286b57b735414867b894482
col07:   2666a86c9656d416aa699deb6a96abc7dd79a586e6ccba88d77a895bcdafdb78766aa2617a9b5287
col08:   528444958779795988a97d8694b8974955ca6ca9a3ba86a787c8888bcba97d77a9977a458aa96a85
col09:   95144269838972665c67bab5cbca7d86aa978775aacabb97867787baa76b6969d67466675558a733
col10:   68a75375b736a6989796938c9a9a85aa987a89ad7da8fc258d8a99977baa9b555b81987477767526
col11:   665566b482a888879868d679b9b97a8e8c7bf9b8d788b89a9967698b8b76483a5458bca65bc57896
col12:   a69575a7754579a5b778573b97b97a96daa849b8798686aa73792d77556866468955a5769a5e5679
col13:   93959a4697b479a6467c95bb87cb8b9aba6babda87b8767ac974cad8aa79697974f95768b35b7676
col14:   6575739545aa9868788ba8c7b79bb989e979578ca787c98bb68a897b8868b7d76b29a84a83878588
col15:   a85d946575776a6aabba747b8a963978a79acd87899bab99899ba88bc887583753995597647672a6
col16:   3459686759833979a4ac9875ca6d666668a769bc7bb998aa9865887a78b99a766a995996a5655a64
col17:   355438159856a9777a9ad695ba99e8cca988cbbada57987b9f6a99999a6a6a9a45a96b56aab48984
col18:   66b582a66681759467b69b88da35a886ad6a6667ab79a99876a7ba8a96bb4a9978634b87857344b4
col19:   936b457a9848c97797dbaa68ba97daca6bc9bc6a89ac5a9eccbab8897a8cb686b484766a99347887
col20:   89b754695a977b6cba9ca8898a26b8d79dbaabb98b6758a8b97496a896a55c737797994679737787
col21:   9838a52555a65c1d7a66575779d679d89c957a5c9b89ab78579ae79866a7976a383a7968796147b3
col22:   7749dc546a39857499aea6aa9b9ad7aa8a86b6959a868b998698ebaa798449c27692749a25563675
col23:   a96985996998a6979bacb9c88f796b7899a7b786aba8598995a5aa7baa549777a9a4957769ba9766
col24:   995573b7579b4867626aba7b8688baccd6b88aa9c88b8879688b5bb6cccc689a9a7b9dba68967bc8
col25:   aa6869aa98c7aab8b8bab2868dba8b9aaaca9cbb5a9bac77c99c889cbba93c99869887cc77974842
col26:   77967b99886aa9bd6db9da797bacbc5debbbcc9ba9589ca99bb9fba4ab9bec859aaa987a887777b6
col27:   7b896a9484bc79bac8c9975aaaabc9ab99bcc8887aaaabb8feccda5bd9b9ea898997bc7a96b64b4a
col28:   557656a8799bca79babab7e2a96dbbb5a99e99a9aab9dad99fc99d978b5cbbcbd576b999b98a6996
col29:   86ccaaba7888dcc5599accf7c888b98d99cc8d8cfb9bccedcccbba688a6cc9aa967bdcbca7897a6d
col30:   99c8a99a878bbababaa89b989edb758bd8d8baeaed7cb988afbfedb69c87cba9866e69a989a7bbd9
col31:   8b876988589aababc88fbfcafbdcb8baac9af8ebcdbf6768acbbbcdacabdadaba989ac985ea8898b
col32:   8ab6aab9c77b69e6d5ac7fcdb979ab9ddf9adfdeaacbdcf7dab7fb8aeece798f8bcc9b9c8778ab8b
col33:   75b86c4dbb5b6a87ba7cbecc8b8998f8ccfccd8eb9aafc9feddaccc9f5dcb9dad87a7c6db95baa57
col34:   79a9bd47a5a3bc76a8bbac7cdbf8aca8ccceecaaddc8aba79bcba8abfb8bba9a4dbad7a796cac586
col35:   cf9a9bb89c8fa9abbbcb9d9ac77baccbddce8cfbccecfbc9ddac9bcb98baadbbc9afdafaba6a487c
col36:   adbc8bb99795688da8fd79fcdcadfaedde5df9e9b7efdcd9b59aea997a89deebbac8a88a9c7aa6b8
col37:   87fac99b9b99cbb9cdf8dadabfdc88fcff9cbbf9abcbfb8dd9c8bab9d98a788c899ba599cbcd989a
col38:   c7a8cca696ca6798dbddc88bbceffdacfddb8bd9bc8d89daded8bbabbd9eb9b88ab997b7cbcca87b
col39:   9b9b5ba76eb7babb7cdadbadbcddabdbcdaacdfdeb69c8baeadcfadbc99a7abadbcc3ad969c878ab
col40:   dbcacadda6cbbcbafac9cdabbcbb8cdabfd8fdbdcfccffcd89ec8e5bbbba8bcbfbba7dcfad9bbaa6
col41:   ccfa87bbbbefcbbaab9f97f9cbbabfeafdeaecc9edeabac8ebfbcbdcc8cfa9decebcc868df7dcb9b
col42:   8b688eabcadabc97e7ab7996fddbefa99dadea9fac8bfcdedbdcfdb8a7ca98a79cccaccab8b69757
col43:   ccbe7d7bebcaddf8d97cccacbbfc99bfffbcfccbebc6fefdab96edbbffebc796edeb8a8cd99cac8b
col44:   bbc6e46979ddcc8efcdbd8caaae8ffc9afb8ccd9eea9cdfbbfebeccffdaebdaa999eed9acc659c8b
col45:   c88868aa9bbcddd9da7a6969cebbb9bfefddcdf7ae4dfbbcd9bac5ceabbddeadccadb7ba8b8cbb86
col46:   9c9bdc5b79cfbebc7acdcfdccafaacadbb9fdfcffffbc8fdd9c9ce8f7fdb99accbab8e5cde977bc8
col47:   b9bfbafebbdaadba5fafd8afac8b8befefbacfdfefefbcebcdadcb2adbddd7caaaaddfef8adbb8bd
col48:   687ae9988988acba99a7eb8bacdcde96cddcfceeedf9ccb8fbcedefc9caa9b7aafce493d96c99bd9
col49:   8abca9dabcdad8aebcbbdcddfdbdfddfeec9e7fdddfbfbffcd9e8e8badbcaddccbcdacc9ab9bdba8
col50:   cc5d6cbcbd9adcebe9ba9eea9afeb9edcf99d7effcddddabdfdcb9a9beeb6c9beacd99b896b9f6b9
col51:   85c553cbdea9ace759d9aabb8bdaaeade8ac6babaea8babcb98bbdf8a8c6fc9b683d6879a6757ab6
ROC:	 BPix_BmI_SEC2_LYR3_LDR4F_MOD4_ROC15
col00:   66386546856546aa9b48579447a8ae68c9a57b68bab6b476699586a79a66c9b69b38bc9bbdb6cb93
col01:   85767a47684582a7a5b6bc76d6da5b4a89ea9cbaaa8a9c73e984b988c35a7c95d9e9d8cb68baac58
col02:   a55687839a8756314b4779b5558a69bcbad77997a9788a78799b995988cadfb9a9a67bbd79c797d3
col03:   7675584bc89a7998bc78b9889898a788cc98badb99c98be8c97e998ccdb8ddca777a886b89a87699
col04:   a898a5779997786757a6ba78b9bfac7999f668ea4aa9777b7ba77cadb9aacbbbc8aabaeab4b689a8
col05:   74a79c98798798a4967bba9ba56bbdc996ca8bba97bcb6faaa9bfda949a8c8a57999889a57d9e735
col06:   7d7786a65475aa6bca6a6937ca3fc8babaab5cb9f6a8b6aca9d6c9869bcac99cbb7cbcb9b86bad78
col07:   6878577874bb7b55568b5db5b5af59c88aadcc9ca8998bac9baa8b89ecb9db9ab6ac69acaaaaa8e8
col08:   84157a69a2965bb5e936876d6899c79d5696aa64ca589c879989988fcacbba87998b88a698b7986a
col09:   557989a85543997c976b67a8e7779a97ab776dacb9bd9c89c59aaebacaddba9dbedaeb7bd8bb8cd9
col10:   688a497975948a868aa579897c89d94b7979759baebd6d98c9a9995abbcc8f9996aa9ae77978d8b5
col11:   776692b794674874367bc47bacb877b888ac9a85af78b6999aa9dd57cb9b7b48989baa469999a6a6
col12:   689766983695989887797c8a5c5b99b7bcb798b77f88abc6bbdda96d6b68bacaca8ba8aaaa7a59ba
col13:   575858a97667954646c48997bdab769d887cea9a9b9c69a99bdaca6fe6dcac898c9d8979a8d889c8
col14:   59658a59587d619968c8aba55787c68a9a7a987c989b869b7aa79ba9d8ac978ceab689a998b68a75
col15:   77675b98896678879786977b8686bda277ed57ac89f9cc88aaaa6779cb7f9a8a788ba8ab99a9a98a
col16:   6577669397388b459e95a97888797a5b9d8ab8b7a989b69798bbb9a78a9abba69ccebbc8aa89bcb6
col17:   755247959837437952874b8b6665a8678b97a778a6ac9858b8cceaba59af9938aabb9798c98aa579
col18:   5634627a6ab8487ab38787a999a8cc77bcb9d9bdaa698cdbb789b9fbecbaa76b8aa8887b68d998d8
col19:   77675b877598b658759893578a6b9b9dc89aa8b8c977d56e85caa799db89a9eb8d99aa79d89d74ba
col20:   317367b4768a1956bd899b66aba7858bc7e5a6a9c558bd57d787abddeaa6a89aa769c838ac9bbaaa
col21:   82668a3c468c6857736aaaaa99b656e8bbb6b7798b9599b69bbba7eb9b798c8ca6ea7ddc99b9ddbb
col22:   5466866aa66674a58b4178957a34a6ba56479aabbafa74ca7b989b956d98c9c8a6a8db9b89c6bf7a
col23:   79835466a349567963e8c6987689965799aa659edbaa98a98895dacbb8aa9a6c686ba67a66daab86
col24:   6593286346b97784ab5abc8bb8c95fa9a899b9c88c4b6cb97a8b8ba588ca7d67d89b55c69c8ba8a9
col25:   63796454476745898723d936b8b4b58698c495ca59998868aad87aeabb5988cb89fa5898988c64da
col26:   a774788896abaa6736acd9bcbbb8af96e6baeaee6c8cb8faab8fcbbbaa9cad9bca93ab99798dbbc5
col27:   367a697b675788689b879cfda7cd8c8a47996ce7a9ab8a9c7af77a7eec7c8acb8adc5d4998c899e9
col28:   5a6784aa94ab9c86bba7bb9dacb7cbb6c89eeb5dc9e98ba9bda9dcbdbabf8cb7a9badb9b969be9bf
col29:   933764e896d685876a5c78867a887bb8db9caaaefbbe9a899a89e8daf9abacedb8ba9abd8aaabca8
col30:   5c46656b9adc9bc69fa795bfbb9bcadd88db9888dccaaab8bacabbca88a9eb7cbded89bbaca8ad97
col31:   a8967897a97cd87aa7c6897a5baa7cbc6e9cbb8bb7b96dd9fdbadefa9bdabbbac98ebdfaaabdc7d9
col32:   b69768889bbaaa98cad8e998a89db897c9bead89d9ede9cabbbbcdded99dccb6989b89c7e9bb9ae8
col33:   c7748697a59a859788a98887a8bea8b9cbdba7e4b9dad9a8588a79aebbcccaca98d6b9eef9dfb9ce
col34:   75a496c8937a857cbda5cbd889aafa7a99afdbc9aaa9a9cc889bdabbdbccbbbabbc8cbac57cb9ada
col35:   6968c89a88b96e83687dc986588ca6ddecaea99deb8abcba9aaafccaebfbedae8dcdc9f8a7c7bb9c
col36:   c99ca867c9a88bbb9bd9aabead8badba98a8aebc8dbcd7acbdadfbaeccbcead5facdbcc9cc9ebacd
col37:   7764966b8c8947ba588789977b9a99a9cca88b8ce9a69bd8abcba9fadabbfdeced8cf98dc9d7dcab
col38:   78ae989a99cac7b8dabb76aeababedbcadd9addacdcffd997accfcebe9eee79decbaecdcecf8ddf9
col39:   98bb9677bbb94b9a7da8aa689b9c8ddf9a98889bfdace9b9bd9fd77cc9bed8edbb9ccafc7b88eaba
col40:   986786cac757aadeb8adab97cb7efceabfb8fd78ecccdcadacbfacbadafedbbcedbe965db9baa9dc
col41:   594a568986e69ba8da9ba99bccecaddca89598db9bf9d8f9ffb977c79adfaeda8decadaebc88dc6c
col42:   784bb77d7d8ab99678959c89cc9baadba8e9bb9eacacbdc7abcae8cbbdfedae95de9e9ad6dbacdcb
col43:   a65b98789c9a8bb756a4c69aa9b9adafbed9cb9bbc8fbcdc99bfccc7dfcad8bfcbcdc9bd8ceacbea
col44:   59a76af9bb78b9c8b7db9afcd88cc8ababcbdcecfcf6daabedabe7a9dd9efcd98abada8fcab7caeb
col45:   99579ac57bc78b5686c9a9a99baba6bcc99dbafabadd9abaadab8ebaa7cbbbdda8aab89fe8edfdce
col46:   65b8a45a97bba7b9bc95cdded9dce7bccb9f8e6ceaabca9ea9ec9adbeec7babab99cfbab8cc7bbe9
col47:   8c9a88999bea9a6a4b5b9998bd7c7badceaa6aa98acbbebcccdbb7bcccbc9efeaeb88aecdc8fdb8c
col48:   9867a56999898a47799668abc7a3f9649caacbd9d7bddfb9e9caccbdbadaadf8ceddbaadc8badae8
col49:   3b694c8c7cbaa877c6a9d898db79a7abdba9a8c7ac6ba9ebb9b79deebdcaf8a7a5abdddcd9a6fadb
col50:   aa75ad67ba9bca67deb89a9bcafb8dadbfcaccbc7da9ddb9aac8babaccfd9bb8d7fdc6cbbcbbcbba
col51:   62585897b7c73bbb36848348d99a6cacbb7987489aa97edba88a86a8dbfdeb7c878ac8bc5999ce99
