ROC:	 BPix_BmO_SEC5_LYR4_LDR19F_MOD3_ROC0
col00:   6735589d75ab88989a9b6bb889bbcc6abaa68b6cb887998979b98ab7aabbbc56c765573977b49758
col01:   d9a75775d9b8997d7abaa76ebbe9aeab7cea99e88bb8bb8bab7bdc98baee7aa99eaaa8bd94aa8c6a
col02:   58baab567a998bbd8d4b85889aae8d898cbdb9d9899478c8ddec4ced89b8b8ccaac5a8c96c8d9ab5
col03:   6749467bb765a97cbab98cfda8bcbdddf8a8cee8989fbbb99bed9caa8c9f8cbd9ae88d78a79b9447
col04:   97ca59da9b689d96d96a8db8dacab9ba9eb8deeea8dc7ecbdc7ad8eb6d6cae684b98cf88b6fa66aa
col05:   57aaa6d9679d8bc8975a6ab7d9ddcf997b9fcadbbab7acbfb9f6a8bb699d8b6dda6a66ecca9a8991
col06:   b399aeac8ab9c885c9bcadbea997ac88a4ab7bd84c8ad9a67bb6b9bd9cbacd89bdb8a6c7eaa566b6
col07:   b8569a559b696d6a8cebbdeaca89ae9ccab59d99d96cbbc5bbdcfc5d978aaccaa9ca7a9b7cac6c88
col08:   85a69797a63848aa8dba5b78ca9c8bccaffac6abc7c97dafc66aafac79dcbc88ca889ba6bb999879
col09:   6996b686aab77b89ad8c9aab8abfba8a9d6bbb99a9addc9fcfce9bfadccd9d9bdb69c9bb9999cb69
col10:   85678de38959aa96a66ba9da99bdac8aa9ca99cadbbf9aba9b7898bdbbb967abc78b99d69b9aadf6
col11:   37aa9ac679688a749ab9ba8a7998daabe77a9a8bd9cbbc898b9ab89c7bc577b9989b7876bbbc97b5
col12:   65895a96d8c937bb7b4a6f88a9acc669d7dc8aaaa5acd79aac9b6fdd78dd9ad5b8a9fc88c6687939
col13:   a27954ca77bc5b865aba98e98dba99cab9c68b8bbdce98a7aab9b9cc9b9da9bed88abaafa8779695
col14:   5979a55778b6b6cc4eadadcaa9ab55d8bb9bea8aa6aa4aac79ad9ea8d9bbbba769aa568c24b59fa2
col15:   6b8ab859987994d87aaac89c9bab9d99badbdb98d7ea8bd9ce8cbdc79cb8c95bcb97a98bc779aca8
col16:   989988b588546bc78b7eaab88697bd8bb9bba8dfc8c77eaedf5fbbb9faaaa8aafb6b7838b79879a8
col17:   55666998669a37ad54a798c9989e79a5ac6aabc7addb89fa7c8adcbabaacaaa7b49589a1c86c67a7
col18:   9b972ba98a8996be89b6bccdc99899cac9dd9a98baa9c99aa688dcbd98dccdb98c978b9a886956aa
col19:   9785759a77667ac7cbaa779c8889bccea9bdddaeabc7bbdcad99af9dbcebf5bb8d9aad7887565bb8
col20:   753948785b97a55c7485aaa4a5be5d9976da8abb678bc7cfbba6d5aacdbdaa5c7894ba8778b5a5b8
col21:   4766596767599dab8ca98bcd797e79abbec8c9a88abad94a8bcdba7b9eadcd59798acdbdbd2e8c69
col22:   b5bb848baa9778e8a7c89dd8a8c7f9ababb9adb49d9a7b9d88ba999b7bcabcc756ac99c8b8678a31
col23:   837a8869994ba75a57da799a4875c9b7b7767b9d8baaca78adc66cc9b97b63b16bc6c88fb559b754
col24:   9ad69b89987978ccf98bad5695aea9b9eb8967cd9bebb56e78c898b68a9d99c958db9a95ac676567
col25:   bbdbb46bbb8a898bb9789999a87a7e7a9a8da8abcb6e9adcffcb988acc969a9c8ab6a6b76d639975
col26:   96a6a9e9c89b9acba6b8dde9ca7ecdabcfefd8c97c98dbeaeff89ae7dfb9d9bcaf89e9a7ad975a7c
col27:   95899acbafccadad697e7baacbb8bc9dbab79ed9aecf9bdb8bda7cabbfbeeb8bccedb7cafd8ac845
col28:   6cbc899baabaec97a67fac9ccdcfe9ddedb8ebeace6fabdbbbc5bad8cbf9d7babbcf8dbbb8ae7aa8
col29:   8799bbaca8998aac9b5b9afbbcab9fdadac6daceaddceacd7c99daba9cfbbd79baafdabab5787855
col30:   95973eb6e6bec9a89c89bcf8dd8caaba9bcb7daeaf9789d9daaca7baaaccc79a89bca9bc7cb6dc9e
col31:   f69caaad7caadfcc8cbd698efdbcd69aeeacb9cbcb9b8cdcdd9aaedabdbacbcbeebac7cc9a9b8d5a
col32:   c4aa88b3f886a9dd9b8ed8c96beae9edddd9eddaae9dbbbbabbccbec8fbfbb5b8fcaaeba8c9aa96b
col33:   8b8aabb8a8b9ba8878d78f98adacbd8ffbfcddebb7bb8ce9e89beded9dcbcec87eb9aebb8c8c9984
col34:   9699a8bbb9adcdecbdbcaea8bfbb99eaaf9fed7ac86aaa9bdbabff8aaeda8acb6e9e7dba8c7aad9d
col35:   9bccb8a77a8dbab7dc9bbdd99ceebbdebbaabaacfd8edea9cbc9a9ca7cbfffbabdfa9a6999a87faa
col36:   6557a6daa9b899b6eb7bbaa9caf5cea87aa8faadbbdebb8aa7ce9dfcc9aafa9acaabb8bb8aa8bdc8
col37:   9897acc76a9c7bb99baea9bf9cabedf59fd9cabefe9eeedfbeacd8afd9ab8fceb37b9a7defb9b5b5
col38:   b778a8b8aeec97acc9c8cbfbaeaed7decdfe9cffedaabcb5fbbbecccac8cabcd8bbacdb99db99da6
col39:   f7879aa858adaccdda65bbecabceadefceabecbebcfbcadb9fbdb9adcfcffadbfd7d98cbcb9aaacc
col40:   57697a6bbeabcbb9b899dfdaade697bdefddfacbed8c8feaaaccbebb7fcaced9c8b99dabd97a7b99
col41:   7aa9cb6ca76a9a58cecb88a86fe7faccab99bf9fadea9b87aebaad7cd9acbebab8aa79dbd9c89cb7
col42:   a9ba679a9eabe6ccb8b999facb9bbacb9ab8b9dcfdfddbe9a87fac7dcbaceaeba8dfbd7dab9dc97b
col43:   c97997ca88cdba8997688bc999cacaccbcebbbcfccdacdbdc6e8baa9eebd7ababe9acaaad6cc6d78
col44:   9a98b9c56b6a7c98bab49acc8da8beedfdeecfefcadcdbdce7ebe8dcbadcc7cfdbc5a96c9abf7ac5
col45:   b599b7bc3eb97a5acd9a8dc9dd9cadab7ddbaefbb9ddfabad58bdc8eadcdac99bcede9e2bf99eabc
col46:   aeaacaaf9b7b9ada9dde9bfb8bfcfebfcc7febcddc8d6ccbccbceac9faebcccd9c7cdadcb9e889a8
col47:   a7976849cda8bc9adc8bdabccdabac9bdce97afaabbc6dadaeacda9aabcbbeabbd998659acbba99a
col48:   79698b7bd899a9c7ac8d8bcbcdea79b9acbebdfabbebec8a9b8aabcedcddbdbbcd8bc85ac7bcb89b
col49:   d784cab9acbbbeba6af9c9eeebdbd7edaeeeaedc99abdd6d9ab9d99a9cfbe7c6a9ead79f8b56b85e
col50:   665596c87b79d689aef9bc97a78dbcba7bcdae999bdac8cabbbbccba99bcb9ebcace8d7a98db8d8b
col51:   3539498966849a967b8898894863999ebe7aadaca687fca9db888dabb788c7a8c9795ca3646a6cb9
ROC:	 BPix_BmO_SEC5_LYR4_LDR19F_MOD3_ROC1
col00:   493955647458977ca7978bab75997655976c6b6ca9796a37839a8839a7a956cc78b747388685c576
col01:   87c52786b48c7666dcba9787b9b6a5aba83c8699c797b7a66c9b9698bc97b69a9755259ae8796868
col02:   5985a4988a97a56b9a9e8a79aaa98e97ab8ab998e9a8a8b8a9ab64c67b978849a97b97a657988765
col03:   75b878978baca7699769779899a8797bb99aba4b9c874bd47735a59789aa989e879b7c7847887998
col04:   94a8749669a5ac7694968ba999aea6aca8b9a78b8bb6c9d78999ab7b8ab3987689897d86a3667834
col05:   a49697586a4aa87a89859c7a7ab77a9c9886c5687c87c5aa6bb3847bb69bb99a8b69f86b5aa5479a
col06:   672449975da959ca9a9879a9da9f886cd69ef9badaab76c5b8b689c9855788589a77655a699948aa
col07:   9367956a249a96c8db9589c7bc48d988c8b899b5aaaad8789aaaa67ac899a5a89789588b88878995
col08:   c89a9aabc7c7789a5a8c9cabb97859acc999a8b599b99ab4c6ca7aad756a6e8567d9476a69aa9772
col09:   898aa98d6b499799a6a97896cc4a9cc9aea8dd99b9ae58e977c9a78b9b8d88b7bab7a567ba988997
col10:   bb768873777ba86cbaba78cb69895cba9bc97b979c867aa7ba6b59557abc6cb987accc7976b94859
col11:   64b3675b778a464666c8ace9b9c59afaa99b9cad9a98a8c7ad7589c89589db88a8979da7869b689c
col12:   8726866996949a99a667a59969bba8adfbcfbc8dd97c7987ad28a968a7b7a877ddc881b79766b946
col13:   bc676696676baa857cd9d96d997c4cade589c8965aac4a59e89bdba979aedd9c9b976b83a78768a6
col14:   5a449868a9c99a79caabaa9b8caca998996aa7989abebac9cb739b8b8b9b4babb8549b8975678676
col15:   d16a64779aa679879acb4589679aad7a4a9a99e89899d9e8a9b6788ad8a9eb687c89766c676d4875
col16:   ac6ba7a995b7c79acb7bd7af7bdca77faacb8bcd8ba976c7ecdba8d9ba8d7dcc887687c7977aa978
col17:   b8975577a55a9779b64b89589ba9a8db88ab95ccd8b8d99997a9db8d9f79ebe49a58ab8979898775
col18:   b7d994a9884a89cb9b99988d2c449b879f79a97bbb9b987a9afeb9b86b779eb8b8acd48c84737855
col19:   34a688b4849989bfcb9baa8a778699bb998dacc8bb8bca77aaac7bac9abd9aebb6ba4cc8ada796a4
col20:   66478a54b872abb898abb977aaaaaa6bacc96a837ba9988ab976c8c58da8a9999588c67aa98d5775
col21:   8d7885689596569889ca7aa7998c68adea9a89a976994ada76c6af89a6a7c9ba9c9d8aa987a49878
col22:   ba88a9887998a44b9875a6966ab8a5b9f68bca5aafa7d89cea7d28768e8a697b8a8a48abbb7cbb48
col23:   97b7735b577bc8a9978cc77b8d98bcad7a6e9a9cc8cb7bc9b6a65b99ad68abb86b9989a871858a4b
col24:   aaa387879a997c99c777a9cfa9a8d59ab7adab8abda8798c97dbdb9787aca85a8c6c946aada54498
col25:   8a765c7a79bb97dc8aa7b6aa896c7ac8ac567ddbb799e698faa8babcad4cba789c9578a7aba5dc7b
col26:   69aab6af8aa9ab997b78a989b6bc6dbbdeccdaf9adaa79dfaeadbbdab9c8bc78bad99b887c97a69c
col27:   558a8ab99c55767a83aa6bb8bbcf6ba9b99c8d7edf9cb9c8cfb99bd7b578bcb7c87a899a7aa58db9
col28:   67a753757996bcb8baa8aadcaa6acd9eccc8fbbd8aadbb8edbdd8999afb88cd98b7fb8ea87d8b9e7
col29:   b71b8dbb888bdc8e8e9785c7a9982b799dfa99dea9de8d69c9da4bd99c95cb9bdcbaadbd878dba6a
col30:   98ae777c8997beb9a8dc6cdcbccbaccddcbbdb9d6babccacc96d8d9b7ac9bb8aa959bca45aa9ab49
col31:   9a99fa98c8ab8acaccca9bac9b9acbaaaafbadddacbbed8d7cdceeacc8c79b98bac7ba9c88dd329a
col32:   78bbc8caacceca59cebab9cccd9d929daafae89cdb99dcc9b8ce9beacabcd7babaabd9bbbe9c9c88
col33:   ab982b9a7abbbbbbab9a7da7a99aacb7d79cccd8abe8fc7999db9aca9d89dab98bbcacdaa779a8b9
col34:   797decadcbbacb8bcffdcb8ebadc7df9aabfdfeca9dcbb8cbbacdcd6fdffba9bd99ba7aa6cab9587
col35:   db69dbbacceaf9dfecbedacca9c9e9befbd9bbbcaad8cbeb8bccdefbfecd7bb598ccdabc89b8e977
col36:   db8bba7c8fbcbbac99997d9ce9cb7f89bedbbdabb8facacbb95c8c9cacccebab89dbbaccbaa9a989
col37:   b9ba7989cb99bf9b879abaaccc6ecb9bcbf8b99edfbdffddaed7f5aafbacecad88bf99bfbccc8abf
col38:   9c6788cacadbacce77ccdcb979fccdbdeec9b86ac9effbeebfecfe8ed8bcdfb9f6cab9aa8b7c5aba
col39:   d5797cba999ddbfca9ddaacadb9dda8affcdbabccacd9ddc9cfdc9bdcc86fcccecccaa7bbca7b8a8
col40:   79ca678cebcb9dfdfcacbdacdeeafabaaaafdc8cbeadccfecbdbbbeac4ebbedd89accfac7a85acc8
col41:   8e7fbcbbebaaeab8fbaeccdbb9fcbadddcbbfbdaf89f9fdccfdefcccc8baeccaacca8ca9caadcdd7
col42:   f9bdcc9cd9ccaacabaabbafdee9cddcccd8decdcaf8beddfd8f9aedadfbcbce9bda89ee88a5885b8
col43:   dcbbce9ade8bcecca9c9ed8ecfeefaccfcccfddcaacfddfcebdcd9ccfbcdb9dfccaad7dfbafcad87
col44:   b9cba7a9baa8bd9ef9ad9bcb9cebd9edacfceb9cbefbbf9cfafccdcebfaeaabcafd88ad9beabc589
col45:   a8d7badc77ad6efedbd9b7bd8adec9b7ccdd7eba9efbe9ddb9bbbedfcad8ceb8ebfccbab9da8caac
col46:   9caeb89d9eabdacffefcdcc7d7cfbaeaccc8abe9d8eb8bceecbdeefacddedadba6ed9e8cbea9caea
col47:   ccaacda8bcadbbcdae8dfcabccccabeaffedcc8cbdabfccafafadddd8fd5e7b6d7998e9a8be6bdbb
col48:   acb9ab9b8fcb9baa59abecdbb9baacebdccdfdddbedfdceaecc6eefafd8bb9c8ff7a9faa9fd56d9a
col49:   bb7abbbaaaa9adbfeeedb8ecdcbcfbbbdbfdecb8dbadd9cfdbecabfdddcb8ffcbbdcdbb6fddcab9e
col50:   dcabb97cbb9ccbeea9cbebfab8febbdffcfd8eddcdacdffabffcafc7d9f9dccf9f7cd9beaacb6aca
col51:   9a7eb7dbacd97dafecccceddacecb99fa997a5acdeeabab9cacbbfd7b89c7f99cbc98b9c5799ab87
ROC:	 BPix_BmO_SEC5_LYR4_LDR19F_MOD3_ROC2
col00:   99ab9997a9cbbb6aa98ba7a9a7a9ababadb9a9ab9abacbcab9aacabccbc9aa89b7b5bcb98d87bb89
col01:   bb79daaa799aa9b8ac9dc8db8ab8abaadddab9adbcec8ade9dbbdafcabb8dcc9dbaba99a8aabbaa9
col02:   89abc9cbcabc8a9bbacabac98bebccbcc9cfc6baabbbc7cd9eaccaababdcbbc99adbdb9a9ac9caba
col03:   bbb9ba9baaa8adac8b8caab9baaacedacaebbcde8bcaada95acacbdcbaabaabb9ca9abbbb98bbca6
col04:   b9ddad9dc899aabaacda7bcbcd7bacbadaecbdbbc9abccbeaaaccabbdccdbaa9accaaaf8b9cc8a8b
col05:   cabbbb89abcab8979babbbbb9cabacccacecababbbbbecbacbbbabbbc9ab9bbd8a98bc8bc8bacc9a
col06:   9c9b7b9dca9a9accb88ac6b8baabdaaa9caebabbccccbababbb8a8ccca9caabbdbeeabd9bcbebc8b
col07:   9bcbc99999b7bdbac9bcbb8bb9adbcdaddcaebc8ccdccabbbb89bcacbdddcddbccdbccadbac9baba
col08:   b989bb9c9c97cc9badabdce9ebbdc8ccdbbaafbdcbcbad9ac88abaccc9bbbeabacbbbbabc9ac9ac9
col09:   9cb98aaaa9aaabbb9b9bdbbb999cacddccc9cbbaccafcaccabbdebacaccadbbcbabbb9aad99dcdca
col10:   9abbaa9ba9baccabbaceab9dcab9aa9dad7bdb9dbabcbbfaaddb8bb9b9fbccaaabcbaeaf798bcbab
col11:   ab78c988bcbaaecabac9dba9daaddccdbadcaacddcbccfbcaaadbadbb9cdabaaaabbdabba9ce67db
col12:   ca99999ba8aabe8bccc9bbcdc9bbccbccdccefcdccbceed6bbe9abbbacbcba9abac9aacaccaa9b89
col13:   ae9aad99c9abadbdca9aaaacbdbcdbcbbbdcfccb9cce9acdacdda99bbaae9acf9dabbadcbb9d7c98
col14:   abc99b989dabbacabaccaedcccaa9eecbbadcfdcabcbea9ebbeca9cb9badbd9f9dcadd6acadbb8aa
col15:   6adaaccbeadeaeacc8acbcbcdbabbcbbdcccdbbcabebfdacebbddcdd8dedacc99b8bcbc9bb67bbbc
col16:   ba9d8aba9aa9bbdecbcaaabacbecfdbccdbfbdfceb8ccdcdabccbbbdacadeddcbca9b9dcadbbaaad
col17:   8abaa8caaab9a7bcaddbdcbbbbcd8baaacccddbcbadfccbdd7caddaebbdae9cbbcacabacbdcba9cb
col18:   7999d9aa9bababb8cca9dcb8dbabbdcb9bacdbd8cabdbbdbeccebbdbbcdccecda99cdbac9ad9d9d8
col19:   7bcbab6cceaabbccacdebccbedcbbb8bcccb9cbbebecbdcddcedaaedcdceccbaccb9bca98ca9bcac
col20:   9bbaba88aa9abc8cb9ac9acddbab9accaedea9dcddddcd9bedaccbbbdcdcdc9bb8cccb7bd8bbeaba
col21:   b99acbba8b9aa8edac9eb9c8babcaddebfabfebab9dde9bafeacccccdbadcbce89ccbd79cbacad9a
col22:   aba8babaacbbbab9bbabac8aabcd9dacaacbacddddcdddedabbcb9bcaddcbcccaacebcbdcacaacb8
col23:   b99bdbaabbdbbacacb9ca8dad7accdaabccdacbebedcccccceab9cdbceedbaccbbbcaaad9cd9bcc8
col24:   9a999bbabbd9ab9cacbc9dcc9ca898beaccdebd8aacbccbaffbdaa9dbdcfcbbbddbcccbcc8ddbc8c
col25:   9b9aababdbabbaaaab9eaeacdaeccbccd9cbbcdcdde9bbeccbcbdbbbde8cacbcbadab8cccbbbccba
col26:   9cafaacddcd99bbbdcbbddbcdbcdccabb9cdfebcecdcadfccecbdddbcbecedddeadbcadb9cc9cce8
col27:   dcaa9bbdbcdc88dbbabdeddcfceef9cbceced9cfbaebdbeaa9cbde99dcbfdaadbcbdbcfdbcbdbebd
col28:   c98ddccded9dabebdebbed8cceacacecddebdfdafebddcbdeaaeaeeeebdfedcccadcbaeeb9baaa9e
col29:   a9dedcccc9c9bdedcaaadbccbdbd99cadbdccfdcbfadbebcc8d9cbddeccdefdcdcbadadddcabcd99
col30:   ac9bdadbc7ccacbcafd8ca9dbcebdafdcbbadbbbbeedddecddfbfedbfccccdbdedbbcdedbcc9eaeb
col31:   bbcbacadbbecbabcbccbeedcfbebdccfdcedcdbdecbdefefcddacabcebbeedccfcfaedcedcdbc9db
col32:   bbccdabeddeddcbdecfebddebccbdfeddcbffcbddceddeebcefcedeeaceffcb8dacc9edcdcb9adda
col33:   bcbcccccbdbceaebbbdcbcbbcbddebacdecacfbcebeeddbce9edecebecfbbbbcbcfddbac9ccdadcc
col34:   adcbbcbcddde9dcedddccebeefdcfbddccedecddfedecacbfcc9ededddeeebdccccaecabbcdcfdce
col35:   facbbbcbbdba9abbbcbcddd9ccebccccbbcdbcceddcffecedcbbbffeceeeffdcaccecadccdccbbed
col36:   a9dddc9bccbde9dbcbdd9eecedcfcddfddddefcdbdcdbfcafdeeefeefbfdfed9db9debcefbdbdede
col37:   9ababbaecfcbeeaacdbddddbdcfcdbbbfeddddddeeefedbeccdcdddecfdfcbcddbfefdeeabedccca
col38:   addacbbbdcccdbdcacddddebffbc9ecdedcccdfdfddcfddfbdefebcdddefefbedefddcdecccaddbd
col39:   ebcddceacabcdbafcddccfbeddcdbedecccdcfbcceddfcddee9eddedddbbfbbbfbdbeeccbccc9ebd
col40:   bdbecebccaebbebbccadabfdfedfceeeebccfdafbcedcceccdddfdcdecddeeedebeca9bdacb9caba
col41:   cbccbbcedccbbddbccebefccccbffeeeedcdfdddcacccecffcfbbeffcddedddfecbdcbbcccdabdc9
col42:   becdfdaddeccdcdbdfbcb5ddabfcddffbbdbddcefabeacfeeefdedcffdac9cbeceaddcdbeeddccab
col43:   abddebfedceedbedbeafdddd6ebedecdddeadeffccbebcecdbfccdfeeaecedcdfddeeafdbfceedcc
col44:   dbbcdfddedebaebffefddefcfdddcebbccedcdfeac9deeefddcecbdceededcecddbeabebededfcce
col45:   ccccebcddddcdbbebebdbcdeedbdedbddbcdcacefedbedbcbeeddcfcdfddcbfcedddcdbbbadfccbc
col46:   dbdebcdcdcbebeedccbcddcc7edcfeddcbeccdddceeeddeccecdcdbef7aeedeeccbbeedccdcdffcb
col47:   dbdcdcbdadbfccccdddefdccdcdbfebdfededeebeeeddffdccfffe9dfdadccdbabcbedeadcbabace
col48:   bdccdbebebed7deadbdceeedcdefdcdcdedfdecfdfedefdcbdcdffbccefffeeedbcccdfccebccccd
col49:   dcaedcdbdbddccdbdcbffeccedcdbdfbfdeccdcdafafedbcddfeedecdfcbcccfdddbcdcdfcddefce
col50:   cbcebdadeadeaeefbbdcddbbddececeeefafccc9ceeddfdcecfcdedfdbcdfdcdebdeccdbfdbceadd
col51:   ccbad9abbcac9ebccbabdbdccfceaabbebbeeecbccdbedddbdaffdcbddebaedaaf9eabcfdebba7cb
ROC:	 BPix_BmO_SEC5_LYR4_LDR19F_MOD3_ROC3
col00:   9877a879388b39b8878c9a678aaaa997979a889cba779b5976b789785cc679586abc6887a9579445
col01:   74b877b98a873bb6c7b899d6b8aa76ada7b67a99da7b9cbbde99d8cf9ca9a8889a997da78d958923
col02:   696977969a689997aac9ad9c8b995aaaaba97c6899887675acd9af8cec5788588db89cd57a47776c
col03:   b967a867656cb67889ac8d884a28dcbc9bb89bad8bdecaaa95aab897c85a9c39d7b597cc9ac8aac6
col04:   66c9b95589888998aaa89aacaf979a9b7cb88b9d5b9caacb6ba89a8c8adacb7ac6a986c87bc65787
col05:   94878777587a92577cbb9b8ba8b9988a8d86aa99beba99f7db47bd9b99b578a6e9c7ab9a9a8679a6
col06:   9999596847879b9a989bbc8a6ac9c6a6988999ccba8a87cc989c887bccb597bb8a6a979b888b7aa6
col07:   5725746ab8b9bdd96b89b897b9a9ab8a586acd8cba6acd8aae8bab99899ba8aabac86879ae6a7865
col08:   a69886479b8a5577b977b6cb7c7769aca7c99bb9a99a96caca89c89c7f7bb996ba869a879b876c46
col09:   c8697b87978599a9b8b86a78cb98c7aa8799ba9acbd88bb798adab79bc6bccea68e9795c775b6b98
col10:   b76586989695958a567a9ca87baa48a9ceaabaa7fea99fb9b6da9bb98ac786a5ba99876bb95695a5
col11:   26646766a5675987bd7587c85caa857a7abc78889daee878b97bc7789aaae989799bba7564899bb4
col12:   a78996976ca53579876bde8b988daacdadad886b9b8978cc9bb6897c7d8bb9996bda9a72667d6ea8
col13:   97757779ba7868a7996a8a7698d9adb86996c8797b4dc8d97977cba89eeca4cbcb967b8997aaa99b
col14:   7a55b86888677977c95859a77a58b7a848b7b57b9b7ca55998a78ea3acb77787a9755cc9cb79bb88
col15:   658ba95874b667d75b89888c9bb85bbeda7cdf8da856cab9ccbbb79accb7fcdd79a7968994898c96
col16:   578834668c7a6756957a93899787c586cccbea86c8babaa7a9c8ad4bab8bb9c99ac96abc9a9bc6c9
col17:   876b3435a98869b97738a8a5b86778a6b99ab9a9b7b9ab988a88db9aca78aa77a6796a657ba67a65
col18:   a958a9462968d659d6d679898554da8b9a77cab77aaab6c968ab9bdbb8acad98959af8aa7b58565b
col19:   8857196677447997659788b78897e9b98b8ba8aa98d9b9bba779bcb9a7aca8954879a7575694ba7c
col20:   959625846675568a5787abaaaacb79c87d989a9489ad789c6bba579885a8b7bbac67a6ba8395a658
col21:   459395586876668749998978a99758c8896948cb6989ab789a8cacd9ee9af586567dbca8994c7943
col22:   59777b7aa8689677938987957c28ba5f88ca78aa9899bba599a74b8ab5588a86bbcbd769c72aa4b7
col23:   24775741957a38388687995ac77b98a96a8aca86a5585c7a78aa89769b96369996693ba788a98986
col24:   85934a558679437a8a659859a7abbcaa895b77bd68a996acacad9788caaa98dc8bd6a55899a68a98
col25:   88388848486a68682b997774bda77b86bbb6a98a9fad6cb96bc9a6979e8a9a958a846fc68c887775
col26:   8794767887959877bb977b5aea68a9a79b8d797bdcc8df9b7a999baca6faa9c89bd477b9d877ac87
col27:   677a7696597763a49a2a77bb887a789dace8c7b9cc9bacb7cabcbca9cccb9cab6dc68978a89ac99c
col28:   64a87a9687bcb8abac69a98ab8ccb98a6daafcbcbbb9899bab7fec7c8bd7cacaab5acea68bbabab9
col29:   785787a373a6879b898c7d7aaa8c97ba89ecccaaa899c8a6ab96baaadcac8f75679a99c6a89c7b8b
col30:   89a74575e4799697c9658b7aa9c6a98dc8b9bb97cab9a8cbbccdcea8b97beda65d9cb8998b98bbda
col31:   9486845c8bb89976aab49aaab4ecd7adcebbaca999bc8ccd8dbad6b8caaba8c8a98a9989ac6b98c7
col32:   aa779d888babd7ba7bca7aa86b9dc988ba89d98aafabeaccfbb98bababbdacfa99a7acc9ba9469a9
col33:   8973957997b899bd88fb3c9b9afd8bcabb9e6dd7bb8aa9cf9abb7aa5a937a9cd99bba8aba97b4d9a
col34:   a85a87c867a792bbbbb6a97a9bc96cbdccb99cbfe9beabbc9bc9aaa8daafabaa4cabbcc849ab4998
col35:   9b74b75dba836b69c877ccb9b967dab68bb89dcccdb8b9caba8b89bcdcb8b5e97bac7c8a599ec8c3
col36:   a8787788159848aab795ae98fb9db5c8abcecdcde7efcba69b8caa5dbccd9aaaa9dba57a9af8aa84
col37:   7ad4859879987d89ba5eedacb9aac8accec4799dae7c9a9cab886c9ac7b9bc9c8ec9a7985adacaa2
col38:   958aa77b7aa88884aa7cc7cd7dbab8d8bbfdbbcbc9cdcccd8b9adeba8dfbaeedbcf7b8a79a7bbba9
col39:   a5899b98998ae5aa88dab6bc8ba9778bebaba6cb89ccbeabb5a8a9b6dca9cbb5dbcbb6a78c74baa5
col40:   88eab698c48e9ad6b99b8cdbb8bbadcb58bcaaf99fbce79bb8bb9c999cdaa7bdc99bcab837bb8788
col41:   899578889a89e95b9bdb589ce8fbe8bbcc9bdbac9c789dbacaaaac6bbcfa4aecb7dac8e697d659a9
col42:   975656a89b7b86c87fbbc9a9bbbe6cacefacdbdb8fccb7caddb7d9ddcd9abcb7bda7b88688ab94d6
col43:   84768468678cb979d8aba75ab86acaa9ba6ba9a88db9c78baba8c87e99ecb588d8ad6a597ea9dddb
col44:   77736c8a7a97b9bc7858b9d9ccad9bceccbdabecaeabba9b9ea8cdbc9dfbbcdbc9969c79957977c8
col45:   97659786baa7a8b79aa99768e9966abdb9c6ac7af5abbdaa7bcbb8968cbadaecb94ddba59aaccbc9
col46:   aa7bc887597d6aa818a8a4d89984779aa766babaaa8dbacabb85caac8e7dca8ae9a88a97c8a99c93
col47:   7a578a86bb64cb8a699ab55ab6bea79dba6b7feaaceaabcbdebccecc86b6c99a7bbca6987999a983
col48:   93a9786a7a797a5ac6569ab77d5ddc87c99b8c8bcd88da9b9babb8bbb8b979aac579886c64c98b73
col49:   7a297987696d59bcb5f698988b97a8dce9957b9a79dfb99a8c8fc8db7e8b68989d998b8d8baabaa9
col50:   97c7bba764c9bb59ab74cbb8a98a898b78e99ea99bbabbacbe6b86b8fc8daedbc7a68bfd7bb78f99
col51:   9557565354459466a646476a655396899878b77cae8bab7c6669787c775a7b6b8843766898177943
ROC:	 BPix_BmO_SEC5_LYR4_LDR19F_MOD3_ROC4
col00:   6354414748316477b6758765653565879945656566a68844888674a55967149755854574743ba853
col01:   862aa8785969b7877497565a95825867688884685a88b785a87775965aaa6972aa56664987676596
col02:   67b7b6278574887366984758a23a548898355765b87b7988a4898b35a269c67986677359a59a8754
col03:   56648745a892488a7b84b678679a6877a76c7568a779a9689888477988797664667856ca794a6993
col04:   48685636814494668798c784a69257389b769a3a86a9a8b86594779697968668646b988498556686
col05:   8655537776688c6b8574a8a9b73596698482b986a755875586685aa986767a3997a78563bb935794
col06:   248669878877865977959974668d5a8947c9a88aa859a68d55997745c7768778b578cb6658498478
col07:   66359a686666996898a87b98a267b66895899859899a978b54787886979684589a9a747879797377
col08:   4458846975576647746a79a678576b9a66c69a549b838c98d778a6a98a69b7569aa57699566a7876
col09:   57365b8456567468957b5b468576a3878a8795778789b998a898579abb99555d5c9987767765aa95
col10:   91768795576675887865857a85a688796766967798a5886a79557886ad89a38a888b57786798878a
col11:   546368776476a56754768a76777865b684683957187894a4b9775699579aaa98abaa76977284a599
col12:   37183157a52639757478876975697aab586986889a5559659978898ca7b5838a78b9c96886636a96
col13:   352777998c786794476a5a98886688786659565a8696a75998959582869778c879c6754ab933d9ba
col14:   83533757a57847c5a77798a6c774a5a9a76a6a987697a85c468da979bb599395cc72933a879cb8a3
col15:   788388a878865778884a8a86466678488a569c999a99989964a49a688a87aa6aa47bc89875876aa8
col16:   3489ad484844768992986798ab878668559b9a8797396465bc776766aa88987aa766979a964988ab
col17:   834389548565887a88b848a686957866b4a67974c8a95a8478663a77748977998637776784866769
col18:   89288588ba859a8751979b65868577899a8877a9848a74998a6a778a496797bb89657686765986a7
col19:   56598674667a436a9b893778675995af7978a8979ab9a78949b84caa9a689b89788a95aea7b396ba
col20:   157566578899b7878488c5b38bc599787b79b8894738a7b6c6aac9a59868777a7cb8799c67687686
col21:   77724699746a59c85866b75566b9969989b986838a76889c97aa8756697abb878975578887928857
col22:   95a55968b87671a988ab9aa859a7ca98bcab58658ab88a8ba54897869ba888c69a7979957898a878
col23:   6285564a7b5545aa6766854a8aa78946a86ac69a859386959b5898b6b9889a996574a3678a9a9473
col24:   675454a67655668756c669667586694aab7998ba889acb6bb5cc888879c68578969596589669bb79
col25:   abab8b86baa3b88683b8b869a7aba9d779c99798c7a6688bb8a9a8b9b78a4ba3669b995a9d8a8ba9
col26:   86b787699694b98ba98c8796f5f79aac97c7b8cbbaa8bb9db8aa4da8b7aa979ac978989bcada8599
col27:   891a87776abcb96c88b8accaaacbc9cdc5fd7b9aa9bcb6b7cbab8a9bcd8f9a899aa975da888aabb9
col28:   a7578a9c7caab59cab699a99b78898b8ad8d99888899a78bd9bbc69babbbabb7c7ab9acaab6cda9c
col29:   5b767878a97bcc99ad983bb99ac8c9dcb8cacd8aa96999a8c8ca9b8b77898aaab898c578898d5cc6
col30:   875688c99ad7a979a59c98bcb999894accb9b7d9abc9d77ae7eaaae9c9a9a5aae9afb7e7a939ec7a
col31:   bb69bb867a8beb8bac899b9aa9aeb9d8dbbb9a9dbb7abaad7bcbbadaaba7deea9ab98dba88aa98b8
col32:   9a8bb6aa8b8a8aba9dbedbac9bafe9bb79ccacb9bad9cae7c9beabcb78c9ceaa9bbacdcd8de8aeb8
col33:   8699aaa8789ba8a8fbe99dcaadb999c9ba96eccb9adb8c8e99a9b9b9ceba8bb9e7fca8c6abbbbb76
col34:   89da9babbcbc8e9eea7cca9bb9ab9fccb7aaadbd8c9bb89fdcaa6ab8ccc9bdac98a7dabcbaac8d9a
col35:   a99bc7bb688fbcd9aabbc9b9ed9a9aecdeedddcacebc9daaf9ca8dfcbccbcbabcacaba9bbfaddedb
col36:   a864aaa8b8cb9df7aa88d7ccbbdc8aaba9bba8dcf9bbbce99b89dcbb98caccbcab77bcbb6fbcb689
col37:   ba96a9a5a7c99dcf9dbb8dccdacbae9d9bafd9bdfeafecdbfcbbd8cc99edbcbcbadab8ab8b9c88e9
col38:   99aba69cbbaab9cabaeddbda9cefbcb8aacbcfbbbabf8ceadbaaf9bacbbecdc7dcbcb98bbcbaeade
col39:   d8bcc8a7e79abda89eacedcbcbaac9aeadac9cadeabcba8ebcbcaaddbaabbcbced89cb8d77da8ced
col40:   bad7cf8b98d99b99eabbbbcb89ceeed7cdba8bba9dadd9cdbbd8cccc7fbdcfbcccebbacbb8899ccb
col41:   8a988c99abbdcaba9ccdacc9cf9dfaddcddbbcddcbddbdccdfaee9dcbcbabccebbbcdecdfdafd9ba
col42:   cacca97cbb889cc7adacbc8eed7bcdbeafc9afea9ddbdccdbecdd9aeb6b9bcc6ecdbbdbf9c8bffcc
col43:   b955bcbbb7cdac7dfcfc9dbddfbabadaebffdbfabebbaffcdbcdbbfebcc8fbebfcebdebadcbb8dfd
col44:   c9bcaecbdd97aacb8ca9dab7dbebbdce9aa99be7ef999e8dcbfaefdda9edafcdedeaa7ecb8dbdcbc
col45:   bed6be8d9dcbacacf9bcbbcd69e9eeffc7bb6fae9e8bbfcbccecd7fbabdebdbbdcc9dcaeacdddada
col46:   79abbcaa9cbddb9c9adddccbdefcce9cfbdcdecdbcaadabbdaebcfdbdcecbbfcacbab9eddbecc9fd
col47:   8ebcecfb79abdafbaeabdebdfbc99dcaaecfcbcbabebfccc9cdfbcecfacdfdbcdaeafdbb8bccdcdf
col48:   acace8b8cac9caabddcaacebedbbe89fffeecacdfefbedfeddcbef7ccebcffdcebcaacdafbfcbcec
col49:   ddcba8accbeeccbbabceeebacaddcccabffebebf8eeacfdbdcfc9cfcedbdbfdcbccddeffcdbdddeb
col50:   c8dcbadadebdfabdfeddad9fdeebffebecfadececfdfeeaadcabbcfdbacdcddfa9bcbbbbcdafcecb
col51:   a5ad9abbb7aa9db9aae9cb6ccdbeaecadc8addc8dccb6bccebdb98efcf99ddcecc9bcccdbccdc8fa
ROC:	 BPix_BmO_SEC5_LYR4_LDR19F_MOD3_ROC5
col00:   638a8936ba6579673b98878776686185867888978939a6776669776867996685579c75c847a56882
col01:   8846383552768a63b87678668ba87798a789a5a59a7b959d78997a89c9aa6869877c54754d799a64
col02:   7577c7867885b783477c99989bba889a949c9c8757a3a7b9a547a36fbaca8bb99898a6d937a89a8a
col03:   8a8487598d74c67ab86998c69c6aa887b99b9b979a898aa9888b78a79975a697b6babb575a7aa8c9
col04:   a669657aa59776a787a86899c8b7bab76bc887656c88aa6eaac886863bbc5ba9b9a4a5a778b8866b
col05:   d3285a55887ea7a758a787b7b6b785856a9b3bbba8779b889cb9b865b9a898a97bd97d666787ba77
col06:   776467b89776b87798b99ac86ab687895c8a46d7c7b979bbab86aac64bac689b7697777a5ba77d68
col07:   75158a59989858a996b9ab69bd59c6957a8798a8b99ca59769c9c86c8bd77ad79b9a488ad7d67bca
col08:   5684b6958683898a6c57e995a8988a6aab76988c87a458a7ba98a538798acb7989b787d9968b64a8
col09:   9576a37996a4667b98b8a8ddcb8cb79b88b9ab77aba988ca97b67a8cab96dc99baa5b9c96a878b67
col10:   4995c78663867aa9855c99aa96876b988da6aa8867b8999498bd59d78b93a9aa86898aa6799b774a
col11:   b4856587696b7778997747a78b4a7a6a8adc7b77ba8693a9399a9968ccb989c55a879c959c697a69
col12:   88767544568475ad665659b78bc6d6847785c85988b8bc27b4ba8ba8a9f86997ab4b988aaaa78795
col13:   98688a69c7b74965a89598a89b899b9a69db868d765ab58988c847a99ab98888c899b4e667b8b785
col14:   556676654977a654579c5698a6bc78c37a46949b6769b8b9967b8777cb99fba98b6d6a5859c7868e
col15:   6784687775b6aba9c7847b9bdc76b58b4989b79898bb668a89ad9d8875a6a4c79a9da8eba895ac97
col16:   85777656496957863868ba479ae9bb767aa8b7978295979889c9c5889ad9ae5bb6d5aa69a94897ba
col17:   5536b8165a9579687885db8aab88a97a377bac6c45a8b89a9b86cc97a7cc9b9a96ba989c9b679977
col18:   4577748694b8b665776da76867b9a6a9978aaa99ac55a6cc57a9ae8ab92dca9895999d8da7cbb8a8
col19:   7c54b94b9996596baa498da5a868f89abacd8785196d9985bba57ad7a69bb99a88a8ca9abac7aaaa
col20:   1687664a7a87877687879498aacaba79b88b68b98669a756998983953a56d9aa5bb29986a7c7a766
col21:   5697b69572a96799957b9b87aab89acdbaaacb8e9887a789379797db7bcbaad9b8a69a898cccac9a
col22:   8678766786497882b698646a87797a59887b7988c8ca9789cb6787796ebba8db9959597b778aa5ba
col23:   9657636ac6669858a75bb94978a9adba98a2a9a7b7cbb9b8b3ac886b48ad887c9acac399acb58baa
col24:   43545953b9a878b5a98b7aa48b484718c7d9dac8ab995e98979abb699758968869aa9db889998849
col25:   86869a578697c58888caab79b9587ea848d6ba9d8b88baec9bad98abbcba9eb9e89cbace8ea667b5
col26:   c97888ccfc998d79978d89bbdbe98eadb7f8aa9ccbada87cbabadadbbcbc9ccbb9b9db9cdd8c99ea
col27:   ca658395a7ca7a8e87996aa9eea4d7a87998bca8f97ca8eac9ccdbfdc64acdccae7beccada99ad89
col28:   9ab969a9acc95a67da9bdafb9cca79bba9ecbdfccfbbcfe89cba8aeacda899dc9af6fa79fc8fbbd8
col29:   54cb8b689879cba997c78888b97beaed8adccebcc89decbcdbd9b8cacadca9e9da587dbab98a7c99
col30:   576695985c9b88abb79dbcbc9bdc9aa7aceb7becebb8bbab89ca97dccaabbfadaa787dabeb7aa7b8
col31:   798b96ac6a868dcfb8a989db66b8a9ce8b99acdefacacbf9afddaaabadfa798cbcd8cfcaadbcb8ac
col32:   78bb9aa9bdb7ba9a878aab9ebb9bba8bbacbeb6efdcac9aafafacbdbb6dfcbc7cc57cafac8bbabca
col33:   97b9c6d6da9dd859bacc8ea9d7aadeebc8bcbac99987cccb769eb8abbbbbfeafbeca9fadbedcfd9b
col34:   88a86999aaa89a9a9ddeba9adbabecc9ba8f6ed8bc96debafae6dacb97fddcccaaabca99faba9db9
col35:   587874dcaa87ca8c9994fc9dae9ac9adbcdcecac7cf86aac89e7beb9fedcbffbbaac7fcdbccfebae
col36:   9b85a7d8fb8998b8da9bcab978eaebcf8cf8d8eccdacccab9b5aa9fbbbfcacfdf7aacdaebadebeca
col37:   8a8baa7a4acbc76dabbabacac77fb6cbbda9bdfcfc7dbdecccbccaaadbd9ca7d7ebbecb9c99a9bec
col38:   789b89babc6abcbdad7a7b7da69bac9daffadcbccdafcb88bbdbcccdddccb9c9acacbc899cabbafc
col39:   7aa5a7c8a6bb68baaa99d8c9c8b9bdedfaafcffdd9c9fbbcdaaaca8aba9dff9db98cb7ebadadcbc8
col40:   bb99c867b8b9c8bd8bac9ebd8bbecdaea698bbabbbcf9b8bdcedb8dad8fcce6bebc9dbcacdbcfb8a
col41:   9d67cbb79babcb87a97ccdaabede8b8dbaf74aedbcdbfcb6dbc99bc8adaa9efd9bbaecfceedd8fa9
col42:   5679acc957b88ebcf5ccec9d8bcbbe9cb9fdcb9ccc9bc7dba8bcea9bcb8abebdaade8abefacabb67
col43:   988cd7b9ada889db8daadfdeccfabfaaf9edcad7addddcffbf9b8fcce9eae9caccbbbcdbbbccacde
col44:   89866c79caadadb9999bc6b6d7badb99babdaabda9bacbdf99a9bcfcba9ad9ea8cbafcfaeaafbbcb
col45:   b64bd9eb6cd99cc99de799dacfc96bdcdafcaff9cccfdadaedbcfebc9ccbabbebd9ec6ddf9ba6bda
col46:   6bad6b9d8aab8afabb9abc6ac9e89bbdd8cb9ee9cda7cb9eab998faddb789ea66aceacbbb9cbc8aa
col47:   85a9eab9b9c9a8888bccbdddb7ecbf8af9aecdfbcccedcabbdadbd9dd9baf9acbb9edbbacced8b8d
col48:   bba96996d8c99fab8a9eabafd9adfdc9bbbccb7cfdaaacbadce7d9bd8eaccb4d8aa9c8d7dabbcfab
col49:   969faba9eacbacedaa98ae8cdccbce7edceadbefcdffedbba8ebbebdb8eabdb9cacd88afbce9bceb
col50:   ca9b97c89c5ebec9969f9ecdfaecfad8d9abbf9decddeaedadc7f99bbacfbc97adec7dbdddfbbdfc
col51:   b769e55c85bb5a988abc9aebcac977db7bc8a7dda88da98cec9c9cdaec99bb8ca8e9adba58a8a7ce
ROC:	 BPix_BmO_SEC5_LYR4_LDR19F_MOD3_ROC6
col00:   656431b9434579695599b4ba59973a2597779596a47783a47c9986aba9a949579745b66672798b76
col01:   98563ce8aa95997b99b99c9a9789dca9b856879a6ff6a79ae595898667aca9b7bbabacc4998db99c
col02:   9a6b76ac69c468378a8c9869bb699a5699dccc8ba8488d697587d99da8a9ab9baa98a9e5d96b8cc7
col03:   a68558c77868ab5967a57bb9aa8cb89a9a6a8bb9b5ab9ac62acfd98c9c76b8d88bac98588c89a8d6
col04:   66897488b71678cb597aa9c4b99e7a89bc7bc9c8798a898897da57cd9b989a9a8987bbc9b5de86b8
col05:   864763ba8bb8c66296a9ba64b9a47686b8fd678ba69dc7bbbf9c89dcc57ac85e88aac88a8872ac99
col06:   747886a9aa98cb9abbb88d8eb589e9e9cab8f888ad79ca9a44ee88979cc997877a599a89b7c78358
col07:   a859c76a97adb46ab689ad5aba65abac9d8dd7dcb9d5c6baaaac976abb99b78af9ac5b9bccb8b997
col08:   7b646a7a79948647735b9798ccaa8697cbeb9b8a78bfc777e8cab8ca8baaa9aaa74999d7ac8ae8d6
col09:   698996b65b747887c447c7c8aaa688d9aab296c8b89c999bbb9ad8dcaa59ba9b9e7d78bb3a96dda8
col10:   a7866589b28aca7879bfcbad8b7be98b88bab988bc9d8dbaacae67ab7a9a9eea8b7c8abc8ba89856
col11:   755679acd6ca9cab9b6955c5f56b849cbd89938ab9f9dbb9abdabba797b286c56a8ad67a99b9cadb
col12:   5478587b8ab749985d468a65ac9798e499988c998bdbe95669879bbac9cb779abaab7a7adabca9c7
col13:   8556887a88799777969d9959a9697f79bcbac8ce9c699b6be9eb99d7dbaa8cc58db9b9cc87bac887
col14:   18469a69a49bc798cc9da699b99cf5a87a7a8b6bb7bae9dc985ab9db8bf9a8558bcbbaba86ea69db
col15:   635977563aaaba97a9884afb779d8bc78b7e96ca6e5babd9aa8983c6779f997a7a99bbe99bbda9ba
col16:   9a755b85bbc8996687ca9a799beaccb7c97d9dad9c5cb599997a6ad58a69eae7e8d79abb7b7a79ab
col17:   174487a5a74867657799f8ba9ddc7a9b979bc8ab9bd99b95ab9bc7bbbb8d9a99d7979a6a6e5a87c5
col18:   7145979b92a384db6699e7bcaca5a9b8c6f99aabb8dbb789589bbac6bb39aa889865799cd6aab893
col19:   4a5786897c49d697b6599a98f54aa9bbb8acabe79c8b997cadda9a945aff899f99ae7aa9e85aad5a
col20:   65465689797869996f9ccb7ac4957bb9988797b8e9babfb74a9588c9aa9a69da99a7cb671e9b4ab5
col21:   54957c296c689567b888649b9bbba77edca8ba89dcc7a9a9d7cbd97aacdb94997bb799b9a6e68ca8
col22:   a5586ac4a779996787795a887b96a7db99acaa96b899aba8aa999b79a5aada8b9de9a97b59c8b7b5
col23:   689535654874bf769a99b2c6ba7a77a776c7a65d7399c6bca977868da78c5c67a6a88ab8bba76a7d
col24:   86688965b779d6d79dc96b9c8b4898acaa6bea69dac78b6a6abc98cbb7b6ecaa7663a7836b5cab84
col25:   5748748886bb99b657ea8e99bcbd8888ab7daaaabc8f8adc85dba37faa9c8dbb9abbaab499c6ad7b
col26:   58647ba8aa8b9ba9ac89bdaebd7cb79c4cc7ecbbba9fbc9c6ecc9cbe8ff8bc99cbf799dac8ec9d79
col27:   4a5975b7879b6369b67eb49aad8bb88cccaae9fd98a9aba8a7b97999bb7acbbbb8f89acbb9d9bee9
col28:   a79a949aa8b8acfdb8b8f99edb69b8acb889dafaadeea6ea7b9bcbbeca8adf59a87fc6b8c95c8896
col29:   7545694bb97a798a5dfba9aefeaaccdcc6abf6acdfbceaacac7aaa8ecebaf9a6c8bb9faaa6d69daa
col30:   375dc79cca7ac799baa8baefa7ccb9c7be9babb9c98de8dc8c887bb9e8cb8bebf76acb5888dcfebe
col31:   99862a7a95afc58ccbf87a8b9cdcbcaadc89cbcc7ecbe4bdbb98e8bcaabccdb9b9c9e9edb9bbddd7
col32:   b8799a7699a99b87bb9899ba9d88abac7ae8aaab98aadf9b8abdabb7d898e6cbabbb87bedfcbebac
col33:   878887985886c4cb8c98bbeb5dbd99779b88dbaf6b89caeacdb88c7b7a9cdcb97cf7db8edceba7f7
col34:   baa3987a968ba9bbb88b9b8defa96fc9addaebb5acb8cabaa95f9b9fd9ac8cddccacdcd99ccecaac
col35:   d878dd9846b7adcdcab8ccbcebdbbdddb8afa68caace9cceedbc8ddcfaadb7ebc8dcbce97a6c89fb
col36:   56c679a8bc9db8684a96e78e9aab98c9dfb5affbcabbd9baebf9c9a9a8a959bee7aafdcb989ce7e4
col37:   97b865bbb8b9bcc6d9b6fafc6bfabacdcbbdcedefba6bbfbadccfdcdbcbf6cebebddd88c8eb8a7da
col38:   68db8ad8a9c56abca7cfdeebd9cddaeec8b8dcf9ecadbea9b9bc89ba89aaddca9ed8aeb9d9dcfff6
col39:   6c58b86ba8e797a6baa9a8bbba6bebb9ab99d98b8ad9bd99cac68c6afcbcdcdbda97f977897e96eb
col40:   b9a6c9c9c7c6cccb9fadaacd9f6accbb96c6ea4adcbbdfe9daadefbfecdadaf8ecbcdbabcdacbcdd
col41:   8d75dc69b9a9b9acb8d8ca8afbdbbad979cbcfe9bc9eccccdaec4cfe99abccccdaebcabcceecbcab
col42:   97b7abc947bfdb6dcd9bebac686dd9acd8ad8ebcadca994cebac79aab8ed8badef9de9a5c9f86fb9
col43:   78b67a9a8977cbcdfdce8bae8bc6ac8c7dc9eadfabaff6bad9dae9eaecdef88bef89ff7e8b9dceef
col44:   5748a6a9c66bcaaabcbadfd9acc999dbaada9ebdbfa8abcffefccf8edaceccede7bbddcbde9bfb59
col45:   47875b8698ca899aa6b89ab69cb9ccc8dabebc7d9b79aada8fffbefbedfddfadcdcdeacbfbfd8fdb
col46:   9489b56a567a6cc7dbbbbb798ac79cafbdbbc6ffdbf6e899dbbbb9e7ebbaae86ad8ed897efaddbda
col47:   6b87e8693fd8bfb6d9cca88ce78997d9cbdcbdbd7abc8be8cda9cfbabffeecfbfae7fdc8bfe9caa9
col48:   84ac8d67bb7eb7e97cba798bac7cba9d9c8998dabbdafccaebeac9fdecbda99fc9febdbfdcdaccdd
col49:   999b9c98a9a89caef8aa7cc9e79cceaccacdd66dce9aac9bdbe9b99ddbdfaecfaabccb95abcdfefb
col50:   a56aa666e9b9797a8e9cccabbeae7ae8f8cf95b8f9fbffebbea99d9fcfc97bfc9b6deaee5fc8fdc8
col51:   b5579636476a9484886598c8b8887baa898987a9a8b76b9c9caa9b99bc9a8d7ed8afbdeeaa96abbc
ROC:	 BPix_BmO_SEC5_LYR4_LDR19F_MOD3_ROC7
col00:   7b73a3884ac8969ba9a4a7888c9ba9c8b799c6b67b9b558c9888966b7b6d84c4bb8998ab9ab959bb
col01:   94d7b9ab778ca6aa79786879cb7c8c9bcc8c5c8db6a2c8a398d7c6afdc8a9dd7aac7edb6859db968
col02:   778b969d98a689bb88a787abab6b689a767da7aaabe8bce79989ab99c7886bacabec75a8a87df8c7
col03:   874abcab8c977966a6d3ca9b9d9a826a9f96b9dbc8c68da99ca886d9da969999a7cbba9a9b97dba5
col04:   79a49fa6777977495a9dccab7957cada6eab7e8b6bb98aa99b98afaa8cbbceabd879b6a4d89b9d8c
col05:   6647b7a685a8b4899a9796b49598b55bb9b9a78febc5a87baa7b6bfdadeccbb9c87b77c97ed95c9a
col06:   d6b7b59c476698869889a89a7959d8b8dbbee7b8cba9a7bcca87dde899bc87cfb68e73ddfb6dbbd9
col07:   ab867966aaabab68baa99adec8b95bb6a8befa7bc96e6d89bbaac7c9d99d9d7bdbeac7eb9c89db9c
col08:   a79bea7877cc55b796b56badca7897efae98b85dfdadbab78dd889a88d6bfbada989dc7aca9668aa
col09:   a9589475b69895cbba86b88cd9eac7dbcaacb9ac986cdbbc9afadaa5bcb796ae796be5b7aba98982
col10:   79ac958bb979955d5ea4abaa89e8eeaaeccaa8cb98bcc98799c897a999d9cac9899bb8d588a8a9c5
col11:   c32da8ba96686a577bd5d76cabab778b9aa9abb98979cb99bbb9b9ab9bbd968999997abfebe6b9d4
col12:   aaa7a499997c7889a99a99a3f8ba98a69b87aa7db9f99cf8ab9978cc49bbb889bc8989ba6c967aaa
col13:   97846968c987c89bbfc49d9787c79e8bbaba789abca6dbc9aa868b78c6dfbba988a989db9c69f976
col14:   95779d9799d588cacbb88abb8cb8d8b98f57db87bbbdc7be6968ab9b98b778eababbba9ba8d7ba96
col15:   7765869967758875896678db9b4b7cd9a666d5f6ab8c6a45bbbad7daabaacbbab6b88d9bab85c898
col16:   379b578888ac7a8a77ecb7e9c9ca9b7be9bd6966d9d5ab9aa89a7daa9e9dba7667ad589ab6bbabc9
col17:   86a778599a7c5798a8a892a886897978a78b77bab9c79bec6ca8d78b8978d4ccaaddf9a7b96a897a
col18:   7965da85b9c8858a995b788c499a899c787dbbe9a9bccd7c29bbbaa9c9bcf698dbb776b8c9958b89
col19:   6b9889b97a39aaaa77ba9c8eda786ccc7bbc9a89b7b7a88a5ab98c99cab867abbb6ab9968988599a
col20:   75abc597496baa9a9a9a6368aab888a9ab97d9b6b9d769c99898f9bb9aa899a89b9f9abbac8ca9a7
col21:   54a573163b87bc77eba97297b9c9b5959968ab55df9c87ddc9fba887c78bc678abbfb6accc88a878
col22:   9dab7b2894d599bc39867b4d99ab7ce8bbcd89a8b4d999cca9cda5ba9a888778966b6aa89baad987
col23:   58374c76685957bbc7c876b7cc886498b5aaaa47a59aababc87b9cbac287c58ab98ad7cbc9db8abc
col24:   68c5a99cc87898a2d9cbbae85cc889bcbe69899a9caa97a8b7ca7bba99b99aac98adbdb8aa9aed87
col25:   6398837a696899aa8bb77a8ccdb6c99aaaeba9c9d979b8998b9ba88d99bfb8c48b88ac799ef8eaa6
col26:   7cca697b89e9acb7a977bddacacb88bd8cce8cdf9f6abdd8dcbddd8bdddacbddd8b7dafcf7dcaa5a
col27:   8758b89ea7a8858b9e856ccccabace96899dff599da7bebbcc9dfa9a89c9b7dadd9ca7bad8c9bc6e
col28:   dc7897bcb9e8a799b978ab9aca8cbdcabcbcbadac9dd7a7c7febd9cc999ecbec8e9dfe99d8cc77dc
col29:   b8b6567ab77d9dc9ebcac9c9adba9bfc9ac97ed898c9baddbe9bc7acaaacbbdbaae9bbb7bcd5679b
col30:   879ac986e79989abdcb86b9ed8ab8db9bb9aa7c98bcbecfbeb8ecbbd8cbbbc8beacfabbbb9dab8eb
col31:   b8678a7ca7969a798daf67fafec8f8abc97b7bf9abbda8da8bcfbcbeeceea7fc8acb8bba9addbbb9
col32:   ddada7a89aba7bea9ca9c9d8b8ca7dacf9d9beabf7dc8bdf99b8fa8dbcbcc8c98edbb876de7cccd8
col33:   bc89899c6aa3b8cbd7ebd688c7c9bc8b9a8babdc8aaa98afbec9acc97bebd899fec8cbcc8caa98a8
col34:   9babcc88979cb9edb9d89b8ceaeb9bec8b9fdfedf9cbbafda8e48aaca9ccbc9acfa8acb89ceaedfa
col35:   c8a6967aaa67ca7b8babac9c8bed79d8fca85bcedebafcbad9aadeb8cd7ecaabc7c98b8db49fcad7
col36:   baeab969788b9ca8d5cdb997bd8fb98e9ddabc9c8cbb99acdcb8ea98deab7d8bdd9ec999f99cdaae
col37:   b7598ac6789787cbaadb86dabddfb9cdbdc97aaeead8ebb8b9bddaacbabbdc9baa8bbcabeccbbafc
col38:   b8cbedaabcdbd7aac9bdbaa9bb8bdaacaeddfcbfad9ccacbebcbbabdacdddeb7bd6fad9dcbb9bcba
col39:   5a99b569c9bac8ddf779bae3ddabd9a7d8fbb9bcbb7bdabeda8978bbbddbbafb7a798e9abfd5dbea
col40:   bbb5aacaa9aca98ab8bcaac9c8ab898cfbc9f7bcafda99cea8ddeabceecdcb9baa8ecf9fe9bdfa8a
col41:   bbabbd867caaaac8ba8dd6edbaf8bbfbebbede9cdc69eebc9cadc9dddeacaa7addbbdfbbcadb89b7
col42:   6ca9dbb6bc9aad7ace9af99a9dbbfdab5baedeebc9ccabaa7ccbd9bd8aecbacafaabacaaaac9dfbd
col43:   b6d6276bdbaccbbfaac8bab9a9abd9df9bca8daaf9d9c9aedebcabb8bb7ddcfdddbbc9cabd9abbba
col44:   87bcbcae99accac6c7ab8abcdadac8decfa7e9eaadcabd8aaca7b7ccdfedfa9abeeffac989cdbcaa
col45:   abb8aeda8bd9997dc99aa4aa85f8ccdcbedade8db79ab78f9ca6aebbdcdf9afafebfabcbcacbadc7
col46:   6984a9989bccdc99cc8b887eea9bfb8bccbc9cc9bbdbeefafebafcdacfadafee99dc89bdddf8b8b8
col47:   bb9b998ab9aa8c9badd8afbc75fb58fdb7cdcdabceebcbe98cdfdf7eacbde99b9db8e7db9abcedab
col48:   bab98bc99cbdcdbdbdcf8aa6dcb8cbadbe9bffdfdddcddfbca8ddd9acbfc9bbcac87cfbf8dbd9fa6
col49:   a5cbbb8bdc8abcbfbe5baadadcfeafbcbbebddacfc8e8badbfdbe9eecedddcf9adf9ddbccd9bccbb
col50:   99c5ed89bbb4a9b999babae79cdadcfaacdebbddfdf9dfbacccffc9aeedcbdc9bdeefbb8dcb6af9d
col51:   8986a6bb99c987aacb64a9aeb79c67d7cee9dd8b87adbcb9fc788898aab9ab98d9bbdcccdc8b9be7
ROC:	 BPix_BmO_SEC5_LYR4_LDR19F_MOD3_ROC8
col00:   75878aa6a695566a976a999a75dc49868b698d6aa767b8b898995898bbb95c998967b9888ac99b93
col01:   b45799a7a89ba8a57c99cdb8a7eb89daa89ca9cb559989d7b679a8ec8b9a55a89796be8786ccc9a4
col02:   a98b8a8856a48a9d9796a67286abbba88dca8a8b8977968a97749d8b979d98897c8fa98aaa9ab789
col03:   a1575887d689997654a59cc9aa8b93c999a3ab88a9998c4aca96a5b8a9b8ba9c989a399adab7a665
col04:   5996a6a9877897a88c9a989be69e9aabc96baa9687aabaae98a9ca88caacbbb98b9b78c89ca487c7
col05:   66a496776996a85867caccb898a797ca8b97caaa5a8ea997895bb6b99acc978bd377a77969aa7792
col06:   a598689b9a7d98bc9a89a94da786bc4a87b78b79b8878d8bdca8bab7997db9b99769a8999988b698
col07:   a399ab56bb87a7b59a9cba798d9aaabadbcbca7c9db89ab997b8abc8bfdadb76d958c991877a996c
col08:   75b596b758b9559a89b5c9a7979bca8688c8db89b8c8a69baaa8eaa9cbac4a7a9a9897a475988796
col09:   999a49a78896b7d8d68689779bb79e9799b9cba99b8a9b8b86dda9c878bbbca9c9bd8d9c7857b9a9
col10:   4587b9a999a57a9d886a9a5857eb8bbdd98caaca79a6b6779baa99b4a8aa58d989c89459b9b5aa96
col11:   7bbb16896599c7c6baa99eb78b9d7a99b7adb78cbc7ab9ddbace9b6bd898a88997879a6a8a89c788
col12:   97a7446b7787a7acac79b8b53ba99b88c89df97c97fa798bbab974897d9ea7ea9aabccae9ba78a6d
col13:   78aa96ba987678a85668a7abb99f678ab9d6b8afbda6ec889abadd9ccacd6eb8b77da7b5979ac777
col14:   3387a3ea6cadb969d89c9acaa9bb9aadbccaeec7babd6998a8aa9896d47aaba89856a87a8ababa97
col15:   55765a6a7b5b9c4a5b8abba89acba8b9c89bbcabbaca95ad8a7e8dc77a7b997abab98e9a69b6b896
col16:   b769ab77689a8a8a55abcba5b9abbdbab9d8a9c6988c6aabb78ed9c8ab69ad98a8cc6bd7e8a9a896
col17:   47a596886ba799695697dba8999cab7bbcc8c9d9b7989dac7ac7b9afd3876a9988cd8969aba6a9e9
col18:   5446a786d7678588bb86a89b686ba8cbbb8b8abab98987ab6995aa889a9877797a8baaab984bb7a8
col19:   b695498baa9aa94bac968ba778dada8ccadba777abcc59ad8edcdbcaa9abab7989ba8a99ad8ad8f7
col20:   48a7b7477a7cbbab697daa93abb88a9859aebc8caa9dbc7d7aa8df7bac8e6c99a9d89b89bd9ab838
col21:   b67556976a95b8a9a8aa887c5bce89cbcb3bcb8d9d979798c8ddd79accab9db9cdcfaa8ca9c99869
col22:   86734897a976699948b7bca9c96a9a9baebacbac78afa79b9a7ca68cbcbcda774a899c8aa8b96899
col23:   66845796779698995a69ec7aeda98b788a86ca8b9ca9bba85ac8aa9996a489c8fbca5887dba5b794
col24:   75a4a97879678959ac773cbc99acd7aa88bc9d8c96aaba68edbfdaaa98a8abab5c9a8976b88897c6
col25:   86a87ba8aaa7547699a798bccbac6eaab8dc69d9a5f8d97ba9c9aacdc7ed9cddeadbc7dabadcaac6
col26:   b5986898a888c8abb58a9baca8bfe8dbc67bdabbdac9dbdfa9cb7bc8b99b9ebdaababcca8bd8eca6
col27:   897bb89aba887588d1deb8bcc8a8ab96ccdcdabc63dabbec89ea6cdfc9a8e9c9bbc9c9cbc9a99aa5
col28:   5ca8bb6d897b889bb989ba9bdcad9aafdf9ccaddbae9fdbbabbfbecee9da9eaebb9cb7dbc6c9bbd8
col29:   a5a9b7876aaabaa7c9bac9bad79acbdabccedfccefeeddddefccbcbddabba6bbaddc9acb9d9afb9a
col30:   ab7aa99caea8799b76a98d9dbb85ab7ed8acbccbdce7dfcbaedbdcb8d7bdcbf8c8ddbbbd9ccc8ad9
col31:   9c7998ec87c8dde8d99ecacaabbcbccceb8ecdac9cabce99acbcfbdebbbfdccbacdccc8c5cbdb97b
col32:   9a9c9bac9aca97bacdb9a968bccdbcbba9ebdfdbfcafac989c8bfccdcbdacdd9baf8bebadaadacdc
col33:   997b7598589a7767cd9bdc8bc59cecc8bbd7dca8fabc8ab79a9bbabdf8e9c8bbc9d9faeecaaabeca
col34:   97959a9f98a47a5bfabaedc69bdeabccedbadcbeedcfebcdfdcbdcacadd7cdda97d8fb9aaacccabb
col35:   898ba7b687b9e75ba8abbba9ccdadcbccdadcb6dc9ebccfeadfcfb8bccadfbcabffddbfdceb9aec6
col36:   789acabb7d99a778abdabdbccdbaabaaceebcd99cce9dbce8dccfc9ffccc9c6acdceadada9ccacfa
col37:   77addeb8abaab6b4aac6fca9bbaca9bcfdaaae8a8bb9eceecbed9caadbcdf69ecbd9cbba79daedea
col38:   9dab979abfce9abb5cce99ecbdacbdbffafccedc99aac9cecdaaf9acbcede8bcead9cd9cba9abdfb
col39:   9aaddaacba86b69a7ac9cbb9bcbaa8eafbbd9beb9bcbdefaddeddecbaea9caac99ebafcbbac8b9d9
col40:   649b9a879e8877de9bdab9ad97abb996bbd6daadbadadadddfecbebbfbee8ee9a9dbbbabceabece6
col41:   8a8ad89a7dbe7dd8c9c9abadde9aecda9dc9c7dbadccd9ffdabfbafa89bdfdfacdcbeddceba9fdd7
col42:   8959caaab788cfcacc9ab6bdccebaecca8accdeabf9aea8afbdeccdb9babebd9d89ddaeccbacea8b
col43:   9b8a9c8b9aaa98bb6e99b9dacd6b8dccecfbbcd8bfebbfbadccecbefccbdbcbbcadbd9dcacce89bb
col44:   a9ac98ac9899bbabdbbf9ce78daabdbbdeebeebdbbadcdebe9d9c9fbbfcad39bbdbe8be8baac7cdb
col45:   99989689bbed6dcc8bbc8add8c8bade9a8aebcfa7be9ba77cce9beb7cb7aacebbbffae99b9a7bcb8
col46:   a9bd8ab87a3cea7acbaaed78bcbccccebc9ecd9dcda8d9dabe9dcabdcac9acc8a7dcffdc9c6aea7e
col47:   9b599bac4a8a89d5cacb9badaddbcbdccfe98ddff9ed8cecbfceedd7996d8fdd7acaacabacbdbaca
col48:   96a977cd9bbae8a9ae9bbbccce9ccba8abeeaccdf9cffe9dcbbacfecbadcadcbbe9dbbacdbcc9bce
col49:   5776bb79c99ab7dddbabaabddddbbd9acbcdcadbfae9bbdb9ddbaa79de89fdaac9decaacb8e9afcb
col50:   8c98b9b998b89ba8a9a8abbcdbcad9cdc9acdeacfbaeaeffa88babadca9d9dcccdddabbcccd8bd9a
col51:   7287bc8979a59395a4c9b9a6b8999a86aa9abed879aab98ba8c5bbc8ccd79b7ad88abcdaaca8aaba
ROC:	 BPix_BmO_SEC5_LYR4_LDR19F_MOD3_ROC9
col00:   86d87a6a78a6897577a56373a9878866e875876ca967a8766c86a5977748baa8768d6a9b664c8a98
col01:   39a39ac5ba87b647749469caad67ab8da7982b7888936758899a77667cb778e9b9c987569ed87dd7
col02:   7898ba956b7788c857c899cab7bcbbb7ab77b9b96b7c7e989998a7f8a96b79b999adcb99bbb63765
col03:   959c77a58bb67ba9cba7b69aa999c59a88ae99ca87a8b77c8a9ab6d796b83cb89687a7bc666a8ea8
col04:   a597b6a79525748cb988bbd79377bc6959ba66db9b7c99a95997898563acd5c8898f88bcb5ac9a78
col05:   568566b75515977abaa6a69a599a99a6a667b99aaa6c8a9a267ac58b9968aa78aca7899b6778a574
col06:   6b3b696ba737b67b588a9baca8a8b6daa6a6cc8a8b7855adba8bbbbc87699595b7ca5aa6a86a9c79
col07:   887666ce856b97bd1dc9bd9aa7a8b8aad97bd79bcbb7bc5b87d68c479699b8bba9ad58c9b8585c59
col08:   8576989a5b86579ab5a8873989a79ac985b9ac66b6b7e89b8899bab589b5c3b7a8999ec878c6ab77
col09:   37a38b4a78b944aa7aab78a9b7a9aa8b8689c8abf7696c9c769a796e9f685796b8a358a5988889d5
col10:   c576749565bd9898b999ba85a9ac8b8857a7d68c982b6a76a4758689a37a7799a49b9882e58a9849
col11:   5a768ccc8c7b9b65aa89aceaa7aba8b5f4b69c9bc78a979a8987abb879657944bd74b9b947b87965
col12:   94678695a999aac664a999978baa5699c88bc8abe878e99873c889b68d67b9798cd57669cc663aa4
col13:   8aa7744c588967d76e64b95a89678588c9cbcd4d1687caca9cb7b49898abb9dabbd86d87b4b95679
col14:   78568299c9a759397aa699a78aa8a8c88889faf9cbba867a7aeca4e89859aeab7bc6a874786a79a9
col15:   56865974b994936a69eba7a6aab7af97a93ebcb7bdc6998b85b77daec79b965d877987caa9a7978a
col16:   99a9b69ad2a66bc9c988abc85a7b6cbf8d9b8cb87aca8b8c97ba5552886a889685ba6b7cb9a99abc
col17:   962a4678998669b389aa5c777b88eb68ab589978b6993b979a8acbb89cb69a687a92a6586c89a5aa
col18:   956635c7558da78798ba78689969b8c5eb9a975aa8ae999699a7959da79cd67b8d68ba5c78b67955
col19:   3879bb7292aba89666a979b9b78ca87dea996a477afabda99da6a9bab98c6c83c749c6b797689888
col20:   856989697887675abb599c489baabddbdb97d786468b69bcea68988b77aa98b6857576a968be8929
col21:   739a7857985497ab6779b9aaa669ab88e8a9ead9bb88a8978588ac79a999c596869d7dda77375a81
col22:   b498aa57498adb8caa6d8ba4866a986d9b4c869cd9776782b7f9699888ca44b9c77a95abdb944978
col23:   978a4986486c684a7a9ea696aac8caa3c87ad6ac9dcbfc9ababaa79d94ab6876435c8767a6ba6939
col24:   747888b46889a9787ab8a9bbbac4c9aa999bae679c989c997bda6989989c76d89aa68b869eda9867
col25:   76656a77b8a979aa38a9f8b9ea893bac69b8ac58797d7b98ba99daa69b998d9ad886a7674bbba9ab
col26:   5588a9be9cacccc8afcbabdb799cc69c997dfae9c9bcba7ee8897ba8d68aefdae92889683aa7b8aa
col27:   78b897aa78a9b769b7ba4d6e9da7b8bdd9dbbdfa8b8acad89aba8bc9a7cbd59aa9bac87b9dad89b6
col28:   dd87da8bbabba67c87bead8db7dbcbdabcb8cabc9b6c667daa997dab6b89a8bab9b99a7988eab99c
col29:   bbc879cbcfb987a9aeecbaddb9dee8a8b8cc3dcacbcba6b8bdaab7ce59afa997aa9588fc997768bc
col30:   8888a7675ba897789bbe4defaafaadba75ac9e8caa7dfedbcbae78d8edaaab76b8e9d9aa9d99bca7
col31:   7b77c98949da9c97adc9b8fcfc9d9acbdda6bccacdabbeacaba8aae7ccd9fcdcaac5c9d7deab97ea
col32:   489579898598c8c6ae8c9b9c8acbfcadbbaf7becbceba88acfdd8cbfaa9b6b8ba9da99db794c8eab
col33:   59aec98a4aeaabb88dcbcc78bb9eca8cccac8bcdbabfba9d9bcbee8b89cdb79a8dba8897dca6bc92
col34:   79f987bb7d79ba69ca7bccafbdcdcbecbcdddf8fd4cdcbbbc8e96bc75bd8bca99bccbacc99b9b48a
col35:   795c7c8bfda7aaddbbdcc6cbdaacb8a9cc4b8fccbeaeca9cb9caeaea7bbbc9e6acbb89dbb95beac6
col36:   a99998ce86cdadeb998deeb8accdaee9dadba8dadda89b9b98bfabdedbaeabacaabb79a5b7cc4b89
col37:   a6a958bdf7b89d9dcaab9fbfdce9d677cfabbdaeefebdbfb8bdfbadad7a8d7fbbb9bca79dba8ec98
col38:   99a5bac99c9ceabe76d7e99adaadbbdeb6aebdceab9dccfaadeabdcba7ece6ffb79cf99acaaa9dbd
col39:   1579bba9769baaaccacf789bdfbbcafbbcfbae9f9cab7aa8cbccccbdcca6c7fe9da96ba9fad8bbe9
col40:   97599a78ab7c99aa6b99ccdbe9ac89bd99afaaa9d8ede8bfd9cffc8aeaadca6e9babac9bc9eccebf
col41:   b88c86aaced98c8ccaadadaedb9cbce886ecab9d9bfd8c7ff9c7d799decb8cd86afaeabe99bced9d
col42:   ab779a599db4b8979b78de6bfc999d6879fedcced8eebbeda9a6bbadceeedda9ef78a8d9cb6cfaca
col43:   b6ba8bec89897b9aac8ccc9bcebfe9bc9ceec6e7cccbcdbdc9ebdfdfc9daafbbacae9e8ea9a7dcb9
col44:   8b6cd9d8ab9a9eaab9fddecefc9cec7d9ad9fb8e8b9bfafcfebae6d9ccadbadac859abc9be9ccbcb
col45:   6bbf8b899dc9857aaab8bbda89cbbddbfcd8fc77de9eebba8bbfaca8ebfbbff986ddd8fba9ddaad8
col46:   74ba9a98dcaed8b8a6babeebcdafcbaebcccf9cb9cca79eabad9c8dac8aa9b7d9cc85d8bdabf7c69
col47:   49ba8b98ddc7caf9bc7eca8b79caebdee8feddbcdab9beb7c7cbcbdb7cefeb9ec87effb7aaabbb9b
col48:   c589bcda88d7d88a889d7bac9bbfbdefdf9bfcbfeafaff9cd8dd9ddae8aafbcefdcb9cfaebfdc9aa
col49:   959bca9c4cc5fd8acbaaccdb88caddcddccdbedfdcffce9a8bbd8ca499addbfa7988aabbcd8eacd8
col50:   889b9bcad69ab89b8ca7ddaab8ffdfdbbacbdcde9ef9d8bbbcab5cca9c9a8cacaa7c8ebebacfd8eb
col51:   999976dbacb37985beb37ea8e5aa9bbdde8bd97aaa95d67988a758bb7dc8d8fa77b9cdc9b86969bf
ROC:	 BPix_BmO_SEC5_LYR4_LDR19F_MOD3_ROC10
col00:   42524846a147886574a864a79c6655ac64acaa6c878a687365799877989a7bf66255787371557661
col01:   686997878a59e7a79aba97b9aa8aec8587b997a5da8a9679978b86ec6c7a9683868dca9b87759554
col02:   8667945a885a5b9ba87ac7a7bbe8c7ea99ab7884b6aa8ac959756586b66859478d644c38b5885646
col03:   695bc7ca7a9895e997b695bbc8a8aea99a5d77686a969955a4cda98c896c9a9a48a53797d9b696ba
col04:   65976aa93b6bb439667ab857a628a969b74787a886ab8d597eab98988a79a8b896b4a89769b5abb6
col05:   659684aa79759d778db6c76d7599e499b7c77b5878a79b669b88b676965a9a8576b8678b8cba68ba
col06:   a6a6887675588649948b6b69a8969968935d9b7ab7a4a9878595aa786a8888a897988644894b8957
col07:   9689abc83788cc3a9bb8aaba888a9ae8787b9a98864592aa86e6a86b67aa7687787a9c49b7d687ca
col08:   5636755948764889b7666b767d9654a7b6c669aa9b77a9b5a8a8889779ba959878884687586aa995
col09:   c7857a5469c79b795b5ba9ceaae8acaa9899bc86d5adcf9b99a778997877a9f7b9cba9ab88b9a8c5
col10:   8a6957953369754777acb98b6caacbcb9899548aeb9a87578aa4188aa768a46596a7b7da97718488
col11:   73a8c7558987a75854c87a6b78abba9eeac57f655b96897b8ab6a8739987c79a9887d9e6456b8798
col12:   8855669b539758848aa3db974a77c997899d7594b46bc6a88dba9a6b675a7886a855ba67764393c7
col13:   4876976976b767a7b7ab767889abc88b8a8bd6b9688a549abc8a938ba9a9c675b8a7b969679779a8
col14:   75c8999b9a8366adb376995688ea78a9786b8bb89c3d8b977b8686598599c777a8956878555859a9
col15:   5734c68dc5977a59ad6d387dc8a9b6c88c69c6a9887a8cbbba6bd78ab73777dcc58bee877a3686c9
col16:   876c7867b5baaa679d88acca9dada9b68bb987877847a48b59a6d6a783458a9898aa625a45ba2799
col17:   a8a9667a85a576ac89cdcaa9b6a7ba9964a97ba6999b98aab69cba93a76b8aa7bc7869b788aa6e85
col18:   3968897a595996b747a5897b883b99aa76b99d5788a578879899a95a8c69776cc64789a9a9a9b466
col19:   768b975798dba9ba7c9aaa89c995d8dccdd7b5cb9686669b69d89b83b89a586b69a888899816a988
col20:   a797a4b9a5847ccaa898a868c7a978a995ac5b7668587a6897abe854657bb5a7b46bc58aa89bb474
col21:   386799ba7a76d956849998a8bbc9dbd8596b98aaa8d8a9656e7967bb9dabb579ba689d988a865896
col22:   a9ba477bcba4d796aaca88799787c85d97776947a87976da88ba7c6999699a68a57d5d46da9562b8
col23:   9775b7b6a9a88d5ac5c9699685b7997458877a9b89a67567c878ea7a7c6fab5a4a9a7b46966ba865
col24:   9c58b77a4778468a87a7f8a5bb89a3a758ab68b5a85c45777ab3998786aa52fa487a885a7b55e8b1
col25:   65c8ab92a649879796688e799a49ba9cadbb8a8a95a19da7a897ba4adb5b69e9636674c887b8d965
col26:   66b9a98899c8b7e99bb7a69d767a99eeaade8bb8a8d99a969789aed79aaecb86acb9ab75ab695bb8
col27:   8a99c59abb9acd8aceccacbabe9be96adeac9b99abf5bbe9989c9accb89c299a8bcba57aad8869c9
col28:   b9c6798ca98dd5c68a8b8baab88dbbcda8ca8ab998dad8babc6e67b8c5e8c7956c6a8889b56a8878
col29:   896989aa7cd7bba885bf9bad9edaacd5f8deb99dc8cbab9db9874eda69b6c8aca8a9d7ac87a977c9
col30:   897d8badbd7cdab5adbccbbcbcaccaabc6c9dadaf677c8d975dedea688a58b9a5b899c9c58778894
col31:   9bada9abe4ac8655dc8d9cdcabdcbabaccabaeabdbd98cac8c9ebeb9aaeda6d9d98d688adac8ba5a
col32:   a969cf98c6dcdac9dd99da6adecffdb99fddeabcc8bcc7aa8dd9dfbc9b48d8af9e8a97a9a529f987
col33:   fcad93a6dcaccd9bcbda9cf6d9afd9bce5eedabaadace9aa8cca6ccdbfab87e8e67ad9aab79abd79
col34:   459a877baabbc9cfb9bb9aabfaaf9e8dacdcb9dee9e89cb9ba6a8d99d89d75ab98cba8e9a7d9a8e7
col35:   bac98b978beabaeecacdbda9bcfccdb9c9c8ba98facc8dafcc88adba6aba7a8a9ab5e8a9899cbdba
col36:   7664a67b8daacba4aafbedda9dea8b8d9afa9b99bccbcaaaefac8bdbb77b99b88a8bb97b988c9775
col37:   7976a9bbaaaad6aaaa9abe88bdafc9bbaebbcaddcdca88d9ec6cdca9cb899bb8aabacbcdc8ba6aa8
col38:   77bbb7689da8c8dafdaafbeffabedfcdcfbdda9fd79aacebcc98fea8a99b9cbbed98eaa9dac8887a
col39:   a7a6a8cb7db4a7a9edcdeddbb8c8dfe9deedebb9cc9e7f9cda7faaeb99c98eaccc79beaa85ab79ca
col40:   8bbd8aaa78bbad9afbdebe9cfda9c9dac8dfcacdcaa9dbaaae8bcba79e9cd9daaad9c944bbafb87a
col41:   dfa6b88bdedcbbbbfb5bedc878bcd97bf8fecbdc98cccfdcaaddcdaa7acec966aaaa6aedbbc7dabb
col42:   aaa4c9ccbbcbaae98ba7978fbb77bc9edfab9ca6bbced798cc9c9bfb6faeee8cbaae9bccc77c7d96
col43:   6bae7aa7afe8bddbc8cbc6dacfeec9dd77fccdeedbcdc7aafbd8bcebdcf9dbced997ab8c7d5c6bac
col44:   9c79ae78bacf888eecf8dbdfaca8cf6aa89bdbdaefabdddaabb9b8c6cb9b8bc47adba758a8cc9aba
col45:   b6ccc8dba8ab9acbadbbbecb9fcebcfedfdcacddbeeeee9cdfd9ea9decc98ba9ddbad7649a95aa96
col46:   58999888b9ebcb99c87a8aa7dcdfaebebbfd9ca75aaefc8df9bba9bc8aaa98bb8cabd9a8bba6baf9
col47:   64ebcba887dec997beb9aab9f9cef9afe69eb9bdacfdbec9fcfadeddcb9999f79cacd8bcacaebb98
col48:   774dc9b98baca98c9a99ba89e7cacbd8cfb9d9febcf9aa88bafda79c7dca998aea998da9a999daad
col49:   aae9caac8a9bdf9cacb9ebb9a9dcd8eadb9c9ef9ecbbbdaebd9edcb8fbded6dcfc9dabcb9ebcc9d7
col50:   dc76d7d9599b97b9ac9bdbf9ab7ccc99acfeaa99baffc97d99eb9b89dbad998cbb99cd5888a9daac
col51:   47b797a7a76a39b278858e85bb388cababab8a763b6baa5a8db99a9d879c8881a8857dda6a9969b5
ROC:	 BPix_BmO_SEC5_LYR4_LDR19F_MOD3_ROC11
col00:   6555a78526a688d5987b794a55756766796999692987779a67839aa774876787678887816544aa95
col01:   825aa7667ba7c878b994b99a97947da977776a697b7959939688a7b77a7798a8a4b759b857988543
col02:   86a37ab687774777aa677d77a886577998888c64cc9b84866985b6986c69a78474b7952796997895
col03:   7866685449a6765898daa89ca3897a8d7974a7c8874a85ba89b57954a678475ad7a45b6874c885b5
col04:   78638c6976535968c8b8b8a8b8bd6bc5b99886786cab7759c856867765887d7895a8c97a2779777a
col05:   9856948b6a757585537dd88874c96a47988a7768554cde7c99a97898717485558c8787a798654658
col06:   99a64449648d387695cbaabb87a7a89969a9897677997a66a6a969a79899b79954968a34d8a98ba7
col07:   7c794a6757345924956b7bba877a8aa9b9daa958b999a65888aa4769b9b9b79867788ba897b96658
col08:   668464bb277439927369785b94abc9fca79a97b866c9a799a849897b84aa6b6c8a78baaa978c9a87
col09:   a7569784886677b9aac97775769b757a87a87789a8589668998f64849797b4697b7c788578a46546
col10:   9a756834897a8649656c4aa7bd899aea98b9a88778aa7987ba99b47c6aba8ab8a897baa94a46895b
col11:   582898a686a8667b848899a8268a7ac87bbaa9ba8a897b8ba6886887775c6887949679689a977899
col12:   773879a9963a8955c6fc5a86678b784868988ba8a88b95aa78bb44659b9644b3a79a3a67567a7374
col13:   739688d88a9748847548a459b82778b997cb998ca5758a798bb8a98a859ca6868979a96c9678b787
col14:   9bab8987b79bbba57aa787a8b9989667897c9768a5889688b78ab5a7787999ccbb87959695593794
col15:   a15212676795998782988857836b75c99b8997b5777987a95a99774758ba6c689a5958a67894997b
col16:   737786aa647477888b3969859b9767977699abcb94a9c788786baa88a7a9a989bac9667583788a66
col17:   95628797958577a469a89667998797b657967678baa7b9798db4a676b64566666a6481b764695786
col18:   76663678477888a767ba95ac4c8b3998b757cda88884789657c293c88887a87866869485c6b87677
col19:   88778868a98894b8a585e77898a65d46c497d5898d9b4aba89889a98d9ab7bb86c89bb57797ab686
col20:   336546976c9a84797998aaa78a9b5ad965a9b6aa793669dac77ab9c99ca787b8b6a87b868a8787a5
col21:   757767839799b989a8b5ad55779bc9c7799988b668b85c87c7926a59668a9e97687869a689777965
col22:   68589555697b967965d799b498a7a4bba9a8b579a87957a94a9c56667cc7997a8697784bb6b776c3
col23:   6176b36688686aaa49978a9a8684ae9c95bb96cb679876d86c8a866b979868286b7aac8b66665547
col24:   948a77c7897867b57ca7c888a8777b87778999ac68a5889a4885a8599aaa7995ba9c85aa7a8968a9
col25:   264954a9ba7379b87475a5a88ca9aadab8b769c88899adb79b8a96a975899aa877c888a49a6886d6
col26:   6c6ba7bc8c6aba777999cea5cba66ea99ccbdcadf983a85999ad88a7bcbe9869b899a8aaa9bb7da4
col27:   9789a66b8696b5d96885a89878cadda968b9b9bdb9897997bbd6dccbaaca8aa85a67a8996aa8a89d
col28:   76797acb87aa8856a879998a9addda958da6caa5b8abea89cfb9a9cdb7a79ba8df8a9a998ac9a9da
col29:   7ba9b9a36bb9569a89a59cabac7a99a98bbcbb89d7ad6bcb8ebb9dda76cabcd79a99ac899a9bbac8
col30:   747bc8b79789a8da88c4bbd5baaa9abda8b999beccae9bbdafbca999ac79da9c9a9879bdb96aabbd
col31:   79ba98caca88b899bccabb8a696dbbd8c7aba9babbbd8e9a87df8dacbadbcacdb8b6c8c6bd5ea59a
col32:   a67988b7aca99ba699c8bc9dcbfecc9a98fad9edb6989abaaaaaacdca8998bb9baf77b7998baa9a8
col33:   9b577a8aa768a7898ccaeda98db8bcaa989ba98abaa9c9b9aaf89ad87aac6b98a998baac99afdbaa
col34:   c6b969b87da8cb9baa99cb6ad99cafdc8aadabb9cacd9d99bebaba7caa9dbbbaaaaa68db98b9dad8
col35:   47d95c5cba9899a99d9b9ddba6c6cacccabbecceb9a9c9abb9afd9a9dcbbdaeabb99fccbccabac99
col36:   e8cba79aa88abe9eaa9bcbbbbeaf6e9a9bb8d9c9aaabc9b9aedadbfeab9c5bb9dac7bbab68b98fab
col37:   b48cbad8bb9bbdb89aaacbd8cbefa9cc7fbbcdc9eac7ddcbb8adcafdd6abdab498beababca8eadab
col38:   7a98c8b8bacbb9dbe8cb98998baccfbacadadcbbcbcabcb9d8e8dbabe99cca9beef8cb9bbcc87bca
col39:   8c9baaab5a768caeaaace6aabc9fafbbc9fc8bdb89d8be8b9998dbcdaacbe96edaec9cccaad9bcca
col40:   9a9a9aa7bcbbb88dac9eadabdcced9ecbabed9dcaea6fdecccad8cabedebe6adcafdc9ababcddbcb
col41:   e89b98a9e5cab999dddbfb9bccad999ecddfef9fecbeaceccadddabdcfcababa679accccaebbdab9
col42:   7d9a6cb859b89cb9bdabbbbbb9c9ac9bfcabddaddcec5fffdeafdbdc6cfcbdbc7bacaacd8daacecb
col43:   eb89a8ea889de89abddadfa9cdcfafdfdccbfcfbbba9dfd9eadfceebdffff7dab98cd7feba9aaecb
col44:   a97adcabcbfddb7afa87adeedc9edfbddddeceeacfedfecaddeddc8dfbbbeac7edbdacecbbe9cddc
col45:   8accaabac9a99ab9aebbcba7cfbecbd8cdb8bfa9dbafbdfcabbaceeba9cedbecbbdcbafdafa99cbb
col46:   b86abc6edafcbaa9c9fcaef9bcdddcbdacbdca9fcde7ddfcdcadcbcabedc99ebe9ddbf9cacedadae
col47:   987dccccdcdcc8b9bfebd9bdbeeaaabacb85fdcdedecfdca997eefaca9cdecebfcbbc9aabcdbbddb
col48:   caa8aab869abdb9b9dd7dbccbac88db8c9ddeaefbbffbbb8cbbaeeebdbdcdcdcfbc9dd9f8c7bddcd
col49:   c7c7e88dbdcdbd8eba9babbabb9fccbedcdbafdcedfdccfbfe9ccfeead8efbaaadcebbadeccbcf97
col50:   dd8b9adf8b7bead98fcbbdbfa7cceadebdbcacebcdfcecbedad8dbb7fdc7ecfebbfefcbbfcbbbfab
col51:   944ac97788875ab8cc5b9b8babaabaeeca998dacdd7d9a89acfeecddd5babc8ba7a6dafbccdaafae
ROC:	 BPix_BmO_SEC5_LYR4_LDR19F_MOD3_ROC12
col00:   6ba493549695a6889889c6a87a8a9b87abc6d7ead59b9d68dbb57c5c87ad9c9bff87b7dcec8cc7cd
col01:   955548b8b82979299cb45ba985c7dccdbdbd89cbadfea8eef7acd7ca8ecb9b98ddcc8ba996c7d9cb
col02:   8895a47c8839588599c67b998be9bb99dacbc6beacebf97a8fa899a89aacb9daac8bb979a9ef96b5
col03:   a8986a77867dc58986ba6da79bbda7aadde6aa9dc8d79aeccd9cfb8fea9f9cadbabbcbcbee8488c9
col04:   59753a76daa9b7c9bca899daa9c8c8cad9697c8ee77b7b6bcccb4acbbd6afbdc96afeeac9bc9d67c
col05:   b569578488b967787cb5998bcd8bac9a8e96b6c7aabfcdbbc79beab789abdbd89d9cbdbdbe89b9db
col06:   a868b89875d7d59a88bba87b997adcac9de87bbba5a6d6ea9bcafbcaaeeaead8caf6cbcf88bacae5
col07:   578a6aa82cdda773a97aba96bc66a88bb8eecc9bd89aebced8bd9bfcc8ebd7dcbac8ebfacba9a7fd
col08:   9579897178897c6a577ccc67bb898d8969c9bdd67969bbc76778da76979abb568caaacadbcf8bada
col09:   777da97965968b7aa789987b68bcbb6a8a8e9c9ada8aacecd7ccbd7aabcd888efacddbbbbaff9fb8
col10:   d734828a96b5a9aa9fdac57b86a6a79daa8a6796977d6bd6aabbdb7a9dd68cbccc97adeb8de76ac9
col11:   6949977a79c8bdbc96ab73b9a6ce84c889fcbe7a3d987b898aafade5aadabbb9c7edbd8cddaaa89a
col12:   9895693a8a68e68afbe89bc96c9a9786dda885b9ce98b86bffafb994c6d99c787d9fbdb1cc9ec7ab
col13:   848aa7776986a6c985c98ea899eb9a9aba9ced9cd55acaefb8ce7cfc9deedd7db8daa9699e79ee7c
col14:   85977b788a7a666885695abbd786789969aba9dc697b8bd8baa68b7cb69ceb9a9cca8affafdbd9ca
col15:   8a6778b98957cb86da88ca88b8abceb6e9e8a7ba96baf8abb9ad9c7edeed59fbeb9b8fb6e9d99cca
col16:   674b9b75866867db99c999d58bbb9e8e998c97bdb9aaa9978de7597baac89c8aa6cfad7ab99cd7e8
col17:   c43a94ed9978a699847b5a98899c69cab898ca97c87c9b898b6be9eab7bb89688ba899c7cd999b99
col18:   8689536a84987a76c788bd978ad3b9cabb788978c7868966b8989b8968acaed6d87e99b9a88dbab7
col19:   757ba77c746c9ac77aabca97aa9de96b59958ca3aedc8be995bbb9c98bacbbeb98ebb5a9897b98ca
col20:   877a88e4aa7a98976788c4a89938cf3bdab98c9ac9b8ccc7b878b6e5577ca8bac7cbbdaca8e98b69
col21:   986c696eb9897fa57994868acd8baabb79cab9ea87abcb89d9b989a98bd8dc9bababa7a7cd9b8fba
col22:   83b6798a354b9a52bc78875a799a8688cb9d88bcc888cb86f899a86969ce7ab7e9a6dbb995c697da
col23:   472468675888a8bc7694897c53aaa84d49aa9aa8788cab87989d66abb86bbc8e8b9e7ac89c967a7d
col24:   94a6b988a6769898d5aa48687bbc6778d89a9779f78cf88baccbb688d69a9bd46ad7857b5f59b878
col25:   467b9c9a6b987c7aa97d698b879ab88caa8ac968abaaab7898b9c79c6bb8bb7f897a6a8aa8acc7a6
col26:   846c9a9899669aa7a8bebccfb8accfcfcbfca9aac8abeccbbbdabafc8b9b7cca8be4adc7aade7fc9
col27:   a5e797a89a69969c9c9e8f97d6a9bccbe99bfceaff99ab9bbbbb9bdcb9c7c8aab8abb8bebdd9fbeb
col28:   7a5577a9987a7dbdc799aa9aa9ba7a9abdbabdda9bacb898afabcaccceddbaaa8c88bbd9988b5a8d
col29:   9c987abd75998bbc99aaaab9a7ae5ce9dcadbea99a8cfdfdcdbaecb69dbbfb9c98ba7e9acac97b4a
col30:   c877899d7badbaab97da899ea777a5b9cbaaaaedcbaf9b8bb59b7ace4dd8d98aa578ababd9addb99
col31:   bda599dc7e57d96b9acbc9feb9b8abf9f7abc6987cbfa8afcfbc9fcfbaa9babb86ab7fc7dbadb8ca
col32:   596cc6a75fba8a99fccdecdbaa87abdeffebbc9bbb8daa8ac6ab987489a7aac8bd7dcca9e8d65cc5
col33:   8acaaacba88bccd7b7cab9cdcffcbfcaa9b7ec86ae8adc7cfaf5eeabb9abbacf7cdc9dead8cfc8b6
col34:   9bacb8ac7abbcaac9bbbcacab88cdceaacebabaccad9f8db8acca89e9a7cfeaaca6aaa9cbcbcfa7b
col35:   3ac89a99ca9a8c8bbadaa8cf9e8aadbe7b9be5cf8e7dfabefcbda99aa96ababba7ddea8aaed7f8b6
col36:   c78777bb98a8caa7abc5cc9cdbcafbaacdbb4caacaeca78ccaabbbdfa6d8b8c9b899aad8dbf8fcd8
col37:   d79c5aca8dc957acd7cb9decbac5edbe7daaecc4cbbad9bcaa9cda8cb9f9d7adfcc9bceccabc9b75
col38:   8bbaec7cd996beaa97caa9faacec888c8cccbab9f8dcfccbefd9db7dbabd888bebdc9dadfbb9c4b8
col39:   a6a8b7acd5da8bf9a99dbb99baaadd9fbce7cafaafed9d9cabd7afaacb8cb77eabbaacdd9cd9bcd7
col40:   8618b7cb58a9b9a9aaac8855ad9e6dabb8dc9dadbdccbeaf99cdcd5cecba9c98bfb8cfac88b79cbb
col41:   76956ac797a78b8daa7da7adc878d9fa9b8ddbaba99badda3da7bbecefcbfddab8baabebbb8c7cc8
col42:   6c86da857aa7b7b8bd7e8dcc6a9cdc9bdcdcdae8eabe88ea9babdabfd77abfeacdfbac5a9ac879cb
col43:   fbac78898d678d9abee3aa9acabcacd87cdbc788cbb8bacbb6feedacbebbeaa7dbbaacd9a9edde7b
col44:   c49897b7ba9e8ba58cc9fafbaaca9aae6c9caceb9eadadcc9c6cb9dbea9dbc979cadcbaf8d998fcc
col45:   5a9cac658aca638efd8a9ad79788cccabbcbccb6cbba6fa9b978bcb99cd9fde4cbcd97e9bc9ade7b
col46:   6597bb79698c6894ba5cbce8be9d4deedabab5ada9ceeacbca9bbafabd66addca6a6be9b8c78b65b
col47:   85987bbeab8cf988ec8aae9c9a9dbd8dcb96cdddebbbddb9ae8b5bb96bba9aa7ae9fcaa5b7acabc7
col48:   88abad8d8acda9df97a69868bc87b7ae87db7bddd9dd8cae79ca9a5ccbbb8355ebb6785cd8e9e89a
col49:   8bdb9899d8af99abbac8aadaed8cdbba8babacdcbebbe9c9de9bba79998ac7c8bbbabbc9cbca9ceb
col50:   9abc8bda8ac9a3acae9bc8dc9d89c9bd6c7f4a6ceccdabecb8a9d95ccafa9a86a978b8dbcabea9cc
col51:   6a74749f7cc76989cb95cb99a3add56b97bb9cb9bb96a686b9c598a8b9a88878b8ab3c6859a96ae9
ROC:	 BPix_BmO_SEC5_LYR4_LDR19F_MOD3_ROC13
col00:   999b84a1689889851b97a84ab9b84a6aa66aa8b426986a7bba596579b8bd857389951869676a4b87
col01:   6868b99997958bada69bc8af74e7bc7aa979599cd39488bc9fa69aa4ce6ab8b6a69889888b9d8b7a
col02:   88aa69ca8bc999b6988dbcbc8ab8bdaca9ccaeeafbe8ab889b8abfabba7a6aaac79c7be8ab78985a
col03:   a8a99bcc7b7a985b8b8b9ed68bb989c9aa9ab9b7a8987ba4bbe8b7baa878c75a99d9b7a6a5468a78
col04:   66aed4e7b7a6fa8b48c9aeaa9c48cbc6c9798cab6a8877d797ecaa9795597779cbc9aac864498689
col05:   7cc9b8887bda68b8b9b5a8b566aae3c8cea9aaa78ba758a69998ad7e9958c5b7b795996585a89967
col06:   d49bb9584a857b27a96c96a8a759cb9ada878abb8b73aaa926c6b5aaccd9bfba489a9aa947b88788
col07:   9fda7a95c83aaca8b5c7aa5599b7cbcafbb678c88adcc9cefb8ba9aceaaad878a779aaa78eb8a989
col08:   ac88e7998cb67959cbc99bb79a7caaaa9eb9c9dadc8a89c79c87ad8769a799865c98bc89d8a9b998
col09:   aa8ac6b8be689b9b768989c888bc9a7c67acacb9698eabaa8c8dd9b978297aabdabf788a66a859a6
col10:   caac839969b4d67b99a775aaf7f88586b8dab678c98d99989bb6ea4ba6899c77b5a76bbc67b9c829
col11:   bd8c689959caaca7b8e86ca979a57ba9b68c57b9994aac788cbe9997fadb8c96e7ab9987ca9b574b
col12:   89aba8987bd9957cab788be97aaa6db9a96aea6bbe69a4b97d789ba9dccab9bbaba989bb67b787a7
col13:   873a67b7b767969a3abaa789bcdda9a6ab989697ec88fd897bcf7a6b69d8ca99f9b897a98778db85
col14:   66a6bc8874a9696a789d94a9c978a65cd7d8a896a98aca5cdd9bc9de7d8a89cbeabbb99b9b4766b7
col15:   77ab9c77988c6db99c6487ce5c99c98889d7c5cad59bc7bd7abcb8799797aba7abdd8b7a76bda7a8
col16:   9abba69cb8a9896b59ab7b7ce9b979aaa879bceaabbc7abbab8abbbe8bba9886b8adb7cb67886cd9
col17:   88c66c667897a64a758947757aca58967bdb7c938998e3cbb7a9bd68897d978ca98879b887876a9b
col18:   6767895b858bba8999c853bcac87b6b9b8ca9d37b9898f5ac6a5badc999baedcc8e6a8f8786dd788
col19:   65a68b97a8c697c9b6c8897b99b7c297db6ad9c877baa9d4db7cbeee8856a9dd777b9c3deba3ac2a
col20:   aa79a8aa98b5b87bc9878aa5c59a677aa9d8c89dbacf6d8ba8b9b657aa96ed777b47b3bba8bc8ac9
col21:   ba977ebc58877c864b9e7ca977a67ab4a7a7ab9984d9898639cabcb6c7b66b6a8d88ac66caa1a798
col22:   97d899b486a897869a9d8aa897a87aba99dcd7bcaba7bb4b6e8ab9b792b7beaa9a88e9a56a978a57
col23:   a9898957aa9694a79b978aab8b5c7a99b9b89c359a9bccabbecaaa7b9777d7ac89aadda9c6566c64
col24:   988965e8aaa95a8876bcd7b69979bbd78a5bfb788bb8cccef89babb6a9babbb89abaabbd57549aa6
col25:   894ba597a8aac2cad88c9a7ab6bc9adb646aabdda78f877f96bacea7888ac868a7778d5ddb9b6b89
col26:   abafbdbad4ec5559ab8bd8dbdabb78afda98afdeadabaa8abfb6c86d9aaafbcfdac5bdcb94c8c997
col27:   9a898a9a97c9a487ab6aaad979ccac7bbbcafac6b8d996cfdaadbaf967a8c6dc788baaa8a985f7ab
col28:   dd8ab9caa876a77e7ebdccc7aec88a9bcbbcea7ea9cc7bccccca99bdfa9989fb9ababbaaebc8aa6f
col29:   3a627b79aaac9dba9de89bbe875ad68bcfdc8ba7bee8b8bdd5cdd99bb9be7abc7ccbb9b688b87a6d
col30:   c777dbcbc8bcb9bb6a8bba8bd98cc79ba8bd7c99ccbbacdb9887cf9b98ac8cdcbacaf8dbb87c8b6d
col31:   89739ccbcbcd98ccbbbacda887ccbcab7adcbccdc999ac9abbec8accdc9aadcd89aabdf8989ccce8
col32:   aaa97fd8adbbebb86bc9f9febab99a69bcbbdd8acc9eecaa9988acabe89bcfdb9ddcbacb8a7f8cc6
col33:   8baba44c5cb9ad986aaa978a9da7367beacbbd7cbbcdb79bd7a6bfa9bac9dca7b6eaad7aa8c7c8e9
col34:   cab66dbb69d9b8a9abd7ba7cacbadbbfaddad9ae99bafdf88ebacddcaa6cabdcce68d8da9e79b7bb
col35:   d99abca9cc8b899d7c69ab8999cacaba89accea7aaa67f8bb8acb8aaa79dafedf8ab7edba9bc6ca6
col36:   bda9e98bbcc8df6a998aaa35976b8bba98c48bec99bc9d6a7c8ead99895a9bdd8cc7ca96bd9c7aa3
col37:   b79a9c9de7869aeaa38db8bbd9ac9cdc86595e989ddb7bc7f88aacfdb89e7bbdbab8bec99e2c88ac
col38:   c69afbbcceb7edaababb8acfb8caaab9fd8bddcecbacaaadba69a9dbbbfb9ebb99ffb9e968dc8eb6
col39:   e7679eea89c96ec89ea8cbdaebbba9d8cabbbacccc659beeecc9d6e398cebac78c99abcbccd7c9ea
col40:   d5cc8ccabae9b47fa9ccd8d6a97988a9ccde9cddda9a9cabacddcf9ad9a7adebdddbcbacaca9cc76
col41:   4bcabcbb9cbbc9686579cebcaadfaea99ceb6faae8dbccc9bbccee9cdf7f9bdbacc9cd9bcfd7dc9e
col42:   bbcd8fd8ddd7bbde9ca7999bcdabed5bceaca9ec8cecdcddbdfbfbebdcacdca8feadcaddb8da69cc
col43:   ecac9ad999fbccbcfb8dcae9fd6eced7df8ec9bba9befbbfebe8b89ef9dbd9bcc8bfccd878efaabb
col44:   cccbccc7adcaaa9dec6b9b9adabbe6cba9fdcc7ddbabdfebaeccdabf9bbfcdd9f998c997aeec77be
col45:   899997d9da9c6baabdaca7b8cdead9fcec8dabd8aa8afdcc9bbbbabbccc9e8dba8cdbece6c8d7d5f
col46:   afa97baabf7decccfbd9babbccba9ccdafdcbc8dcbd9c9ccbebaaaeedcdffbbcd97bda7fb9d6899a
col47:   e89ebefbfb98bfdce88dcbeacd9bb8b9bcb8ebffacdcccfcdceeeabcaecd9bebb8fbbaadab8abcca
col48:   dde6c9cb7eacca6a9bcbcfa7cbabcbfd6dfab8af8bdd9ebaaccac98cdacdf7acecdadbf99accac89
col49:   9d7ed9cea9bec8bbcbdcbdfec7acc8aebeb8b86cbdbccbcab9a8bbbbfceffcdbb878bbdcebc7abdc
col50:   cdfbcf86c98cbe6eddbbceffcddaedc8a9c9fb9b9feaddeade6b98e7bababaaccdaaadaadb9fbcb7
col51:   69fab8998b9979c5d87af9de9a788d8ad88cf8ab9adbb9d8e7dbb9e497accfb77caacc4bb95f9779
ROC:	 BPix_BmO_SEC5_LYR4_LDR19F_MOD3_ROC14
col00:   6782a86a6987a5689724468ca856763a738579777b668646b397891d93697188b86aab9955a96647
col01:   998878da64b9a887c68aa9a8a886a6baecbb89688bbad74ca8ac6aada67655b6ac79987479997766
col02:   4a6468786851bc9ba5797797963b687b8d889aa5893678a46c957a97a8b6b948998919a4a717c639
col03:   69a9aad86b8657ba86c67a86ba94b8699d7ca887d717878896a8bacc99757aaa976a98767744a9b9
col04:   6a7476a77ac99968c95657bf89968ca89eb8ad999a6a7a98a7979c8a89ead59688c7589a5689a885
col05:   987ccba4ac7767648ca3ba786679aac9dca977a7e5c7ba7664a6e8595b98c67a63fc765776649a26
col06:   5797b88989886973ba67aca66787c97a99a6cb9895a66dd969ba974a896abc96aa79766869779667
col07:   9b2669c99ba596a79b8aaa8548976caa8989ade55b87aaa9ab5c879aba6498a9988978c6656a8b79
col08:   83995687599659765c7aa77698aa9ab997bcb8a95a8c89499a8c693998887a683677765a67a86787
col09:   95c8c98ca7866bdc9796dd9a9ac9af799976abcb48b7f88c9878c68b9a79b47948ac974b66877d61
col10:   65397789887ca694bcba879977d6bbb897a79884949ca9e9a9999aa98b7b7a89a45577d597567ab6
col11:   a759a89ac8a6b66799b9998c7889a7987acb6abb96bba87786b9799948b787ba6799866977b69695
col12:   a8538844b8999a98ba588c9597ca79c76687879a99ca97786a7495a8b9579b985b88395a88a4b657
col13:   8676bc6576e8aaca9a86bdeb986ea7bd7bbf9564adaaac977796b7b6caaa677a8d7469abbb9aa585
col14:   569869b888b9999895c7a68586bbca69c89d9959997cc5b86daaa6b65587766baaa94583c7a48e99
col15:   8c9886a6e9a87af8797898586bab7d8785aa8589a8b97979a676b89899a7a885697878b99686b99b
col16:   a75a5b7758aa5c769a7996a8ad88b68ad68c6c897669b8b7696ba89668a757a65597888756a6a865
col17:   997aaa79869c9b9971b699586a8ba89cc9da67788b97ca8888668a899c6e7a884987baaaab8caca7
col18:   555b9375a78795abba99aa6a8b99ac879a9cc97bf7c6ab86924867a63c69ba79ab9899866b557c64
col19:   9478278d389aa7c88889779998ab87a996b97bbbacac9ab88a89897485785abe6b599aa77789caaa
col20:   a89793a2b3bb8aa5ac9a6789b7558ba588965b89ba8ac8996699698363777b86799a7b57bb966b78
col21:   4999b6787887848959785a9ac8acd7aae7ba859bab9f69cabae898aaa9c7b8a9a7caa8db6abaedc8
col22:   787746576838a7c64568697868a894b97596378a6a96bca55a99a26d4779a58a87ab77a8d8d8aa92
col23:   8878b7889765958ab7679a98799a7699978a996684a8686a96a8967a8d8aaaa99cab9baa878d8c86
col24:   64778588856968a965996a7557a99a89b7ba96797b8a7c9eafa87bc7779b67584877b7aa6ae89689
col25:   33579bc73c959952a877dc5c77adaa988b9ac989cb97e9b76c8a78aebddab8bbaaceb968fb9a978b
col26:   b6767a96786a6a98b7bb799c9ca879858adbaea7ca69ee8aba9abcb9f9ccc9aab9dc89ee889fdbb8
col27:   7697a6a776b657b97a59ad97d7c99a72bab7a7dbb87aad9eb5baba4eb9b8d8cd9baaeecccdbdca9a
col28:   788779a99659a87a999899a4799ec9b9bcb8daacbb5abbdbadeaba89bc9df9afbaaadbc76af8cb6b
col29:   9898ba87babbd8f5974bdc7a9998b5a88dda99abdcb9bbccb9abbcf9cdbbacddabc7abba9bf9cbc8
col30:   7791ab889927a97a9a469cfaaaa6c888dac9baa9b9bacafb47b989e998aebbaccf99aaba96ac7b87
col31:   ccbaabda8a9c469ca78edc7aaadbaaba7beb6bbccdea8a9db5caeb8ccbfbc87dbfc9bacb8aabe87a
col32:   babaaabdd86c98caa9d9cbd668cb88eebbdeebad9babebb8a6ac8d9cdcf98bcdda9b8d9cacd7ecb7
col33:   7b88bda9dcc97abacd4d9a99adffacbccbdaccd9fcfabde9fa9bdceacafd9bb9efaec8eadefa99dc
col34:   7b994ccc7bbcc99cdcbd7cac8b9cfbecc89ccac9cecd7daabbeccbbd8cdccacbadededb98ba9cd9c
col35:   ad9cdbaebbcaac59dedbeb9bba9bf9dbbaad8cf5cedfbdacbaaebedaebebabdcbcaaf7eeceaa989b
col36:   a9b89acc7aa7ccda8c9bb5badeaec9bafaabcfddcc9bedcddcdecfea7ddcbe7c8dbe9decba68bebb
col37:   79b7a8acb7896b8bac67ddececaedd8bdcebbadebbeaacaebbdee9bbaad8debccadac9899adcfced
col38:   8d89cbdb9d997c77a7cbea9cbed9bccbbfddc99dbbbcabdaeeddb9abbedba8feeeeaabe9aaccc8b5
col39:   79bccedd8dbbabf9bceabdb9a8ecbddbdfccebbecdcbca9bdfacdbbd7baafc9b7abddaabb8dabdeb
col40:   8999c7acbbbbcda8ab8fe7dec9baded7dbdbacbbd5fbfdecfabafddb7ecfdbbb989dcf9c9ccf7b99
col41:   a3aa859cb9ebbcbd8dbdbc8bcecbb9bccaaceffba7ffdcdda8e6bdcce9ccffdb9faaad99bbbdefca
col42:   bca9bb87bb98a98a8cdabbb9cb6bcedbdfaaeadabca8fecfddfcdbf8aec8799bcb59bbc9bc87eaa8
col43:   db98dde9bcb8effcaaadcbc9bcbdeefabec8eebceacd9afc7a8cbfeddbbeacdadaabbaabbddebadf
col44:   5849ba99ca4e9a6ddce9cfaa87cfcdbf9ca97cdbccdb9ddfbbdaecbdbfd99cfb6bcbcb8aabcbcbbb
col45:   ca69c9c89ad99bbd9a9bdebbbd989adcd9dcfecbdf9cdecdc8d9ceeddfbceedfbddccdfaaefbdd9d
col46:   6ca976bacbbbbb9bbe8999cbba87dcace8a98accbbafbebdceefcabdbb9bfdca8beead9dd9a8aa9a
col47:   bc7bdabbe99dbbe98bababba9baaedeabbfefcacedbfca9daddcbc9eeaecfbda7fbedbecc9aeccca
col48:   ac8b9a7b9a7adaaecfcba9acb999bbabdcbbfaa986cdcccaddd9deccceeccebb9deb66dabc3d6ab8
col49:   ca89aba7cb6caada989d9fdab9ebbcdcecdecddcbdbfd9dccff9e9cbf8cee3cafcbbfdaacbfed8ee
col50:   b9aa9a78ccbb89bb6bbba8a98fbbfe9dbcfadbbbbf9abeccdbabbacabec84dedbdeecbccea98bcbb
col51:   77479978b8b9c77899976797a9cb7baac9aaa6fbedbbabcabbdbe9badbcc9b9a7c9ae99b7ceb8c97
ROC:	 BPix_BmO_SEC5_LYR4_LDR19F_MOD3_ROC15
col00:   362445647648655289665477799ba5555aaa76aa9c8b9767795787a6b5b78474763878985764a7c8
col01:   4c63a59a667578877ae937a59895b9aa986cbb56a96766488c89c999a58659ba28758783698a67b6
col02:   85c445266784ba8989b9a787859669b87698659abdab897a9758bc98c7e9baa857a9966887575a4a
col03:   48a3b9b76aba9795775956657cbc9b9f89979db7799a7b886a86898a9776a85979a247cb7685a557
col04:   5755872668776776b7858bb77bb4fe88baaa7ab88a8a88838b7768b9aaac56a8759b957996abab67
col05:   964a5a88644772788ac7a9a77ab76856969a78988a9999abbca99699847aab777797949cc3868485
col06:   699a65a83b586679677a89765458b9974c7ac8aaa8769596b8a6897a9ca59a798b869297699786b8
col07:   a95b599855a8a7884988ca7658c99875b9987797cd4898d79bb695b65977b89b5cc98698977968c7
col08:   529393b978c6797779b9688a5a88c9aab674cb5ba9658b8b9ac79999a6aab577b759f9b5aa988b77
col09:   58975659584894767695a8996877959b78c67aaaa896b766bbb699746ccba1778817986784a87676
col10:   77859999796479676a6299ba79968749b7ab8a9bcb999bb87db47576a89987a97caa83836b99989a
col11:   585788865596446487b877aaa9bac79bbba99888a8b5a95b676ec5a579a98a7ba89bc8b747876458
col12:   668888576433398caa564b59649bb978a9b95ac8c9798787a9ab99b995a87b93b8a7c7b557aa74a9
col13:   7793998947b8659486a99858b67abb5889a87b5ba9aba9989b9cabae999c86b7c9488c88b855b7d5
col14:   a986366b99897c54baa87959c78b968b8c6b87c745b9779b8e5799b698d9c8867798a777ab959876
col15:   34c9558697a86678b9466a898a88a8b8ba7aa6ae49968587a779bb876877bb887a9aa9b586567cba
col16:   46814486296a9975898996f9a9a4ab79777a86889a99cc9cc7a8c667ac8a7b9a988696a7798a46b9
col17:   669489365457589267c3767a6b999956798937b857b65a68d559b799aca785b7ab956aa4babb8575
col18:   94666846339675786875c66986697878cab8689aa6b9d885bc7a87cc9aa7978993665889bb7b8a85
col19:   a6857685895997848499888a76969c999b9aa9d7a9abaaa7f5a99b74889cb9997a7b779765996985
col20:   a8aa8257756856a96a7aa688b9b9768aabbb8ba59a698c787d9e74b879bab8da65886ac776a97947
col21:   6554a37865a66986798b776a8a799c5b9567a9d86996bbbc78bb71559aabaf95a88a449a788997b8
col22:   755a6b8979a7b88a88c8986c8b759ba8a87baab9a5b99b87cb78c687778459865798567aa6ac7892
col23:   4a368786257a963789968a9585aaa6488b5c9aaa9559759788766779999a7a79ba98d7998b988b72
col24:   9868b789b47b894c6978967a7667898b648a98ba68c9595777aa777b4857789a86aa977798c5a87a
col25:   86a689a697768869888b93cab39d764aa8a89a8aa7b89b99ca9b9b87ec769ad99b98799c789bb4b9
col26:   5687f76a88d887dac8bd78c8ac88ef6a7bc88cd9989ab898aa8bb8bacdedbcd8bc8a8a9f457bbbaa
col27:   9668aa96ba977b99a79c7bc7888baad9b9867d7a98bab7ea7eccb9a779a9ccba879696a9b9ca79b1
col28:   ea888bb586c68597a8ca9c69b1dd9d8cdbd998ce8eaa8acacabc9c9de9aaa6bdcbc98d998aacb8bc
col29:   977a959a6b567cdaaa7ddc99a8ca9aad6ceb4be9ddb9bcbbaceed98b9de8bbca7a7cdca89b8fbe78
col30:   8375a94c87497b7abcc97a9a777bdb89ad77acd8baccc9db73bb96bdcbacbabae77a999a6bbbcbab
col31:   869acab8ab8daf9b9ccadddaca9c9faceaaaab89bd8edbaad9bbfbbdfbaad888ac9f9c6ebaca6867
col32:   6896bcb978b9a65899b78acb9eb9f88bab9a7cd9cbccbabe99caebbcb9dbc7c8d9bcbbb8996799ca
col33:   75977ab678673a57a6ca986a8cc9ccc89ccccbaca7b8c8aebca8c9bfbfac59d8aec7abc8789c989b
col34:   a877a7a867a58fdfcbca7c9babdd98cbeabaecaebaecca6cabbdabbccdaccacfacbbedbacbbc88e9
col35:   a5787b79797a987b8bbb9ad7ceddccaa8fa9bdbfcd9ceddabdcfbca9edea9be89b9eb7aa9bbeab9b
col36:   caa8a789968b9ace8ccb9edcf9ad9aec8ac89cb98eaccbde9bcccdaadcdbbe8cbaed8dc7baa7a9cf
col37:   8787fbc89756bbdacc8bfac9dda8d597b7bd9cdbfcaa9cdeccbbbcbeccbcc8ebb8dcdedb9c97ed9b
col38:   c4aa987a9bba8aabb697c8fa68b7ef9a9bcabcecdc7dd8f9fcdf9c9aadeedabcfcccda9abdbcbdb8
col39:   37dbc3b3b7dbb6467bc99d7b8c8bdccababebbcaecacafbedadddefbddd9bcdfbadebabd8eabacba
col40:   8abafbac8a7b88af97bbcd9be9bcccbaeaedbfcedfdbeabca9dcccbbabbbdbbafecdbba9afcb9a99
col41:   9669eceaaaa97c69abbbcabd7cdd9dc9bd9bf9c69cbca7efbaecdcdadfabbbaeaacfabcabaedda89
col42:   dd76aa9d9ba7aa8c99dedebbaebb9ed88debbdc89bddcdddfa9dfdd9bfcbbbef8cccfc9fbaa9b4cb
col43:   abbb9ccc9e7bf8bfdb9bdbccacd69ddddebaccedd9fed9ddf8bbfcebcefaffadd7efaedccadddccc
col44:   9db9aaa739b8ceaabdbbc8cbecac8dbdcbffabdfdccddccefbeeaeabfdbbeefdbbc99bbad9b8ddda
col45:   9bc9789cac79b9cdbdcca8aababceaadcddcba9baebeecbbddeaefdaeebfffedbdbccdebadbcdba9
col46:   babca8b7ac7bacbccc9abab8dcdbedd9ebfe8abbeeecccfeebaacdfbcefcbceefadbecbcebcda8af
col47:   b5dcdab9dd6aacb9f9bada9fceddecdaaaa8ceacdedaecc9bdadeceddcfccbcadcfdc9cdcccaeeec
col48:   976da9c98dadbacc9c99cccedacbcecedd9acdc8acddffcfcdefdfedccbdefececeadccaebddacda
col49:   98799cbbdbf9bc98dafcc8cd8ddadbcbe9ebddfbccfdbeebebfddcffdaabdcfddebaecdcb9fcfecc
col50:   bb7b7bcc9cb9adbd8adeb6cddaeabcdccbfaedceacfcccdedec9defdbcabaffdadccede98eeaebee
col51:   da6798db79b7bcbc788c9e79bbdfbacba88adcbcecbca979cabaaccaa7acdacbddbbcb99bbdcabaa
