ROC:	 BPix_BmO_SEC4_LYR1_LDR3H_MOD1_ROC4
col00:   8dadcffcac9eadaf9ffefffffcfcbceeddfe8edffedffffffebfeefffeecfcdfdffefedeefebc6fc
col01:   877ac97854a95999c36be8cca988ca8a996e9a8bc69aeaaad9dc9d849dcad5e959dd99ba8c9549af
col02:   b88a87a86566ca9a8bab97c65c7aa89a9b69c89c689cb99d8acaacd9abc78a74aacab548878986af
col03:   f98a5696875758a7bd7988c9a8789daa887389fd9b8cc7db9a775dd97d8aa7bab6eb7785889bbdaf
col04:   a56c6a9ab6a8a8777cdc7d9a889bb9969a367f8b97deeadea999cabacbc789c5bc9d9a9cad98a88f
col05:   dc58a37586ac8ac7d58966a969e94868da889a9ea99aaace9db8ff9bb78b6c8ead8b866adbc9a89e
col06:   babbb56cb6bbb98c8a88baaa7c99c8969eabcacdaa87faaefbc87a6c8ac858b8ab96bba7d89d87af
col07:   ba88d5968945982c6ab7b679689c8e9dfbabbbac9988a8baaacd86979f9cd7a58ba9957c86aac8cf
col08:   db69a9994a5a8c7aac9ca8888ba7cba9bcab3dd5acfa9c6a8addd9adace988689a8b9b55c9997b6d
col09:   945a68a796878888cc85ac5ab9acbcccc96aaac9aac99bbc89bea5acff7daa79a9d87abac9c87bbc
col10:   c6a6793b88a74866ab56998aad98eb9b997b9af999c8e9a998bca8bc8bc9a7bc797c98ccd6ba388f
col11:   944798b7a8869ca9b3aca96b68a8a59d7d9abb879fa96abaadcacb9aabf9aab8b9a9cb99aaa9ecae
col12:   b6176b9a3175a77ac3e9facaa797bbce7aeab6aa8d58c99bbbeabb75b9c99edbba8cc769b8688889
col13:   a8897aa76c68976885a9c9ae989896acb869a74b97c57a8acdbacae7bab9db74bc9b797987bcd96f
col14:   a98a98dd797ab99756975bb88dab9caa6faacbbbab985ccc9aaacabe8aa7bf87999cbbca699db9fd
col15:   ec7b35aa74acb4ab8e3ab8a9bac9be8ac97c986d77baebbcb9b8ada9b8ac9998cabaccab979a8cbf
col16:   d38595985368b7ec6578c6b9ca7da7a9cbda7bb9b96b7dcbc8a897bbdacd98a986c88588a79b98bf
col17:   a6774a88868788a3b9bcba585c95a8e9b98ac9aecba9edd97eb8baaac9ced8dbaa4c59bb897c9b9f
col18:   d9a68737857b7889a867b98a8998aa73999a999cbcaab9e7aa49b7b7b8b989a76bbcea9baaa9ad8e
col19:   d67b79a25ac7ca37c895a5a699767caacc9c9998cc8cc9bebabdc788fffec5addb99eb79edcaab9f
col20:   f9b4ba94d97aa889bbc9cc8c6ba7c79b4aa9eba9dbf9c7699abeaefbbcbeab9caa7ceac8c99acaaf
col21:   a4735a6787ac8b96cda899aadbbdba988aba9a6bb8dd99cb7adabbbbabbedbcccc95a9cc8a679b7f
col22:   995749ba6bba758767c6bd7be9abc957cbba96ca799698d88add9dbdd5d8c97cadcba376a7a979cf
col23:   b8b49697ca3da978c52966987778896cc9ab796ddeaaadabc94dcc8ea8c98aca57b85c9a6dddc97b
col24:   eb8cd9d69b8a89987a9caecba3ad9b798998dabaacdb97bc8a67b99dcc2dfb9adacbb9bcdacdabbf
col25:   ca966ea9957a7db79bad9eb6fa9999c8a98afb68cab8bb7dba9aaca8babcbfbedcc8da8ba887c86f
col26:   b596b5bc8569ac49da7babb99da6dca79cdbbcbc9a8c8c69dbeda9dbdabacbdca6ba8afdf7e7b8be
col27:   e6889a7c57ba8cda8cc78c789c8accabc9cdd7dbceefebcdbcccdbcdd9cb96baccac9d9cbdbbdabd
col28:   ea3a28f5a77c9aeacbcbeba9cb5addfad7769aafcc97b8bd9a9699bdbaad79997c8aba8bd8a7868b
col29:   b6d778ab79cc77cb7ecb988abacceec8bcb97cb7c8acdfd89f7dac98eddddfabf8cb89c8bac8e98f
col30:   f99c979ac879788d4b7dba9ae9db7bccab9beababa9cbea79b8cba88eedb8b9ccd9dcccdfad9f46d
col31:   f88baa99a68b77de79d98bb8dfadd89ba9aabdcbbc5eae6dfaf8bd99987d7bbbaf8eadbba6abdace
col32:   d7c9a6d89a867b55cb7d9fc9db8dbabaf8aabc9d49afdadbaabc8dd7ee99b596acbb5bbb8aba98be
col33:   d47a57d76778ddb769c897af88acdc9b5c7bcdff5aeacecacbc9beeebeedfdbc7f88adabaa98baaf
col34:   d8c9b87aa5cb77b98ac9ed7d99eccaebfaeaabdbfdf46bebcbac87adececbe86bbc999dc8ca9aaaf
col35:   f752aa79b9988c679caa99aca7c8daaeca8c8f9bafc9a8cffbfdaa9daab7a998b8dbbcaaaa9bcb7f
col36:   eabb6688978dbf89c95a6ccf9a6a9bcbbc8ebd998cbacbcebefabdd9bddbc99cc9d6bdaa8ab5dacf
col37:   cb35cb9b8889ccba68eae9da998b8bddbd9867bdccdedbbbbb9dceaaccd6aa8fcbfdebd8bcaba67e
col38:   b598acda268dcdebbabbc8d995a4dbb9c59bb9ea9dacac9dacbdffcfdefa79b8a6bfbabc9da9eccd
col39:   f65898997a69c9ddbca8baca9a9aa5ceecdab9bdcdfbefb9c8f8dcdbc9ed8ea6c9aeacc7ddeb8aef
col40:   faa899c7797ba898a6b77baaa887997ba98dbbcddcbbeafbac87a999fb5deaacd8abcaeb97bbeabf
col41:   fa8637b989ba68babbbb8ccb7a8ddcbfbc7ebccacc89aaccfc8a6c9aaecd8aac9bbb8deedfc8c57f
col42:   fab7b687988a68bd99ba78b88ed9fbb89adcfbdcbdcfd8f9caaaedc7ec9bafd88cdbfccbb8fb6dcf
col43:   ea99a69b87987a588cae5cbcca79c898b6adde7ee7d88cacfeaebceb79d8dbe9dfec9956aaca887f
col44:   f58caafaaca86799aadbca8baabbadc68cdabadaa8cd9bd8accfcccbebe8d7ccfcdb79bca87857af
col45:   c59587997ba78a49bda8bd9e8acbcb98a7b9fbbaedccadcedccedbd9bd99dd6ac8ddcd7ec9cbbaad
col46:   ec53a5987acb98bb9abf99889bf88c8efefac9a9cfdadcadba9cc7a8bc9eaac8c9bdfcedb9ea8a9d
col47:   c765d98467c68b73849bbfe98db9caba9bbfefad797dafcbccbbf7c7979fabada9ab9ccba9bd89cf
col48:   fb83584978eab8999baa89c9ab4f854ccd8c8aabbddc9b9aecbedcecbe9e9dbdfbb7eedf99ebab9f
col49:   fb669886b7ea7ebe98bdc76867b8abbccbaefbcdabfebde849f7a9cabbdc7cab8e8cdfb7b788aacf
col50:   eb9868a94ab6638887b99d9c5ebaa9cacafeccd99efbc9ad9dcabadc8cdc99acc7a9a87d77ac968d
col51:   febbbdebfce9bfdffbbdfdffeba9aedefffdffdfeffffffffdffffedffefedffdffffbddffadbffb
ROC:	 BPix_BmO_SEC4_LYR1_LDR3H_MOD1_ROC5
col00:   f6ccfca99f9ffe9d9f9ffdcfbfffcddf8d97cfc87bbd8fffbfdcbff8ffecebfeffcefd6cfcddafda
col01:   c688667838876d988a7877b67769dcebd8888b78395687b8db7969db9f7eeeb8ad67ca898ba9fcaf
col02:   b8547bbcb1694ca85a9c7d5d59ba8b9c429b89f68da98ca9bab9fc74ea8cc8dca9c8ac4fae8ec9cc
col03:   e8b8b9b66b7798a7c6758cac9c986abc7cb66ecc6976abc8fceb3cbebbdbcb9bab9ac7ad8c9878be
col04:   b857abc98789c59cbc8db99da9d9aabe5ad9eac789dbc9a8a98ab7dac98ffdaf987a7ec95876695b
col05:   8877956a86497aa67baa79a7af9db8ccbbcb687bc9b698fdb7ab6b9b9879ea2cb9c8caaba7a6a9af
col06:   f46c97c99958776d59d7a9898a9aaf9f69dda7ba99bb9d49acdb7bbb995f7aaba9ccd89d88e5586c
col07:   a783bc98b8b8a89649ca7b8588eb85b96caa79bac5d897748c48cab8a9baabcb9b77faaaf8a9b9ff
col08:   c97cac878b8d95856597a7367cba979bb799a9a785c9989b9a8ca999cafffad9669dc9c7cebb857d
col09:   a759bc85696a9caab9989887a7fed9ca5fcabb8ecf87af9ca8ec8bdbfbbebac8d87b8b99eabf7eaf
col10:   886d89b6c34a99aad8886ccdbacdbedb8dacfb79f8a86b6acbba77accaaacde7aed68bbfcb7839cd
col11:   f77a5764b7586b8997968b8c78ab8cb88c46889a78c89ca8db68ab3dbcb9dd9976d788559bb7858e
col12:   f7746b86b68793577b57799c73c8ac7b8ba8daba7716c69acdd24cbfccdbdda6acea8cbb8a7dd9ae
col13:   f97556898b39798b69b7b8ababfa89eba4bbbb67de569ebfabc9cbeee69bea88bbebd99b997a798b
col14:   f9756b8964ac8a8df78c8b7cb9d67ada9989b9bccc8e6f88a99dfc7acfb799cbae78db8bbaacbb5a
col15:   f77b6bb98988a7cb79b799863b99d8bdde6ae5abbea7c9b4a7c77f9db8cbb67a99bcba9e98aa757f
col16:   c74b5986495d47adab7d7c899cc9aafbef99ccda8a6968b69b97f78897ed8bb98d8b56d9c799ab7c
col17:   c9823587aaa9a7a9ebb95abcdaeb697c6b697ad7ab9da995c4bb3cb879cbab8a6c86bf7dca96986e
col18:   b9267a3687a9a8ccc9bb992c688bcb6b76d858c48eac6c99affdbeab9d77ac7e67da874b4c98597f
col19:   e9768776bb28aca9bb3ab96bc8498a8c3958b8b5ad73ca8cc66bcacba8ad78ceb8acdccc6a46c57b
col20:   777a8988bdbabac68d9978b6dca7baa87b8a72c7c7e9bac8b9ef9ac8fcc9ed88b586bba989b8689e
col21:   e64aab8c978a786f98b89ab79aadfd99e78d8a67c8a898a7b9abcbaa7dc9bccc789879ca6798a76f
col22:   ba7799aba9795a9abc9cd7b88a98dc9aac99b9a3dc9f8dcddabdaa7cbbccca77bac88bbba9a98a3f
col23:   e72888aaa6aa7f769bd968b867776ab9f8bcdad99dc69d8aaccbb6f8d9bdb9f8996eebbbf859688c
col24:   edbc99b77acade79787b778b918a8597dbcb97cf8b7baa8b7cbddad8cbae6dbbdd8d6ca83937988a
col25:   fbdca7a5dabaac8c9779b78998dc75bc758bd4dcd98759abe9bffaccdba6ebcb887ca8ebecbbb49e
col26:   e988979aa8bb89db96899c896a8ccbcb7babef898cd97ab8ecefffc9cccaebacb577559beaab89ec
col27:   c7b9a78f7cac697a5a59a589b8ca8ba9a969ccaaca98a969b9bdaebdab99f9aa8a8d989df99cae5d
col28:   bacb8889c979a9d6888977ccbc99a9faccac99d66b89bbc7ad78c8caaf9d98dbdb947f96be58ca99
col29:   f7473b7c5a7c9a746b9b9ad9ecabec7bbcbfb9ebccaacb8edc78cd9dff9469a6bf8fce89f9e7dc5a
col30:   e7d976caaca6e2bd898588cacdcc7b99ba9de68f9fab99dbacaead79acdd579babbb8da8fecbab6f
col31:   ea6988c788b6bac92ac88bebfcbd9ddaccaced7bad8ffbc5ccdacfbeeacbfd5bbeac9dcceacad98f
col32:   bbd68aa9caaa98987baa8dbdc8fd9ccaf9ce8b77dab9cd9bceadddfdaadfde9b8cbbf97cba9a88cd
col33:   ea6b7a3d6fb77a688b679cbbabbceeaf9d9bb9b9a9b6bdbc8ccefdaecdaab9c87cdbdb9bf6edba9c
col34:   f69c7ba8c898bccabe989bcacbdd7c7f7c7c9fbbbb69899dcdbafbfdcaa768e889c9bef9ac8bcbde
col35:   c79a97b777a68b999d8c79caaa99a9ab98d3afc7cbfcaba8d9bbccadef6bdbcea689c8acc5c9daaf
col36:   e877aba7596b5cb97ccc8acd9379abdba958bacc8cfdabcbafeca9acc8cfdd9958bdc8d7addc9c9e
col37:   e875abcca2974bd879cb889b7599deda8aad89ebc98be9f9cd9d9ddbc9dbb7dd3bd9d679bab9ccbf
col38:   b595bfa4875969b4caa8aab9fcbaa8ccafbbc789ec7fedb7ce79f7bbaae8fcd7989bd9ea59ec7cef
col39:   9b8689ca99a67bd7589a95d9bb978aadcacecbcccabcfcaccccedcfbbfed99dd6dd9e8aacc6cab8d
col40:   f8ba7ae85cb9688cd57e6bea7beb8ded879988b99cbdabcbeacdbeefc9bd9df98cb9c9af9bbad9a9
col41:   d98888d8dccabad9ad7ec98a9c6bbc8ca7dacb9adac7caeddaadbaabcc77bd8efa9fa9afb79ebacf
col42:   e76bc78a669f88968ef9baa88b9a589ba65fbcedf9faf9bbccaacbff7dab7ebaaeafcc7dabae9eaf
col43:   a4875978a8ad7cb899a9ca6dca8b89b8adbacbfadbfaeacb7ceebeaabe99ebebc9d9ad9bdc7eb56f
col44:   f59885c75b8bb95bb57a8bbdbae89acaac9aa9c97f87aafb9bcc9bbdeedddceddc9dcc7d6cc9fc8f
col45:   f9ce88b58897a9867dbb98b58db8b8a8699dfddccff9ccd9dcbd6facbaabbe798fdbcfbccad9ad9f
col46:   f75857768559a9748bad968b7fcfaeb888baffddbdff9cef99c9fab8bc9dfaee8a9f87d5e56ba4de
col47:   9457ec682a7bbb9c77b4b9a88d9bc69c9da86cad7aca87eefdcdcaef9e8bada857ab6d96f8abadcd
col48:   c96baa9a83ab6d897449966e94af6ac98b8a98c9aa79eb7d99bdbb7cdbb8cc8bcffaae8f8b9abaac
col49:   e97986b6a756fc49b76baaab6e8bbe8aab8dcbc998ababc9c5faee9edc8ec87db6e8dbd7ccab97cf
col50:   9a66b6986d9978748b8d9bbb78b7a9be89dd8dbd9fd8bdab99487bdf8a7dc9eb87a7aab89b7dabce
col51:   caa6b9dc9edaebffeaafffffffbdfffbfcffffffffcffcfffffeb9fafcffefffdeecf9fbfffafdef
ROC:	 BPix_BmO_SEC4_LYR1_LDR3H_MOD1_ROC6
col00:   8bba97cfdbfb8bddfbbcbcbffdefefffacffeddfbeefedcecefbccffcfffedfcbcfffcffcfffc7cd
col01:   e5765a6687d66967c9cb5496dbac59977bc9d6778e8a9bde6bebe87ccbbeb885dc66baab898ac8dd
col02:   b6a9475a5a7a99486466c78a98b763aa7a9c8ba9b89a88a498dae4aadbacb59eca964bc998b6bc5f
col03:   b77a99aa6b8959b8c7768ba888c7998999999a797da78ba689aa87e9c998bbaaaeddca89887dab7e
col04:   c69876386a8a697ba7aa6cab4c6a7aba66b98aabc6b8cb9c9afcc8c8f5979cb7efceb9ffca9a77bf
col05:   a5a3b88adf79a8a8c8a68ac9d9ca89b5a7cb9bb3b8a6bb9b9dccbdab5d78ba8bdbacbade97a9a88f
col06:   e37739a37787861b9997478a988868585cbb87da4abdab6cb8baadaa88ed8a9b9d8abdc7c787b6bd
col07:   f8544298568dc579c8c6c87b78a9879aba5a6aab48aabaa59b8ac9d8dc9986c8b6cdaaaca896a7aa
col08:   b45697679a9986a75bdabb669839bac97b9dd8b9b865977d79acc88d8bd6ca9cc8ad9bba9dac699f
col09:   fb7976b6695978a9cb9d9865ceb59a8cab8ad9bd98a889a59cea9bab6e6e97dfe989b7b6ada88b7f
col10:   d8a89a9985886377c9a7caaecba99aab75b9c94bdb89aa7b89d8aaadeb799a67dc9abbdaba64948e
col11:   98499247996959b4ab5aab62994aba6997aaaaa85af7998bd8a9b989bca99a889aa9898bca7a597c
col12:   986774543da7495789997455a8989d959c79c9a67bac99baccbda9dd86a9cd9deeab58caacba8a6f
col13:   a44753a7569678686a69d8a857dab7acb77c7cccba9acb798b6cdbccadef9eb9a9cae88a9ad5599e
col14:   865737464b698bb5c787679649a7c7c79e8bb788ada76999ec8dc9e7988db9cfbaaca8a9bca8ba9b
col15:   c477aa33666556baa8aa8aa848ac879cd889c7bcc899cc588cfaf6888e59a9b69ddb73e7c995665c
col16:   a4636749796a47999aa768b98bc9dbb6b9ac7efaaaae75d99956d7bd953a75bfcbaa998aa547b49b
col17:   828985788989599ab98ab69ba99cb7b9a98cdcda976da87db9cc598c6abc9a7aabc879859cae569f
col18:   d167552678c594cc97959968a58aacd694c8899a5bab6aa9aac6baabc59aabb76e84acc5699a8689
col19:   b97549999669a93a78a9779c759869c8db9e7bab7bbbc999bab9c9b99a68cabbb9a4878778ab95bf
col20:   aa5646b996a4a9ba99748bac949ab79caa7aac8bbacaacb7bff98d879e5c8a8a89d8c668a99898ba
col21:   b8a6985c89799a5a969956589a89a68ac77674ca9c9799bed9cb6acaa899c87a9ba78bb9b77882af
col22:   c67678636896919a77b776696fb8c899a6daa679b88cb7dafad99af8969ca7a7ca9c9b88595aa76f
col23:   d752189b96a5877999999c76a5478698aa63d6ac986b856bcd9babaaac77547ab686c99d78ab566c
col24:   86547988586a798d59b6773686b68b58cb8dad99788edd78becbc999b789a8ac9777a777ab8a96cf
col25:   c547695a486577777b9b789a7648856a668a599c65ab98ca7b78bcce7b7acdd69abadabac998ba9e
col26:   f865a4792a2689987eaca68c85a64b68db9a1687987aab9ab86ea8bdeddbcb9bedfcbb98abb9b996
col27:   dac7765abad67b83ba74869d4a57ab9889ca5659b8989aba9b7fabb6caaeaea97999ceca5bb7968c
col28:   f8b6c5879597b9699a9ab9abb7cba8da73bcabbb77cbd8b9b9bd7ac97ba4ceabacae8cab96cb78cc
col29:   f89999b6bbac7aaba568859a877897968ab7a3a79cc89a8aa77b9c5addbcd7cbc8c8bbca9abca8bf
col30:   c6999dba6885bab773bb798bb57a8679979ba97ba75c88b988898acabccaab86987bbfd96baa9baf
col31:   a97c897bba697d64b87749a9d9fb69969bcba6a9ebbbca5ca9b93dbedd98bac9fbb98dbb99ba8a9e
col32:   d7986989aa8cb7d8b7e9cbaa7764cb8bac97aac779adaa894adecc9abaff9aa59cdec9caa5e9997f
col33:   d9b61866754857aa9ab969cb9c8c9ba95a7b632a68e9685877ed799a88575c9fbdbdb748bcadacb9
col34:   ab38587869a5fab955a6a9baca8b9bab9aaaca5ba9ccb9cae8be88aba89bba78e998e9aa7acccf8e
col35:   f787a73897b786686bca8877a8bd7bd89ab849ad7898c9dd9bdb9cdcbbaaa5bbb997979ab9b95cad
col36:   9b75c97765487aaa7cba67b9acab9bba69587cb899c988a89e79aa98d8cdd58ac98da68abeff798e
col37:   d89b695794d8a6ac497aba8975958788a8588fbc8a9ac2dfcc6cddfba9fd8a9a9ccc4ba7a7dec98e
col38:   d88387bb968898abbaab3c67bb66cd988bb9a8987bc87bb98eecca8dfcae96baacd8cbbfb9ee78ae
col39:   ab69c9a5696d8774ba99a66bba69ca9b7a8b998989aad8aadae9dfbc7deab859cba7ca998a89d8ef
col40:   f87a684b9977996e67b97a7978bbb9cb899adc7a69d9baa9e9ad9dddc9cbc7af7acfcda9cdb89cbf
col41:   d9bb9aa859a8aa79bc56b858baca9c886aca89aaccc8bbdb9dfdfb9c9cb9bc9797e8eeabdac8cccf
col42:   e878989778fa96ab98bc997b66ae5cabaa9c8686c8b8ae59ba99daee8ba8bb9da8afaced7ec9e48d
col43:   f5ba758b8daca999c959a9b5aabdad7b99ba949cc9cadddac9c9bdcfebb9bced8aabb7cade9c57ab
col44:   ec87588dccaabb6f6d8d99b57ab7bbcdebeb9edcba9ccc7bbca99c6ad7cfab7c6ca89dfc8793a9dd
col45:   bb89aa8ab7bc8a8a86b889bbdc88999c9a99d78bacc7899a9ba7bf99bada8b9baedb9599a8be686f
col46:   cb58b88b58878b93bcf9aa4cbae99c79cbabdc79ac8ba8d787ababebabac8a8c8bb9b99bdaea5c8f
col47:   c598a99b9a7a6abc8ac96c3b9aae4bb69cabb6acecbe9cbadfdbc6bab9cc5bd48b7778a9ebb8adbe
col48:   b37678aa7b8a77aabab7b9c7a97984bb8a8aa9ad8c7bb9abc7dea99cb97a99788c89a999b997f98f
col49:   b68468a4b68d8c9457898969569b7abab9d8ab8bc9c6cc7dacacafcab79cbcda96b979badcea87df
col50:   e9566b8a78889b9a79c9bc8cc77ba8779ebcccb8b99697cdce79abccfbbaabb9478a976ba99da9ab
col51:   7bcaabbaefdbcceff9dcdfddeadeaceebbffecdfef9fdfdffdcffffcfecdfcaccafffec8fdfffe99
ROC:	 BPix_BmO_SEC4_LYR1_LDR3H_MOD1_ROC7
col00:   babc9cb98ebcfbcedccfffcfcfffcfadfddff9fefbdffddcfcfcfefbfbffffebffffeffffaffcf9f
col01:   d6377678154678572aa977a9a7babc9bb89bba9c67aa77adb9eb99ccbe7a9a99ad9cd95c9aebedbf
col02:   9278b66855576b668b4bb98c97b67ca6799cd6bacd9daecc98baa9ef8c8d7dbebc8a9e8a8d9b78af
col03:   8659b86646b96bc9b65988bc8b7dbcc9a8c88cd7bc76ddcdacbaeb6cbaba97ccf4d7bcbca6dbaa8d
col04:   ea589466767ea973977a7a27a7a998a89889bab78f9baf9747cfd7cda6b9795bed59a6c8989cdcbf
col05:   f4463aa664d999a99867575ea499dae888be96a9cdbc6b89fd8b8df9a6b8bcbccaa8659b78989c7f
col06:   b8656867958498a8ba67daba6cdbbdc9eaea6cbfbaa5cbafdb7d98edcf9bbabafccdcbb7cacb99ae
col07:   c968986a53989b6ab86b6679a978b8cd6a99fd9bd98bffadeb7d9cc9ead9cdb68c799dc987aa5baf
col08:   d887585da9a5477c95e86ab8ce7aa9a89c98ba9dbcacbb97ccf7ac8abdbaa9cbcc9aabbab6799a4d
col09:   a4438473777967866a69fc96886d589a69b7bc8979d8f8ecbe8bca7f9bdb97ceac9dd7c94aa6a98e
col10:   d4967a47a76aa8886a5558a8797a9ab7addbfd8ebbe9bdc7bd7affdeaccbbafd9badf9aaae98ba7f
col11:   c88a6a6966757cb3777766a8699cb98bcabc99eab9b9e7bdaaed7cdebc88afabd7bcc7dd9ac985ad
col12:   c7854989874797858ab8a78cd9ab85bb9a87989fafbe9abcccb6ba5b9499bfc8d7b878ada77c987b
col13:   c877b8526666678897969cb6754e35e89b9bbafd798aa8ab5a9ce6b6dbd8d9959ccbbaab3aba87af
col14:   75897887577a6795a9b5787577a68d8978cabd7a6da8dea7cbaf9cd89dba8db799c69bba88ababba
col15:   a57671772156895788889c65985da9aeca7a9a7bda8ab6aacdacabdcebabc9c8cdc9a89da99ce6cd
col16:   9759755638b68756558a989697d9a8ab9b8697cb9cecd88ccbb8adae9abdc59aa9aa8b8887c6d95f
col17:   c67874c6b79987669a6b77abcd5a78ab989dabcb8b99bfbbeacd78aebdeea88bdacaab9c989b9cbd
col18:   b546ca8a2898599b7899b6b69ab9ea8dedbab8988dbdbccf9dc7ddbaacccbbcddc9abcab8e86d85e
col19:   f97a8677665c547859964895a8a9a9da79d99ab8b98faeccccbddcbbcfb9eca8cfb8fbbadbc8f8ce
col20:   b587a68ad3673a28764634bc97984abbca9cacbabbac896dc9da9ba6c9b9d87d968ea7d7b89a98ec
col21:   f76864b875b95a639a4a8797c7a77dbd8e7babc9ca8bacbaba9cea9deedabbf9bfbcb5dd9baba88a
col22:   c5857aa1653a967777ccb57668f788796fba99aba9cdebae8c9abf9b9b9ddbddb7a8baba76ce67bf
col23:   96656b5285825a5b6c886b9a969aa89a6dc9d6979aa9e7bcfb58dabadcc8badd8ce9efaaea9bb9bd
col24:   f77a59696858c5966648489d478c8a8ca8db57acb9adbbc9a87afc9c9a7bfdbd7a9f8ab98adb7e9f
col25:   dbb7667985994777677ec9d7aa9adab8a86a97abeeeac9b8bdd878fbdaa9c7affcf7bedefad6c9ce
col26:   c889579b7a988799976b7bb97aacbd9aa98bcdaac6b798abc79ac9cebb9bcbaa9aebbdbaa979eacf
col27:   76a6a76956ac998587a984abc989b5cabcb96a9ddfa8dabcdafb8dbbbcdecaec89dd9bbf8a99aeab
col28:   c67748a72b77ba66b7aa9688b7cac8bda6dcb8dadbaacde9a89e8bb6cb86cc99d9dd6c8cca795caf
col29:   da8c88686cda41487b8cbb9b9c7bacde777bfbbbbfa9bca7be6ba7e8aae7cdb9bdaf799a89be9dce
col30:   99795689899a777d8cb679a899acda99cbc97bdcfdba9abe9cdceaacbbb9c7bbbbc8dc8bbaba9a9e
col31:   c7a9669886767589cadcc9bbebecdb9c9aadab9bcaaca9ab69badb9fdb9cc7abfcdbd8adcd8b7bff
col32:   eaa9a9578aa44298a67aaac9de9c88c99d9c8c7dacbdbba9ab8acceedc9eb8bab68df9a8abcb9e9a
col33:   b6ac9b779a89a79d87a897dcca9eeccbc8c8b9ceb9dacccabcaaccdddfae8d9eafabec7e9abccfef
col34:   a48b688a86a8788a898bdd8aaae8ae986889999d989fb9bba9abfd79dccddbee8dabfb996da8c7bd
col35:   c99a578a768798ea677b8bca8dc978d7fbca98fc6b7d84fba999bbcfaab9bc769c8dccbead89cfcf
col36:   abcc39566ba59769b9b88c8b899bdc97a887a7a88cbc4fcacbaaabdcab6ce9c9acacbcccdcccbdbf
col37:   87947795687aa9dacda9e8dc9ab7aa97a87cca78ab7a88abc66ccab9debd8dbc57aacbba8cdfe8ae
col38:   a4789b84517995b687ac9bbb87bae698798c88da9b9cdb8c6caadbac9bceab66b6bfabbabba96fcc
col39:   ea466b6ad9879c6988ba59c7a8b76bda9ab7b59ebac9a9d9accaa5b9aba7cacaaaaabf8be8a6abdf
col40:   a989a9856568766948a89ad8c8b9a86a86c899bcab8accbbdcdbeedecabbaba7bcaafd599a76d79b
col41:   f3a3529a77867588b7e98dab8b99b9fb4c5dd5bb8dab86cbd7c7a98bdabcedbad6ba989cbcbbb8cf
col42:   e8b257a88567b963967c9bb8a9d7cbcd7ac89dbddbffaa5ca9bec7af9bbacabb9e5edcfd88a7cbff
col43:   ebc87858a979a879a9abc7a76988b99abcedbb66bbcb9bcb9dacc9fcb9cd99ba8dcba8a6d5c8b98e
col44:   c74857893bac9669a8dbaab9bbbf8798ddaa67e7ccd9accacdaa8ab8e89f66acb5ce8e88eda8adab
col45:   d3b7a8777838c75987697c7ab7fa989ccee9fab7bdbdc49bec8becc97bdbd7ccd1abcfcd6fd9ca9f
col46:   d35988846b584987a9799c69768c7cb9aa878bbccaab83b999ccbae996959bc88eed9bccc8ea9dcf
col47:   ba869b8983b5775ba958ca38799cadcc699edcbaa8deedc3ccad9bbfea8aea79b96b8c8ae9997bbd
col48:   d7269a33945517b6bab7896b8879ab67d7a98baadefbd6abac9cc9ac7b9ca999bdc79bb9ba9697ee
col49:   a958888a88c4aaa6c7a7a969b7a99fb68595b6b9bbabacde987bbaf7cbfb8ad86b7ae88cccacbbaf
col50:   fa75c79797a7897a49346ab89b8c886d7995aa99acc9a8ea85b6c9c8a8acfdbbac6f67f69daaa5af
col51:   9fbc9fadbddcafdecfdbafefa6ffffffdedfedfffbffafceeefffcfffefaefffeffefeefffffffdf
ROC:	 BPix_BmO_SEC4_LYR1_LDR3H_MOD1_ROC8
col00:   8b898aabadfbabd6bdfcafafcecdbdcfaeafbddfffdecdbfefbeffdedaedeffebebcdeeffd9bfcde
col01:   d74396a537555a8894995988758d789789b7896da8ec967c9ab6c89fa9cad89acad79b8eb9ba8abd
col02:   74465278636a855c58b76a5abb6a9ab59669c8bca999caac7878dc8aab6a98878b8ab6999668d99c
col03:   e565856b5689bb886488b58b98a6884ea7c8a9fdc9878a9caab9b9cec9b7678cbcb9bbcb98778b9c
col04:   e176666835358c786ba867ac66c569d87687bba98bb89b88a98aabc9738858c8d868c9a976a9a99f
col05:   e5576a8677a5988947a4984c79999a8989b6b69dbd9b868a9da9a8a7a886b6c7c9d588b7ab97677e
col06:   d575b86865a769779a73866c97eaa6b89587a7bb88caabebafcc7dcb9b5688ca9d98dd8b979ac99c
col07:   b16688996b65a86956a445969caaa58b9b9c7a997a9bba8ccaddcecccfdb8b889c397ac9c5489a9e
col08:   95636897aa99864987993855688ab88688aa58b9ca99ab898da68a9bbca88ab8799bebb47c6658b9
col09:   d8451836885797c96759778dab56c9b88c888cdd5bbcab7b8cc7eac9ab89d98bcd79987b8cc9ad8f
col10:   98468887835595675987c57db757bbaa48c6779d9b78ab9a98a99d799799c8b65b9bb68a976b9adf
col11:   d86665a666b8b9a887559c8c495696aaa79898abb897aa9b889897b7a6dbcad87aa7bd586da7b97f
col12:   b3347765767477497a7988ba799a86b87987a9a8ca9bdadf98bc6daafeabcb96cbd86b99c9eadacc
col13:   96874ab998384a87688799979799c68ce6bb6ab6da99be87ada8cafbc987a7bd6a9a6cb78aabe9bc
col14:   9a8868a6675577958786879b9694a897b76acb6a98b9848a8b97ba98888b9cb6c8ac88bb5779e69e
col15:   aa64884582888554659959d798aa7a79ce7c9c6c6a98a7c7e87baadb8abeb8777a79b573aba96b99
col16:   c6667596354946675659768ab5a979b66496bc9899999a99c9aac9dbbbbbc6977abc7cc5a8c68a8e
col17:   9a479538844986568667886787b79885ab6b989a99a9e87b7cdded9acccfaba8cb98ac79b693689c
col18:   9546a1329282963a876459857768a9286a68897aa728a8998dca7b78a98ebb9ba97ab9889753cb6f
col19:   a355695457436477568a3c25596b76a989bb76988ac7ab8a79887baaa96d8ba67a9debd9898876ce
col20:   b645666556754a7355847956895456b8c64986ab98b96b9eada67b89ba7f89c9877aabb8a9a985af
col21:   a63565877277a9665639686ba799a277a7ab9cb86c997bbca685aa7bc889dad9875c9aadbd9aeace
col22:   654948776274375158669549583a7a79b59a8a96766a8b7865c7a6ca6a8aca8cb75899b9a88dbafd
col23:   a42a637583455858279675b7667679897a947769bba8a9caaaa8a9959fb799cbdd79aad9953acb8a
col24:   d646a858578695758657685989a784a9a8aaa9cc7a9888b7a4c9897c8a99ba9998fbab9b9999aa9f
col25:   8845731a578876a7769877aa5c7a89896866977a9c89b9778779cba8bb89c776db7dd87fb9bab9ec
col26:   b4535785256a85758256768959556897b887baadcdccbab839a79cf9e6bbedad6aaab78d99c8aadf
col27:   e878777681878369788568cda8a98a8b489ab99b9adbbba39cab79eab9ea8ebcedbcbda9dec77b9c
col28:   a366b9ab574754979a9887765cdba9aa95b9b8c6abaad9c98c7cbaed98ceda8cc99aa8c8afc999ef
col29:   89656455785557878599984a8a6794b9b7ba6a9bbb7c94bae4bbdd8a9ac97a87ce8bbaaa9ad879fe
col30:   a765a94533a76593b697b6879bcaa7bc68bbaab78a9ba89a8acaa8fd99aeaaddef8ca89bab9ab98e
col31:   b29646654a4542697799789baaad898b978889b9f9be987abb89b7adcbdf9aacc9db9cc5899e6bbf
col32:   b298745561787648579b49acb8aeb8abbc58ab76d98b968acddc689cecfdb89e9a79b99cb87c496f
col33:   96354b6576437836768a8c69eb94799d588b9bb9abbcd4b7c8cb9a8e87c9cabca79997dccbd6799f
col34:   7483676198984466679aa8a79ba8b97c788bac9aca8cb9a5ac89b87b9b9baebb898ca7ba96b69ecf
col35:   e467188377988736aa8587ab97a9b79679b9c6a5b679b9dba7dfacc9d78b97c9db99d8b8a89988ae
col36:   8976479977829965978ab7a6889cb87ac695aaba9b88ba89f9dbbc9daaddb7d9a9c8aa7bc7ad7b9c
col37:   9891676c67a639a8a6b88899a7abc6999ad99be7c5a7dadcdac7bcac8abab7beecdcbddbb99b7dbf
col38:   b6a4617788366656997479789868b879a8888db98b898cabcc8aeaca9bbd5ea8b3bbd9897aabdbcd
col39:   a87673a6578c88a5aab568acb7477b7998689a9cd9bc9bcea8cac9acbba5cb98ab7acc6b9c9baaaf
col40:   a61b37926937a5a967a77b97b5867b866b776ba9ba999c8a99cb69b697b8b7ab58d8b999ebcbd9bb
col41:   c766b384d667997a96985ba985a57697c87ba59da9a7897c99b78db4aa8a7ced8bbabbacdd8a98af
col42:   a77478a42a9ab98a48ba697daa7b9ea9af9b57cdadb77dcdbc8d9abd9acb9dbaa6acd7bbb9afc89d
col43:   a397971774918659aa8697b87c89a69cb997ad99bbe8d8ebbcbfb88bf8ddaadba5cabbbb99c898ac
col44:   b845364477876a843748b6768aba687976a899bcbcdab68eb9b8b99bcacaa98abaed89a8ccca788f
col45:   6956b864453a69a9a97999d79879b8fab9b69dbfcabbd9deeabbdacafcab8aa99cfeaba9bca8acbf
col46:   b994454a9465249686798e7a65cc97989a7a9acc8dbb89aaaeaad5bb9dc5d9a797cbc8acb9cb9b6c
col47:   a77a4436236375c989555887b8a7a68b7797ba9879dbe9bd6dc9dcdfcc98aa698ad9b8acbc96ab9e
col48:   a7483c9534666766799d89a5b8b97589ca48b7cb898adca6dbbd8a9a9ababbd7ae69f8ab79a9facf
col49:   984986696465699688a38879575878a68688cb6bcd77a7dc739dabdcdabb9dba7cb8fb8b79b7a2ec
col50:   a663559568777656465687b4476958598aa8bafa8c58aaabe7dba87ab9b79c875789c8ac95ba4bbf
col51:   c7bfa97c879bb8bc9cfb6ffddbafabcf9feeaefaffdffbdffffffffcfffff9fdbaffeaaffefbfeff
ROC:	 BPix_BmO_SEC4_LYR1_LDR3H_MOD1_ROC9
col00:   a6cad969c9abbcedd8defd9ddc9bddd7ddce8fcddddc6cffffdaedecc68fccffedbbb9bfbcacbdc7
col01:   87568853758563a6763688b56a8493a797a687abc47b6976cdb97cb9ab796b98b37c7a7988bbb8dd
col02:   b738533252884774494889688ac9a6b8997a998ba4ae97ad866a856a6748845bb86885839a69a89b
col03:   98585399179b524b884b9778796b8caa6497ba4aba888684a889c69875797bba88586daa8868a96f
col04:   b694581536975468786c6784e6999c4795ba8ac88aa9cc4ad898aa888686ba667859bb9ccab7966e
col05:   929299753359697888741999c9a979d959a6dc6ac7d8b6795c9768d4884a89cc79aa6968a8a8c66c
col06:   77585584889697888978cc638a776a9a9577cdbcb796aa98bac8a8bb9bd98b7a687c9b775796779f
col07:   a6ab9a3a774688799a8866b37c6b7899e8ba55ca7cbd8679bbe88adb8dfbaab875889c9eca97157d
col08:   a75584577a46765984685669878c8877bb7a686c65eb746a99c889aad996b5bac48c93b8496d749c
col09:   d437568696878889587473cca897b9a8988d7baba6cc9b97aa8abbc999ada87da6899764a966477e
col10:   a6b6563519b45566ba6589859957dd6576776abc6b788abfa9cb797bbeb8aab8a966b1da71ad777f
col11:   d6778796395769989657baa1875aa799bb9b7977b77499a66cbbdb8b95a9a9b7876c7baac7aaaa7c
col12:   a76794b9945742778a867568878968999b8c7aa7ab89678b9ac89aaad9a9b9889997a97997978c78
col13:   a9699a569579589964543599655bbb62b86978c959cab8aa9f98b77ac797ba9b9baaca68b9c8d86e
col14:   d87897b6868897943688ab8c889bb8aaa89bd8d89b6c68b7d7a9bbc7a596babda6abbac95cabb86d
col15:   8bb5554789796a8777a98979895b9c8c7ab7c99dfbc776badbc79e9ef7de997ba9d874696899da9a
col16:   a629a486445a4757564777a8885b8e98aaa99997a8caa868caf6abb8cb9ae37a8a7bc99a7673577c
col17:   e651577b777977248b976b57cc8b8664999a5aedbaa9c8a8db98d86775978a9b96bc975c8c8945ad
col18:   d444263775717956a79b698a76b8aa8775b8a8cc8c7888e9bd9baa9c98a9a77a796a89ebba389a8c
col19:   a55756755536757887998578ac7a8a778a6a98d69bb9dca7bdf799e985ca7c8baabb896859c89abf
col20:   a6589455864b81a897c8792acaa986778a9dbc5a8ab8bfc9c7ebc894bba7858ac6cc6b7db6458659
col21:   c54746836556c957799b89caa748769ab89bbaeb7fbcb9c7db99ca96a9bcd9ce9899bdd5998858de
col22:   d82643a658656b8a9578c698689978a9ca8aaa58cca874a95cab9ca895a7a3cc7a28766dc746ba6c
col23:   c628662944585c88489aba9a8998bba97856ceb797966b9acd6797acbaabcecd86a8a699daa9d6d9
col24:   b57571898c77576b498a98a65b895686966d77cf55c66bc89ea9b6a8a6e95bb7b988ba96cbbbb6ca
col25:   a7a7536669839b658877aabb887a8e98788abca8e9a7dd98b9abed9b9abcc7b6b96c899d9cba87cb
col26:   d158477d97a5879965987bb76b8d8b96ab9acbaa6b88cba78b67acc879c7aabdbd99ea99ca98978d
col27:   b6957a43a86767d67aa659bd58985997bc98bece6bcdcbcdcc6bebaddbb2998fad6ca66b8a9988be
col28:   bc8669844858b8daabb9669d99a9ccc7ada7a7dcde9cceb8e9e4abb7acecbb9aaabaae7c969c9a7b
col29:   b69766884b875d84b7c4a97bb9beaaab9aad7da8bb89ba57aaa67eb7a9c7c9d8baedb9cbacd7797f
col30:   b7776746749a887c75cb4afaca796bb989abc8aaf9edcbcb9a96b7acd9bc9a5bfdf787a86bb8daee
col31:   b2457c848cb77b778aba9ccb8ddcbbad877a9a99faccbec8c88d6bae8bbcbbca9c9799c9eb9bc9bf
col32:   c97639cb7c768488887798acdba89dcabe699ecaa8aaac95bdbaab8baa9b7b88abb7e9bcaeaaadac
col33:   cae4a8d73878c7c98bd5ab997979a9d5ba7ebffaca8beffcdcaddefebabaa6badeb7b89ec148ba9e
col34:   f97697696aab692898a5a8bee9ca877b7ada9b97ca9bbbaddcca988dadb9adecd7ab6a98e5697acc
col35:   997989ebd83aa89b7b8a9cc799aa995b9ac98cc9cedaa9bdd9c9cac9b5a798ccd78b8b6f6ecdc7ff
col36:   e69b8998896aaabc9b66cabc88bcbdb77dcb7ec7aaccacabcbb9ba9dce99b9c87dfaab9dbafdb88f
col37:   d5585bb7a8b79ddd8ba75ca9a9b96ac9c9bfd9afbc87a99cbcd8aabaecebcbbcbf6ef9a78dbb9e7d
col38:   f67aa788a7879bc9a4b698b56a47c6cb798bdbd9aaacaeb568bdd4c9abfacdbac7abafca94b9968d
col39:   fea89787a66cbbcc9d8ab89ac5b99eabaa9ca9ba9b8bacbccb9b8e9bbdbdcfebc9d9d8bea89bcdbf
col40:   da5bc5aa6b8c88966976c9b9a9b94bc8aeb7bbfbaa9adbccb99baadddec7b9b89af97d3abcaeceab
col41:   a8795ad69a89698ba78f8cc9d98dbcfeb8bbabbaff9c8ddb9fc9aeee9db7db89efbab9ccfaabca7f
col42:   9a7ca8caa598a7bdac7db8cccb8acedc89def8cdfeeabdbdda7ddacaddcba8ca7ef8eecbbabecdce
col43:   d757a4a9d873c7a9ae8ba77cbf88c7acaabb9b8eabdccacabcbd9af9c9cccdfcaeb8dacd8adbefbd
col44:   f97b89a78a56badbb9da8aababaaa78ebaaa9bcab87c98daccbc9e8ba5dfb67cdafcecaa9ac99c9f
col45:   e77ab75a6799b9888aba99b8dacb8dd7dadbcaefcd8caadea7edccdbdcbbe8d98dbbd8ceabd7dcbd
col46:   e69899a579288ab889aacaddccca9abb6b8bbcbdc8bb7bbf9dcffbccbbdddbadabb8f6baed9ac8cf
col47:   c36827957b56b99a8a7cc959d8cd7ceab88b9bdc9edfcdcdcbcb5babbaeddacbeac8eadadaac9a9c
col48:   f76aba6978689699a8588c7aba88859a9a98dbccafbaa8ebdaffbbdf98e97bbebddb8f9ac9abbbce
col49:   ea569bac587658a799a87aabd7cdd9e8cbd8ca9eaaced8dbeecbcc9d9acaeaab97bbf9eceaddcbbf
col50:   bb898aa58aa6a9b9583a8babf68ecd6ce9c9daf98ccb9cafebcc9bdbad6b7eabdbabdabbb5abacdd
col51:   feeecbfefddbccfffeefceebcfedff9ffffffdeffefeffffffddffffffffffffffffffffddffffff
ROC:	 BPix_BmO_SEC4_LYR1_LDR3H_MOD1_ROC10
col00:   f9bcd76fabdb9bbc89e9cafbcaf8defcffcfdebfccdfdccedbecbcfeeadbdffdddfefbbbcfbcfcda
col01:   a6a68562b2974b546547878a85969aaa5698a38a94c68d88a8d896a699aa99b6cec5989cbaa6a87e
col02:   d376667455579a679494988a9659a86467799c8b96898878c98998a97b99889b8eb96b9987a89a9f
col03:   e8bc49395775aa87855695895779a6ab78694855a33a9aa9d8a89bbba7bcc8eb1a9a9892a758947a
col04:   b555c886657758a755677786a97894ac9b877888587777598746a8a7a59b7a8da5796b97997aa78f
col05:   e75966b45765a8945a464ca78c967daac7b7db88538889a98897a598ac9a88db3aa636b76a44bbba
col06:   e765686ab956ca78a84c58789a9968c779caa49ba987789b57d9978abca79a96976c499c8bb5b8a9
col07:   947599a8a6b75786947575aabd56c7f6bb7773f97584899a9a67c678af98979856968771aaacb76e
col08:   a9786596598424357927aa3879978aa7a69ba79b6986a7c8559769a988a685ba99a7787887a96bac
col09:   866a94597366a1a8756587b7387ac7bab899774b75bc7879aa9c88854a48b7a7c9b85687d659769f
col10:   853c877aa663395a7748a97888b8da6f96a9999b89a6aa5fa9eab6b9879b589d9b47cb6eb8a988dc
col11:   ec4584956566639587857b9866aa8c9a9a7e9bab96887897776c8b7cdbb89cab9a9a4ac8986a8c6d
col12:   9864638764588876a5859477b7a7ab9b699c9c969b68b67a799bda99dcc599c8d769aba87777aaad
col13:   cc757798354854a95a87b9a8b859b9794a99985dcaa29b985b7bbbab9b9766b6925a99a683bbb7bc
col14:   7aa97755549866b7b89586a79c9bd978586b9d8ab9ab5699967b5b7a7ab9bde84a8578aa797ba96c
col15:   a9a55884868781c84887775bc5988a5a6cc69cbb9c9a756b89aa6b9b8aa8a99bcb788884b97a897e
col16:   a278887986858a8987846aa685a6abb9a68c7a998c9a9a96ac65c8a9c77a89abc99a6853977acb7b
col17:   c715758567a5787ba878aa46885babb68c6bc898a6876dbac85958a99993cbad6a4ab5887799ba8b
col18:   b46788479758676996a654b8c98ab98cbbab7ab9b5a96859aacabaa989896b888aba656b78b7e6bc
col19:   a7a55858669879bbb8a556968a99789bbac668c888c6949b5a969caaa99abb39a88c6797bc5a855c
col20:   d5664979a78368a979aab977b8999ca887c699ab798a8e749cd89d999fab7666a9768b9aa8bb599d
col21:   cc6869657776897bab7b8457399b796b795894aabaa8b878bbd7f6cb7997d9aa69946a8a999969df
col22:   e865659678375c6b9ab74a4798a9accbb4bb9ad8648a89987b9bcccccb8a6ac9c899b98d7775ac7c
col23:   b7c65678799b99a9679b7bab6878aba96999b89b79488cdb89ca9ac9998ee9778b5b95aaca5b9a7b
col24:   99a779999a7798a8aa576ac76a98989987a729d65ac8597cabaab99b7a799aad75bdb986ab9c948e
col25:   b9cb8baba787ba7aac698984988d9a98c9ba69bc7b99b6c9cce9bd788b9aaa97b86676a9ba9a56be
col26:   e68a9976aa559ce9a689c9aa978badccb9cbcadb9ae9aa9b97c49adc9a987876999bc6bb8a8aaabf
col27:   e6bb849988abc73a9c596b97aa3c7bbbaacd9977bad8889baa8db99b9a96ebcb9baa9d7bccaa97ce
col28:   a99aab76a8ab55a779888ab99d986b5abb9ba998baa578697baf5dca7abca99ab9c9d9879acb88be
col29:   f9b99c8a8bb9486aab749ab9b999e7c8ccbbb9ca6caaad6bc87caacbc9bad7ca9dbda8db9b9c99ac
col30:   fd5c677a987986997989596dbec9bb988c8daa899abb9caa9d8adb8acca5b8a8bdacac9ca8da79be
col31:   b45979c9a8a5673ad8bacb88aaea7acbc89eabbc6b8bb5cb79bccf9acca868b79ba857abcb89cacf
col32:   e5a88bbe8997a9ba86c9b9ade6d9ddce8cbba9bb9ddb7cccddfbcefcb9addbb8dba8aaaaa4baa9bf
col33:   ea98ac7286bac9b75aaaacbb5ccb8cafeace7afcafc5b9bd79673cc7b979bbcd6c9cc9fd997b88de
col34:   98996c7d7d68b76dadbc5d8dbcbd99cc89b8ad8da94ba99dcb8cbccd8addbbaabbeababb57cccfcc
col35:   c85a976abb98b99aa78699999a988b9b8c979b99dcd9b98cddd8dbda9ddcfacbbc9daa979dc6baaf
col36:   c9885977536acbca5a695bb94b7cbea99bac9fde9d8bacfaccbdaefa6ec9b9af8cadaa9afb8bca9c
col37:   d69c9cb7c68ac9567aac998a9b8ad99ccd8daaa9a898cbf9e8bbb799b98a7ca7be9bcf89a88dec8b
col38:   b79a67c7a99789c9978b5abcb6daedcc8d6bbd898ddaa89aaacdf9ecea94aedccbdac9bcaacc889f
col39:   e8b835c6aa8bb1a9ba996a9aea6787b7dccdccdbb9cbcb6ca9dd7abecbfd9aabd6989d8876b6ac9f
col40:   d8ab9587688b9a99796aab8c9c99acf9ebbaa9a7cccaec9bfdabae9bbbb8c6caddccac89d9b799cf
col41:   a486889bc79b96ac8877876b6f87d898b9789fbc6aadccdc889ad9ea59bbaac6b9ccacde8b9caebf
col42:   a5d887984ba56b8aabb89a5abb9ab87dccca8cd9cacd8cd9baacbebfbe7b8db8bcfd96ebd9fc97cf
col43:   eac7797689a68976d5788d8deac8a9b7ab89bbbb8e6ad95ccc9faccedc8dfa59c7f78ecb79c8ccbe
col44:   e98786688b997986b9c78b8bb99ab9ab67bddfabbbeb8b9ebcaab98ccbcc7af9bcddfc8e8ba8c8ba
col45:   b7786daab997a397a59bbd8a7bdcabeababea6bdafbdec8edbc9c99b76fdbc9ba7c9fbcbab7f78ed
col46:   cb7845a546696ddb8eda8a8dab7bcca96ba8aaebafcc8edbdc9cbbb9c9debfd8cddbb9b99d89ac7f
col47:   a5a77a62bb56a4b8bb9c4d89dea8eacba9cf78b98a994dbfaf9cd79bcb88abcbb98d88ab8d8cebbe
col48:   f75a59658bc88b8c8dbb69aa9a9c79ab9b7b6acfb7bcbbadc4bcbdaba8e9caf98dcceaad95b8cabe
col49:   b9a75a7b64868a86db6c9aa9caaea8bd9d9bdc9dbc9a9ae89d7fa9cdcccaaef6a87ebabebefacaac
col50:   c959a95648a87aaa89b779c99c7accac99dfbacaba6cad5e9c9fbead8db8ab7d9afd5b98ac9a6ccf
col51:   acdde9f9fadebcf7fefc9cedcccfdfefedcfcfdafffcffffcffffeeedfbbfabfbdfeffbfdecbbd9a
ROC:	 BPix_BmO_SEC4_LYR1_LDR3H_MOD1_ROC11
col00:   c6a69daa9c8c7dfcaec88deeccbcfabccf9bbffeddb8cfcbee9fecafcfeadcbbcba9fa9dccc7efa8
col01:   97359355355187544136bb77b76a87c9869c7c767a8a859b863499c9b8b88398657f79996479a856
col02:   8789b462457428887a6d6bbbb4ca7866689a6aba8487b7877c85cd58c7a66ca466947769594a678c
col03:   a35546617568797676798baca4d6b4c79b9777aaca8966c9595a8b6a9d68988ca9b89a5b726778cc
col04:   a36644669533a83758b3785978c585d439a7f337597499b8685d989d6c55565186375a5788958b89
col05:   f375575867461348a86978bd59a7a8a6c5acd89ab99d47b67887888ac2993b7a9967678b57a6a67a
col06:   ba269954499665774668799bbbc52a755a78875ea987a8848979a7c87db789c766b9a7a77343495c
col07:   955649988523a468966799a886789a69987a5c87c96ca6a998b8a8887b89a8c689a998596962968b
col08:   f9273883a77666277b596aa499a7b974a85967cb8cd9dc87f698bbac899bd6e6a8b75776d699588c
col09:   e368672564777a47779665c6d8a8d95b6d867aad8797bad8d9b6a9b688b5ba9989b8c8772b5cc759
col10:   8d65d77968473339c8a89a5a99a88a77a9a3b6a78ac78779d994ba25ae7a869ab89773799aa7c68f
col11:   d84772142616799687788b6a859a6a797a58987b56a68aab7bbaabbbc5ba9998685585a66993d69a
col12:   db77897384376ab7865b9a879c7c597fbb49966b7b889b2b9ba89a968989aaab96c989cd59a6765b
col13:   d5657c76666485a75764f797a95a9a756c7c8c8aa86bc73c86ac88a685997aa996ac877a5b85a3ab
col14:   b6158aa9646868967a9ba757785a6aa64a8ac7a8d9bb65d8796eaaaa8f88b8b7956b669c8a87967a
col15:   b64925983178387943575aa769298a8d7999998997bad9ca999f8baaaa7d6b8b65748a671886868f
col16:   aa5636432146639986568885699639986c988b7be8bb8686999c9c8997aca78867a56689a987579b
col17:   d4984765587a52b3988988369d43a8795bd4ad5898bacd7c99ddad9799977556a89773886876d698
col18:   b5569847997795a79454968998ca9a547d8ab68ca96fa79bbdcda4a78a9c584c9bb999a38878948a
col19:   e858256b765764a75999a8ca7779a56989a88b68359ac6aebca889d679cb98a888b9c967b96886ce
col20:   c56455746848a877b6995a97999cb67a69eaa55a69c7babed9c6357ea7a76aa8ba6eddc8aca9567f
col21:   8a634a5747943b6a92ae718c38579b91dc87b9a78896c8a777c9bcac7b8aaae9c619a6e889aa66dc
col22:   a2734678798968876836798b9686a47a7dd7bb9ba8b96a5bccab4b9aaa6994be6999d7ac637ba9a8
col23:   e946a8c864277b688535877a65986b86a9aaba7b778896b89c85aa8a5bc7b698985d57c8a9a87ba9
col24:   926376898489578598ab9768a7c53b8959b8766f9ba8dcbc88bc6abec47b7a89ca595375c59787bf
col25:   95677b7b3867aad88d987969bd96578a779884d88bc88b89dc4999da8899b6ad98d9c6a89997e49f
col26:   f846868a458897468768427976a7cbbabca68ada47dad65b86dc77c7d897b6ca559aae86c8a88796
col27:   c9a777387a9a89a658768cea8a59a97dbc886cdc86b95a99ac9a99cc998cb6aba8d89b8c8c8c68bf
col28:   d77779765b5a879b47a5cb2a5796accb98a79b8b69bcbc79eaabccb998a9ec9a6acbb66c99977bae
col29:   ea798455776b9478677c64988db8d7a786bdaa88a9cb77b9bb979199ab8a68ba8d8ea7db5b9c99ae
col30:   f78698975978a77769aa77d7e97aa86ed79acccbc9cf88e6c69a79dacaad79bbbdaca5cc9b58478f
col31:   b8467a8a827155b7bc96b7acbabbc99aafc9aa6aa7a889a6b8b66bb9ed7bb839a6f9a889a889ca69
col32:   c8a5968986164a69dcba9bb9a89b9958cd9bb9b89aab98db99bb6d9c85bbaac8a4b77ccab8b9ba57
col33:   c6898736786bc9f69999b9c9d8bcb9979adadb9a8bdc98c99dc9caaaac9bc8b8abc8acc979acab4e
col34:   96986c67489ba878a9b8a8d9c49bac76b98acece9bbbdb6bab7b99daaba8b9979bebcd89a499769f
col35:   f3785a859a67aabaa8a8c8779b9bb9b998cb89acd7d5c9c99b9cfa9dbac86997b7da8afa968e9a9f
col36:   b7cd976978aaa788a8a74aa869bd99a8ba9b96ba8f9965eaa9bdb9b99d9b8a88c1a9d89aa6aa7a8f
col37:   c9989a88a99967a99ac9a8ba5a599babd7a79bb5b8a7c9f4a389cab678c6e8b67abdc9ab88aeaabf
col38:   e6979b7ab7ca7b89879d99b7a67399a99867bbdacad7bc8c98c74afa99b9c5a79a99ce9cbbb9577c
col39:   c66a5a898baa8798cbba3b7eba9c9e9cbabd79a9abce879dd88bd975f7ba9a687aba9dabdbaadc8b
col40:   c68878987599c569693ccac9a598cdb9599873ecb9cab9af69a99dabac9789acc89f88bcc9a68cbd
col41:   ba7567aac9dcaa86d7a9ce8b79d7a8acb6799bc8989a98bb698cad68aafab9b6899cbcdbb69a5add
col42:   d97a87c466a99aa775bda766ab8d78a9bcbaddcdbaccddacd79c9cd9cba98cc9aebbc9fff8b89edb
col43:   da9abba886cb88bba8afb9ca59b68badf8aa9a7de9dca97979efdebe9a98b99bd7befd9ac8cc779c
col44:   a75977a79aa467bb7b87a8c99a8e4eaadeca8fac88ac9cbccad8a9ea9cda7c7ffce87785abdcbaaf
col45:   fa8a5abc69799b85a9644cce8da9babd998cdb9c799b8c7cbec9dabad8f78accbc98abca9b875ccf
col46:   fa88ab7697b84585c8c867bbb9d89c26a848bcbdda7aabc9abca9eda79deae9caf9a6a9a7af89d8b
col47:   98587b888977659767baca8678fa9e8c67bbb8bc9a56c8caaa97abee895aca7b8a7cbaab9d99c7db
col48:   b7ab98a8b65aa5bc9a5aa8bb7ab9bbc7c758bbb89a79cad8bbc9dde8bb8a9c9abae7f89fab6ac6af
col49:   eb8a9a96684ba7889b96c88b8a86cabbccbaa8cbce5cb9dac7c89adaecca8abacbeaa9c9b7886f8f
col50:   c76a88a77987a769b67f746967c6aa57b865aadb5a9f9ecacf9abcda8f5d5bd9c9aae6bca888cb9f
col51:   fecbdefcdcc9cfeadfeaecbdbfffefffefdebfffffeefffddffefdfffffdb6ffffcfbcdfeffdcfff
