ROC:	 BPix_BpI_SEC6_LYR4_LDR22F_MOD4_ROC0
col00:   3526475394738168b46746c87646a766826ab795479468a61696496155b4888976862594753a9694
col01:   547748b7bbb76766388b83a67684b9588878a7c997a6b9ce8a75598bab7bd98dbbb76a97785aa968
col02:   5144778966348645888c784574c34568777b758852c979ac5b5537baba78b7b7b89855b447c49357
col03:   66958638854559737589787baa6787baa9a684a86ad9a9866aba9aa774759596b59a499897679651
col04:   786697a733213a76782488777a7b8c7a6b4a697563a99828c9856993a6455a5968599dc97b667a9c
col05:   6276987a847764786a58588895779aba455767987cc7976997358b77e6aa77889882788ba7b565a3
col06:   867968687da4687b74694285976897a5a739455b97b74c76a69aa761a85b88986859d7cab56a9977
col07:   866a686556b8a5c68a88678ba675c785c878b9a67cfc68a68af8877c88a5788cb4db66abb78ca796
col08:   593ba97367b7746b58698688a586777c69787986785a69e4a8c5a98bb756ac7aa4999887d678a6b6
col09:   796628a9c77a8776985eb8c847d67ba9d96aac6776ba954a9a5974a8c5a6888a9bc9b9c8e8a87916
col10:   a566c868567bb538a7289498b99979cad694d6ba6b8cc7d797a469ba6898aaa9986b793888db5ab4
col11:   a827636758b5bb7a85645a89179878aaa9c9469b978c3e9a9896c8a558598b6b99d987599776c879
col12:   545879465ac16637a478566474a77b989c787d4c87859988b8d7c98687c8be58aab56a88b9658d96
col13:   855977a8899687c9947aa8db666ab988c6a7cbaab579678a7b89a4978a998d85aba8bb4787977b79
col14:   886455849ad8b8378691b9757b96ab59aa7ac79668c9ccb98d7d9b77894a88b969697baa6a464995
col15:   6855b69a8a9aab698aa65a6b96ba997b769789a78cccdaaaa87ca89c99b9998896c7d996949ca8b7
col16:   8675c55877937895c8997a8d8856b79ba8597596baba8b6668f9767b88976a699484877a7858c6bd
col17:   5d4564526c9ba794889389aa98547a9677358969d685c587a796767c899da76c798aa656886ba876
col18:   399466b1aa6a859aa884958a96ab666bb8a8878497aa7bab8988825c89b81c98a5eb58597a45b978
col19:   5576b777b8877b895c5559a75b6ba7c79c8aa82a9ab94b6c89a8abaa99696787a89a699a58a8989a
col20:   64a8648b8889689b67a689857b97a77d9986b57a85ba9d5a8798a9a7c8987777ad99aa89aa6bd598
col21:   7489679a7876b7a9966ac76776b5d984a89bacd7a4b7b992886bbd8acca7a9b48d967a7b9675b99a
col22:   766654768a6a79979999b687986cca998a48cb99789b66879b8826d8cba988cc89d545696adba799
col23:   5689255a645b9877878789a9b78b896878876b85b6ab4995aa958698d56a6998879747768a77a5e2
col24:   77a878c57642a9859d7b6967b7cba569ae9597a977999b7896695678645698a5a64e78c77dbcb799
col25:   577658b7467ba7b7a77bbc789d99ba6b777ddadaba5bc77cb66a6a99eb989ab9aca9aa76c64cbdc9
col26:   c7737b6ac96a68a6b987ab9ca6bacfc78af9ba6eeabdb3ad9aa87a859b6caca9a9b4669a9c99b8a7
col27:   568799999888987ca7d8b79a95bbc9dadca6da979988e9bcbabaab7acc769c99898a6866b85a9aaa
col28:   9687b88899a7ab7bab8dabd87ae99dcbbda4abaa8dcbabc877a7cb9a8adeb86b8b79799b89999ab9
col29:   aa5cb5a999baa895b8f8a78a388b99bcbaddbecea7d5dcabc96bfbcac97b98bbd99b8b9aca9b7d89
col30:   387db8998a8c6cb9fe987ab8d6a9eeea78b9c879efaf8dddb98cb8eaa95ca9dacaabc9b9dbb97ba8
col31:   48a8c637c9aacb69d889ac97becdcb79e88ddcb979ad6baea9cba7aaec8bfd9bacd9c8c8cb6b6b98
col32:   c98a988ba8aabbe77d9decae67dfbcddca7dde9aacbbcb6becaaaae9eabaeb9c79aaecab7acccbab
col33:   5b6cc6bbfbc9bcb6688ca8ccbaaaacb9ab7babc99feeccbb8bfab8cabbd9ebb6bdccdcbbfe8dc7b5
col34:   a8c9999afcaea6c58facbcccbb8a78eab999cacad9d9eabbcd9dcbfbdbeefaabdbadde9ab9ba7a68
col35:   96b4a99bbd6b9da9ddf78cb96afa9a7be7f9ebcea9dabdac8dc8b68ebbc8bcaaaddc69ab8fd9bcc7
col36:   8585b7699aacf8ca9b98ebca8b9babac97ccad8d66bbdb8e969a9c9fbdbbbfa9fc9ce9bdb9da988a
col37:   a98ab9bcd99aadf8bddb8caacc8cacac9aadd6a98a8aedcebcbbccad6b8c7edcce8bbf89dbbbca7d
col38:   9bb7dbc8bcebdbfac9bebcbadaaacf9dbbcccabcb6dcbcbecebdba9dcdb78bcbbae9adbc98babdce
col39:   884bc7abbbca96a8a89bcc9cd9cfcdddc98cca9eec8ac777b8adcbaadbbdc8979c9bb76d8ccafbc9
col40:   979a778b89cbbd9adbdc577abba9e6fcc9cbc7cacefcfa9bba9bdaaceaaecac5ddabb8fab9bbc7b6
col41:   abe8bac9e9b8bccaf89facbcbadae7d8dd5ba6bcda9cda9cbdf9efbaedecffbdabc969b7bfb9abdb
col42:   d78bddbc95b6ac88c8bcaaab899cbc6f488abc9cc9a9bcbead9dd8debdfabcbe9faca9adfecddbef
col43:   957aefaacaaba9abeabdfacbbea9adfb9bf9d9cbfd6cdbca9bbfcbc6daffcebaafa9affaecc9abcc
col44:   bbabb96e9bacc9aaaaaedcdabdcedeffbeebb9dcecdbbafadfbbbdaef9aeaaddcdaa8a9fbaab8dbc
col45:   8baebbd8bbba7d9ffae8a8aaad9b9fdf8a9accbbe998edfae9abdfcfcaffbcbdabaabeccbbdeacb9
col46:   8988ab8a8879cd9cabeabc59aeefedabafafee99adaacbdb9dbbeeba9b7c597e7cbcfcb9d9aadac9
col47:   ccfbcba9e4bcafcc8ffd9ccbddfbddcdcafbd8eedffdaf9cfcfddaaa9fadac9aac8bba9ecedebbe7
col48:   bbcbcbcaacb58dba9dcabaedbca8e8a9dfabbbddcda6ccd9edccccbbdcfb9b7bbdfdbaa6fdbc8dca
col49:   accddadce98abeb97ccfadbbc9defdc9eabcc9dcbcfcdcceeaaeaee7dbbedccab98cab9e9a9faae8
col50:   c8b9c9dbddabadb8878fc6fbc8fc9bcccdb8f9fbc6fbcbdaababcefec96bcecafb9abbddaeb997ae
col51:   9778c79bb75887a9d96899ba88a5b8b9f6c9dab9bea9d79bffb9cccaabb9eaceabbdbb8a9eb9abda
ROC:	 BPix_BpI_SEC6_LYR4_LDR22F_MOD4_ROC1
col00:   84b999545898e57a9778b7a8cc78cd48b68b48a69a9bb57c48899d979e88899a9597646ca8a98879
col01:   5ba899c866bb866c9cdb9bb8bb8bbcceab9fbc7c97f88a7a7eba8a9d9a989b7c898cf7d9be967f8a
col02:   99976779b69c738ac89ad7ac898ea6798a5be9cb8b899a89c9b8a8a689d79b87cc3da78bbb999678
col03:   88787aaaca8aa969b6aa8ac59db69eb8beab83abcb7a99cbcabaca8a9b95b8779c9abb88bba5a9d4
col04:   9999858c9c94a8cabacac79caac899df9b7d7b9987b9c8ce99dccd7b8decbb8c6c9b97caaac8ba7c
col05:   67c95ba8a8acab8cd778cebaad9a88beabcedac97b99bdb9689bac59b8caa9b5ea97acb785ada786
col06:   7164b6da978794c7b8ab89efddb99d8b8cb69a8cda7f6ea9fdbbcecd9ccaa8999fb7bca9b89aa988
col07:   c43a89775477ab89c98c9ac6bbebb9acd9b6ddbbcabb8b9c9ec948dcdda4b6d87bb88d85ab99abbb
col08:   a98b978b97b88a77e7894bc5b689adaacac5bfa73abbd95a98cabedcabaadaed9679986cbc6a8a7c
col09:   88d5787bca5a74abc8b9bc88aca9ab77acea9bbfaddea58acdbcbfbb9addc9c56d88f6b989cad7e9
col10:   8896a8bba9497a5a799a9fcbaaecadaecebaa98dac9a8b7abda8df9cd7adcd67a8ab9fd8c89ab9b8
col11:   cdba8878b788ba9abb8a729a6b7fa56c88dbafcaae6acf7bbacffe9ca7a8fb59a7d9cab8b69a9cd7
col12:   8576c898a79a99b7b9aa5c69c88baf7eaabbca898adbdcbcbacba9cd98bcc9a8c9e76de9cab7baab
col13:   849786adf3c9a6a67ccb9debd9c6b8ece9a7bdec8f799ab9baded9c87b96c7bcbc9ba89c9d97edb9
col14:   b399ab657489a989b8999ccea997b88bb9ecca8ba9b79aad9a99d77a7b8cb2b7c8d8575bc97cb778
col15:   8b79be9998a9b978b6ab79cbbdc79abdcb98a9b9966779d968a99cd47bbde9bb89b7b978c9a88b79
col16:   888545897774b488b6b89c8aa7c6a7a9cdb96a994b8a9c9b99dad55aa8b299bda9bbdb5f8cc668a7
col17:   a57539869abaa64598a9a8dccad4dabdac8cafbb5ca87babde8bb6bd4cb98c69c8bababcbc8877dc
col18:   8887a9ac87ba58bb979ba9faac878c87aaecbbbca8aabaeb9cbb9bb9889c9789b79dba6788d8a765
col19:   474a8a88a4f88ba857bc98b877fed9b5d6a999cd8bcba9c95bcab99cc88b9de998ea48ccac9adbaa
col20:   a68ea7a689b778889ba5887d8b989a9f9dab988b89baadcfa89bc9579acbec998698eabba8856b98
col21:   a6856a56779c98ab7da967b988a9abeda6eccddc79b9dbd886e99db9bc77eac8868bac9aad866949
col22:   97cd6a57499769a6a884bbca77c9bda9bbcbc9bdbddc989ae7aa9cba9b71fab9bc56a79ba9eabaa9
col23:   89a877a999a66674c67987e6a979cac86e4a8aabcf7c88ad69ca889daa57b9ab8d96caa9cf7da897
col24:   7ab95698a98cba8aa86698dfa88699dbb99cb5895b9aba6ab87c898b7ccdbb59b7b6e9a8cccc8e9a
col25:   94d79668687b8a579b957d98caba8a89cc9aabaa8bbaccabd896e986cbebad58aac6dfc9d99ab9c7
col26:   8d7aa8999499aca8b49af8cebddd8df8c8f9ab7ccccddebadddbac99c89b9abd97caab7aaa96acea
col27:   b8b9ccc7abcbb7ad5acc9c99ba7de7cdafff7adaaaa7b9d96adc98dcdccceeeb8f8ac9aa9ccbcacc
col28:   9968989a6dcacc795ad8799addfbb8ecda9bcbdcaca9db9b9b99ca8bae8db8caccaba9baaab9c6f7
col29:   bb778887aadcdab69999ca9a8edffcffcd98aacdcafaad9ecab7999a9bbc66ddeda7fe9cebd9bca8
col30:   a3a96ce89bbbaad9bbcdca7babcd88b8e99cafafe8abcaa8df9fdacf89d8cbb9da9aa86dac9ba5bc
col31:   b987dc9aaeaa99eeb6ebfabacbbffcabcca9bcbcccbb8a99abbd99cdb9ebeabdaadcb8bbab9edf99
col32:   6bdba7eacb9a6fcaecfac99caaafccab8fcb8acdddd88eeaaccfc9cc8bbbaafb8abfdcbbda879bbb
col33:   6b5bd9b8b88fc7b9b9b6aa6fbdbaebcacbeedebcf9a9eeeeaeaaad9ca9c9abccbaedbafdf9eddbfa
col34:   b7beb77f4b7dbbe8c8d9bedcadeea9bf9aeac8cdaeefaccbbcacfca9dcffaa8ed9afeacbac8ef8ae
col35:   78996fa9bbfc9c7aafd8cbaeff99bfba6aafc8defb9a8bdc6b8eecbb7989bdc9afbbb778dacaab9b
col36:   ba99b779a8ec6bcbcc9db8ada9d8a7beed67bbbcbdccffe7c9d98c9bc9daebabaabecb9bdaecdaab
col37:   77a7969ae8ea9ea8bcfcbcabc9ecfdc9b9adbbbdabaf8adc9daecfbcbae6dbbfb9b6ccac9dcca9d9
col38:   c8bbbb8adcdbdddffdad9ad9cbafcfc9cfdcddbaddaeafad99cabccabcbbab8edcb69baed5cb9ccd
col39:   a849cdbceb9ebbfac4cddbb8dfcdeceda7beaebfbffebdcaf9ecdb6baa89efebdcbbfdae7ad9dcdb
col40:   978cb8aab7bccbaccaf7cbeaedfeb89cdb9ecda8bedb8ebba9b9bdacdb9d89ccaa8bbfa6fbcbb9e9
col41:   cb6b579aedcbacac9bccd9d9cbfdffded9bbcbdcdaafbfabace8bd8bdaceabbccd8abbe96bbef9d9
col42:   a89a7cca899dadcd8bdca7aeef9deaa9ac9aca9aeda4cadedbfb8a6bc8cdaddbcd9c89ecadaba797
col43:   a9bbbadbcca6aacd9cfdceb7a9fdfcceaacdefadc99bcdcac9e9bc9c8ed9ffecdddaad7dabcfbbe8
col44:   e4ab9a9bfdbb96eedfbdda9cbceebbcbcccacccc978beffa9eb8dfaeabfadec8ecedfcbedabecbfd
col45:   ad9d8ba89b9bacd9eb9cbcfacdb6cadaccbcb98bcbeccfffcf77d99abbcbdca9c9998cbab9a9c9dc
col46:   9bcc7ab5c6ceaa699dbaedbcbaac9db8eafddaacebbcdcfcbbabdfbbbccecdcaaedc7bdf9dec979a
col47:   5eababb9f9abc8ecadd9aafbcbdaac9cd8bceeaefcdbbcaa9cc5bc6bfe99d5cbbddbcae5ecafbbe9
col48:   a6e95accea88b8bad8c989caddc5c8cd89fce896ecbac9ebabc8898bcebae6cecfaa8cb7dc9afa9d
col49:   b998baada99bb8e99ecbcdebaddac6d9cacadcc6aaeecdecd79adf6bdcca9db8acafce9c9ab98abb
col50:   9ad9c9ab6cec9fcf9dddcaedadcdbc9eb9bdfbbb8ebebbc8deaf5bda9df9ecabbde9fbb9cd79adb5
col51:   985647a87d6ab456b899d9bbba8db6acc9a769bc9f897ac96cc7cc89bac9ac79aa7cb69758caabaf
ROC:	 BPix_BpI_SEC6_LYR4_LDR22F_MOD4_ROC2
col00:   745846695525557a7746536485546554445935579738375479545335457e4334a45385642224a687
col01:   83636798a56666986665a48887476688988da69568ba88783a95a837999a98789a8948a9776a7766
col02:   66876b3a6656853977aa777585d79a8ab3a7a7899779a8699787c77987b363655579ab61978c9765
col03:   45779988787857b5655456b15867367976796698965687aaa89797896569bc57943437d748679987
col04:   6856378266756865b954673956a7687694589875a79b6677ab99bbc8947659968588557a93727b76
col05:   74857366a8ca2769777682667586b7a565654685716b74969665a872782676aa6b9a74546e385b23
col06:   3665588965756598697369688a7298a88a78759a8888a78787a863a6768a6654a7684ac955787b54
col07:   4787725468a7c58ab497c86c748aaa89aa67c67a38866d5b6aa6b77a9875bc6768548833a9979785
col08:   68876648569887199268956977a77889bb7a7686ac65868583a474b95b875b45776878a78a6a6485
col09:   576a9a74457ca663a7b7393ac64987868b7779e6acb66a5a9794a7783aa66a67979b66a489b77578
col10:   574499356498554758a8598b859689a887b6a78c857776b8bb9ba9874796b88495b8689837649a56
col11:   65859187849697897668b985a8988a479b847c5979985c64887a26776785a6636c8559754a94a877
col12:   97288659b68878675849a4a4868998545b8a6bb85585766a868aa886589987638988a723a8463676
col13:   66741645a668743a9669558ab7a16668db9966769ac9c9867d7875a997996989ba7857aaa7b678bb
col14:   9725544459467763c79a572455ac8129a797789878a8649b9cb78778aaa6a79866e78a7566957b34
col15:   939638585a3a9886aa7b5587b7ab9178676a957a58b85aa769878c96a4a9a97aab589b54a6767888
col16:   98435789774189479414984499897d695a89a665ab79b7a98a99a9959b4785558b48a49bbd9b8b67
col17:   456768874985a6a8578a83cbc9692468b947a8869266979898831874ab8986454588a76858767978
col18:   435663b6785886c8577888a88774a8b49677a49b9766798266abb997a788c6b59368597736666577
col19:   864b45574996844971886b97ba86a9abb89499b3a7b9988a77b577888a816c68c98b769796a8a995
col20:   776754135986e9766c8bb7786869646f758b878957a679658ca6c777a5488a4978ca886553474746
col21:   6b876958169789898677a6798558686baabab7675b9ad5b97581b5a569784885a586ba4795599695
col22:   5385886853a6c887354967645397857a79bcc7718798a7b4787967aab5d69959a87b9aa458989376
col23:   5694897587d997565666564a96889aae765968869959ab7b898ab9abca866968b735a7a79a794669
col24:   477464757417c66859a2789777458fb87788a8899589349958876a89d7774ca4ba69549976668368
col25:   855696646c47a787799b878aa89d77b7a78aa65b67cba687b79199ba9a6a8a88b7779678799aa77a
col26:   79b65a4b5b6794999878796a57b7b89b6cf4ccae79b9b6cb9a5b87a9988a8395a66c44897d677a79
col27:   a757174c3a76d978a77acc8886cba88c8a79da625bbaaacabba67d99a8be9abdcc776959695bb59a
col28:   847a8a779988bbba66595abd474758ab9b99c9a7daaf9badad9bc6b95b7898a989998d678b98aaa8
col29:   a2a84b59668abab99bcd7d8a89b5ca9a98ae98bbb9dbc8e898b7e6bbbca9bd798ea89889a797a8aa
col30:   68768a878757b7743aaabe7697798bdaa9a8dfe8b7bd8df7ab679ce97cc7cb77dbcd5ccab9f87ab9
col31:   9765a678a8b88a6b9adae86a8aa6b6e6fba77a8b87db99c8abb76b7cbdbeb7a8abda9ac9b7c7c8e7
col32:   64b8854bb5b8aa79ab599ab999b9cc78989bab8ab9a8ac8ade9a88ab8cbbbcee899b6b9b69cbb788
col33:   b8939875598968875aed9b97fcca9ceaaf9ceec786a96aaad5b8a77599cbba988a9bb696b99697b9
col34:   a784aa8868cc8979bd9998c8d76987dbbabfc688ad69baec67f99cf87e5ba99ee95c787bc8bad996
col35:   647c79a9578b9979be7dcc899adbdabac6d89d7ccc7b95b6cbcaa887798ca78ab7daa96bb9b89496
col36:   ab88b77576c8a9a8f88689bd77cba78cb8a97c87acb69c9e6ca98d9865b9a69874c6acaa59aa9cd3
col37:   a9568d8abb9d7bccba98b7a8888c9ccbcbcfad99689b9999a89bdb9edab8beaea879daac99cacaca
col38:   54667784c65dab8aa98c6986fc99baa7cdababe9ca9ac6bb8aa8ebbbd9ba99a8bac9abbeaaabadb7
col39:   a67cbcd4767697b886aab8a8eaa78c8b9acbe6ce99cbca9969dd4e98c9aacaa7e7ab9aaaba76cbba
col40:   965899696ab896978ad7e9bbaba7aaa89bc9b6bbb965d8deabcbb98abdec829ff9dacbcba79dabab
col41:   8bacc7898b87a87ba6b67ac8aada8b9d7ad8baa95af7a969cad97ba9a79cac9f9ab9baaaa87df8ca
col42:   dc659a8cc884c5694c6bd9bea6bccbbc98c9bebd7987baab99ac97cac6abad799ccf9a8abeceeb96
col43:   83c8adaa7aedbabb897ccbbdcdcb79df97d5ebba8cddc8ebebdaca8ccafcebcc9cb8ac6ab9bbc99a
col44:   b596a886a7ccb8c49b6ccbb9c5bd9d6eb8eecca9d889bccbe8fdcccd9abdc9dfa9bcacaaa98d8ca9
col45:   7539d489cd95a6757cdbe9888ca8aabacc7c8b89ba7caa868acb888c9aa9c79cbdb89ac99cfa6dfb
col46:   958787abd7957a8b89f7cc8898bdcbaacd9cfc9bccadb6aab8bb9e49ac99cc8fc99acdcbe9d8b988
col47:   96999c9aa89be9bab89a7ac59969fea9ca5dc876bc699babdbebd7b9bafb99b8aa98de788779b7ab
col48:   79a49567a7a95d8ab9aabda9a8c8abdd8bcdcada7d7ab8759e8acccba8fa6988abc9bdc8cbbb98bc
col49:   7a9d8ad825c68cc6977caef8b9d8ad9ca9b7ebaebc99dbd9cccd89dbccbbcc7d9daca68af94d9bcc
col50:   b8a38887ab8cab8aaab9aa97bc2cccc6bc8aeb97b7c9caf7fb7cfcadecb6c9dab5c8acc8b9ffb8a8
col51:   66a54747a7958b9849952d9ac87889eae979ac778a888cba9778a87a6698879a4aa9a958bd89bac8
ROC:	 BPix_BpI_SEC6_LYR4_LDR22F_MOD4_ROC3
col00:   6839b611787874a7638767947a9577c53b76757489717dae5889cbb17c8786a98499638b757c8977
col01:   a76846ad85665aa8a986769697967aa6678aa7c656c9a9668888547b899a78c8aab986d2abd5daab
col02:   686a66818197a2375b7759544a9ac7699a576b98b9c777975c77d7c8c4689b798ca99da97da8c9a7
col03:   638c7568615591877875b97b56a7b88837c96a9aabaf6d98769b7765a677b8bdc4491aa686e84ab8
col04:   8956a19858866695b8989b9da7c999c98c857acced5ba7a6ae58facbaab979985ca78887978db7d8
col05:   96371475859667a874a7989ba599a29e6a8baac9849ab89869b937c7ca49b6aba87aa79858ba69ab
col06:   b86a864758c73ba57c5c659b97487bc8799d7c8baa88a66d8696ab97a889c6675b9aac85a777c7b9
col07:   583158a548abd3756a59868853597aa97338c99dd68b7cbb7ac7a9a79ac9c99ab89e78897889b69a
col08:   527683688856586545a945b777687c867769a858647896d698a6da69a6aabcb87a56489baa774b7b
col09:   66468847587b976a3698c5b7aa7d676e9d989cba5a379a3b9a7ed4b7f7bbc9857b7c8a68768ac699
col10:   474894b6355a758895a5367b967658cae8b979b9776baaabc9b467776a9fb75b876674ca89a7b88c
col11:   6486848a4437456678667583b7bc77a76d9ac89baa985548d87575a865a7c9a766867659d8697169
col12:   a717a5387798a7947a446ab999966b84aabab99b8ab4cd79a9a88bc997aa4d95c8a865c5da66c8ca
col13:   a4956a39677a5699b9d676d99977895787db7b8b7977c8a975697b96aac759ccaa96ee9ac6b7c447
col14:   5546b94497745444b4753b8c7a85c3b6469e68a87891a3a389da98b8aab77956b6db4a888a887c95
col15:   44588981378a59da588cd6dbbbc5c6a65d93bb8aa655b7b8b7a589267586ed88968977a69ccb588a
col16:   65557926965575598a76e69d5a87b8a7a75b1a9475974646ca867697ca4737d549734975a8b88896
col17:   4665826a7b8486b79b7b7289c7678587c59a86a79a645976a8893c8678b9c9845a9957998b4838cc
col18:   871434399775a578a66b15634a9a96b99999878779b9aad7776c923b75a8d45a69a78cb567745b98
col19:   52786a7769caa4898896a9677989343557777aa697459c8eb6d9778988799556da7a9a9a9c653896
col20:   75886287b484668a8cacb5477689b7c565a5a78887767a86aab735a6a29b68a97a9b98cb6a895965
col21:   4576868759355946ba84ca97978a8d3b9b6aa874a99b9b77ac56f8587b6695a6b6d997fc878ec969
col22:   436195996947658716a89816855b7b36ab84d7788884776537ac9cbb6797a6a496b967c798976567
col23:   8a6485618b9ba74649756c77a95688428a8ac95bb88599bdaa8cab898899a5847467a879a688a8a6
col24:   359aa99174764655787b878a7a8b77baca7b77798b8868ba73636a9969a65988b888a8d8ac899c64
col25:   795997899d99867845b8596669aaf959aac58974b7cb8977aa9977a7b897a8a8aaa8b775cd9999a9
col26:   7a6996d6baa86659987a487789498a79a69ba9e77c96a969caa9cca889b599ab98aa7bada8a997b6
col27:   b88868a56ec9b886afacc9ba9ab7c879b8abacabddaaca3bc8acc98be9bcbf6fa88c8b6aad5a88c8
col28:   892567969cc88aa39b755bcddba7c795a7b9b687965ebbba78aacbd8c9c798c9b4d8e8baa99f59c8
col29:   b67b595adba6aa8e577d7899fbb866a6868acac89ab8a7b7436d9ada7d687beb5dc7d76ac64699ad
col30:   659bab8887c68c8689979c9a7f7685a8ddba89b96d79fab78d97babaa9779aaee68f8bf999bbabea
col31:   be75994797d3d9c75a95f777bbdebccb8bb8c8b8c5e88eaabbec3e859b6bed39c7fc65bcaecefaa9
col32:   993878b876cda75cfa87a7d7b9baaa9abd4ad8b5c8cbebdc9bdbdcba9698aa8bbe9aab8c9cdbc8ec
col33:   ca67c877aab66b9778cdddcac49ad8aaabb777dd9ca74ad3aeabbafbe779ada67ab95d9baa99d98a
col34:   75a6a8ad9ac78ccb87acb5bbb9895c68897f449696a989c59dddabb2ecacbd9a999bfdba684bcc9f
col35:   781698a6787db8876a7786db4cbc778da6ba88c89659a897ba9f886a4787bbadcfc96baaf87c9bcb
col36:   4a47796b899aa999da96b9ca4997bdbabbdd89ace89cbfab9fa78cd7bbbb978996c98b8a9aa759c9
col37:   a699889a89a997b9d7a8a9b8bc698dbbb7b8a99a7cbcedd9de86cddbab869687abb9597db657a4db
col38:   a95a6378ac75b8b7a87acdb6a78b59ccbbbe9bc9abad7a89adcabb7b89889d9af97bcbc9cbebfcbc
col39:   9b4796c389bace9ac96b7abcad9adca78adc78caaaaa9cb98bdedbe88aba58ae9db7d8ea788dadbf
col40:   c989a686bacca9676b5897a9b986b88cca8dd58e8bbd8de9cbfbbcbafd8baccab9977daebfdbcb98
col41:   973c67b97d9c599c9aab9c96ebd69a46569ab49c9d9ab8cb8aaa9f8e7fabd6cafaa97af8dbe689aa
col42:   663b958a879c79bbc89bc9ad859f8a8b9bd6cda68a5b7a9a698cbeeb79ae5d6bbca6acc8ab59aec9
col43:   75397c378a68c897477a78bba68cc997caac66b5eda5aac9c8aa99de8c8ada9acab6ad79ac9cd8ac
col44:   4987688a6d4b7eb8c656b86bcc9cc98889f8dd99ae6bbfce6b8f9ac7bcda8baca6defbb9afa8dacc
col45:   9669b789a6a89b6bccb9899f77ea6dc96b6e9dac5599dc6ccd79cc79c59bf6fc9cbe99ecabac98e7
col46:   779d89c9b9bc76a964e5afcb9599babafbec8c5bae9ed8bda8d9c6adc96bbd7c7d99d7abc7accebf
col47:   859996cc688abdbb8767aaba789cdc67bad9979aa6ddb69ccf9dcb8c9acaa8ad5ad787bbb9cda8cd
col48:   4897cd78b797659ded965a7b887b7afaaadcddab99889abeac7abdd8a97acdb99cdb8d6ab6cfdfb8
col49:   da4762a998aa79ac89cfd89abbb9f99ac9b8b759cca9daffb7c6bbd9e8bfd97b98ee9d7c9b7ad79a
col50:   9549cd66898c768b878898b988c5cda7bcaabb79bbabacbadd76b97ea6a7bbabacca8898b98cea9b
col51:   47899574232a66349aa9499596a6a35a7a9c796b6a886d6c85cc8979bba667966978aa48cb5464ac
ROC:	 BPix_BpI_SEC6_LYR4_LDR22F_MOD4_ROC4
col00:   6556356c57266766aa85aa468577894a99377a4a977789847bb76c7a59b7a8c8689a9d78969a8db9
col01:   5798a6686356c4a796e68caa89976d58c59ea96b5ea8abb9a8a7b89877a6a7b98aa7978cd7b8b6f6
col02:   8649a9818645754babb89895e67ac699a6b4b6eb7d89a9aa974a9c4986b7888c8869dc8cbda979bb
col03:   93159191978c8bc7a9779c69a5a965875769c99dbdbcbeac9c9bcc98bdaa8bb878bc9aa7bb857c99
col04:   6645468b68754c79a29a939586aab9977c9aad968b9c7aa6cdc9b4b8aa96eb98bab87c6bbbbdb9ea
col05:   b67569697396e8ac94a86b768c9bb8a9879bdadbb9f67998bc898bc8568999988b7c9a887b8ab8d4
col06:   77b58a78889749a892a7aa478399c73f8c7c84da7995aa988777e857a799ad89b9b99fb6b8bdc97f
col07:   39a19aa8c89785c66b7adcbbab77ab58877ac978676a5bc9aaad7afd4b7c68895aa5aad8ba6a69b7
col08:   968387a79447483bb97479599976b9abbc86a999a9a98acbcb989bac79998d97b89a689bb98bacbb
col09:   89418a4456499888ae9875cc7a6a7b788ad9b9b967dca9d69d6ae9acab7d9c9eeef7a8d9a7ca9bc5
col10:   617759a681769c895979879899aa9b67ae7a68dac8aba8aeb9d99c8acdbd8698cc97a68979eaaae5
col11:   a536748759368655b7c955cab55799a89a8ccb7a6adda7684a99929a8aaa9c97b57b9788798b9ec6
col12:   86853a765779876b977477a77868999a589aeac78bbc8b888aa89665ca6adcb7b79988697887ab96
col13:   c87a8459b79a3b97b557b88669ab9797bc4a7a6dd57b9f87bad88f6a98b8a89ac7c79c78d8cdabba
col14:   462943478596966b76767b577a77ddaa6787ba988ca8ba8bacab9dd8b6a46e8cc6bcfa8fe897ef9a
col15:   d38686558b9b968b96a5789a8bc3a9c7b79b98cc6dbaddada99ad85a8e8b6bc98b7bcdc99b4baaba
col16:   3437588347539a47ada74cd76b987c9b8aca98e89656f88c7ca89dc6c79c99aa9bc8b7a99eaa9bbc
col17:   566a3672a7554559668871ca8a7a987abc99d6c6c9b8c8789989deb98ccbacc755789acbeb97aba9
col18:   75799b848a7879798758797aa997a8ec9bb8a9a8c9a6a8ba88cca99db783f53cbb9abbc9aa88ba9b
col19:   7728898744b97987b8a6d48c688869b8bc9ba699b7dafa88ac6c98fbb8a7b5cabb8977cbc7a79897
col20:   463753abaa8bbc78b66caf7aaa8da8aac7778c846f676898b99957b5acd876b988ad797779487997
col21:   36798a694a79bc69768699668a7ca8be7acc8cac8b7b8a88ba988c699578dba986a97cebaca8a9ad
col22:   8398588869468b46ba87b91a6949a67cbeb889b58b59997588bac645bcd868babaab9baa9cbcf9e9
col23:   93887459876973a8992994749a65a98a9adcc6a6d99ab7a9aa87a8c56bb9d89389996958b7e8b9ba
col24:   765569374a7976697985886c853a4b8a7cb88898ba9aa8fac63996baab6775baba7689a8c47e79c8
col25:   775495449678a7b6875b9d9d94bc7eba7c995bedb9c9aca7bcbaaf8994b9ebb5acb797b6abd9dccb
col26:   2866777c53a2996576979ae8c9cac8acdcc6b5d59ccbeba9d7baaa9a9af79daebd88cd7abe76b9dc
col27:   47859a79b966a6799b9a9c8ba8ba9d989a9bbefae9ebc7bcaa9becab99cadbe6bb6aa9a99ca5cdba
col28:   8a9a78bc75aabc8bab7ea999cfe9ecdcc9ccbaebc9ead6bbab8addbddcab3b5d7be9b9edb97bed9d
col29:   6a389a788835588db95cecb9a87acc8bcdccfbacec8999ab9adc8eec5baab696bfbc9ce8abcabd99
col30:   c568a589876679aa88697b9ad878dbfbbbafd68caceeaacacebbbcfc6a8db9f7eaab9b9cbbbcaab7
col31:   9c598ab89697ab9aeb7a9baabd69d5fba8c8b6afbebfc8cfdcacbbfbab8bbbdac99d9dafd8babffa
col32:   77a8bb776ba8ab5da94aba9d898bd7fa9bf8b968abbcabfe8ebbac8fcaebacdfaffcbcacabadc7ae
col33:   867677ba6b7c9688da9a9b9dd9d7dfa9bccdaea9bcfacbbc9f8bd6cde9ebc9cbccbc9bb8e9eccc4b
col34:   87a28d6b8967bbc7b8ca7cadaeaaaa98b7ad8bbaddacca697beac9d7ebdbbceabbbceaec6d997bdd
col35:   b894ccc69a6a7a899c9eabdad9bd67fea89dccadc5abf9afddad9ccd8df9b7eebdbae6ab8bc79cbc
col36:   c4a9bdef9898c889a887b599da9a9abcf9f9bbcb9edeba9fbaacdcdbcba796dc98a99adc8cbba9e6
col37:   4a8967d89ae9b78b8778ed6dcbfbfdecab9dfecb9daabdedebccfe788dbcff9e98ea9fda9ebc99fa
col38:   8b6a69988b9cbc959aecaaac9c9bc7bdaed9ecdbadecbaaeddbcafd7e6d9cc8cbdadaaefeb9ccdec
col39:   a9686755caa6999bc9866ebb7c8ab9e9cdfbcbeeeaaafbccd9e87dfdaabfbadfa7cbcd9dcecdbfcc
col40:   e8996a8bcbb588ddced7b868cbcb9a9ceddd8bcbeebcccbd9cafdbbdb8a9dadff9fcfcbdaeffab7c
col41:   879794987b9a56c9b7d8b9cabbbbdabe89cbbbbdf6baecac8fdfffcccbbcd998bb8cc8bd9d88eddd
col42:   66667db8b9adbcb9cda8b7af9ab98aaefcab8b8ed9ebfbacabcdcdfccfdffefbccbecdd8a8cc9ddd
col43:   74a7786bc88bac5aaadea9cdcceb9eacfaaadcdedbfcfc7d8dbeac8bfa8ef9cebafceafcbbcf9e9c
col44:   79c688f6b97b8bb97aa9ccbbb6abfaeffdace8bdfe8f98becfdcd9befbcdcaceeeebdaf9daffccf6
col45:   c8a7b767ad98b898acb8bd9aabaacc8dbadccdd9aae8fc7dbcd9c89bbeaeeddcbb8dbabecbddd8bb
col46:   586a7a985abac69a9e6c7ebcdceb9e99aacff8bc9fdc977ed5ebab99c6dd9dae8bc5cdffdb7cbacc
col47:   c67b8aea8b8b89bcfba9b8bdbfaedbfcbbdfacaa9db8ddfca8b9da9dcefbcebebebdacd7acbfff88
col48:   758975f5dca7be7ca9dc3b89bbea8899bbb7ebdeccdca9ddba8ebd9dfacabcbebeadcebee8afebbb
col49:   a38ab787749aa9b84afeccee9abacdbaacdadc9ebc89cb8cbaf79afcdfa9c8bdebbcc9aceddefdcb
col50:   8d889ab9a8b58ea9adbcc79b8a8cab87be98daea97caceabbcddc79ed9dcdfbcddbbbcacafefcdaa
col51:   6c954a67565ab896788bcbaa69cdabbba79cc957979b9b9999cbe766cb99abadacedec7b597ddda9
ROC:	 BPix_BpI_SEC6_LYR4_LDR22F_MOD4_ROC5
col00:   67456485438425856a3848523756653556565547983596388477b888484664774658857868754c54
col01:   94557679795937761658575c65a584269b7722847a84abb745a668c6999ab799aa798a888cbc8bb7
col02:   7134795835453629846679694738545456a97787b6aa2974759ba9754a9c898667677aa89a887b68
col03:   76676851a86578744556866a75a5ab7857687a8964a787a7a88888b97757c8a8795aa86bab7768c9
col04:   4889745755823b57644973699a765755437786887a7587958a4ccad7c577539589abc57988879989
col05:   6557a581a8756651767859688498697a87a96776a5a76d88a67d8598776aba9bb96b68948b9a9699
col06:   7431854363837a766794525764c26b688978678779659969b7b897ba6ec4abb4678986a9c89a997e
col07:   68767895755778a786985aa697cb698889b7a8695b9a8886b85bb97a9a44c58a8bc75cb77a9778dd
col08:   57237448777b67669715a877aa4a884697559659c999893586a9c69a98956c9aa6889a76b9a8a7c8
col09:   45655867196867439694477384a7968769a897a7a588a9956676984784b67b99a688c7d88585999d
col10:   8949358656726646665697578977779856a7e59977b577889aa29588887789a878aa7779a6869e9a
col11:   94976334686736645aa67794b978b4a636bbaa688b89a96a775c79a6986c8998b9a8aba7667998a8
col12:   49753314758985b867b66789977678a8a9bbb599898679a5a7848888da7a89ba8b8bc8c6898d9d9a
col13:   457645474156975386a799a3a9951996a868ab8b696a9b7a7898a789a9aba7aab999e66d8a9bacb8
col14:   a4837698559476579775796666a93585d6b899968898b875db8ae7a878d9999c3a8b59a8987aca8a
col15:   52583488737657652446b7659a5958b56688a3b94b97a88989799a96a8a9999a88aa883a7a577589
col16:   6a46764365273895767574899a688c989697786a876889a98659a1a9799acaa57ada86a88b67c9a7
col17:   546595615a577419766877c797b7986ca9898b989939b9a77aac95789b8979acbaba8ba67b9778c6
col18:   49844594638616587674967785bcc9948667c6879498869aa7776987a8aba79799c9676aa7aa9b98
col19:   4398849965567a4a7886793487865a8975bca5857a75e8889c6ac777899da895cebb6b79896986b5
col20:   67451683456758875863475d8949aa98aa92579a99a6a8a9679a787a5778c9ca98999a96598b8797
col21:   4665687387745a777a747865879b55468786a9a6abc88ba89857db9aa9989dc9eaacab8569ca8aba
col22:   756863774a74868a5d978a989dab97d9845a978788bc78979777a8799986aa7d9bbe987b969ab9aa
col23:   3568257247686886798879a68e6484c9a778a787b7b5bba6b68787aa78a6a49798b9984bd696a68f
col24:   446628c88868954555687bd978987b969c8b9889c9baa7a9697bd7797888a76bbb9b7aaabbab97d6
col25:   934689766a77a7bc96888a8986b8b9a9969abb9a9c99b59abb89aaaaada6badb7aaaa9ae8bdc8da7
col26:   845788757876879a9a9ca95997c59daba8c8c99ba9cfabccdc7ab56a87c8dcdd99aadebadfcac8b9
col27:   9a6865a654547a68a9b788ba57b8a868ca9dadcacab8c799bc9cbebbacd9d769aeb48adcbfbbbd9c
col28:   5665ba88b79b89bd8aaa96b768b4dabaeca8cda87cad98b7dacacbdbdccebdb998c7bc8d9c8aadad
col29:   27378aa579958a6a976abba97bb7c89eaaa7baadb6dcd5abc9a8abdbcad88caaafd888b9bca9aba9
col30:   99546874c398a9c5a787acab989ca99a9cccb98b85cbeb9c9c997bba9babee89ddee6fcb9d79da8b
col31:   94b7958a9a79889a897c68bcb9daaa77abbfecba8c8cccb9cf996bb8dbedbbd7babbabeebadbb8bb
col32:   995968b69a8788ba9acc8ccac88adcebb58ab9adbbc7ddcacacebcdc99a89eea79abbdaa9ccac99e
col33:   957948b9a7acb9899c5889b9d97ce9bcbbab57b89acd97bdbe9cadcaeacbac9cacbbaacab8b8c9ca
col34:   b8b72bcb97999c7c889ca99abc89acbcdac9adaad7eaba8cabeaebcbbfddba9ef8b99ca89aad99ac
col35:   57d8daab97bc9899c587cad9bebaa7db8db8c9a6b9cb779e99bcdb98ccfddfbcebacce89bbe8a8be
col36:   9c48979c869c8688aebc9a9bccabcc8c9e8a8d9bcbadd9fbceda9ccaa9af9abacc9fdbbbcbdbedbd
col37:   db778bc9dabccebebc8abbeba9d7c8ddb98cebbbcacabc999b6bdd9abdaac99bab9ad9dbcfc9ddcb
col38:   ab5a65ba78bbdacb9b99b85ba999dadabbaabcdcd7c99badec9cb9be89bceccb8bbddbbabfbaeaca
col39:   7d69aa69a98aaa89899a998ca8e9b8d8bca8da9878ab9ebcccdcbaeabccccd8d9b9fdbbbdda8ad9c
col40:   6586bcaa9ffc8a979e6dacdacdcaa99ae9cb7fbb8aba9af7dcfdedcbbefcdbfbeeeacfacaafbecca
col41:   8b8ac9ba87acbdab8ab8cdeb77ccdcebabcaddaccceaa9eb8bbcbcfcddfbdc8fadcbeceabfdeebbb
col42:   998acaa985b96b6b788bcacbbccc9cecbabbbbbeecd9cdcb8ba9dceeafb9bdedc9bdbb8baa9cfcca
col43:   7baccbbda7ae69b9cccbcaadaadcbcbbb9dd8ddbbeeaabdbbbcbc9cb8cece9bcecfcadff8bc8fdcb
col44:   7897cb8ac6a8acb9ababd999eafebaba75cccdaecadbccedc9ccdcddbbec9ddfbdccddfbaebbdccd
col45:   9b8aaa7adbcd8a8ae9e87cb8e89dcdb8a9ba88ebbac9bca7ffdbdddbbcbbdaebcaebeb7aeddeadda
col46:   96bad9c8d9b8ac9f7bacc8bac7bda8cedfabb8cd997efdedcee9db7edbabdbdbbd9fdbc8bbabb9cb
col47:   aab796a9a998bbb6cecccb9a8b9cdeeccdbecbaa9ceebedacde9aedcddbcbbcfffb9aeddffec999c
col48:   878b6bccbb8b88fa8ab9eabbc5aacbcbccfcfccacdccaaaf9d9ba9eccb9baadccfcabdbbedeedae8
col49:   a98aabbb7fb7a6a9a9c9a9ec9ddcccbefca9c99beecbadf9fddcceededbbeceafc9afbe9becdcdbb
col50:   b9c89b9b8ab9cbeda99ad99bceebfdaebcbefbdabcccfdbdcddd9dbdcadfe9ceacbbbbbeccedcffd
col51:   9669a7577ca47c896a899cda96cefcbf8a9ac9949cdecf7c98b98d9b9cdbbbbd9bacc9bbacaab8bb
ROC:	 BPix_BpI_SEC6_LYR4_LDR22F_MOD4_ROC6
col00:   476957775355321663756496172726377a1629d1768586455a76866463aa96477576a746639783f6
col01:   a39263335633869b7994586a8a885665984777996c978b968c775167ba66868aaae5aa6a8659b843
col02:   95461516958165377a863a4863564ca8998989867a6a17747c4668c87849b6646465a1b796597753
col03:   54563785573445a97596918ac69ba779a934a8c56665947a67768968d857992ab797a67587368a86
col04:   8153585365246888675655497ab845838c696a787197498868cc967648799e96935779a7689a9a76
col05:   893752853686594a877798766c7b6a239687a4a99595c489a3b987b6665455978a67a6669669697a
col06:   354618463652191479a59693156658899f556649aa672ab7996544767966b362577977c864688676
col07:   836998168617778a94779d556ba9bb6a8668a9999b9669479abaa878bb697ba588b969a356d68797
col08:   25ab164576346942889848446577599837cb5d45778ab6447894877789997b8995799a6778545283
col09:   8854753477736438792b7779b96b39995aae6d6b879ca6a55a788883a9a89a69c6978a747479aa87
col10:   46577544769b6658a7641846573679aa66679b695b7a587b7775597695a69688595555a5b5976c44
col11:   757319a9883734257739585778938c5a8689689a3aa6bc8286b9559a88a958b68c579797667ccb62
col12:   86365561724799747a59335758855994578635c9b79b896a755a784758ab9a5955967787768a6746
col13:   412935876c67464156bba67cc77bca489dc86bc7bab785a98b9babaa98396c4b9a5a99a68b5fa897
col14:   36736b154679989768a666163bab6a98ab745b7ac8992aab796b67a7988aa967699439b6ab385517
col15:   277c8b4b17544664a94848a778b88a7c578898aa2b6a8a77bb77c6a7ad7aa86855b64a69b5357c8a
col16:   34736535a1754699a5a5459787854a7526559a959b86876a83589f98a87b86557c57a5aa6678414a
col17:   8746149164938b84238235a9ca5984d7b8cc575a7678877595797886b7abc964a7a74744759525b9
col18:   353b356695576486bb2b639972b4896c6796655639a917486b668ebc869788d8b699aa69949583a8
col19:   a58832768588556584ac5b7768988acb9b877a1dda864fd8893849879a85cb48a79b4a7476867869
col20:   353158675657796a549d8646ab9b9784a869c69779a95c2788869495666b8663a868689986b527a5
col21:   642717553599b76a756736b56b545a7b1bcb7884a6579a9778b855aa98c46468995769787669a894
col22:   9862948a563771948676295a8b5b8c5c49893ab8b88996968d9aa8d696b75994d98b81779772c648
col23:   8a76a47813a8879637576248a83699865678578979bae6966f86453abbba4896675a96597759a737
col24:   86623725788457572b91945ae4595c7b96ab6b696879757b7a9a8bba8dc86d79685c75a71c479966
col25:   679598524b68753886c975c79787aab98997b8b88a7b838c4cbbb7db995b89a878b9b49a78669999
col26:   68759477a8778b587c7786a978aa9ba4bd86d9b85b766c78b9babacbc6aca9785d9a9889aaacd676
col27:   b78bca6c98387b6abecac866bb9b9e959c769c5977aaaa9b7dd478799e79ecdac676f7ccba9ac499
col28:   8968795886756a676698ec8bb989d5eb496958c9bba7b9dc9cc7dc3ba8b7cb599ca686ed87b6c979
col29:   847b2a5c587b5da64a8c99aabac86bc779ab87ddebadb9fbe4b8cc897b9ca9cd746c79b8a697eeba
col30:   87c89767a34aa9596dbb7f6857a997bc56878aa6959ad98bac8c799a8d859ba9bc8a64659d667886
col31:   92886e49679b888d9e9ba5988ab9a7c7aba9b9cabbebdcecac8acc8b8dbabbac7bada8da9a7a886a
col32:   775996a9a6896a3db77cc99db99afdb4b8a99daafa9de9a8da8aa89d8b96688859ce895cf98ea799
col33:   674859598988cabb77eb6b58d6d8fa96da989a9a7a986cdf9b9b8c8efe9ac99d6ac997cb8ea79ab5
col34:   9b56c4ba87668ab65bbe6da88c8d9e96bbabbacca9cb49d4cb6bbb888b9bac98cda9a9a988abb7c8
col35:   59676755a959b776ba79c6d6bdc9c9abc796ead878aca958ec7979bcc95aa5cdb97a6879c8ccaca9
col36:   6a6a6b86a99a9a98fe5abe6a598ae8ebba8bcbbea9ad7dada5eac99d8a9acf8c7b78ca6b9686c796
col37:   a55b997ebb9a87c9daa97898aacac9c9db5c8cfc9fcdcbb969aa8ecadc8abd7cca8addaa8b79ba79
col38:   9a199fb57ec9968d9a869edcdd9bbebcc997fcd9cacc9bdafafebbb9b4abbcb5bcc9abc6d6c989b5
col39:   b599899997376a9d9a98b6999f87bbcd9c8e8c9bd9cbbaafc8cfab76d7b8acba6cec68aa9aa567be
col40:   99a48be76a6496d9c948a8aaecaacc9ad9b5b97defdadc987dfbfabba99cbac6b6c9986fad77ba7a
col41:   6b4a4b9a9aeda8b9cb85dc9aa4bcecccbca8bdc9cddcebcdcccd9bbbc99ebdafdc7b9b8baa8dcbc6
col42:   c59b77ec9787699ba7ada98ea9b9999a6eba669a8cc9ad9bdabaabfa7b98d9aa7b7b888b777baab8
col43:   66ccb7a797fa7deb7ba9cd89a9b7cea9bac99d8bddecbbcbab6aacf8eb9f8bdabbfbe66aafd7ca9b
col44:   7dcda89c858a67cba8ea6fdcad9f776bca9ac9cbc9ae8cfecaaabaa7a7eaa9edddc9ad79c999a5ab
col45:   5abcf7b87a69d8489768b89cc88fab69a79e8aecbadecaae7af8ac9baa8acfa9f97c88b8b9bb9994
col46:   a8a8789abc9c7d7a5679769888eca9dabdaae9798ba9c75cae9d9df8cf9a6d9988e9eb89cd8b6bac
col47:   8888a987bb9964cb79c8dabcea9cbbc7fd9f6bccbbbaabdf9cdeedba9dbc9eb7e96d5baace9b979d
col48:   6c6886d9cb8ab86b5c9b88cc8f9cee9e8d8babdcfbda9d999d68cab7abbb8e8bdc5dbdd97979ad89
col49:   8a298887a988d7bbadcd8b9fb9bbda9e95fd7d9fdc7ea85bdbffbdedaacdafdb9ded9a9cc9bcb7a9
col50:   678d5bc8fa9f64989fb8ab9eb6abaafbd8bfd9fd99cea8cc898caeabccefea9acc8997be9f89fc7a
col51:   665729b5a8aac8597c7a8a9b7d988a7acd8a9d9c9b77bc5ccabcac79a88b8747ccc56594796afa9b
ROC:	 BPix_BpI_SEC6_LYR4_LDR22F_MOD4_ROC7
col00:   887949679648789874baa8c766979666c7b6e7a9b6798a5b7a9868bb97799b9889976639498777a8
col01:   687567757a89d557989aa8b968abcaebaca78baabaea88982958ba7daabca97cabaa9ac868ab7ad7
col02:   75a796886764484bba78a8788578abba89a9bdb8a87a888978d6a9c7889a959aad8a99b6977985bd
col03:   86977a3b6a398987a78c6b8bc998989bbb5977be9cdafbcb7ba79b8b9d9a9d7b6b7a9b887b769a37
col04:   b57a8962477697665ba67ba7888aa699a98aa7a8798c69868bca9e9ba8dd9ab895ab4977599994a8
col05:   65855765395bb9c795677a775baba8c6eb7a873b967ec9bc5d78c85b6a9b787babab9399b7587888
col06:   a97633599ac5856976d7749478bc89be9ac99caaab987cba7b7aca7bbc98ac6767866479a48977c6
col07:   d499a83689674989898a79a7e8b687569997aa9ca9588977895aaa8997899a7586775a77a6679686
col08:   99745c831955b6997499a599998a7b86b878b9b79dbac7a89aa69b95abaab8b79aa8c346b7775a75
col09:   17455717788788b8698b586859ac677a7a8ca68edab58cacaa9a97aa68ebf9a58acb869a84ba8859
col10:   228a689a9967a8a68974e54a5a97678579c7a999b9aa896cdfbdcb78a9b836a9898aa7955a89c738
col11:   4769765684948a8196ba4979a797b76b79ba7695b7c88bc7b7db9acb8ba885b77a89688558998b77
col12:   6a5797398677c7659893399aa9987aabbaf69a5d7a9ba9a8a766ac398bb89b94bd9c8c8b79497577
col13:   676764692776a7b88c8a8978ca865b887b998879b99889c99c9abb8999898458accaa9c7aa8798b5
col14:   188581349781956ba6b8985b87998c5a7ac6dc42bbc8bb997c9b9a9c894da9a9ba983524a3747a86
col15:   8955857b5b75c69977aba44a79a877c777999679879d95878b6a878ab86b8aba87cb49689c7a6fc6
col16:   587667847a7589c97478b8a99a8a7ea766b8b6b6ba9c859778ea93da957b9a6a9e7799a999a78588
col17:   4256a9b74bb8766486c9688646855a8846c9ba78a989b8779469aabc878d8cc88ba995ba8376968a
col18:   55b5879baa99885a8693b9a87aca98b79d9af4759768aba65b866875ba3da77577695a7555b96768
col19:   184846b7a9558788957566b818999649b5bd8bb9969aac997b47779ac9ddabdb7a99b9a897969362
col20:   7b775789837c3a985a6a8671565b9c95a9854bac889a9b6ba8c75b487ac95aa87954a7ca9789a736
col21:   98645ba6839ca7b988677775bb899c9acc69ba9abc6a797aa9489969b8f98bb997d68d9895999594
col22:   b84857487a7857a3697698889c559ad7a86856aa567b79867686798669ab93a7a58ca3b9974b5553
col23:   565684666858a7b78774c499a6b598897bb68b98ad87db7abd886b9c8ae97a676b8b88a574576698
col24:   546529486945a98a7aa868a8b8a87c6c9a89778c7a887a8a4aa939567c8c9e69bd6bc95869767368
col25:   9674876a587883a68989a76a8a667785ba5839867b9a998b8b669acb8f68acb9cb79688a975a8855
col26:   4c9a7787689ca599486666979cfbc7bcadaabacb9cd98bb9c6abc9bbb8a986cccdd8c75a956aab79
col27:   7a48496a665869b9ac988767bbd7c959dbabc63bbaaa89b8cb9aaa7cdcadac99cc9c98da5669b6bb
col28:   9a89985a958977a7cbb6aecda7ae9abb6cbca9abbba6a9b6abb7d7cbaebbad6a9aa9c35ce9ad8787
col29:   7699a764657c863b787aba7ba7989da9bcaaa9bd9bbacd8c9c9fdc9fbf9b7c49884d9c8778a66a76
col30:   796595d7a896889a8ab6d68ba9ec9c9a9dcda8d888c8cacbb78bbadab8b97c8caa49ac5674eadae6
col31:   76665b69994a8a869a87d96ba8c5abc89b8dbbbad6c9e8decc9b9ccba9869ca8988abb9aba6aa6b8
col32:   88a453a5cb756d58ab5a8dac98c75da79da7ecba989df8d988cacc8cbab7daaa9da88cc99aaa76a9
col33:   986bbcca85da78887689ba8a9b88cdadd8cccaa8abbf9cb9cc96d67a9efceca98ba88c8c886bb9ac
col34:   74a3a8a7c7899ba8dba6b79bbb6bac9987daa7b9e9a66d6ac9bbabb99dc997a7c7796bc799abc9c8
col35:   66a8a96b6a644788aacc98aabc9abc9bab79adb89897bcdababdcbaf8a8abda886aaafb8b798b4a6
col36:   7aa3a98b6949b93c9899aaec97958a6bd9abdcbbb79bc88caca9babc9d8e9abd999998bb78a999a9
col37:   87c58c494d85a9aa9a49fab8c999ada8a6a97adb5ab9bdc9d7abcb9bed8bb89ab9ababa8bb97a9d5
col38:   b94664ba79b898a5ba8da89a99babfd6bccb6bb8cccaac7a6d9ada7ebb8dbbcc9b889b678baabdc7
col39:   a87699a697695a598c89cabc989dbb8da9dfceba9c9dcdcaa5b8aaca87bada9cdcbdb7cbb988a778
col40:   a7a8a98a945675aa8b97cb789b88a678aa8aaa7acacaabde7bdbcab999cab98d8dbbca7c7cc585c8
col41:   7646bb7788956878bb98c87c8accbb9e5f7958a66bcbb9b8dbbabd7b7da9e9ac77b67aa9aab9a85b
col42:   89858b76658676967b564bb9aab99cb939bab8e8a6b8b984aba7bd9be9bbc97bba89d79b757c986a
col43:   9856a868496a36999999798ad6c9cab36dfbdb8ab9c9bbcda7887bbeaabaac8a9ce78baaaf7a9aab
col44:   826576884d9b76ba8a5aa9ca99e6ba9a46689aadaab9bbbaaabacb8d9cbbabced8abe886a6689985
col45:   47c549a8599a66bb6b629b696cacfc95899ed6b99cea9978aa9ac7a9cbd9a779aca8dd57e953bb87
col46:   79988a889462769c7c5b99bd888cb87c78c7a998a77897c9bbbbba6a8c97d9ccc989cc77d7c894b9
col47:   a98887ada367b677aa8ac879678666bbfec79c94b488adebe75799a9bbeda8a98c86a799e78988ba
col48:   8786698898aaaba97887abb48db7d88b7c6ec8bcb9db9afbc8c9adea97a988b4bfbd69e6956aa5a7
col49:   957987737e69a7a3a67896a8aa8aaaabb9798bbfbb679eb79a7d7bdaa7ad9a9ae8877cabaa6967dc
col50:   4879728bad96497788677f8877abaa6acd8ac6857e8aeb89d978cabca9cbbb9bd7a9a98ca7a88df7
col51:   f8285a4598332475b692b77954386675aa99c9b6789c9996686a8678a89699778cb9a788556b67b5
ROC:	 BPix_BpI_SEC6_LYR4_LDR22F_MOD4_ROC8
col00:   657561466395529956747878abbb889677dbb76651b9a754885768996a99a85966c5969485879587
col01:   9599847979675658946ab79aab3aa798ca588aab6ba9a9a765e9c9a98bb787ba968aa799b4867774
col02:   976656784797469a28d996ca96b9a7ba99a4dbb9597ba9b8abb8cad8cfbaa6d76787676a7a617768
col03:   83777868b7b9bb889878cca879994b668b99499a99ca89d9da9876b995a79c9aa998b97566577571
col04:   863987747a7abb585996ae99b898992799798897868b99a87b7c88bc87bcba4472497a88758a7675
col05:   66678889698789486776e7785989849abd96acc7a47acb777c9a59a7c9676a66986a9886b8824693
col06:   7b65b54b7962cabb789b67a79586ba9abd8cb9cb9a966abcc5ba8b99896ac8958b76a9457e85b548
col07:   567a6a69878d88a8df98aa988b89477ab8cb7a9d89875ec7da5cd7aac3976b9988d9568566a87175
col08:   856746976477aaaa89a78c899887a6a98d79487bfad8c8bbdb697ac7988a8795dc95638968576875
col09:   7b618a7a9a39bca73aab7966584bdacbca7a68ca99eabe89dd78aabcaec8c9a74596a996a5688b47
col10:   7a673667346888698497b5b9947b9997767ab599ab8ba9abd8789e9da8d57b6b49b554a6c2785748
col11:   96368969856384b49586797997b599a8783b84a957a578ad5b6a65aa9ab4888697488358843839b8
col12:   85986471a6784968789839b696ac6b7ab99958aaca6888898a7c76b68b89c5978d948c7746b9796a
col13:   529268458687776787b4c579aaab8b998b889d9da898ea4ce968c77c6c977997969b76a7968bc528
col14:   7a5986a5a57c79684566b776785765a589d9b995f987598599667a7a3ba8576bc229599a66578696
col15:   274487954ab8b664988889667a9c8b8beeae97a99e9b88a84cc865b777a8a796a4896889778a3824
col16:   768665986657768995487b85c966d68a9fd793b26aa8a9a7b9b7b7759ad98a8aba988585876d7a47
col17:   5658a38a457597459655ac697ea6ba9c877c779daab8879b9ba79987dab869ab5889757778c95785
col18:   87963879c767b6569986c7ab799a7d7b66b39b983a98e9e769b9c787a97986498b8a7553b4588785
col19:   79a94586b76657d877aa99f8ca996a66a689a4a7cc89aa9958a787a8898689b688a58b5495978356
col20:   a9942787a77a94a96529696889b89ba8ac6bb99c9cba38c6798aa499b8bbc728988997485a996a81
col21:   72a6597463983875b98b7a9ba89ba983a87ba9a8a7a8b87a3aa89ac95ab979d95a73543692969558
col22:   8555973175687ad7596baa6b967889ab74bd8d7c9b6d79a8b367c85bc789698999a4696c57785643
col23:   596746569c9979578859527667868a6bbc4a6d3cb8658c786cc5956caac77ba54566976746565a71
col24:   a57656688555a8599959bbaaa898758bc79bab9969c967999895689b779886677798b87688993635
col25:   a9544aa9ab6a389a978c679679bb9c9e99b7789bbb77fa668c8b67b7979bd47858696496777487a8
col26:   c5ab9a78797978585a9866c8ac699ccef6cc8e9aaa99a9b9a8dbda9dbca796b89ad9898acd6968a6
col27:   a38a68759889a8a97765ba8ce85ab9ecaba9d9eb9acba98ac8879c98babaa98cb888aa59947a8598
col28:   77a997b99b779a9ccc88ab79cbca8fbdba9ba898d6aacc969b8a9a7bfdc7aba88959a8aea8377aa3
col29:   4a88a86a68c575759a979b9a997ba697d88a7aa9b8ccac9cb8f9bed9ee7cc7a789addb7a99967798
col30:   a5a9495c89698998c8a7a36a875ba88b9aca78be9abadaaa47caadc7cccfb4f8a6995aaaa6688ab8
col31:   698898aca5b563678a895a6abc6c98b7becea59d6bcf9acd886e9abbdac78bcac87cc9cf99b8758c
col32:   c85468cce9a69a8b5dca7a69e8758be7c9bbfccbaaabd8b8cc7dbafa69dcab9ba9bab8acadb8b987
col33:   9acf657b5a68cabadba99bb76a599acbbea7b9bbbcccb788baee7c9b6898dabdb978b798998db7d9
col34:   a959aa97689a7aa8dc9aa997aa699999b9cbabad696ccb9acc8adab9aca9ba9abbfa7899a8957c87
col35:   9b63a75c9aa8aaa7964c58c8ba6979ebacebcb7ed9dd96aac7cccea99acccc9b999ccc79b8297963
col36:   9999b579bb7adb79b79d9b6dafb9acbadbfacc9addc7abcf8bccdcaba9a9baa8b6abecb8b9a8ca85
col37:   777abed9999cbac97b5a8ac89dbbfadb89bbabd98daebbc9ced9ed9a6aaac9abc97cb78c8b8cb88b
col38:   9bc87a9bc8fa98b5a99db9cd8b977faafaabcba8bbdbcbebcc6ed8cd8bb8b8cccd8cabe9d9cb6aca
col39:   8c67a879588c8bda76cab9aa9a7cbac8ba8dbbbacf88dcb8abddad869bba7f8b9bb9977886a8984b
col40:   ea6bb5b768999995ddd999cd9bddeccdbcbcbbbccaccee9bedabbb9b5cacdbab8b89a7798e7cead6
col41:   798b5bcabac999a9899b8b9aa4c88bca3bbbdafeb9ccaabdc6ec89ebda9bba99ababae9699a8b934
col42:   6b798998cbd697e98ba998c7a994bbca8a6ccf9b88bdcdfd8c9bec99e9bdc98bac878689a764abba
col43:   ae2a68c8a78cd9bb66c987d9bdac9b9e9a8afb99bdf889aacbfbb69a8aadbc8b99b68a7b4a978a7a
col44:   9997558867ab8bc695a98bfb8abdbdf8c8d7cd8c7d8aabe8b7c8acecd9baabcdb798a9dc8aad7989
col45:   c68767a37875d9997ab88babccb8bcaa8ecc9c7ac9a99cdcda6e6dcc9babbb8779b9b98985adcb24
col46:   559d7a893ba87aacaa875e9badca989899aadb8dadcdbcc8adfdbca7df7369c9d5bc87a789788cd5
col47:   9aa8c866a7898a95b8bbba7a8c9acbbcaa8babbd6eb89beaa97ba9b8a97aba9a98bbadb997a58b77
col48:   778838babb5c9bcc9b7a8abd9a9bdaebb95ecacac9dabd8a999c8adcabacabc899b729849988ba61
col49:   88a7a979cab688a578693e78d87bd9cdec8eada9998db7a8cec6eeaeabdcba9987acfb468773b694
col50:   77f6a878b9bd99899b89abcbdbb7cdca7adaedfceac8acfc8cbb8dce9afd8d9ea7a76a8adbc7b1c7
col51:   37276a77b6a668797978ab6a9a77899587ccba678587b98a9c9dacbac7aa5a87acb96a99aaa68981
ROC:	 BPix_BpI_SEC6_LYR4_LDR22F_MOD4_ROC9
col00:   434562547542522342656665a68467367a5559787b7936767454898a96677ab87877aa5364283676
col01:   57696794759976278a457677a8848b799c9a9cac856978b9ac4998a898788a7365a587d87d691967
col02:   1664556387238557655668756877886a5789aaac798968a798a699a846b798986a8585a947b48789
col03:   654564859568b778563799aaaa7878757c7a7d96485875dac9a59886a786aa586473a43786966287
col04:   65b8a747998873b5666ca95a7d878689a8a656a8aca87ad77bc57a67899848997788545752688866
col05:   8446723463495595686a7629897b97776788999798795687a66abb87aaa8452957869cab64278586
col06:   716621666446b3b877597a4878a7a8b866476a8797b8ba88bb9956755a8a99aa4949956766759659
col07:   3796645887c4866b3689b97888887b83a9aba48985b9cba99aa8b7a89937767b67a6877987857997
col08:   9877735277775859a4779b6b878996587a7b6898658bab669998d99ba956896aa876858556454787
col09:   64765448467555b4758778ca695b977ac98a75a576598b868a9a7959a6a69a8766666787778a7587
col10:   75689756b6ca635878857869995978798b7a9a87787a8b898b99aa66a87ac68789a687b7a8a83865
col11:   46568857a46558776a879a7a767796878988985a7b68a98748ac76875998a797a97854c6a8263937
col12:   7953573756955658766a39a5a667689889a8989989b9da79a59a59889697988b8b849538897a77a1
col13:   66346547a74457888775aa569899686b8a78929b5b888897acb5757ba9c877ba9d69a7788a579859
col14:   258695744a16a456aca86a9686b88d8a68979b8aacc8aa76a49984798cbb79678aab65574b744264
col15:   66277578597899785577969c7786ba67676b987c49b77c9a9ba9a87878bb8b598878776a6b99744a
col16:   744488546ab765a969a77876766757978889a889574aa9a99c97784b777779698678a87839787968
col17:   2585a6a681779876889ac99676b585b9c88866797678c679d5ba75a7b979be896c86896a9a8177ba
col18:   47736376ca95357599a68795aa97d9b79a6779b977c79a8b58bc6c799b5a479d7a87a7a7774b7687
col19:   858468739ba6b989a87677ac89888597578caa9aabc9538a98aba9b9979a9959bd75a969758c9687
col20:   759648c4458786358a888976855897d88a69d979977ad5d8b9b7a94a86998ba876566ab63896783a
col21:   626b78a894737586a8a7779b997a7a8baa89bab6caaac8a9898a9797a7746888487a969b796563c7
col22:   575666573b76b79976586a66b67a75a7769b91a578a6ba9a868848c86bab97cb6585463997aa7376
col23:   49756466b78a3b77aa5638a9895a8797b57878878c9a84666956a87ea9caa9a9793829a5698b7976
col24:   46795a38b776566865587945799998d4bc96b6caa4a8cd8e8797a9cc889588b64768986872786676
col25:   7384685658c86abb7869648dbcbaabba9aa86bb988678ca69d9aa5aaab999d9c8e79964a87a76686
col26:   6876b9786da6aa9878a86dc7ba87bbbabbdb89aa9d8979a9bc898bcc9dcaab8a67998a969b68a86a
col27:   87649867c76b9a66c69a8ba5abb6bbb989aa99997ebbe8bd798bbaa7ab9a67a99bbbbaa67a657a98
col28:   588738b596c6ac7a877aa8a6cb75689ae798b898abaafadec698bbafaae9a5fbb8968abc881da69c
col29:   a946b87989aa77dc6aac7ba8a6b999898aad99bc89c7ebab8d8c5babb5ba999cbc889a88cc9ba7c7
col30:   a77b6b9b8a669ac7a8cbc99a86ab878bc9aa9cb9b8caba9bb9badaa9af7cba8faad887b77aa28777
col31:   7899989bbbba99bacab9aaaa8cbaecba9d9bcaddaacebabdad6bcae8bdbd879cacdebb6a8aa8ab65
col32:   a699288b9aa8877a8b89d987989a9bccb99dbbdaa99c7a8de8adbabfe9b78a77bcac8ca7de9ba491
col33:   7989869a788a88ba9887c6cb77679dacccbc6dacacdb8aaca9bb9c585bcccabebebba6d99bb86677
col34:   79797f99aad8d8b789a8a9b7a898a9c9cddbc9acdc7cbeccccdfadbcbb9b7b9b6aca8897aaaad7e6
col35:   8657ae99a9579987ac9aca57a7d7d9d9cbcb8a9bbadbdc9b99b9f8acad9a77aaca977bc8abfc797b
col36:   674a7646d9cb99a7ba9ca88acaabc9cbb8aaaccbe9bbfbdc8bb6ba8bebcc9a8c684b87aba97aad78
col37:   9b89db89d977a9cbb8dbbeaae9ccafadbbab9aba9ab9bba9c8dba9befe8b8c7fb9c9898cab9bb87f
col38:   5c88a69abbfe787bbaac8db9cd9cc9b87badb9fa5a9fabbedcacccecdcdaa669bc9ac87b9d9ebb8c
col39:   997cbaa8a8babbaa9cb99baaba8bbbaa8bcdc99a5dc89cbcc8edab9799abab7a76ccaaa88d98ba68
col40:   6b786bca8db799d99db98cb8cbccc8baa9adad8bccbbdaaac9b84e8bdcaa9abca8bc9979bdab89b7
col41:   98ba477caabed7ca9dddbb7e9cb8eabbd9d85adbfb9bcbe99b99fbaebc5bbeabacb7aba9b9969ab7
col42:   98986b9d89a6aa9ac7b999d899a896c8a97ce8c8ddeebad98adddccdebf7caca89aafccd9ba6c989
col43:   9bdab9eb887c99a9bbacce9d9cbeecb9dbdcbdebddabffdbdecadfbfdcfeb98dc7adb9bbb9dc8a8a
col44:   e9b97aac898ebcac8cfb9d9cadce9fbdeada9b9cbf96bcf9de8fbc9ebcdacddbb9bcbccaaea9abad
col45:   abb7e9eb88cdbc77cda97bbaba8dbb88fceab8a7cccdbcba6b9dacecbbccb9bcf9cbcae6b96aba85
col46:   98b9ccaabaccb99989cdb89beea8b99abbbc8a8cbacbaf97b7b8bb7a9ae7ebcc7cda8976e5adbb98
col47:   c7fab9bab7a8c8b999dbabc8c97afc7bdeacdab69edbbcd9fccdddcbeccddbbae9eabc9cf98bb9ca
col48:   b9aa9f8bb8aaa9889c66a69eab69abfacccec977bfcd8dcbecdfdcdaba7b9c9badbf9bc697bca889
col49:   a5999c7b959d8a7bdaaacafecbdcaddaeacdd6acffaf8b9ccb9ddf99e89bab7d9b8b98bb8cebd9a9
col50:   ae4a68bb9a99bb5c9d8dcbadcdbfcbcdcbc88a9c9daffffdcbcb8e8adeab8c9bbc8aaa7aa88a8999
col51:   a9b79aa89a67998a795bbfad9bcaa579ac9b8a9998bba986ccab69dddda5796c5c789db4729a8663
ROC:	 BPix_BpI_SEC6_LYR4_LDR22F_MOD4_ROC10
col00:   823358781a2687746188565556779a75878897b5a8889b986a95578a89974843897b87657b551b98
col01:   64666598b94976a74bb91a795aa268898a9878689746ca59dbd6cb8c5a9787ba8c899aa977567919
col02:   745664756747588ba877944b87cab7a67ac9969b8992dab76b8869a96a7867a858b8ba598884787a
col03:   966587789475767a576986b886b89aa7999a99987ab7389d97a88b5babb9bb8998b7b992546d9b74
col04:   8373715195a7989c28839acd97a67d8b6797a79b85b4dbcb985eabbbea69898a8b9ac68d8b79585c
col05:   661546972554972839a39c8997577739868974835c4b6b97b89b6ca89c9bb49aa69ad5b85388575a
col06:   5564c68647658796a857868a8678837ab6759aabbcac9b7bda9b86b978ac9a79895968978b8979aa
col07:   33356747b574c1598879b87579487b89986cb767c8996c78cba97a8987966a5b85a8947857677b71
col08:   96596594158679747958a3a866785b4758789a7a7cba487ab94779ae1a8aca6ba99b7157a8785677
col09:   b657685665757656897d6651cb869a99aa96bc9b8858c86aab8ebb5aec887b856c48967996bba895
col10:   5857576776597549b4676868b957879768dda1aa8c78474b9b6bd88aa8a9998985869b659a7c9671
col11:   161143235b785223a7787836689358d97789889c795773764cbf98a9c4a8a876635786687ca87466
col12:   856855986835497256478777a6697476587a57aa7687958899bb879a57a6a88a7ac92757b358c746
col13:   93695644973b9456787875664b68887989989868787a72965a8ba9c9876a7857a86b98687796a999
col14:   96347883585a646688ba7479b9794847a884c847787d8997d739997bcc57a968a8a4859295a46a73
col15:   428995954261498a755a65683da89647795a876b8b679a7684718767e7ad7986776779648966b799
col16:   556496317a86863946596989a36a6968eb68bea68c9766a9b87b88acbd8adb47676a777688968898
col17:   322265536745998556669b893a8a3b984acb948765a79a5684bb96b38787957ab4757547988a3119
col18:   54795464a34a65948a9a87a85a59699768785c7a9a766ba6ae368c695b98a7698a98b86ab8755619
col19:   579848547889544344978b97a769c5699798fab9687876699c6dcb49377989588987779578667962
col20:   667743386515789897696b955759937a77978ba4257829677a67a49fc88579ba329a781269474646
col21:   8436b588465b3866668689987a598775a8899b569a4a8a5e79988a17578577797d68aa9b75b95958
col22:   739746149853785755762a476667a84b9a56a4b97888ba86b5959c46c88989ad48b68b5786479755
col23:   467744765495545aa875a8174a655998b4ab86469a868b8767777a95aca6856787b6835769968766
col24:   7334465147b465787994295284a7c6567bba7b797773c84798b62499d69b859864589687798a8646
col25:   9363952762996a8668784a857778d89c74d8675876caae97a5739b936e8b95828b998c6857441354
col26:   68999a795525b5773a59965685acbe89cc8abb669ae8c9eaaaabaca8d9cb79d6998b6a9aad89ab76
col27:   7a64987274568d45b687467bc67da78b7896b99c98776ba9c598d6b67ba9a9babaa786c587a6788a
col28:   58748c8697b39a6a8567a999ba8bba99a89baaa96b974c9b6b7b9db99c8cad78aa9b8bc987d7ab7b
col29:   56469586b58477646b9a476957a77b7dd88b6abba5a99797a79c77a8aa94a79aaa48b995b5879d98
col30:   b675987958d64dac97bba8b7a69abcad79ba7a8abab5a78c99c9accca9dad7986a97a9355b998a59
col31:   869ea9249468b69798896777baea7bdaabcab6995aabbb5ae8ddbf8cb7fcac5ac7fb6c9657a96797
col32:   6a96988ab9968aacabc7a8da87d97bdda7a9bb8cacbc7bb998a9dc9cc9b7b8ad86d78b7fa987a673
col33:   a9766c6497a6778a988a8ce7df9c9bbc8aaa8babccd89da4aac79c9bea9fbcaa5dcac879963a88b9
col34:   b56aa3787679a878ac69766b9b9a79cacbaf9a7c9aa8cabab57cc9aac788a6bad8cb86c97b568d69
col35:   7568c7a85a7b8a77889946b8dc78cd89cbbcc7a6b8dcbb7bc9abadb8badbda79b9bc798daf99fbbc
col36:   5735aa498d9bb897788b88cb5a9fc4aab85cb6f769a8afca7ba98bda9b96dba7c949d68999979d96
col37:   97679876769b8c87d678aa7b8d99da9ddb98adad99bb7dc79b68c7db89feb899bcbdafbe7db89956
col38:   948a8b84d96aba75aa75bb9abfcdccc78abd7dcc8dbcd9cccaa978acc9baabacb97bb69bca87796b
col39:   889e96979888b98aaba669daad8fe998eadb7caedb6abab8adaaa6bdadfef97bbba889b6ae796dc4
col40:   986999a64968ca886b56a5ba99c9bbda9a7acdabd9ba9bca99babab8a8fa9eedbad988a68a93a2ce
col41:   9a6a88a878b868bc77cdbcb8a8bad7bda95cdaacb8adbda98b8cd7abf9aa78e989fbcbcc7b6798b5
col42:   984589799979674ea759ab8bc9c7adbfadab69dbdcb5c6bdbbcdbbb988fbe9ec9b9cdcaa89b65989
col43:   76b68a8a6a98897899e67a88ea678c86ec9e6cc86d7ebe99b8bbb6a9ebcac996bbcbea5b9b7ab7ba
col44:   985746a89897aa6c8da7b99b88898bcbadaebddbab7dcccc997ab86dc7cabbdfac98699998aca868
col45:   879b88a86ab96c79dcbaa4a98adbe98ba57d78ae8e9c9ac78acab9eebcbad8dc7bb7ed8eb99a86bd
col46:   5697d6b67798bb6977a79487b8ebc9a6b8bbadda9c9aa8dd8b7ccb79a87aaaeaebba9b9ebd6b8b85
col47:   6a89c79d6b6869db9778a79a897beccacbfd8a79babdcaacb89e9accc8babc99babbaac5cc997898
col48:   97ca77a8b8ab7959968cb9cba757ba8a5b9bc8ca99cddd9abdc88ecf8acfadeaca7abb9b5abe9e78
col49:   a59657bb8799a789589bbaaaabbabadab66dcac8abeb8d8c8ec7bb8acaa8db8cc8d9c696af8aa96d
col50:   77b99d9756b67c798a99d9beabebb9dd7afcdbddc88a89bbdd66caa97ab99d9eaaec9d3abd79f887
col51:   4766a84798465397876a8aa9ba87bb97a58aa995b3669ab487a7bc7b6b8db87d9936b89c9c697984
ROC:	 BPix_BpI_SEC6_LYR4_LDR22F_MOD4_ROC11
col00:   437942b7534856ad785b7a5659976919ddd856777d9bab8a77aa8993c58476759b66577845696162
col01:   97876a539bc7687988b9993b89bb8babba99cabd8b7e977c8aebcb7ea9cb6967c66949d47849a8b6
col02:   5a38845385b859858997c1978a9b87a7c96ae7db4a9a44ba94dbaa54b9a78ae759c9b77a8678a374
col03:   77359a5a6985789867777b8bc795ca8a5a89c9b8bb9cca69959c6b959ac877acaa9a79c57667a8da
col04:   5579936857ac85488847d7739a5d9bb6f8b78a99a8d9bab6c88e978bb99c849fa967ab6997867755
col05:   887b69b95697967ab477cc47997b999989a8c7b6d8c97c68e7596ce7879789999545c967667a9447
col06:   6858648688743257a97b5b93786a9768d6b985a68655896caba9797a6a95b8896274a7665368b648
col07:   67679c97a689ab8359dc9bade9ac9a9aa69dcb7d38cdacbca497aebcbba6ba9cc86a3749aa78b7a7
col08:   5829336877e7846578966c6b9a767b6d6d98887b469aba8a89688c6a7268dbb96858b83586587c88
col09:   a7795888c7b57a69ea8ab78b85aaa9c86a988b7bcba9dc8687866578778d85888b98966789864b84
col10:   57d73b76855ab4979a7738ba7aafabb8c5799b987896f56a9b8b8c8a897b9e6577857ba945579969
col11:   31c6b883355786ba89a9a785557aa686d5b8d6e4b7676a8c77bae9988779659667696896b7212836
col12:   8a18375542a64a87ad9695b9d97d878566aa8caa9cd78bbc6ba9bbaae697a69a7a899c4937798c5b
col13:   8457a97779a817b9a7bc8ba45c6aba9cbca87ba6ad8bcc7ba888c9cbc89837d9c669da7989689e48
col14:   b9696495b5877d84a8a77b9974758997aa4a6a9a83699b8bb98aa8a85b7a74b796998789798c877a
col15:   62623857a495bb944c99579c757796b679a94ac5d5a7778a4c7a966a88b9adc49ba4b76c7796a2d9
col16:   5745ab4799967a97b756a8c6ba5ec6aab9c7aaca6d989bd9667696bbb7c9b726b5673976e8a76c65
col17:   943ba99a7798767bb5b7757994b6a786cdcbc46d98b54db8bbb5a9a9ab95eaa6b968666a846aca77
col18:   7496a287379973778857553947acb9b889a9838a9b788c989677686bd9835ac78664aa4a7686a958
col19:   6479776c6b2dd7b5984a584aab39997cbcdd8a867a99bb9bb9abc997adc8db69d886b9b798558985
col20:   547a6c596678daa788aa867a7a78697a76babac89996a6c9788ab77de7ef78c969a6549765977688
col21:   765385639865854a8c9a86b966b868bd7aae7968976ba9a689baca99ab9ca759a8a367a98594c743
col22:   618d94b76b9476766676aca89dc9b6957998c78c9bbb86ba7cb68b87a897c4968699759877781669
col23:   469687b18878987948566e768b878897977c6a8c99688e96daa7aba79da8b97998715ad54936b1a2
col24:   7bcb6348759a74461bde97a5aaa8865959a7cbdbba56989a6adac8989bd697966a49b9288b6854c6
col25:   89b98a79b7a63c7d797cdcbd6c99c799b87ca79b699d9cdfddc99ae6dbce4aab68aa5749785a77c8
col26:   5a4556878bcbde83cb79ab9b99a8ea7e99dcfe9ccc9c79cbbbd99a7aa96aaad87878a791a9b796b7
col27:   58a6687a9d6cb95975b897b79babba8cfd8babdc987cba7b7c99bac97889daaab586c986a5364816
col28:   e7798cbdb6acab99ab5798b89aa79cc9e8eebdc7c7cfec9ae9c99be9a8c89aabec98dae98c97a877
col29:   8a7a77badaac9d9b957bc8bff6c9a8cab9c9fcbbd59ab9797dcb9968dc7d96bb7bb7ba7a9baa8c77
col30:   69a7b966b39b9b95879aa9db8d99abd9bde78ababd5aedd7cb9aba2adbcdbba875788ea5aaea4b6a
col31:   a859965779abb98cdabbbbdbc99bb9c7fbfbefa8bddc79acb8cec9dbebfd9bbb99cee7bc8a99be99
col32:   57b798b96767adcb8d6a8dc98fffcbf7abbbb5bfed7aeaddcffdcfeaa8dd89adcfcbe99cbda9966d
col33:   7ab8b5c89bb5b888c8bc9b6df7ac8aaeef8b8ac9a9bdafdacabb8a9ae9cfd9ad5bdf98abdabbd988
col34:   96b8dd9db69bc97bc9869c9c79b9bacdfaacfdaccedfe89a9cdecbfae9bf978abc88ca956ba9bc46
col35:   68ebc7999a9dd9b98cffbcbcaa9cda5cdd8bd7badeb9dddabfc989ecbbedc88bcb96cdaa79979d6b
col36:   767237a96abc8b76bcacb9b989b9ddeedccca9ccbd89bcc8bcbe7da8ddbdabdd97ebf995c5ba967c
col37:   98bfda9cadab69bab9ab9c99ca8999c99cffedcacfe98eafcdb8cd9ecfcfdba9c6f898acfaab99a9
col38:   69c9c89b9fdbba9b9babef9cda99bcfeadbf7dd8edbedaddb9eaafbc99eb8cbfcdbbb9bcb79a9dca
col39:   8a79a9b96e88daacaaacacdaecbbb9fefc8cdfc7facbf9cdc7cbcacdfffeabadaadbc7bfaa85aaa9
col40:   94754df99fcbaed9ccab89ebdcddbecfc7fcaedfacdd6adacb9dc7bd8beaceacc9e9cffa98bc9b8b
col41:   7c88eb94addbabe6a999b9cbaaaecaacdffeedadfbfbcce98e6d9acbcccdafc8a8a988aacbb9dbbc
col42:   988a8cbb5bb9cbc9a8c99bafabb8eb9e6bedfaeddebf6cac9af9bbbddc8c9bcb988e9999fa9c9ca9
col43:   7ab76ac9cabcc8fde8ddabea8adee9fffbbcdafcbd8facffdddd9c98faddbccddba8cdcccaaccf7d
col44:   7b998cb88b6cb9bb9b8b8d8b9baafbffcfbdbdebfeaacbbac9b9aeacebeaac8cf9c97bbcfcbdb97a
col45:   88d8babbdc9aa7caabbc78cbba9aafcabec9c9eabab5acdaee89da9bfca7bdec8bb89cebddebfbc8
col46:   786bba89b8acaa9bf67ada9bbca9eecdfba84fc6bcc8edb9adc898a9bba9ebdcb8bfe7f6cacfd86c
col47:   779a9f9d9cbab955e77facfddabccdbffbfe9bada9abcacffcfdecadaf8af96bdddeaea989c9bdd5
col48:   7c5b7cb97c8a5adc49ea7eacadd9cbacfcc9bafccdcbeaddacfcbebcee8facd993adacaafbbacd6f
col49:   889974898b7fbdcfcfbaeadbdccbbfcfdaeebe9adcaaeeebffc9fcecccffbafe9ba8eabac8aefc79
col50:   7b8a7cafd9e98aaa9dbefe8ab5bc9aabc8cdf9acceee9dddcceccbebdaab6ac9cedca6aaf879baab
col51:   8428b5786abcb45c8987bab89ceba9adcec9e9db99beccd899d89bfd9bb7ddcabcf9ababa749b9aa
ROC:	 BPix_BpI_SEC6_LYR4_LDR22F_MOD4_ROC12
col00:   986987447cacb5888354898da87b66987b8799999cd9a5dd7997678766a65789d95aaa4545918384
col01:   9b698c577ba998b76b816ca7b5ae979fa9968c9ab8c9a8ab7e8a5a8d785837d49b87aa98a4779773
col02:   7b6d7596d89866257a9988987acbba99477789bcb7bb89a4437aa8ea299b654b555722aa65443773
col03:   87665a988a6756ab7887a699aa7a9aeb9dab98a9eb8bca98a8cb8655a9cc786766c5923a67639b56
col04:   b987aacca8c89b7baabc9d8dba32bba7a8978cbc79bac9bac7757bd99569966669a6464679b879a7
col05:   658695b79a44b8988a8c9b9966af686764ca88b89a8b988898a9ca877b9a8866ab777a7674745a67
col06:   68a8a976db8959688d8a999ba8488dcb8d489bbb99795b896ccaab58ab866976b8a87a8336854579
col07:   d6a6c8bad98a4689c89aabd9b699e97dbcaa9bb77a99c678aab94ac8437aa9799967834885686745
col08:   4a79768a8367d7468aba757bae7b7a8ab7aaabbbab9deca8a89888aa78965a69885a5b4999a47577
col09:   6d9c8a8ab9abbb388598938aa83adbe6cbabd79c8aadbbc698a8979cbc7e69bb9b9656767a778476
col10:   2766879a76aaaa7ab989ace79a896ba998d5a46889acc8a9ad8699aa989a997b9a96988789375775
col11:   86b78a3a95359a9678d7a97978761d8766b78798c8cab69939cabcb588c95b669669aa6486756538
col12:   8a84778989a6577b67aa8a9a5bb9dd56f95976da986cdc5c569bbb5e7bac9a886a7458587a188748
col13:   964d99bc977a92aa879a55aa8bc795bcb99758a8b4bc5b598b66b9cdc699b9a886a66a3c73844796
col14:   9899b92699a8bfbbb7a878687aa5766bb798b9abca6b8897b8cda48abab677544598858675394286
col15:   9b576ad96c9889a6295aa677ad6aa96c57baabbd99d78aa74d6888ca4a8ba87d6b97b67caa633656
col16:   b76aa97687b7dcd688beaa86d7eb97cbbc977f8bcab9b7b8ac9979cab67d5b59668974ab88666896
col17:   6756c448a399a96b6ad7a88acb6cb99eb995939cdca48a9697a8a857cb786b378a96bb47b6618614
col18:   59587797a7788887a8896ac98ca698686cb5cba9b8b598dc7cc9bee98a774a989788b8995a995951
col19:   79598a4b85837b7483888c66cd9b46a57b99b997add69848a8bb9996a7c7ab788685a78b36371a47
col20:   86856aba99467975adca8b999d89d5c9d9998a7e8babd77c87758a8dc8776a569977715b78894372
col21:   a49bd9579c88c77889968b79aba89e9a59ac66a789bcbb76dba7885968d9797c7bc6568579547756
col22:   5538987766997986665896d7c794959aa7d959abbdcb688758697baaa77b71974bab938664783634
col23:   98a869778a3696c7ac69b974daaae7c787bbcb8867bbc699b75c6b69a789985a787799773c656455
col24:   368a6b7954ba79aa9aa66d87dac9e88b977bac895b888dbc5ba8479bbb9954877a84656b78aa79a8
col25:   68588765b79cc9999b8ba7978a6778e999acad8bccc9a986c97b5ae8e9aa99798999965997773a64
col26:   9d9b8a87b6687c7d6daa9b96d9db9acecaa79dbc7babbeb79ebbdc8cbb7c598a89aba7a96ba95a96
col27:   7a78baac7796d8acac99d9d8c9acceaa7ea8c889baa998cba8aa7899cb85b797f79e798d7a845578
col28:   88968b68a6bcead8aceb6b897a8ba8ffeb88aacbdbdaad9bdaa9daaabbebcac9bb89a988a95bc69b
col29:   e85a987699a6b5966869ba88b9a9baba9a97dcdcab9bbaa94bea9cbaa988bbeeb957aba99c7797b6
col30:   69a268299a8ac8bea8999bcdda796ddaddc9caecba8b9cfce9ce6b977dadab987a87868d889aa9b7
col31:   789bc7ab9bc7b987a9c1bbaadb9de3ce9dbddac978c98ba69eeb8d9b3cdc4eb787ab7adb988b79a8
col32:   4c8cac8c88ea889b9c7aea978b8dfaebb8b6beb9f9efba8e7babae899c8bc8ae787876bba49bb998
col33:   7887daadcd5ccdbb9cdb9b9cba58a89ec6d8bd9b97aa99dac4998dcddbdc9cc7daabf7d989858679
col34:   a88cbb7a67cac5bdaa6ab969e89bbfcb9aecaacd98aa8a8dadf9dc89eabeeacad6a898e9a9889776
col35:   8779b7bbd88c9e8aae9b687d67ea7a988d5aecd9cd9c9dcfedd6cabe98acd8cad9d38a894a98a468
col36:   7d7aa7abdc78b85b889da5fabdcdb9ffa9ececbabfbcdaaadbdcdaccdbdcbcac9ea6e96b89786978
col37:   679bbad99bcb89cc6bbaba89adaa5b8adcabccdd9bddbbbbfaedaf8ad9b8e868ca7db9897c6ab8b5
col38:   a97eaab8bbcb989dfaaabbacacdccbacdaa9ccba7efbbcf9bf98fdaf7abcadd8ea9999685856ba8f
col39:   9ea79acd8a9a89db59cbed8c8899cadbaeb998fadd9ccbbcd9cd99cedbc9a8ab9c8bb8dccb48bca8
col40:   9977b889589b8cdcbfdaeddcb8acbbaacdbeceefe9adfbdbdccfbaebdb8aaff9ac8be9a96a46a897
col41:   c7a9ceb78bb989de6979d4bbec9dc7eb9be7dcadc5cbbeeccdcd9bfb8eb9bbcd4a867a7769a75986
col42:   db9cd9997a9adaafb97bfbeca98ddcbbceacce8dafbb8cddcf7eabc8eac89bc6adba8caa97bbb9a9
col43:   79c57abb88aca97aecbdab9ccc79e8cedf7ea97cf7bf8fbeaca99a8bdb9ea9ab9baa8dac9b7789a7
col44:   6c89aab8ca5da9b687bedf8ceb9babfbedbbbfffaba9caffafaae7afcbacaab99888a7db566c473b
col45:   c99bbd9d9dfc98a8e8becc7eea76afbdcdd9db7deef5cdf8dcdaceadafcfaa888b8a97b8d8b47b87
col46:   9c4d7c7b9888aac7a9d8da6fccadcffed97cc79dadbca99bcfb8fbacea9dcba9ca89c9bb79989581
col47:   8aab86bbeac8db5aacccccbffdca9f9dcbacecdfdcddcead9ceab7d7cba8c8e689788a6b89784667
col48:   d8a8969b9b9ac7bca877abbdae8ca97c7f7baadcebb7cbcbdebbfbaaecbc9c99ea8c7accbec68a79
col49:   97e6e58abd8eb9ce897a9cd68cdbbbf7aaca8fb95ea9bdccaabcacba9ececbac9b786d8aa98c9788
col50:   995b8cdb9b689ccdac97caadaaade9ac78eb9afcdacaac9ae7ba7becc8ebdfd869bae9998c77baba
col51:   8b14a799999a8b997a9b7aadacd9a9985b89ce66aa99c999bd97aaa3fea98a8795b8ba5335477899
ROC:	 BPix_BpI_SEC6_LYR4_LDR22F_MOD4_ROC13
col00:   66b465797d4d5b55a77b877a6866b5558764697b67749a9469a5783aab64b687466895a866795456
col01:   b888859a97b9777a4668bb797b87b69ab989dca8a99e7696ac8b6aad6adb88bd9aa547b889564288
col02:   9749457a945577598555c7887b9bb7c5bb5789995b8ab96c7bb86a9786a8abea85acadb888878965
col03:   74a8a888a6867d97a6a97d89a7896dba6866b7d8bbb8b77789bca77a78475797a59c874857656856
col04:   b77a9a5a88285878a98d87b9756bba89bb9e6b6a7b7698abcac9bbb9c97a89b6988879686da83ab6
col05:   98a5a5a797777bc893698ac7db9ca9a8967898bb99c9c96ac8b9467aa67a73b78898653975985575
col06:   48566777c58dc77769899978a786c977897ea99abb9c9bbaa8a874a7aad59bac7756c57686463376
col07:   a84478949c868b9a6daa997bcc9cba8ac8dccdabdbaa89d9a787688888a58b99c966a66597d868c9
col08:   6749586867db98a767c99da9d99a8788a8cc7ad9b9b469b98d97c767e7c9a5a886988899a7889b54
col09:   76aa988b796cb8c9aab8b8a8cc869baaadac9b6a9996a89a8a884ce83ba768a8a3bb98694989b6a4
col10:   b6aa7b75a779882b8a86c58549a9976bc8e576ab698895eaa886e8bb8ca9a86886b7996a79684668
col11:   765689a88778699c96a75988c699bb94c699ccdaac89ab78a778b9b89a6a8c6675caab8645567a85
col12:   76b4935779c9ad465ba89b9aac48ab8c9bd59ab7cbda77a89778b7ad75a8a8ab7e976ba61976b866
col13:   b8a78bb5c9a46a6baaaaaaa9e8a6c859ad8b99a9abc8afb9aa9c899988bb6896a778ab97a88a9688
col14:   838767c59aa7c987c48f7a9ca7e99df9a7ab7a8aaee4a788ea695ab67b668bcba5595757a35799a1
col15:   a47476588677c7b9c99bd88ab889a9995679aebc9ab9d78a9a6ba9ac87aa77399acc8958764975bb
col16:   a967a8a6796699a49848b9979986daa8c6849c98bb58b5679a86ab8b68bb87bab89a6b86b41696b7
col17:   85494b7867a7daaaab9bacbb99cb9b8a8bb9b78d7b6bab98bb895df966768b876766a95869894843
col18:   76786c9c8479b56ba7a7ba8a9cca97b885bc878d484998bcbaead7a9899a95aa9b787d7665589b55
col19:   8a99b6588b87877c87777b999decb7cbcc77ba9c9eda78ad79e96d6c99ca967cbaa5c6a79a4d8b69
col20:   7b65485598bb8668aa7a8abcb8ca9966c8a9ac99ac6dd99b49a98abb9ac96683cb9978a7695885c6
col21:   7a7978888b7a9bb94879aaa48ba69998dc96bb6a6e97aa789787cb86689999b587a7698aa5894559
col22:   b5aa5863c67a2777bc5a9869997ad69cab78baa6abbb9bb8f9cd8aabb8b7987a88a94bb968989977
col23:   b6c948a97777bba58646ba7c6ba79d77a8cbe99ae77a9a89f666a83bb7ca665589a57e563a2c7756
col24:   aab5aadc9798b7a68779d979e869a8898b9aaaa7c88b4628897a54a8ae69a7989ca958a7968a4755
col25:   7648ac68baa7899d5b9b9ababa986ca9ba89d6cb6b9daeae7d9a7869dd879bcab6acbc9597877864
col26:   95976a79bbb8497b8baaadeaa8dfaa9aac99afabaec89b89bcbb8a6ba799c9c9699fb59884869899
col27:   8b897c4b769a87bbcaa88ab5bdb55ae898dc98ac85dca9bf9b9789a4c9b3ca96c79579a7a6b7a689
col28:   949eacbbc95dabcab7dbaaaabfbaaccc9caeebaecdbc9ac7fcbddadceab9da6ca6bca9da7a889a77
col29:   c99cda98bc8ccacab9aaac6a9788bccfbccda9e9cefdecaacad9addaaf89a8ae5a67c89864a98956
col30:   aeadbb8b9ba89abb96f9acaabbcc7989d9bedddbcedc9dddcc8baaabad9be8bb8e766698ca959989
col31:   9d9e89bbe97cdeacc9ee9ad8dbcceccfa8f8cc6c6bdecdcdcedba5bcca98aca7be89679bda98a9b7
col32:   bad85db8f84f9cda8c9a5cbbaccacbbbbbbc9cb9cbcbdcfcdcbbc9cbbaabaaa9c89accaa89b9a9a5
col33:   ca7cac5c6bbab99b9badd98aeaaababcd9cecce8bba579ccacfa9ddcabdbaae87989bb6ac89c9598
col34:   cabb77abadcbbbaefbbaca9caacedccdcdcbebcac8cacfbbccac9b9bdb9ddbeaebbcd9999c9ca8e8
col35:   b9aaca98bb5cdabbccb9baddbdc9bcaa9aa9eccabcdbecc9dbb889feeadc8ada7b8b8b6bd9a87445
col36:   dc9a68bfd68abb66bacbbcf8ad9aedbbdb7ffdddcd9fbdbaad6cadbf9a9baa99bb9bcda89c7aa99c
col37:   a989bddbaea8bfa7dddbdbedad9ecaddb9ccdc9bfcdbaaccaabaeddedca8fbd78ecba8abde76e89b
col38:   ca9ab9cbeedacfa9adcbccb9cbe8a8aa7aaddabfa8c9babaabd9bc9c9cbad8be9bbdacaaabdba67b
col39:   99a7bbdc9998cbaeceebb8dbff9eccc7fdfd9cbaddbcb9bcdbb9aabbc69fbabd9fac7a86b829cb9b
col40:   daaccc6dfbddedaba8dacadffddbfbadadccbed9bebcebbbbdcf8dcdddea8d9c6dd8a8c8aba7eacb
col41:   9cbcbbbdb9cdc9dadcfb9ccccfbeedeabcecb89ffebacdcaafeda9bcddbc99bbdadc8bbed7988ae7
col42:   ddbabbd8beacbcbcbbafdd89ececcd9cbdbaa99bfcedbba9dddaedd9ccabcca9a8bdbcac8989eba9
col43:   cacf9ddadf9cebd9df9aad9f8ddeeeeaadfdedf9c6fdeaffdecbaab9d9bdcdcdb9acdec999ad9b9a
col44:   bcabb99c5dacca9dbacb8daf9bdcefb9febfdef8caddbfabcedd8dead9cbecea8ca9aabb7cab8eb9
col45:   aa9ea7ab99cad7ccabdceacebeefbcfc6acab8cdbd9ccbeddbe8bd8f9bfbfd969c9afa9698779b67
col46:   abda9cdbddafdccd7b9acddafbbcdfbafccbb9ebdfea8bfbfed85bcfbdbdaee9cd5bfad8cbacb7d9
col47:   ccbedce7bddbdabd9cc7adbbbcdcd9aabed9accccfccdadcccbbecbade9eab8a99d9cb7b9bcbdb8c
col48:   c989cabacaaa9bccedcbbd8ddefacce8adbfdfffcecfcdfba8efdecacbdbed99beb5d8a9ba9bb896
col49:   aa9ccccececdb87f988cbd9bddedcdc9fb9ebcaddbeccccddde9bc99dfd9babadeba99bbfa88c9c6
col50:   adbcbdddfdcbadaddfaddfffcfec7bfabdaefcedbccfbdcf9ffb8deec89cd9cbda89a999bbacaba9
col51:   cb7b8abaa987cbcbcacccdacde8eecbbea89dbedecdabafcb99a9bbabaa9bcabac8b5ce5aa8c9b68
ROC:	 BPix_BpI_SEC6_LYR4_LDR22F_MOD4_ROC14
col00:   67a4854799788868675b5635b969597754b68978aa88c7aa99d76d78d9a789c59c9b557aa4687161
col01:   97286a8c7b489c98bb669d8a9a78da7b8bb68b9ba797c8cabba75cab99768eb7a6899b4e6a9bac75
col02:   94887789b8eb699788a8c9956988986be99896aa7f69bd875787b6c96a86d95bab994977aabe49c5
col03:   799a58976962a4a6bdb8b8b4ca997bddeca7b99756acb96e6fb77a8c7a7b986acb6bcac86bcac85a
col04:   327a8a776965774e5d9c7ec2bb96b7a57a8c89c8fd89a67b8adba87abdaa9888a9a9bacaa447d758
col05:   e943a6767a2922d87959a89bb6bcdc46c899cbc495eaafabcd939d65bac99bb97c7898a9baa98943
col06:   d15594548974687bab3dabe9cc7aae8c87a7f8b6c9fc89afba9987be7cb687f9b879dbdcac4b9bb7
col07:   876c69a477888a79c78b96cda9cba9aa7ab889ba77bfc9998c9aa9cbfa69995b75b788ab87928b8a
col08:   b1775b29389ab8987cf778b7a8ad69dbba9a89c8bb8cbc6db77dcaccdaa9aac68479c99468338953
col09:   b4a766a6aa64733b586a9a9ca9acc68aeafe976d6caaccb999ca9e4bd8ad9aa869acbf9749a8b958
col10:   9977b8a5a6ab655b776aaa79798ab7695abbde8df5acf9bb8a8add7db98caebe6b85c3a6c8499c68
col11:   89658666c5889839ac97497be56a274ca8d4759c8bbac9ac667cca58698969aa49bb97749a4a98c2
col12:   8995599a788678366795577ab77988bc8bb86d9b7abc978b8a8c8abb7c7ac8888496ca98954a6687
col13:   4746648288daba7869bb9adfbc9c7b6bc9bbf89abc9b4cab7a8dba96bcac6a8bab794b3685c6ca61
col14:   b9aab5bb5bba5ab96ac739788a77a6bbbea6c9aaebb7d8c98c9a6b9ab857a9475579bb9cb973a55c
col15:   986987979968c779988c755dbbac7786be9ccc4cbbd789b9898aecab9a9777bc917ab7b586789877
col16:   8a8b8b7d7c89a99968a3cc7aa8bb78d676ac89b5967b7b8dbeaabdac8babb49999af6c99b768b774
col17:   75367a4947696348b98a37cb77677869ba998c9a9c9da799b7a6a798868cbc7bbccbea78d2722773
col18:   876597687548ba86985b69696b7895d69ca678a784bb8c86bf8897aa6bd69a77bb89aa4966a68355
col19:   a79a68677a89748c565aa977c845d7b7b9d6f5989a6aba7b78dd99a68bfc9a5d9ab78e7895778b73
col20:   71894849393c8949b68a86b697a49c978b8dadcabe9c8cc59889bb698abac8b99936fb69879a8686
col21:   975b2a48798786b69da95b897a969a79ac99476b6a9a8989aa9c848d78a65bbc9bcb9db89478db57
col22:   c9888b89775b477c8b7988b9899a66aab86b74ac8baa356eb999c66a9b889ae5cb675fa399868ac7
col23:   86932b94796985c9ca8884498987cc8ac4f9c815b78b88bca87bb568a6a77a7986267c638551779c
col24:   58867768388458ea5eea88b9cab89b981ac99999a4c8bccab8a978bb6c9bbc7c6985b98e5878636f
col25:   84568a86399caa6bea96e77a76c95ea9c8dd9cac5679e87faa97bebb5aac9bac88664a74c7698474
col26:   4646a9853c98a9bd59db89d6898edf7fcca9adecabccbac8eed958899d8fbac7dad59a79a49b88a8
col27:   8958d88aa9a857668a957adca7caa9ce9bfcbab6bfda98babde98bac6ca9c8c94c6dbdac6bc6359a
col28:   b9c7898c9a8bdc8a87bcf98aaadba8b7cf79bdcddfb98fbdcb99de7dae86dbb4bda9dc9bdd986fb1
col29:   9a898788a6979c9aabee677ee88c97979b88ccacdcdd89a59bfc9e9ba93aaa6994b8ca7dabbca796
col30:   889a89849b9a8b9d8bb4a977e7a5cbe88eb6cceca6999ecdb9cdbbaacc7af8af988a8bdb87bafa7b
col31:   48787aa8ecba59599a7e8fa6ccfa8e96e7a8ba8ed99ababab7bbdaabe8ac9bba979baaf7fb77ad97
col32:   865a6427bd7c9e76bc8bc8cbba7c8abfbf7cebcacb8898c8fe7acacb9dae9cc5affcc6866886cdd8
col33:   a8c7488dd76ab7b6e6bcbbc7bdda9df8d869bdccbfbc88798dbce69ebebbb9ccccbbab77db8a68c7
col34:   99699dad8b6b8a8ccdb7caacbabdbbebccf8bc7f9abfbbdbc8a7e9b9c9b897b9caea9a9e97977d9c
col35:   77595c68768cb7aca7f8b88b9bbcbcaa9baaf7bdab9a9edcbc7fadcba7cddccc7a87aa9dbbda75a4
col36:   39b9dcc8b87dba8b67bc7bac98a8acdcebafcbb6eaa98acaebdbc9dfd86ccda5bf9bcb89abb783b9
col37:   8b8bb9987c47a78bd788abdaaebcbc79ca5adcecbbffca8fd9dadab5cadeeddc9ce7ec3ac798bae7
col38:   5a68aeae9bb9b7da98faaa79acabf8ebdaada878addbccadaa8b7eaeaa8dfdf986acbdc99b97cc7b
col39:   7c6b648bcbe4cbceaba6a9f9eaddbbafe8cb9cccbbcfacccb8adecc9ab6afc9f8cccaaa74ac75f8b
col40:   9c797ba9b8ba8cbb9adb9ca9d899accbac878a989cfffeccb8ae9a88cff7cfdb75f9ad8ab7ea9fae
col41:   b9b89b7873acc8c8aa89bc9fdbd99bded878bcae97acd4cdcdb689c9bcf8bbdba7a7cac47aacb7ca
col42:   a84a8d9a95f86acacfbe8eb8aacdceaa9ccdccaabd9daab9abceeaaacb8fcbda6babbab868ab7cd9
col43:   cb9367a839abb9895cafeefcb9ecd79cabed9babdfdadba88adbe9eacbf9a68cc879edbd936979cb
col44:   68c96abbb78499abbcbbab8aaa8e98bd7cccadbaacb57cacbc7edbd59dbe9eafc679ebcba69868ba
col45:   974db9aa41cfa7a96b7a9aed89dfab98fcddfbba87da9fbb98caccdcbe4bcc9578ecdabcaaaac9cc
col46:   88c5ac9bcb9d76fb8c8a55c9eb8cd99d9df8ccebadbeafbdbbeb6ce97cecdc99af8c69996aac4496
col47:   8a868bbcabaa969b989b9a9f8fafe9ecc9aafcbdcaa97bde7f9c89af7b8cfc8aaa7c89e4ca3b36da
col48:   cb9978adabba8aca7a7dbf89dc69dca7ddca9df9ac8c8eabdabeadae79c9ce3489bbb98abb8daa78
col49:   6da6682a7bd9c9fa9bff8fcbbcfab7b8b9ac99e8cd8aaa8f78caf8a8ccbadb998c998b9fd9b878ab
col50:   bc8bac8b8d989aa6779adbfaa9cace9dabfbbda7c8cf6c998cbac8ced8acd878ec7c9badaaabb663
col51:   6962cc49aa6487897993783c6684aaac64a999c999a9aa78a9c86ca97b7a568786aa74c16141acb8
ROC:	 BPix_BpI_SEC6_LYR4_LDR22F_MOD4_ROC15
col00:   423675685163578727559567776586c673865a65bb87a4977569758985595696b765b7446449a584
col01:   2775858758698761c48379a75c89776879689d94887bc9971aa8cda7f49ba687d6976ba99b6788dc
col02:   798328355577c46a39699597897aa7983b5988a8a9a8b7b747976cbb64a85b8ab9579898a9a89886
col03:   c838b55657a7847898a88946a6b96b78b1a5bbcac9767649ba949c9c7baeccab4aa8b4c96cbbaa74
col04:   5778583796a242785556687987766acb4aa878ab56b49b98aa8e9c889da6aa97a89ca6d799b98a71
col05:   455887475a376886875234558336ba986b56a7bcdb786c8aca73a77b2e66b6d7a65899996b597777
col06:   27b73555868b87638b387927aa76a6b98877a98db4c99887967b485889886b7d85a2577c875a97c5
col07:   489967573978a545a6965898a88b8aa7866aa98a94888ac995579ab7b988d8668c85baa8989bc994
col08:   72698636443676338657a696a6778ab99b7749d9a9a846b59a7a698388ef6a8bbc89a98a14bb8733
col09:   689b949689578a3759a4abb58b888cd92bb675a9a777587ab758b995a8a4b9bca5968785696a67b7
col10:   4679358865a469793854a78b89685b8ba6aa867ab7ac91ac9a998a8b99873c4c998b7c1478985995
col11:   6877a58747849a7986a7a886a9975a8376bb7bc6ba7767a894d9aa7c69678b9d888a578aaac8aba6
col12:   3b3667433815a88a2d58827a49528824678695b97997ac7b5ab97765a6b688945d786b89668c5736
col13:   2558868a6d65469dab668da97a8974796bcba2977865a6359a4cabd77bad9db6bb6555a7c843757a
col14:   31165682583bca579ed3a679cb667956a9a997c48889d69669a67baa88d66a5b996a5799c8a75768
col15:   785288769573454b66949555aa78398688a8a9ad576c78d89b9655b99977b67b83765b2887a84c8c
col16:   743847a934b684aa896cba5b988e76498cb7c96aba6889bcc6889c85a68743a569868a6988968897
col17:   54a5a7a9947765962779969978266a479bae4a99592586c47878aa95b6d4a3c7d7959498689832a4
col18:   b298969443363746894576a48664949786a75777b6889adb76959a67c9973587a878551ac76b4395
col19:   19956646a53a96cd3a5826d674798bbc9997da8a7a889bc7b6b7ababa6bb8a359b8aa99973677667
col20:   458668b8866599395579e9a86a7b766a568856b974ca7a7a9a9666bb94c897a7bc749bb686857b77
col21:   9a82768938b8366689863858b87c686647ca8a87d785777a9bab597b7c76cc47d879a3963ba77986
col22:   6657367778d557cb8a7859994a4599a8b59aac858775ad666bf698aa948a8a7a456775777379b575
col23:   a947787283778b4155887966879aaa43879d65e6776897a7c6c99798479a347aa8768d948b8c9964
col24:   4a675975257666caa7c94575d56674a99a885799578b666798c7b69d9968685ab777498347a88698
col25:   58a646966c6779d8576934836a8b8caa7e7aa676569a67d9c5a55af796c45b7568d78386aa989867
col26:   8ab543856a89567468b79558ca96cabbcaaab7cab9dd4bd4bd9c9caa88a7b87b99b9762c8bb47a99
col27:   a8834b661b67799aba54bb788b999d9ba89856b89b878bb9c9eb998aaa7bbb9e79657db6959a4444
col28:   aa87a87e898995b98a98b9bad999a5bda88a9cd9976ceaace87d86bccdb8d8bdb959787969b7a859
col29:   88978848abcce88bb9ac99788798cb87abc9a7aafcaba8aabc5b8aaca9b7e7a7acaa89a9bc59cb9a
col30:   e8a986868b748bb77a885ac7cbb9c9cbca4ba68bbc99bb89aa859cba979a8a7bc6a9d8b6b8966ab9
col31:   d884687978c7bd8c8d5b7bba3a98bca8ca9a8fcbdd668ad69b8c86996b9bbbdac9c67b9a5876b8a9
col32:   3559ca9c9a8d9ab8a85ebb88efb7aaadda9dbb9bbc7acf9bccb67abbbcccced84a9b8a57ca84a98a
col33:   8c767a6766ab9ac79c569997deaacaacbc9fa9cba7cbcab986d9777a8ad9ce698cda97cba998788a
col34:   89b85b7d85b947cbeab678d9da96bbca8ccbcf9baaca6c8d6e99cac9bf9aa8bc779ba79cb8787c8b
col35:   978856937a7979aac79b9899acbaecfac99cb6ccebbaad89b9c89ab7ac697abfacfc9968a9778985
col36:   cd5784a979aea9ba6b7876b8b995b8d79cc5fc97aaab98bc7dcdd8bcbbb9999abda67a7b7acb79ac
col37:   689458db5bac7ac9d88fcb89a89a7baccfeaae8b9aad88abfb8d9f798a9ac88bbab9bbfcd8c8a6db
col38:   867abd9d98f89bdb96aab8cace9aaaafbb7bdd9edbdbc9dccacaa9a6dccb79e9beadcd9e6ebaa386
col39:   9869aad6f6cca866adb77d85ba8acb87ab7fdba8accb96a989a7bea869ed7a9c49a9aacbf97797c7
col40:   b8887a7aba67ac6bdddab7d9ab7dddb9fc9bda86c8deb9cc9ebddf9cfb9cb3acdb9a9777ad96ca76
col41:   9b49c85cc7d79799e957899ad7dcdadafbcdbb7cdcef7b8ce78dbbc4d9e8ebc6f8da9b9bced976a9
col42:   9ce99a6858a5eaa9dca7996b9a98ba8a96ca9ed7ceebaab9c9998eadaabc8dbec6866bbb77b7898a
col43:   7ace979bcc76ba8c6a99a8f9dbbe7c98aeb5bccddef98b9bbeea9feddcddd7a7eb9ac8cb8fc99deb
col44:   6c699ca8b78ad65bada789cbabc9adabebab9bddce7e8ccabaf8adcdfdb99cdabfbd9b9ec8ba765a
col45:   78a86978784a499accabbaabf8daca779c99d8cc9aaba7a796faeadbaabcbcddbb9ed77db78a8cac
col46:   997a998b7ba699b97da7b848fa88aea9aa5eafaaca9baaa88bd9ddaabcac98bdd86cbaa9f597e79a
col47:   d777c7f68a9b98b58b8f86cba9a9f9ebbabe78dbdabca9caeafcb8eb79cd8cb79bcbac49babd78ba
col48:   96983899b7ac96e8bd8aebebccb8cada99c9bec8fadcbbb88cbea48cdcaaadac89c7eaac9c5eaa6b
col49:   7f38996998d8da59acb78c4e89b8cf5ae998faacedcccb9dcbffabb87889c765aa19d8c7d8ba49c8
col50:   1c788caaab7aae66aaeccc85d6bce6ceeb89cacfdccd99e8afbd99abb99d78bcd6ada79896aaa7ca
col51:   b897a87658381793dba7ac89a6487db9a88b8ba976bb7accd9b7bcb996bbabade856ba77b27676b6
