ROC:	 BPix_BmO_SEC5_LYR4_LDR17F_MOD2_ROC0
col00:   59c6153895753756ab64948779856995c8628677aa47a846587856895c6a6a6957a59169b9946b65
col01:   6845596845585958b6797918b885875bb869b7fa79cb75b9aa5e679a788b88769b7aba989d7c8ad8
col02:   49987763347247b774b747997a9a78898986b3888a7a89a8c88e88e4aa5aa627a9947a896abb8cc6
col03:   5978857556555746559ea986d7868ca7997c98f9bb79b9aa87be8d9f8a49769bba7978a66776ccd8
col04:   a6567888799b366449a689a4956a88755ca9a6894ad49c99956785938a9b97cb89ab9a6294796986
col05:   84a576866a757a967749687beba6aab94aaaa67926b77a84339baa8bc768c69aa797b6487b8abbd4
col06:   866745c65b667892769a85bbc6785866b8468ca5c65baacab674a7dda797e96b99a898a888536cd8
col07:   884a39a5d8a4b6c4a9a7a5798b6c487e9aa258acf6bbb995aba4b5a7b6b68adcd559678967999ae7
col08:   554c7778968a6784877846989b888e97c5a9db88dbdab7796bb8cacb7b7e798ba889838ea9ba87d1
col09:   953779b8b68b58b88abb998b7ba7a9c7b89bda4b9fce858ad9b5696b6ababbc58c77952957588b59
col10:   a287358bba9a8859884566a3aaaafc7c7c9888498a963ad8c88968bcdd86726a7cd5644aa9994568
col11:   843aa477997857939ac6d768788697a9865688abb59dbb9a4b8c7f5ca8b7d923ba8576349b875834
col12:   d566744853a8b49c9484b9a6675d899496799e98cc69a9986ab7767aa889bfe888567b888c4876b8
col13:   29774787c6a377579879c9877a6b94bbabc59cc7fa85a998aa99d989729a993481d8bd56a9cb6c99
col14:   96756a9b34a77b66c4c9c6777899786489bb98789b6b96aa7786697aaac897bb729637898dc49663
col15:   7b87aa85a9998455a88867446c77d8acc97c756fc1e8b7aa586a8cd67cab9789556868aa87ab8635
col16:   78ab8b149975a68956884957877dc9dcdbc9a8988b76b79d7ad875d9b71a9a593983c9ab687b1565
col17:   1c386689a785344836749a86ba66b95778b787d8aa9577cc9c6665a97669a8ba47bbb78b83764a73
col18:   27a765685556598936677bbabba8756d64a7a8a6ccd87a7a7a59698bc99366ba57678c486b969788
col19:   54a7785697557cb9a48aa558bb9d6b83ba989b4b4dd6a49b9b49687beb7e97a8aa976b9a6a257558
col20:   5788a8ba9856777695799669b36795ca5b9ba99969a988ba9c536a9b7ea86756885a9696b57b88e2
col21:   244a7b687b847a7d9d6697a44788cb9bcf96c879c86bb95ac597bb698a999959a99a37bc8b87488a
col22:   4396b8b9989978299b99a8a9aa879ba5898a9bb797b7c9b7d8bbc5799d88aca49a5988574888c966
col23:   3459974568978a8689a84bb39a73c9978779d87c8b88859a9a8c6c68a6985b86c985888634469568
col24:   58677a38977767658b589b9578998b989786a889c4abbb66a8bd46778bbaaa75a86b5c77caa86557
col25:   897899b8a76b59cb7549b986aaa656dda78a6a58678be7c9ab578c9ac48b888cfbc69469b6587825
col26:   a36896cbc789b9dec7b7aa78db9bc69a98c87d786bba99dece9bbd8ead9eaae4abadab9899ab9aa6
col27:   b47b5948a8a8a98d8c8bba8ab7a6bc9e8b89cb7d6ab77687d8faadb9adbacc9adbdbaaf795c8bac7
col28:   7595838bc5b8c8dba8bba9e9aae49acca7abfe999ecdcbcd988affcd8c8b989a8999cebd9ad6b8ab
col29:   a68b7cc54872548869a97abd8dbbe9ba9795d9897bdaf59cb6ab8893df5dbbaa98eec16aa77be3b9
col30:   b77476996b79a9abb79a86fcca84a9ad9dbcbb99b984789898c89ada9aaab8fc9e89ca9abbb9c974
col31:   9998a988c9d3ddeccccceab789a9fadbbbcccdccb6abdae7e79ecdcaca9b9889be9c8aaf8aef8bbc
col32:   76599ba9699ea98d8758dcbc6dbbdcdcce89ceefba89cbdaef9aac89ac7ed87dead9ccb8d9a5b5b4
col33:   7866c9aefc78abca7a89888ed9fbac89ccedca99abda9d9bcbc9a6a9cef9cba53778d9cbec9ab5a9
col34:   7995bb8a9cc9ab9b7ccbc6dabacea4f8bcdbbb9bfdc8baefccd8bbb6a9be7cbaba8a5bdecbaa7bab
col35:   5ba88a78badec6a6dbababaddeabaed9ebbadc8dcde7caccafedbbdabbca95bec78996ccbe997ba8
col36:   89c9b88aaa8b96dabfadc6fbaeb8feb6efeca89dfbbca8facec8dca99ba8bbbddaa9cb9b69dd8976
col37:   a8c59a8b8f7acf96bfebcdabd9dfdeaabacbfcbffcaeecdebcfababec8ca96b9bf66f88ed569bef8
col38:   dad9a8d8f7a998c99aacbdc9acaa9fdafcefcafcdbcc5c6edababcaf9bdbaa7b8e89b96c5b87d79a
col39:   69997655ddc96da79c9bdcbafabfbad6aab8ceefae8bfddcbbddade9c9daaa8c9bdcac7a8b7abbd9
col40:   799989c6ccbb7bb99ffeac8ec6ddffe79fdbceccbdfcc9ab89d8efabeaa7dbbbb8bacc9a9a5d976a
col41:   b8bb8a9ec7babccba8c9bba8b9a99ecdccbccbac8ffcacaccda9d8efcd99bf9bf8cabaaabb8fbb8d
col42:   98a9ab95cb8cba9b9c837acddcceefbbfab9dbebeefb8fcbdecbcdcacbcfd9689d9b5cabb9cb5878
col43:   a477a9a9aabb69a7bab9ccebcca8f9dcbadc9aab8cafb9b9deb89ddabccd5c887cc99cae8edc86b9
col44:   9c8ac6d899aa8dc987a7aae7bcefdeccbb9f9cdbcafdcccbfb9bdabbdd9c9ec97cb6b99ecc9f6896
col45:   6a188e7c9dad6a9ccabcada8c7ccfed798dc59feaf9f6caedabafadcb9bb7a97d8ccac9bc8ecf8bc
col46:   78699b7676befb99db8bba9a98dbb99ebeadd9cdaace99d8dcaccdd6df9eb99b5b98bacbcd8a7dbd
col47:   b49a9a975a9dbda9cacc8cb8bd7daddddad98ebffacedb9aeacdcabb9ccddba5c9dd7b997c799cc4
col48:   eba87ea987ad8bc6d7bcacccb964b8acd78a9aebcbfca7b9b9ddb997baca9b77ea9c94b8fdabdb77
col49:   bcf87c9dacaecd8b9bfab8dc78d9bfbaf9ced7decba9ffbbebddebafabad6add97ccbb8ce85a978f
col50:   c9679baac776dab93c49a9d99a9b8cffbab59c8afcfae9cbc97cfa9a78ac9acdad9bb7d98a98a88a
col51:   8987859a93b4971499ba99ccc5a79b74cc79d5c8eebbad98ab95a69fe5ba87c6a776764578998b76
ROC:	 BPix_BmO_SEC5_LYR4_LDR17F_MOD2_ROC1
col00:   5a16747133444676398646758934655957479794a5794967966788714b748b586576655436674667
col01:   a578c43686b56b9438a5a35c667acb97667957a777cc9a69586b689a886a49a896897a46954552a8
col02:   65348a7a2975a38b9689c757ca7485b98873d7667c77aa6996cb5568689a988ac6995a767788c999
col03:   b546823964865a858aa99769c6b878abbc77b9b8b9bca9aa7b58d678785996bb883235a485771467
col04:   576aa8556519488a8ba95b7885c58a89a9abb9ab2a978a598668c8ab6aa97a7b989937958c545389
col05:   536ae5548178878927a85a5a8846795769689959999866b972d7a974598b869d78576775b67b3646
col06:   a761776274784b76d948c569879ab3aa7a788abd9bd899899589767b7679aa8b8a359b5b848ab486
col07:   789798a8a7487879b39795c5a985987bbba5b4978abba98c989a9845a9798ed499a68785887ab457
col08:   4966865864684787464a78a8bc788c778879a9bc88adda9c7b69e887c977847a9b5869a4a4687b45
col09:   766b7aa497a87668968b8a69588b7977aba94588eaa6b9ab899a89e9a7acb87a669a8a77a836a852
col10:   8a799bc533a88a757959a74589a39a99ba6c9b6bb86989a986849798b59859b8aa79f5a98ba96a64
col11:   478aa578486a8797b858294996a786d7b97899a8adafaaaaca5d8878a8989ba695aa969a57655569
col12:   ba976328a6aba8a99aa6687a7a8969d69c8998adaa895968cd8a5dca9b9b8aac9446887586388a87
col13:   68967a596989886c9a8aa8887dca475a8a68ac8aa57399cc789567b9a87ab6889886a5b879c78934
col14:   77a9757a7a968799898c886a97bb77ab5c9aaa8b87cdc87a57a69ac4a899b985877b59b3b7999a36
col15:   3ac56aa85c9b6a79ec69449aca58a7e7dbc64c6b5a778a9aab8d9a75b6c5aaa99c88778487695865
col16:   568256779b4ca8a7c698699a9aa6bcc5bb8ad97aa887b879486489d858996689bb984a8897697878
col17:   6566a86b68553a6c65ac6c497a84d96b9987a7aa78574989d68acc776b94c78aacaa88589c448841
col18:   66a965685b78868cb76b5b49b87a879966987aa9aa97a84ca667dabd9777abab849a6bba6a494a66
col19:   37585889885587c7b95a7c854e77b99996b888bd7b5b7b9b989aad4abb987ca9c697b8dacb795b58
col20:   85446a7d49788a7ccca8858489a9a8cca9b96bb968889a68888ccaa779798eb88c7994978a97b874
col21:   66aa477a95882467a5987969aba6bb8b56687bc8a6cb9a5876997ba6cbddd899ca96a89b8a7574b4
col22:   99697885b9786a8999789ad87b956784db6db767ba99caa7cba88abd8a8aa9a97ba89a69968bc789
col23:   a78659c8b784447489a57677cba477aabacba9689c88bcacba8ca846eb4bd99c7c79baa8a9847876
col24:   79c6967a8c797a5838c6bea7d78cb9dcbcbf9b8c8c99bbe98e9ac8cbcba8aa7d89b59a78caa97697
col25:   6b87a485c96b9bba9bb96a8988aadb8c9b9aab999b7b5adf8ac78f7477cbcbb899b569abb887ca55
col26:   874688eaa6b677b94e99799cbd8c99ad6acbab99bdadfbcbbaf8c9c9ccdabbc6c9aceddb7b8c6cc8
col27:   6599b7599699cb9abb5a7cc58a9d9ae8ddbafcb8dc7dc9faaabddcbdcac8d97a9bccbaba97a9ac88
col28:   7bb4886b8d94799cbadbcb9bfcaccaacabafb797df7adce8ccabbabbec9aac88abddc499aac569e7
col29:   99bba78b5b99aca7bca978abcb9b8bcabdcdb9f9fa98c9cfad7bb8dcebcacca9b9ad88888dcbc898
col30:   469aaa9588885abc7bc98a8aec9bed9d99ba9aaef8ddbada9caceb99ab98bcd78dbe8876fc9bbad6
col31:   8caca9caaac8eb5da4b8f999d9c7cfcbfdc7aabcbcaffedaa8defa89eedcac997cbcbc784aa9cb68
col32:   c8a9ad79c9abbbbc98977d8b8df79ceceb9abadd4cfdcf9cbeb8adbbefd99f97afbcbdbb9dbe9cc7
col33:   d7acaabc4d9aa4abcbb8dbafecf9ca88caa9db9afcb9ebddcccefaaadec99e9bbfaaeeed8cbbde98
col34:   777a89cbaabee89b9ce88aabec58ecb9deadcc8dbddceaecf8a8cc8ced7ecda8c99b8aaccbfdcda9
col35:   bba8bac99c9ba98fbf84ab9bfca89edfdcdeefadcbfc7dcd9cecaaadddcd9eaaccbc79daa9f9bec8
col36:   a76a9aa7ccad8a9ca9c98fa9ba997a8dadafcab95dcfccaaebccacbbdfbcaceeccb9cedcddacbb3a
col37:   979d6ac8cdbec8c49998ebcaca88addf9aefaf99bdba9ccdfdfec8cdb99bacfefacacad9cb89b9b8
col38:   9ca8a99b98766966b98ac9ecbcb988fbfcafbfdbdf8bcd8fedccdcdbdcbbe9abd7be999a9aa8cace
col39:   9694bca69f7ba8aeba7bbcac9ce9bb898fc6bccd9bdd9bf9bdc8aabbcdbfeafcbcb6bebbc969b9db
col40:   b96ada9acbdb9bbb8aafce8aaa898aaccd7dba9affddcca9dd8eccaeefcb9cbae889dbcccd8b97aa
col41:   9aa89fc7ac9f769d9bcbadc9babbbbb9cbceacdb7bcccfccbf68cbeceadbdbaaacb88c8deb8eecdd
col42:   a6aac867db9987ba979cabbbd5dbaedcaec9dbbbead9becc6dcbccdcbbc7dcdabec8aa9afda59c93
col43:   d698ebabba9acbb7cee996bbaa9d9a7cfcf9fcc8adccaeeadbbfeceaddcaebbcbcbeaacaebd7c7aa
col44:   a89ab89d97ac8db9aeceab9b8c97ca8f99cccdde8b7dbeed7f9aebedfba899de7bad8ca9aacaa6b6
col45:   8aaa7bbb68b9ae79a8bcccabdaa9cbacbaaacbadabdcefcca8bc889dcea8d997be7c99889ca9acd9
col46:   a7bd955cb8599978dacaaffbcabaeb8ddafbfd8ce9bbffcacdef9cdcdd9cddc9ee8a8cc9a7b88c88
col47:   289ab8fcb89abbb8ccbc8dcb97daabacdcafafbbf8bc96efa9aacfbefafcc97beaacb9ac9ccd9acc
col48:   5d99bba8aa9ca8ac69b89db8d98cdbdeba8caacaa8bfc9bbb87beb9bdeff9decdbcbaa9cacb8d8ba
col49:   8889b899a9ccadadca99aaedc99bbb98cfbeeddbe99cdcefdbdab7a8fdbcedcdc9ab8ceb89cadbbc
col50:   99a99b8ce9b9accbcdadc88ec8ec8cdabcacbebcedccffbacbad97ccdbae9ef9acabca9bd8c9bab7
col51:   68788a9567ab4c6abb557bab9a66a9ecdb7a9d8bbbcabaa69b7adccb8ca4d67ab977b9c59c6999a6
ROC:	 BPix_BmO_SEC5_LYR4_LDR17F_MOD2_ROC2
col00:   a56487768661592378486a46b6939548abcc84699a98769abbca88ba7ca9759578986176c675c777
col01:   6a7468845a76576c554a9a998c87cb788f886abcec7a6b8dac9b4f9ac67a9671886b7275955495a4
col02:   466777a79847996189b7974638aaa98b8ba99b8bc89a7b987bdabc8aa7db7db978867b987726c86b
col03:   78797659977a8745853588ad77a7a76ba9699fdab969cd68787a68dcbbb9e76779a598b4784e56ae
col04:   7db966a49188ab9a7846e8958837cb997896dcb769b98d8978a6b889ab76b7a9796982c7aba79b66
col05:   385553b6654b756797a9a954daba868ec9a6951759afbb4b5a2aac9a9cae76886c37e8b96757a566
col06:   6a7777837449b98d869aaa58d687875bca76f9c98bc795a9c9867bcf666bd87bd9b75967d9999b79
col07:   6363975788987979aa8766977b888bcba9bc98daa7b99a79c7c9a588a89679ca3a9c9db5ca878981
col08:   7564596991585e8797386bc8eca5887a92897c9d97abb89cc6989a97ad89a9587bca5b747846bc79
col09:   5769a57375588ac95a8c9aba7899798b99be67c57bcba7b8caaa874ca67dcb87b59bd87ba8888865
col10:   a614484a778389694a669ca98a5daabb4979ba9adab847ab8ba78ca8ab84d96ab8ad687b78549976
col11:   457c691966b486b68ebc8785689aaab99b9b6daba799debb8ba677889a87981663889b57885aa589
col12:   8b136345988768778657a35789a9c9aaa87bccd775984a4a98a88938b9babade99a959aa9b4a78b8
col13:   94a4797544b84b9995b9ab5c79a995b3c7d5c87658bb9848578b685888996b7a97b77a467b9857c7
col14:   635a766746c68c9b53d9a8cca75a98b89b79979a7ab9b77c5cccaa6d58bba89a889a6a57a6abb787
col15:   313397657475bb6c7aa4a7c6797a7a7ba6b85ab79bdb79eaa99caaa9a8acb9e84b8899b968a738e7
col16:   38997a8c97688ebb95b38c79d8bba6fad9c7579b7bcbe87c76c99989a898dba5fad969a6d8b8b984
col17:   3664876788699577ea89988bd99c9a95a896c86a7b66879a75b58bb3b699ee74b68a499a4877687a
col18:   3917739b66815a9ea798aa6b3996876abb6a69a9a79979a97885a82758cf8a73aa789cc95aa87a79
col19:   856c4c5578439688acb5a27cbb398879b74876c9e69989d9c7aa9a98b37ec8baebae795ab7793db8
col20:   67779325b7ab545986476d9a78b987a977ab7c9bbe9589cb486aa857b9571b66b579767d6c44a7a8
col21:   a4ac568855a75b996e689769a99c496899aac878876a5caa49bfe786997d8aa9b867748478777a58
col22:   7883454926a679889758986aa86cc9bb79ad1876a68ad776a9777bbab5c8caa867a7775854b958d6
col23:   a38a3779988589aa47747ca7797974a789c9a9b8b9979998ad9aaa8c779577ca5788799656a63985
col24:   3728692a67a758a8156d88978dbaa689889ac86ba8a9d5a78d5aa9889b8c8ab587cce593a9776ada
col25:   978a89a96a6c862a66b2996a86a89cc9a249e86cab87b8eadabc89a997ab848658a6a7877cb776a8
col26:   556897568759ab989a3fdda9578dc6d98aadc9ab8cdab8db98a9cfcca9dea4aba9898a4baaa997a9
col27:   99a86849b528ac7869c8a8bc7b7a9b9dccce97caab7b4eab389aa599dacdccbabbcbe7ae8695989a
col28:   4aa587a898869ea98baee99b8b878ab69c9a98997cdcaebcfb9acbabccc857959aaad8c28b7cb74a
col29:   a5397498cb795a8b97a9d99a9a98ee86dc9b5cbba9bad7b9b88c6a6ccfb8dbeacad5a1bcdacac8bb
col30:   7a1cbaa98a9a59ac97b69a58ea9abbeaaaaabc6b9fa7cbc97bfcd88bd6879ebd889edaac5a98a88b
col31:   9b97d6aeab46628d98b888acab8bddd9ae7bb688b6a98bdaebb97aa69ecbddbae97ae36a89b9949b
col32:   993c189af8cb988bbac8787ed89cdde9e9ccb9a8688df5ce769fbbcac8dceb87996b96b747488668
col33:   6ba9b9ccaa89987639ec9c7bc9d86abbb69fabcedc9ddabcb6a8d8b8fd9c97bcaaa589b8a9898ba9
col34:   5c978786ce9787b958b6d9cbdacbc899edc9aa8b9c9abcded7eab7d8aeac886c6899ceea9b7aacba
col35:   99b79a899688aac496b76fb7ba78dbb7da8bbdabdfbc9adcbada68eeac6aebc9998daaa8ad49bb67
col36:   9699685bcaea57c7a9ae8accd6dbd8cc8fbc9aabbb8dd8b99a9da6bb9accb89a68ab89c9c795b995
col37:   757684a79aa9d8b9b9cdb6986a9b6be8c7bcaeb99d7defb8d9c5ccccddcb9899a8ef6da7d995aa89
col38:   aabd68cba9c69ba5baaacb86d69bcfa88dafb9addbbe9dcef9a9c9ecadcbe9ecdabd99ba67bb9aaa
col39:   7a4849baae9aa748bc9bacda8a82bbbfdac9bb7af7dd9c9e8f9bbedadcdb9abcbaaabc9bc99d6698
col40:   899666aba98a9da8c58aa98dcf989fa7ea9e9ab68b9afeb9cd7a8ebd5bcebedf76de9caafbc8c5a9
col41:   b897766879b9aabbc7a89aa9ccac95bde9aedb8cd9cabc48babebd99ebbf7a9cc96eadc88ba9cc99
col42:   5c88bda6795cbe93cf88ae9a789b98cabadf9ebade9f9abcad9c99f9db9e9bcb87bdc7c398a8d7b7
col43:   8c795979a9a5a76fa7beba78a9abbe9abe6baada8adbcad9ceadb7dcc9cc9cab9eadb76dddaa8778
col44:   7647996986ab9d9ca67f1a784b9ba99bb9a9beabbabc9ec9db9b9fb8aeeed9accabbac867ba9fdb8
col45:   5ab4bc9869d9ba97879999cbebd6bd88bcbf9c98dba87b79ca9ea9a9ccbbdbacdfbecbdbd5bd86b5
col46:   69a688b684968dcada7a6b8cdbaaa8eccbec9abbdc79cee8becc8bdbdf8ababc888ddb8dbbacacb8
col47:   87a687ba69ae97b9ca868f998acabbdd9b88cbd9e97bcaf6dcc99e8dbfadcdef4a9cdaa75a94caaa
col48:   8959676d59b866bdca875bae57ccaac98aaa8c9bc9a9cf86baaaa9dbbdc6b8b7caa7ea9c75a88a6c
col49:   587858ae669c89cdaf6a6bae9e7dccadbd9aa87beaccab89da99c9db9fccffbacbde78dc9a9b8ad8
col50:   862a85895e987978aa9bccaaadc9dbb7bcbcddbfcc9caaa76b6ce8b88aaa7eafcccac7aacb5a8878
col51:   469a661687378399bb79996959155a87e5a64b9a5b87ae3a66aa8f97a8b4b6685cbb8577a8a79984
ROC:	 BPix_BmO_SEC5_LYR4_LDR17F_MOD2_ROC3
col00:   44963538b66a662761a439b4b6a962979977a59a6a6a7456996aa8565ba75786847629b569eb7a74
col01:   587ba5996ba6a859ab77c49b96c579bc88ba6c74795359795a78c4a99ab8c635c395a9c6c969eb8e
col02:   7356b84336666736ac7a67a2988299956e8c6788789dbab82659acb76b8aa9f7865b7a784ab7c9d8
col03:   57985664e726969ac8c864c88c57b9a9a87cf8aba6986c198c576ba8c7a8666d997b9c89856989ba
col04:   9ab3568b6e8784aa5cc9977998b5b4bfa9eef59b69566799a93c9366846968989acf9e79d97aaddc
col05:   b837a668859a8466b7997c78c88d785ad977899a47a8899d897a8c84a8988aa673c8a2551aa76cc7
col06:   155948b317967565aa9797ba6696ac7ada6777857b9675c96668985b9678b885fb949789a5a8baba
col07:   53877e68a18a79cc98cba6ba9b6a9aa5bada67a9aa6578bca9f6b9a9b98694b48bb2838a78e799b9
col08:   75468d5b895aa9a9989ca86bc544d8c8dbc825c658cbc9a7c77bbd6bbda6eab692a78b78c9b7476c
col09:   9a678741cbac66aa567c8a6976bcaa9b887bd59b8a9944a9884b5966aad7aa984bcb48a7b68fba75
col10:   8799567889648857aba99ca7989c85aaaa5a8778bd8aa886a56ab7a8984da7b8acba8cc8c758bc88
col11:   a7468aab4867679b469986b7c5aa7675aac876b8ec8c9b8ab8da487586a4879a6884b3a5446a83cb
col12:   55872b36c6777875a7f99a99cfa6b7daaaaf6bc9d57aca88cbb79acd9951a8a88a93a977a355b944
col13:   88267457e58ba98786a84b598c9a8c6bd788799c88744aac7b9fb8bc587a9b89b79ab6a7a6d74868
col14:   b78979ba88679ba8a6a4b7629587c1b89698a88b66678989768ae8dda77ab9a6e65bba9666886787
col15:   63a557a9988dabe9a4983b13a87c779a736b78c86b8758ba568779d8b679979b88787a87599627c8
col16:   79957846c7758c89b964dc9786bcc98bf55499cb775a66ba95588a98b8ab8766695c177a729b9789
col17:   8631a97689869a7a868a898c93a8d886b6c689b6696abdaa38766dbb99c9ba986ba77a949b9b99d6
col18:   5a9a56aa5a5ac4a87829849a9887a8a78a65bc8a81879a67669896c446a93aab94b71b879aa89785
col19:   768872b47557946686b769a77698a9baa6c8eb75b8aa8896997fbc8a28a7a8886a897b7789b85933
col20:   8c7773864ba5ca44a999548658b59b4ab9a9ab8687899b77a82c769c79a7b78ca85989775554ba36
col21:   57638a873b86a657675bc9684ac7b9ca66b9bc478cd99cb9895294cbd4a7a5aa986ba5a6a8798ce4
col22:   98679845a69888a7a786b88c6a94483659f676a977a77689886a8b85968aabb4a67ad98f99889c97
col23:   a973a7ac59384b55699898aaba858ab7a9b889c3ad8a67c7a89797894778468c5ac5597a89b9a8b9
col24:   9587643b9998c59578a645abc69a8da786d96ba784bae4478b58bb475776d59b56b6b96b9898a898
col25:   c367897491ab8997ca7797547966a57b779eaedbb759e6b78bca78abc8bbb89b9bad53888bb8c6a5
col26:   76a887babc38a9acc8adb77cedd86bf8cc8dcc6baabab98a6cc987bc9a8aa9a8acb99cb9b78ad967
col27:   a97ba97c78d6999ba7cbade3abaa88bcbb97fd8686bb767686bbd5a6bdd8cc69b9ac87798ad85976
col28:   845ba77596a99a78bac88f9cb9cbb796987b78bb68dccaa79b99988e8a9a9c67b9d97a46b9aa99b6
col29:   b5a4466c4b7aaab84988a789b57fb9deba7bdb9aa9dfbadbdedd99ba5cd5fb89c859fcca86b6c9b6
col30:   6ba987b89699957ab9cbf59264cb9eab6797bce59ab9579cb776ca9ad9bacda98eac8f97a9ba9b7c
col31:   8a9d9a696bbcaa4ac99b8bc85d999cd5c7a7fbadca5df98ac8bcfbccbc99cc67bbfbcbb8dca96988
col32:   a94965b9bb9a7586cf6b65b7acae6c69a9abb8f88bc8888bfd8aab8f9bacdebbdaceba8beaf9ccaa
col33:   99adb8a979498eadc5d4abcd99bacdbfd9bba9e7fcdaadd9aabae9e6cdb87bd897cca6b6efb65c76
col34:   98aa36b857a9da76fabbdc57a7b9bab8acbafccbebb4da69ecb8aa9acefa8cb8e7ad8b99eaaec9d7
col35:   b87996a89a99ab8997d6b488bcaabfcdac6fc8baa7edcdcac8ac9c99f9d9b9ec8aa7c8b47ccdbdd6
col36:   a7c9ab78b7b79a9aaaa6bb85d8ace8d8dbbcbc7ae99abecc99eba89bda9baa97b4a8679b58bcb89b
col37:   77cb8d956869988698a88dcbd88fb9baba699aea9f9897c67c9eca9d89eb995dacabec5acbcdb8cd
col38:   44a6b8dca9788db5ca89a9d9bfbdbc89f9eccfecbacbecafd65acddfdac8f9a6bb7eefe68eafdfca
col39:   548a887b6ca7bd639a79aaad988aebf9aab98b9db94d6ccbddacbea8ea8da27c2fcb898877a88adb
col40:   abc768da9d88878bbda9aacd98ddddcb98e5ca8ce8ddfdf9fa69c5dacdd9e8bf8b8cd7cfcaab69ac
col41:   7b9c79b6ba688c7d76ce7ab9c9ddcd9c89bdcccd9faf7eb98cea9ab9dc89db7969b9cf885fabbbcd
col42:   88668d887b98ced855ca7cbcabc7ad5c9ebbcdc7abdbb57d9bcadbfd9fbafe99ccca8ca9bfccb9a6
col43:   b9b9979477ccaf6ceca9a89a9ab78cebe9bc8d7fbe6cecddccdc9b8bdda8cb9afdcaa8ddbaebfadd
col44:   b48aad9a6ba6aa7c67bbb96abbddbca9b9abeefb8b5ad79adffcab9dacc7e9afabff8b7dabaaf9bb
col45:   3b4abb9da966aa98dbddc69dae98aebcc9edabbebb6e99cfafa7eacbdb8cc9cfcabb8eaedbadae87
col46:   2878c579ce87b8d8a9a69bbb6bcaa9bd6a68b99adabdaeb99bb9dbccbabdaefdccb9887ba9cbbacb
col47:   9bc73c95ce657b9ba88dceafb989dceacb9bea89adc9aaab97ccffbcdafe8abfbaab7dacaddbbb68
col48:   68ba5ad8877bba96cfbfdbc7966eecd777f9a8eaaa8dea8ea7bcdadaa9b8cdacbabf858da9aecb9c
col49:   88a98b8aadcc86e9a8b5cfdc8cecabb9cabbdbfdcfd9dfdbebccc9aeabefd9d78adbd9ffcfdefed5
col50:   759cac3cb8a9f89b697f9b677a9fbacaf9b6dd9ebe697ca9cefcabb6cfcbbb8feedadac89ace9daa
col51:   67c83868596994875cba5646a78a97d7bab9ccaa9ab7a8b9fbd6795eca9a8ba78cbf97fb9b965966
ROC:	 BPix_BmO_SEC5_LYR4_LDR17F_MOD2_ROC4
col00:   62147a7429d7385948ab49677a65ba68a865672583378764b8868889ca6b48a926876aa962b97b86
col01:   65586bb7e74ba8689b8ca6bda8abcc798dac5da96944b769d95ba7b686dba7757ca568cae89bdaa9
col02:   a77c6bbcaaeb6ab6d67cb9699a37b89bb8b987857fa786e997699838bab768c977c7c9a58a3a7771
col03:   6818a86d7846a6b68cb86b69b8c5945cabc9e48ce66a87bd67abeb49b6a798d5b7868b978cc6e986
col04:   b8939a639b7577c897b6d9a6c9b85bac5759ae8466d9b95a9aa7879a6db88da6a78799b5377b76eb
col05:   86916a75d9949b26a57799ab579959d58a6a6868d7899c5c4956da39a67b8d6c9368abba2a88ba9a
col06:   58c9baa549c4e94b9868a898969ab8db98fb685bab8c49467bb7a9a3a9b9b78d58589896898b9cda
col07:   7a2e6385ca449b6a7758596dd78c7898aef56ddaaafbaa879bcf94b6cbcd4cbb9699b6557b47848a
col08:   c849a8a5b58b6867a6a9a8c78cbbb8689c58b8cce76ca6aaaad9a4f8b6a4d999679b7879ebf8b885
col09:   6379d3b88666899b56658a98ac9a9b6b78e9c69d4a7676b9ba4bbbc9db8a99c95a66788add84cb8a
col10:   9a54a96879786a9995a99b8a694ca6837738bc7c89baa9d569b8a969569767a79ca9a976595b9a86
col11:   a5b8679968749a9b76687947cbb8aba3ab7c8978479aa387becca53f9cad963b99bac95aa6976c91
col12:   78a86c418998a69478755ccab7f5d9928aad8674796b775c9b8c9a8ba28ba7876aa886da8869db76
col13:   36a989958965c9d7b7a467dacbb798d8aaa7987e6a78b69daba9735c79598b9d85b796786b98e838
col14:   795955997a69bb6a767649cc887ad79b7acd9c9a9984cb88aa6caa8bed698a898d9a9ecc85a5a695
col15:   8845685835a64ac5a36787aaa796ac8654d7876ffdda4a7d88896aa9b97ac67bb733be8879b99988
col16:   56886559ae77766b679988c8bb7755d1e88aab97cc79e6889b898adb9b9ab7aa58a6aa758a658885
col17:   344b98254b76cb235777bb9639b8c5aaa9bbd8bbb7688b5afe59c8b7a88ec9ad5eba9aa9957a5ba1
col18:   945a47b788a7588997d89aad55988b976997c7f8b8c9cba85a94c841366cc798b278bb464bb34f98
col19:   bb4368fa7a698ab7bda47a8697cb98bbb77bb477fa98fb989b9bbb6cb88999b686add9a9958c9696
col20:   84b875999681829e9c889a728c8a7776aeb78587db4a98ab68658799ccacacbac79a8b67885fa791
col21:   a7a8947548675a779ab7d65aaa58975e4a8c879ca59799979a876cd3c9ca5b84c96837ab5bb4a39d
col22:   45569981971977578644a8e9acabc3b9cbc86b7679caa6d279e2e719f9da79864b86a99b7a817c85
col23:   96384198d5bc889918899bccbd7893cc957678c66aaca835fd6ba3b778676955a7e6658659a99b97
col24:   7968ab6a473dbb666dab786b8ab249ca68a159fbaa89d968f8c7a9a69967c9a79d88687789975789
col25:   7294bca94699246589848db77c8a8bddbc8aa83688c6b9cb749dbb9cdb7d9a87879ba95a6b67d699
col26:   96a9296591cbb892dbf87a99a7978caa96ebaa97eabe96a2bb78ca8d57a6d53fbafeb98d78956776
col27:   a3168a458894ca7abdc9a299b6c77998fa989bc89aa7c8a9e7a8ead94d8a7c999aa7acaa5b856984
col28:   89b7ada594cd7ba8795b7698e999bb97968b8a9ac8a6adaa9cd8dcb89b685bc98a9ab9bb68da787a
col29:   b439846cb6aa379accbb7cabd6bcfaffb8caaecb7acbae8cc9e99d98d8aeb7daf69b8687b7899982
col30:   bd3c8a9974a787baa69cac8c97addbaadca778b99ced8f98c9abca7bfdafcda59987a999cabab6c5
col31:   d7596aa9736baa99b869b9ed8cdaeccbc879be7afbbdbf9a79ccb9bbdf7feb9dbcbbfa6a6bfb79c8
col32:   8dbb6a9bc2da7ad87cfb6ecaa67b7bb8bfa8dbcb8b5c79b98f4d9699e7caf57df99dd7d9cdba96aa
col33:   9553b78bd98658eca83bbca9aaf998aacadb7d99cbcab75ac9c9ee6ad99aed9688aaed7dad98c66a
col34:   a4acaea5cccb78bcf597949fcab9bfede9bccbcfccbad87f8e98cfbc97cfbcadd7f4b39b797e8b9a
col35:   b99aaef79bb589c9695cc8d9cabb8a79b9cfc3ac9ccfa6e87debceaaaada9adc97bbca97b4dabb76
col36:   c89677b68baac8bdb9aab8d9daff8baf79e68aabbabdcddb9eaecc6bacacceb8cfbbaab9b9cc67c7
col37:   99cd9a99c4ccdcb9eb987aa99c9d9dd6f4c588a8d9f9ad7b9c7ef9bbbeefb9cfa7d7d9ecbc7a8bab
col38:   7cca9ab89eeb85aa5787db9a9cbcfbaebadc99d7bcbbb7badaaae6cdfadd7c7bec8bcac9466cf9d7
col39:   b434b9afd7adca979ad945aca78a6c96cfbb9bcfac6cabfab7fcacaabcbcbeaba7bcd9cb8cd99cc7
col40:   7e5b675afcc88e86ad999aa87fc9bdedba9d7bb98c7fc59ba9bda75cfb8b9d878cd7c98a68a3dae6
col41:   cc6b87cbabdaf6da8ba98a96b979baebddcecdcacc7cddcbee6b7dab8fa557d9efa8dc7e6c8be5b9
col42:   cbaba59edeb6bdecc59cd8aa9dfebab8f7cabcacaec7b98bd9c5aedec67afa579b487ddb7bb6c7da
col43:   89d6badc475b7bbda9dbf98e8c9afc8dfcbb6dabcaef99d9d87fbbb7edadaee9c3bac97accc8eaa9
col44:   7c577dbafdab4ceedba9cef7ebb9ebaaee9e9cdedafcbe9db9d99bcab6c9fee9a9cbecacbadb7d7a
col45:   a7388b9a9f97c8aaacdb8bc79dadbd9fbffd8b9c9bfdd9a97ec5b99c99dd9dcae77eadbc76dae83d
col46:   cd7bbb6b8888cb6ed86bba95bdfd87ababfddc9c95de8cc8a67c88bdb7799cad6bfd987ad99b7ca9
col47:   4b6aa96cbec888d969cbe8edd5ac6ab8ee89fbfbceb8acadeb9bb897c7abc5efeda8f8fcbb6bdea9
col48:   8a4c8767a7c988a93af87d97b9fbab9afcd8fa98b58bcf73fdbdcf99c8bae8adbb8cbbbe6b58856a
col49:   cb99fddc9a9db599c89cbe76edbfcebba9ee987b9e9cad7eefc9eb99abc9abc9b8c7599dce7acdd7
col50:   aad9589acb6ddaccd9ccbfab9acb9cc6abbbcedbfab9faabaef6f98cda69a8f85959dabee988ccfa
col51:   2a688928888b979da89a97a3859b9ab7cbd66bac86b99a57b77aa9baa4a98d6739c8a88883c7b79c
ROC:	 BPix_BmO_SEC5_LYR4_LDR17F_MOD2_ROC5
col00:   939689688578a668a6a8a99a9adc99aa8c7dbc75cba67888893266797bce77a8c4979797a8adbbd9
col01:   7dcf989bd6b9aa9c9acb99a3abadaa8a8679989bd59ccba8b5bdbecba898b89bdf899d479cd8bbba
col02:   7a777c669b9cb87edadef5bc7b98ba8b99acbbaa7c98f9989999ac8b87f6b98acb887ba6c67cddc7
col03:   879bb8adcb8da9b8aa88baadbd8ebf9da8d9f8daba4b5dd69ab4abbc9988aaaa868ccab9afc9accf
col04:   7b6fab44a965b5cded599fcaaae477bbcacb9fb67ce8989bd9b7d5dace9ae789c7dbc859a8a9ce98
col05:   7878b69cbcd99a79bfc6bbbb9b7b7cdbebbbd886acc8e8e95dfd8fd9cc9cbe6ec79fad88becaeeeb
col06:   e48ed9aaa6b7dca977a95aa75a8cb59fcb8a68b9a7ab6bdd5d9589cb6aa8b7b7abb67fbb7a66edda
col07:   9756c668badb85e987c8ddc989bb9a6f95fcbaca9c8aa5c8adab77b989ccba957e589b67b5bd9aad
col08:   ea7696cac97b9aa7b98d869ba9ecabc5cc57acbeb8dcaacac8a99abecc65ab9aba678a878a6d38b7
col09:   cb6a8a8ba96d9c8be9a68a6a6fbb5baa9d9bb79d8fc9967c8b89bcab95ff88bab9ed6979bbffdea9
col10:   b8ba37bca7b7cdbc577ed7bb9778bcd8d7c9cb6b9caaa9dd8b96b79ada8d96c9b887bc77a99abb58
col11:   a681c8c69fb5a76e9b9a999a79f88badcce9cd8ac6bddcd99cb99a9da67beabaab98b6bbb7bbb824
col12:   4aa2a4b689879b7bb66ea9786d9d78bc99e9bce987b6dd96a99bd8b79dfaaa8cb7599a786b19ab67
col13:   6798a5e8da999a9fc8829fb89bbc9aa7c8bbacbd9ccb97cbcccb9b9da9cbcbb6aca9a9788ac9c8b5
col14:   a67b858539b88bf76a7c9b9a9acb7499acdd866a74cabb92e8b8d8b86d9a79989aab7a499bbabcac
col15:   3a69c78875b69bc69d35aaba88aa68dafceeaab9a6cbdc9c7789ddd8b9b88b9bcab66878be86ac47
col16:   549bb5c9744ca68ab98999b9998b7aac8fcaccaba886f467ac99cdaabadd684df86b8b69ab877859
col17:   96589a736cf37c61d6967bc88ba5c98a8999cba6898b9d9cc889ab6bbabbad4c6898a7ba6b8a78ba
col18:   67639777c868d956a65769a7a792767aca69678abd6bb5bcab989b7bb4b9a89a75994889287aa6a6
col19:   7682c5c59a873bc75e88b7c898a77a6976da6cbbbb798cec9b7768a5ba46578a8bb8aaa9bd3bb562
col20:   89946bab4685568d77c87448496bc8bfaae6548a67a8c998baaa9ababcb789b86ece79a94576798a
col21:   b565bb7a4836bab567498e9d77d77bd98b78987ca4b7d7569c7bfbd8b68aa6597aa7e96f6856a677
col22:   9b7867597377b687a7b5e58db6fdc96ceba5699aa9dc96b9ab9a86a4bf5c9994a589a9757a289a93
col23:   871755b95656a54749a97df77998b788a8b9768a929cccd7bb69d946ab9c57d779a9997ba489bbb9
col24:   91a4987d86825777c79c9b97b7b7a89b9b7c6797b8ba79a87b7a89ebd9a9b8be9c96c99893989c96
col25:   958346123a947878914a88d7ce7afc9b88b8da888bcb977eea7aa476dbb9ac7a9ba8cd839b8879a8
col26:   c5abb58a78c7dc9a888a5aa89a77bc68cc4d8a98dacdabbd7bababb99a8abbb6a6cab86ab68c7bb8
col27:   a58c967c77b8556abcdde9a58accaad9b7c2dabe9ab9ab5b6cf69c887ab8a7f88e6abcd8a9bda965
col28:   5b9898b696b4696e9c78badb8addd9abd9db99c5bccb978f9cb88eeb9b8fc9b79bab87b58bb987c9
col29:   b4966774a9c8b7bdd8bab8c9dcb77a7c97c599dbf7feddbbca97c8a8c6d9b3ac49faa89bd788b7d3
col30:   97e7b78a99ba9893bca98ca9f88fc9ab9c5bbc888ca8bddcab98ecbbaafac988acbbbfa9ac7aa86a
col31:   6b78d7a95bbc977a8997a9f9fdcdecd9adcdb4ae489a9cb7bffff9fc9bdd9899da897d98ce7bb8ab
col32:   ba8986ca89779d5969abbcaa689a9dabcfefbebcb749d8aa988acba8ac9cdbb96d8b693db8cbe97f
col33:   b8779976c89b79b877b99ed6fa9ab7ad7cdf95a9bc4dc87d99af8cbe9c8cbf9ec7a9ddaab7c5cdba
col34:   a9c695559446997a5bebca9cdbce8aee9bfab9afdabc7a9be9984cc9ba97aadbddb5bb99d975a787
col35:   989d57b7d9dab8baa8fb5c9e889baabd79cd965d99cc7a7cc8c9ac8fd8bbebb9abf8a99f69d9ada9
col36:   96a8986989c977eb98b739dba9abed9caa888dbaebcdcdcdcba9bcbd67c6f699ed87e6a4d95a8cda
col37:   6c9783cb6972dcac879aa2bceaadbcdbd6a8ca7fabf9be9bcbfebf99fadcfbbf5997dc97acbde784
col38:   6bf9689969adc99abafb887eaba99fcffbb89eeba9fa79b96b87aebcadceeaea7ba99c7a8c569b47
col39:   75ab8b97c787a996ca67bb989aab878cd9c6b98db79c85bd69daefbcea6775cceb9fa9aae578d8c4
col40:   bb6c5aa69ca7f9b99fdbb6d9e8aaa99ba87bd7bcbbadb9bc9b5b6af8ce7fbddaa7c7ae8cf7966b99
col41:   6499fc86877589ababd9b9cca87cac8cec98d79bd89cd9dc889a9e99cbcbab86bcb95ab99baa7576
col42:   b948a97bbaaa99bedbb5f99ee9b9d77f7a99b658796babc5b899c7b98beea748df9bc876987d7886
col43:   cb5bb5ab79f948f6a9a7aae9aaf8b8a5e8bcbe7dfddafa6fb7788bc8adb9ddeb86d5b659fa7ebbb9
col44:   738b66989abba9aa87d6b5acb69fecb7bc9c7da79bbccfacbcbc898cdae8aa78cb4a877dd999f79a
col45:   889a64985998f39abc739a97cbcaddbc7daa99cc9bf9b87f76cc779cbdcdd9ade7ab9acbc68b9bba
col46:   73546a86c98a8a6aa8a9a7d79c8c6a5a76b89ab7ebda9599b89a7abc97dd99b5988c9a75d7a47cc8
col47:   95bbd7a57daaafaa6cba678a8b899dc9aca8ff647f65aab9a8a86a8d7acdd89ebcd8959aa858b9a9
col48:   6aa4c758c79a789abbda9dd8a9459bbda94ab7b54cbf9d7daebd78798bbc4b9edc76ab96a8b6a8d7
col49:   5a75cb99b5a9db9dbaca7bcb7d9ca7da99fff6e69c98ac7d66979697cabaca9af9fbca9acbaeb996
col50:   7b5995b978b9679ce3bb8bc99bc79cd8dcd98bac9a9eca68aacb3de7b8bbceb7b75d9bb668b8b4dc
col51:   9796579a465696a844bb86b95638acba8885939684a987a7da7847bc7648ba96674eb7adc7875d83
ROC:	 BPix_BmO_SEC5_LYR4_LDR17F_MOD2_ROC6
col00:   461472846994639977858947a98747285d7c44545a7a437751b664ca5871a7437a5474d5944a7ca5
col01:   6778569aaa5b6978c8a9afb8abbc66b6ec74a7b8665abd84999d6a168b9db9c3b75baae8da7aea95
col02:   5234b6475646a48a7adaaa5a777b5789a88cb955a986c79b77769b58c968b675a6985846a55bd96e
col03:   8798666679865a799389a9968456a854c9979ac576c88ababb9d78a8d668dbb8ac84a8977bf6b6e9
col04:   569396771796ab8c9eb65b8a9a99767b6dab28c89c79abc67d6cd7d6ad49c59a6aa6a8aa5ca7f6fa
col05:   55249b5725986a2a57baa9a89779ac9b97b87a98577dab97c6ba869ba75b9ab7b56d9886c8a9cd8a
col06:   325b5845939578879b85965bde888c29a7a8749d77896ba4c949aad8b97a6779cc788bbad89fa3f6
col07:   5163a5c87989b99999559cd88c6c85958cc9e9bcaaac88886ab9569ca7ba898d674589dbcf8e8889
col08:   5a54387879756669988b6a6b8cb7db88896aaa73b86696a8b69759dc86ba5c95997827766c8aba9a
col09:   778ac7aa8ba6878a7ad954a74f9faa8bb8bbbaaa4cbab998998675c69a8f88aa7b7a9dd5caaa9fd8
col10:   6923868653898677b46d568d778ab879abaaacc59398b73b9986a68bb84885a8a97659cb78b7bc8c
col11:   1366767569487b89ad8bc5aaa6569886a68bababbaa8a4797aa9884ba935db775a66b599ac9c87b9
col12:   895783988688488caac766889aa9c9d7b547d776aaa7ba9a86a68868c5daaaa9ccaaaa88bca99bc9
col13:   b449266815988bb48a95cbabcc99e896aab9bd89bb6bc6697a9b59b8878b58c9a7895baaeb8c9ba6
col14:   43493699885477db74595588a9c68b9588bb9bdb7acb9f598cbbb7b69387cd69d9bb7b759a6797bd
col15:   5547a75797a9968cc76e7839b979bab7dcdaa8daa7799bb95ed59766877f669a8a8ebbc9b895eb89
col16:   556483b98a1899496778d9b5c8bc7bcb5b389c884b7c6ba7ccabb89595999c5a486673bb8793b628
col17:   44555577a2685dcd95dc8c9cbabaa8acd87758886899bbb5c7a89586f6d667d758bc98a66addb9a9
col18:   9986566848695a7bbc4b9cab89c875898b93879467a959abbac8b9c7d6ab778ba789bb4fc7847886
col19:   a3c589bb4779996aa98c7883a6a96c9c7ababb75a9659eb9896b6e779997bb579ab5a8a8cca9cb58
col20:   46b588918626b7b97b72cb79999ab7987d6957b899d9ada88859d878a8bbfdb643886a5896d78666
col21:   6769469459a99b6863c4a836a8aaa5b8eb8994a89cd99accebf786eab8a9aea9789976c7ab5cad89
col22:   4746796896b9a66bca75cd7a8967474a6b7ac7a786999fb9a6b9b8ac8a688db8aa96ab59b6a68c53
col23:   78689947b94a553698bd968b8b8c86888c7b7d696b79cb793867dc8a7b8a888a7b9bca2ce7daa5c5
col24:   4441431663a8c58c9c859c6876b8b8ad9af7aa28895b4e4b79b99ca89ca987753e769c8a77b39599
col25:   a578364936388bcc889bc88a9ae9c57ddaa9caae8cba697b8bbbaaba9dc87688c855b71a8b5977c5
col26:   a898a9a778886b5a98badae7b6adadcbdaf89aa6ba98ac6895dbceb5b89a8a9989adcceda995add6
col27:   8718a47c46c9c5aa498dcdaecdd9ecb9a5cfccd4c67bc7b88696ebcaebacedc9acafabb7b8f8bff7
col28:   74969cadb5ab7b87abee7eaac5ddcaaabc99ed7a9b8a9dcda67bddbad9b75b899cc8c7bba7fcb998
col29:   a8dabb7c95878a6b7c69a89eac9ad6b5dc3accd5dcb8d8da75aeda789afa86b6c9b78c6b9679c9a7
col30:   7167a85997aa6bc897bad8a9a89d7dddaf6ac89a688a88ca7c9acab5a9ccca7c76d45bdb77aca8ac
col31:   66ba9baf9caae9e8977fbcaf8cc9ceebb988887968bbbab98bffeafbbc6dbb7ceb8ccbcbd5fa9f97
col32:   585aa877a4f6eca9789eabb9b79789e8bbbf8dedab8a88eabfbb3acbb5ddec7dbaf39a96d77cb5a8
col33:   989b898d9dbb5ceacdbcc7b8ed4ad9f98caaa7d8bea9c9bd9ba9ca6ea9ca8cc9dba9cfc9a9bcca8b
col34:   87ad57b8989bcab9898dd77ababfdae8ca988d89d5aed9787aac8faac9aaadc5887aab678abf78ab
col35:   858babbba9cb88c7ac98a9bafccdd9aaacf69f98b6ca5bc7a9fdb8e8da9799bcbb9ee8cacd8ba9c7
col36:   69e9ca985b9cbea6bdd99995eaccc6e8d9d9bb9a86cdcadbdaaedbda99b7c777cbcebdfddcb9b7bc
col37:   ca5a43baba8c8cbd78de7d6ace8acbcbdb8be7edbbbacb9dc88bbadccae69cfaebe8ecbcf8aec9b9
col38:   99b8acd9cab96e879ab9b6afcecc9d79cfaba9ad96ebacec8de7cbdcbdeacab59abeb9e8addd7cbd
col39:   996e898cd875adc977baacdcc6dcfcaa9a7cfadfbfac9a9dfe96ffacceb9acf8bf99ebc976b8c8ba
col40:   a9aa9e78999bb955aecd979cba6ce9cb8deabfcb89c9bb7fbabcaebecadcdcbee97cb98d9aecad5b
col41:   9abb7a7ccb89879eacc9cdf9af7de9ccea7ea9bfbbdffceccdbb79c8c8b8cbf9cba9eabd8db9fcd9
col42:   a7bbaf68c8d69ba8aad4cabaed5f9ea9a78ab9beb9659fa988d8a9aa89caeab99587bee6b9adcafa
col43:   69aeaf98a9ba9c9fa89accaba6afefbbda8d9ccbcfebf899cacd6b9db7fcaafbdb7bdbabbb9bbfd9
col44:   2a8cb9ccb69bc9779cedf9adad96d8acdcbaccbbd9cb9c5adbdcab98cbd8b8dfabaf8cecbaac7fda
col45:   a7e8abacca6a9abadb6799bafc7da8fbbaaceec7adfb99cca7fc9c9bbae8bfed8cfd7ce7fbbebcec
col46:   683bb9cf9958a6a8a98cbdbdababc7d6d8bb9cda8aac5afeccbbfda69b9a9dbca8addadde99de7ab
col47:   cf979aa8efbbec6aacdbadadbcc9acfcc9bbba9caaeebabdaeda98e6bcde8adfbb8eddfff8dfbdd7
col48:   d8b9d9a9cb9da7687996adb988cb8cbbcbf8ce8b5dcb8fcae7ead99da9997eaae99aacabc978adab
col49:   a7b6bd7a6abbfa9a8a7bbc8c7de89a9e898986aeaddd98d9d7f6fbcbc9abbeb9afbaabacd9bb858e
col50:   95e9d9da8d7788778b8eb6bcd9cf888ebb79dbcf4dbcffeed9afddfebd8dbaacaec6ddbadfbdecd9
col51:   655195a6a7b4cbc799985c88aa79858aea9a8c964985ab978fa9fa7bc8aa5987e9acdcc877bb9aa6
ROC:	 BPix_BmO_SEC5_LYR4_LDR17F_MOD2_ROC7
col00:   5553676749725739366a5552178d99498659a6663988942727b8a6989876659985577775a6748566
col01:   776683585978a3355757a4c8789897abbb49c7a8b76587848a4795a999597b7473458788899b98bc
col02:   8577a47485739b98b87ac778957b65687876828667789978a8569c366657a7b87a6ba8c746a4a975
col03:   7668d7776859886b7b766758867a99956564c85897bb79689955aa98a8d6987976a6685644485dba
col04:   84a6b7875a467878859678987898a5999a657a64977a836a67b8a8858887d97b8982a988a8a766aa
col05:   69126964775855878c579c9a68986548b868849d8949ac7697a877869c776a9b788572c594727956
col06:   51455583755a6a3988a98679738aa5c9757a28b79766c7856778b59ab6467a9b77c9669858565a4d
col07:   85799577835865b56b97854659cbc5994979789459896696969897658a88bb77c7a686877888a792
col08:   5562785676644b866597a69a757685a7c97597686569966675584a978b7894b87a8c4a55998769a6
col09:   1a94a669b88887b66b5b7ab9969a6c7a7776a689aa9864a8ca8ac72589d69a879677c97a67858894
col10:   59475432569668d3a875696ab579aa6577b95769b78a6a96ad8996a9a5787877968565bd78a886aa
col11:   5863888846274a878bd68b783465a37a8868ab6968a596885b379ad4a69ca89b77783258779a7ab6
col12:   76466a59688a6a797b4679667757aa8c78875397c6688d79bdb7997777989a7a87648897a587bb76
col13:   66669a78a467c98ac875c95c6778a7bc887ab9a88d588d786886888998c79ba688967b885a5969d7
col14:   7657469192d6a8baa478a44c8987ab6888988699d9695c8978a697746ab783955b9b87b656848cc5
col15:   a8897598955686c68b4c8a5537674ea7b54787b646874b9b78ca999786788c896b7cc69796a6b989
col16:   857976a8456968ab867999897678a84338766a48ab757c8b5abb7a7a57999d6647698ca87475267b
col17:   6287477a5db786b798846874975899a69b9b87b4689a67a977b87ba48c967c77ca8979676adaab87
col18:   86364689645766888a77b9848669ea6688987869a947a7a66469a8978a79846c7a59a6b867a87ac9
col19:   5665877773a498977644a4888b45db697497a9997adb88ccc9bc8868a57789c9998bc7da7a7787b9
col20:   94733356865956589c6889c66a37896b7b85987989b6aa6675958ad57aa995b8769a799676777b66
col21:   57a781976567758699aba9a8769677cbaba6c8b8ca5878a7ac968557a886697a9aa56c7b98e4769b
col22:   b257864c57779686b9567668688d9898996a7985b8878b8666867cb4659ab5a82ac968957867c475
col23:   4543866a3444b7a99ba6a7769996a7776657b57a766a68889a3a7a964a7b8b6b78ba666545589965
col24:   4588783a887a95b69c8ab88ba799657977b89777a6c8caa596ab749795778789847778b56aa774a8
col25:   b9a46697b97465965c8bb988aa5ad7baca591b986c8ab797639bba9cbaa79897ab8daa795a45aca5
col26:   ab659bca498aa9b87ba8988a7aabc87899988dbbbb9d9a9aabb77dd8998ca86979a8b6bbb6b88d98
col27:   a876b77a84758797a899aab8eb94cb7ba9da8aa9b96798b8b69c8b8898ba6899b8abbba997ba9b98
col28:   d97a99a8666959b89d7a49aa898abb96aadd9a99ccb9ab788beab8a9ff8d8dacfaa3ab9989b8aabb
col29:   b9897ad8c6929aad98cbba8998997aabbac7a84aacea78b9ebbbb6dba99bb97ac9c86866b7799c8b
col30:   67baba768999c7988ca7a5879b8baeb9ab88aba9af99bf4be89a5aebabba69b9b5dccd7b5da797d9
col31:   6aa99c99ab89a8a6c99aa9caa89899a894b8d9cbb86bbab9a7faddbbacb9acb9ee97aa9ac9aaa68c
col32:   acbd96dda987ea9bada8eabdca59cabbbbaaa9ec6ac9ecbac9fbfcb7fdc979bcfcb98beb896dcbb9
col33:   5aa9ca9a999999cada8cdbac879d8cc88caab988dbd87ac8dbbe9ae9cbacba99f95cba9a98aa7afd
col34:   bbbbcd6ae79e8cbdaeed789ddacb96cad8ba9bcaa8abc9a8fdcd7bbc9aa968aa999d6a7998f9c9db
col35:   1c8c699ab9a8bafca8adcdc9cfaedaceec9da998abedbaacbabd9cca5cbb9ca95bab98acccb78bca
col36:   a8a868bbbbc9cd6a9cdbccb9cbc898aaa8bddc99dbbdcab9b8cada8bac89e8dca97db8bcb7c9aa7e
col37:   999a9b9f8ba75cda5cab88bbbdfaddaa9fe9caecaa7c9ba9bd8cd9dcb98ccbbb9a7aeba9ba9beece
col38:   78beb9aa99de8ec89dbd7ecdc9bdd8fcaffbe7ccbecefdaebcb99c958cb8fbaedf8bbbb6cdb89cbb
col39:   bbd65b9cbbcaa69dabb7b49db78cada8abfbdcfcaad8a97fbbaf99b8bdae9adaeaaccd9ecb8abb96
col40:   acaabc9ac8ac8bda6cadeb9c8daa9aaabe8cfccfabac98eddcccaaddcff9eacb9cabddb9fdd8fed8
col41:   bbaaaa9acbbbbdcddadccce98bdacc9aacabaa7ccffddb7baabbbbebacccddcfafaea9cd6bcddeb6
col42:   9abb8b9c8b878eafbdbacabbafece9ebd8ddadcdb9edbada9ccc8ea9ad9dccaccbbbfcaa9b9b95ed
col43:   9cdeda87e88dbabadee7cbdbd9bacfbbfbbbed9beecfbdcffcaccbdabacbeaeedfccc9cbbccbb8cf
col44:   aacadcbadef7cae9aabdfcfabaaccad9dd9ddaefca7ecfedccaaa9cbcbfaddcc8cdbccecaccadbfb
col45:   a6cbcbb8e8ddabbdbeedad9cdccebcabcceffd7ccd998adbaaeba9bded9cbeebcbaab99dbedcbaca
col46:   89ebcfb9a9acbe8addacdbbcbdddcf8e8dc9cdbddcd9fd84989e9daacbabbddbddfbdecdbeadc9db
col47:   b8abf98ddcacb7dff8eb8abcddfdacddbcbeffbfbacfcdecefcbccadfdacfedfcbd9cebe6dbdfed9
col48:   9cfa797cecbfcb9bbbc6cbb98acdfdcfeacd8fcdcebcbbd8cbdeebf8dafddbf8d7cecdcddceedca3
col49:   aa9adbd9dedaf9aaf5abc89adcaceacdc9ccfcdccecbec9df9fddbd9dfdefcbdaae9dbdfbcbbbdda
col50:   a9bd9a9cbcdbacde8ecbacc5aafdbbcacbdb5beebcbdb9cf9cecabdeccf9c9deeedddffba8dcedde
col51:   b87ab94bbc7988ca8d9c699abbcbf9cc9abd9b9ccbbcfd7c9ccfacf96daccac7baaba8c8b8b98bba
ROC:	 BPix_BmO_SEC5_LYR4_LDR17F_MOD2_ROC8
col00:   715a8b356473173786a7574a649a29a6a8556589797a957fac48529781b75a87587761374776b552
col01:   7a5b47bc3686b6a6aa4a5aac96b9abc69d63d68885496cbdaaaab99919cc8874b856695b6a659786
col02:   943aac8b23a3976aa968ca78579a96a9898d888b89b87588b957ab5af873a6da5aa6298857958963
col03:   45687892689c879b67556578abb8cc4a95b98aa89d999a8c8bca788cf6ba7ba866767ca5953664b5
col04:   3565aa5a9973279e9bc996a3577c8ccb95d9ac9e979c6bcb8a44ba8999a8a9ab878746c9b987aa24
col05:   8b986486685c87796868b78a469cbba866bd7897b899b8a8cba5c7da9ad59675868acac8978677b5
col06:   74aa2dac8b87468a8c8c859da8b89b858b8ca9bc757aaa87839797969597676bb5895a659a6bb1d9
col07:   91789baa586b5785a9ca86686a9872ca8b66b7aab488ba8fb898bccb5cb9b6934b76b9a89b7d9538
col08:   96b7c7564869b6b9779b87788857c85656ba9b899cc888a896cab8a588baad78c6d65a899babaa89
col09:   4ea75498dcd977892add8a88ac8d878dbca9cdb987b2c97ac3d7a3c88baa7ac7759648c9a6a86a59
col10:   55677d555667578aa799d7c657b9a9ac9aaa9a989a799a99b9687872a858a8989b8b56695aa84b77
col11:   155796748656875486ba6848646af57c9e65a9d7889b5999a8e79a9b6c5c998b8859bcbc7c4a9ab6
col12:   73388875786745ab398aa93587b5ba899abaa89da678a8cad6ab9a477b99697c5a977b68a9355889
col13:   d66b89653a838947a9848a868bd7b9ba9ab799a9cb377ebd8c8a65aae7dcddd8eca94e98b7979981
col14:   78e9d843b7a448666898b865aa8b76a8a9aa9e99ab798e9cc88ad9f95e959cc7a57c77a688869579
col15:   46da6a9a88799b878bc588a96747c89fffb7bb9ca8798e9bc8c67a7ab8c89eebcb98686784a6cb44
col16:   a998bbaa7a8686594b6a8b8b966c86c6cebcaa7ca88bb698966887bda77555ad87a87a76788656b7
col17:   a565749895789d798a75b7ab66a7d72c7a9acdba9c94bbc7585fd79c95a5665b977787a576a7aa57
col18:   6946596a7766ca618987185a389998b87629b9a97bcdd4a8e656876799586b95665a6787765b9ad7
col19:   4636759697965a58997ac5a96b9b6ab87965bab88acb8b86979896bbdb6a8bac7a9d485e7aa58a97
col20:   5895c334426674cb5d8899a9a6a99f8c8ab76ca9a82ab88b5bccb9be7999cb8788788c7b65688855
col21:   67969ba876bcb7ca81799b9b6d6ba899575b99a69c7b769c9996a9a9a99c6cdc9ac7779d6966b67b
col22:   768b479c8878628ac556989a9595a769c98ab9c9d9b8ad86977986b5ab5768889a5d86888bad7464
col23:   6732bab75564a74d7c948ae7a9ad78a9bba7bd7989a3ba9aad9677c9a97ad8a99c875667857c2885
col24:   5a77676b696598bb91a959ca9cac753f7b97a94bed6c969bacabc7b8aa98b971727a9a48768737b8
col25:   5439cb7387a494c789897c6887b49c9a8ba8b8a75a97ff666873d6b9a987bdcf5c46d896dbaa9885
col26:   a2a86a6a6589b68f7c9697fbf97abda9ceabab9258daccad6bbfdca7af98cad68d9ae99698cb5a88
col27:   86d7ca7998babbe91cbca858c8b7c9ccd7cddbcc8a9dfbcadab9eabc9d98c9a8d68a99d779a679b8
col28:   77a96dcc8ba4a855a669cc6abbfbdbfcad8f8a7a6fc7f6a9abcfdd69cb66a7ca8baae6d9a898a899
col29:   6888c7879b99d88bbac7caeabbc8aaafbcaddacdb979a9aefcc9fac8f88b55cd7788adbac7c8ba9d
col30:   bb67967aa8977c7677a99a6d8a5988d9af9ba8ffcffea8c9accd8e9eecb9ccdbb9bbbcc7994ab4bb
col31:   6d89766ba588dbed9beb9bfaa8cc9f9da4affbabaa9dc9bfe9dbef9c8aebd9a7bfbdcbbaf959fa93
col32:   ca867e959b8ab89acba6baab8e8aba7dbceaa7d9acacbadeaeeabff8daf69b9ccacbd39ca9dbe86c
col33:   9aaed9a96ad9c97c99b6ca9ccdbdccbbccd8ccbec9cb89ab8dcee9fcfb99ac9c6d9bc89bedbe9baa
col34:   93bb7cab7bc77948bbf89ca9acece9aaad9efbaecfcdafd8ccbadfaafbeea5cbe6cbdcbbb96ab79f
col35:   44e5c95bbcb98a9fdcab8cabac6cbcb9b96a8accfc97f9ccaebfd7edafe7dde9b8ddef7a8867f6a9
col36:   84bb9acba799aadad9e8a8ba88dcf78baced96ccbcbb9abcafaaeefedd48f8bdbca69aaec5aec959
col37:   bcb488b89eefca8cdc98ffceecc9cfddf5bb7a8cadacddecd9ffaabcfeaccfead7bd9bc85ba9fe96
col38:   bbd868999b794ea6cdc9a9f88eaa69a9dabfbbb9f9dbdce8ecff9bc9dccbcb9cdacdeac6cb7c8695
col39:   8a5acbabacbaecb9fbfcbad9d88ebfd9cafadadffcecaaaf9ddb9de78b8d9fdeaebbb9ac9d9baabb
col40:   cfbeceb88da67dbc767d9dcdfc9d95dbdd9dbbfbcfdc8afabae8fabeadcbd9e9cac95ccbd8ad8bc7
col41:   85a99dc8daabf8a77aecb99f8bddefbffc9ecbbef6fbbefafed9fdbcf4f9ff98defabaa7e6a8a7b7
col42:   98777cca9d7cb9988acc9aab98db9cfecbc4cff8fcbec9bba6fdfcead99ce9d7df9bcb9c5a9beeaa
col43:   a7cadec9b9b688b98a79cbccfcedeabfffdeb8badcbccaeffefbfcbfaebacceb9bcbc9d8cb9fb8fa
col44:   84f847dda87bb9cc89ace999acbbcfca6fcdccfabddabbcedbacdfca9afe6aecbcababcbb7779aa6
col45:   a8a6c87c99bddbddedefae7ddbbdb9eae8bbbebecbbfbfc8bbceafaca3df79abcb6b9b999badabc8
col46:   d998ace69af46aaadab9bd9cccdcbbedf78badb8c9ddfc8cfaceedbcb96abbaabbb99bd6c9aca9b8
col47:   ba678b7b97accdffcbdb88acae76c9fddaafdafffbcedbabff7aaccbdbbfbabd78deac9acdaaa5a8
col48:   7a79f754c26da7cbcc878aacbbd9aca9af9996dae9bceed6cdb7ec9ebfbfc8b8c7ad6dcb8fbc47db
col49:   dad69bc99cdacc9b68beccffadbeb9bbadeaeabdada86cfcbc6fdca99bfbcac76a9cfbbb9bafeef8
col50:   7b7cacbd9fbbd84ab9afbdfecea9e7eebcdb8fcddcd876c77fc8ebeddacbacafa4b5d8ab79e9cf99
col51:   798896d55d7e5b9e7fabd9cebcaaaa859a77cabcd8b9b6584c9869ebaafaab9ac999b4a6b6c8a7b8
ROC:	 BPix_BmO_SEC5_LYR4_LDR17F_MOD2_ROC9
col00:   443725876885699365576694979c895898477c3a6ab8b4883675954896d7576b49d436b44539a658
col01:   87b5c7684b58a758756985a36559b993f99a9388888bb6c898a8ca9a9669a45585674c6925a8966a
col02:   6215977998baaa5958a65878b99b678b76a69aba99b9a42ab86f899387b987a96686576b76b87455
col03:   9957749989a9887c6888dba68aaba6a9767adaa9a5b8997bb787757697b8579557997985878a7556
col04:   5b97954abab7658969bbaa75a4a89c6989a898646e987876b79cbca886869888a399d47777646888
col05:   466eb6686a188867a6c547a5a885a89597ab9998d9a7889ad7747c48b9b98998ba77889732467775
col06:   787e6b46a98a97b7778ab7668ab9d85898a897a89688d9aba578b8a9889a9a666895a5456b8e8479
col07:   a5237b787a9577775cb49689787568aabb86a889ca99b9b7bc6b996987a6ca88a959b7b5a897cab6
col08:   7a658578b5f779b99aaa99466a6885979a8969a5b79697bcc57a6ae747b995c8b79857744943a3a3
col09:   4a93a8a877b4788a746ac8a87473946979cad8b89b8979867a6a898b89a67a888a8598c787776a95
col10:   aaa9aa99586985c995c64ba7898488a899bdb6596f38a97c59a8784a95cad4ac864676d79e97a683
col11:   3a58a668577bbe6a57a86d8aa7adda75aba79e986a9aaac898b4bb6b9a7ba8a9675ccb6994539b6a
col12:   685ca77a89598625b585857768ed84a6597a77aba9ca76759bdd87687899a8a67bbb99646a895853
col13:   94967959a87a95b77989a97a89aa7d56ec8cbbcaba9babbac8888acba9bc75c57874ab7248a84bba
col14:   368677889ca4568773e89766c7779657ba9a8ba879999d9aa89ca99caa5bd9888bd956a7786a8874
col15:   76b2756888a97599b9acb895a9b89a9899a79877ba76978baabb5879a86a638bb6996a8a7467a963
col16:   598897b79a677b45196b59a9b87b79baab8b79da7bffdb6889b9a9aa5a87a8b777a7a87778777748
col17:   682879a76b8aa5794988dcdb7668789848ad379a978c89dba898c884baabaa58c857878667b76b69
col18:   696645bc3944b66ac5839277887c5995c66d99585865c95be8967b87b85868744778c7596a759977
col19:   c398ba8bc8a747649dabc9baa8895bc997acd5c697bbac9a66b7a9ab99988a994a8ca399877c4862
col20:   547a69aa5a7a8bb6a77d8a9866b6c9885f9987b8d869ab8858a959ab68db7a5767b9a758a448a568
col21:   786495898a8667d537a4b9787c7c9c75aa5b991749bbcab6bc9b95768ab879da8ca6c7599668ac65
col22:   89764d96547b7a795ae48b9a88d979888ab8bc77ba9aad4b8987ba8b667697ab6798c5798a6676b7
col23:   7b58835769789738db59799889db668ab7ca956969888bab75ca956689998ac975566b867bd88b96
col24:   868599b776a8789a76954577c9b6768ac8b8e7ad9b96bbb99c959b89a8788797d849566a94b77a68
col25:   a2b87799e749897c988a4d997abc59aa6cb5d9aa99fcbaa9a5a4aa869aa9b99aa8b69898a86c5969
col26:   8b9a8addbd78879afd88bd9ac9b89888ba58deacac4da8c7bbbc9bcabac66aa99b8bbd2bc59aaa99
col27:   5876acb77ab99769ada8d4daaa89f97b8ab9de5d79bbdabaeb9db99bca7899b889849a9b88ba46c2
col28:   aa9869d9bb95a9d7d7c9d9bacbbacb9bbbb9daa9da79ee9b7abba8e8b9bba7cb8c6b99d7b99b779b
col29:   9358898ac69577a5d78db9bba9acadac79c9fba9c68bdbdc79eebb8caad787c6b598bb9dd57d8b85
col30:   7498b98a8ababba59a89a97aaabfa9ba99cbffc38a8d9bc99bb6cebdb6c7b7ddaa89cc88ac859ad7
col31:   5483a77acb8dd8cacddfaabcccca99d6d7aedace79a8eacbcbdca8d8cbb8c8c7cdccbd687a83bc67
col32:   c977bd8a9bb4486968aadbbccbbe98a8ce97d9bab9dddaa98bdddfbc96db9adc8cea58eb99a7b8b5
col33:   865888b696c6b9baa8a88bbce9bfdbabdbfd5cbd9abcabfa7a79b8cb6bab7a7acbe98955bc769b7b
col34:   99b7b4e8bb97cba7acbccebbcacb9cbb8fd9be7be79d7debbedfb9d7cccbfdb8dbc9da89bb9bdaca
col35:   8a89646b98a577a8ee695cb98a9dea9d6aeddeebabfdd7aebafdcdbabcd69abcacabb52b9ca797a6
col36:   7b8bccb9b97a9ba7fcdcb9c9b9a8ceaac98dce88fad9a9c8dbfdbb7cb8a99bfaaca9b6bcb87d5999
col37:   77ca9ad98a78abab79d9cdcbfa9bbbaadabddbbaaccadcea9edcbbbdcb879fcca9ee89ecc97ba6da
col38:   683579a99c7bcaaab55abbdecbbeffcccbbcced9bb9ae9fddcacd6cccb97afddc888d8bceee7d99d
col39:   68b8b4957aa96ab98dbac986cb7ebb9cbaaecd9e6acb9db97afbd8dbbdaa78cb88a7bada8c66dcac
col40:   9999d87db9879bbb7d9acdbbdcc8abe9a8fabc8bcccbbecfdcadda9bacbeddbf889e7ca9d9bba9d9
col41:   a798c629af8d9c8cdfbcbcd8dbafcb3bdbfcbec7aedcfaeaecbcbdcacaccacdacfccecfb9a7bcf97
col42:   84b9ba97aab778c7ac9dbcf8b7adcb7bacbdff9ec9bcedbdc9cbcbdaec89afd6ba8accdabac68ac8
col43:   aaa7c7a579b9fdcddbdccdccdcccddd9dadbeafec6dadfd9ffaebd9b8bec9aa8bedea6bdffaed7ab
col44:   847a9a7bccbfe9a8b7b4acd99e7fcad9addcbbc9dbaecdecbcd9cec9ab9ca98de7bdaeaaa9999ee8
col45:   749aafa9bdac78baacba87b88a9bbb7febdcdccbc9aadd8afdcbcebebbcdbbdabc7caabbaaccaabc
col46:   79989997dc8d96acb79b7e6db9e9ecde9dcacccbccbde5d9ddcffaacdea7dac8ebfcaec8c6e9fda6
col47:   9896daa9c97b9d77acfbfd8ccbefcc99bbfdbaaeecfc88ac9eeeeceaeb8fcd89cdc68a8b8ac6dea7
col48:   aabba6acbbaafdb8b7fdad99dc9dede8d8bccd9ea7fbababaddfefd8cdcdcfa779b8e9c5c8a7a76b
col49:   b989bcbddca9e8e9eacb7edd7ac99f9bdadbbfddbddba8cc84bfabccbbcabdedddbbdb886b9bde8b
col50:   b889399b8cb9badb7aa78dccfdafadf6bd6f9bdd9ecf9cc8e7fddfadbbdccaa99fadac89fdcdd7b7
col51:   9a935a8699c779c9a76968d9bf969da8a8cfac8daadfa7d8f9eabcaabbb9a98cb886b3bac6b18886
ROC:	 BPix_BmO_SEC5_LYR4_LDR17F_MOD2_ROC10
col00:   4657545877537443376967a878955766945477297548846ab6347565967693668855634333118682
col01:   5a76759a6788aa76b549b97897787b89b88776995b8b79972659898574b857acb9a8b89427771936
col02:   176978154dc447965e5b87897856b46785a8b6477a86769c88755a8596892a867269335794779927
col03:   6877596b7c8865ac984c7898da8b89bb77eacbab85e8c895b88889946c9813718484556534394275
col04:   6756687a5999b9839c8c7a7a5b876b89987a79e7749db9a98938bc886796678655a98597772c5991
col05:   456442d43a6545587a559957797a97c75a46abac848676985388d76b9ad593577ab668cb63a66597
col06:   7449766976c499c73b852589897b98b9cc7399b685a987b98572b5756846a57864759449926356c6
col07:   665438676769a286a777a4b78978c4b995c99bba8bcadb29959ba58678c8a47c7b5666b769753555
col08:   214734896a9a9488868a84679987a96877d9abad9847948c77879799679884747467219384736665
col09:   8496947567caa7966a8634596d7675aa99addb679d9be696b7b9ab5887439596677a4957a988756a
col10:   7883a4485878874c498774bea868b799cab9c6a84ba797b89a9668a7b8777898c493867567986895
col11:   4469648a55699396287548a698baca6a897a788baa548868888a7396747962b54869ab9596787666
col12:   878596995688748c966674463ba995c56daaa8b5bda4a696ca8978a7485764e548b8369887865763
col13:   52b687a63c5473778a458358c977ca28888b889bb97a9698d5fa93968be8dc7865a6e87769a8775a
col14:   63469475a439789b99768489958a699969c96657964757a9865788423b6488a98728668b5745361b
col15:   57777ab693c6ba8a69b7768ab9766b937ba6cb7699a79776a57ad9a8a4a9f97879685b6975336777
col16:   68616626c57577d95cb59947699ca86bc9a97ba3756987bb98ca9689877a7675a93776925876b875
col17:   2948b6787178577b74796a558a67c77aaa74575c5885867578798b96cb9955468996854954a69a76
col18:   6593843b7b857854d54aba7a6bb19398785954ba968779a79976686ab598c67a7a65689785547788
col19:   97785b6a5c8f646873d79a8487b62778987a79abc8a89a9889987ca6a795545875e977746c858548
col20:   561b276965889a7c2975594a3c7bc8937989b78ada4379b75894cba58956438879a865976a483774
col21:   74a28585959446487975a9a998ab6a89ccb86ba687c9be77a767b5abb6a598ba47588634aa8a8555
col22:   5683a9669686569924b797f754cb5856db977796a9ba475558a9876898897a6167168c7489664484
col23:   6886a6485459cc44696766873ca8ab8989588ba89a87afbb9a8ab742879867468948a364b8754a53
col24:   b57455384785bb85556275a985a5aa6a6888a7b698b6bb8977879a58aa8977a6b556538566347a46
col25:   95288466857a876468698e8b9b8b95b379a6798bcb89ab4899c9958ad9787a89668a64a858598338
col26:   69968d76bab879878babad6997fabb99b9ca7d84beb9b7a99a6a8d889baccb77a9b8a84797a45652
col27:   96926c66698697a7578ac945a9c99abd59cc79bbba78a8ba768caa9acb8788a68c8a97678783d998
col28:   a5749996d87ab87467a8d9d9c97bf99b69a6c94b758999dcd8cae8888cdbb8786398ac8735a58877
col29:   9a9855557ca869c5a8bca4a8aaa9a6bbdcacdb7d8b95ea7999b8cbc9b7d8a987e88cc98699989b74
col30:   769a57c85cb6b6b74aeb73975f7cabb7d98b8b9cd9b9a8b87c96fc8a98aab794867b768625957985
col31:   5699748a8a9699baae3d7ba99abe7bccb769a74f7bc8a9d6eb9ad4b9aa9cda6cbb5aa65a9a699466
col32:   797c665b8792b7487a784ca59cbaadd7ec79cec79b88c79a765aab599a89cb58a75da87a58b43868
col33:   d67c659b78aa98cc789ae867bdacdbcbbabc99894dcadaacad9bdbbccea7b699b66a98a9766793a2
col34:   a87a6df78949579b567ba99c678c8adcaa8a89adc77998c9dbc6ca789b9b7c789a8c5c67b9789637
col35:   c88678c9dc75958cba5898cb6abecca8a99b69b757babd98d98785aba5a8989a8bc9a67995768668
col36:   6b89a78cb5c9749aabc866b98d889bc7bc79d9faf9da9c7b89a8868cb98ac97956eba7767b598549
col37:   2656a9accc7ac5b87a8dbbc7bd99acc7faca9a9bb7e7cbb6c7d987c89666bcdde78c6a76c9998856
col38:   86ba57498b85d5bde8aab89977bd76da589c8ebcd3a898787dad978a758ba86a878b9d4799d9997b
col39:   b8697889d9a8cdcbb9a9bd79a7988c68b778cb9a9c99a9a9cd88a9a87cb7aaeb7afb9a59888ba98f
col40:   e76ddc98a8987a98b9669ab789da69b987e9ba9caec96d7886baa9cb99abcca9959784b588cd5aa6
col41:   b879babc8991c8a99cdbcbd9b7b8c7caacbaa9a9c9af9aa997c7ba8dd8fc77898c9999f85a88a387
col42:   a85988958b8a97c7aab58c98acc6c596a878cbaebda7b8b5c8caa7abaa76eb97aa98a94a61627689
col43:   69c6547c98baa59a8b98cd7baa966c9abbabc6ca8bc7ecd6bac5ca8758bac97d7ba6978a889b79a8
col44:   1188f9a9a858898c4a7a7ac6d48aa3d977bcca98869b8a7c99faa69a49bc9c98978abc8ab8aa64a4
col45:   a474a59b9cbb7b778cc68b5a9d86a8d9eebbb8aab79babbb978cbaa7c675e6a799a8aa8abaebc9a5
col46:   67597758addba9b888a9a99c9aadba9daaaa6cdbaac9a9967789a7daaaaba799b9897867a8b736a6
col47:   a9485aa899e2d8b9a359ca6acae8aa3aaea68badcc6abb87ca86bc87cbe8c7c8c9939868759b1582
col48:   686749895a8a666ac7b6a8bbb4c4aaa8dba777e7e7996989dc58779a9f75a8869949ab9596ab9776
col49:   a796c467ba847979569999a674d89ad859a989b89bb8a578dae6da7dbb79ccb8f9695589a9574488
col50:   a863b87ba4c66967a69955887a6696bba889acaa8baba7ba5998977bac96c77b69bca7abc7272894
col51:   768886766583665865878b758673556897a58326758149777b4794487997a884694695b862497483
ROC:	 BPix_BmO_SEC5_LYR4_LDR17F_MOD2_ROC11
col00:   55235626957455869557899757a3826ac747a5785a8645a79ca85637d666333a4869487397588382
col01:   597a5cb993789864c699a996f657aa79756b778ac767f36aca68879b9aa65a33668ad16894874497
col02:   8c9457b374aa789858b5b9a6a5c8556769856a877888889a7758b768666a486e746bc95681859977
col03:   88782675568547b5a68886978a88b89a8987887a8bc79988657ba97babab98999ac58769e6486a77
col04:   a54776928927575ba5688795855a889c7679b8a969a8956986867699ac63db5b7aa8972696674776
col05:   d45988c15724938979b489a8a66b96aa887a686b615aa95a695a936785857959cb8867a3859b5458
col06:   86298588447a679bc5a8957675ba65c89a387922b98a8872b998799b879ab86a9778848297776557
col07:   665558bb497765786aa9996577699aa86684e5a9798987aca578bb88958798aa967498c69a9bc656
col08:   b995b68b4a6a66c877a886cbbc797aa5c6aa58a8787888479898a7a778b8b76767687c8838c6a764
col09:   887b387777686889c9997c56789936569b6ca9aa7494da886a9889897a76b97a987468c997b96755
col10:   4157873952785a8777a779b3986a89dc6672a9a469aaa8775898c57d9c89b8b87987995916686aa8
col11:   53a967949787a77a8884df5786ab587886fba9958b9657b95d9962689577b365553b687b94c78bb4
col12:   c6787853a48789bb697778a68984a5c77b6aea55766a6969b5577779b8c89895a699c63b558698c4
col13:   81775a989846696a6489ba5a948bca99a479897888a86c7b4a77b3c97a66ab8986985b758555789a
col14:   69565466a865c8d5a26845b5b69a3977e89bd5a6c7778aada3688578984cb7b3d7a4b1676c645a55
col15:   a168a66873c56b787aa74c9777778aa9b7897a79c8cb976ab89c6748a9646a8c67a69779697b2994
col16:   775a6773757ab9774aa769a66778ac88a86a76596a8486ab977c59a9767aa7786a8968a3b1555776
col17:   8161568567827a447aa499998aa9554869776d769a7999c9b9ab7477647c9478ccb3546848629986
col18:   69885656a6537b6d837987c7346c48575d89cb7536a88aeb5a9aa878a767968869767669688b37d6
col19:   c459a5565aa16aba4748ac2aaa965ba4ca4cda56a48b5765c8699a979b9bddaaa78777a966959995
col20:   957324d77aa74a9ba679b89a9a799bb9ad886a9987969ac9b878aa6a848677998988ab797a786a85
col21:   8874a7681558a277782988bbb7bc58397c7a5745a755a77d578a886667998caa8b94974796959675
col22:   7b8bb27686645a7a8b74a7b8c57ad685bb8baa66baf47a964bb95a986c6877ad7887888a96b6a659
col23:   1256c585a8766b636cba6988997688cad59758a9a97895859566a787a989693573aac6797c4a7866
col24:   862a55348958676b9985855aa69cda9a88b8675bb68797b4e95a998968768c9ab69465cab675a5a6
col25:   567a826b9aa5a8abaa66a3c788987866699a59b68b578a8dbbdac9649883c8c6b7a999cca7b85689
col26:   8558c6a9a897aa9bec9bbacaa9d8db8b89ab9daa9b897bc8b7b8a979996a6a89aabb8aa77be789fa
col27:   a75bb7b64b997987d98a97a9b97ba894678c8bb789af989a7b779bdc9db7baaa777bab9cb59798a8
col28:   a997b76476d678788959a6a7b8ab567adbb9dcadeb769a7d9aaeccfcb8ca7a95abdba9c478b8ab6b
col29:   b99975cc65a88b4bc87bab6b99bbcb97cc9bdca9ba8a789c89bbab76bdc87b98dbb9cb95758a7aae
col30:   848aaaebb887b77cb43d84aa6a8a8ab99796a997bcaecf9cbab9bbcc9cbdc8be9cbeb9d8b8bbbb86
col31:   899b966caadab8bbc9c9ffd88aa67adae98dd99ba8cbbb8ccbb799cecb9a8fa98bc8bebbd869a9c6
col32:   b6797889a899bac5d7e9a7ba9d9becd86cc8d8c8dcccca76bdaceadcadf6b9a8fbcbcc9bacdbbafb
col33:   a53ad886e56ba998b9bfbbc784dcc9dbfc88c87e8a7a9abbdadcbcaa9aacfac8fac9b8aeabddaca6
col34:   a68999a8baa779a7aa8b9a8dc999d5c9facdc9abcbfb89b79be9bb97bc9caabc99dcccbca99ab9c8
col35:   97a997b89dac9b8b997b99cf8e8dc8cacabdc7aca8adbecf9c7dda6dee89eb99c8cac58b88a5dab9
col36:   9776a96db9da89d86ba987b89c8dac7bbf7b8bcebdccbbaeccfee9ddbcdcbfe8c97ee8fbac9b7da8
col37:   a9669ba8badc6aa7aaa8ddbbabfcfafbbedcf9efdffdeeecddfcac9b7baec9ccacfbcc9ba96aeb9e
col38:   beec98baac8aab8dabbabc9ae599cdbfccebeacaacdcdfdccfc8dfabca5dbb8ccce8ae8cdcae77ab
col39:   4568b98fbfb9967dd6baed9dc8d8c9abbcabcdabac8cbbfa6cfaeabbdaccae9fc7d8df8c8dd9ccb8
col40:   c796aab8b7ac8b9dacf9c8dbde9afdb9cad7c998bdcbd9b99debcdeeba97d9eec9bbefdaebbfccd8
col41:   99aab78a6baeb677fb9dbca7a7ea88aeccddb9e9abdbdab7ebeeacecabfbd9bdce6bbdd6a8fcbbbb
col42:   95bdd8cb5a89baac9bbe4eedaccfcad7ff9e9badb6dcedc7aedcecfefedd9aabcd9b8fe9fc9eebbc
col43:   9967e79aa7eeccbafeaba997cbbcdebeaccebbfaeabccbe8ce9bf8fad97bafedc9bbdfe85cb9dccc
col44:   87667ccab89ac8cadaaecbba7afacccfbbeafffcceeccdadaeebfcfefa9bdae76dbfaccdf79fba98
col45:   d97b87d9da99ab86cb98ab7acab9b997af8eccdd8bebaddecbbcebddadc8bb9fdefdfc8babfcaae9
col46:   8b98759adea7cbc9aaac8bcba8fcecca7eadffb9ad9aacffcedbccbc9cefdbdae88a9e8bdd6caabe
col47:   9bb88aab8cca9f9bda8a9aedbe9cbe9cccefcefaffcaaedcfdbdd8cbdc8cbdeac9eadfdcc99fdedc
col48:   b56b9b9cbd9a9d89ba9b89aeb7dc8be78bbfeede99dbeefaaf9bfddee589ecfcedcdcababdf9dee7
col49:   69accc76a85a8b5ecbdbb9fad8c988ecaffcc6ceead9fbabeccaababdea9effbcefefddf8cbbe9b9
col50:   788a98e9dcdbacabadc9b6ad9aedab8cbfabfdcae9aefdfbdedbb8ccedaacbebcec69bfddfcd9cfe
col51:   aa6957756bb9769bcb5ab6a896798998889bf7baa8b7bbab7bc7dd97a999bba89aef79f98c9eb8c9
ROC:	 BPix_BmO_SEC5_LYR4_LDR17F_MOD2_ROC12
col00:   641778775669589436973997a377abc85547598c75667666744b59a755b689bd87dc6d98a8789941
col01:   46967417675446347755887863a676629a9ba99ba5cb75f7667a946bab5494a88a8a9c688a77d6cb
col02:   924124877688823745627974777679176868a45687958a8c2884ba879876798366d787979c298699
col03:   753473167995a64c28577477a6a49d96e587ad49b755957aa4739c63895c9a7a7b6b679999ad69c9
col04:   45b2669555355366719646997366c45b4a56689a759d665a6628c7a5aabb9a587957c9a9a7759868
col05:   a493331295a538784895943a88a47579a6a9a789567fc93a87169a79977bb67d959ab9b7a6a8c796
col06:   a7458524745676bc5495a849768b85d97d9848ac667886997a8c9659b967cb795656cca5b996a579
col07:   76777518546935557a42589567a777a55789a9755b58c657776b8a7a7b56a8c69e88b8b9ca58a789
col08:   2837271445b767466b137546388669767874789959b8a8679945749b767959787985688868b889da
col09:   b7a187567566988758c7798a88bbb69bd77689db9878da95395c7c7998b767765bb7a98c66eb7818
col10:   85551b4b94b9392778698853998485d87a8a98b856a59d8d9b978ab986c6937cdc767a6abc689ba5
col11:   866a6759844546254869b586d95889449c7a4bb98975a83d734f8b5875138379b7c89588a5a57984
col12:   67674877446984655798969b79aa64ab3cb9dbc6b9e7a7a5848b87ba7697b7899ac994aa719ed7a7
col13:   36199b8685765589ab9a8999512aaa948b9bb6a4799b8b9579759925a979873ada8948a9aa486a39
col14:   7428767899576788249675a65897875a78aa51cb93868759b2689887ab4b8ca997799aa9b75aa664
col15:   b657a5644657a8966b3788a687b7785a9c58258b987abc55b3c6d895a869b7c2f8a8a9445239a877
col16:   4a455e3546968a988d8655a5c966879a87b86485bbb4984987a79a685997aa985738c7ba7db48849
col17:   565459b683b87938996a785a985b8676d8c46861973d77a88877896c988578497a466548b569968a
col18:   9a646986748796949b9d3598a37c67597a868bb8ab2a8c7a6472789a88b958ca698d8b7498778357
col19:   97a4b7717859a6a83387386b3796ba666989bc688a986657c87a9aa8ae85b8a88977da8aa886c677
col20:   9189b4c659768a6a6776a9a6ba6ba84a58a698b88c6c8778a35a957797385b6a3588b58798a8bbb4
col21:   767a56d857c7765a64986386c6693586778dace3ad5ab4b5949dacae58aac58a9bcb5a2486a52653
col22:   55567a7198aa47d4754c676a75b886fba989689a69589bb7e8a378765bad84d546699669687aa9b7
col23:   14668d2497fa59a68c95a9556cb4897866c63b998859aa96586b55d5975995889b57a76ad5a66ab8
col24:   85a5527689879566a955878ea7725785a35ba78e9c3bb94aa8b77777459859a77a6978b5aa679974
col25:   664bc967aa68b57cca88678a97b95aa869387978e966958a69893b3c88927a9aaa47465b9697889a
col26:   6da9c7f7969a87b6c6b3a69b8b98bb9dcaad877a99b7569a87a7b8977d877ccaba7bd76a79b7a997
col27:   49b68a87c8757c8b968b7a84e8ab9bb787b8bcbaabbecb99a979a8aa6b9888a78c598ebd7a9cc97b
col28:   8b67d6be98b96baaec49bc9bcacac78acfcbcb9f96c7a9bddbab8faba66bad698cfb7aca8eaebb75
col29:   67c8cd5ca5cbabcbbbeca7a9d7eab79a8ad67bcbadf65aabddbbf7ea89cecd3997b8cdc8aa985dda
col30:   a6b4cc99b8a8ba9dcc9bba9b7a986b9b38accbdcc599c4ed76d7f6999bcbcc9d8cd96cd6cc9daec9
col31:   8b8cd58f86cfac9999be9a9bbb87d9d8898fdebccbaf9bdbdceabfda8aba998ddedc8f997bdc7abe
col32:   c868a8ac98bc7ab9caba98bbadc8a78bcaededf8bbaa7b69a7a9afc7fbab8ceed59ba8b99e89abd8
col33:   9c9896e99fccf9dadc8fa97dcc95acccdbec9cfccf9ab4bbc9acfeda9daabc9d996ccabb897cd8bf
col34:   ddaca89e7bbbbc959cbad99cabbdf8dbddbdb9edcadcc8ac8d9dac9c8bbb89a98cbdcda8daf5c667
col35:   fcaad97acebeab7acacfefb9b9cbfdbcddfcbbbecaf9a58abab7dbabc7eacc98ca8ccce9a7b7aba6
col36:   fa9b9cebc9a7dbac94aefd6ae7ccc8bcab9bf7bbcaad8ba9a7c7cfb9d9bdab8ecada99ba9baaa9b9
col37:   97aeba9dd6bcad6caeeedceac9fddddaa9ffbca8b9daadabda8ccc8ba7bafe5b9efaba987afeebaa
col38:   ccdac6d7dcdbaeaedc89aafbafcd98aadc9d9db9dbd9caccbeacedbeccccccaabccb79ddbabcf548
col39:   9c8bcbe8aafcbccdcdfcada97fdac8accdfc7bada9cee9cbcdecdadccd8dad6ff98aaeca99e5d9a8
col40:   ebcd9c79dcfeafedfdccc7dacfab8c9fdac5daecbccdcac5d6ccedbadbdeaad8cf9cbc9598ec8d6c
col41:   99abc9cbcbd9c9efdfdbb97cfbd3b8cbbcb4dbeb9eaa9ddbeba8aadceeb7dbed9e9e8aeabcc7d8be
col42:   e9d5cbc7bad9bddcbdcebfbdaffbcddadcacbae79cac8ccc7ed78efabbefadbce899bf569c9bfc97
col43:   dca9ef9ddedcfbd6eff9ccdeedf7ea7dbbebdada78a7f89caedab9dddeba9ccbddf6aab8a7cca6b6
col44:   cbc9caba6c8adfe9deebee8bdd7b9acffa5eccccc7cdaffbfaddeb675e6a78a7e9cb9ebed9a9bacd
col45:   99dc7addfecedddedcad8aaaab7cdabecdabc9a97bba6bdaf5ddcbdc9a9d48ce78b9daec6bbcdeeb
col46:   ed8dc8ccccf7dfbaabfc7baa9bdcebed8ccbba9caaa8b8d8fcb88ba9c8fcdb9b9ccecaaa7b8fa9c6
col47:   bdbbeaebdbcc8aa8dbd9dbbcab9edfe9afdac7faebabcdc8fbb597cba8baa99978d7ef9bbcda8586
col48:   b89b9f9cebbfafbf9bbcc9bcaac9cfa8dbcb9abab8cbcbb88eecc677c5cbcb9a9549aede9b49caab
col49:   4eeabdc9beabefacebf9ecfdfd9eadccbdedecfd3b98afabfdbbde98897ceccaed5ba8aac79ddbcc
col50:   8a8ceada8dfcdddba8eceecb8edfdf7bbbbecaa8eabdbaf97a5fcadc6a7a9c8cf8cdea5dc9edb8ab
col51:   475ba9a9c9c8ba9d8a99cc89ddaeabb7caade9899ab9aa6b9cd6aacdebc8b8c77aa7a68be887b896
ROC:	 BPix_BmO_SEC5_LYR4_LDR17F_MOD2_ROC13
col00:   78758934c53378458752ab8477777767599b887745452998d778c8c3778d6554556b7347a2a15654
col01:   7586a778a798b776767479aa56b6967c69864ab799798b988b9875b9ba9975784865b7a5a8758488
col02:   75788979677654578787855b89c6a98988a6c7d966865ac57ba6a9489b967579a6b6574688618865
col03:   757856c7b3a7a78961c85878966e96c996ca57ab6cb77a67a4d5aa68968656ac7698886989745966
col04:   66578a665695a697573baa8b586bc8acb7a967a794d8465b4665ba8bd8b76677a5997685a27847a6
col05:   9567ca67699566ba8748c5b778ea7b68bc98b847a69b78865b6aa5ab5659abb73239686a75775894
col06:   553399a87646584647986b8c89b36888a799d76ac5a9b585a67ab9b877d4b2787397848777667985
col07:   7668776454487b88878889a16db7768999b7877598a7d4a9c29b68979577756a959887649536e797
col08:   4a534557678888a8aaa8a865567abc5959a887899496676b9b5c9aa566d8688a5999565693677846
col09:   2867599ab7f6a796a7c979788ac858c9ac9d76b8c6899a789a968a8b7cb684675848b8729a578967
col10:   488648576655c879697a59ca887a8999759794aac57b97a9b987896887597766367b851754988a73
col11:   9573767ba78688758668489c9b9b985475983887879bb77b7975bb7aa96a74b99656549767b37242
col12:   594784887873477756b68a93aac8b889946aab59a7ac976689a6b856ac56ba669ac7776546478538
col13:   267862566853782796b9c4a8a6e8988f889ecbb975c7c7796977b58ab59798b7a698677556965745
col14:   54a2a34587762d48719aa46a76b8aa9964a98868b9965548a2c79abd747a87976c99346c7a458644
col15:   84658b9889757535282c79ba98a799866b99886cb778b879c8a88878977679688175a9a591593a57
col16:   926a17ba27b9869ac576b5868a754689c651a67757789a89dab9a9a88ba89688896a778955878557
col17:   392267675528999a6788697989aaaa4877b57d9aba5a99598998b7876988a958966637633945c897
col18:   98587586b5798a6675737a6648b9997b6c55a689b89a68d4a3d65787879667357836976175467774
col19:   976382394687a7766196c97968898a6a87967b9386a6869aa7ca87486aba89849679c5618b9689b6
col20:   56849464645157969599695a58647c8736b958878895553785c8298da8453b96363598888764a556
col21:   95738944a5477787483a499788a879877b8a8657a7c877ba87c966979c8996a8149477b766987693
col22:   57432a3381577857957797b6567ca46574ba47aab59779657bc56666586c58b79a767aa63a5b7397
col23:   654a542663796877878aaa8b669a4875baa6b687678998787877ab95b9997a772a79893866b6ad65
col24:   586474188557464679748a76a62a9c9979c88989b6b8a66a7776a548845878b86a63888657699666
col25:   a8b579578787983884897937dc69c5785a69b87a7999bb2986aa7a6a9ad56b953766974987878a4a
col26:   566665767aaa7ab89677aa6cb688a9bbccb69c8789c984ac9ca9babb9bb39aad867a7a99687884c1
col27:   66527678877a785aca698c885d76bba757fbab7db89aabdaaaab8d899a99aab9bab879e7c9968ba8
col28:   6875b6951a89b5b7735ca9759ba8bc78dbca46878a8a98ab75baa78a7b86ebbaaa5a99757bab8c57
col29:   a4a6a28ab5374a994a9676abd8ac96f9897acba8c9acb5a76a7caa97cdcc9b999cc699595847b883
col30:   8a597ba775748b886ac78799a99b7dcb885b8b79be8bcbb887a86cbab53b8a7bd8899799988996a5
col31:   8672ac4db9dab86a7b9d9c989ae7babac9c899daaba85587c69aa7c8aae6884ca97aed8a79b8caa6
col32:   64445689ba885ba9917babbaaa96ab8ae897c98cbaa68abb78acbcbba89a9899a89aaabaa9ca6a88
col33:   976657489a86a4da99d9b6acbb7a8adba79ec7ca7bba899a9d7da8b9a9babaccb876968598eaa83a
col34:   769bb94997b8beb99c5a6a6b99cb7aacc9b98c98aaa5d37aaa888aba9a9e8699d9bbaa68a4baa599
col35:   4427698aa366c9589ada898bdcc7baaeadbbdaab9e73a7bcddb89875cbbca6cc89c99927c49cac89
col36:   a5cac896a977a9a6977b8af586d8cc9babe8ac7e8ac7b6c9afa7d78baabb68c8b79a9a969488da78
col37:   598cb6a9aac9ba887c779ebecc597c8dbad6bc6db8ceccda99c9cc9c9975de9f97abab9dd8b7cba8
col38:   86568dd9b9c796c8dfabeab6baaaa9cfb9a9dbdaacbba8aabc9abbbd7bd9bcc9ba8baa8874778ca7
col39:   b578a38988a3aa7d989b6ad9c8bcdcde9bdda98ca8aa79abaaaccbc8d95be99ab78ba6a6998b7d99
col40:   ba7b8798cac886b6f97c78ac8ccedb8ab88ab86c6be798db97cbc7d8c8689968c8b79cb9d7acab6b
col41:   7aab876db9a8b7aca8b9b9abaafaabdab9baaaae5c8faada6a65cb8b69dbaa989ac9abbbcabecbab
col42:   a998a699a979bb9ca9ca9775a9baa6cbe99bc5acccd9a4aba847aab6c9abac9b8a5cc88987979889
col43:   85697daa7acb8aa6968d9fabccba9aabfbd8fc8aabab892b89cc8c6bb8b9c8b9a7ba957bbbcbb8d6
col44:   79989b8b888abc9c98a9c7cb999b66db9dad897d8fa999f98bafa995566aa9aa79953a8cbc89abb6
col45:   a98b885788d5c9c989aba6d8499c8cbb7cf9dd7bbba7becbb9b8eaaa6aba7dad85a9ab798757d769
col46:   8a86399a9aaaba8cbb99cab899dd6a8846b7a89bac4897b8bc99ad6982aa9869c695d6bd5577b5ba
col47:   787ac84a6778c796ba99c6acbb9ccbc89befcbab99b8cb9bbdaabbba879868ccb8c9979a8cc8b6bd
col48:   d8b8aaa7c888dd98cab5caabc8a58cbfab8cbd9dabda9bbd77e9bca9868fa67c9696888bcbaa5ca9
col49:   92864637b586958657ba6b7d8d899c889aec989b78bb9daa86fccbb68bac6ce89adb79ce7c8c677c
col50:   8696a8a8976685ba7a7786d9adaf98a8db858bcca8c8be97b99cbd9bc3b6959869c59696979a78a5
col51:   8648457797578877995a37a75a76988a96c97b979bb586887757b999b687d977a69b669776a78a78
ROC:	 BPix_BmO_SEC5_LYR4_LDR17F_MOD2_ROC14
col00:   4732541126748857853764678856744b497575b8366456555754a447c97768654686345911115682
col01:   464b973976788b77698478b7d87a365a997a66a69984768a93988956a9779a3755b53668aa6a44b9
col02:   665275838b84a769649686465aa567866985d984799aa97ac66a5735d7ba9b9694856877e7468656
col03:   75894674985657844a88a8c57637b753c59a99a837669b498346a9b838a677bb45668997968765b6
col04:   7376b67b575968ca67c654d6a987959846b9aa77896a8b85967568b87a48ba78b8b59a5486b28577
col05:   136597132849395a859779987689998655c8aa788a858a987b469773457b5a8559837a57a65b9974
col06:   94128788996464953579ab499a8869a6b9a586779499a988a9ab3896aa69bb4674794bb867368469
col07:   4548559796a5966786a7569b8a76a7b79c97787897366dbb7696b8888bbbbd6c8826986899879ab8
col08:   767246697666597465859767a94973aafbc9a8775d98b2e779ab78589aaa86b58a74a89589678894
col09:   5295646b476875a772b8957ba99597a469f799779aaa5937a64cb69a9b599a8a46aac485b9865379
col10:   6494a346348749746e488caae698888ac999b7d8a6b9986aa98836adb69877a8792445637979a84a
col11:   831747bb476795789649aa76b58dd8746798b8889887a775795587a66a86c7a4a559b99769867487
col12:   15b8b795a96989a7879b995696b7ab9997c87965a2e854c49757a7b967a84799ba745757257a7685
col13:   7382978846a387b786788996c86c9ac9c9cbcd97a86773a8a3b888ca898a76eb65a98988b8925ba8
col14:   4857866a76a748a9a679cb7b977aba57c8988778859a5a988d859a95a66b59659ba368b489699658
col15:   6867334b6a68ac5765a696897aa3978898897c9ad7688bbb39a9e5a6648958b968ae59785885b869
col16:   77644898619a8545a79b98978d86d9b7abeaa88855a5967ac968d7aaa9b78564acba88738a596355
col17:   6993a41968699c87a9766a658796a97789aad69aa5ba77ba75a8887a885998685756b7776a756b66
col18:   94435186985a7776c65396a8b89b9c36c685937aa8ec88a9a35555756c69a57964d786b9277b5844
col19:   b4567576b796b86a4928cbdc99b3a9c8999775cd497567dc87c684b856699878769a9a5a68846866
col20:   63359649657a776868478ada7b776987d89854b774b448a86886665898b67b77767a5b6774276979
col21:   38792454b76669579467a68797a79969c7a79c7b7a76998da8aab2b69b444a977a9766a8a5769855
col22:   4223789a4978749ba88b9269a8d6bbb6b567b7b887697ab7a6a4b77888988b7847c687746876488a
col23:   458aa2984697c8998a76dabc65a85958aa657a98998796b677664879595788999997386989a78879
col24:   b66786a347348a856956597a3ec777aa9aabbb96978894978b6b8897aa6796ab867879977968a365
col25:   5534bb8ba7388a68ab888d9bd7c469e8cad98cb989a987969b8bc6dad48aaa47889a8869b9b9c847
col26:   956482aa77babb9bbb8ba99a9da9aa985caaba8a99a9b8c98866b596bad7ac94ad599a85cd98c676
col27:   6a9b7665658da989b9aaabd88c978acdb9ab9c9dd7d9bb5c9bb68ca98bba9a7aaaaa9f8ddb69a8c7
col28:   486a486a9da97aa7da89b9a9a78baa5fad7b9a9289d8a958c9bb987798dd9acb7e8aecdb988bd789
col29:   a8979895a98c8a8896cc8bdab9cccaca79ddb878aaad99aa9cacb8acb9fbe6caa99cf698c7a68caa
col30:   767a69a9a7579987877b7bafa88b8a88b9a695db99cc8ca789ca99c8baa559b9aba877aab9679b98
col31:   986ca59fa64a7856c9f8bae8cfdcb9eaaa558bda6bab7bda9a87a9acbbaac8a89898b7bbab89b8b9
col32:   6898879ba989bba87ca677ceb9aadebbacac86ecaeba9cbd7988c6dec97a7c8ada9bba989c7ce8aa
col33:   495c89a777b897aa9af898bcbaa9c6a7a8ebbcfea4abc9b6b9adaccdb6ebab8a8edba995a8acbdb5
col34:   99bb7867acac9bcd8bbb9aac8abb9b9cba94bbcbcbc9cbebb978cabcddcab77cb8abbcc8aaab8ab3
col35:   b66ca98a6bb867c8b8deca9a8bdabedbfecab9ecdaa9dbc8dc98bfdbd9aaab9ab87ad89daebe7ab8
col36:   a998a788a89a79caa994b8a7dfcefb9cb6afca8b599bacd69dbbbc9fb98edc9d898b968a77fb7889
col37:   8486545997dbcad99de79cabddbac87e9bbdfccaca6e99ccdbcdafbcb9dbfb9ea9a7ababb885c9ab
col38:   8ca69868c9cabae9fdda97bd96cc9ebcdb7cfdaae8ebeb6afbbb6caccaacbddfadaf4bbacd7cf8cb
col39:   59b6c9afab9dcd9aa87ae9c8c7adca6ee8bacc7cfe9ccbcbd9bdcb9b9eb9cdcbaaad88ccb9c7c7ca
col40:   857996c86a9b9a8fb9d9ccddeacabbcaabea67adabbbeabb88abcceaaedbdcbdeac7b679c9aacea8
col41:   a94abdbbabcaeabaa9d9fadbc7b9efeefcdab8bfafcbcdc8f99bbfabdabbfbabfa5bcaabdcb58b7d
col42:   799895ba9998df6dabafec7baac98cacd7b8d79dedcbebfaa9ccaaf9bebdf7a9d6d875cc9be8aae8
col43:   94b9d7bfadacadbcdacec87baeececbadcfacbdde9dcce9eeefdbebecdbfe9a9bac7cfc78fabd996
col44:   abaaaab99da8e9a94a9adaceb7dcb9cbcaedbc8abccbc9ba7cbfdddbdcfbcebcbaccaa9ba9d89adb
col45:   56aa89adcdcbbc9699c98cd8cadccacfabfcdfcccdcdae7dbabf87eda9ccfbcac9cebfaad9abb89b
col46:   b8b9b9aabd8dccdebcc9ebd7e9defe7d9b85eec9d9ccaebfceebeabaddb9c99cddcbcdbbc88c9d87
col47:   adbbbb6adbecbadad98fceea99bcfedaafec8cbaafdae8d9bbaffcdbfbdddcbfdd9bf98d98eefcfb
col48:   c9bab8cab7cb889debbccaaacdeccafef9ec9adefaea89c9fcfd9bd9ccebd9eacfaedb9acbdaada9
col49:   9d9fceb89aa6eceafcd97edabbe8dcfdacadbfbdcbdcecceddadfcecdbbcaaedcccedcabcb98ddcc
col50:   ae9eabaadcaba7c9eccadfcddfcdcbddaedcdae9accea7cfcadcd9dffbfbbcebeacaaa9abd8bc7cc
col51:   599ae99a7aaabedbd93b6987cb8acbaade7dabbaba9cdc9a9abbedcbfcc9b9add67a6cab99897cb8
ROC:	 BPix_BmO_SEC5_LYR4_LDR17F_MOD2_ROC15
col00:   35566564178457977183872845ac85a7925c87727b77779797641858656846b9b72785378465565a
col01:   5267a8b8474758a6685a867b6c88b957777578655a8998636878b953aa978bb95788b6673b3a586a
col02:   15877869366446785785b5977957982689856689b8b94696c66745468497b5687374464562527747
col03:   6557558a668736777a84b98a597b4a6969e975c98934b6858a6b7542586ba788986258653a5aa785
col04:   767b77b57957734889c89989839487a7a888a768aaa99aa6a59849925ab7c793896888865a33b7b5
col05:   74574776976397a4c9856636548669668b88949997577d7a89e3aa76876787ba8a2669b5641479aa
col06:   4956444538977699b399859f866577b766888656a89869a6d93a85a3b65996532594985696546927
col07:   7715b5744482785556879986daa77769996a88ca75c4899a876a367656799727957855a782ba75b6
col08:   2828882743a96a77489baa84537abc5855b8775624b8a77633c867a7857756338668689457185755
col09:   66858b897989557887a7776bb69a8aaaabbc5b7a8c79978aa9787b7347999aa7575c787889a35794
col10:   a61768d16777a55a9b84a7a95964a677599a58a68b7b8b6a757ab45d8785aaa85967945668a86898
col11:   4a89856677aa6194c48a7942699a56b996988a85bb6cb6ba8bb9836aab9844bb954727888996a488
col12:   329566197685674957ab8ba77286b377a9b888987b8a5b8ab9b977979568996878278a7855887481
col13:   575768636a766896a5698b85a68bd587b7cba8b8b9bd96b49a9b88a99699e989a8678777867aa666
col14:   13552761684a6b997695bdb65484699a9acaa69444a597a5a759c7967777675a8c3a776276577397
col15:   74a74799684a569a696797889c8bc8b86aa79865969a66979d6699665b87948965597a29857a58b7
col16:   3555472658a3a8a56677c66ce8969968ca9c557979a897467977bc5a3e7678348c4b91b8a8763754
col17:   8771956568d566954a77a8875cb898c999364a9876c97b99b7976b7467e7a9a8c694bd7a74475365
col18:   3367197957389568a5a588848b993a4846a4b87a65769b88a458b936597687957846589696778564
col19:   c28835b95b495b8798cb7abdd66d8a749adbd5c6ba9788989b6768a9a75b79697b8876a76985a668
col20:   7488b59854595965a45a6d578f38a6777779887367867997c756a74a7477a899b884a52668754663
col21:   8778769957b8a97372979ba798668b6ad9a97986789889c6a89b94a9bcbd9ac4b875779884979264
col22:   956888546497a7a659979796b8c8976749b59b99ac5bb39ac6776899b459647b94698a3885546a36
col23:   7582497d84985683a7a8789877c89b97958778ac575dd6b6b788b765ca8b77aa58bc8359567ad794
col24:   45593699695695d9478743ab88c868b8c869935899b39bc386876988a65886b6676a7a71a4774586
col25:   796779876897898794753cb6a877ab5a8788abe4a8b9e9999b64c78679d8cb7576955666a9789689
col26:   7a8aa6a89946788978b9a77a96bba9bc96a98866dbd8cea879996975a866a9ab897aa5999caca8c6
col27:   7588baaa8865be7998a687778ec88b9d7ea6ced68cd98967ccb9bc4d9b69799d6c978ccbdc998b75
col28:   89a987ca8a8b97b8967a8b9a7aa4986bc889c9d9a9aedbaa9bc54c7ab9bd96d6a88799ab9c9ac78a
col29:   2777c775877958d9a996bb99c9ad9c9dbcab9aaa7d8bc99ccbc69cb986856986ab798b89dc89985a
col30:   a9a24787c879696aac9687dcac9d99b99b8dc6a6abaac9598c37c6aa9b9c9b8baa8a68babc8ca827
col31:   59cab67999a7ba79869b8ad69a9899bda9ceaaacaf899dc87c798cbb7bc9eb9a93ecbbab6bca9de7
col32:   6a9987b8b7b8897888abaccca8b9e7a7b9abbc7ec6a97a9b46aa98baa9dd887bb6a9cad5b95bb68a
col33:   b7ab66bbab86c8d9c9aab9bab7fac8caa99ddb88ce9a99deb9ba997ac999cdd7c7a9dbbac99789ba
col34:   15dbbd88ab989aa779aabacbaccaacbba8ab98b9c8c79bba98ab6697a8cd78a9dcb697ab8877aa75
col35:   db7a8799cacabd98ab6bdcab897abd797cfbfadbae6b9ec6ad9abadab99accaacd6b99c9885bb989
col36:   e7886b99698b789bbaca9abccad897f6ad9989dbbb9ceabdd9a9b9dc8adaba9ada95ba7ada46c798
col37:   9c99988bbaab867b989cd89aabeda4d87b89dfcccfb8ccb9cdbc68c7cdafcca98746d9aac8bbbbc6
col38:   cbb89896cb8d95bab9bb8aeaebcaab8dcfbce9a9a979dcb9ccc9bbebfadccda7a998aeb7dbb9ab93
col39:   6879e979dcd9beba8868aad8bbdabd76b87cde9bdabbcdcaadfd8be6c9fa8bbbebaabba9b7cbedd5
col40:   8a9a787acacbe8a9bdccdadd6fdaaaa8ae9acdb979b7dccca79aaedb9bbfccc89995c9cbb87dcbaa
col41:   7789ba8b7cbaba69c7bdad88cadeac997a8aea98baeac5fbcc6fdccb97cad9dddcb7aca4c9b7fadd
col42:   77c577ae8cba8bbbf9caaba88ac9a9decccbbad99adde99a8bc9d8cdecd966bababb389979797a8d
col43:   d497975abad78aba9add7bdd9ee7cac5aabcc9d7aa7cab8cdbeccaedddecbaab9bdebc66cbb798e7
col44:   499897ec89abba9b89d8c9ca999e7accb998ccdd9dbdb39cadbc6bfac6aedeb7ba7ccab9e899d6a5
col45:   69b8ab96b8b9a9b89abcbcd78eaadad98c99aeb787cb7c8bcdbcbcdcad9bcafbd897acd88a9a7e99
col46:   7a95998bb4f7bab68a7978ba8bacbdada9bac9acc6b99ae799ceae98ad9babbcaa7bd778ba898a64
col47:   b6d7c889b8abb9cc9edc7c9ca9bfdcc9bcadbd9bb9dcea9aaeb9bacbca89c8b9cbcccccdbaf69886
col48:   879aa8b88a989c8bdc86b9be9aebc6b9aacacfa79bebdc8e7ce9d8acaab9aaaabcbacca9698a8bb4
col49:   7888bcb4d8d9d9e99d7bc9eaccceafddcbbcaeeafdecabec9c7bdaedb9ddc8aa9b9a97a9b98a97d6
col50:   ccbc89abab9fbacec69abc9a7babbdbcd9caccbabeb97abcbb9ab9cb9ddc6dcbdd977de6a87b6be5
col51:   9aa95b66585b66b9ac3b9778cc67a77bacaaa99879a85c9d9a9bbaa995b8ba95bb96888c4c87a854
