ROC:     BPix_BmO_SEC5_LYR3_LDR14F_MOD3_ROC0
col00:   31334241554253466218332777A6293434846766538786458183765A62684A59377658765937A768
col01:   645592766379759596698A577495897AA7567587578267B7A88A8B87B977587757A8C9369A612637
col02:   26779771446A36984544848856A7B56889768757869986459536655A7766A557689827683882A694
col03:   5872566686437964877877887898466765B33B371464A7869698679776ACA98A695C5A47588898B2
col04:   54526A6455847885468867AB962A4947C53683476989976A879CB9AA76A94B697E935C26C5884856
col05:   433665A867B887453899B381438649386898B98AB5699B7779568AB6A66995787C8346775D7A9277
col06:   5487B29895769886A5868988489855AA9855A54587875B58636B487987A4984848879A9B3725587B
col07:   376746B7C7A66397755A7778743993669655985AB498A8266A897483B489D4897A88478643AC95C6
col08:   74949497484476647A59883684689A76776894668786A6976746869688986565A9888658B5658364
col09:   4635967757B8537368786A7887896586A6A76576AAB988877B5B7296AA69A9BB9CC859869B866898
col10:   935BA56823A44596688979A885537947996568719B99AB8A75789B88A6D977686A5AB878BD869BA7
col11:   7589155662BA356868A63575696A6399966A689996C95687668A86986A88338988568A469BA89646
col12:   479666537675665B9658489898748798649895954A598799856778A897A65865A888493467879996
col13:   2645766456788C6679926A7467B7999598B7E66877865899A9796998C746AA4868B44C6826798677
col14:   556A5975949362A77683826455476A998368C88888887575556766854A9479857A8898867AA84B88
col15:   978479478746B14884A9458974DBBC7C7C77464BAA99646B895A6957B8798A7475457BDA8476CB68
col16:   8477A7999B75A9556A67978776A696876476656A8775A48B695688AA938987BB8AC97879ACBB8869
col17:   7839457A54D687848B5AA96C99C69B4A89967966BCBAA5858A88B8A6977686C9675865588AA8A555
col18:   8797746564367377755749242A7888697CA86C7A495C588976697AA37AC79C6A776A698C19A9CAC3
col19:   855887A6A87A8B6ABC772698A68E67365A39B97BA97BB882585AB76A9B9A9AC6984A988775587896
col20:   66525A978596A938A26878893475666697874787C98967C8847884B9B6C578AA8576C9A76A568A79
col21:   8685998688A698B68989D6698B999777C77BE79778D8764766A8498869389AB579A7C6978C997693
col22:   552C9A155B46A9687774A83766B7B6A6BCA6B8A886A9959C94A589AA7A9B9AD9B6A7BC9CB69978A8
col23:   545897955754698A877B596B6B967B79B8A89896F75A8B999B7785A8966A87479687B998A6499D89
col24:   75A58596B48978589B73487896665A69894798789D78797AA99B5A698BA8869988A79A1CA97789B8
col25:   4683A9887947797759B5899587877B69BBB896B89BA9AAC9ABAAA7A873D99A8B89878D9869569A67
col26:   796A796659A876B698C79BAAB9D8DB9C99DA9BC8BCCAECDCA9F95AA9ACBC9C8CECDBE998BBCCB7DA
col27:   A68A9ABC9AA7888C67C69AA8B8ADCAAC9ABCA6A7999AA8ADFBDB998C9A9EC67BB9CAAA95ACBCBC7B
col28:   747AA8ABCAA8C788C78CACDAB7BBD8AAC8ADCCBFA9C889AC9FAA9A6F9CB8BBB9BABDB988ACECBEB8
col29:   9897BA79A8DC9B87BA7AC8BC6B96ABBDCC89B7DA9E9886B9CABBDDBAAA995DA8CB9DBAACB88D8896
col30:   94989B8B897A89C69BC7AA9C8A79DBAEF89B8BCC95AC7C8AADEF89979ADC9E9A8A7A799FDAAB99C9
col31:   A698BAC8BB8AD7896BAACD98D7BECC9AEECBC89CACD8B8999CC9A7A9CC89CB5BA9D7DDEA9AC9DC5B
col32:   8995B73AF798A9BB9899DB9CCC7A9C9DBDB49CAACFEBDE9BE9EDCB99BA8BBBD97A78DDAAB78DC999
col33:   849AA8CDCADCCB9B96968B8EC4AEDBCBCB8CA7C8FC6FAEADDCCCDBB9D6EC9C978ACADEAA6BCDB99B
col34:   997A8AB69798AEB9DF7AC9CB4ACDCAA4AC9ECECFE9C67CADF9BC9DB9C69ABDEFD7EBACE7CB6987AB
col35:   BA7A8DAABE9EEEC9EADCDC89CDEDB8A9BBCEFBB9CFCDD9BADBEBED89CDAFC8ADA99BC7B8CBFBABC9
col36:   BE9A7B8A8AAC9BDBAC88BBEBDEADCCBCAACDA8DA7A8E9CAECACA8DBCADAEC8E98C6CA9D9BAAB7CAA
col37:   A998A8AA7CB8DA9BE86A979ADCDABA7EF9FC9ACDCEBBD8BBEBDBDDDE79DDDAACDD8DCB8FEFDACCD7
col38:   9D5FBDC8A88ACAD87E9B8AFDFABBC8BAACBABAA9BBBCAAECEBDDAB8D8DDBCDBCA99ECDECEADABB68
col39:   C98B877DA9CD96DCFAB8BBBD9ADDAC7CEDDDCA5CCCEFEC9BBD9EA5CCBFAEFBF99ABDCAAC8CDB9D7B
col40:   C89BA8BC8B9D7CAF9DADBCCFEFFDBBDEFDEC9FDB9BAC9BACFEBDBEFCBDF8CBB8CBEBACDBCBCCCCD9
col41:   D7C6ACABEDAECB9E8A6B8EADAE7AAE8CBB9CB8BECB7FDDFEECADAFAC98FFAB9FBCCDA7B7CAED8CFB
col42:   4657BF9EBCC7BBABAA9BACADCED99D9FFAACCCFFBBBC99AA8C9BFDABC9DFEBFCDAEEAFCD9BB97ACD
col43:   BBF89FFD8DAB9B87BBFFB889BAAFCDBD9DE8CADEAEEBCCCFCCDBEBCA9DFDDF9BCCDDEBCC9DCECFCF
col44:   8CADBDACAADADFCCCAAE7AE9CDD9DCABDBFAAB8BDE9FADCD89CD8AEDBDEF9FDECDCBBAADABDACADA
col45:   98AFEE8AEEAAB99A6CDBAAFB7F8FDA99CD9CDCED9BFCCEECEBBB8EAED9CBF8BACDFEBEBB98C8DAEB
col46:   8D89C6AAB9DDB99B9ADDBDFEFBBCBCBCCBABDECBCAB9BDDCEABEBD8FAD8DFCFE79BAF9CACB9EEE8A
col47:   7BBB8BBB89DCBFA8BD9DDBCCF9BDBCDADFDAD89ACA9EBDACEACEBBACE9BBB9FD8CDCC8C8CBACEDDC
col48:   99879BDC7B8DEC9CA89DE9BBBEBC8DFABCAD9FDBBCBFBBCAFEBEABCCACABB9BBBC8CBCDBAECDABEB
col49:   8A8BB9DAAB7BADB7B8DBBDDAEEDBACDEF7DDBF9EBB79CBDDD8BBBBEDCEFCDADCF9EACBCAEFACEDDB
col50:   BFECE7BA79C9BDE9CEE9AABACFCF8BBADFCBBEB9EFC89BBFCEEFD9CDBDDEBFFDEDDBFFCCA8FFBEAB
col51:   B6DEDAAAAC689CDCA7AB95BABA98B9DA9D9FBA9BAACC8CC87CBC9AABACFAD6CAA9DACAEB9E89BDC5
ROC:     BPix_BmO_SEC5_LYR3_LDR14F_MOD3_ROC1
col00:   7195757741535663878486846967717867374585A3A648993589553848659764789B456754988995
col01:   3325725856539A95665958586A7753977476B34985948B894A4886AA8668587778A7799887638956
col02:   3375826755447B536789363647696846469C786A48CA58756A85878AB729A856A9CC578685BA96B9
col03:   657757775857997A7778586695B4664B8665948564987B36368996AA989A998667983C957865A58C
col04:   9386596659597688A5B5B99B9684679C58C85A29967765A177768AB9BB574559987895595AB5E7AA
col05:   191376695686B863A95847B897A947889656C6585656B8B87859C7967967844A738778B779779A6A
col06:   83654A877458555955979A966788B5B87885669648B797844A8B5859777767A4A9783C68E97777E9
col07:   5383856AAA386683759A6388655887A947A68796A456846B87A7888B456A997975A987AA7C659A97
col08:   475346877574657B58676368C546A878A7A868789789987979B88D9B98779986B89565687A56878A
col09:   77738786853488875B57BBA68C9AB467969659A557968689978B2776CAA997CAA6CD4A69729B8B37
col10:   463A56684348867686787B39687B7A87D97C48984A888D799CC68979B66A7AB66854978998697875
col11:   7586A653C567B564667C288945A9894769786A4748D9A8BD3B8878AA8693B9798A775875B5AC5C9B
col12:   3471475793456886A96D758886B696B694C779A5679E69C5698BC9C69986B744A984B9D96556B7B6
col13:   57474855548774B87888867A6676398A786B6C9A8C798989BC89B77A7C7A8B97978A9C9D8B888B8C
col14:   1662A66877A5787539528498A979997957658897C686B778A878A99578BB897797A96AB789C9A7C9
col15:   9944A984757A699B7AB7499CA846B7AC9AAC59C9BA698679BA697779678AAA85CC8B9A7AC4A8AD97
col16:   4697599579588679846A68785AA38C7B8BAB9A789A867ACAB877999CA7A7B7A7BBD86995CC8E8CAC
col17:   6A47569877967965678A99469796987576688748AB76B8566A869857679A89B698969C89AB8C59A2
col18:   4748A676A455777A698A967828AAC887B58788E9B7768C45968BA9C6969C89997AECAA9CD76A9A98
col19:   987C869A552A7A8A7968A9A996BAB86A49B9C7A588A67C7A777B98BBB6DC6A88968AB7789A77885A
col20:   6279757594657894768A7B888896568679CA8C98B476A4D5B6A98974AA9B99B869A6A7687749A9C7
col21:   975217864397769758874CDC68B7BAAC78A799597879A78C6699B7BA79BBA997AAA76897C788758B
col22:   6D6A529648AAAC68B98797AC678579958A89B7C79BBB9A3997EB6BBCB7ACB6A7A5A59A8A7C8AC9A8
col23:   B48578766858B786737553578796BB99648A79987AA9C9D85A7A8966A99988ACA85BBD97A9A7BD8D
col24:   334736859669489666A9D56968A678976BC8A698A7B5B9C886978A69B778B9AAAD7789768878CCA9
col25:   4765836569A68C594358A59995965BACAC58989899A679A9AEBBACA9B6A6C8B8C968997CAA5C4A85
col26:   8669A995958888B8A39A9C8B97ABADA9AAB9AB8B9B9C7AF7CEA78D78DBA9B4DB79DA8B976C6C99CA
col27:   97648997964A8988869E98A67DDABAAADAB4CAB9ACBB889B8CBBBDDABA9C6DEADABDDCAAA99FCB79
col28:   9976976ABBAB7CBA9ECA7BAA9C9887ABBCC8BABB8BABCEE9BC7CCCADEBBDB9AAAC9BAE9F99BB89CA
col29:   96A8A85A7EB62998AA7A96DCA8C86BB985C98BBFCB8BABB7AEE98CC9BABEBA77AA89DB9B9AABCBBB
col30:   6748845988653ABB8A97CA5C8999B9A8CF8DE9BBBDAD8CE999CC9899DBBAADA99BCBAA8CA8AEBCBD
col31:   7886A9878EF9977975AE9A99BA8987BABCBCCCBCAB68BCDCB999C9ABBAE8CEAC8D68AACBDCAAD9A9
col32:   88AB9CA7CB9CADD7BCBCB7659B78899ACBD9BBB9AA9FE9DDCCDBA98FC7CAC8BDCABDD9ACABDFCABC
col33:   776585E9B8C98CAACC8AB6A9BE9DBC79A9C9ADAD9BB9DECCADD8C99878A7CDCEBDBCAA8EC9CFFDBA
col34:   A6A9BB678C7DB7D877BC98ABBACDCA7AE8DCE7CB9DEABBBCCDCBCB88DABCCCADEA88BDFA99CDAB9B
col35:   9A976A9978CAA8ACBA89BEAC9BDB9AACDB99A89ACAABACABABEAFCBA7C9FCCAACFBC98BCBDB9FEBD
col36:   8D6DBB7978CA886ABA9CBDAAAC9DF98AB9BA9CBDAB9A9A9BBCBCBDAA77ABC89C58CADBEDBCCFCDCA
col37:   97A89B98AC8ACB89FC79CBC9E7ECBBACAEBBBBCDDADBDE97BEAC9EFBB9BFCD9EEAB9E8ADCAEACCEA
col38:   749AA9D9B6CD9BC9EAD9A987BDCEBEAECDCACAC9DDCDEB9BBDBECDDFCDBAC9ADFCFCCCDECA99DF99
col39:   B97BB8C6989A9D7BBECCB9C98DDCA9BCEADC7DDD7FCDC8CFECCCBBCDABBDBEBAC9E9BBBDADCCDDFC
col40:   AABDA9C9DAABC8A9A9D8BB77DDCEA48EABAAADDCBABAEFECE9ADFDFBFECCEFDBBE8DCDACFFCCEEFD
col41:   59B997A5A9A8D99DB9BF9A6ACFBBDD9CC8CF9CBDAAECD9DC9ABECCC9BDCAEBCADBD99CACBCCFACB9
col42:   8CC887BCBC7B9ACB4CD9AC8DBC9AE78EEAA9ECB7CECCFBFAB9BE9E9DDAAAFFCCBEEEFAE8BCD7BEFE
col43:   AB8AB989B8F95B9E98CA98D8EAB6BD8DDFEAF8EBABEBFE9BBACE8EDF9EEEE7DFCCCAD9CFBBBFEDCA
col44:   DA88AC8C98DBCBDB7AA9CE9BC8EBFCCFEDCCCDACCBCBB9CCFFDBFCFFFCFBDFFCDDBCFBCD8FAFE9A6
col45:   B997A6C9A8ACB9A7A98DCACBBFBBCADECCACECFED9CEBCADDDDBEBBDEAFAB9F9CFEFEF8DCACBEABC
col46:   BFBA9B8AAEB9CE9CC7CCBBC7CA98888CBCCCADBEADABDFFCDBABCCF8FDDCDEEFAFCCFEA9DBAAABAD
col47:   A4B8E8989DEBABB8A86AF8AAE8FBB9B7EEDE99DBBDECCBCCCF8EECDCFFEABEFD8DAFDC9AFFDD9DED
col48:   6A7C9BA5B99A9BBDECCB99ACCEBCFADFDDAAEAECFEECDC8BADDFEFECEFFCDECDDCAECABECBAF9FAF
col49:   9A7BCD9C8EB9BA5DAFACEDCDCABBCCDA8ADADE9CDCDBEBAF8B9DDCFBFAABFACFFDFCFCCFCBDCCCBE
col50:   B9CCC8CCCD6DDBC9BABFCEE9CCAEDCCDBECFBDAABDEED9CABFFBDD8EBDADEDDDCBDDBCEBCDFEFDCF
col51:   9B8999A89B7A9A5999BAB56B6CD9C89A7999B9CAADEDBCBCCCABC6CCCB56CCB9CCBDA9DBABACCCE9
ROC:     BPix_BmO_SEC5_LYR3_LDR14F_MOD3_ROC2
col00:   8226563558622714539656A646AD477A6C8888486CA7B5485656796C6641A68DA175A5788A699974
col01:   9766976337A968B4A87924B384588895754B9BFB45B2C8B76989ACECADF79AC39D8AAB8B8999CBED
col02:   9855A674888A9328B27428C445868C87A6B6BA8769996B69C684C67BDA89BC8BC867B8978EA8C587
col03:   6A574A86B66551B885645A486999ACD758C9AC94BB767FA78787A99A88799BA9A996C77957669BEB
col04:   66296668777547667E7B7974667697AA3BA5BAF6B5AA9B7B89B777EABA98D9B4B9ECF77AD7BC9BBA
col05:   4A57936A797B92679966BB943AAB26CB4879EC696EA78AC989AA98988B4958E79A795CCC8ADB95BA
col06:   874495869E1892973797798AA86A695799787B9B896A7E69857C7D89CBC88879ECB9ABA378E9CFA4
col07:   2311A424755B443589866566C838B7C56879E678886CBABAD5BD9A5B9BC2AC497867B7B879B3B7B8
col08:   456B85514AA74B85938E917966B7A66B68A6756AB9AAB8AC99D5D966D9984A8799998D85CE9CBF9A
col09:   652736644AB25B8579AB85797664AB7899A68865D7AAA67D696C7A7A78AFB9885795CA7ABB59CBB9
col10:   9874677A7562665846AC99DD9AAB6778A986987B9D9C69ABCA57BCB8998CEB6ACA87DAB7DBA7CBB9
col11:   456637788696595687AAB8B6A4267799BA4787558BAE8BBA4DF858A789AAD98B649C889AAC93BD98
col12:   245597199378555C55856AC85A6668CCDA888DD588D97ADB98A6E85B7BAE89C668B9CB8855B7ABBB
col13:   6467456657A86758AB97BA67A4EDBB548875E6A78DC994A98A99B69BB59E4C8CC48859CC8AB55CB3
col14:   3B49778757A6C75A6A79A836A648B9A7A96BC95A88C6A697878AAA9CB5B7BBC9A6778A67B8E9DCA4
col15:   396595584B684B8565AACC3BA2C684965AB6D8A87976818ABC6698AA58589BBA7D5A6AC78AB8EAB9
col16:   767B9325759A98D55615445887757A968A57DAA8EE9E8B8B46AA879BC8AC6BD8CD889BD8ABA95697
col17:   545772698C3664944552B5B87389A46B965877E776789678A999BB78B779C98BA96A569B8CB6CD96
col18:   96A87B8181575892D99B999C939778C699A59B6969A9A8C78B5B5BEC69CC9D96DA8CA97A9BDCC5C5
col19:   3974364AC577554682667A7981A7C5A666983C9ABA99AE987CC6B9B4A87BACA56E6BBC9877A7ABB5
col20:   A578A86A6643D987A88C6D44866486AA8694A77C9967A9AA778CEAA993B58879949879EA94CA7BB6
col21:   79697875CBAAC97A4699757847BDA98CA8989DB6B77A8E8B387A978BAAC589AA87C98C79D87D9A9A
col22:   87A8AA5AC8A5A492889558999A7A3EF6BEA9B8ADACBAE5C88AC78BCCA98A979D7A98BC69B9AB7796
col23:   7787A575A63548157B79A97B53C5748A459988A6BA88CA897B989BB8B9ABE78699889977795898BC
col24:   7C55D35868B8BA68796B38A889A99A78C5B96A9B7BBA87C5A8458789B9A97C98CAC8E9A5AA7B4B98
col25:   6377C978A7CAA465948438269A36B38A8D69A6C91E86A99C888B9AB6ACA49C8D8C5CB959888A7B6A
col26:   2CADA6D9C57D97696E87CAD6BBB8BCBA998EEDABDC9AD87B79A889F8CBFA7F968BB98959BCEBDADA
col27:   8978766AB86B96C85A94C9759699799C656FBCA78AAA6BACBBBE996B79BEF8DD9D978BBBDA8A97AF
col28:   84C7CBA8CAAC8A97BAF6CEAAACEDDBBBBF78DCFADB89A57BDBBBD9CCC8BACCADE9899FEEBCBBA9E9
col29:   95AB99B4749A99A8CB79CAD6DF9B9CAFD7D9BDBE9C6AB898BBEA7AADD9B9BAABAADCACC9BFDCE7AA
col30:   A64B6D8A99DA49E66B7AEB9ABD69DA9EC7C9E8BCC899ECB9DBB77FBDABBDDBBABB7FE6AC9ED869DA
col31:   8669BA97D6A8A8FACCAC8AEABBAC8C8AB8BDB9A8DA9E98DDACCDBBBDE65AC8B4EBB8B79795AAABC9
col32:   ABDA5CAA97675A77C9CCECCC8BDBDBE9AEFAECFAB3CDD9C9D9C9E6BBA97DC9C78CCACDFFDAAFBC9B
col33:   AB8CBBAB9AD88C86ACF88887FCD89EDB67CBFCAC5DBABAACBCCC3ADA9BECB9BCFAEBDAD7ECCEEDAA
col34:   7BCAB95E9AFDA99F8BEA9EBA9F8FCACDFDFCAFFBDEDEEDCBDBD8EBBACCFCCDBDC69DCACBDF9CD99C
col35:   98959E8788BBCD96B8B96BE7E8BDC7BBACCE5BEBDAABC8B97BA8B8BEDBCB9C7BDCBCCAD8B8BCCDB8
col36:   8BA9C8AA9EBB9AC9FA9DC9DECBDC7C9EDEB5DBCECAAACCFEB9BCAAABDA9FEA99D997CADB96BC6DAB
col37:   D47CDC98AAD8B97D589EACEEEC9BDDA8D988FCAFD9CACCBFB68BCBAA766BAC9DACFB8986AEA8BBBC
col38:   E8AB8CC8D9F899ECD9CDDFD99CCCECA99FC8D8CB99BDBD7ABC5ABDD85DDFCCADFAF9D9F9ECABAC8F
col39:   BAAABA8E67C9CB9E7ECABCB97B7CADAFBBACCBA9BBAB98B8B99CEB97B9CFACBACBBA8C89EADBCBBA
col40:   9CC9B89BDBDC8BBCD7B7BDBB97BDC8CEADF6DBB67EDAACCCCDECA9E9CAC9ECCD8C6FBBB787BCB7B6
col41:   97DFBCEA8849F9C79BBD9DC7ABFFB776EAAFCEBDB969F8BE99AAEADCCDCDF99FADB9ACCBBE8ABCDD
col42:   C78AB9BA9B768BB7C996CA9F8DEEFF6AFB8FFEF9BECC8A889B5ADFCFBEBCEDFC8EFA9DF5A92ABFB8
col43:   BAB989AB7D879D6CAB6A9ECFD976ABABBDFB9FADBCBECA9F6EBAADCACB5FDEB9CABFE999DDF9BBFA
col44:   A9AEBACABA8AEBA9CF8AACF8EEBBDB8DB8BCDDCEBFBC9EFEBDBBC8FB9EABEDE9DCCB99EEACDB9E9F
col45:   3BFEC7A87C8FAC68FCAACFFDFBBBBDBD9BA6CFDBBABADBECACAECCA7B99E769E99D9CA9DABAC89CA
col46:   BCACD6AAB7E887CAC9FBBBA7BDC8EF9FFEE7EDD9B7CCE997DD88FFCCBDEDD8ACB4ABBDFBCDBDFCA9
col47:   7ADD8BA8A9A7BFA9EE89C99BCABBBF6BDAC8D9AAECCAC2ABCBDBAAC96BBBD994DC8ADCBBED97ABC5
col48:   83899BBB9BB65AAB8BAF8BDDBEBDCAB6A88DD8AA9DBEEAC88B9FA7CB889FFDCCEB8FF9A9FFC9EA97
col49:   89BA898F687AA79A38759CB9CDD59A8AC8BCCEDA9B9BCDBAA7BEFB9BF9AAECCA59BBBB97C95BAEBA
col50:   8A787BDD8C7B9CAEBB8C9ABA9EAECCC9CDCEACBBDFEBBAB6CDDCAAE9FCCDDE89C8BE8CB9ADAECBC8
col51:   94587739859868C5895798C68E8D5487A519BB976B9B9ABD56B94B58B6597CB867648A9C75776A77
ROC:     BPix_BmO_SEC5_LYR3_LDR14F_MOD3_ROC3
col00:   6674677599457559677859958668575B46A875666476763682667926772468646533586626267245
col01:   6699AC78999AB657D7A785B9B999BB89989669BA967A87958CA7866967B5755667A683A285A86566
col02:   768865B7A6314555968658B57768C7A454C94595658987888999B49A793A7686354873B459265695
col03:   79A7998A768AA75797879A8548AA95965C79A9888AABB757956A8886A88758B87698778654978674
col04:   96387A4D88967B996966B957567B9A87976588799799B9679ADB577A6B47676847C685838C566747
col05:   88895C995C4A79B7C86D996997B4878BCA99899A7B88988A58779987769559936D479A9379487657
col06:   9158995CC79A678867A9799995A28B896AA57997C3B68BA9D895799A786A5AC5621C8D4A88185764
col07:   955C79967566B6787B9943986B7C7794469B99A86B993894A987989899A66944A36A7782675A7273
col08:   7566B4B7C747885468B98898A38B97C9B899A875956CAA9948A8C646857AAA7758A889666359D948
col09:   695459589CA9A58A78AB69A8DB8AA9B997A997A74BCFABCE8948A6B5DBA777397B9687878C77B595
col10:   7A45988764C17A84A87B7A87A87BC8A79CA9C9CA9779789758D9749BC5C78C9578A986938955A584
col11:   7D68A6A5C75C96A878868A8A98859B7BA987D7895A9579BAB94B969557A756889763436771743964
col12:   A685378687B9498846B7788694A6A98587B89B66966A9699ACA37A7987A7866999875564A45986A4
col13:   A899BD879897C567BCAA87B8B7C5C7CC985696A66BBFA6B7769679C7987DA95797996579B8765879
col14:   799286345A9AB77C68789B945B77799597994A9687C6B58AB6B67876C5B97A8777593A97A595A4A8
col15:   6656687787957BA887798C87B7AB65A7799B6BC7B8786AC77936B987CAAB36668275A65A9A68A586
col16:   5769AAA8959744979EC887B69AAAB9BD9DA5395C955A968B87A58CA9C7BEBAA99AA5B56675A99778
col17:   A57BB4A677B88A698A7778A5A87398777878869B8B95C8B69A8649993A9CAA6977B768B87A546A97
col18:   EA4669567B8988896877698887895A888C79AD687767A87969A6987AA6B998A6B2939799D54A7947
col19:   8AB8398AADCA897A9846AAABAB99AA89A98B878AB86675B87AB6799A95B9959A79A8A977427A2955
col20:   7688DA8AD687A98779988A687A67B88CB89969BA9889689A869A795CA99B9965764976A796A58977
col21:   696B875819AAA8C95976BB696BA487D9AD1B78B99AC877A8C999AA779AA89AA9BAC98B7889678666
col22:   79AA539A7AB4A89998A998998ABA978AABA98596A86879A6C8974B977599A766657A597988896982
col23:   B96A96A4C9AA97969B6869577BCB8D8B459ACB66B7A99BA8875AC799AC37A7C99A6977A889CB88B6
col24:   98985B89C995A76689866977785B89B8BE778AAB8B89B9B8B4C84868C6CA6AAACBD76B9646668A65
col25:   8974A97BA9A78AA898AB9A9A88B78F979878BAEB78589C979ADAE689BA67A8867A868AA87AA88B67
col26:   9D89997AB9C99CA78BB9CBA9A99DAACAABCA9C76ADF98A9AACE97AABAACBBABB9996E7A8899BC999
col27:   F8A8BA698ACB899A9BA99B7987BAA79C7ACD9AC8B98BA7ACB8EDBCA7AB8ACA799597889B7988A9A8
col28:   ABD9789FC6AA9B8AAABB9C7DBBCC8AB6F6B8CCB8AF9A88AE9B8AAABBBCA6E89C9CD89A98B7B98A9A
col29:   6A699F9BB4C9A8BBE9D569BEB8BB9BADBABBB7CDB8DABACBCBCAD9AA88AB98AEAED97B5DCABA8987
col30:   9998CA98C8B9BEC88999AB99BBBEAA7AD8EBDB8B74C7D479DCFC8DCAAB7D8D9A79A697B976BEA69A
col31:   DB97BAA89DD7BA8888ACABBE9EBECD7CAF8A9FACBBCC9AB7CADBAA9AA8787AC7FBB39DAC9AA7D8CA
col32:   9ACAADA6CBB8BEBBBBC8BACBBCA9DDCB9CAD9E9C9AE9B7ECECFBE8ED7CC9B6AB98C9CF8AB8AB87F5
col33:   9C77A9CCCBC7AB99CADCD7CC8DDB9879C996BDDABADACCAC97CAC88FAC9CF9A999FCBB9A88DA68A9
col34:   7BB9D5C8BBBCDB5ABAC7BBDEDAABC9BEB9ACDCBABEC7BAEACDAF7EBB8DD8DBA9B8BDBB7CAAA97BD8
col35:   A9AA9AA99EDABCDAACDCEEABEACDCDCABCDAAB8CDBC8C88DE8AC89EBEBBA89B9BDDBA5B9CAA7C8B5
col36:   C7BEBBC89F9CC9DAAC9ABDACEDABA8BADA89BB8BCCB878AA989DFFF8C88AACCB8CABB6CC7BC9B798
col37:   DADD89BDFC5C57DCE9CBDCBFAADD8BECBDAC6A99BFCFBAADDC8ACBBCCB9DDB9BDCAAA5AAB9BA59BD
col38:   78EDAEB799C98DBBACAD8BF8ADEDCEDDCBDBA9E9EBEFADCAAA9BB87EFBEC9BDBAE8BDA9BF9B9AEB7
col39:   76DBCAAC9CBCCAE9CBCBB8FAABBCAABDCEBBFCADFDDCDECBEF6D896BD9DA979CCACD8D7EC99A9C54
col40:   9ADAABBC8ACD99A8EEC8CFED8BACACCAACAAEBDB9EB9A9F9AB9D8DAAFEDF9ADBCBDC9BBABA8A9A9C
col41:   CB9B95DC7C98DFCA9AACADACC9AEFAC7ECCDC8ACDBDBACFC8AF7CB8AAC9CA9AAEEAB97DBBDA9DA94
col42:   8DAAFAA9CA9BCCB99BBBBD9EA8CDA8AEF9FBFC9DBDDCDBEDADFD9CAB9ECACA8BAFBCECDBAAABEA8A
col43:   ABDCCB9CBCA9AB9AA9EBABCDC8CDECBEFADC9BEBDCCFCDB9BBCCE5BAA9EECD8B7E8AAAB79DBCFCA9
col44:   BBBB9EBCBBCEECAACCBFBAFDD9ADCDDD9EDBFBDBC9CAADEAD9CCCDBADAA7AAAABDAADCABC9ABCCCC
col45:   B8AECBEBBACD9AAEC8DC99BAEBDDDDBABFD8D99CBFC99CCCDACC8BBA888DBBDABBCA9BDBC9A9CA9C
col46:   DB8ADCACBBAED9ACD8EFDFBCEBB9DBFCCBAA999CCEADAFCBD7CF9DEBACEBA9AEFBCAAACECBBCCD79
col47:   ACE7BCBCDE9AA6DCDCEDAEBBDCCECFAFFD9CACAA8CCBEEACCCAECCCCAECFCDCEAEFB9E9DBA99C8CA
col48:   B89DBB69BD7BC9CDDB98CACAC9DBACAB9DB9DBB89AA7DA9AABBCD9B9FACEFF9BDDFCBD99B89D9ED9
col49:   A9CABDBACABFBBBBCA9BEAB7DBBABCBBBCDECB987A99BB78DFDBACAFDABDADB98C87BDBB9DCEFBD9
col50:   CBADBDCADEBBEC9DDBCBFBDEEEADAEABAC9B8AFEEDD9E69CEC9ACCEBDC9ADBDCBDE9EF9BAB9BDBC5
col51:   7DA77BA9E99D68AA8AA9B99BB7AB8B9B8FF9898CDC99CBDA6DDCDC8A9999AAD9C9C9E89BBB799996
ROC:     BPix_BmO_SEC5_LYR3_LDR14F_MOD3_ROC4
col00:   8A665768557525A998AC9A988AAE69BAAA9AC6BDAC7C96C9AA9DB896AB767B799BFCBACA8EAD9CBD
col01:   985494BA79BA8A8ACD96A69AA998FD8BEC9EACB7BFAACD9BCBB9DACCEB9CAAD99BA8DDECB8BCD9CC
col02:   7776AA86C8A39989AABA96B588B9AB8A9A7BBBFAEAB99BA898DBCDF9CD9EC8BEF8CCABAFDCBAEDBB
col03:   8868A6A9A66B59A8DDA8B9ADA9DAA9989B8ACED9ABBADCDCBCB8BCFBAFC8DEDDFAAEBDCBAB8ADABE
col04:   98957864BB5887DB868B999AACB9BC8CABEF7DBAB9EAAEBDBA9CDEBBDCCABEDDABBAFC8ECC8BFEEA
col05:   427545759C9AA69885B78928B9BBC9AAB9DBDBAC989AD8E99DFB89ABCEEAE8C9CFEBEA9BD9BC9CCB
col06:   162787747197D7B6ABC79B9979CACBBBBDAAE6CCADBC9A9DCDCACEBCCC7BDEBCCCCCCE99ABBAFDCB
col07:   97A98649656BA2899897C7CA9A98BABCBB9AA8D9A9ADBD9859AADDDBBCECDEDB9CEE9AEDDBCADBAC
col08:   6768C746767697689688798858A6C9AAEAABDDC6ABBCCBBADDCBECBBABFFC89DBCCAAA9BCCEFBCAB
col09:   575C7767A4A9677D7776CB8AB7BCCCBB7CBC9EB98BAF9DCCA6A7CAFBCBBFCBCECDCBBC9DA99AC9BE
col10:   6867496665A67B65957B698966CCB88CABEB9BBEFBC887EEBAFBBD8BCA9EADCA8ADAFBD97CDBCD6C
col11:   49697A81789647BAB496A9796AAC98C8987FA5BABCAAA7CBDBCDA9B5CDB9EDACDCCBCEA9A8EDBADB
col12:   86479584599B89A97BC8848E87B9BA9999ACA9BB9989BBBEBB89CF8CDACAAD89A9ACCBADBCCCF8ED
col13:   82636467586695B48BC5478D67E97B97ABAAABBA7CE8899BAB7DD8CECEC7FBECDDACDDEFBAC8FC9B
col14:   438675464A8449AB7878869C9C9A9DA9AABC9A9D9BE6A9CA9DA79A97C89F7D9ABDACADB9C8D99BAB
col15:   76478948887967896966878684B98987A89A98DA77BADCC9A979ECBB98A9ABABA9DCE9CC9CBCBDB9
col16:   62955749459A55698527A6776AB587AC8A6B96C75A99CAA8695D7BEAA8F9CACECCBCD7C9AB8B9AA6
col17:   54473867278738545679958554A899BC9988ACC889769C7C967C89ACB9EAB9B8B9C99B6BF9CEAAD9
col18:   45794869A57675668A7689BA6975D9B879AB7986AB687699AC7A7999A6CB98C8A89BE96AA8ABABBC
col19:   74838884737439A885B886988A89BA5BA79A9E77C6AA7CDC7ABBCCBCDCBCBABCBACCCECCCBDBCBE9
col20:   538585277466564665989C78896758A9A498B979A9BB9B9E88B9AACC9CAB8ADDBC9B8B78C4CCDF9D
col21:   6774544631A6C85553B759859767578A4B76897B998875C9BDABDFCADA8BA987AACA99ADACDBD989
col22:   1467445459765A756B99566844867899B6ACCBD9A88B88AC9A88BD9BADAD9BB69AA9BBBADE9E9CBB
col23:   57724744AA83583677A798C6797B5C6879769A999AC952BA9A99A79AE88ACBDB9AEBAC77AABCBC67
col24:   663445436969A756766A765A857C689A7A8C7B99CB6A9AA8A8E7C6B89BAB9A8AAA6ACFA7EDC9AA88
col25:   83459455536438575B7576A9546766756C699AD9BABAA66C49A8CAA8A8BCB9CCA9CDCBBDBEBBA9DA
col26:   6766786488B5A76775A678AC8B6A87AA879BA7BBAABECEBABDCACCFAADDCEDC897BA8EAFAD7DC7AC
col27:   562559837AB94987856959A495BB8898BBEABA699CA8AA9ABBABBDA89A98FCAFABCEBCCACCECCE7D
col28:   6667A238969993643A97A8866877A88D79C8998CADDD9BCB9968AD9EB6AB99FAFA8CBAEDBBCBBBBB
col29:   542978185A74794C65488A9A489698667A9AD99A8CC898DBA7BAB89B9B7C9AA9ABE6DBE98D9DEAC7
col30:   9456566A36667D8C6AA6ACBEA78477BEDB6C97ADAA7CA6CA7AB97D8A5BBBDD899CA88DDABDD8BC93
col31:   3955836A9397A5947675896987B68AA57ABBB9C87ADDA7D8BA9AC997859BDDC78FA89DFAACBA9BC9
col32:   4566957868877886667645BBE8A867A8977BCCAA79BCD8ABAB9F8B989CAD9E7CBCCDB9EBBBAB8CD8
col33:   16645B656598AA916586856A7576B56A8A8CAA9B7C7DAD899AD7CACCBC9AA7ABAD88CA99A8CABA8C
col34:   56565A44977588B667A57C95AA6875E8BAC96C888BBA8D78A797EAA6B7DCB6ACCBADDB9AADE9BBB8
col35:   46455158A82B876676635A7B69B9A87559E86AABC78B68A99BA8CCBBC7CBA9BBA77AB7AABCF8DCCC
col36:   756697A689341562BAA765A69996A7DB9BA599B9A8A7DB9B89B99CC5BBFBBAAAAC9ABB7DDBDAA9FA
col37:   9165579934697A3696587A5CA698968C776ACA7B66559A7A798B9EBE9CB7BB9C97BB7B9EACD9B98A
col38:   4962743A59984776798878677C47BD9C89D8DA6CA9B99C98899CBCACD8BA9FA9AAAD9CBE9B78DC89
col39:   753465866853958A7B69786C397A9BA887E8ABB77968BA8BA59AB7A8A8BABDEA85E78ACDD57D8CB9
col40:   4755A5593289789B97749698A777C9BA888AAB98CAC888BACDBD69CA997A9E8997C9CDA78BCCDC79
col41:   133324648754B987846B948B78867C9A94A7A88945A88788B87A79687877C7A9AA7BBBFB9899CACC
col42:   45162994BA7796544975698999D96768CB57AA867948AC6DCB897EC88AB8A9A8AE9CA99BABBA8CE8
col43:   46788563886675A977657766A895B5C9986C369AAAA99A69CA7A989AD7AAC89A976A59AC89ED8CA9
col44:   47647557577B4965B4B7967A986849D9AD88A9B6BA59B9877A87ADCA84E6FADCA89BA779BC7BBAC7
col45:   654778745614848938598398A978A948A47A9A849798B89DC9799A96ABBDBAA5BDAE978ABDBAABA9
col46:   95254B9774A969617575C9B67476B54649B94B64BAA6C66CB699A6FDAAABB98887E789CB889DB6AB
col47:   53884575756567348656399A6564976998A868685989A98986DAA8A9BE99A65CAA8A587797BCAAC9
col48:   2183648653559537665985756976C8A89A8A69B3A996587699CC8B73CB6B78B79AA97DBA8D8A9C8A
col49:   5454468178597335378965A8C4995369AC469362542997B959768A896A96A8CBBA6887876AAC8483
col50:   61835697654945C47A2445586496B866A865B655DBB97C9B98A78E985AABAC8BA838DA99C99AB9BE
col51:   258125644265253756455496773867465945678569C66765646665476887677548AB85B8A757A7A7
ROC:     BPix_BmO_SEC5_LYR3_LDR14F_MOD3_ROC5
col00:   7666983584784B45C7759887595469786777E766AC46596659626771827462683B36463552775731
col01:   548693667A9899CB278A93A79B96E7548989B566A7976B9B683B9AB4879B2A778755771774967B61
col02:   956986597B8679A6D2A9B64A7DA89AD45B86B9887889B7B9AA99778999C9B5451C45668543758774
col03:   C58AC3D457A78CBD68E9D73CDB94E8997A6789A5D77BC88ECCB8899D99AABBA567677877D7AA5368
col04:   92BB9A5A89B93C76DA965999CB78CDBABD8599AE999D6A8A68859987D978466C86B78A577787D964
col05:   C9785A676B2ABAE47824A6D6A8B899B998299AB56887885997A8669959AA77596578998869639767
col06:   88B799CA5EB68B8568486B6BA99A999888B7AAD878B5A7ABB9C6A58B9B3BAA576889486A56455592
col07:   68995868857C85954A8AB87A5887B5A88BD8878D869ABA9C889A9578878697CBAA45965A5A6C5941
col08:   88E76637584969477759646E79A7E6778768A87B689D75B8B9CAE787598B46A78A996C8A88777455
col09:   877A3B8777788AA9BA978585C9AB778E9A879CCCB489B99BAB6BB97E896CD8CA769A99B554627944
col10:   4A7A8C8974B9789B9C5AC59D889B7ACBBB8788878CB8B56BAB9566A8BD7AB2A4B937B794574AA973
col11:   9687778978B55B87BBA796A495897B99A799A7A69DA899479A6789499BA8579AA73749477A336591
col12:   5666A9AB79B9B986845568798985A9A7A877C9C799C489AD79CB686CB4B79586B9865B4748877B66
col13:   987AA697A6765B859589686AA5C6A767896BA9563AB7CC6BAB8999C69D687C8B9867988457BAA873
col14:   969977B577B79985B98C86AAE997575CA99761665787ACBBDADB7973A6D77C99886B183568A6A695
col15:   8A87CA7177C9CC7C86B7789AACBA8BAA88565C878BD69799B4A8B966A69D7A78D57C69A578B8954A
col16:   9564766A5569857B578A99B9A96A87B5B6B798A98ABB9788A8796989AB9A886A7B566B984783C6A5
col17:   5ABAA9A37698566891868AA3CC99A64B67A55B75759789A9B8A796599768A6728746AA4E393855A2
col18:   766D788988AA985B5857B99C797988B9BA9D5D89778EAAAAA77999A57564AAD979A8ABBA855A7294
col19:   5397992867756889B899DB6CCB99987A89BBB8756CA8AA8A8778AB797F9C996676647B9665887645
col20:   65846A7A768AA7ABAA646BBAC66B8AC6A5A978DCAB97B8C8A6B9939B353646AB85AA5C6B77A795B9
col21:   784AA76469D8688A968595AAACBAB898B98B87BF97C9E78677ED5A9AB98C79A476D688685B98B649
col22:   98A657658945A9A7BA7B9A887E788697799C65AAB9C8B8A997ADCDC9776997A7A6787C77875C8ACB
col23:   83659AAC576A69769AA59867B6AA99E7DAB7DB9B95999A8B8ABC7BA5AB778697679598888674AAB7
col24:   69796B838A9798957666B85998AC78B987C997844B967A7986B996AA88D855498968886BA79686A6
col25:   7677595975679867765787BACA799999989C9698CB54678BBC568C88B979CB9A8699A9AA987C996A
col26:   96AA8DB98A976AAC7F9FAA89CB87B98ED79ABC9CA9CAC7EABBB8A99AAD9C9BBC9FA8ABDD8B867894
col27:   9B996468BA9CB87BAA97AAECCA7BBAA7F8E8A9ED9B8CBAACD9AFC7CA99C789CAB7E9B5CBAC78A7AE
col28:   7A767B7968B799A6B999ACA885CDBABABCC9EB889BADBC9CB9DCABAAE9979EC95B9D8B89CBCD95B9
col29:   A59969B8778A99AB5AC546F789BBC9D9AD7DACA7BBB8D4CD99BFAA8AD9D4C9698AA897B899969AAC
col30:   2A7C98B39B6CDBC9ABAA89CFDB97DB59CCAB88BEEB8CCDFBAB6CCABCD77B6B9AA8CAC86BAA8CB797
col31:   BB8FD7BA99AACA9A6BDBAA9CDDADB9D8E99CBDA8BADAFDA9AD8EFECCAAABFADCACCCD39A966DC9B7
col32:   C5998DB87B98A7A7DCDFCFABF8BECDE5CACEF9BBCCCC98DBCBDAEE9C8ACC9B9EA9D68A8A88995779
col33:   88A9F8CBB97BACADDC999BA8A7BBBB999FC7EECA7CACCBDE8CA8CAA9D7CBB8CB87AA6CCB3B8889A9
col34:   E75CB48E7ADC8BD8CBCABFDBBCADDBEBBBBABDC7FB9BABCADECAECFFDACB999AC889CB9DDAEFC7AA
col35:   CD676B99ADD797AAB7DD9ABCBCBD9DC9FDBBBA8D8DDBCFEDC7ABCAA9CA8CA466A7D9CBA8E98D7A65
col36:   97A799B7648C7D7999BAA7DFACBAAE9CA8AB98CDEBBD7BEDBA6ACFBBA79969A7AB9BAD68B8E89AAB
col37:   88C7B8A99DE9BDA96EA698ACBD98B8BDCEDDCB8B9CACDD6CBAB9DE8BACD9BDBC8BCBAEEAA969AB87
col38:   CD9A9BBB8CBBDBBDDCEAE88BC9D9DCCBEEAE9DFAE8CFBBB9CEDA9DC79BEBDDC9B6CAB9CA7DECA9B9
col39:   9CDA7957AAB87BEBAC7DB89CCEC97BEB6BBACAFBC9FB998CA9AACF5BABE9BB99B97B9A9ABFB798AC
col40:   C87ADACCADCEB98CE8CCAB9E8ADBCCABEAA9CBDCEB7ECCE8ACCE9BA9CB9ACACABC87B9869B9DCE8A
col41:   7A9DA68788A5DBB77AC9BADB9BADBBCCDDABBC9DDAA9C97AAB9C8BBA9AF99EDB87B87C7AF999C7DC
col42:   C386A99CBA8A88CECB89CCACDBBBCEC8A89DDCC6BDAAFB779CDDCCBBEA7BBCABCB78C9BBBB4B89A8
col43:   C5989BEEADFDB8DB8ACCAAA6C8AAC9DAC9CEB98A97CCDAC9CDCAEC8CBDBA8DBC68C5CAD8B96D8B9C
col44:   CBD4E9BA6AABBBAEABDCA9DBCFBCCAABDAACEB7EDA97F9CACEBAC89FEB8DDBDCC95BB9BB9B95ACA8
col45:   B87A98A6F79699C9AC8A99CA9CCB999CEA9BAFDBEADDCB8ADFCBBCBDCA9ABCBA99778D469B9EC788
col46:   599BEE7BCDBCD9E9B9BCBDCFAABCCD8CDADCC9B9AAEFBABA97D8AABABCDECACAE6C7CBC8DB8BABBD
col47:   7C9997CA8DAA9979CBC6E9BD9AFDDC9CD9A9CC98A98779AA9BABA76AC8DDADFD8AC87A7AC7A9CEB6
col48:   78BCB59A87BB9E9E79DD9D7EBEACCAD9B8CCFD9BBADD7EBAB9DAC888ACCC6DE8779BCB7AA8AB8AB7
col49:   B77ADA7B898ACBEA8967C7FB999FBA8DFCECCCEB8DC8DFA8DB99ACDBCC8AADA8CCBB88BBDA6C9788
col50:   A8CC65F9A8B9AB8FCCA87BFBBBCC86AE9C9B5BBB8D99C9AAFBECBCCABE7B9BCBBC8BD9DA5CB8CB9A
col51:   68757A8D765C5956AA659CDA77A9BD97B7A9995599A7D9BC57BB86ABE964AC7D9B8685748D8A388B
ROC:     BPix_BmO_SEC5_LYR3_LDR14F_MOD3_ROC6
col00:   6B5782692D76A846667576AA678444966ACAC4A7C85779C9A73767C5347A55636894545677564163
col01:   A99994A88A5B889894968A5777AD867A958A7A65CBD99A88B6B8BCC897537A958A8977485AAB9765
col02:   98B7967787876658C7B979BD8AAEC79D7B8CD75498BCB9ABB99BB8C94A5997A88985869777789978
col03:   97658977A758BAC8A676DA9EC68BD5BCCC98F8BA9BAA99A9A79AA99BA5997796A8988886B753C492
col04:   989847A4A99B8768698C69AA994A998A69B4A6CBB8C4989B9C7CAA8AC939777888484846A69A98B9
col05:   595698B6BB85BBC5ABC9AAA86CA76A57CC89CA6698A88C969C9858875B87AA9A44A8957D7A488785
col06:   9866A9694A6D568948699E9B88A9E3885CA9AA79B98A779B9AA3884B7E64C87AB675475758998783
col07:   8D97AA75697665B795AB89B68A8BB9B8B9B7BA88AA5BA6C98A358A89D788797D75B7C956C96A7954
col08:   796B9788A55665D8B8A899958A99BA9BD97BC8A68B899C76BA7897878B7C59B68A8499AC7697A775
col09:   C687A9482D6763A86CC85D786BC9BBCAECE88B8E9A6A78797BACB9ABD7C8C9486AC95A7A7AD6A874
col10:   B77A86689C4CABB8589A94799694E828AA8A4AF87A99788B39B679687CC586796875A66777797F84
col11:   6178A896C69B96BB8A9D79B6BC8A67A5AC9937ACEAB4899989988A85973675A86449B65758786985
col12:   6A47B86C3A98A98979B7279A7B798A9A898DCACB9B7CC8989A843A988988866C8BA4D9868A975379
col13:   9995769A86D7A977A69B6C4B79BAA69AA8B8A9A9A989C778979A688577E464A667566A58559AA856
col14:   99B78995A6AE95CAB97A86976AA7DADAD6AAC989D97DA8AA9ABCA8D9879774D655979B7869797473
col15:   7B76AA9787878859987A6BB98A6BC99B966B6587AAF7BA7AAAB7C7B9BB9A876A95766348638989B8
col16:   95A36B569CBB982B7B97EA8A7AB849B7CD7799A89F9D87CC88A89777A89A85B9B7A84ABCA945A837
col17:   7A7B67869AAA86ACB9D9BA8A95C96859A867D895999AC87BA6AB9759268996C59388997897758698
col18:   385877B976B989B8BBB98AACAB39AA48BA6AAA6A8B98A9DCC79A869A6956A6AB8794EA5975888764
col19:   9CB68B77BC5CD787C999ACC899798EA857B4878988CACD6A99A8BA657B589579759A87879AC72997
col20:   957879C9796668B9A7BD7A7A99AAA69ACA69A6BAB58993BCDCBA399995358896696669A567688AA2
col21:   A77B866A9B4C979C9CCA98BB9AB98E8A989DEB5B978CABA83C79B798A8AC778A678F9A79A586B78B
col22:   A489BA5C6766C6668998735A8B6B6BCA8BC88799B988CB8699CC6B49BA87ABC9B8634678A872B697
col23:   A848BA96885CA759797BB687BABCB88CBA98A87868758B6977986CB7E779C8C99759E76999C958B6
col24:   62CA8A9BDB8A6D88A8DAA8987E9B8DBB5CCC99ABB89CAB86388965ED89A7879986977D55B5572694
col25:   9656B789A9A7BB9B89BB78C9B786BA9BCA86ACBE7E7B7AC9B8C77698AAA64CB999CA4BCA59797952
col26:   DCCC88AA8B9C8E8889B98CD89D7DCDBBB9898BFBCABAB9D98AC9B7ABD8A5AAE9C6A988A9CB6868C9
col27:   EA76CA999E9CA6D6FC8CD7CD9CAEBCBA9BF5AD9BBA9C979CC9DBACCAB9859CBDA97DE6B7AD674579
col28:   DAA5B89ADDA8BB9BBD9C8BA9CBDACBCB9DB98BB7B9AD88CABC9BC6998689A8BEAB9CAB78C8B78851
col29:   6ADA8CAEEDB9EBAAA7BDDA88DBC9EDFA9BAEEB8BB97BCDAAB8CCC99E49885BA9D9B56B8AC4C88BA7
col30:   A7A7A99BE6A68AEDBAD9BCBCAAED99B7DB9B9CBAEE9CCECDE8B5EB88B7DB9B869B7CB5B859996B98
col31:   9CABCB7EDADEECDCAAECBCEB6979DCDB8DECAABCBCF9BE8EB77A9ECCC8E8CC9F88C3B987A8A9AB73
col32:   ECABAEB7AD8CAEFCC87DCAE7FBC79FC8D8EECCDC88ABDE9D98BDBCBDD7E9ACAABAC57AD89FBDA7B7
col33:   BB8ABCBBCBD9C9CBEDCB8CDBEAE8CCFCABB9E9AEDC7ECCCB8AADA9CBCC99DB7DBABABDA9B8865A69
col34:   CCEBAECEAFCACCCECB9BCB79BAADBFE8EFB9B6B9A9DDA79ECDACDACCDDDEAAD46FAA956CB77BD7A8
col35:   F7CBD8EACAADCDADB59CCCBCDCDABBADECB9DBCBBEBCE9ACEBFDCBDDBB8DE9F9CBCACC8A79B78AA9
col36:   89C9DAEEDCE9BCD98AA99CE988AD9A9AEBCB7CEABBDCD9CD6AB9B9EABBE8D5BABBEAA8B8887DA986
col37:   987CB9DBCEC9CBF8DEECB8BC9DFEFDDCC9CCABBCECBBBDE79CBCB9ECADF9A9FA7CBCBB9DEE94BBC9
col38:   CBB8ADB9CCDEDBFCABDEFBEABEBA9D9DFFBDDAD9FCCECDE9DECDCCAE9A8ABCDBEBCACCC98A79D897
col39:   CB9A9FCEC9D9EFBCBEFAAEF8BABDFD7EECDCEEA9ECDBC9DEC9DDBCADDBCFBCBBCE9FBBDEDBBCC6A7
col40:   BD9CC9DED7AABBDAEED8CBDBF9FBCCCCBCECBBA9BCBCDABBCCBA96CACBBB8FECDBABFBB6BDDABECB
col41:   E9ADBCACF88BECAECDAAAD9DDBBFE9BECEBBACFA9FBABBC998C9A8BC9EB7D9BA9DCF977CD9C8CB98
col42:   C8E9CBADAD889ABEFAAFECBCCACAEECAFCCDCAE8CEC9ECFBCAC9CCBEECBBB7BDCCC9CB97BCCAB8BB
col43:   FDDCE9FADCA7EFABE9FFEEBC7EC89ACE998AFDF7FCACDCDEBB9CAB8BEDCB8DCDEC95ABAB8B9A8CEA
col44:   BFCADBA9BCCDDFDFBBCABDFEB9BCCFFABC9FBCBDFDBDCAEDFCBCEEF9DAEEDFDABACB9C99AAEACCC7
col45:   99B7CDBBEDDCEDECFFECBBCFCDCB8DBDCDCDC9CBCBBABAEEEBDC8DACDB9C9AE8BBABC99AD8B7BCB7
col46:   DDAD99DCAEDACAF9EFDEDEDBEFFCBFEDCCCDCBA9DEAEACC9D5B8BDAC9BFFBDABFEAA7AB89CC5B9B8
col47:   CD9BCCADC9CDF7EBBAEF8BCD9FCBEBDEFDDBC9ACFDDED9DAFADD9FFACE8BBAC9A8CAA7DC6BBDF646
col48:   DDBEAA699DBE7DAB6DF979EEBDF8D8DCECFCBDCCBDDCDEBCC7EC9CDBECFCDEABEBB7AFBC998DC997
col49:   FBFBFC9EACABECACD9CAB9CCE9ADDEEDDCFBDDED9EFBDEA9C9C99CDBABDBEACBA978B88ABE8DD92B
col50:   BBDCEFEDBADAEDE9FBDCCA9EFBEDEFCFBFBD9ECF99B9BFCEC8FAEECE8BBBABA9ABCABA79BAFCBCBA
col51:   B69A6ABD9ABAAABBABB97C9CBADBBDC9C9BC9BCB9ABC888AA8AE665AD8899995B8A76BBA59979BCA
ROC:     BPix_BmO_SEC5_LYR3_LDR14F_MOD3_ROC7
col00:   A9558CA99C768A67697C8C86987A898A9AA569ACBB98A8BFA9B6CAA7E8ADAC7765675E9778CAB897
col01:   889A877C96A897989AC94B93CC986B7A5C9C89DBB98969CADA9D9C9FBAC87D78AABA8D889BD95998
col02:   984776978BF5A88B85CA7ABB7AB9F676ABAB99C978CAA8EABAB889C8BB676BDB876E98AC8F9FBBA7
col03:   6B6889D586BABA6BAAC75D69CBAD6C698B5AABAAADBC99F8CB9AF998D8EDEDBD5CB8BD9AD899B899
col04:   7497C88A5879B8B9AC9A8C8A7799BB7AAAD9FBCCD888CAE7B7AEA9B9FBB89EA8BCA8B97B79779CAE
col05:   887F999AB8478B87BBEA8F9BEBBBEDD8BB98DCDCBAAC7BCCA6D77ECC9BAAE9BCCBA988BEB8AB8C8A
col06:   9699B5A5BC78C95965BABDAAE79986C8CB8C76BD898BAD86CCA78DEDBCBC8B89D87DDCCB9C9CBCCB
col07:   C777A77886AB5486DAB4DA7889C7A97A87B58DBDC96E99FB6AC9A9ACCDD9FA999DCBB9B6D8B9BCA7
col08:   93785738A596C7975CA9C9AA77AB699B98BA4B8C98AFCACF9DA9ABE8ACE7ABADA9AADC9ABB598C8B
col09:   89959C95DB69A9AB98BC78A988A9F67EA88BEB7ABD8BBBBBA99AEC9CB9BD67A987DCDBAA9B9EED99
col10:   9B6AA8988988AB58A878A7768D8BBAC88697B7B9CCE986CFB889A9BF7C8AFAAABBBDB88DBE98C9DB
col11:   6886B7C95B7A449A88B939C7C9B97986969ADCDAD9CBDF6A5BA9BDB9BCB8BCA8B9F7A7B8B4A6C999
col12:   7668944779358899A9A8575B4C7D7C9DA9C9AA8C89E799B7CB9FA9A9E9B99BA9CADCBFD7FCFECA6D
col13:   4A5676464AA9936A8B8BA9957A7ABACA5E9A7D7BABD99FBBABAA95CA9D9CA9DBD8CCBFCE79CDB5FE
col14:   88477AA87C989A69A887DA9B7ABD96BD9AA9D9BDCAA8BE799D7EABBDDB7C7BBDA7CCAABABB989A97
col15:   B5758875956659959859ADDABBB4ACBD8A94D98DBAB9DB98FC98AFCAC98CBE6EDBC9A9D7DDBD9A8C
col16:   3545563A858556A2A769887A8A96A9BBA999D8CE8B8B9DBBBAA8D88B9D9BDAC5AE9B6B9D98ACAD9A
col17:   56A777A75868382869879A586698AABBE9837785BBBD5B998EA9DAAACC9CBDBAAA7BACA5C738A386
col18:   57967676743978969798AA9878A867B9B99A9BCABACE6AA86EDD99B8CC92DAD47B8EA967A6DB8C3D
col19:   6687965796A67BD46B86B7A6A9899B2C9C489BA99A9BA6AB9DCAD9D5DBB8ACE8A7C9EDDACB9DDAB8
col20:   98743B9374A488897654987B9B8799A9E8C9A7AAB979E88AE9989B8BAB9BB8989CB89BBD89ABA977
col21:   8297B9859796679A9856C8888977569D9B8D8A97CAA9A89DDAAE7BAEBCAAADFBCCD6A75AE7C77BAB
col22:   367677799878888B69889D28AB99A8C89B85CDB8ABA7B5AD8B789C7FCC9DA99AB9A69AC9ACCCB95A
col23:   597775786483AD6B743A9C687C6BDBAAD9D9A89B98DB6CBB7F999CCABDE97BABBA9BC996AAC98C95
col24:   B763677A5953983BB78A59BA95CBAB8DBACA8FB7ACBC68AA96BDE988C9DEDA99CACACD3BA99AA88B
col25:   576715613977AB8B677C599787D68CA4DA87D7CC6BAB98E97DCCC9DBDBABCBB59AA77C99DA9A7AD8
col26:   97388A389788A9A868379DBAEE65AAC6B9AD88CCDBDFFBBCED7ADBFBDFA9AEDBC9ECBF58CD7BAD9A
col27:   67A688878464998AC8E487A8B985B87DADEAB99AF7A6BCFACBCFEF8CDBBDC89AD9879DA8FCEABB7B
col28:   C8A747B496D9AA887A97B8D64B9BDBD48BE8C9DC9B9DD8BAD7D9B8EDDBB8A8AD5EBCBDCE8EBACB9A
col29:   568395A986C7A5C6879AACDBB9A96CA9C7B7AE9FDEB7BDCFBEFCBDC8EFACAC99D8D9ADBDDBA8CDC6
col30:   723775698367898BBE8A7A6FC9799A8AE7BEFD9ABC7CCFAAD9DCDBDE9DF7CDAEDBCD9BC9AABBACE8
col31:   7AA6617579A98AA986A65CC7B7C98D76B6FB9987BD879E9B9B7ACECCE9CBECEFCC8D9CEF6BEDE8EB
col32:   235667A699986ADDB7BBAE68B9AF8879DA9D8ECACBDC9BDEBCBBDCECCEBDC9D7CDFACBADBBACAF98
col33:   3D6795A46556876E8986876968CDC8CAA7FDBBECBABBCB9EBDADC8CFBBADDDA6898E9F9B9ED9CAEC
col34:   37699B7876974C1BC7B7BA6B9A8B9B9E7B8C6BE6BAAF77BECACDBEECD8ACDBF9ECBDF9ECCDAB89BA
col35:   B9A8A91565973A7A8496CBD86B9E89BAA9BDCE969FF8BCCBCD4ECE9BAFDCCCCDB8BCBAEB99CA89FC
col36:   555CC76598649CB75838DA63FBB8DD7B9A9B9EC8F7ABCBDDA9AADA6AF8EAEB8AB99DFF9CCA987FA9
col37:   99AD9993457B787A5AA8898B798879D7BBA8C9ECB9AFE8ABAEFBDCB8EAE89C87B9CC8CBA9BE9CDC8
col38:   639776786478DA9887CBBAB46AB67CAC9CCFEEDCE97AB88BDBD9BFAAD899CABBA9DD8A5DCAA9B9AA
col39:   8668556678A978A7C8799899B99C1689C9DCCAE7DAACAD9D9CBCBD8FEE87BABFE9CA6CABC8EA9C9D
col40:   5A6BA798595A3886B6D7916CEAAACAB8CDCCB6BC7AAB9CDCBC8ACA9B6BFB9F7CBEB9CDE9DA78BCCC
col41:   7499997A955566B66BDA9599959A778A7979ADDAEBD5E7FD7A6CEAABBBD9BCCADADCEC9ACCC79EDD
col42:   966785C597669CB6B5593697DDACBAA98B9C97B6C9BABAADA9CA9A6CAAB7CDB9DBC88C3FB9ADD6C8
col43:   5663699547476986545598899B925B86A86DB76A9ACB9B768D9BDDCAACBCFBD9BDAC79ADABAADBF9
col44:   718A377765965C8CBB6C6997998BE8A7CEAB78BA989F9DC8ACB7AEBCD8D898A9D9FC989ABCA8DA98
col45:   6516655839678657584666777B6AB9995C99DF8B9D96D9BCAABCCDAA8A489D89CBCDCC999ACBBDAB
col46:   776A585A647376687A7789898A5AD5B989DF9A5EAA9BAB9B88FB8889A687DABEEABDA9B99ADAAA85
col47:   B676336696BB75857A799CD8A65A79C79BD8D7AD7B9799CB49BBB74DBCCC9EBCABAD6C768ABB7A8B
col48:   5466894566297A45B86B98B7A856ADBA5E99B6B6B5BE698A85ECD69A98A8965BBAA6886ABFABB78A
col49:   875859446B73697A66A5C8564775B6B88AC6599B8AB8C95BBC798B8955DBBB6578C99C9779F89888
col50:   47336598965C87AC746685A9F99A5768BA6BAEBC59669877B7A77A7FA8ABC9DA8A9C9ABC64A87988
col51:   2264146362227246678436372665845746358383854A6C986A85788B75B9977B9477A7A593A87576
ROC:     BPix_BmO_SEC5_LYR3_LDR14F_MOD3_ROC8
col00:   471619567598736E65B734A78458458574584C97367A58B1787874593C95896B3662B586545A2689
col01:   38A6958B898788A99D858996C7C9A998FA978DB4ABB288545599995968999AA768A7476966677717
col02:   97287A99679A6995A31867937692A8C5A894AC5A7B478856876A5A8C8C9B9B9D96B35BBB86AAC297
col03:   871677A7B84197C8A697A64568C6787658979DA8E88996CB73C79A77B7AC969666B6879AA681865A
col04:   656A593787A695985875767CC27A48BE847C89B396A9C6ABBA7BAA6747979B6C8987999AA6899688
col05:   686859875A587AB877D679B68C4A8A6BA787888A7969A6799953C4B9B66A35A9D7A777887562857A
col06:   68169A689763698575A3B8867B738CA79B5BA9D8676CB9657E79C988A677B7C58CBB8D985567C666
col07:   852793575588488872995A7534B977A8997C9C88B7596B579794755AAD89A8CAAA889D8774B8A987
col08:   7785674679B75546A76A69796DAB98F6A89C97CAE789C9B88B899676ACA96888878895586CA9DC8A
col09:   56667676872664979B9B5887A59B795AAA9998B78CAB997A9BBCA8A8899A698797C34587543F77BA
col10:   5124867879B77BA878A9599ACC97878B79886C78949B7A79AAD7C9A74A7985986886AA7D8B88A8B9
col11:   3A73689476457B73B55A569B926AA661A836B55D98AE8D97995D88A97BD3894A7B775C687CB98989
col12:   586386B98796B876586B58A987A5757C7A38BC7BB698C897BA7CAACA8C779465A678B74ABA8AB9AB
col13:   7566A98A6BA75576A839997A8D88A4ACCCB9BCBA966ABB9BB95D98AB8AD7B6FE797A6A7AA8A796D7
col14:   A459C9857B6355B47177DAAB76A97D79DA9BEAA9A58BC7C9E887978489C6996BBB797B866688DA37
col15:   674671847CB87A99BC799B79A6B3B4AB48787CC789765BA7C776A89E69B85A79AA9AA74A99C747A9
col16:   536A6AB579A487187AA6A9786AF8989B9A9698DA73B7C8759C98B799D5878997D88746874BAA6AB5
col17:   967A5877695799837597C9C84D786888884892CDA3AD685B67E99B8989A6B87B58FCA59A69A344E8
col18:   63681475279797463E8483679686837588A67986D7A99C8A9B95D4EB97969589B3689469C7978737
col19:   9B4568946388B857B72787ABAB98C5978B698A6F9CCA58788D989C37A4C98B9B3EB6A887385B89C7
col20:   38685769663CB798767778AA58ABCC7D8A9B18AA76BBB97D67889589C69869994657A5B768619C94
col21:   66678459A9559674964569C559997AC98AC4572B76579DA869A6AC9679BBA89CB5AB395C79EEB29A
col22:   BA97855D41898713939B8C54B58A99DA8EBE78AD874987B9D98B56C89568A9C86897A9A5AB6B7FB7
col23:   794634778B6A769C83869657C7794B45AAB48A6BAB9B256AA7A74E88988696B6B877A958A98576AB
col24:   665587891A56998588A8A385AAB86AB8A69C8CABAA9A8A5877ABB6CA967F9CCC99BDC9999AB8A587
col25:   A4578396A98966BA8896B88838CC8647D9788B9D8CAA78F9A798DA7C79A9BC99B734D9C8A99C9972
col26:   7BACAA699A75A97E776A8958676BB977BA988CC6BBA769CA5BB4C9ADD3B9AB8AACBD5BB9BA9C9D94
col27:   7BA96858497EB5C88B7B8999C8766B576C77F884687C8D7E9AEC88898DC8ED67DD86BAADB4B6C86A
col28:   B79DEAAB6ABA64B7AA9765A6B99ACCA8D7AFF99CCB9BD6A6BD6ECEB9779ABFDAC9AC7B96B7CEA9AA
col29:   666669389D79A8B69DAABA798DAB9BABBDFD369999A9DD9976F7DBFEDBFC8C97BCBAB7BADAABB3ED
col30:   6C88975A5A78CA76ABD6E968BBBACBAC79BABDDBABBBED7B9ADCBA86AAC79789AAF7C898748BFC2B
col31:   9868D8ABA7BAAD7ECCA96AECBDA8A895CBAC9EE9FA9CACDE9B7D79DFEBBAAB9999B5E94BFCCABDB9
col32:   89888B6C8898BAADCAADEBBBEABE99F7D9BAACFA7ABDFA99EBCECBD76F9C99CDEC979BB9AAD895DC
col33:   9785FA578B877A7A88E897AB9C9DCBEADDAEE9AFAABAA7C997A7BCFCDCBBB9BFACD6DDDA9A6AA999
col34:   59738695C79978CACCF988EBD9E9DDFBAB7FB99DEBA6DBD8F9ACCFEBBEFDECBDDDFDDD8997F9CBB6
col35:   9886693BA989AC8564BAD9A5CDBD68D7ACABEBB9ECAEAE7CC8DF9999B7D8BB9BACDBD98CEACDD658
col36:   A7C6BAEE688E777BDC9A5DACC9EC6BC7DBCDFF8CDA7AAC99A9AB9CFEDCEABEEBFDD9ABAFD8CB7DBD
col37:   A7A8BA85BAAA6AE59959B7A9ABB6EBB6DADDC9AAF9A989DCABEEAEEB9E6DEFDB8CC899CDFCC8C9DF
col38:   47C9A7A8A9BD6BFBBC8EB6CCDCF9BEF9DCCA8E9CBFFDEADEBC9CAFBAEDDFBBDAFBFDBAACAABEDDFA
col39:   A538E99B8A6A48789BECAACAF8B8BA8D7DCBD98DFC7ADCBA7DA8D8CAFA9BEBCFB9C9FA7AABDBFB9D
col40:   4E58786CCDBA6C887BAAA9BDCACEA8AEA99FCBCCBD99AEEACCC7EDAFA4FBBFFB9EDACBBFBFDDCACD
col41:   98C7AD896D9EB99B65A6CBBEC879A9CAFCB9FBBAAEBBBFBFFAB9CBED7DFBAECACF9EDB698CEBADBB
col42:   77C8A7A88B9C8739DBA8DFDEAA8BB8BB7EE89FA8DB8FADB6CCDBFBBBCAEEFDBBCB89BDBCBA9EFDBC
col43:   7D9C987B7AA9AAFD96888BABBAB9AFCBBFCCCBCAB7FCFCCDCBFAFBCAC9B7BFDBEFBFBAECCCBCAED8
col44:   6AEBF8B8C5BA8B97B9C68FEBFBE8C987EDFEA8D8AEBABCBCBDEECFBFEEB9DBEA7ADFAFC8DDE8B9AC
col45:   6A8B878786EBA966D8F8CB9D99BA86DAD7D9CCB9A97FDC99BA67D9BDCBBAEDDCB9FFDAAEF9CECE98
col46:   CAAB9D6AB9CE9ADCCBAFCF6B8CB7BAECCB878BCCDDEAB99AFBBE9AEDABCFAD8AAAFDB88FDBAFBE79
col47:   8C75B779998DABAABBC9B68ADDAB98BBCFCEB7DABDBBBCEEBFA9FBDAB7FFBBAC9DD9D98887DF9AAC
col48:   AD986A8A886AABD6FB6AC6CCCDF7BF6FCEECBECDFEDE999C8BFFE9DACBCDD7BC8B8B9CCCCBAADBFB
col49:   6EE8ACB8B977D7BB9B8CCBD6CC8EF9DEB9EA9DFBCDC9DEBA8CBACC6ABEECA9DD5BD8BBDBCEB98ED8
col50:   8AEB4DBD8C9BCBAFAB99DB99EBAEFCDAAEEFCEBEEC8CABAA9DDDCEFF98DAEE9EBE9AFADAADAE8DEC
col51:   9E74A96996895778B9853CB97679B7948B9AAB7CC939DADCFC7968BD78ADEEAA84BDD637AFB95BA7
ROC:     BPix_BmO_SEC5_LYR3_LDR14F_MOD3_ROC9
col00:   6A8A7958DBB86B87A9986C99987B5849A6AD9A6FADF764A8857887E9AEB7B97677A9B8C878B8584B
col01:   A76599E6CACDA99BA497689C9BD84C9BBCF6EECADD29A6C5DCBAB8C99D6C858AA89A8C96CD89CAC3
col02:   A987698B889AB77BE9B989B9DBCD9BBB8A679BDADFA78B5B999BBCAB7D7AD5998E6EAC698ADE8BA2
col03:   68B7678B95DDC8C9DAFB9A9ACC9CA9ACBBAFD97B7F8DEAABB88A9BB9798AB97ABAB3B8BB9AAA7A99
col04:   A866B6788B8898BB7976D968ABDFD8AECAD8B69CCAA9788C9ADAD9E8BAA88EDBF95E99878AA89BAD
col05:   C58C8A9B6AAA7C6A5A9ABA8C98AAA877ABE8748BB7AA9FECBBD87C9B8CAEAB9BC8C7CB86DD6AABAA
col06:   B9C8C8C9C4CACAD7C8CBABDAABB5B9AA699B8879BCBBABF7C79F7866AABD7E9B97ABBAA86B9B8BCE
col07:   56E67A9A98A4C7A8A7B2A7C987CA9DBBAF3BAABCCAB7D79BD3998B8C667E56DA99AD59CC6CA8BAC8
col08:   8B68975767C8C6C8B87CCBB78DAACAC96969799AADB6AE7CB79DEC96A7B9ABBB69A788B84669B988
col09:   7B78ACA6AC9AA9BA968CA87996CDABCCB7999AB8FDB9D7AEADADD8AB8CCACAEAC85DE9CBAFCACA9A
col10:   AA997B888B76668997E95ABC8679FEB6A697CBC7AAAAAC967BEADB389787F98C9A8A7A56EBBAD8BB
col11:   494B8A9689D5C7ABDCAB779B9A9E9AA897F9B68CC9A9B8A7AA9CC875AC9A576BA69ACB89A8669B7C
col12:   BC9BBB9ABA7A8C8ACA889C8968BB88BB9CCA9AB87BCB8BDAADA97866A7C9AA9E9DAA8C76B98ABEC9
col13:   8779697BCEB7CAB8B7B99C79BA6BE8B9AB69BB8AABA9A8B897DBE6BDAA79D97EDA9BD96A9AB9A9AA
col14:   7967AAD9A69899E8BB99C778CBBEFA8BF9EFA8D9D78FC8BA7A87A6C9BEB69D9C95CAE9DA8A599EB6
col15:   888959B8777C7869988B8B997BBCBBC7AE678BCBCA6D6BC7B89BAA9BA8AEAA83A7BBB9A97AACBA86
col16:   87666C6A9B6B8D9B7CE4D5BA9C7AAC7CCB9E7C9BADCD68CCC8BDAB95DB6FBBB9DC6A9AA88AA5AC9C
col17:   77A8AA8A69B789E6C9998CC4BCAB95A69AB699D6BAE4AA57BA97B978A5B8698F8ABC8BDA98B9A9A7
col18:   797A7DBABFB8B9A78858BA8BBEBC9FD9A7EBA7CD4C9C78C888CDC7CC996BA9DC9A8D73A8B7AAD5C9
col19:   78688997B8A7995997BD7AB87A45E976BCD77C8BA7BBBBD8EB79A887BE7E78ADCAAAA9B9C87A8AA2
col20:   87888A85852798997A87488BE9ECB9BBA9699DDB99BBC89CC8C5AE88C9AAA6C8ACB87D7B97BDBD67
col21:   99579B86B9B9A8A66989BAC8AAA9DCB7AAEAA9ABCCC9EABABB796AFA9AD67DACCB9A89A95CAAB775
col22:   889FAA9A99ABB77A8ADABEAADBBCCDE8DAA8B8CA5A9A765D8EA6ADC7ACBAC8796898EA79B69B9ACE
col23:   C6727C69A958AAA79999D88BBCD666CCDCA989AA8FEBA7BC8769DB58A7AC8B9BAA8CE6797C6BB7A5
col24:   C8699A76CB9BD58AB8994BA6DBD8A88A7F58A3B8C9A6CD9AA4D987ABBB6D9B8BB9979C79CCA8F8A5
col25:   6798C8BDDA77B99999ADBA7885D79988CCB8CBBA978EC9CAC7889A5D8DA99E977CBA9AB6FA9AC878
col26:   7A8B89A66C89BB6BBAEDB98DFADDADFBCEAC8B5DC8AD87BBAAAACCDC9AD98C8DC7B79E99CB9ABDBB
col27:   52B79CCAEBAC8FE7BDD9A7A998BD6ADBBEA9CC6F7FAD8B9CA7CCAEA98B966DCB8D87ACE9AC9C77CB
col28:   9ABA9CDBC8D7C9DBE7C9C98B9ACCBFDACEDEDCDDBABAB9DCD9BBD99AD9AAB9C9B89A58CD989B9CBB
col29:   8887A57C6B7CDCDCABCB6CDDAC9BDAB9B8ECDBBEDDCDCAB79C69FB7E4BC99AA8B9C5B7CB598BBBB9
col30:   56894CBC8AA7AA9AE99CAED6BFF9E88C8CCDC9DB79DBFD8C797AD9BBDCB98BBAEC999DB8FE8DADDB
col31:   CCCD9C89A6C87B9A8BA8FF8DE8CDBEAEACAAE9DBACBBDADABBD9AEDA79DEDCCA8D69BCCAAD9D99D8
col32:   A9897C7AABC8CDC7CC9ADBE9CF9EA8B9BF9D99BBCACEE8ADA9B86A8BAD7BDBBFDD9D9FC99EFCCCBC
col33:   99AF8BAD9A9AACC6C88CE8BBDFCCD9BDBDFBDC8CBBA9DBDCACBEC9BAAB8DAB98C89A9A5BABE89FB9
col34:   A7D7BA9F9CEAEACBEEDCCABCCC9BA99AAAAACAC9FACABE7BBC8EABBBD9FEBB8FBA5CD9BDB8BAACFA
col35:   6A6CBBCE599C9BE9999A7CBCCF9ADCEEDBAE8FCCD8BC89ACCACCCAA8CBBC9EBDB9A999BB78ABDD9F
col36:   8B8F99ECAC9BCBAEFFACBEA8E9AA9BEDFDCBD59DAD8B9DCCE987EBCDB9CFBCACBD4ACA99688ACDBB
col37:   FDC8FCD9BAB7DAA7ABBAF8EDDFDCCA9BDDAFFCF7FBBE9DC9EC9CBB5ADE7EC899C74BBCDACC558AAD
col38:   DA9ABBAAC98DFCBBFADE9F9EBDCCABEBFBD9DCB8AEFDA7BFEBDD9CFD8ECAD9BBADDC887AFEFCBC86
col39:   9C69ADD8AB9ED9AA799A9A7A9BC8ECCFFBED9ABAEDBCFFBBDEACC8A9EEBCCFBADA9AB8A9CBCC4DBC
col40:   AA678DD87D9ACACCBBBCDBC9BBAEBAE9E8DACBBCBDACADCCC9ADFAA8CD99CFABAFBDCCC7C8B99BBA
col41:   7AADBD8A89B6B8A857BDD9DFA9D7BEAEBABBBBCCEDB7CBA9A8A8EBF8ABECDA7AC9DB99BEC88CEAB9
col42:   B9CAB7DBC7BBEACACE6DCCDADFECD89BBDBD8DCB889FEBCEFF6BCBADF7C986BACDEDC9ACAECBDBBB
col43:   C9CACBA8BEB88C998ACECAC99EAAADD8BBD89CCCEEECFEBA9BECAFC8FCCC9DA9CDABB79DCDEDEEDC
col44:   6AACBC9CABCDACCBCECAADCBBFFBFADB99CD9AFABBC9DDDADDABB9FBEDABBBB7FBCECA9DBEA6DEA7
col45:   8679C88BC9DD899C8DDCAA7CCBBCA7C6FFEFCC7CEAABCEFE9FBC8BB9CCCBADBF8E9D9799BAE9B9B8
col46:   9BA4CA9E7699BDC8DBBBAE9D9BCDB9CEBBFCDBCD6DFCCDACD89DCBD6FEA8DDEBFC8ABBC8BC9DBBD8
col47:   CDBCC4986BACAD6D88F9DBAC8DCADCF89ACBC9B8AB9BBBC9BCBCAB9CACDDC89AFCDCCB9B8BBCFDAB
col48:   B798D7E7DB989A9DCABEA9BBCBEABAA9DF9BD9DCBEAA9DBEEFADABE5ADD77E9FAB9DBB9DBABFFBE4
col49:   87AB7BAB8A8AC7C9BC9A9BEADA74CE8CBCEB97ADCABA9DE8998E69E9F7CCADAAB8BAAFC78AA58999
col50:   BF9A99CA6197889BCCABB9BB9BBF978DADDFEDFD899AA798FDBCEAAA8D79BACEF68BD69CC89AEDCD
col51:   4785ADA97A9A6D7B5633AA899C6B959CA994BC9C779A7C9EAA89B66BA8389A5CCC576BB79BA89AB9
ROC:     BPix_BmO_SEC5_LYR3_LDR14F_MOD3_ROC10
col00:   63857788886B96888A8485E9A85B87B5BAB6C6877966CB8A87B99B9C78875B89BA2B97AB4BAA875B
col01:   363A596867A882A8994ACDAEB9D7A87CAA9F9A8CB628D8DABF9D7ADB78CA8A7B77E99AB87BD867C7
col02:   8756C677BA19BC64C33CC478BAAB99CA96BE9AC8EAB96D5C5A98ABA5BBCB8CB8A8BB59BAA9BA99CC
col03:   935697947666CA88AB8B889ABAAA9CFA89A79BD989BA9977D9C8CA87AB8EDCF9E8BA9788CCDE7CF9
col04:   85987787987899D876B98BA65CDB9C87BB8BCA8DA7B68FABC67A88A9BCC9AAADB9988BBBCBBAB6AB
col05:   845668E6A885577987C8AA658AAADA67B8CAB7C7A5C9BAB9C7EA9549BAB8AAD7BC7BBCBAC87BB8B8
col06:   976969A595B846AA76858997A8BF8EBF8CCBA89BCC9CBCAD7ACBDECDAC9E959CBDB89BCBC99BC497
col07:   66475587766C6357A88B8A9B968B9FFDB7DDA8A9BADBAFA7C79AC9B5CBBB76BA99FACA888A8AEAEC
col08:   5979B79B44A578C5A9875B7A7AD9C4A99AADB8AF7DC717AB889DB8CA378887A667B7BD8B8D87BB98
col09:   463599A59A99B5B87699DC9A8BAA89AB8CAAAAFABB99ADD9B5DCBE8D9E7AB966B958BDAC69AB859D
col10:   87837A375657C78DB77D7956B65C99889CACA8AEAEADC999A87F979BBEC96BF98BBBBCF8AC6B8BB9
col11:   67969CA9B55B9394BA78A8A9AC89BAE8D9A779CA8C99BDE8757CFB7B899A9CBDAF8D8E77A769B976
col12:   87416975B5866776989B97C99558A78DCB757BA8BBAC8B5989C7BEABDFBBFDCAAA4AE9A9FD9BC9C5
col13:   89E678796598B8AD8C7679BA879B93C8BA99BDA6B6B9A8AAB8978D938AF8E89AA9985E78E77E8996
col14:   965971389698AB59B2BD388879B7AF6C7BC87A78ABC5C987BA669CB9A8ACAFE9C9BDACAC78B9BBB8
col15:   9463B5585B278D979977A9B6A769D9469A5B8896CADB6BB997C9EFBB87AA9CD7C999B8C949C9AB6E
col16:   4758B589757A5C69996A9C9A98AC89789CC8FCB97A588CA6889AB95A99AC7DDAA89679C99D88EDA8
col17:   246369888D9666AA577836766B7689A7BA98A87BBAB7BBAB69AB89F7AD6B968BDE88BA79E87993AB
col18:   975756B79C6A9875C96624AA78899B9798EAA6BBB95799B7689B869A7C867A69A78DAC7898B8BEBA
col19:   58786686549999A7B8799BA9B9EC8B8B6BD6C78AA999B6CD77B888F9968BB97ACABABA9BC9F98966
col20:   65A5678B5BB78D778D688E9886CDAB8A5C97D3C988D7B8895AA6F53D7AC9B7A898CCBB485B979398
col21:   5364666967A9964C8A849A6BDC7BA7A5ADA7ACE687C9BEBABB99C8D8BB7AA89A9AB8675989AB79AA
col22:   47865A6859C73777987A9BAAB99666A7B8ABAA9D97B89C89A97C8E9CBB8A8A97A9DAC5DB786AFB7B
col23:   31738445699A69C758698CAC949C9798A98973B9C9B79B7AD57C9854D9CA879BBC98A8389B6E79AB
col24:   8673CBA99586B17877489A9997B58CA87785D879BC796AB79BAA6854C6B8DBB6DC88898BE6C887E7
col25:   7579C698A7AC51B886BA98B97B3199975CB9D6A78799CCBA57BAC97D87CAB9CA8FCC8D4AA9C71B78
col26:   5A35A89CF852879A8DBA69A9A79599DA95DBBB7F789BB6F9CBC9AB98F8B7EF9AD88CA99A779BCCD9
col27:   67CC574758B97BD7979EBA77799A8A9DB96ACA99787BC9B8C7AF8CF9CCCB97ACCCADA47A78AB19A8
col28:   957A8974B65698ABD998998AA8C599B9B9AAC8DCBFAF7B8B9BADBDB9ADB6B88BA9DB9CDACA6CEE6B
col29:   76A355BE9A7E58ACDAC9A774ECB95AC888EAC9E79A6ACCBAC9B9BBFE8ACE699BAAAA87B797AD9EC3
col30:   96A668E5B789A6A997AC698B9C77AB5AEEAACDA8ABEEF68BD7ABAA8BCAABD9ABBBC79DCADC6ABA9C
col31:   67AB9A69267AB8A7E89B9A885AC9BE8B7BCCCCAC5CAE9569EA88AE878EDABCA7DDBDCBEEBC8A9B4C
col32:   75A6B9A8997A8A37A9DBA7AA687AB9BFAA8DDDCAACABFBACC5CCAE58BAB899A96A8ACCAFCDE9DBA8
col33:   7A6AAA9A85A9A967CCBABCA9F998BEAB9CBD89EE7ABE3B765FBA8DACCDA6CBCCA9F9A8995698BBC8
col34:   7A87789777689F7D988AA7A8CB887B8CAB9ADBCB8CE9A9A96A88B6ACCF8A8EACCDB77EC97EBA9BCA
col35:   B47ACA66679AAE9AB8A5A8898BFA6C9AC76C4D9BAEBC59BA8C8ABFD9D7BB4BAB6BD87DA6D7DE86A8
col36:   A89A695B8B89798BAB7CCCBCABCCA6ADF6EBE9D8C9CEBCCCBA99BAAB9EEE89CABBB89CCB3889F9AF
col37:   477898792A7769BEBA8DA87BC7D85A97AD7ECBD987FA8AF7DC75AE98D9BA6DEBABA9BFACABD8CDBB
col38:   8CB5ACDDBE79ACC7BACDCA9EDAAA898EEBED9F8CB8EED9EDCADAB7BB8CE9DAA89FED9CB7C99D9ACD
col39:   7A87B949868CA4C7AA88BC5BDE9ACC9AA997CA5A9EF8E7BCA5EA7EFCB99AC999A78DC9BBDBD6AADC
col40:   A7858399CB7BA99A8979A8DE9A75AFAE9BCBAB8BBE8DCAE7F7E7CFF7F8ED7BA8ACBBED989BEAFE9A
col41:   C84A899ABAA4B984BAACA79AABB98BCA689ABBB8888699AB789EA9A9D9B7D88C6DCBDDBE7DAAFF9B
col42:   B997A9B89978BB97ABBAAA69BEAC9ACCDBDBDCC89AA97AD7797B698A89C7ACA9B7B9CCB97ED6C9DD
col43:   ACB91C989B9AAC88BC99BCD877399AABDB9BCADA89AF79F8978AAF7B9DBFD58CA797C679CBCB9DA6
col44:   76B59A589ADBBD87998B67CAABA9DADCEDCD988C9AB8DAAAC5FBDDAECACBAEAC9ACB88DB88CA6A1E
col45:   8CB9878B8699A88B73B8FBCA9BBA9DBED6BBFC98A79AD8D6BBF7EABB7ACB8C9DDEADADA98C8A98B8
col46:   286B9E8C97998BA5B6964A989C79D6AAD79897DAB7BBE96BDAB8AC9CA9A9ADDA7ADAFEE8F9BA95BC
col47:   89A99A6D5888A77AA57BC8AE9B89C8479B69A8B69BDA8A87BCE69BE798C8D9D6EC679537AAA5A76A
col48:   A6A8489A88A95698A96A7C7CCCBAF9ADC7B99B8D9DBB69A6AACD7AAC6CEBCD76A9CD6AB9ECFCA688
col49:   B68C88896CB78866BCC8C7A9C7C898D4AC8E6CD7A8A7B8AC88AACEDBAB97AB9AA9FCF9A5B9999C94
col50:   8568DF59A98CA7E6AEC8988D3ABAD9FBAAA8799FCDDA9A9C8A7D998ABABECADB9EAD76B6C8A8C659
col51:   39168767A92844A8757CAA54664596A86683AC957A877A9655C956656B745B87A97CD767B98967C7
ROC:     BPix_BmO_SEC5_LYR3_LDR14F_MOD3_ROC11
col00:   A651816454776176469676147B32774273824346613824647868A8874488CA6667177B8477679A66
col01:   553337935753438664698A56B8568A4B79D7C6AAAAC5958647526AA669B7A97B8C55EAA68A456D78
col02:   83655378B4166147747938A95779A8836B98C58969A78C9EB89966A582A79689755A89576478B889
col03:   866646AA515254278B495C463A7C87B596A7986BABC898AB9B37BC778CC99AA7D69966974A9586A5
col04:   37A4A6478B933A75C6782B3868758699957B9877825ABB877C8BCE98888B74D36A699587B628766A
col05:   2354725A838599964937767798A95C65F86887AA8786AAD695767869697BBF66833697A7B8987BA7
col06:   9258C987553AC884987354499896799A999B9499A745A78887A3BABBB98846CAA7B85956948A7676
col07:   4A625646763277C34668A55A699A8674598C5D9BC7676CA856BCDA5AE47B98A93884A8B8295B73A5
col08:   34736A476475467AB359B58763AB87C9185586A4A77AB7A975D588A8884C899C97B456686A6BB138
col09:   8574AA39AA329B798657C999A4CC656899A7D9788A3A97AB66AA98CDAA98AAA699AEEA5C86A8A78B
col10:   8778C496696AB624897859C5A7998786F76B9C9A98BBB948868A957787ACABA93765866AA86B9799
col11:   65356576553188854C6968584887B66BC83CBC57669A8783997785A4B97868D55B568A6868549AB4
col12:   65BA53774796669979898BC48486A778AAC556995A7879A8A778275897CA29E59557B9AB6B8C89D7
col13:   968477245566694A51CA947A7966AA35B897894D39458ABCB99CA789C3AC779CA75B8A6A5A986757
col14:   876A58569854599B65B85D5A7A775AA8AAA559B69536C88996775A7687E66A68B579668A854A6B64
col15:   795573B8976674BA959AA78B67C664697A8744A49B8869BB4A776A96C597657A8998995842697499
col16:   47785546756795A97A844A6777B694C7A36B9579DA966AA8886437AB988A6BDBB7D98A6C69A7A8B5
col17:   673447594846774BA974288BB8BA67567A9879787978A6776697BA96669974688AE296AA6758A799
col18:   6457B766674AA8C2985A6795B96D7898B78995665867A98A8A86B67A88678A976883868A7E748BAB
col19:   A87897956775997764D3C5AB783A6AACA7A9957696A677CC9CC678F7A9987A899A615AA986574AA9
col20:   586846A774769978577798776C8B5CBA87977878C758A869988AC9B5BC5BA4F98777CA6A8A576998
col21:   78665894977478A69589978AAB88B7688948B84AA7686DB28A89A47D84D7A99E43E77AA76879A7CA
col22:   78599439772A7889878B9A775C2A7B9B6AD5575A885A79A778974777A9A7A9A76974B964947BB686
col23:   885866816BA9C8477444B98889CAA8858BDC7C657AAB8A5755AB5BA4AB9966FD96BAC965C6CB8938
col24:   515585943645998887AB799879877A66B5A9835A67A986868C665A96B5C7A74BC778658787899A73
col25:   5784868B7A6B5455739BC6B99A9B15B9D7AC7A9898588C64997997ACBAA8AA966ADA689968B8894A
col26:   BA55896998A89AA8897D889D38998AD8A6DAEBF8CB885B986DCC97AACA9AB7B4A7C9DAAC9CC79C99
col27:   B7669878784AABB959A99D6BA388A9A989B77B99B67A8A88B7896D6CB7BAAADD98ABB97A8C7CA677
col28:   997A99A669699C7AB86C9B89A9DA6EAED8BBBDAB8AA7DCBA9B8DD9B97DA9CCBB6EEC989B78A9B178
col29:   A68877A696BCAAB768D69698799BEB986A9C6ECDB55ADCB6A87FDBA58A9CABA9B89768A66789BA75
col30:   9838885C55765DD99688A9CDB6D6CCFC8BF968CB7BD9AA7BBCAAAACA7B9DBB9CFB9988B988A59CAB
col31:   89469B58A977969BBAD7ACAC7985B89ABBBB9DAC81FBAACD6BADCEAB9AA99BB88C9BC7CBA9AC9899
col32:   6993CD777EC78599A8A6EADBBBAB96DAC8D7A8AABD9CB4A699F79CCD5DBFFE9EA99DB9888DB9B78A
col33:   976AAA6F6B5A8ABAC688AA97EACBADB8CCCBCE679F6996777C9A8A9DACDB8BACCC9B796DD96F77DA
col34:   CBB9C9B899ABC9AA559A8AB7C89BACBAD7BC8897AADAB9CAADDB9ADEABD87EDCFBDDEFBDAFA8DB7A
col35:   789B6396CCB8C8BC7B8AC9984BDDAFBC866BCFB998C7B96B988BBCCB8FBAAD89F9CBB89B8BBCAA7B
col36:   6BA9BBCBDAA9A9DAB8DCA9ABCE8B88939BD9B6AACCFCABFB936CACE8E9DBBCBFCAA8994D9AAC6ACC
col37:   BBBACB7C6C887D77FBDA9BCBAEB86CAD78BCD79BD9DDD7CD9CB9AAC6F7CEC6BDAEBC6A99C999C9CA
col38:   6BAB689AAAA9BABB998ACCD8EA9BEDD7FDACDC9BAB98CCBCB8CACC9C8CBABBB6FA9ACE963DA8EEAA
col39:   A875E7A8AB69C6BCA96D9DB8AD8EEAB7BACC9CDAA9EDA9DCB9DCDBCFD99BB68DDA9968DCBA5BD99D
col40:   899AA9FB9BB869AB89BA9BAC8BAFACFACDDBBDE8FCCADADB99CBEB98BDC8B9D8BDB8BCCCCBBC8BD8
col41:   8B988955888867F9ACBBAABEFA98B9FD78A8A88DDC79EDBCB899DD9CC7BA6D8DD779B9CBDBBBF99C
col42:   C5897DC8A9B9B7A68DDE75DCC8BCBBBBE4FC8ADDBBBC8B8E78CC8CBBBCDAD9DC8AAFA66BDFBCB9A9
col43:   39A7AD5A859ABA79ABBCA87BDD8CCCEEBFCE8AC9DB9F8BBEABA88AAC9BBA7A8BABADA8BDBFDCA98A
col44:   C78ACD4BA9596ACC9AEB899D86ADBCF8C9AADECC9BCFAEDC9AADCAAE9B9CDB8FCBDDCACB1B7DA7E9
col45:   A9AB7996AB9FA5959BBBD8AAADEE5A7ADDB9E9CACA8AA98ECDEC8DBCDCCBF799B7CAB3F4F7DBAAA4
col46:   C8BA99ADB8E6B9D4BAAD9BCA7FBB7CCB99C79B9ABCFDEACDFCBCDAA9B8CBB6AEBEAECFA7A999F9A3
col47:   89BA8BA6CA8E779BCBAADB5C77AAF8BB8DEAABDC9AA7BFB9DCBCC7C6AFAACB8699CCBADAD9B8C9A8
col48:   888BA6964BAA4B8DB8D699BCCEB9AADE8C6BABFF9BDE9B8AE9CBBAB68AE9BCCB87D7A9A79B99C8A7
col49:   77697DCCBCB89CDC9EBD98BBAA89C98D9CAA8D9599BAD89EC7B68DCEE988C9AA86BCD6CFADCE897D
col50:   888A689A2D8BBCBBDDDDFC798AADADB9799BA95DC8EACCB899AAAFABCAB89C78ECCBC8E79AB8CD8B
col51:   99A65C348887B676A7577A97EC68A7C7D9B779477965B788A68BA665989B68D88A869DC4A58A9AA7
ROC:     BPix_BmO_SEC5_LYR3_LDR14F_MOD3_ROC12
col00:   6D86977875679992A87975A9877355964897AB7CC8A85B4A7785F78668676AA39B8AD89953678678
col01:   63A67A9795799856926CD965BFC487986B9669998B72CB9AA7B78C9C7989B575B888A367DBB96986
col02:   6ACBA8D8574C966B458ABC3A8836D7DAB586E6C97A9978B577BB688DB6A5BAAA67CE6B899DA8CDB6
col03:   577856B5CCA8BA6C8ACC776A767BA7578CBCF7D645B87783A699CFD93CE8B99867C388C7AB9986D8
col04:   7D3489A87C2C9B9868B9BAB488A9AABCDAB774EC6A69C6CB89BBB367E7D7768FA98AB9B4ABC3AA96
col05:   95785485643599BC69B79AB7BAB5BADB6C99A49D974AED8DBD8ACB2CC8AA788F7A979FB78D67AA96
col06:   3ACA9D995798B5BA8796936B6C34E8BDCA8BF9999DB79C6A59ACECB8559799A76B97A87BFA9369B9
col07:   864C95927854776749A79BA7AB67AA88C58C83CDCD87858B98A8B6ABDACBACA998AB857A67AB7AA2
col08:   4B58789668845854A389BB69BE959979DCB8A86DB9B58E8D9CACF349C7BB9879B7864BCB9996BAD7
col09:   6837418A7967D6D7876B77C6BD9DAAA8C9E28B38BC7BBB69C69ADD8B8DB8EBC9A8A9BBC8A49949D8
col10:   276B7587BB998757B9677BA8798DD856C888DB46F8C8B76B6BB8C786D7EADB6B987B797998B85398
col11:   47569698A56C858994988797BA958ABD7B79799B5ADB97B586BB34E8CB58687D9B5B7B88889A776C
col12:   497868B49587B5AC67889988F867A98AA8C7CCBF89BC6B98B39B78DBDA79ACC99698B2ECED988BCA
col13:   57397A9A3676A87C7A8A88B8C9B8B848C38A696BA7BD5ECEE878CB9E5C34B7ACC9CB98AB7A985A56
col14:   98C86D585686B8999BB98B7B98859A9799BA776F95DDB9BBBBFF97899CC8B96797D78987AC69B978
col15:   C878BDA986986679A592AD979ADAAAD5B8879A7DDD9B9D9DFB767899989C68A7DB796CB79E5586B8
col16:   86A549B5D54B8869597B89BA3A68AA9B969B9988B77B6A87BC8BA9DBAD9BBBB878BF77956EA7BBB8
col17:   8B573365A6B6AA9696DAA6787758588C6AA978A758AAE68E74A99AA7993B799BB8DA8BBCB5A6BBA7
col18:   988369EA7889796AAC8498788B86C75C7BA9AB438C79C9B79B5899985867BA679A7465B898A66BBC
col19:   868944B8A979B5B6CA78A767CC6AA8C9B85C7BC7988CACB7484868B87D86AA7C75D577697987827B
col20:   3645B57B7A8567977B966CBA9A87BB9786897E97887C889CBBB748AC6A8C8996A7A18A966AA8B5DB
col21:   6A857499879985AA58AA677ACB979F9A6CB978C79C9BBED8C6CBB4C6B9BEEBCED9B66565A975C587
col22:   36765B5785B3BC4A85789A69C878D8CCA96B6CBBB8B9A48979AB59B979C8EA7E5C8995B9CC97585B
col23:   62238964682C8C476877852867796A7B6689C78AA7C969C96669A78977876DB9BEB7C48657BB8BCA
col24:   57A844A484A1496764C7B77471A6B9964899C96AA59BCBA6A93AB79C89869A9B5D96D9C6C4D488AA
col25:   7968A8AB89757CA98A96D9A968CC775CCA77B87D75954CB84BABCCBAACA6C8C97E9B8C884C7EABA9
col26:   58A363466ACBB89BB9CBAC599ECAA9FAC97BC9CBDEA98A9BA9BEBE9D8DAEB95BCB76A5B7EACE8B7C
col27:   79CA9D9DBADBA9869E59B8CC85C97EAD8AF8AB7AAB7CABCF99CDBACBA8CA85ED87C78DBA67C9C6CA
col28:   A5DC98BB7BC78C99A9AF499C487BDCBBDD78D898B9BCCA7BD8F9898CAAC7AAA94B859FDC9A999B8B
col29:   47949DA91D748A8696AACC6BAEB9DD8BA87C8BBFA9EBFF49C9AA986C2889B9CAAADAA9B777A7ABAB
col30:   577A97AA9BA869899BADA7ACD9A57C8CB998ACDCC4ABBEEB99AC98CADE89CB6ADCADFDCCEBC7BBBA
col31:   8AAABE7F88B9AA9B88BBAAE89ADB9D9B7BBDABBBAA9BC9F6BDA8AA5AABD9F5FCAEDDC9DC8EBC94CA
col32:   A9AE99A8767AA9AABAB69DDA66EB8FD7DB9D1BE99999EBCDBBDB9BAAAAAFDD89CAF9FEC4DB99C6FA
col33:   7E667CA8BB8BBA6CBB8DDAAA6BC8FCBB97A7E9EDBABDAADAA9FFAE9BCBBB5BA8E99A57CC97CFCA78
col34:   A8A78AA78BC8DBCA7B59ABBB8DECBAACB8BEDFCAC9A9D899CABCEFCDFA9CFAECBABABED8DBDCEDCF
col35:   99CC9C9B7A7AB889BAAB9B9EBADACC8DCCA9D88DCDE8BAD9DC4FBBBDD9C5BFBFBCB6CD8DB88CDAA6
col36:   9C98B69ABBBDAB8AABB78BEB5A6DB9AC9CACBDABBDC3FBD687FEBEEFFCCABFECCEBA8ADCEBABBBD8
col37:   996E54D6B979CC7DB7CDB9F8BBEAC89DCB6DF8CABDCF86BBE9BEDDCBD9CDBE99FECBECDAC5EEBCBA
col38:   AA97CCCB8A9DADBBA9BA87CC7DFD9BF78CA6A7B79FECADBEB8EDCCFBFDACCCCECED6BAAA8CAACF7D
col39:   CB7CB8B95BB9CECCEAD9EF776A9C6AA9BE7EBBB4A8EDC7C88ED8DAD9DBADBDDA787ECBFCBAE7BE86
col40:   8849698CBBA8FABBC6A8DADDD7BDBDE9ADBB9CC8EBBBEB6CB8DA9DCDB9CECFBDD7D8BBADF9BCACD8
col41:   9967AA8D797DAAC89B89BC6C98B9C9E78BD8EC89ADE9CDD55BDADDCAD9CDCFD9BBCAAA7BACBACADB
col42:   98985C79AC7B8FC99AE6E9A8ABDD9BAF8ADF8CDDDC8ED69BC59EA97B8B9FB96CF8D7DABFFAAD7D9A
col43:   83BD6A79CC968CD9A7ABBC9FAB9ADCB8B99CDA7DABBB979CBC8ADEDEBCDCACBD7FBF9BBE97CCCA8C
col44:   8A7DA6BCABA46DECB6DA7D98FBDAA9CAD7C7CBA9AFBBBD8CB8AACCDBECEDCCEECCB86D9E9AFDEEDB
col45:   BA8ACE7C78BACB94D4CDADBDACBACA9B7BAAEB9B8ECBCB998D77B99799DCDBAFD9778DCDAFACBCFC
col46:   8C869B3AABAB998838DEECBCEBFCBDDC6D99E99C9BD795ADEDAC9ECAEFBDCBBABAFCAABBFCECCD99
col47:   FC9BB89C9CB8799C86C498A9E8C8BD7ACBBEE9BECCBCFA9AF9B9DA789F9CEB8B8699CACBBBEDBCCB
col48:   E9AF88B7B9C99A9E7AA8EEDFDBCBCFDCEACAA4C9DBF8D79C79D9C5DB9BDAFCAACB9EEBC9D8DFC8CB
col49:   59BCAB99BCB99C7EC49AAC9AC69C98DEA7E8BABDAD9C9DC6A9E78DDAFCEC9C8BCEACEAB9AFFAECB8
col50:   47678ADC8AA8AEFC9BDF88BAA9CCEFA8AABEDAEACB6CEAECCBBBFBFED8BEDFE99788EBBEDDAEFB6B
col51:   473699958739AB5B989589C3DA5A8DEA46ABBD9B587B66AA75979AA8AC9CD8B7A99CB779A9C79B75
ROC:     BPix_BmO_SEC5_LYR3_LDR14F_MOD3_ROC13
col00:   64474236957525A5684486976994986A3659968B9A69A99C9A9BE8668998BA8AB998CBACB7AA69B9
col01:   483756866464147586587AA4687A797798CA79B7787A89A79968899D58CBD5DBA9B7A7BCBA8BBA7A
col02:   48747873968557787788B47976999AB6948886B9B7C99CAA9A8AA7C8B9DD59B9D8C9AB9ADAC8B989
col03:   53735A5936667594748B877567678B563A639AAA78885A7ADA9CBBAABA8BE9B8B7AA9DDBA9A7BAAA
col04:   516BA856946664A7988A84755859855999CB898A89895BAB8CBD897B9BA9DC9AD87CC79AD9BA9E68
col05:   A39243748984A579D3459A7A857BA7766B4A5A785B88B9AABBD98BCB8B8ACBCAADBCBCA89BAAD87B
col06:   5556846768635398889698A498A58787A979C9BA99989C9AAAB9D9C8A6A7DCD9B6BBA78CA9ABABB8
col07:   4655527A145885466A978A687785869668C5B686AAB88697B9889AAC98A988CC75AAC98D7AAB9998
col08:   8459544955588B8469684979967888A899A9B6D97799887CAAACBC88BADBC8DAB86AECBCAF777BE8
col09:   5B4677677976648A7A9A8178A695C968CD4977778A688AA6B8ECBAABB7B7B89A9ADCACABCBBB9BB9
col10:   4746476395967A677559A5A5868CA7AC78B877ABA9A9C98ABD8DA9AA7DB985ACAEA7AEB98C9AA988
col11:   38266826447746C793456938B65C9A968958D998A5895B58C8A89888B8978A8BBC99ABDC8788C893
col12:   641A6454A66477579796ACAAAA97986A9C9B9BB88679AAB59B9D63A877EDB8ABCD989B89CB7B79BA
col13:   81872577B64656256697996AA7B6695989967A79B99989AABABBA987F6D7BB9BC7999987BAAC7BBA
col14:   7356857959B587559177C75A67779899B79ABA987BB59A48BB8E9FCAAC7CC8CCBDAB989D6AC9A9EA
col15:   1873684725566A6ABA784776A7797C77AAC89767C8CA8948AB89989AEA7A8BCBBD88BAEBF7CB8B78
col16:   685549945899784B7777BABA358999ACA896AB89A899CD9763DC9A97A989CCBBBABABD98ACDAEA8A
col17:   3275694786377A5866786898894A8AAA876A9B5AAA6A9A6568999ABD98898999B9DE9C88AACAB88C
col18:   4386577157857AC778976BBB7BBBBA8BBAA8C697975B898EA7AD9ABA9A8797AADC96B98BBC8AB8AA
col19:   54287769646B576A26546876A77559A69998C98B9B9A879CC6DCAAD988BDBA966A999A9CB9CBCA88
col20:   55245576886587B5A7429B8A8BB8738AB997B9AAAA8C99B78B898C99BAF9A8B997A6AAABBABA99AB
col21:   755574588A73736558A86759A6A679979876878BB489DAD8AA9CBAA6AAC77BAA997AD7698DCADBCB
col22:   626945686B98998C9A2BB6B8A79B978B97AAA777C9ABAA7A8BB99DCD8BCECD989DEDF7DCC8988A99
col23:   466572558774AA296888986578779A9895CBA846B86D9A7BA9C9A7B986A89B75BBB797CD897BACC6
col24:   7566A949537758663D796AB6B68AB8769A95C7DBB8D9ABAAE58BD8B6A99BACAECCA8C8B998A8CABA
col25:   8789856566167976365AB6559A75A89C8A9FBC8ABAC9A8A9CCABCAAB8D7CB8B87CB77CBCAAC7CB9B
col26:   978596ACA9597CE6789A9A78BA99BB8ABABAB6DBCBCA8B8DACCADBD9EBDCADCC98CBFCACB9CCEEE8
col27:   849678957B79A68A9AA96ACB8B98DA988AABAB99CBA9BCEFB9C9BBDB88CAB9BAB99C8A8ACAAE9D85
col28:   B8967A756795957B85A9BA5B8CD8CEA9CBAABDDDCDADAABF8AB7EBBCC9EE99ABA85FBBD9ED8CCCC8
col29:   686794C979A3A8C99668C68C8A9A7AA85C6CCAB9A7B9BD8ACBDB9DB99B6BCE9ACCABC99D8B9BD8A9
col30:   99894AEC8867AB69ABB5B6A98CB78CA7A88C59BBB8A8FBCCAAEE9BCAB9DCCAC9ADCAFBBB9BADDC8A
col31:   9537B5676AA6B7B69967897C998BAC9EADABD7C9AADABBBBBACCC9AAC8EBDDBBDBD9CBCBCADDFABB
col32:   886A566787C4785A79BA6BBCA7A5DC8A97D7ADACEC999EC9AB99CEDBBCFCD5DDDC99AF9CEDE9CEBD
col33:   566AB6999899AA977779B988DBABCDAB979B8886A7BC8AAACB9EAB9BAAE799BD9BCFC9CBD9EDABDC
col34:   87698A86999CA8AC89D9CCB86A8A7CAAC9BBAA9AB9BCBD9B7ACBDEDABECCC99ACBEBCCFC8A9AD97C
col35:   AB889A966AB99978AE998A7A8999ACBB8AACCCDCBC97CB9C98AC9DCBA8CCBBD7BCABDAAEE98AABBA
col36:   8B4AAA9A9B8BAB76C8886C9BAB8A9AACCC9CD9FD7AEADAD9B9DDDABABDCCDBAACDCCCE9DBBDDBCDC
col37:   88644597A8C79779DBA9A899DBCB9DA9BB9DBCBA9EA98DCFECDBBBAFABCA7F9ADCCD9ABFBCABABFA
col38:   99B7998BB8B9B7BB7BABAADABCEB8BDDCCCAA9BACDAFDCBDB9F9DA9ACEACEEEDEBEDCBDADBABDBCD
col39:   647B67685657A7388C78B79A7BCABC9AEAA9ACBFBDDECBBBAC9CB9ADCADCE9ACC9FDDAACACDAFCDC
col40:   A899799896A59C7BA9EEAA879A89CA9CCCBCCAD7C7F9CA8BDDCC9BCFA8CDADEC9CCCBDEFEDB9ABCC
col41:   76B84AA5C97A878988B7BA7CE9AAD7C9C9ABCABADBAB8C8EBD8CFABB7A6BBDF7BAEAAADA9C9DAEAB
col42:   6794888B99A88B8D9B9B8D9BBCA99DBBCDBBCB9C9CBBCAD8CDA8DACCBA8FECBF9BCB8CCDAC9DCCCB
col43:   5997A9BBC9B78A97ABB9A78A8DBB9AAAAB7ABBBBBBDFAC9CB9ADAB9AFBB9AACBFCDDCABC9BCBBFDD
col44:   7868A8B7A89C9C6BC9B8ECD999C8BBAAF78DCABA8EEBCBDCDBBCCBADDECDBEFCDDDDEEDCEFCFFECE
col45:   668A7788989C8998BAAAA99788B8777ABBCACBCABD9E8BA8AAEACBCC9BDACBCDEDB9CA9CBCE6BBAD
col46:   8B89876ABE7899857DBEBABA8B9CCDACE98BCCB9EDCEBEB9CFBACBCDCCC98ADABDBECCDADAEEBDCD
col47:   88C7BA69C9C89897A9DCA7888AEC9C9ABD99CBCC7D8CBAAE9899AEA9BCACEBDBDBCBDB9DD9CDADDA
col48:   B6957B6789A798BBBB9B9CCABBB9AAAA9AA99AEBCAD8ACB9DCDEBCACFEEBA8BCCABEBDBEF88DC8CB
col49:   97989CD4DCCB8ABA8C98ACDADABAEAAEABAF9CABBB99EABBDA8BAA997EBAABA89E8BBEA8BABBDDDD
col50:   987B97A898BBB9BA88AC7ACBDDCC7C79A8A99CABCBDDB9DCD8DC8DB7DBEABDECFCBDCCEEDACBBCAB
col51:   49777898AB89769C7778A99769999DA6B8C67A8ACA979B978AB878886A7B8CBBBC8B9AF8ECA978BB
ROC:     BPix_BmO_SEC5_LYR3_LDR14F_MOD3_ROC14
col00:   566679886698A2D98C787698B97D786A7958766A7976B5B7B9B6C8876992A49C884B6A9749C658D1
col01:   B54B65CB753858538A8C999E59A879AB959B789EC9678BC387A9AB8AADA976AADCCE57A867ACC697
col02:   6378C965C698C765C87899A9BC7EEB7757B9AA6AAA999785BDB7B589D3BCBDBBE5B6AC79A9B9D486
col03:   93989492B27B968D99DBB7869B9DE776DBABFC66B98ACBEBC7BC98969686D878C88989B8AA999913
col04:   76746C76BC9CA99668A9BABBB69A9DBBDA7B8A98A6E77B7C6BBBEABCBCCCA9EC93649A9D6E878883
col05:   5676B6998977853A8BD879B79959A5B98CC69B89BA787A88C8B9BA6CA5A6E89CD89B868E949A8986
col06:   5548BCA75C9485B6AA79B6B88A86B899C97A3779B997978BBAC7A8D69A8CE96687CAF79AA99AB6A7
col07:   646335767B86B9B8969C8B4768CB79A4B87CAA87B777D998A9CD6ABDBC99ED9BA7B7C8BB39A8A987
col08:   47598B7BC63884899AA7698687AAA73BA9D99B89DBBA8778A97698AA578B9A6A5A4A7999A4A8CD66
col09:   6749591696698888767645DD86A99CC78DA597988BB687A9CA8DB6C979DE89CCC4A9885B96A9BA7B
col10:   557A66B5B5C887819A87B774B799DBA9C9ABA788CA9AB8DCB8B5A67ECD9BB8777B38A6678559BCAA
col11:   764644A65A896987457BC5799788D969A6C79A9979878A7ABAAB9F99B97BAACA936B65B6C699B395
col12:   8319966868BBB8A9974AFB959B7D83A8C9B8C7A9A77B7697479EED7C84AB858C9399B75AA86A9486
col13:   8681C9A779B9889439754C7DE6FD8699998699B78AA69A6AA4BDACCAEBC877C697AB9C7548B89AA8
col14:   859266A297B4A774899BA868684ACA957A7DBCC87D88B5AAAA6C7497788999E8ACB58B78C5A5DA7A
col15:   9546B7A159B8A7AA8657DCA887963A9BA8996989B66CCDCFBCA3AB7AAE7A5BA8C8D8A9AAEC378C98
col16:   4C96B2948969AFAB8868A689968AA89A89AA691BC63A9B9987A789B8785F987DA5968B996A8C557B
col17:   8818A584A66BBA8B587CA685A7B679348599A9AC66BC977C8B98A985439863CAC59B7A76789879A7
col18:   66BA88AA39B765549A598D65A749A88C657899AABA469987978C898879B88E85B6731E75A6B56AB7
col19:   76866588758769D98481BC4A6C787A78B8B77D6785DF4CB7D8C573C97D7AB49BC655A75E8D7A8D98
col20:   565A647A56A8A667A6558C95A9A38678E6C986B878C87891A99A5796AA59EA7AA768679EC9E5566A
col21:   D478B9DA9798794998A9D9A87C84B798B6CA57B7A7A6CC55986C9B8A5DF7AABD98A6B6AC98A97B38
col22:   A7AC6583B9D976874C6555999D9979B9B9CBC4E69969AB876A3695A769D67871A99ADC79B879A5A7
col23:   7794866D695588787D34698566AAB7BA579E6566989657D5789CACA97867576B58966C785A795A78
col24:   15878B38A78469D94898B42AA9A7C7DAE8BC6C7579A958583C99C9AABB9CB69889A789A969645346
col25:   69B596758858A8917CB9DA95A7B999ECB9AB99A6DA98C7BAAA49B785A977B646B8888B97EAA98C99
col26:   8A8A6B6988586485B77F6CADAB9DBC8ABBBDBE9A79866769DC9BAAC5DC4CBBD79BEB89C7A8AC9ABB
col27:   A9F7895B9C9BB8AA68AA9B689A99CC8AABA77ECB849A998978ABA8A7B99F6FE9AC89B5A98A97BE86
col28:   6584965A689C79B6B9CCB7A7CAB88B99C899CCDABC79998F64979CC8DD9D78ACCBC7BC3FA88B8CB9
col29:   88B9AC99C96A8D898D9C896A6A9BB7B877C99C9AE97CDC8BA8B9A99BC77BAA98C9EB9CD6888B88B5
col30:   A998B7C8D68A69A9B8A98DC5FA8BA968B9B9AEACCA7CC74F9D99C99CB9CDDAEAAC799579E889977B
col31:   C9CBB5ADE6ABCBD7B8C7DBFBDCBB9BAAFEFBDDCA7FB77BDCAABAAC6FA8C7BA98779A9BC8755DC4F6
col32:   C9997AB99BBAD8887BAC6FAA9DC8ABEBEAF9ABEBADBDBAABBAB79DCAB695C9BAB8ECB9BB5B87BA75
col33:   4BE9C969BADC488B4B6B88C89ADA9AD6CACA8C9CBAF9DBB6F9A8CB9C5DABE6C6CCABE9B8C6A98CDA
col34:   BC6CBD8A4ACC998988DCEADDCCA9DB8CEA7AB9ABCBD8E87ACEC99B86DAE789D5B6C689995B8D88EA
col35:   ABEE9B99ABB9ACBD94CCDDAB6FADBB9FBCAAD69BA8D9D99CBCF8F97999CBB9C98BDB99CB84CBB797
col36:   AA89CDDDB96868DDEDACAD89CCA7DF8ACBEC87DFDBD8CCCEABDAAA89CAAB99887D875DAAAED9DAC5
col37:   EA9AA86FB7BCABCAEFAFC8CDBA9AF9FCEB9BDFECD7FDA9C6BDC6C9EAA95BC9AA7CC98CCBBAF9CAF9
col38:   B9BBFC3DC688E7B69CBCAEBBABAA9ACDDEBCB8ADBDACCFD6ECE7BCBCCDAEAC7C8BC7D99C7AABCF98
col39:   8B9F9CCAAC9D7C8BFDE9CAEDECDEA8BEFBD97DCCDC9E8DABEDABBBEABCDC7E99B96BC9D9CEDCCCF6
col40:   8BCA9A8DB8998CC7FC9EA95DCA9A98DBDCE9C8DCAACEABEFFCCDBE9EFFD8AEEFECFBDC9BDBFA8BAB
col41:   CAB9A8DCBCA89CD8ACB6B7CC9DA97FEA9C9F9BDCAECAD69AFDCBEAEDE5CB8BDBB98B9CDAA8ADFC87
col42:   CCB5A59A5A669CAB8BAAACCADCD99BCDDAE9BBFF9CCBCCFDBCFCD9FA88AACD9CCAA9BAA5C9FEBA46
col43:   9A9CEA99BCE8CADDD9EFFCCCDCDBBBEBBE9CCAC9AA9AEB9EDC6DEEB8BBBCD7CE8CBA8AEB99ABA787
col44:   9C8EACA7BA9ABCBBAAACBEEDEDECA9BECFDCB7F9ACCCBBFBDDBBB87FCF87B989B9EE8A8B99A8C7EC
col45:   99A7BE5DAD6BBAAACAAF99EABCCCA7DDAAB9EECDBAACB8BC8D9FFAB8B6ABA7DCCA8EDCDAAAEBB8CA
col46:   DACC769ABC9AD98C8D98C85EC89AA9DABA99BBDEECDBECABBCEAABDECEBA9DEEDAAD9FEE9CBA8FF9
col47:   99DDAECABA9FCDFCB9D6A877BBFD3BA9CBABE9FA8DACBCB8DFEE9D7A9EDAF9CDF4ACB8DC87CCD5BB
col48:   85CDA9C77CF9ACC6AAC8CBB7CC9BDBC8CEDCEAC9FCDDA98CADEFDCDADEEEB99D9ACBBCCACE7FACD9
col49:   A8A9A69A678AB7BBBCE9A7AA8ED69ABCBC88EBEC6BD7B6CDD8ADEABEBCACDBE69BFADB9BF8A7FCC9
col50:   79BC8896B8DBA8D788A9E89F9EDDEADECDDFFAADBABFD7FAC6ADACFEBBBB8D46ABBEFABCDB9BE7B6
col51:   A3B788AB868E7BC77AA9A79BAA487B86AABEBC8AAC8BC9E3BBDAA68AABA5AD58B667B76A76C62996
ROC:     BPix_BmO_SEC5_LYR3_LDR14F_MOD3_ROC15
col00:   65834196356752A35347445562573543596234356449555974661968637675456517546358342713
col01:   847798A74967385B428882497895A9782576A75769668648476684777464867597565756776A9335
col02:   5693675696439467AB47658586877C86846866946599636778497838734457669568986778744866
col03:   969978775A67665677B4524AB63598B785465A9777747768967456B7A6639476988866B771894673
col04:   A666267657B4798DB35986846638799487354979877B95263687785669775777395758A667994C79
col05:   755598894A88CC827788676589A554A96A65584574888989384687559988536466266A987446957A
col06:   678B925857A548865795597888A7C6178957964665775B5776B68255B87589636594997684369728
col07:   98756A67B448579766667775476AAB8A785947769A54686977A185465766794365698AA777987AA6
col08:   56A8AAA7AA574973737A7598665479865656574896BB984883936779A38755B695985568586698A4
col09:   99BBA48BA8864643A67A8BB5969A7976B86576AA9A5B52759B7653668B866685647577976AB94267
col10:   8769377895B6A4788758578BA8586767873A6479C46866A26577987B958785658BAA79968686B189
col11:   A7759767AA566858B9A78979797B8AA692A4575C696775A48566A5A98A7879985B36845996956794
col12:   7566A4767B86388796636865C58576BB969976485597776836697778688727955536788687876995
col13:   55968988A8566A98554A6798AB88B8B798BA89A6B6528574C547849776A9C57926896786C7597931
col14:   8395888988576998977777956A86969557C65A57868898CB79634669A78967858777877513765426
col15:   89768A69778A649888A8A8C4A95989788B39AA4779796997977698B8B989886AC897776779878A65
col16:   6477749AA5735A8CC95889BA68BA944887758979A7589A558666949889BA8567875797853449529A
col17:   96386869A97898A968885596873996C879A7A646679C57A8953675B7CA75A76567868674A8964776
col18:   7468863679868779C67788B7A7CBB8A869887685586A67A98656875988A58959A856B13659859541
col19:   369988894989A69BA847A868B795893989885797CB9983BA688C85B87599AA7AAB678967B9966567
col20:   57995996CA8A98698A559A97A6B748879878C975A77B58597B88C76C45A95799B655486739775678
col21:   A763778B4B9B95A98B8578577AA75A8D7ABA8B698699877B987585686598A6A687969A9884665566
col22:   A7AA897A9976568A7858AC98885BA897B7B95A59778A8977E95A68A4AB2186558474B77B4576B7A1
col23:   638889986689985A6A6B946987797B7988C5898A8A6856AB648437B859547745897AA65655714379
col24:   A7A7477AA788885AA7454B8AB76A6996667A76B796C9A86B88A8A379757759949758998595A77997
col25:   A6A8D977A99ADA697A6AE6996488AABD6799B8B97ABD875B757897A9869A39D477977989B77B7578
col26:   88A88A9877E6A79687DD97B9C8B8A8A7CBB8BB9C76799389B96978986DB7AA59A79798A87886C727
col27:   987954AB6B8A99AB7B89989C8AAB79ABBA9696987C8A9B5AA78E85AC85954F4B6AAA856C687679A3
col28:   99AAAA9AA8969A999895B7CB9A8A9E89D9ABB9A9898AB8B993CB8AA6B8A5565A7C999A99887B9A9B
col29:   97B886AAD6B9DBC6CA4AD9898AE8C9DAAAB88CBBA86CA74BA8AA86BAA894CBA785A5A6B89896897B
col30:   A67BAA897A88877A7879695D8CA7B88BBCC988B39A98B5B86AC6AAACBC79ABCA9A89999695975A39
col31:   7B8A97C97A8CABABA9D99BB78CB9C8AB798BBBAA6B9EB798CC9BB9DBCAA6676788F58E89798AAAA6
col32:   A99ACB999AAB8BA8E6CB9CAB89959A9DCC88ABC669AC9C87BB97AA999749B8DAB7AB8B9B9C869A87
col33:   88C6BA9B8758AAB7A9BACABCC76C89A897AA7ADDDAAB9AD758A69CD4B9B987B888859C696ABBD9A5
col34:   AAB8BAB9C878AA8ADCBB7BA899D898B8B795789BABAABC9CBDA87BBB7D7AB4AABACBB7DC799BD9A7
col35:   C97CC8AA7ECACDAA9B98D8EAAAA9CB89CAACB5E7A9B699957887B9A9968889BAB89A87A8A879A877
col36:   BB8BAABA7BD6AA89AA7BCECACBDC6BBB67CBAA98BC895F95894985A8DCA96ABDB88AA98CABDAB998
col37:   9796B79BBCBB98BCBDACDBBEDADAD9A6CC87C878CBCB9BAAE8BBA7A6C6A9BAC887688D877587AB86
col38:   CBCCCC9CABBA9BCEB9B8AACDB8ABBAAAAAC8B9CB8DAD99C7999CB9B7BDD8A987C8B996BA97D8BBC9
col39:   5A8B9A8785BA87BB9CBB9D89CBBB98ACEB8BCAB85AEADB9AB69797B97A977BBCCA6B8ABABB9C7769
col40:   DA9895BDCA897C89BDF9BBF79C6A9D96AABBCBBA9AAFB9CBA7B898B98A9BA68CAC989A8AABAAB9B9
col41:   8BACCDC8BBAAD9BBBB6EAD8C9B9BFAD8DF9BBAADA9CBCC9899DAA6D9BAAA9C8C88ACDB87BAF99986
col42:   98BAE9B8CCB6D87CCEA9B8AACAABD8AB99BBB9A9DBAECA67CA8B9CAAA8AED8A5BAAA8A7996BAABA9
col43:   ADBA9B9BBDFAC99DBDAA9AE97F8F7ECACCBBDDBA89ADAB78BABBBC7BDC8987B9C99A8AC8CBABBA5C
col44:   AACAABBDCCDABB99DBB88BAADB8ABC99C98DAAEB899FD9ACACD7DDCCBEB87CADDA9A7CC9ACABA889
col45:   88DA997A9B98C8B9BDDDC59AACADADBCD6AFAEA6ABCBA9AB8CCEA969DCAA9ADBDB9AACD7877CC8A5
col46:   A6EBA99DB88B68D9DCBA6FFACCBDB9ECCBACD9BAEC9C5DBBCA9BB8AACC66BAACA98AABBB96E6B9A9
col47:   989A9A9DCCEA67DBB8BABC9DACC8CDDDCEC8EA7CBBEBC9BBAC9ABCBA9CB75AAA6C6C99CA8798AABA
col48:   CBC878ABDDDA999ED6FAABBACB98BDCCBBCDACCE7ADA9FACBA7CAABABAACA9A9BAAC7DA987A8BAB5
col49:   9D6D7BBD9C8ADABD5D9797B9BCCBBAE9AC9CCCCADFDAA9ABCEDADAADBD9C78DAA99B8AA89A3CDC9A
col50:   8ABC9BDA99DADDCA9BBDEA9D9EADADC8BDC97C9C3ACCCAEDCCCBD6BBDB8CC787989ACD89CBBB9B98
col51:   99C6AABCBAB84AAADBC899ACBADAA8BB8BDCAAD97AACCDBBACAADAAB95BBBC9A8B7A79ADCAA9BA58
