ROC:	 BPix_BmO_SEC4_LYR1_LDR3F_MOD3_ROC0
col00:   8c7cdcd89b9c9aaabdaa8ab9fd9cdacceddcabddeb9bfcaeecdfcfeeebccbdfdfffffeffdddffbcb
col01:   b65854c68b7564a965597788699688ab5a9b69889a7c866cbb8c68b9dc797999d9bbce8b9cb8768f
col02:   767766843482375845588956857ba7a7643a69a868566abc9b7aa7a6cc99ba669faca878baa78aad
col03:   e3363666765488457b86798776a97788858a96c8647876989988896bd7aaa8dacb99c8b9888684bd
col04:   86a869776436367555575a685996989798a986957da4998a98a7b9b9aba49899aadaa89aa89a8c78
col05:   b67a2785561668672b4934aab98698898a89ac786aaa789c9bcbc6bb8b79dba8bb7da96aea6c899f
col06:   d6978474757886946793576779579497c79e8658998585896bc999e88dab84b8caa8c9989a9b687b
col07:   c55b8c8577656868497766a88688ab99797ccacdab6b97799888697989cbfacaaa86d879b79bbcae
col08:   b4956882757677874a67685486a988bb8b778a97c897a697cdeaaa799aaca8c98b398a888e98aa8f
col09:   d69766845345164468178769588a7b9ec85d99ae67aa797a7a78a8aa7ae57ac7b6b8c9ba8babcd6e
col10:   a75547786445777866567889988d8cbbba89aa9c7b46ba8b77bcc9c786a9bad8c9cb98a8aecafabf
col11:   6444a444745534587976899d8898aa9bc67caaacb99b8a9799b6b9acbbccaaaca89a8a9a8aabc7cf
col12:   a83768886124795785987b569d74aa8a8b59a9888aa9c87ba6a798988cbbacba9999bd789c998c8e
col13:   888772977a6b857c589666579696a699b89a98ab788b7bb7998acdacebcba9c867d9cc569a8688cc
col14:   d71984956776978636a768846778b9b98689aaa778ada87c8a7aa8ab9bcda78cb9abbb769d9aa98c
col15:   d543353685658385986675358aa8b59bb89bb9ca8c9b98a889a6aaac7498a998aca96d897678886b
col16:   84444b8725aa58876988998b7a8c988b7d6a8949b78d67e899979dddb9b7ca99babb87ccb777aa9f
col17:   6168546676646a4b85785abb6988b57ab9776b7aa87899987bbcc9ceac7599aac9b9bbc5c6c995ce
col18:   c4437255925668377899766896995646368a6a7abaaa68b897ae98ace98d69eb99bb697c9b779a9e
col19:   6155878656853a641a74735867956ab59a65aa939ca8a68c9a88ccaa99e7ab7dcb6ba9a988caacbf
col20:   a4417966576c776888b46787869d9799d958a76b8c99ce9ab97c99b97a99a679bcbb9a8baba87a6f
col21:   c8a578855a8957895a78937563885aad8bb8e799987687baaaaab98cb9aadca97679a98ad8ad8cce
col22:   d6d76796347698793465789589aa89a7c765999dbb8bb88cba9badbbbecabbdbda8cb8eabab9badf
col23:   d4378a6874797a8a726a8778b9759bac696baa897ec87ba9dbcdaedcdbbab7ab99c7cac99386ba9f
col24:   c55a9aa767748669966788768b653c9a68bcb8adb796a8aaaf6f9bacca7b9aaac888eabb978aaccf
col25:   c98598766988789875878b8aad787ab6a8ba8babb8a97a9a9cccc9bcbd6a8898787ca6aa6babaabf
col26:   99a957969a89678989754c77987ba979677699d9ca9b7cb9a8ddba7ebbd89bcca659a89ab7bbdbbe
col27:   c6b8888a9b7b78879889758bc9ada98678699dabac867bde9bafcbcc8acebd8ab9bceb9eabcaca8e
col28:   a8897979887a55793748bb8bb7985a498b7bba6baaaa36abbabef7bec9bbab9a5ddab66baaaaeb9e
col29:   b87a49936587569574968a9d9bbaa8acc8cdcaca85ab9aa9d8cdfc6f9bafbcdeccfbab9dde8fbd8f
col30:   b69584aa8b6a9569868777799f998bbb4c9a9caa9d9d898edfdcce98e8ccdcbcddeddcbbbdc9adbd
col31:   d6998885894c8a7488785a9bbcac9aabbcbadacc9a8c9da9dbaddbeafddbdde9fdcbbcbaba9bacbf
col32:   977856478d788579a898ab95c9beabaeadafcccadbcb9bceabcc9feefdfd8dbbdccbbcdbddd8b99f
col33:   a5875778aa9b797a868ac9798b97b8cdbbd9a9da6a9be89bbbbc5ccb9ccbbccbaebdc89fd9d6ccdf
col34:   b9549268684a6798a88a787aa988dbecccccacba8897bb999aecaaec9cba8eeabd9a6bdc9cdca9af
col35:   b38958755966897978bb8a988b79b8aa9679c9ccbdeaccccabdbaeccacdcbfbdadddcddfb69bcbbf
col36:   c8598678a96ac89869aba8c95bac78bccb8b7dadabccdccbccaeeabc9faeeadcdc9adbbbbabbdccd
col37:   79748896578938a5986a279aa88b7aaaa88c95b6cccabacebbacab6ae9cdbfbbdbccaabba8bcbdfd
col38:   ba7a8462a78b728a76658c778a987c8d9aababd8daad8c5ebcc9cbed9ceefcdb97cbb9bbabbbcda9
col39:   97476887488775a86aa98da9783abacdec99cbbbcbe8eaa9b7cba9ddd8eaeeaecbab9b99bacc8bef
col40:   e755c99a368778b445696792c9b87b7cb9c79cb7ecca8edeceedadacdca9eaaefaabc8ad8db9bbfd
col41:   c87a95a4687b467868779c989a8d8a6b8dcabbacde9daff9bcfcddbbaabc8bcebb8ebdbbbcdbbd9f
col42:   c7678b8888687588879d77bac9b9bbbdca99bddab999c9adfcfbb9b8afddbcc9db8bafdaccee8d9f
col43:   b545b8a6967778689857a88b8c99e6978badb8bcb7bbaffebff9bbaeccbe76e9ddfdddbcccbfddbf
col44:   f36799997879757684ba7ad9abba999988edbbfcaacc7bcccbccbccda8ddbddabddabbadabcbacbf
col45:   d589982667753968887b79786997a98bb8cbc8ac96a9cccaeacdfcccaddeabcbbd9cdaaccedaccaf
col46:   c856996a7648899886666a8b97aabcaa8baba8aad9bedbbeccfdbadb7bdc9abdccdfacac998bbd9d
col47:   e567b76ca8b4559a7767b89789688bbbb9ababaabcbbcdedccfb8adbadacdda8b9badbdc8bc9f9ff
col48:   d7576a857a3596685887b9c879bc7d89bb8cbc98a78dbeedddadedbbbbd99aadaceddfdbad98e9ef
col49:   b7767496cb96699869a64baad9a9abbca8bad7ccaaddadafcedcdcecebebeb8bd9adbd9abfcedbbc
col50:   d96686888844967896b5a7cb989cc8dc9cbbfcbe9cccbadbbabdcddb9daaed9cca8aeebab9bfbcdf
col51:   9b8a8b9abdcdfdfbfbebccaeecfefffeefefeefffdffeecfedcfcfeffcfffdffffcffffdfefffffe
ROC:	 BPix_BmO_SEC4_LYR1_LDR3F_MOD3_ROC1
col00:   977cb6b9ba9bf9d8cabdcacad8cbfafeae8dcbdfecbebeffdbcdfdefecfdfbfffeffefeefffebeff
col01:   b324652187a9368535aa7aa994647939b59aaeadbb89dbcc7a6fabb98b96aaceb6b8dcd89dccaa4d
col02:   c6478532715676675887989c89897aaab9a799da6e9ba7da89a878eb978a9bb959d7bac9aa9bcebc
col03:   8346834368865565565b6b879666b756aa78d6a6dc8b7ad7989c8bb997b79ddde998a6bebdc6badf
col04:   d473252785699877585786776748ccbcaa69b8ab8bb68cda6cd8ca7f7895af9878a69a9d96ac9aab
col05:   e679886345689576989595999bbacb97bc78658bb8959dc8bb7987bdebaba9c9d9cbc998abcc89cf
col06:   b54577432773745637377a7bb68589a7d7baaa59a8b9c688a88cc8dabc8c7cb7b8cc7a59a8a7ccae
col07:   b1468d57764744677738a856a7b977b7898aca97ccd9c8b8db8d9baccea9cb97ddb6a88a96da94bf
col08:   86858684664571365aab539759cea7a5a67ac9b77dda9ccb7d9cbecbcd9c888a89bb85cbb886887f
col09:   97667954b4464868c346aa9a89abc8acd8aa9a6c89d88d98caac8aa8bcddd9987ad9b9d99cb78aaf
col10:   6966556815b4658957ba5998ad86bb7d5aa75999ccab78d989db7aaa9aafb7dac9c8aa8bbaaaab6f
col11:   c356557945587646769b6a987768cb9b7a7b96bab5c77a6abad6bbcc79ccdbaacba7c7acaae9ab9e
col12:   d7955576b69866b55b8ac67bba9769b99a9b9ca7b5aaba9dcbbc8aba7b9dc98ac9a9a8ba6c994abe
col13:   c5785953635965a7737a5796787b94aa765c99b8e8bac8cdbcebdaca5aaba97abecc7a99a979db7e
col14:   894574746365886a8449566956977a8c6d5cca5bab8c7a98c7cadbfa9a9ab5cb89abf3caa7bd98bf
col15:   858954856779a93412a979ba77b9aab5869878bbbe88ab99c8cafbcacadd67beaa8c79bacc7ba8cf
col16:   b946666614618475776758866678689998a9cb69b9a9aa7ca97c98babbdc8ab8cb77cbc999bc9a6e
col17:   f17676654a86b986a5944a589a75aa777698b8a9adbd9bdbfac7999a9db9c97cccda9cda9e7c9ebf
col18:   b5557557669b89987856d88866aaa7a997449daabb8deabca9aea7aba7ab89da9bbdbbea8ec9cdbf
col19:   f224457554426888db788b7999689ab986778b87eba9a9ec9bae99cadabce8baabbdccdafcaa899c
col20:   9558863299594887868ac8ab77977759a799cab88caacaabcd9ba7cc9bcbd9ecbdc9bbd99bb99cbf
col21:   a6567787656a458889a78749995886aa4a9bb8aababa9c8bb9acafd7caba9cfcaa5abc579abaaabf
col22:   b6787845a777595a4ca4aa6bd8ac6493786a96b9c77bbadbd9bcba9687a8bca8af9d756c8ed99abe
col23:   c6486557657786abb77b99a989ba65c9a8d587e8aaba8a9fc8a8aabcddfbd7b9accdb8eba7dc5fcf
col24:   a87967a679b989cc5874a8a746874c47a66dcb7b779bbbab9997baac8eabcaefd97cccddbbe9c6cf
col25:   b884a6a924959c979a7b88ab8bb9aebbc9aca6aabcdb8aa7ad9bed9ad98dffecdfcbddafbcebbbbf
col26:   72167b9727878a4bac988bcab97896d7779a697b5a8abab868b7dd999ac9abeab996cdbb9cb8b9aa
col27:   f477697a498673a98ab597bc9e8dbf99dcdaab6dc7cc99afbccbdcedbcadaafcdccece9adfa9dadf
col28:   bcbc437876595a796c9a99a97b8c97869badb8beb9acaed7aabadabcdecd9cc8bdbcba9aab9d899e
col29:   a95b87985a47789a9bc9a95babb9b9db9bea8ba9abdad9cdbbabb9b79ecaae8ddbac9fddadc68acc
col30:   e8c675c679788969996a6999a6bc9c9c998beac9adaab89cedecd89faadfbbeb9cbb99dcfadaac9f
col31:   f77b877849957aa8ab6b79da7bdebbfa78c9aaa9bddfbc7ccccbbbcadedbddcd9aabdbecb9cedbff
col32:   c867a37888b88776575aab68cdbbacadcebbc9b9b9aec9cdcabba9d89aa8db8c869ceb9798ccbebf
col33:   c996a8555998977a69ddbad899abb89bcbc8bd9dcbcdd9cbe9dfcaec8bc8ed99fd6accda8ccdaebf
col34:   a8676a877987e56a5776a8cab8df7d8bac9dab8ddaadaad9abc99a5dbdbdbac8db9ac88abbb98ebf
col35:   eb657884b6c98789a9a6f8eab8baaa968bbb9c98cdcbdbddce8cddcba8be9edb99ddabcd78cbceaf
col36:   88536a9678778ba99c9cfaabbc99da7b6b8bd8ba9aab9eaddaed9beaaeaccaad8acebada99cbcdbf
col37:   b756b7b968a8a5cc67dc889999c8b78ae8ab8bcccacdacc9ad9aeccebcc9aaab79cdeabccaaccdbe
col38:   c96988778379769898b88988aa1acaacdb8cb9dadeccafcbdbb8dae8bbcaccb9aabbebf8ddadacef
col39:   c7688887e8ada9a9aaaac997a89a898bcbaddffccbaadce7ecdc9cbcdfdabbc8c9cbcdb9ca9afcff
col40:   c78bba7966a9baa6678a6accaa79996ac7799cddcbcfbfccfdbcfbbedb97ccbda8acba9abafaedbf
col41:   e7d6565a6785a78ab99a7bbae8acbfc9a7cbadaedcc9efd9caca8feaf9ccabacc9dbfcccdbabfaff
col42:   fa6889b49a896a6dccb7dc9c7d7cdba8ba8a99dbaddcbaadbedfaccfa9adbe9dccfccdaabb9bdbdf
col43:   c778879787967a8bb879bba3dcba5abdb9bb89c8cddaacbdea8edcbfeeecb7decabbbbacbcbcddbf
col44:   e965876aba9868b89b7968c7dbdadaadbed9daabbacada7aba8cadcb8cc8cc9bfcbac9aafbebb9ef
col45:   999795a87689a88b84a9bad7874dacb9ccbdbaeacdbbeafbfbdfccddcdfadcedadddbbdbbcdacefe
col46:   f7479aa62a77679898acc97a9ab6baadabeedcdc9ac897edcccccdaaddeaababff9cacdbd88ca9df
col47:   e959a55559a8bc866999bbb79cb69acc99bb9dedcac9cfbedcebedba9d7caacabadcdefb79cad9ff
col48:   da9969a246498a968b7a975ce66997cabaa7a8cebdcefcfdafbcaeadd9efbdceccc9c9cfcc9a6cbc
col49:   c9b8895c798b9bbe88c7b88d95bc8a7a9dcf9ceaadfcccfbfdadc8addacd9ccefbcfddacdcfedccf
col50:   baa887ab3a888c9978a6da8ccd6eabd87d9aecff6b8ddffaa9b9fbef9dba9dcdd9dddc8daf89dcdf
col51:   dddfcfeffddcefcfceeefecffffffeffefeeffffffffffffffffffffffffffffffffffcfffffffff
ROC:	 BPix_BmO_SEC4_LYR1_LDR3F_MOD3_ROC2
col00:   86c6999fabbdca69fcfb96cddccff9fcadeacfdddd7d9ccdcdfe8ccec8cff7afadafbbfccccffa6a
col01:   b845566644795647766368598bb6b8684bb7667bb575bcb589b59bbbcbb8bb8b89488977b89bbbbd
col02:   9333566456756b65b8567717988b8b6873cb6b689b889b686897796b5587588b78b7789798996b9d
col03:   97584166678b5774686597b57b879b7b75687b7b9b57bb888bbbb976b6b79bbb59bd7848bb77898e
col04:   852771645555547767863347689b594b669d84856d56b986c79c988b8659877cbb87bb6d59678b9d
col05:   622484587b4759b655755bb54854875999cb98c7b9bcb7db9bbcb889b7b897bb99bb9bc8b787bbcb
col06:   96445746876b64856857b774536686577b9b7b67bb4b6b7b789bb8b9988b974bb57bb6bd87b8b77b
col07:   f6764447797b6b856794885b975b8bb88a6cb97c8b87bb98bb79cd8898bb7778dd969bb8c7c6895f
col08:   a564656b5777666b65467bb69676bb376b6b8798889cb9bb899bb69b77649b7888b8c989b4b7b87f
col09:   db68776453568755677957387b896b88d7697b95b8bb99779edb7bb599b9b78b99bb96b6599b856d
col10:   97785457487688497b5284b357588c4374889b7c8577598b878ccbaa6b99977d795c94b7c778989b
col11:   957136545648672768695968b888799488765bbbbbcbb785bbb9bb9bbbbbb8b5a8889bbbc7aa65bf
col12:   a437137826b4368b5369b566b4b95495c66598a789698b98b9576878c99997bc7694579b87b445bc
col13:   781632557676636787b4bbb8b7b8478b6bc6cb989eb8ca878999988b6bcbbb77b9f9b9ab88564c8c
col14:   b3357642894596477b5736989b873887979cbbbb985b9b487bac9877896a7a88bb8985586758647f
col15:   d4624567775663887ab9789b8799cbdb75b98bbbb769bc998bbbcd6b68c9b6cb75bb4b78897739b9
col16:   6251743716b356582b557666b989b7c888e88b6a97bb8987899b68568917999c5b599c765739767f
col17:   a3754456315996994853989788bdbab9c67e88dbbb9b969cb9bb8a7bb99676bbbb9cc7878977bb9d
col18:   8434636217566495557434287673999865bbc66b88b8bc59877736956885bbb669a8b78b7668554f
col19:   c8655656a5343284966988b669b66b796c688b58bc9b89bbbb6ab9b9698b97b8cbbbb7b957c9738c
col20:   852345747677794587786986599b8b755587696cbb9b87998779bb89468b797bbb58bb677635966e
col21:   e55647855475b65899ba984db56695776b9bbb7b9b9b7b99b99b5bd75bbdb68bd98a98b8bb876acf
col22:   8425496885766896865597885b96977b96b9b7b8657b9878cac997c78588878b8a99878886689aba
col23:   a92465ba985576c9bbbdb897bb8b9876883ca9a9997bb7869cbbc99889b898ebcbc988bb97998baf
col24:   83744926b5848b8b45b656668b984666687879b878b9b76678b99898979787b8db9b7467b6ca9b6f
col25:   958478976868995867986b9887965679698ba576a8cbbb83aca676ba87f96c897c9bbbbb6c7b9b9f
col26:   94677477455746a8b77974896986477769b9b76998d94976b8868bba758ba978c8c989986b5b69be
col27:   d7a997786968897988b947995a889887cb879dbab87aabb7abab7cb7b5cccd89fd9db9c977dbbb7a
col28:   c27775665689b69b96ba66689ab8c66679756b789668b8a7899b797abbca9cb6e89d9cb8997887bf
col29:   fb64b87bb7c777b988ab5b899b89cbb9889597b86c7a7baa7c88c69bb999bfbb99ecbbbd599b799f
col30:   b95545bb7588b8868b578a9b77858875979a6ab989bb66b89b8b9bccbbc999cbbcba969bb8877b6a
col31:   d6869a4879b5479ba987bc6c8bbdc99bbb9997bb469939bbb9bbeb9bb6989bdbb9bc9bd8b899badf
col32:   b99897b7769797987bd89a7babbb7c799bcb95b9678ca79b8dd89bbc799c7bbbcbbbb6cb98c969bf
col33:   d67769798b6ab7b5bb988887ab98d7a98a7a69cbb9ab9a77d9adc9d9cabaaa7ca9dab9dbbdccbb9f
col34:   95674bb73a7569846b96bb8a9b78bbbb9bbcb4a7bca8b9bdc6b79cdadc8e8bcd898c9a99bbbd9bbf
col35:   ba48a6874a8b6bca868699ba8caba9bc8c9c999aa8bd9c9df88b989ebcb998cdebbff9ffe9ffbbbe
col36:   d8779867579b5b6984987779987b99998b685ba65abbc898a9bccbdbbbabb9ababd7679bbdbb98b7
col37:   fb68578739987599eb99cbb89cbb998bb98dea8b89ee9cca8ededbcfbbcccbb9a8dcad9ebaee98bf
col38:   e86658788a57676899c64b79ac6cb99b77b99ab8b9d8b6bcc79cbcedab88aec999dcbccaecbdbbcf
col39:   e676bb78676785a889957b8b6b8b9bbbbfb7ab9bea7bedab9cffbadccbcc9bdcac9d9cdababbbbbf
col40:   f785659a74b9a967cb8b99bcc987b78988b87999b9bbdb8bfcf99fbbbcbbbbd87dbacd8cbcbb7b8e
col41:   d97988b98dbbcbbb9bda989d99abbcbbca69a9bbcbaebc9bbecbdfdeb9deac9bc9eb9ddddcbcccac
col42:   f976785b999c997884ce59bc85bb8cbbb9f87bdd7bbbddb8dfbbbebbb8acbbfbaa9bbbcbee97ebaf
col43:   f65b9bc989b8c9a9baeaab8b9bcfbcdcc99cbdcc9da9cabbccbaccccccbcfdfccbcfabbcddc99bcf
col44:   eb8a998b9899c97baba878b88a9bcfe9dbbebbcb7dd8ddecfabfcdccbcdcb76bcccccd9ffdc9becf
col45:   c877986bb9e6b89b988db788fce9c97dbbabbbe999abdeab8b9acddccbc98b9cdc9c59bafc7ed89c
col46:   d997769a9dbc999bbb9b7bbbbbcc879bbebbfca8dceb8b8bbcadeecc8ebabd8ce9bccdc8bccedbbf
col47:   d4699b8bbcb7b9bcbd7becabcaa99b7ccaf9bb9b8ddbbdfb9efdedd9ecfbdbbfbbfb99abfeb8c9af
col48:   e989757a9b9bcbb8cdcdbcaac9b8bbdc7bb9cb6acbbfbb6bdb8ecedcfddebccbb67a9aacbbca7b8e
col49:   e89b698e9bb8babdb9ce9ccbbbae7b7dedccbb5bd7ecbbbcabcdccbcfd9df9b9babebcacc8deebdf
col50:   ab698779b8ccb7bcab8b789cc7bdbcdcbbbfb896c8dbe9bebfc9cbbdcdb89cb78b8b7abdb89cb9bf
col51:   a6bffeeecfffedfffdffffeffd9dfdffeffffceffdfffffffffffffffffffdffdffedffffeceffaf
ROC:	 BPix_BmO_SEC4_LYR1_LDR3F_MOD3_ROC3
col00:   baf96b9c989dec87cfcfdbdca6ecfff8ebbfcd9ddfffefecfeabf7ffaeeffdebeffaedd9efcdcddf
col01:   c15834854b74973cb7ac44e97c639b97796dcad9aaa89ca8bdbbe8a6aabc9ebbb87a7ac8ab919b7f
col02:   a7762438a3516334699985ca58bc639bb7758a8a876996ac8687976c979ba89a7c9997a89b9939cf
col03:   98485776677a877868558b586a3a38b797899589998ecccca7aba7dad6ca8ad7b8b99488c5ad7bcf
col04:   c5636764898979a9786595bb888a8a9d9885674c9826585abdb9a876b7d87c8b9bdd8aa777a5b659
col05:   62c89679869a5cb4b5786877779576e77ba6dde87a95e9ea988adaa7997d9bad6c9f7f7f7b793a3a
col06:   b74a875857a8284e57ac7866514bca4b689bb7cae9669aa8a9a9aa77879c95baaa777788b7868c69
col07:   99498753679b3b969749798d7b98d5b8abab5e6868fbc8ec8c89b7dd5ac98a6c7ab7decd9fbcaadd
col08:   c67979198785a8b996dc3aaba9a4a7abb7d8a998568f78bab4bfaa6aa8b9a696eadb9c49cb8648c9
col09:   756672798655759895887ba4abba9aa7caaaa8c9b568ab69a7cb7bcba8aae375bab69b9a77da5bfe
col10:   f98649676b444889ea5694969ca6989c87698786a9daa855faab8aa9859ab86ed8ab64bf7ca98e8f
col11:   9376516769a998679aadc9896cd8575a7787acc76ba9a6657afadafedcab99acb799bb49e49e759d
col12:   ca745656775a64968774b48abb981a59a5759a9eea79f8d4b75b9a8cba99781959c979866c45a39e
col13:   7687931639445266bab6cd5d7cb8acdbe867c8bdaaf89cb696acaf7bc7cdda8bd897c9aaec759d7f
col14:   d77b8a87aa99a9b65dac99e69fa799adcedb8499a7d7daa4e6c74a8dfd97497b9499469c6669c83c
col15:   64495755b337d6889b76c8945797bdfca9c7bbb7abc9b98baabadcdcbb688aad6bae87b9ac89b7de
col16:   7775776456487945967685fb8ebaac8989e99c769fadb67bdac75c79888268b1ca5885a6b8377b6b
col17:   7676651b88b99a97bb7688bc998cadcee9dc98cb858b8ddbbbc779cfeaa54ce98daba75669986b5e
col18:   d958816743576698a8b9a7885858ba9c99996d987aa6fbba69b468886a784b497dc7c528d675638d
col19:   b83386665841b89588998dbcb7ace8d7c6bababcb9ce86cbcec8addbc8a98b97ae99abcdd85893bf
col20:   a77964ab8ca58a878447969a98889b87a9bb7a98ae9adba66bb645a8955339bc8a6c96178acb377f
col21:   a258459b6598c87da6768b8a895a4b7bcf6d9bbeaa989dbdfb7c9c7879b8a9afac87783b8969aa4d
col22:   87777a773a9dbb98aaf76d769ae7f68a9eb9c9799fbe8a5dae688a9d79a9967a9aa77aa77aa8c18c
col23:   c9669785999784c7e98a984658976cbc678da8cd96cedb7afbceaba59dcb6e8ca7a59bbd8bb9d95b
col24:   9864b88a9989a9889746b5aa765b9a7adba9594ab9a9aa76c7c5cb9b98a9a99694c84b9c4aa8968c
col25:   d6949a968a5877676b7abbfa697a7787ba8bba4669bb849aadaacdca8ebbab8aecdcc8fadadb47bb
col26:   a58baa6a77b9babdb58fc88a76ddaddac6aeab9887d5679bb7ca9bd8dbce8ba88bacb77bae8ecc4e
col27:   eb96587bba89aaabc8c7b8cc89769e7cbf9599ceccabdac9edaac7abc9c4edbccebcedcd7c8c9e8d
col28:   f6acb9b79ddd9c9b86ab799b79ebaae869dcb5c5aacbc96c78b8eb6df6eeba5cea9cb7c9da9ab67d
col29:   d9aba8cbd899a6bc78b8bc888888aacbab9d68878cbd97979abfa6a8bc7b9aa878d7eb8a5babb8fc
col30:   fcc8d77a985a986d999b6ebb9bdd899caf69be8ba6c4bfcac7dbafaa7ba795ebdb7acfdd58bd7bad
col31:   c97999aaa56a7ee6e87a66ad9afc9df9dffeccaba9ecea9dc99aacca7adf9ba8ddbcf7ca779aeadf
col32:   e9868b7d66988ab9be77866ba7a7aacbda89c9acaddf1fb9759b8ceab8d8b9bef9a8e36d7af9c3ae
col33:   f7695667c89778cd96aadbc8b769dca8d8b6d7d9d9e8b899ca89b7a8bbbecaffaafcecafafbcedaf
col34:   f4777a6d9a669caaae8a8ba9e8bdca9679e799d4afaadca999cbad8fdae6c6caca7ccbfaaf9bdbef
col35:   9aa79795aaaac8a8baaea8da88baaa99aab6beae9c99fde9bbccbddefde68dd8dedad98dfaccecbd
col36:   f7899bab7b7ab99c6c7eb7ebcef588bc988d95897dfb7aabfcfe878afdabbe4de7ced7cffacdb9bf
col37:   d9af59b99ca8bcc68b968b6b9eaaadacbf5bcbabbb9fdb85fadbfcebefbafdcdaac7abedfbceba9f
col38:   ea99a99ce79a48ec68b86bc7c9dff9d577f99bcaa4cfdac9ccfffcbf9ce7a8d696c88fbacafd998f
col39:   f9bdb8bd488da77accbcbca8bd58fcdaea99aa8aebbeebfdfbbabaa9ca9fbbf987b9afbedaedacdf
col40:   f8d47db9a779c957b9a8a3a9bd8d78bdebddca99cba9bfc7ed7ecc7ecddae9b6ab77dcc99fd7fbce
col41:   f7ac8a9aaaaecccdcb8c9d7bcfabbcaf7fb8c9bfa9b8e997feccccf8bb8ca8ffddadafddfded9dcf
col42:   b899a7aea9beaa8dc88da98a7bb7accbda8cabbadbfa8a9cdadfbee9dbfdda6ec7a8e9abaccbd9ef
col43:   fca6acdaa78ec9bbb9978beadbdfceecddfe8bbfccfe969ecafeafdfc9ef6ff99cdd6cccdbdb6daf
col44:   e7abadbc98d9add99ba94e84bd8dbacc89fdcafbcbfabbdbfad69c7fbbebc98cabdab7fcddccdcae
col45:   c9a9c9c5bafb8adacbd99995babccc9bfd8c8a8ddfceccffeff89cb89bbfb5df9d6ddac9faef9a9f
col46:   ced9baf7c9feccab9abca5bbbffccaa8bdd9d89bb9edd7eaadabbabae9b8fbdade9dea9bbcdaa56f
col47:   f5abaacab998cdccddceccabfaddd7ecfcaebfc99acacce9dce9fadbcccab8bf9a6869c7fadbcd8f
col48:   fc765ea98bbcd869dcc96ac9de97ba9d77dbbb85adacae8bdcceb7debaa85dcdaaa79e7cebabcb9d
col49:   fb979a7aa98bbedbcfeeeca9cbdda8cdbb9ddfdfce9aaeefbdfcfdefcbfbde8aa9ab7c6dffebadd8
col50:   f5c96b48898b899a97dbefbc8ab9c8bf89ab9eadfeefd8fcfca9bbef8bf9c57daca8baf99cb6bd9c
col51:   ed9cbdfefcffdfefbfcecfdff9aff9ffdddfbfffdffffffffffefffffeffffeffdfffdfffedfddfc
ROC:	 BPix_BmO_SEC4_LYR1_LDR3F_MOD3_ROC12
col00:   d8cecdaedafdfaabadefeffdfebffdedfedfeffefebefffaffffffdfeefdecfffdfffefffff8dffe
col01:   f946ba7a7a4a6b8997cb8bbb79b76acfa2d598d8b4ec6caacbbafcfc99f6bdfbf98aeabdc7bbcdee
col02:   e68485766b9797965288bdc9b4788a87d993996fb86bbd9bf98edcaaaeacf7cb9ac89cbbaad8cbbd
col03:   b76599679c7685aa7887ba97cbb8bb8c97769ac9bbdfecebcbc8dfafabaddcbe9c6a8cead8eca7bf
col04:   b7968688877889a85965bcb798ed99b8a78c8bb99bedbc9eacbb9a9eabaa8ccbe8addeadb97dab8f
col05:   d6a78abb599965c8c7668cb6c8a9d8787bbd698a8abaa8c9d9ad89c9ebac6aedbcabdb87996ab77c
col06:   a69a79a99c37497b9787a89a78a846a7ab6e7db9cb76b8c6bcea6cafaad7fcb9dbcbbd8eb6c8a89d
col07:   e66a9696589b9b549857b7788abab8bac3e986babb59f87bbbcc8d8bbc9cf4b9a8dbd79c9cbbadbf
col08:   b794a65765aa8855c248836bbbaeaca8b69b8d8abb9c7a87d7adb9cc9ce9d47acf8695a9888886bf
col09:   b799889966597ba6b8ba5c786e8a5b8c6b5ca7dccbadbd7a9d9aac78ebc8b98987c99dcc99a99fdf
col10:   fa85964678a8636b9895dba77a8dbef68b8caa9dabbb9ceb99cfb9b8aadca9ea8ea9cea7dbabc9ac
col11:   d14a6b953a8859659696b78626569ca9fbb8989bbc9779dcc95eca98898ebaf8d97abb99d9b9d6ec
col12:   e584856a7a6786c47c55ab676996bcb9bb9cca77ac889baecbbadb99bddbba9c8cb9b7b9679cbabd
col13:   9745974957687b276586a7686a76756a88bcb4a9999bccdacfd9abdbdcedba79e8ab78bb9897f5be
col14:   a688687355854a867959968a6549b9aa8b8ba76d8abaa8c6a99bc6cabc97bb778bbdbba8bae99c6f
col15:   c447569637446459abaab8d68a7888a9ca88b86aab7bbba9d5aabb9da89cb8dcc77adba8978bcb8f
col16:   7974364177847489695478776765aba96bca995a98ad77ca8ee8fac8a9dcebbcb8aca98895acca8f
col17:   a6885188865a4c456593b9a7a889959abcba988ab9dbbbacfcaf87bbcbbdceaafc8cacccbab9b8bd
col18:   888447752b5888438aaa85787bb6a85987979a8dbbabe878aa9bebda9ceedc958abaeabcd9b6886d
col19:   a45314837a37871767a39866a8a863998873ac97987bd57aacba8a9acac9c8aafabacca96d9bbb6c
col20:   d966437493945679a979d49876cc889859ab7848b6ca7cad9ac8ac99d87db74dc9bfc699b6a5889f
col21:   a6364881566533879892974b7c88d6bab89cbbf8da9aab8c9cc9abd6bb8ddfcacfd7ac99b6baefaf
col22:   983a67b334468574599a98a99c3b6a8987cbc75db5bab799d9ab87fbbadba887e87c99d5aca78caa
col23:   b6b448b9743487a58a89775a5647ba5887aa9986d9a8a89a9b99caccdad9ba9ba89a88cd9cba97ca
col24:   b363766469597775546a5677a55b8db99c787a9bcc935a7d973fb6bc8ab9fa9adb9d7ada98c98cef
col25:   876787579768a498a6793697aa8aabaaca6a784a678bd7e98c79a6cab9d9dafc9f99c7df9db9abbc
col26:   a9255667a7867a629664777874a8678a9589c8a8a9aa9bbfe99e9c97abd79fdcdc9aa9c6cbbba19b
col27:   94838a76864a65b68c18a5acc94bad96a69486db8baa9bbbca9a8bdcb9c8beada89e7758e8c6c87f
col28:   b8436573b58463b9a957aa6867acbeca9b67cd898cacb5abbb7bcfbbccdec9dbcd9a7fbea88a9ace
col29:   d69584584a55658974b978d9b76989bd99ae7a6dedcc9ddeababa99788bad9a6fbfca9e9c9fb68ac
col30:   c689848a594797877699897a8da9a9c8dcebd7cc6abd77bca9c5ebcac9bac7bdddb49c9db7b9b7cf
col31:   c7377677b6676857aca9bc8aab9ca8e9a887e98868ecc7bfbbccc65ea9a5ca5f896eda7798bbc4ee
col32:   a78a5795767c5967a8b979a9d8a99babb99c9caa7acdbbcac98ec9687d9bcace68beb6dc8a59c9ae
col33:   e465b6a66968658a7bdbabdb594aaad9bc9c9bdb9bc9c679daf9db9fb88ae9deaadfa89de8ebcbac
col34:   68786738258766d8a8b8a8b6a7989bac9d879ae857adcbca9ccd997ce9bb9bea9eaa9b5cbab9f5bd
col35:   c9759577977bb49aa578cc7aabb9bbbc78a9baa864c6ccdcbdccfebcffadcec99ca8bd7bba6bab5f
col36:   938949a6579a8c77c7877ebaa9abacbf796c4d8ccabcfebaef9ccbbacaec8abb9c6da9f8bcbb9baf
col37:   e95aa78a7c797a87a8baa96a86b9e678b9aae8dacaabacc7efc97bbc97c9ababdcbcbdabcc8cbe9d
col38:   b5a8779a5d799bba99dba8596aa7ad87bc9bbdb9eaa87caebbacccbcb8baba9cc96ccdbafea9da7f
col39:   b5d97daa8cabba7aaceb597acb7acc8cc8d8b9bfbafcd9bdc8abce9cb9b99bab9d9dc8899ebc9caf
col40:   f962c774886988a88587a96b89a9a6898b8bbbd8cbb8d79a9cabdb48e9bcdaeda7dabdcaacda88df
col41:   f79c1558aaa796876a7979aa8aeacfba99ac9aebcbcaccfb9ffbe8badcdebb7cfbff37caeab9cfbb
col42:   fb8944bb7967a87b98a98a88aab99e89b8ccca79ca9ab8a7fbedd47cbef989b7beca6cbecacd9adf
col43:   f55a8896949798c887988c9bcd9ca99ba97cbeddcb9d8c9cbacbb7abdcd7faaeded8fdc9d5c8addf
col44:   e66c7886968675869bace89caeb6abae8abaf99cb8dd97aabbbf9acdbcbedcecf999e9cfb8ae9a9d
col45:   c588a92859877bb87599d7ba59aad8eb7b89da7fdbcc9bbdccf9ddf8debaacceaabbeacafeb4cbca
col46:   9985aa7a89989c5776859bbab8888ad9b8cf6adecac87a9cdbafdccdebca8bbabadc9cbafbaf8cbf
col47:   c459dab873849889986865d887cb9cbb8a8bae4ab9acbbdbefcadefc4ae87aa9fd7fedcdc399dacf
col48:   f998989877789a8c47bb8fa77a58ca78a8caaacac797fedcd97dccddfddf8cdda8b89cd98bfeceaf
col49:   f58cc9657a697a85694aa96b9a9bb8aac97fedfadbafbcded6fcd98bfab7aada8c9fcabd6f9bccff
col50:   cb9cb9b974986aca838b79a7877989daa8ababa7bb8caaabab9c5989b8aacf96a88879cd8bcae8af
col51:   ffecfcabfa8aaefbce99ccbfeffafafffffecffffeffffeffffecedfcffffeffffffefffecfcffff
ROC:	 BPix_BmO_SEC4_LYR1_LDR3F_MOD3_ROC13
col00:   dfadbbecdca7b8c99fce97cffffffffbeffbefbedfeffdcfeffdffdffffeefef9effefefebe9eccd
col01:   9637b8a7995989c6ba5797cdbb9d6adcaccddbf898eeaba73cfdaee8cfeaeeabda7efae89ccbcdcf
col02:   c568578948a577397a98997aa5bf9bceac59ba9a79dfbfdabaceadaaadfcd93be9cc9bbb8967ebbb
col03:   7886887a86a978a8879ab7bcafbbab78cbd9a8eb8addaaa8edceecb8cede69ca6dcebdbcba8ba79f
col04:   9a97ca8889a58b78e77ac98dab9ab9a9baedbd9cd78f9b9cb8ab6bcccad9b99db9daa89cbbb8cccb
col05:   d457a8b875b79984a7a8acaccdbbcaafaaacfd99ac87afddccebfffa8ccaa79fdcbedffcbd98aaae
col06:   e89889baa8cd965959793658bc89c9bbb9b9b9dab987edbcbcadcbcbcdaada969aacbbbcaca8abbd
col07:   f5869a9ab7db8ddd7bc9bba9be9bce77fcdcd8cccee9b7fcbcfffdbec9eb9ccff9fea9c9cacef7be
col08:   e7a76987867a8ad69a7bdd8777866aeaa87cd99d9cab88aaeadfabbbaba98da99abebcdbdba8b9af
col09:   d797795a78592ebacbca6c77afb8c96b48a9ac99fbbab89ef9b6bfbcaacb9599ccbc97beb8abcd8f
col10:   e8557b76768a79999c67999eb8cba8c4bdbba7ab99cbd79bd7cecccebaaeab6cab9aca98bdc88b5f
col11:   89596a49587878c87bc7eba77a8ab7aaa8bec9ccdaa96c7bbabbdca9ebfbad9aaa79dc669dab898d
col12:   b49668697788a696e79a8b8badcb8cb99a89a997eabcb7a7a9acd9b9bffaac9ebcaa77c89cbcb5af
col13:   f6685a9674b87a87cc5b7ba86aa7a8dacdce89cbdbb7acdc9abbc98acb99978dc9b563c9aba819bf
col14:   9556476677498796784974a8d6e87ad4a9978a6c9ccb68c86a789aba9b8cc999fbcc57ac9da84d7e
col15:   c3468661748879979ca588aabb9c8bb89aceba8bebb99ba9abcaf8a9a88abbc9cdb89aa9ab7ab9cc
col16:   e757273488877b84989669dac7bb89cb8d8a9ebdd99c99aac87c9b8be96b7689a89998a8c879dc9d
col17:   c6566487976699be8787bdacb67d59ac8bcacda9accca8c9d86cabbdc9adcedca6b6989c8da98899
col18:   b158464b195677a6977865878aaca887497876a9899bcaca9b886d7caa5bb759739daadc65c8856f
col19:   d84555758a8ac7a9a8a9776599b7d799cd6a978b8dbcca9be999ccedb9ca88aabb979a96bba9cd6d
col20:   97346a557a6869a7d3a76c9689999cba9a97b9cbc9ceceeaabc9dabbeacecabba9b68bbdd99b869f
col21:   c14453a74386aaaaab956b8ba99b9ca98acb8989acadacba99cb9a7da98bc7dcda9d8a17cb8c969f
col22:   f647785887dca75a87b65a7c879ac77aba5aba7cab7e9cbb87ca9dbcacbc9bd9eb9aa9dd7a7db88c
col23:   9767654889749bac88a6874889c7b888a8aaaa97aadab95ab79eddbbcbf79cacb7b7bb9e756e9abb
col24:   933793473a49c77babdc88a77a895877554a655988fbc7b8aa9cb8cab968bccb8a79a8699f688aae
col25:   a858c8679999748996984a6598a99867bad58cc8a8cb8badba9cccdba9b6ea9cbe8c88b6ac68c86f
col26:   a44744795b99678c888b789769b867c8798bd968bc7a78f9a7c9cb8f7dfbacbac9deba8f6b87ca5e
col27:   f587779619d86aa88a9868b79b98799884baaa8a97b9a8bcb9edccafb89ba97cc9dbccac8caae8af
col28:   c7aaa599769b7d88c78a978c9c8aa976667b86d6a99ad8b8aa9a9aacbbc97cebc89cfd5b7b989dbf
col29:   f69b8a898d69ca96b77a8877a7877a788c989a4aaa7db997d5bdcabdd8a8b98ab7afdbd7b8bafbaf
col30:   c89aaa797559beb8bb3a79ca269b96986576cbba956cc7d4c8fb98aa9789c967a89bd89797a87a3d
col31:   d55369798a8d7e998c76bb8a899aaa8aab8c898abac98dcac99b8d8d8da79bcdac89a99c88db88bf
col32:   d5678a9899489ba84599b9a7799a7ca5877897b7868588a77bbaaea9b99c8badca8cacacbaacf84e
col33:   e65759955a7958548686977babb9a9a49d7a86a87b6cba968bbe2baa98aa68abbdd9aa9afed9beaf
col34:   e984548568665cc898b8698abac8eac69c678c68bc9ba77bc699ccda8a989a9fdadb76dbbaeaa98f
col35:   da77689a977a7794788b86b749d699a87beba94d5687adbabb9addfcbbb9499ab9d9bdddabcadbbc
col36:   9788378975c7c919a97a9777885b58b8d78989596d6a78ccecf8cacbadc87789aa9cb8a7dcdcc98e
col37:   a986678276735598a6988869459996c8a88899589869ab9f9cebbcbbfba969a659c9baadcdbdf8bf
col38:   e48751776c56585a69c659297697666968a7699879fa7aa9e9cdc7ca7cb8aa696aa7b8ec7fdda4bf
col39:   d8766a886aa886a5a8397b9968865a96ca689a8baab8b6cad6acaa99bbaca7975bb9bc6fc9bad9af
col40:   9875b8a8698c9b89884678497b7c9c6863a778acc7cbcaa8ccbe9aaceb9becb68a9b8bccb6dc8baa
col41:   b7898788a459b68a899bc85a7588c899778fbdc8b99ab7bdbcdcbbaddb6b4a7c67ecf9dacbee9dbf
col42:   966757b96496c74b98777879589b89ca979da9bc679b7ca8dbeca9a6a59b9a99a9caa9c9bcbb8e8f
col43:   f86b9b3764b66a69b8a85a888cca687bbbdd76b89bc8a7db8687fa8dc9a6ead9b7da8ad9d99ac77f
col44:   eca769699a767888598175a875a4b99697e87b86c88dbb9ad8aa967bd6b8bcbba9cdbaddeabc886b
col45:   949975989ab7da78c798628d68c7799d9be997999abbd7bad9ba8ac9a7ac89abb7bae889b9ea549d
col46:   caa597778979a649b9dc598bb869768afb68cbae6d9cc978cbbb889bd8aaa9489f838bccc98ccba9
col47:   a45658786998b9bd888a657959776876a68c485b89bfeda8bab98c97c99996776b866bb8aaccaabf
col48:   85347648579a768555ba857aac678b287a9cba58aa79576b5aba88eaa886a7c85a98876687b9927c
col49:   8585694899ab98879999888b8b5893986aa86a7a5bc8ced69c8a9bcabaad96b9a8bac896de7cdcac
col50:   b3593449666c5438787948d47786b68abe675ba989ad6a998bae9a6ac8ac6a88ca9867a577ac6e7a
col51:   a97999dabaacff6c9fdc99bdcbeaadfeeeaffa7bfebbfa9dbcddfdffabafdfcffbfbdffdfebcdbda
ROC:	 BPix_BmO_SEC4_LYR1_LDR3F_MOD3_ROC14
col00:   ddbefb8ecbafcdcfbdbefcbfdccfffcbd9ffffefdeafffedcffcefedfefcdcbfffeafdfffedbfffb
col01:   98724d788a38a8a569ae93adcd6ea8db977b79989acc6dd9bcc997999f6ae8b8ddef97cebcbb8d7f
col02:   7799a14888989a9b7989e9f86a9c96be978cb989bd889caad9e9ae9b9fa7c9a9a8687ac77898869c
col03:   fb6779acb98954ed98ccabd5c9ca69db79c9abb7dbfbdcbbbbf8a9bc77c79cfdc8a9dbc8b8989c8f
col04:   d8c9aaa75778acc87b8d1a88d9d79b777bcaeaf9aeece98dcb38cafba5c79bad4b7b897c8ba89a9f
col05:   e9cbac74667c9696b958b7e9aeacaa868d9c58cade78aac6dfcbb6cbfa7c77d7c79f8ffaab6d948f
col06:   eaa99b766b6b9988cad36aabee9e88fa9ca89b99c6f9dcaabfaebd9bcdbaaa99fcabbad9cb56aadc
col07:   f7c5d9a6aaab3e9978ea6bb2cbc8dbbdcafdcabf96b989e7fa6d89b8bbaa719cdcbe9a9fa49c5a9c
col08:   ea68669779cb8755817a9689ab87bddb978bb79f88d8b87e9bb9cc9ebaabcc7999d9c384c5886a7f
col09:   e78a8aba3c5976bc8a6668b7896dcbd5eccc8baadd9bbaedba6b8b9ce8cbab8b99997ca5d868e89e
col10:   e7496968899c8cd7c8bbb798bbe9bbbdcbbdade6c7dba7cdf94aebbaaaad7aa89e9cc8b667fc9ddf
col11:   b79aa8ebbbcbe87c9d99a8be6ca9b9a4c8cb6ccbda7bd9a9d6adcca5cdbdbda99edb7aaa5bc76aac
col12:   e88b359687479867c7dc7ab87ab98a9967bfbbaab9b7abc6a89cb7ade9b7d9a9b856a75496c8b57a
col13:   c59b68a9269e7597768d9b6c4b7de69697eb97b996cca9facecabaa6bcebbdacbae6e9b987797b8a
col14:   f9699d8ba7ca8778ad3bd99b69a9697ca67adbffbbfb6ba9cd89b7fc87eaab96bcbcbf59f6b79bdf
col15:   d4d776ae68998464ba878597765caa8b697c967dbfedb99bddacafb8ffb87b6dc88ddb8955aba789
col16:   87e8a6768a7b999b9bb8c9ca487cbaaab9a6d8c98dafa9ef8c6c89cbccbdccea96ab9cabbd9b8bac
col17:   c889b88276996674bfa7887d8bca959d9b6be8b99b8fceb8c99f9a8a5caadcb8bf6cc9c8b87b787f
col18:   997aa7a72627643fc986ac8d65bdc8862bcdaac879daadf96dddd7cc8cdb8e9f4bdbfb8b6bbba7ff
col19:   8b5a696477abc778a999bbbbbcaeabbaa98af96b9f866ab9abddb7adba6dfdbb9b7bfbde4e9cb7de
col20:   d636b55a86b559da8c49f879c8878a89e58a89de9ab8a99dbae8967ccdaacdd986ec9ab8bab999bf
col21:   e759bb685ab56b57a889d98acacfa7cdbbb8bda9496efbadcb6a79856ea483cfcbbcb855589bda4c
col22:   e9a727a8bb756ab8987cb9e98dd8b4a9e89c8aabceecabe7cb9cbd8de9d9c8bf79fb7b8c86c6a899
col23:   a8a89859991a2b59b976c9abba5a89b9c9e58ad6c387dacc8edaaf88accaccec97bbdfb797db999d
col24:   a77a5a88798589a4397e7aebb8c8f8bd77859b786cba64d6bbeff6ae887eeb4aadccb98db9dcddcf
col25:   c9859892b879799bad848fa5ac7ac9b8ac579b977afcc9dbfa79cea8cccd8fc8a9ac98dcba8b77ba
col26:   c6bb677dea6d6a8739477bcba7aacda5b9a6da89dabaebbda6b7bce79cfc9cecea9e8ce7ad879aaf
col27:   e56967b96b7b68799a9b687dd9b8b86a8acdcbabf99dcc6cfbb9c9dbcfc9e9beb98c97b98c69ad9d
col28:   eb99ab678ab27768cacae8adc7fdeb95ba9b9cbec9e97fdb98dbbcbadccc7af8de9eddccb8976caf
col29:   bb8c55877ab869c7b9aa7d7bbdaaa99cdbdbed97ec7a8dcef9acb6bdbafdcc6bf96edaf9b5adabaf
col30:   ec9aaa5c8aaa7b69ca8b99da9ce6d7adbccbe7ffadecc78ddbadcc9eab78cafbb8ecca79edb7cabc
col31:   bb9597a64876876677bb79bebdbfdcad96f96cbbbf896d87b97bdc9c6accfbeaeed8b8dbbbbacbac
col32:   e997757ebbb8896a6767c7dc9fbafbcbdfbeb8aa9dee8a8f9dcaebbafbac8bbbfd9adab79cca9a8a
col33:   eacca9bb9aa96c8b59b998d7bbbcccdc49abbadfacbe6bf8eccbbfbcf8c77cabcdcbccfcd9abc8ef
col34:   e78b8ad95baeb8ba787af8bac9d9e8a5dde9667ddafacddcedabdcdf9fc9ddcba9886e9ddc9b659c
col35:   cd95c9b8758caecb7bdbacbacaab8da8a85e9cee7da78afd99739cf9dd97caeec9caafb5b8ecadde
col36:   ce97b849c7b8687aae6b8b7aaaca9eec7ea6efafef9daccab977ccfdaac69bafdaf9e59bf87d8abc
col37:   e76bcbda99796c8a8c9d8acbcabcc9bbdcce7eccde7a969ceccbad97cab7ca8cbcdcfdaad8ce9cdf
col38:   cab7a9c79d37a7c8c8acca7e7a88aca99bc9bedecc9eabaea7eacccc8cddad9a779daddaca798ccf
col39:   c9a87cdc9abcf77cacb669d8e79b859acba8cbd86acad9bac8bdbcbceeda9dbadcdad7b99f977fbb
col40:   b75bbfa9ac9f9ca9eaab6da69ab78abadbbddcbcc9befbce8eeacd9c9d959d7898eeb8baa66e96ff
col41:   f9f877786889868a8fdacccfddbca99bb7cd8e9ad8ecedaacecef77dffeacabe97addbadeac8b8af
col42:   f8b998b8d8a68bac86bbccfd9faea9d9aacb9bacfebcedddefdcfcbdcdff8d9fba58cfefc9fae7cf
col43:   e96b9aa39b7b7a7b66bdbbb9badaaeaebbcadaf7cbfb98acdc9d9eedcef7caddd9aca5cd8dcc977f
col44:   b9bd7669ae396869983c86bcc5bfaabad9bf99fbfd7bea8afdbdcd9ecc9ca775cacfd8977caa789f
col45:   a89594baa8bb7978a788cdbcbababebbaa788aceebc8dabbfebddeeeda8c8eab7fcf89ab7c8bfbae
col46:   fe9597a7b47699adbbbcb9daba6b7d9baf8cd8ec9dbca8badaffd8f96a6cedceccf9a67cd9e7588e
col47:   fa6a96b96a889dccc76bbbca8a9e6a666ba8ff9aaedacdddccc8f6fedfd8bcebbbcdebd8cbeadbaf
col48:   f9868d79878989397bafdc898a8b9f9c8b97c8bbfcfcddedeeecdbcdabbad9b9fbca94dbc89799ce
col49:   d9a9d6b9bbb998b6ba49bbbbb8a69c9dcad9caebcccfeeddbbddfdde78bbed5f7edbaffabcf9dbbf
col50:   fccc98aa977cab3c7a9a59787597889b8c9dcaa9afebadb87d9cfbbcacc999b9d7afaab67a897bbf
col51:   ddfbbcfe9cfcdff8ffdfcfeededf9fbdcfeffffffefdfffffffffffffffefddfffcfffffff8ff9cc
ROC:	 BPix_BmO_SEC4_LYR1_LDR3F_MOD3_ROC15
col00:   ea9edadd9fec7e9fdede6abcfbfbffbcf7bfffcffffdc8ffefefffeaaafffeedf89ffcfffdceafe6
col01:   b815b9678b88985a99a7c876ccba7abe787db8de9eaccc88c79cb9cb6ab9fbc7b8c6893923ca999d
col02:   d67956b7895899668b94a5d7bd8977b69ab7a6daccbca6ba78a5f98d989c7789a799b7998a49773d
col03:   d699857b7a4457985c877c694b95bbb9b6bba9c78c9aab9a69bac867cbecccf8abf775dc4ab8ba7d
col04:   f83b87ba98d89457bb6ca9bbaa878abada997bf79b8a7875769e5a9bcd8d189aa9d797a8bedc769c
col05:   c8955a35b9baa98c6b58ae68fcac97bfbda9bea97dcb7ca5ac979d5cbc8e798abfcd7c998ac8e7cd
col06:   963b929887b4a397a2c4db899bdab7cd8a79686ac698977a899ab9a9c79a989ac9daca98696e88b9
col07:   b6966caa585a6c59c9caa8e8a7a979adccab99e6cde77cbb5dcfc89bcabadd89acaa69af6ae9ddbc
col08:   fba7485bb978b858acba98aaa9b9c99c7869c8fb966a99ab8badbdb5a6aadf69898dfebb9ff877be
col09:   97377376778a8878a8cd9a99badc666c85cd8cacbb69cab97a99af6aa8c698a9de7a897996c96bae
col10:   ed696956ae79e869a6858a5896b9da4adb5765c7d97dd9dc86bdda7aa96c6c7ab99b6bba8997b79d
col11:   e53943969b69661869b79c99bae6a9aa9aebcaabdbba9659d7f7f9bae9fb6196c4a8649999cf566f
col12:   c92995565a68a64b947a56976cec998ccdb898aaa87ab79daeb9b9a6aaa7868da4b7968ba566874b
col13:   c6655686324869898c9667bdeaa8cbae58c897b7448bb9aadaaaa5a9d6a7cccac9be7a82eb53a67d
col14:   fb6489ac51799b8a98878b89a87a8ba99859b75b86b7db7cd8a9b9aa498a7677b596b88c778875be
col15:   b1566a74ba7958a7998ac7fb59aec88a75d59d9abaab6b89d7ab7969b689c998a6dbb6b77275537b
col16:   c486646455ca698979abd4799a8a798d7b9ddbebbb99595cab7cbbbe868a8596998545c5eb953a1b
col17:   f753d697a7584769aa8b587cc987abcaaa7ababbeca94ca99a5776ae57838d959a8b7aaa9945a98c
col18:   b55a18986156a8c5c75f997bcaa6baea6a6da8d9cdd889e98a9ab99a77d6b9a589969885766a9857
col19:   b666519d689948b7699799879d8abfbbb9a9afac99f87baada9ac6c8fec97ae6969598887499889e
col20:   8578b65c57836dcc97a47578b4a89c98d8bab9acb9a9d7edbdab777aaaaa8af89559d778c5c96a2c
col21:   f8786579874ccc7a7bb936aca988988e9baa9caecca5b8f78a3b9797ea1aca9aa59ba68788768b8c
col22:   c677369958a9a98a945b589a9aeb594996cb8b6cfedaefbf88c8eba988b7b77d97986677ab9cb97f
col23:   89a8b836f93956695ccaa7889a89a9699ee9bd8a6a9739986a9ca96576b97886fdb5dba8a3a9676d
col24:   e59687688c77a79cb8b98449b867b93bc37cc6d889bcc83fe7fcef9b98d8a58c66cbc8ab587848aa
col25:   e6795a7a8975a857777a967a9bc6a8bbcb9ae7a95cddde5d9baaa6b96d9dbafecec399a7a7dc8588
col26:   fb99416a99a7c99a8af759776c5996869bc5aac6aa88babb6b67e997dbea989b98bc889ab7778877
col27:   ea93a8a8ab7b887aa98a87aba8968ace977e9d8647bb886b8abddaa999dc886ad978a9e879be689d
col28:   f96d8678b99ab93beacc1794aa87b8cbc5dc8aadcec7786ad6addf8fb9d99bb9ed9bcda6b84a889c
col29:   f6c77bca68b9d7f59d78ad5795bbaa7d9f89ba9adbabaddc68ebcbda9a9b88997c6bc999b75bd9af
col30:   d53b75a9ab9baa4dce5859da9b7eb57c7366966b97878c98579ac9b98c9b95ac98c9badb7966e79d
col31:   b7a969cb8858a5cc78ac959cbb8d9ccabaa8aaaa9bfac6d6cba9ce7b9b8afe9daaacccccaaabb6ca
col32:   c49a889a769eac59966c86db899aaa5aabde865aa56859698948a7aeed99a59dacbcc8937a65ec8a
col33:   bc89b63796b9c496bb8a7e78b89aa8572999979abbaa6aa78ab57aaaab8ecad9caf7d6cca79baebf
col34:   fa8289a77689b7acabba589a7d6aaa88bc8dbdbfab8cd5976b8fd8be7dbb8f6ed6c66779a8f9abeb
col35:   fc89d899a79a8786bdb86afeb747a7adb9f8a88a97bc84cbac8ccdeed3996575cd9a7cedccc9bd4d
col36:   d98ae8aaaa98b6b89789788dac6b74bb78fbbdb9b7ca8bcdce99ab9acc87aa56e89bada9bdbd9fb8
col37:   dab6da7886984cc86a88dbbaa69d89899bcc5ba59dde69cfdcddddc9eb8d99559ad5bd8bcabaab5f
col38:   e79988d7978899d79bad8e987a7fceaab7a85aa56cdcdc87de9cfab9a9ba9bcf9da9b687b8becfaf
col39:   f8ae58dc7a7f7dab2976b7ab785acb8accc9a7abed6bf8fbdddffacbfe7d8977579c897cb7f7b88d
col40:   ea6887d66ca9db999c958697aa79986babcea6d888f97b9babeef98ea84c7e9ba9cb9cabcf9fb8df
col41:   e8b7aafabbadca7bcb5c2beaa866c99b6d8dfc85927975bb7dcfd99fdd9aacbbc7b9f9a9ae989a8f
col42:   da7878b9688ccaab7db8b78a789bbeeba678cd7e97d99afcbbfad9cacbe94e394bab7acbb88bcd9d
col43:   fab7bb7c8b9a9b996cb9b99e9788bc9aacbabbcfa3fbb7cbbadc9adab89cbb98d6aaaffcbbcba7af
col44:   ed5be9b99aa6b6c4f685acb39c85bcfbbd58becea8adca6dcb7acbf8cde9dc999acac7ca7ab7b8cf
col45:   797899bc99bca79aaa87b67a7ae6a7a898b86acccbbbb4acfbbc7ab9abb8736bbccb85a9eb658bae
col46:   dcddacbb79b9f9ac2adc5ced7dd9d9a7f9fcbccaacccbec8edbbcfbbb7ca8c5a9eabbbbd5d8bc5ef
col47:   ce4b9a97c5796d9bccbfb94fbb6ec97bd8abc9a8ccac9b7cb8589e8cfac99bb8a8a98965dbdf994f
col48:   f54849adda7d958accafbbaa5796ab5599ccbad4aed7fe7d5ae56faafbf88b88b8ca6a5b5ee9886c
col49:   aa923b9ba8b598b8bce6ecba96c98a9a8aaccb86bcf8cbdbeebcfaff97999ea6bfb79aa96dbbb98d
col50:   fa97596b9bb99c7c9caba7b8aba3989c6bada9d7abf69b9eb88cdd9dd8b7e8e7b8a5c9b98ab8b5fb
col51:   bad9e8f9abcefebdb9ffdddbaaefdfddbffdfeefffaefedbffffffcbfdeffdffdfef9adfedcbfffa
