ROC:	 BPix_BpO_SEC5_LYR1_LDR4F_MOD4_ROC0
col00:   ad876ccc8bddbbafcebabccce9ffffffffdbffddfcbafffccdefbfecd6feefabbbff9eefcadecf79
col01:   b63578abc7a56966696987bbc985a879cdae9cca89899d889cbad8d9babeb8c7967c89d835898c8a
col02:   c5585489c868887488b4859ba8b7b27aca9aa69b9aa96a8a977b749a9a6c9949b6bcb9957785768c
col03:   d675668b49bc78488be6997889b6c9da99eba997cab79da759ec899b8575babbba69979ad958697b
col04:   b667b97ca745848c778c79b87dbcdb97aa8b6ab8b7bcac9579d99bb49a5c8ad93f9c9ab635546b8c
col05:   9152787a6b7a69c7a797ad69977798989cbac99bc9839c9695a9b89ccc5b698ca5aaec645788557e
col06:   e4436996ba5b898a69776cb7dbd776f89b898ad9b36abc5abba6c4b482955ad84a79c9b8b8979286
col07:   bba89968b884abab88a4b99fca9988889cabc4bd79d796bcabab6c99cbdacaa899b5aaa4c567975b
col08:   e6585488a853bb95b98c77aa885d9b9b9b99faed885d3a9caeb8988c8aa9b5a7ad9487699589bb39
col09:   ec7876add9a8b97878c6795ca5da7aa6684d74c9cdb9acab9dcb8a8a9759b79dc95ab7b499a67a8e
col10:   ec7959ac8a7956989877acbbacbc8ae8b7597b8b99997348adfaaaa897379496d9e87ac79d65555f
col11:   b966b687577b8588a4c5ed67dda6c4ba9d697b7696a6787579856795ba4c88a6754c53a4a794a369
col12:   c969879166848a99967a7a7caf9a67676be9a785a8ccb7a676f9a7ac8999a8687a994999c871767f
col13:   865745b5abc88984ace6977ad7a7888a9cfceb8cc7bb8a95bbccc6b9a9b97497ebd186aa38998b3d
col14:   9757857b5758688bc776a986958da997cb7e77b798cd58a9dddc7a67b899a5c696aa6a868692356f
col15:   a83598447a95788ea876a89cfbabccf9baac9aa9eefd8acadb686bb7eadc96aa99ac98a9599cc656
col16:   c6755616296578999eb89b9aa787a7dcd5ab8a9bcc4de887ca8689dac3b4c5b965b7b7897197b36b
col17:   a15a898788a7cc7a79a84b8acbd5cdabb97988876667885da88beacca3d68589999bb858585c787a
col18:   c365598257a97a9987976a7a9e8b6fdc9abcd7a679aaadccba598889a9aa8798aa85667bb769a767
col19:   c9724c959978b868a999849ac9d9bfcdcae6c69a9df78daca49beaab5ba7898dba5696989859695e
col20:   d7278a6b89959a99459b9b5bca8aaab798ba88bdb9bcb7bdcea8b8dbb9bb7b897868b98958b769d9
col21:   e6467699b6a759ab9aa8b7b9fbaa98aaa8ec8c9cdaa9aaaca9a7a935538b9c8bb88ad38b8759657d
col22:   a764669ab78bb365c98a678bb8faac6cabe9ad9abdcec69dabdacabda8cc699b4889b9899ca7156d
col23:   f965879bba9babb7c99b6c9a99a7cbcacfd899e99787bae9aeec8c7aaa9b5ba7c396bbc887a4976d
col24:   b6569a5499aab9b46daaa8bb7b9b76b798a8d99bd79898caa8ae8a8ea99be99cd999b9897b864558
col25:   f7945ba988a7a6db896c9bb95ac6a8deac9996d8ddacbb9decc9cdee8caaaeadada9a95897c5789c
col26:   f8b657c878dabbc8c9baa96b97eb9acdb8ca6867ca8be9a8adaea7aff9ad7cab9abba99b8b78c5af
col27:   c79a78bca69f796d9b9d8addbdbbbb99b78cab77aab7c78db658dfeaca8aed9b97bacbba57c966fa
col28:   d98ca8bbc9989b8a7d6cca799bbfde9f85abed9bacaa897b9d77baaacedbad878978a8d88997888a
col29:   d99aa9bbde77de9fd9ce89ad8bcdbcbc9d9cbf98697aaaebdbceb9fa9aabecbbabb9d8d7aaaa996c
col30:   f9bba7898b89cbebaabbad978ebaab88cbccbecb6bcdfa9cadbbbd8d4a97a8d8bcdeacb9a697797f
col31:   f8bc8a9bbcb9aac9a9cb6c5ecceba9acc8cc9ccac8accfc6bed8ddfcdbc9bccbcf9a9a59c6ca7cbf
col32:   fd7566db95cb9babad99bbdbdccdbcc87cbd7b9c86bdb7ac7bd9cf7c7cc7cca6cbe9a6998689a7ac
col33:   f9497c7a8cbdaac6adcfbbcfb9faed97acfeaeede9d7ba9daba9baaaec9eba7b7afcb59c8bcbbd9c
col34:   f79d9cc88a9dbaddbbf997ecbabecee78ccbc979a5acd7a8ccb89bdeafa8bad9bbf98989daa8c7db
col35:   fe9bac6ec99aed9dbeba8dbcace9bcabeba9aceca95ab98dcfefc8e99dea87b9bbdbae9dcfaec969
col36:   e8b66a78d7d8cbab9cf9b5e8dcddcaaaaabceccbb8dabcb9fddfbbdb8a76899eb9abebc9a9ce9d7d
col37:   deeaadaccb977879c8cfbda78bdcbcbbbbadcccfcccf9bddccbcffdcabfec8ac6b8ddbba8befabdd
col38:   d8b5779c8bbd5acbab69dacadbbacc7a8d7ab9acab98dccbfc99baeccdf8d8bbba96be7bb9ced98e
col39:   fcebbf9fbccdba7ac9bdea9ab89d8fbcbfdab7c74abdcecfcfccca7eacbaddd95eccfa8a7cdbaead
col40:   fb8d9aacce8d99cd9dfac9addbcd86dda9fc8d7dfa9cfb9a69dbedfddcc99b7cb7c779c8abb89c8d
col41:   f75cbacdfcdbcbccac8ddcdd9ebbcbdbacebfcd7eefeebdedbecfdebbcfafbcda9ebcbcdeffb7baf
col42:   f897ab8a9ab9eeaecc689abbc9ccdb7dbdccdbcb99feebdbbdbaefcddbdcadda39cfb9ba9957e49b
col43:   f9aebdffbedcabdc9fd99c9abee99cebeccfbfffcec9ebcdeebdcedf8cdfffbba9ebc8d9ac9ab99f
col44:   fbdddda7accb9d9f997bbebcd9adfeddcafcddccadedefefbbbcef9dccdc9ecbdddfd9f989ab99bf
col45:   fccabdcafcbbcaddf9efdaec9cfcbdcdebcfcf9bd9ffcdcbdbee7dfbb99b87bddb9db8b7acdec99f
col46:   fdbfeaccecfdfbbedef9b98aaadadbbeebdece996dbc9bacbc8df7edefccab79edbac7c88bca598c
col47:   fc87ac8cb7dcebcaaecdcdfbddefbfbbccbceeafcbbc9fadccecefbbfdbb979aa9c9b9b949da9b6f
col48:   8a6ccc9baa9babbfeadfccbcababefcbdbedbeca9bdfcff3bebacba9effadbcaa9bd9e58cadba98f
col49:   fbaae9bcdaffefaacebeacdfbbc8ab9ecefbadbcfdfcfcffad9eea9cdcecbcfaa9cbcbc9dbc5bd1e
col50:   d79abb7bfdfdff98ac9ca9bbf997b9cfbedcab9eafcc8cf9dabcdbbfe8e9c68ebdd56976da9bcb6f
col51:   fffeeefdffefcffdfffffafffffffffbfedffffcfffffffffffffefdffdffffeaffeffffbfccfcda
ROC:	 BPix_BpO_SEC5_LYR1_LDR4F_MOD4_ROC1
col00:   ab8a89ef99befbccaadaefbebfcefccffdcefcdfedfdefeeeefeddf9ffbefffbe8eedddfdbdffefe
col01:   b546655c57946764973a9998779a98b386a87bcc999c9bddabb6c7dbdb9879dbacb9bc9b89db99ce
col02:   b14687677567795646587bbb558888a899a5b87978b89b8ac9bc5968b99cb8aacbccb9a8b89dbc9f
col03:   b73656655888568c899b577897bbece668abcdb8b8aadacb788c98b8ecb9ca8b9b86ba86cbcbbb9f
col04:   a245983465a7445387a86775a86ad86a6798898889bcbbcbd98c97b8abb7b79bec8c7a97b7b7a78f
col05:   c64766865816486646597b8b88ac989a6acbb7b7bbb5c976caa8bbbcb99db87beb87998987bb699f
col06:   877358335787497664797bcb96777c86ab7856a8abab94b5c3a9c7d8ac9b9bca7b6bbba58986aadc
col07:   a64566884625a4678b47566694998ab799bba6c8a9bb7788b6b8bbdd7bb9976889cc7bb799b6668d
col08:   d9534655482573a6459555767c78998bca6788888bb8586bcb888febbb8888bac99998a7b9b5bbbf
col09:   b366a76478a69797776997bc68b798caa488bbba8bbb9babb9b79abaa99fc8b9b8ca878b49b9bece
col10:   c646669757668a77469a799a77a99b97a88a66b6baa8d88ba9bd998adbd99d99b9bab978b8bb794d
col11:   a575567b55797897777998c886ab879acb8b89788cbbc898b8b9cacb7899b7bb9866cbacabcd7bbd
col12:   944b75769549766765a7797a8a6795a9879d8b7a9b68acb8bbebcbc9bbbb898ab9bbefbac8bb7ccf
col13:   646b778525386677758996859cb7b8b79ba67c97799ab87d897be778cb698b8a8c99c9b8a89b76de
col14:   9467585167279867576786767879669b53c79db78aa8b86b9ba69b79b9cb87a9b8b9c7bc47dcc9ec
col15:   b622633436757537989489688c8778a8ba96b8babbdc9adba489889ab6dbb8b8d98bb8c8b999b97f
col16:   7366857657643787378a566693657478849888a9997999cbbb66acccd9bba9b98cbbcab877cb989f
col17:   b5874453467b7856b658688656aa9a57bd97c7ab9b7eb99aaacabb99b9b9bfbbbbddb97bbb893bbf
col18:   b2737446864986678866567965caa59c67779db98cbb9bdbcb7c98a99b9bca9c9eabbbdc958b8a9e
col19:   b44695458767566666c95c67c9abaa96a89b989a6ac9b9c988ece9b89eb9cbceb8a9df9b89cbd7cf
col20:   e575753473766569746c68a995b58b55b95a96996a9a98a8b98b6bab9889cbcbdcbcdcb9d789b89b
col21:   e656614734459837b75a67799b4c6b45bb8cca79b8879d7777cbc99bccaa8b9aababbab68bcbd99f
col22:   e54538a5a858c568887796787796db5789b9b98a938ab6ba89ba8a7cbbbb9cccccc8bb8bbbabb99c
col23:   73445264585475a86b7a6a4bd9b6ba89e98ab57879b99a8b57a7e9a9b6a88cab6a9bcb89bd876c7f
col24:   bbb8647875a65374889889998775c869a8c9ab8a8ba9a9d85bbbcadc69b8bbc84b68bbbcb99cebcd
col25:   b6656934568a9a3cc88887a8c88b87ab8b788789895cba789999899bda8bca9d8a9cb89a99bb68bf
col26:   c56675795456787986669bd469889a9cab7589b97d7b9746dbade8cba5c79b9ca99cba6caa7aa79c
col27:   a786769675b86785b9b7ab6abb9ccba779b7b6abab6d8bb9b699abc7bbbbbdbdb7cd889bab989c9f
col28:   d7858768836869798a779f8888888987b8caea9bb9bebac99ccdcbb9caaa85dcc8d5b99b8bbbaa9d
col29:   c7876b957896789589b9ab8cb99b76bcc7cb8bbbaddcb9be8ae8dc9ab8da9b79da9ca9aa78cd9b9b
col30:   d658a8975897858a985a8aa9c8b9cdb8ab9a9b7b88bbd886adacac8a9ebbbbc9a99cb997b9a679cf
col31:   986761686c7b89888879bb9699ac8baaab798b77abeccb9aa9acdba8a99dcbb6b88dc67ba6bbabbd
col32:   d56636697aa888469bd479bb8e68aba9c9a8bca6aa98c9b99ba8a9ab998987a999b9ba9bb984fcaf
col33:   85885b689847798678ebb98b9b987bccb7a96dccddc99b8d7dd989d9badb669bb8f87cec99968a8f
col34:   a9847967599466b67ca77bbabb7c9abc799b98bc98ca97b9ba8adbbaeabbb8db878aac9d68f7d68f
col35:   a67669674798c878a76a9bc99bbbae8cba6baa8b9bb999ababb9acd8bbca7c9aaae99edbc5bc9d7f
col36:   d97577a9686866b98ac77a8aba7d9b79a99ab9dab9b8a8bcbabae8c7bcbbd98bb7999ad9895baf9f
col37:   c3867b858aaaa7aaabbbc78978aacabba9aecddc99d7bbcc9ca9cba9ca97b99d9cc9c9ac7bddabbf
col38:   943a698773597977a9867bab7857b7aa987bccb3cbc8bb9b5899dbd7ab888dda98889bbb989cccdb
col39:   985ab98977799b8a98996cc8b8bb6abcc9aad9669bebddabc9b7e8cb9bb79a9cc7c79da9d9cbebcf
col40:   aa966997879d99bc956967c7958799cbc998da86a9cbacaaabbbb8c9aabac8bb7bab9bd6eba7bcbf
col41:   96a33797a9aab6997a88abb887a5b8bbdbacbc87a98997eabd88aa97be89bb9ae9c658b8c89bbd9e
col42:   f7b7588567b9467998b9c9aa98cacaaabe9dcd9e8bed79bbedcca99a7898a8bab8bcfbbaf9d88bcc
col43:   86677567437a7a9769baeaa9d98bc7ab695dcabdcdba99cebdddcbabd979c8a7d9fbe987a8abbdbd
col44:   f7778655576a9877688b9b79dbd86b78a9c8ac986d6a978cab9bb99baaeb7acacc5d8889bbc79b9e
col45:   d98757a6a9b89b5566bca9ccaababc99d99abb9daacc9b8bbe7ccbfcaa99be89caedcb7ab8b6c6ae
col46:   b5655785aa77ba7a887b9b7caa999abbabd99d6bc5a9deecaacbddd9a8dacadbc889a5bdebd8a95e
col47:   f4768637ca936aa99d79cd7999abb9bda99ca8ab7babcccd8cdebcccbdca9aebc96baa87cbbadecc
col48:   e768866847554c7a6958aa99a9a9ca9c9cc7698cb9cbcbd99d8c9f9cdbba9abcac7b8a9a99aba77e
col49:   c898aa8598476a977b778a8b88b9b998ab99aa8a99cc6cadbb8bccddada799ccbd6a8ea9c8bd8a8f
col50:   c56888767b98a87687798a679b89adcba9baabbc79b898abcbdb7a9ceaacdabe9d9bbadb9bdccecd
col51:   cdeeedf9ffeecbfdfceffffffdfeffffdffeffdbcfeeffffffffefffdeffffeffffffffdbdfffffc
ROC:	 BPix_BpO_SEC5_LYR1_LDR4F_MOD4_ROC2
col00:   d6a9d9ecb8ae9ac69cdacceeacfffbebcfbeffeabdccdff8bfbfdabffeffffffffcffffffdfefafd
col01:   b8885248198915c7584b7969a55756baab97bbabab88b8bbaaabe8b9cd9abab98bb5babc968dcc8f
col02:   d2663a7776a83856554a78b593e989f898c47876ba76d88885b6b9b8aceb69c9aa77899bd97bc9de
col03:   d53968446b88868864785a94aa598a7986aba9ac37b77a8c98998baa9d869baabae75da9b5abc9ae
col04:   9185669564767925c987a896a574884b988aabababaa999868c76ccd8cd6aa7cb979a9ac8c7b8c9f
col05:   a8859685aa887c955385b747dc9d5b7c4ab7787887ac98a898987f9dd88a98bfd8acdca95856abac
col06:   c8ba5387858c79598f9868897a6bc98b69796abb9988aa7ab7c99baeda9bcfac9aad6ca8f9bdbadf
col07:   67496694978547c5856879c8aaaaaca689a797c895a7698c8a9accfd8d9abacccb999cbcd69aeced
col08:   a69443443556627566559a9a99eae6d6ebbaa94a6998997ca9c8696b97aab7f9b9ba8cfae9eb95cd
col09:   9598978856696587838c76994979cad8dabbcb6d987bad489dab989acdba8c9d9ccacbccd897b76f
col10:   a347789589614689b73457a78c78ca6a5a88e5bcaaddb99a7bbace89b6ab89bbb8ba59cedb9b9bcf
col11:   9632867775c616b445a779c7988cdaf8a67977ca788c6989d69aa85aebfaafa8b9aaddba5fa5999f
col12:   631422645396766895b98a7b6989ab8b3a8a9cb99658878d66cb8e9a9c9ae9a8d89dad75cc78e99f
col13:   843815645316a65589437878aba9779b8baaa5a677ab86c46aaa9beb9dfbcaeb9cd6c6aacbccccfa
col14:   a8667166595624957b3a49bca5a858da6987dc9b948aa85996ab99a9accb9d9d89a97bc8c9d6979e
col15:   a67953a297a5a6b57a58a5958bd58dad989dcdd9baa7967bbccebbd9daaebc58aa9999b878e89b9f
col16:   b7453575868687985ad498a875989d7d8fac7b7dc9c9a888b69bb9564aded8cbd86dacde7c89bccf
col17:   64136161255158889a5689b8bec98abc787877b79989b7667977a9fabbad8ddb98dcab89ca8bc9cf
col18:   9276644679566a965a6989bc9a8abcba987b9999a6d8ab9bbbaebb5a97b9be9d8aaf8a9ad59adc6d
col19:   b23a55955238ab86ab8383965ad478aa7ca7765696899c9bd4bafebca7bbecabc8eaa7fdd9a99c9f
col20:   d545b685a7767887595aa65a789a7b9bb8a9488a947aa59dbcacc6eb88c9da8aaca6b5cc9bab599f
col21:   c77814165687789747b57a769769a9cb78775a47bb79c78577bbbaca99d9ccae599cd8d898ccdbaf
col22:   74747736299985c7989d9784c5988dc67a67d7d9b99a56bb798a8adab9ba799cbcacda98a86de99c
col23:   8878567d565a9849a6a7b495acb9a9aa665b68b56a8a9ab89dacfecdb9b7da9cbdbabb8bcb998c8f
col24:   a6528966692a566773cc89a69797977c96a5b899c7a9eca857dc9ddcda4ebcd87eddb7cd8e988aef
col25:   b691c896c6997aac9b6796aac7a778a9998bd6896b8ebaac8dced9eecc76dcd696dbbc9a9ffbfadf
col26:   8456c4a5c7797a4b8b93ac99aa98ab9da79dbab9c99b8679c789eed9bd8abafaababfae97aedcacf
col27:   d76b7a757a87825b68c899aaca8bd9ca8e9bbc998888dbb9db8c6ddf9767bdbbde9dbfbdbb9bbcff
col28:   c3848895aaa8977a77b727cc99dabc79d9a7ed6ab779b8cdeaed9bdbd9ba5aeaddaaacdcbecbd8cc
col29:   a969a388776bc878899d5b7679cbaeb9a6968acaab8cf9fdacbadecfff99aea8cdefccedbd7ed9cd
col30:   a589aa6a7a9a965369aad883c7a85aaab96e654db6c8baa99acc9cfaebcdc8ceca7d8c9cbb8df7af
col31:   b453394453877593554c97a9cc9b984d98c8a8dd8ba5faab798cd9f9ebbfdabcccaab9fabbfdeebf
col32:   a7598726346b5ba489c7898898a9eabc9b6aa8abdd9796bba8c8c8b7ec8ea7bcaccbdcaefbbcc9cf
col33:   c558766645a548d799872b485dd9aeeb67aba98bdb96b9ccbbcc9deaabbccccbeeeaccfcdcecccdc
col34:   b55543762774ac5768b77a8d6dad9bbae99869a9587e9c6abdb9baebf77b9ddaaa7b988db9dddb9f
col35:   8568589675789258d78969c89da84adfa77ce9a9c9e9bbb99dd9a8dcbbccdc8ceecbba8bdbfb8cbf
col36:   645258987764b867942ad9685a58db99c57b7b7c589ec7accbc9a9aeaa98bd9ce9b5ccfeccbbcbdf
col37:   d785753b6a744756759897586fa98bbb599bbd9edb59adab9bbe9ced8cebdaf99e9cbe9dbbdbdedf
col38:   b75447985168aa74977a4a29a79d89c8b6985ab9b5d7cdcbb9b8a88cc9db89bacb9cbbeda7ab9faf
col39:   a69787966994766a97b758a9aab89c5ac5c9767c6b95a894babf9bbdcfecdbf9ba9accdd9dca6cdf
col40:   aa63a6976957a8558a9ab398ea5969bbb7c57caaf7bab7ef58988d9beccb8abe8bbceb9dacae9fdf
col41:   e37447a317696448a79d737a7958a8756ca9cf9a9c69a9ca9dccbbed88b88f69b89febffcdcddcad
col42:   a5a6786956354767539b5a598958bc5c5abbd4c3f8e879d6ddb8bcbbeb8c8c9bbba9aedbbdcabcbf
col43:   943955559b56a6a756956aa4a786966b58a8aa777e9facfccfaa7bcacdcb8bcc7cecdd9fe9aeaeff
col44:   b54a32667876a1a34436869b98a3bbddd8758c97ef97d8ccb9bbb9cbec99cc8dfdfdc9dfbdbaeabf
col45:   a36474687569897836485b8747578aa86599c98dd8bfc8b8c9dd99c8ccbdec8d9bdbe999beecbadf
col46:   c16776477464865b744896986ca8a8979849a67c8abed8ba69cccaa88acc8decdc9dbcf898aedfde
col47:   a13184831737559689299a8a884a96983c687c7dcc69b8bcfbadf9e9ec5dee9cefb7ccbc99addbcf
col48:   9484364d27546647258868a6899a868768b798d88969dcc77999b8de9cbadbec9bceac98dccab8cb
col49:   b15631577326988872928ba5c697b556b97a759ab9b79deeffe9bbcbcbacbcec9ecf6bebfecfeaff
col50:   b368c576628467466534656a9a7b9778859c95389879769c8a7e8cb8bd878dab89edeec889a9badd
col51:   c76bcb8aa6adc9aa9fdcf8efdec9cceccadfeedaffceddffeffeefcdfffffbfedfedfffeffceffff
ROC:	 BPix_BpO_SEC5_LYR1_LDR4F_MOD4_ROC3
col00:   786696a7a9c6e8abbafbbc8ec6fcaeee9ccbbcad8accaaebcedecffdfdfde7fafbaeefbccbbad6da
col01:   65268938a45a15676795625856a87677d3ab7bbc6668cd96aa7c7aa9d9a79a498d98bdbb87674a7e
col02:   83757887455245546255568aa5aab68c6fc8e46a767a8375b949af5a89166768b54d8aa865b7d84c
col03:   b3189a772663b38597a47d5abbd877a6964c68be857696967bb5aa9a95d73b88a8a7da72bb58788c
col04:   c457795965b76b888883b872b96cab9d6a5b97b8b779b56d6965aa868763a89b87c9aab57ccaa51c
col05:   c65747a986d98a4998a93ba89abca8669d9a8c787998a9eba87aa6ea9867bbc87abbea66296997a7
col06:   c85923771995d66263b89a9947598699549965a5ab699759b68b5c99486839aada5a589ab85ab77b
col07:   a91465ab487a9a4a695dd56a98b8e68aac659d6ba67bab9c41a94dbb5658536999976a737b65599c
col08:   c545734b864655798586c4676b7a9b67a99aadba8bbdb997c987b697abd76ca7fbb95ac7a56ce6ac
col09:   96768234839a8a2ae74a5595767a966bb77d54a9cbb9b687798aaa886bb7e79697ac866b67d9a77b
col10:   c8797957a568236b647756ba74baa9bdbdad988ad4ab798b7b7daec9959c3ba8ea96875ba7aaaa6f
col11:   a68438469a53978a593799b697b848285ae98c8ab5a9b65ad97cf7bc996769ccba79a699b647567d
col12:   67663133353954a2acb9aa66cc9b7b9735ba77ef8968957998925fb55ad8a8cc8b8b75d86c8897cb
col13:   8a154a94176665179377aaa89ae689a689bbb899aa95589a9dc8aadcaaa9d96bb9c79778a887818d
col14:   b656715435845769694975b8bc6978969dceb89a5a5cc7caa9ab957bb69ca879c97a8256bab5235a
col15:   b6554445466563667ad7ca5c7638489c8c8cb879ccbddca77aa7a6896bcb67a8a8c66bb55728a67f
col16:   b5763157293197a7a6665987c7967cd7da8acb867b88769d899ac9add9b98ccb98976c8a9a25b4bb
col17:   c1b4696699266aa9a8395a7a3b9fba9c6ca97aba9ac95aaa8f7cacc8d877fc9429999adbcd99c85c
col18:   a411642785c9c8566379aaab4c98dd7ba7b56879a4c55ea8ab9ac9a998779c8b9da7786878ca97ab
col19:   c437568649da849a4e689a8788b96cc79cdba37ea89afb96c776b969c99a9577cad9d678b478b487
col20:   c844468458379677699b93855799aaab88ca87987d8b8b5acfebaca7a59989d8968964944985489a
col21:   a66457a8886b577927c57a5da7a9aad9b9c59666bbcbce9bd6b76ae5b6d699dcea9b8ae78259519e
col22:   ba99418868ab89c6ba9e7d8a939b7995cb75b9aa69a9edd99ab89ea7c8afdb69ba6499c778287b8f
col23:   f43688796787878456ea479c8bb587db5a9a98958bba7986eb9b69f7cdc6897a7c6d8d4d9c3698b7
col24:   c563235867b98ae76b6ca8ab6bb976a973579b98947aabf5bba75a88b9bf5aca79e797779a68a8ab
col25:   73955752a8756959da7a88659e976acbb8baed76d68a9796ccdabccccca7b98accd96cc9a7a7996e
col26:   d5a773ac7899776bc997ac98a787679a7aada97b879b5b4a76dde9efceab8cabc7a47ba988bf869c
col27:   b589867ca7a66c9a89bb788ca4796b9da68dca9bb7978acb86b7db7f8bd8bbb89aaeac8eed8a9b9a
col28:   d8957996b69a56ca47648ca96bb67999a989caa97376b648b7ce79498ddb786efa7c87798a58e81f
col29:   dacabcc68a99c77aa8a996b7b9ebbc786d7a8c9abacd76cb9fdb98cc99c5396ce95fa99da78aa99d
col30:   b854e7897ca89d3b7a689b9c9bbdc87cb8ca7cab9bbaac678dcb5ecfeb9aac9e68baea9886b8cc7e
col31:   ea7adabcaa99acca6cd9ec5dbc59ac7aa9bba7cca76adaa6aef7acacd6d5abd9c98da77d79585dbf
col32:   db7ab66924798a9ccc88ec7db97de7a818ccf9bf889ac7bc69bc7c89f578ee6dcd9daaaefc6b7c5e
col33:   f768679a8994849adcbdabce9bdab6759cca99baabb9ddaaeaca7c7daacda9c9ffebef89bfbba8bd
col34:   ba58927c78587bbbb79b37f9b6a9fbae969a987b9bd899ac9a985c98eab9c8bdabbbbaba9a5c8e4b
col35:   9bb69ba76da79599cdaa3abc99ece87e7b9a879bd6ac6a7cd9ab97de9cd9aaa7aa9e3bdbadbacb5e
col36:   e6a97a56d5794cadaa98677b8adecacdcbaa8898be8b8bdabecaecdbd998cae8c88ca99bbecabf7f
col37:   a79b9b553967a8b4edecd8bd98cccadb9c5da6c9b99aa7ecfbdea8c789acdaab8c8dccc998e9cacf
col38:   f3ab6a7599a99b89a99dc7abc999ca98c9a89acabba8adad8eca9cfdbbc9aefb89b9f89eecbda86c
col39:   b8b87bad6a7aae888596bbc9b5b97ccd7ecdf9eeca5df9bcdadedddb8b9997cfcabbafacccb89dcd
col40:   d87bbace6a86795a98a9ab6b5caabdaaac997cedcbabc9bbcbf9b9bfbdddca6abcfbbdc7bf9c78ee
col41:   b668bd1aa4c467aa9cac7b966c7a7ba5da7c4bfeeaee9e8ebcebac88bcc9ccecf7dbdacccbb9ca9e
col42:   c95d98868d888ad8ae649dbb3d9a79ec4dfa7ba5a89dacdaebeec8cedaa77ab8d7fef8debacede7c
col43:   fdab8a9cc99977c8da99ac486aa6d9f7978bca97fec9be8cd9fba98fd9bf8b77ebafa7ceeaab9fbe
col44:   db979a69bda9ab8be84cd869c98bbabbcb9bf79dfdead8bf8ac8aaabc9eaddadefd8adcdccb89bfe
col45:   b386aab9c8edbd8be9fc9a7aaebbad7becbaf7bddcce7dcfbba899d6ee98ab6d8cd9b9fbf3e9776f
col46:   f488bc8a88b7b68a8bad8aa85bf78fa8f9add99ece9ccacd9bc4ba6ebcdcd76f6d6afa9ca787f7ef
col47:   96899989adb89b79ccb8caacb8858dbfbbdbaabafa9b9bfba88deaedaedaebb79968c8b5abfec6df
col48:   d84b6a8b7bd9c98b8cd8a99ca9bd98a99bb9b8f938cab8cafabadce999955a6c88cbcf6ceccfa4ef
col49:   d688776b9589a5c8ab99f1c88d6a69aa69a7a8b5daaceeeb59cfdfdded9cfab9d9b778abba9aa8ac
col50:   9a779c99b699989a29bab98dbdc867c89bad9a9fbfa9dcbdaabb7bcbab5a6a6acc88a9cdad7dba7f
col51:   8aa8dcddfacdafac6febecffe8ffcf9eecfffdffefffdcfffdeffffef8ceffffffdcdcdfffdffead
ROC:	 BPix_BpO_SEC5_LYR1_LDR4F_MOD4_ROC12
col00:   b86ccefede9feedbfb9cafcdfff9edffffffb8feafbcdbdeaedde8cbceeefffffdfbfcfefbddeba9
col01:   e27625997897a955b97a8a997c67ab88a5b9a7a8b7e9d3c9fbdcf6db892ba989ba9caeadd57b4a3f
col02:   847849a99acc9b6bb7a59a88a68b8bea89f69c8ca7ca67bba39c9ac5c9e8cbf4c8da5a96897a487e
col03:   95877b98c969b6b7aa9a55e7ad9c8b9baa4dba58959cec7a76987cca386738cca9ea89aa97b89a9d
col04:   c587ab8a98ab7cb99b9a7979c9d66b9989fb5797d7f5cb899377e9e9dbbabc98babac7796d97455e
col05:   d7899579ccc9c596dc6a7baafb9eafecbadcda98d6cbba779b7cb57ba9c9ab9cd7fb869cb8dca89e
col06:   9999648b8a9987ab88f7aa7ab9fccdbe888abffa96755a78b8864be6b98b85977be98a8a9dc8aaff
col07:   88c9739757b77667779b98e7ee5ac8ba8cbeb896576bc67a698c7aa77a7bdcda99589ada8999c7cd
col08:   fa5c79869999a76599b8ba6885caba9abebd9dcaacb76657ba5778a69c79f89669dbb98b5a8b65df
col09:   9ad88c8a649a86889789b8df78ccb9bd9c9aaaaa6b98a2cb89bfa9c99a79cde9a766bab968bbc89e
col10:   d6879767aba9abb7b82ca9dcaabbb9cb9bfa66cca65c5bdca8b65b76abb8bdac7a9bb88cccbbf9df
col11:   cd78a988bba58ab969daa69a5cb79bbabba696ad9aa9bc7ba599dc6b9bcbab9a9da67bd69c8cac9d
col12:   e67acba9873b77794ac9a97c9cad9af9ab9d9a797b7878a9b3797bcae99c8a837eac9b9a8aadc7ad
col13:   e999a89b7486bb78faa99599d7afdabdca9ccbacac9b87cb9e9da87ca9b9f8a89a95d9999ad7c99f
col14:   ec49488887798bb8ba9a8998cba8cce5ad69aaa8bfab87ada579a7a9ef89ddbb6997bdaccb98aa8d
col15:   b5896bba8bb7ba789dd9a6e99bcfaa898b89ab7aaccbccdafca989bafbd69cbcdcfdba9aaa8e997f
col16:   d2898a8847627c6eb9acab99cb7baff9dd97e9ea7b76d9ba5de757da79d9dbadc7bb89449b89bacc
col17:   a67ab75cb8a9885888999bb59bddcb8baa76bca99eaaa98e9bb7bb97bafadbd87abaa7ab9e98b89f
col18:   cab4777b7d65bc9d76dc8a9cdcabbbd7a9aa9abd8c6cbb78a8b8cacd9faa8c9d67adab8bcb85f9bc
col19:   b7bc98ca84cb8b97a9bd5a989fada6b9b5bb8a95a88cbdcb67a85bd98deac76bdc4679b9589b989e
col20:   c5797861595ab787c74a6a858dab4dd8aeaa98c4ac499b9acb9989de987bb9be9a29a78776c8946a
col21:   a998b66754ac95adac86d6cb699ada7bca6ab9ac8d8cadcbccceaecadaaea9cbb7c774897477b97c
col22:   d467b688799a68bc8789d99785a78d89ba7c59b79779eaa85dbbb8bbbacaa976b9b976797dbaa9cf
col23:   b46c798bac98abca97a5698cbaacbea899b8fbf78b78b7ac88badacbf8bccc8cbadfdb8e8bcef4af
col24:   b6bb9a7424b697c97a99dd6c8aadba9beb69a9bdba969ca7a79dedb79bcaf7b8d7579886b74cb8be
col25:   95a878acbeec89fcac9accc7becbdbaaacbac9b96aaba9a87c89fddbaaddfdbca9698d8bcb89a99e
col26:   e9ab7a776978f9db696bdebda9889cadca9b9daada8bdabe9ecbdaeda9e9ed8f59cac9b69ca76bcb
col27:   e68baaab89b79abd5ab9b88cf9a8d9c95ecbbe9bebddcc8acbecbbdcffbdc87adaecacb674c9999f
col28:   fa764bbb9a87978697b5767badbaa98dcbfdcf99a5aca7c8ba6deddffa9edddd9b9faaedbc9ae7cd
col29:   c876c9a9acbc8da7b68c8b6dbcabbdbedace696bbfcabc8cbdd6cbcfef9edabccbbcfdd9f9eaa88f
col30:   f788758b48b7a9b9a6ab989dffbba87c8ad9faf8becdc7aaa9bcf9edffec997aeab7eaebabcdaa8f
col31:   977998978cbca9baacabdc99bdabdccfdecdd9dfeed7aceceabbfe8afc6cb9cc8c7cdcdfbe7cdeaf
col32:   f5779b7ca7989588a8ad99abfef6cccbc9989c8a6bbde9bb99dedbded9dbbdedacaacc5aba8eaeaf
col33:   a9845c6c8bbca9a95b9caa9e98ce9bcbd8aebbad6ccbbbfc9de8ead9fbdcf9caca9ccbcdadb8ecac
col34:   e8a657ba7699da8ad8abb99abca8cbbbe8b8cecdffa9babc99cdbbbbfc98bceacaccef9c9c8ccbaf
col35:   f56799775859cacabd889beacd9ebb7dad9dacabddcdbfa8ccb7afcc6eccc8eff6adeabdcbe8bc8f
col36:   f37a7cb94ad899cb867bab7787ccbbcbca798b88b9edaaeabbaf8cdbbbcbbdbf7cfbccbdcfcba9af
col37:   ca9a69ba8f8c9bda5bcb97799bbae7aada5ad9bdeabe9ced9be99cdbaeabffdaebebccd9c8cedcef
col38:   d88777b9c88abcbc6ab7ba6babda7b7a69ad8f9f78a9cddcdeebeaae8dcfbaac9ccdf9dbf99e785f
col39:   c77568c6979997aaaaafca8b9deb8becffbfbdcacffbf88e9fbdb9cafbeffcabeaefbdab7afcaabd
col40:   cb97a7a49a588a9ca69caaa6d9ab8bcba8ba9bbdcae9bc9dccccbdca8fecbc8e88b9eeb796a9f8bf
col41:   da95d87987ba99699c998dc8c889aeca89ffccbefafcffcaac8cedf6cee9cf8ec9cbf9bfa8bf8aae
col42:   e557d99bb6ba99ad7589ca9eabbfc9b6ce99c9fcbc9adc9cfba9da9caf9ab9da9dceada8b9aaecaf
col43:   c27ba466ab98b47cb9cb977f8dcaadd88bcdcbdcebbdd9baabddecacc8f8eec8c8ab8eeddabdcc9f
col44:   85a59986789978dcc8977c6aca7adac99ebcad77ccedcecfdcda98cfbaf8c8cbcfaf8cbdcf98aacf
col45:   f9598695acb9689559aaacb6a8a9deddfccecc96abeedfdddfbddedaeebcbbcbdcdbbbd9cae6df9f
col46:   e695717b76e777a6cc9bbf8b87ea77dac87ccbaab8dacbddb8c9c9ecbfecf9c9ecdccbbecccafabf
col47:   9586437954aaa8d758cda9cac6ab7cb9cedc9abdb99bbdcce9ebaca9ceccbccecbcbebaebab9e9df
col48:   f53384cb788a69d575bba7ebabccab7d7a9c59bfdab98baae7dc6bcfbb7be78caf8cbecccc6d98af
col49:   d56137ab7c7a6798e9b5b9babfcbbaacab9c99dadfacdfec9cbdcbabdefdcfdec8adbaadacacabff
col50:   a6876837778a985977aa86a97896c96ecbdac6ab6cfedbc7aacbb8efdddada9eccaabbdccc89c98a
col51:   8aa9b9bdccaf9f9cdecdaedffffdbecdffffdfffdfefdfeafccfbfcfffdfffedffffdfafdfcfefff
ROC:	 BPix_BpO_SEC5_LYR1_LDR4F_MOD4_ROC13
col00:   89febf9decfcbcfffdffaeffbfefffffffffefffffefffffeeffdfffffecfffffefffffffdffffff
col01:   887758b99147ca9a69aebb99ebcdda8de6d9dabbcc8fcc86d9aceccc8ee6e4bfdcb8fb8cfbdf9bbf
col02:   c877789859a9c489498ab987bbedcc9eccdd9add9dd9bb9fedbffccbbfbebbcbbe8b9ecb78dbccbf
col03:   f7a55769a69ba79a9acafccaa9c7bbcb99dff8bbc8d7b9ffd9c8dfacfdd9abaffdadfaeadbccbcce
col04:   a7a38aa5bc48aa96a898779acca998bec9a8b5dfdddedbcb89bcedabaddebd9adc9cdb9f9dbffccf
col05:   f6c6864988ba6b7b9adcbd6da89c7bfac8cbaaaa8ba9a9a9dfdafb8eeeee9dbc9aaca9caa9db9aff
col06:   f86a6a4963abb9c7bbaaa75dabcd9abec8daadba9aefabbcce8fcfceabbbcdcce7ebb9fdccdfacdc
col07:   fb791bb9a467ac8897b5ab8ca9aabba8e9cfe9b9ee8cebdeba9fbaeadaafcbfaebedccffad9df79f
col08:   d676997b56a947c9c8898b9d7dce8ceeddecca8fbbcbc99dcdaadcfcaabbfddbfdcd5bbcaebdc78f
col09:   e87a8d87d9a6a98b86abba6b98b8bdd8e8eacbb7eaad8dbfcbba9effafedebabb9bcdb7a78bbcbae
col10:   c78677b9657ca898b6b86baccc7bd9ccacbbba98d8cbd7a8abdadbbbdeadcc9a789feaaf6cbcbadf
col11:   da6ac85596969696c9c5abb7bc7db9ccec8ccabeccbaef9bbbc77baa88cbfdff8bdaaebcbbd89a8f
col12:   e69969b693c779a5aca9a8cbb969acbb9fd8c8d9b9d9dbecfac8afbb9febccbae9a8cadea7caccaf
col13:   f9c93368278b86e697688aa9e59cacacecdbd9a8bc8faa78ebceedcc9adaa97ac9bcd98ccafdbbd9
col14:   93b7aa78b46b7ab499ea98a7cb68a898c9999acae6acabcacbbebc8c9dbbcfc757ccfb949d8ba9cf
col15:   c9c9674989489b88678d8b8bb999aebbdf9798ebf9db9adad7ccaecde8deddc7898b7bebdab98c7f
col16:   f24335b48568596877a9b87a5586a77bbb8bbdacaaeafb9ea97abfcf8cdf6bdbbb9b9a6cbaceeaef
col17:   a69638573859a95aa85b89d7bdabcda4999cabeb98c69bacbbaab7cecda7cdbbcbabaa8cebbbcbbd
col18:   eb957686b85898659a7ba9ab9dd96fb9bd789abb9a9cc7dbbdc7b7aa99acab794dad9aae6fd9dd7e
col19:   877869a7b6896b7caab877c5bbdbda58b9bcc9dbcbb8babcedcda9789a89c5ecda9dcc9cccdf6caf
col20:   ca7887797477d93b95c7cabdb9cdbe59aaaeb88cc7b8ccd7bca9abb896d8c5ccbbcab89dced9a87f
col21:   b6985d8778845ba96c5a689aa9cabae7c8bfcb7fabbaec86aacba8b8aab9b99ccbdcdad79caaa6fd
col22:   e857158677783599b62a9b68b5a5aabc94a7becb8bcb799bac87adadcc8aaa9ed59bb8eebfebadcf
col23:   c567e6a7658a76a988777aa8a99b97c89797b7da9af7bcadaac8dc9398ebbb98b888a9ace8ccd9ff
col24:   d986239456897888a4a88b6a8947b85bacdfb7788b948988c8aad9cc9dd9dbdab65aaced7ecbcabe
col25:   b98da8777a6ba953ba8cabdb9ca9aa89d9bc6cbcbbbabbaa8faba9bc8cbaaa9ab8afd9db5d99da8e
col26:   a4c7579988689a967bdbdc8a9aba9acb8da9bca9aaaac6aa497d9a9a5abbbe7bb9abadedceac9c9f
col27:   cacb8b8689977bba6ac98caa9889cbbafad9d7798bda7999adebacdbcbd9dcdecdcadbcdd79ad8ff
col28:   ca889758989c1883a7997deabecae69bbcb8d7aba98cceab9ab8b7dcfad9ac88aa7f7cafaceb797f
col29:   d64a6c27287599977a85badbbcfacaadcc78baaababa96c6b8978d69988dd7bcadeab75abc7cebbf
col30:   e9744b7977bba678aad7b9acbcdbbb9da7aca99cc8aa868b9bd8b9cd9daa7aedc9bdf87dcbeedbbf
col31:   b843a5a89567e7a8b9d996bacbd98bbbbcadb7d85b9aa8bdae7aa8b5c9baaa5c99b8a7b8ab8ac89f
col32:   f558875768688789778bcca8cfb5aec9c9be5455578aea9a9b78abe9cad98c8cbaba7dcad9b8ca8b
col33:   a74247966a796479ba64ccad9cb98d9ab977bc9c99bacafcb89da9bbfaac4848e8a7baaf6ccdccea
col34:   b6688787965848969838aa6d9a8bba8b97ad98f986c99abe9a9789bcaccdebbcb8a87b9c9babcaaf
col35:   83566799694856aaa88679ff9977b7b6b79aa89cbda8889959acbdc8cc9bb9baab7cf9a9e88ac5ef
col36:   aa6a375aa78b949ad5958687aaca9aabccc9ad696aaa58cd9bcdbbca78afa6bcdbba99c899689dbf
col37:   c5887ba777b88bc788c988db98cb9a99bf7db98cdfccbac7bb8cbebaadcbdaaabc89ce7f7bcac9bf
col38:   a6a6769845666a4a9a6b568ab6d889e6887b7abbbc7b889797988eb6969b987cbe98b8fa8a87bc9e
col39:   a894a94baa77986ac88bd974587a8aaa8a99caade9e76caa8596bb9d98dbecac2ad6bdca9b5ea8cd
col40:   eb4aa898a3786a996658a8877a9899c9a9a67bc9b7a7adbcde8cc8a8fc7ac988fc7aebbb669abb9d
col41:   f66768a559789c6889b96abc6abac7ae876bcdae9df9b8ba8ac89aac5cec9a98aacc7cda6f8aca7d
col42:   b5989975a85999966679eb8d869aacdb8bbadb9b9cdb9a9dbb9c8cb9abebfdbbb8b9abba9db865dc
col43:   9764385845a679cadbac895a9d9b689bad98bb94f6c8d7abbdccbaecaadcadc8dee968fbcccec7a9
col44:   97216b7a5485556647b6989b489c89ca9cbacca6cc884bcb9aabbccbbcb7a6bbec6ae68a46e986a9
col45:   a479769aa3694876979678abd8c97a94889c8adcb5cc56b9adedd7aaddacc8bdc6dacab7b8e7a69f
col46:   d3342a3278359358779a9b6b97895ab7688b968db95ba86baadcc87ab6aa9a9c8b8c97b489da847e
col47:   655847745694a786876929963ba7a4ba6a77b7a7c98ccb8aebbb9a8998b8b9ba6caaab9eaa9a868e
col48:   b43444847177588a44a8a7c79a97aac98869b987c7ac79bb8ddda8aaa99935bbd89aaa99cabc9aaf
col49:   c55978636438198766997974c787e7ba786b776d8ac7998a967baceab98cc8ab8999a99459679a4b
col50:   b332145577355973856748b74b489ce6a5a769c969a784a85bc9c6d8b874d697785bd8c6b9ca88fe
col51:   d76bcb9fccdbddbc7d88decbdebacbfc9efdfffebe9defffedfffffffffdffbffedfefeffdfcfefe
ROC:	 BPix_BpO_SEC5_LYR1_LDR4F_MOD4_ROC14
col00:   8fc8cc8b7a7bb66e98e9adcfeabadfdfaccc99dccc9affdfdebcfccdfddbcbbefffbf6dcadcfbed9
col01:   c799776698b7885a35588697678b9bcd78669aabc998a6aa79a8abaa88eadcadad8af7b688bb7daf
col02:   8378684766594b79721788867888aa8738699879764aa9a76998cbbb9698976dcf9a8887b8dac88d
col03:   a648776979546895884499ab9698bc98bd6ab5b44a98696b7bad7ecaed5aeaa9869aaa8b599b6a9c
col04:   6373985777475588686756b8586b79aab87989677894596966bbac8897cbbf99976fc9b95bab9a6a
col05:   d247348c5861955561777738a7a7666c9ac7997869b884876b98a7bc799dbaddaeb9eb7dc8899a6f
col06:   a869795b88358b7636786577b97896c87b9c86b7856a585c9ad6baedbb88ab8ac9da785c9cbeabab
col07:   99e5a7cb84b76994655d8b8676978bb9ab9a8b99baad9d8898b787b9ebbc9db8a99ac8fa6a8ed97f
col08:   85654cb76558855688676869b8cb956d6c8c87ac97b47698bba977ca7b6bca96a5ac55cab989b698
col09:   974882a575577976446898996a9cdab78a9a7b96778aa69da9bab8a98a9bc9baaab979c8a8d8a8bf
col10:   d788779697475a3775277a5c84aa99ad4b8c8b978698a99aabe8899b79e9769aa9696a98ccbdab8d
col11:   75525447893b65a86453698c888b7988d8aba4bcb98a77a888a99abaacabb798ac789b7a9ab7db8e
col12:   98269448769245c778a565e9c99baaa9ba8999bc477b488aa899acbc9bcfc997a8c6d69b8ad9bbce
col13:   d57756945877aa9877899a998d7aa847b7a99ca9a9b7d679cd759bca87bdb7a58c9b8ddaa8aabbdf
col14:   82b695544794886897a86db9dba9b79a39bba8a8665ae778958aa8efcab68a677999a7a88d7bda8c
col15:   a66278586884b788798ac96b6b8ac757c88ccabb66ac8aaa7c6c99bb9bccba8989bcb49888bea98f
col16:   a68469d93475749cc7b48787a9bbc3aaec489a99897a6b98bbb9a886cbbca86bcd9a85b9bc88a9ac
col17:   9457649654a78657789b995fb689a679a879aa99bb9b9887e9cc6ca9cd879a9bc96a99ba8c7c8ccf
col18:   92577478787488b57b97a97a9c68a66897a977cdbc97bb99b9999ada7d6a988b9c9a7a98ab7cb77e
col19:   726747965577684aab9a86aa3ac9b9786968ab86689bbbc99d9ccaaabacdcaa8a98aac9c9caba8bf
col20:   b69397b6787a8ba5a9bb9a598a8bba98a7cc9bd878a8ac79899c9cada9bcc9ee85bbaa7869dc9e8f
col21:   d175769698a8786a859ba89b69adacc9b8ab6a58799bdccfeabbcecea9dadcbd9ade7a9cc9c969bf
col22:   a7885989a79b7ba8bb877786aab97b8988c886d5c89ebbabba9fd9cb8cfb8aabdbbbd8b7a977999e
col23:   d359a89954a688a68a98a76b88d5aa7854ada5db8aeca989aaa9ca9c9aebba5cacfcbbaac69cae8f
col24:   c877989889c58c877b98ba9a79bbdb7aa9b68d9d899dae9acddfd9f7c9c8d9bafcbcb6bcc9bd89bf
col25:   e7a899769988a7ab9aa9bbb9cdc9ab9a8e8b9799baabbcdace9adcca8dfdbbe67afcdabbdcdefaaf
col26:   a79aa898a96bced9adbc89bbbcbaacc8567daba8c75dcb8ca8afebada9bc9976bda9bdc8cbabbbae
col27:   c77a8a878acb9a58aa4bab6ab88cdca98aa87d9acad7bbaac99a9ecefccd9a8abbda9acbaabcaade
col28:   c699c9c78c697ca98ea69bebd9d9babdbb9c9daa5caaaa888bcfcbbaaecf9eb7fbebabf8ecdf99af
col29:   ec568a6aaa96e999467ac86addcefa9bbb9beaacbdabbabfbbbddcedefeec9bddedeecfccfad999e
col30:   d5785798769c949b88ad6c7ad587757ab9bacfb69baba8b689ba7dcdbe6dac9adaafce8ebc9fcdcf
col31:   c9298775899877a7999bcdcafebadbae6ff98ccaca8cc7cd9dccadfdeedffefbedfac9fccfbdbeff
col32:   b86785567cb5989769a9cadaea7eb98bcda99a7c68d8bbbbbadda9ec7fbcdabbffabaaabecfbbbdf
col33:   e76b918e477a87cbc9bd9999b99bacaa8cbcd8ceaa8bbdba99befa9aaeeaabfa9eed9bfcbbddacdd
col34:   da85ab59bb688797aba8569abbc8c9aa9d9bc97ba8aebccbbdeebcace7a9dbddd8ebcdb9ac9e99af
col35:   b948978b9b69a999977c9c9a8b8bbd9fabaaae8cbaaedb79becbabcb6ccdadabfbaaeccbadbc8dff
col36:   f889bb7a8399738cb6a58ebc97dbaf8bbadb8adb9b8afbbdebccdcbdd88ddafebcfacedc8cda7bcc
col37:   a78a976aaba8c4f8a7cb8acbda7aa99c89bccaddaf9d8eafdcadccedf9dacdbdebfdf9ea8adfeabd
col38:   ec8668a58a9ab6d898894c7a95aa9c9aed9b99f8dbeabcbdfbecdff99fbaebbcae98cfd8aededbbf
col39:   79a78777699869673ac9adb97c7bce9ccbadbcbdbdb9a9efabcafdcafcdea9ccbbccbbafcbfab69f
col40:   e98c786b7958ccb78a779ba9c7c9ccc9adbac7e8adea9a6baafadcdcdcbe98bcdebcdcbbc6f8e9ef
col41:   fb75c7a788789a5649a68bbc9b9aecace9bdae8cce9accbbaedbbccfcfffec9beacfecc9c9edffff
col42:   f57997bc8b77388a7999bbabcd9997acbdbc7cdea7dcecbd9acdadbdabddddcdaeecb9bfbdbecfef
col43:   f48687899957b97a6da87898adcacd9dcb9aafd8bcdfccbfaecccdcdfeecabdadafefcbdfbbeebbf
col44:   ea98948697a6a8baba8bcc88bdb9b6eca78b8bbbaafdecdbccecfbdce7a9dadfddfa7cb9debabade
col45:   c93b7a97a788979a878a9d8aacd988d9ba9c9aaddaaddbfeacdf9aec8ad9bd9db8dd9fdedccfaddf
col46:   f7a6a88aa77984ba67a9baabdeb8b9aebeecf8ca8dceeabdd7cdbeeacebbeefccfeaceefe9b9bccf
col47:   e75a698b5669aa95aaa99b8ca989dbcdaabc97acc9dadddfdbdecbb8aedabccdcfdababedbaddaaf
col48:   c5785868977798899c5b6d9aaccc89cecc6cccada98fefdfebabdbcfcbceecdfe8bbabddcaca9caf
col49:   c987568656b6ca68b84cc7998cbdddabbaaa7c9aaefcadfbbafc9bfecddedd9ccceecbecfcdfcf9d
col50:   e66987aa6989ba8ba77a889a97accdcbbbbabedd6acaab7c9bddaededccc9bd9ffabd8dd7c7ee9ef
col51:   da7aac8bfefeafcfdffffeeefefedfffffebfffffffffcffedffeffeffffcffffffffffffffeeecf
ROC:	 BPix_BpO_SEC5_LYR1_LDR4F_MOD4_ROC15
col00:   6bb77899daa7f9db8daeadfdcfbfa8adbefdaef9acdbcedffdfffffefcebadcfdcddfffeffbfffff
col01:   a6538556799366a748698586ba374caaa679797dca9a98bbba99daabbbd9a9a7ec9c638b9abd9dbe
col02:   9542756349758a6736c7859885d864d9796beb9caa9c99ba77cdeaad9aa89ac9e8acdd8abcab8ace
col03:   848b96a73564795974bb8e8e6a855a988da89988bb696c988ba99aba9abeed8ab7decbccaaeaaaad
col04:   b678289739b6899747869b4696a96997bb87c97b84b984da899a6abb9b48b687889df898caa9bb8f
col05:   a6536a8787589d8a9785389acc58b86b8987a9a9a939a9caf99a76dbc8a96b9c6cadb89bbc7ababd
col06:   b5237677a7787aab857d694daa76687a7ab89acda89658ecc7b8a79df89da8864b5adaaaa88d36be
col07:   d7d6575ab467689c367689985da79b9e9889ba76c77a76bdb677b8bbaccc88a6cad7bbe969a7ebbf
col08:   7745558b5669865989586558c9a87a5579997a87c9acd9c87b9bc9bad6fb75bb896aa9df83ab88af
col09:   ac66775715a84858557ba868b79889ba989ab9c8e99698aeaae99ccd6cb9aa99c979c6c998db7e4c
col10:   898477978959677b98678666c897c897db5ebae86897b9b79a87da7bc8b99ca9799d8b97cab99a9e
col11:   b8b5655a644759865aa88bd988d7bcb9aa67b4cd9bba97aa8ca3bc7ddab89a8d78aaad3a8a95f9bd
col12:   a825724763586c4766c88b8c874a79e6bb66be8e97aacaad8bbcdbc9edcdcbb8998cdc4c95bc9bbc
col13:   7457587b888488a96494677ad7e98b597da9a8bd89cfd69abcbfbdcab9acf8b6a7abaa9d9abd6f6f
col14:   c543ba786a581986577889b96989bbaa95ab9c9ab58fbb5b6caae887d9cc96ca8baa888dba7aabaa
col15:   e55386965c778a7b3b989ca3b989a99eaa8ccb9bfade59acac69bbcdf98f98bc8aa8caf8a4c9a59d
col16:   b4487545245468576888794acc6c5a868765699a7bab7979babda8ab9f75d794fd98edca699abc6b
col17:   6398635683877466f8667c79b779a688896957c899d98a7a7bb8aab977aaacb68766b8999a65b7af
col18:   b828a666276a46528969795549a96bb766da9cafacc8a8b7bec9bb86aadbbb8bbc95c7d87bdccbdf
col19:   913575a757857b382bc79ea5aaaae8c69bb8e799ab98c27eb59bc989a79d95eb9bcbbcbc6acab9df
col20:   96475786944873195b38b679abb99897adb7986973ac999c8cbc84c65a6abac9bcbbcaafd99b9c4e
col21:   b75446869749396ca3b64aceab7d89fb8ac686c8777a49bb6baae9ba7a76bbeab9caf77dcc96a5cc
col22:   c85965548795864b8597747687b689aaabaa8a83a7caabb799aadab9babaabc67daaa8b7f8abbadc
col23:   b3866648947b865a7877778d98a8b8eabc99665c759b8cd8baabdde78dab86ab89c6bda959cba8bc
col24:   c781a6baa5165876899dae7c8e9bd6abe969f969dac6bc7b8ca9899bc86bacb8d8baefbb7bcc7c8b
col25:   8744788776aa967ad5999a9a769b8b98dabaa95b9b8b968c67b9bbec97abda979ac9bdd8cdcab99f
col26:   73763578b956b9677779a87e979a8a6b8f78a67685a8fedabccaa8caac68ab9acdfacbb9a979b97e
col27:   8847b85899aa57a817afb9bdec8dd8cb79babe9c9abd9c9797c7eb7adcfbf9bfac7bbca9badcccbc
col28:   a8a457467487b677999aa899a9b96a8c9afbaabc8bfc9a8d8bc7cd97badbdccdcb9bc9aadc8bd99a
col29:   989837476774657bbb996a98789acc68a88c988ac9a4bc9fb8bcaaa6a9abc9a9e9addb9f989cfeaf
col30:   ea5788698a89aa66de788bd9bfbeb9fac7cacabb93dcb9a9bbeaabcf9bdadfaaa6adbde9deba86cf
col31:   e395794997299a7a689aa9bede9bb9cbb98bbbdcad9ee5ecab8cabd9ccadcbb78abdae9bebdb9bab
col32:   a6297a859948a6899a476bcfc8b9acb96d9d9b6d99bab7d97babcc9cae69b98aee695baba85ebaac
col33:   686a4578b5ac9776558bb7bcca9bdc9b7a9aac9cf79abda8e5ee8eecfceecddb8aabbc9b9d9bb8aa
col34:   c659a795887917696ba8cacb96d77caa7bed7bada9b8bbc97dcea6ee89cc6b7af8a7d8afaaec7a9f
col35:   b8766977388b2ba9b596c79ba99cecba889bdcb789b6caacdb9faebc9cddb99b8ebcbad9996c8b6f
col36:   b8899867998b585379c78bd99b9bab9baadb99abcd989aedb8ebfacdb7aba9ad99cbb88adeaecabf
col37:   d86ac97ab599879a77b8a8dacf7b8bae8b7abbaa6dd4dbbbadadccdb8cfcfbdabaadaba99cb78dbf
col38:   b435467a5675aa8999c997f779cab999a5eca5ead9acca8ce6aa3e7ce9bd9fba7bbcfd9bde9badbf
col39:   bb9b997a597b7a8b88db9b878e99b8d9e868aa67abbbcadbeaaecca9cefebbee95bfcc69cdfbedae
col40:   a6843d86aba858976b479a9c6cab9948789dbafaacd98bbac88cbcdebdedaccc78e7a7cad7babaed
col41:   e568778a74b7679cb68898f889bbadcc98a99bf79bd8b98899aabcabbbe9ed9dda9dcdac7b9bdcdf
col42:   c9a52a86988b97589789b9d69baaaa9bbad9aaf9a8bbc89cadfcefd99a9ebddc89bdeaecdecb9dae
col43:   b95779868a7888bc7487a87badba67eb9aad97dc9b9ec5baabb9f9cb7ae99cbcc9eaebbacaeaccae
col44:   c6aa8adaa896b9897789a9bfacfe9aeaea9fac7abbbb6bcb8dab8c8cefcb6eabac7ccacabcb8ccec
col45:   ed9999b8aa9a599689a8a99b98dc999ac8bacc9f8cd99ccae99becd8adacfacfadaeaedb9cddaae9
col46:   c86978656a83757ba66897b4968b6a9999ddcdbfae9caad8bdcdabe9ccbb7b8decc8aa6bb9acfadf
col47:   c667468b877b598aac97b979899a8cbc8cb6a79beeceafeabffadceebcdcf9bef9bcfdb9babef6ad
col48:   b4b757986368667bc98cbcbddbab9cc8c8a8eaa999778caccd7bfe9cbcbcdfecbbf9cad8fdbb65af
col49:   c949c546383a75789688d65baa999b888da9c9e9dacddb9bbd8dfc99defb9dfcadd7fb8bdcd9bbaf
col50:   f95b39a67365798a678a9798787ada9afc8caafdc9babadcb4ddafcfada9c9d7ab6cd8da9aa8dc7f
col51:   fcedecdcbeb7bfbd6bdfaffffffeefefcdedfffffffffffffcbcfffcffeffffffffffcffcfefffff
