ROC:	 BPix_BmI_SEC7_LYR2_LDR11F_MOD3_ROC0
col00:   5767543449384655679a4998711697797767982137c6a78a876bc379588b596e667747a7663b4974
col01:   975636774769456b687969c7d74b78aab58c7ac18ab4fabc83b599b858c6aa8674779758b6c67a86
col02:   779696585395a69b96686878ba6d9b577b89aa47ac979687b8a5a87b6775c7a769a8a99867c8b987
col03:   662894e7aab7666897b8bab3c5b96718889a9baabc79bab87b9557776dc77b989a9967b77ab56457
col04:   545846a4689968a76199a889967c689ab8a89a68875a37b49b856674a8bbb69937c5a867d9744976
col05:   272a78487ba7b7a877679958772abc87fa9c759897b7b7b6977c7779679a6879767b67678a596b74
col06:   3488796b778a8678a88975a6b5b59a8a874685789e8b84b37857ab78ac768586bccb9dbb687a4a86
col07:   571a887a8778635586a769868a86659ea79599c97bb7779a879a6398ab99dc9a95b78595997937b7
col08:   7558678c6948585a6898c9d978738da8c976aa9999c7b9b97e86c96b99d97a99a666799b98a9a884
col09:   87b644962a46da6575966c6813776b74a69a9b88a99988f88b8a887b8b22687e5aa87c778ba39863
col10:   761bc964b69744995578b4739174889c7b8a6a9ac758a7c785a7449a94a5368578a89ad58aa8b879
col11:   6845625b93695631847a8c78677b97578b7855769fb4a5aac9ba9bab7886967865ba7cb769d67856
col12:   877c472768b3a783763865974684a787b877a9dcb5938b8675db464789ab58b4536984b46aa49a44
col13:   3877a6a8a47a9898b667a467a87a999a36ba8a7aaa9a6a669c5679ab9785788eb6789769aa896875
col14:   46888367775b576755477686b963799abba6b99b4b8968abd9457b89c9c796ce989ac96736a88796
col15:   47a465759271a388a7b985a66469899788657abacc64376776b7aa7bc9cba3b67387b7b69a4a3835
col16:   147276438668657b4957789955bab9987a87a69a787b878ba6b6a4c7698789478ab796897674839a
col17:   534472659a698973c438a888993577b7b96b8846c978ca778ca63785ac49a7567a4897575a396a86
col18:   516698486741563676275564176666554ca94478997c58487636dbaa3748b7695688878a96a9aa97
col19:   427158868756459b45999c795a8aaa687a279ca8959db877869a67bb5ac895793b78d99bb878b844
col20:   1498557a3247579597945898968988658ba4a54b88da89676c9ba698b48b676a787b7ab585a58966
col21:   72716965436685277a9c2698aa489c8b8969a67b78a53a66b88998789799c7b75a7a58aa8579c76a
col22:   167261449567b936b8677485964696579885a7676b856bd9a488a1a875d577a8aa7668a5b6476876
col23:   66865a67883376594666ca9a8435a6bdaa66ac1d95984a77885c9ddb9ba5582694858a76bba77586
col24:   67466417a5a66e6799985947434c9a88659862896997989669aa9f995536b849a9ac8878bd45a894
col25:   84834988688888953e9767773878a879c79aa898769948d856b89c8c6b879ab7a68a5aa667976975
col26:   767959a4aa55d977ca8a886a899bada68abddaa9ba9ac8c9a879869a7a868846399aba79c47a8b89
col27:   a775a9794689b8678a77b9889a88d66aac9aa9caacaabc78889a98b9ab975db8d75be6bc86a6c799
col28:   98896797b9b7aa377884969a698a99a8666a8dca88b9cca5bbab4bdd8b987997a8b5cb89b71ca999
col29:   7576874b7bb4e9ba5c8bdb69b77b99a98978a79a9dc7d885a77ebb98c8b7ab997aa69b76d99acb67
col30:   7667958779a568956758b5a888887874cdcc78bc7bcb99888dc8899c973759aab6676bb9a8cb1aa6
col31:   68a96d7ac687c5baa8aa9b7d689bc7cbb5b8bba678a8b98dabcaa9e7b7acb6aa4e9cbac7aabaaa94
col32:   788799666493a688a8a68add8fd968dbb3bda9fdba9bab88b965cbea7a8b8c69abd7da8a79bd7b76
col33:   6648a996979ab396b8c6a9a59ba6dc9cb799c8ba97bbb6cabcbc9978be6ab89ab8898ac8e8aa8c74
col34:   6968b8a6b98b99caadd9a59a99b936bba795b9a8ae8ab6c98cdabbc86aab9a7ab9abacc7caccde97
col35:   a8d58a869cba7b7ba6698878666aad898dba9a9a7acb98978b699acea8c7bcbbab995c7aaea659a4
col36:   867784988c947895aa74ba77cca8c8a8bbbabdbf77b8af7ca58bbcda75b98b9ca58acaab767d98b7
col37:   9daa6d99b7a996d8a999cd99c8aa9cabdc9cb9bcec9a869bbb79c96daadaa7cc996bccacabbb98d6
col38:   94686a8a7c9a88bda9a835ea98a999edbf9bbebfa6cc8a8bcca799aa8e8cdccacdc3ffa9a985a697
col39:   9b77da48a8b9d8cd699a9baad6b7be7ffebdb8a8abafdcde78baaa8c9b8ac8aa9cabc8a8f48dbe98
col40:   c7897aab9979cedc7bc8889b78a668a7949b9b89f779d59d9b7be78aacabdcbbfa9ebdba8baa9b79
col41:   984cbb9caab99ac665cbcc997bcae985d8a8b6ccddb9abaaacddbaea78b8dddacbb8b5f7f9badb48
col42:   b975baaa8aa9bcbc958ebba5a8d7989d79d9facbddf9bc9bcbd9bca6bdbbfdaa68aadea7bad9abb4
col43:   9b64cab6acbd8dd9accaabdadccafdb9bdbbb8ccfeacfbead9b8db7b9ab8fcb89dd9997babeca9b5
col44:   7aa4d9c9c997ac7d7baccaadacceadeadabbb9b7e8ccc8e7ccc9daaaa7f9ddda5acdbacd9dacd5a9
col45:   77a97a889bc9bbc9ab85acacfe9b98adfecbdcb6cdbdfca9bad9a84fd9ababb8c69b8abaa9c9ba78
col46:   677789b887c688999b9574cababcbdbca9c9adaabaa9b878c9cc9d7ebb8aabaab6bbc9fbe98fec97
col47:   dd679ac5cc8aade8b9d9c8bbbaefddaddafcb9abceff87abbbbbfcbac6dabcbaebacecbbccabaab8
col48:   9997cbb8aa8a9da999eb979caa7aa9ebc97ebdbb9cd7caccb8ebaaca7c7a6ec468dd9d8c9acfa796
col49:   897aaacba6cdca9989a8aa9cca95b8cddab8dfaadbbadada877abedabb8fbaeebbeb9cfcbbb8bbae
col50:   8889c56adfbead8c5b8b8d89cfdbccf9bc69cbdbfba999bcadebabbdbadfdb8c7cbb767ec88f79b7
col51:   a66894978c6baa9c8a98cb9f7aa8d858cc7b7adb898ade7ccba86bd65bc8caac769ea7a6b8b8ab8b
ROC:	 BPix_BmI_SEC7_LYR2_LDR11F_MOD3_ROC1
col00:   a4671539959642966587458a67bb871bb873a637898685ab788a7d68965a6598b2a484a7996b6b94
col01:   8687b8787879957ab45b796c96789bc8575749dbf8b88959aba997ba95b8ab76b5ca97ab4ac448a9
col02:   7974699488c79a85497988846c49889d89958b5b8749c789c7a959b74a85f9776a8bbab6888ac565
col03:   76586aab99b8c974a898b9989753c6bf89ac8bd869b6d9bc8999a6759984b88999b9ab458769ada9
col04:   68577589aa9aab746a699686888978c5c887c969cbcaec9b67b7a66b77d7aad9c7cc2b9f9949b867
col05:   1776779578697879b9369d8b9778ddebab8b9bab96878a9caa69796e987a47a79c8a78aaa788585b
col06:   96876a976467964d86776687489a976c997a8b58aaa47aa9cc898a89748a57c9aaaa998986578785
col07:   6467676786b7bc78c894587ccb88a8ad89a6a5859cb9977a9dadb87e86ac76a969a5cb49bc89b7d8
col08:   6385d651885867b54a6ca979c9a77889bc84ca69baa9b88ba8a68e7778db7786a868596478aaac96
col09:   569c74648bab98898b89daaa7aa797cdbb69a7aba9ba9bd996aa9aa898ad79aae98ccbac8898b6c6
col10:   56597366c4b4b2a795378c37db7a75aa8699baa6a8ae79994ac78ca9799aa655559a8a868b958b8c
col11:   56e368696688a449ba5978a69d9299daada6cc99988b86f785bb595888b78bbadf72a7c884b8668a
col12:   884857779797678869378958a884a9b98dabc885cda868987ababad776a857ab9ddb4a768b68c863
col13:   66a9397abaa8a987ab76d6ba99b96ab9978b7bd8a996bb896cc7ca7cabe968c58773859e78a78a95
col14:   967869377ca8a7698a7988b9a8a9d66b1bb9b3469dc696a98b59b9a6a4768589a667c6c93c9876a6
col15:   5a44955ab985b8aab9ca698bdba867b98b9c9b9a859989b879e688bb7a9bc7b98adba99bc7799c87
col16:   4c77876a685b67696a7c96785957ba9a85cbadbabc77bab9bcab9b589369655b496a76ab8b9d88a5
col17:   4659d7a6676a89a8abaaa7a4a8979b8b88b6b9b8d58b6c7ab8f9896c9bb98c99ba9b679989889558
col18:   5739767baa9a78932997929cbca55b77b679ab8da98acc9a999baaba7a9b7b776a7a987bc5bab754
col19:   967959797897e988da98a554497aaa7db8a999b9a47bca9cc4e5ab8a999a9aa9aa899996a87c9778
col20:   2768899a787984998b924895876baa669aaaa887a869b88793cb6a74b889b8d48adcaa9b475b6745
col21:   567aa77598b5964d4aab88b9aa6b6aabaea9995adae8dfa87eb89aa79cc8acabccaba8c5cbac6888
col22:   6688645c878a886b3a8ba86c656984ac76a8d68cb4a7bbbd65b99886885b98bb59ac3bb987b79577
col23:   271165576a26b8a8b6979544a9ac69aa7a77aaa9995888ad79599bb7897ca877b987a7f8ca8a938a
col24:   79758776469c7b6aa8699b8aa2a5977a67ac9b8985a599769a8657a977969988b7b8acd566b78b75
col25:   9686ba99796778a8a78b947db8b8b799b8c7abbc9db57acb9898697a9caf8d79be9a996a59ca9a7c
col26:   aa79888befc9aa76d698aba769cba765bac9b9dbcaa6a8b9b798df9b8acac7bc9accbbcf67c59997
col27:   8a9b9a3a7be7bad8979a8e6e9a9a9da9addbccf88aab8aa8dacb99a78a7cd4ee3779f9dacb9b9878
col28:   4786a91688a8998bb9cc6b99eedb7bbfbae9eaacc8ec5aeda6dafbabc887cbbd9b8bf897ba8ae899
col29:   7aaa67b7a58a799c46aa769ca77dabbbda8abddceeab9c988ad9bbdfda8ca99c68ec96ac8a75eab4
col30:   6ba79cac79bbccb9b97bac7848689e9cdabcbdc59a6b9feccbdcd9d39d79bdd9e86a8a8adbde8ac8
col31:   b867b8ec99869cae8bae7cbbacabccaaf7f7bcbbffbb7afca8a7fadbe9cbaba7fea8caba9a6989af
col32:   aa78bc599db9a799acbb989ac9dc9faa7cab99dac7ecbc99bc8accac6abcefb9b9b9689dcaa7c8c9
col33:   ba6a795d7ad999fcea88fdccbfce89ea8cef8ccbfb9caefc7999e8b8a9d9aab78a68e8ba7dcbd98b
col34:   595acc78d98b46aaceafba9bccafadbba6d7c9cb7ca7d9cbdbaa9db9aafeaaca99caddcfb8bdc7c5
col35:   88ccd5678acbb8f49bb8abdccbbca8b98dadad9adbcab8eafb8eeb8a5b9cbaddefd8fb9f9faa9796
col36:   b54adcb8eb968ccaaadcc98d9b99cda5abaccfc8a9aa5ace9bdffa5addbcdc8a779bcea96babaca9
col37:   a8698c6ba7abbb7bbac9f999bccaccd9dfefbeaabd8edfdcadfcbcfedaead9fae98cb9dfa9dbcdac
col38:   97e5c8d6ca97caa9efda9ad9afb4ded9b99cbc9eacbbceecff96f9acfadbac79ca8afdb99fe4db9c
col39:   6c979bccf9bcdcdcd7a6afaaaa67edbfbcdb9fc8d6fcbfaa4c9c9cbdb9cbcedcfbacafad9acd879c
col40:   9b8bcb4daca7a9b7aecb99c79fcfbabbaaccf9dcbdceadcadeccfabac98dcfcba799cccacb9aaede
col41:   6ae88bcbcef9afbced9cffcde9a8fbdbbbe7be9cebbdb8cedcbbfaabc8daf8aebcaabbfa7fcacdeb
col42:   c796bb9879a98bff95cbbad9facf89d76acbaa9daf8bebbdcaefa8ee9dd8b97ecccccadadac999bc
col43:   ca8a8ecadbbbb9bbcb88eecd6fdbebdedfdb9cad8affbdbbfafcfaddcdbbcdfadcbb7ddba9edc88d
col44:   57aadec9bb7d8acdd9baabeccd98bbbbbac97daccafdabbbe3d6dcd9da99cffdfdaa98ab8acbc8ab
col45:   7bb78567bdeaa6bc9dba8edfbacdd6ccd8fbd9eb6dadcebff3eac7bd9ccb9f9ccfbbfaccfadefdcd
col46:   79ba4c9ec88ffdf857a9c9eca9dc98cbcdac78b9ebfcbdeacda9dedcdacbebbecaedcbdbd8ddbe7b
col47:   8ac9dbab799e77aa787d9fc8ea9af988a8fdcedaefb7c9fbb9c998b9dea9caa9d9d9cec9d8ab9be6
col48:   8799cb9dc9aacbba9abccbc9ddbbdddccbbadb9fc7da9cafaabfe9bc8dfcbfb7e37c9da9fdacdccc
col49:   6d19c9bcbf798e5c8a8abba8dcce8a7bfdcbdbddecccdbfbcfdcaccadacaadccabdba8adb9bc9d89
col50:   789aad77baeda897ebbaba9fdc9c98bcaad9ecbcfcfedbae9cbadbebcfddbdfdbc7dc9bbca7cabae
col51:   959896abe9abb9a69876c8f7c9b9699ccb5aa979aad9bcbb97c98abcb7bbeb897aadbc98a9d85ac9
ROC:	 BPix_BmI_SEC7_LYR2_LDR11F_MOD3_ROC2
col00:   4342676673163571446636619976a368a961659563a59866579816a2769a165894b465a436537645
col01:   b87766574a86b64348866788697b7895abada789889da89b89abbeabf98a87a67786c6ac975b6594
col02:   885456356976671825b58794968386877847f3985d298ab77bacd995c7865679a966576b98369bb8
col03:   5698aad86583be97c977b6a99798a887b879a86b958a7eb8859b768c5bda799a9269cc8cb757989a
col04:   24924bd41749e5a7a7daa8a85768bb68aa75b777777599b978695ab59b8b7a988968a84d9869d997
col05:   778abe89b49894734c3a7a8aa778d9a6db89b666e799bada9bb946db7aea9bab86766988dc666888
col06:   5655841b48b88c77396b73688768ad6b59aa7d676b7aba78aa95a9968d9c599a7ba689b6a7882699
col07:   68764688b8767d9a898948999ab69aaa7aaac7bba9c7678989cd77bd99767a6c746c989e94865739
col08:   785893357d89b85aa6699a59a756888b997497a46c8ab8879a68977cba8479716585ba586a677abc
col09:   86c6435699848ac885a7a56c87c97db979696c879bba7888aa98778a96a999b568bab4b67b9c7a56
col10:   35657154488387a48a837b75885365ab829f889698c776d67c458678c7a7c77a99c9968afa988da6
col11:   578366a75b89a4788a998785736646778a47bd9ba8a85995c9c997c8a9554aa9a575b76777888533
col12:   159856286a88d8679eab99bb896d5377955ca78989766b8a8a88818a576b6a97f596b7b699b44377
col13:   918858976ca6dac95bacba7b8a8a7998787bbac9acb7997aca77e9a379a86a8ca859c9486a79bf99
col14:   889875656669989a58499576978999779c8747975a5ab9d996857a5cdc9a8a89d6486766b57a7659
col15:   ca78c78a85669c936f7899a97d9a96c7886c78c87997abc7a9aa7ab85989896869d757a5a68ab977
col16:   58969a577a88789878c8a7aa89a56b868685489bb66b764948e78aa9a7c6b773bb8d6ac978b887e4
col17:   77c497a78a788a9988879587af677b5697ab958bf68899b67ad8896b99da65957b97bbbc5c4a98ad
col18:   247754559896789279b87966d985a8692b6785c9d7c86959cb89c97cc7d899c5a7ab79ac897958b5
col19:   965656979b6699759bbc8c7d4798ada99aa9aa6d97c895d98bba7ba88aab9a89959ca9ab9e7bb76a
col20:   8897435d6875d87cb96a957a98e969a86b9ccaaf7987a6f7866c6ea9887ab97b6aaa86ab9967836a
col21:   c78765757899b9978aa9a9b86a5a79dbb9697abc87bdadb9d3a9bcda9aabe9598b8d68c8aad6d9b6
col22:   c7a857b898577aaa85d62b888ab989988a987e8b9a8ab89aaabab9858a6b497cd87fb9b579bc37a7
col23:   7b886499a656a797a69c82b89c699a8b59d4996aaac87aed7d9c98b9cac6667c88cb99abc37a2889
col24:   63594ae899ba89c8bb9c66d9cb789a49b8a8575b986a8985a7e7aa89949bcc669cabada89ba95ba7
col25:   6868386a4aa9b5a8cacdb8ba9787cabca8a7e5d8ab98c9beabec788b8d84b99ad79aeb58b9a89a6a
col26:   88a9acbb9ab8bd7a889cb88b99da969b7bdcbba77d8b9dcead7abb9bdcacb8a67a7aed9dd9fdaa4a
col27:   7a89bb868cb84bbcf7bab8bb8cba8baad9aaa7bd9bab988bbe7cdbcbafaabcb977cacd8d8abb9aac
col28:   c577c889aaac9ec9f9f9caa99aec8ba5d8d7c9beb58aeb9acfbe9bad9abed8bac4a87bbb87caa8aa
col29:   979ba8ed8cb9bcbbadc88aaabdaeabada8bbc9cba9eabcabadbc9a6bddcde8debbbdc9abaec9ac99
col30:   9d559b59ab9aad989b99c69999bbccdb99ba9b8dcaabfadbb78baa8a89b9aaa9d8d8d8998bdcca97
col31:   9ac9b8ca69adacde9ddfc9baaad5bed8bbdbeaf9cceaefaab7defbcdfffdcfdcadeffa7bbc89bd7a
col32:   89b96a8edecc98cbb7b9dcaa879acc9bacccad9dbbafb9ccdec9e998acadcdaacbfbb9cabbdb9ca8
col33:   b7754cab7988c6dadab7cb8a7f97aca9c888bd9bec9cabeecbeeedaccaaabd7baacece9b96cdbfcb
col34:   68985c6accdbadaefb8cf9d8cb9cfcedcecc9bedecbbdddbbab8aaa9fbbcadf8dabcc98ebaadc797
col35:   ee67988897caccbb99dcb8cab7bdbddacdeeeed8b7cbdc6c7db8dcf9d97ddfd8debadccfa9edbad9
col36:   6648979a5af7abe9dabdc6bd8ca8b78bb9aaddccfbddbebca9fca2d9b99dedbb9aa6d9dd9ac7bad8
col37:   9aa7acfaebcea8bbbabcedbd99dbddacdccb9bcecedf98cdebdbcbbfffbfcfbbbfbacbb5ad69fcb7
col38:   cb6d9b8cebacb7d6d9cdbbaf9adaaa987bbcebeefcbebbacbcccbbbcbcc9cbbbfcddfaebdcabbca8
col39:   a9697bcbe7aafca77bbdcdcaccbacd9eccbddc9dcb9efabccdba9cccdcfbbd9bbf9cba89ccaee8e9
col40:   985c5999cdfaacaaddcef8abacaa7cd9cfabdfadcd8aaceabeeffc9bebdca9eacfbabbbcbf999abb
col41:   7cbae7996b9ab79b6f9baaaaddc9aaffb9dcd9b89ccbcfcbeddcb9fdbecceabbf8abd9efbd9cf969
col42:   6a8aab9c77c88e9598cbdaa9dafcfadad9c76ed9bc6f8bafcadf9e7e9a8bacba8ccb9daccbbfacd6
col43:   7bab9ba3c97cdbcbbcbfeabd7ecbcccebaccbd9cb9eabcfedbcfdccbdcbfffdefaefeea8abedebdc
col44:   a979e6babcd5b7afd9dc7b8c5dc69cc7aabdaba9fb7d8b88a9eccdbadabdddddcfc7dfbcefb9fb7b
col45:   a68dabf9ccca989daffdbd8ccbc9cceabcfdac8bcae9cfac76acdafacfceccda9acccbbece97bbba
col46:   b9d9acabd989bbf9aafdbb8cbca98c9c9cab8bd9bfdc9dbefde8bcdccccaba9ed9c99bcae69edba9
col47:   babebe8d88bd9ddbecca89ccbbd7d79bcce8ff8bb8ffdfaaeedfedfadaadcdcc98bc6cddcbeaebca
col48:   89a7aadd9ac7a7e4a7984c78db9cbdfd99c6a9fb6d98dbbcbd88fefddafcabfcadf9cdecbdbbacbc
col49:   d99dea86aadbaccb9eadbbafc69bbcaebdb89bebadeda7fcdcfedfbcded9d7f8dcbbfcfa9ffdddea
col50:   89a5c84bbbea99dde8acbce8eefcdde9e6cbbd99a9d97c8d9fdfcbfcc8faebfbac8baad6b87a7dda
col51:   887ab258aa2989385abdabaccb9ace7ac97e897bb4a8c8d6a68dcba9b9b9978ccb69989c9ab9ca96
ROC:	 BPix_BmI_SEC7_LYR2_LDR11F_MOD3_ROC3
col00:   84984888784a6b8897b3964587ba99969b858aa96babd5ab99259d88d978a7dc48898c88c7591ab5
col01:   3729a59a6cd977bedb5b98aabae9ba8a8da78bcbdb97f9bdbceca7d6fec9ccb97749b97a5797aa8a
col02:   7495d9aadc44b5c5dbc978c9969babd6c99cc89cf8bb4a7bc98fb7a9ccc8a599cdf57975b37dc577
col03:   c968d699caabca77bab7b9898aca98584a9caccbdcdddabcabddc899d89efae6ad889fe987eb7bdb
col04:   8995b9697ad96da9abb999dc678abd887889befdadbd779fbdbad9878ccdacb8b995979c5bd8bb6b
col05:   aa618ad8bdb97bac9abacceb89cbd9aadd99ae9e8a9ac6a9ccaccac9bae9abaec99ab9ffa8d9acd6
col06:   c777ada7b8b47f979879779a94c685897c9fbccf8cabee997c8c8a987e979caa7d818fdc8698b5c8
col07:   4778ca9c9a7c9dbb97c9ba8aa79bca9cd79aa98899aeaaeccc46d986b5daa9bb796ab75ae6f7ba87
col08:   5947d9ac94bcaaaaca5e599b997a84acaa9b87bbdace9c6997895acbbbc95cd778aa9acc8a9bba67
col09:   8b8acc7d8b967ea9a9bdb6beaf6bb8c69cd7e8aabdac4da79ebcfa69dccdba95cd6d999ba89cd6b9
col10:   4a7788859896ab95948bb998bbbcbbea97937bba8c79d7abc9bb886a87d959b99bd5cb9abbb86a69
col11:   5c97778b998938a8e8b7aa99bedf5785acfa9ba94c78f78d9fe96a7ab7cf7baa8bb8cb59abd88855
col12:   245876347676a86d98674cceca9aeb56b7c87ddba6bba929979c896659ba767a8caab6679c8f9d7a
col13:   386377487b557abfdadcdebcbba8da6eeab8bfc8cc8d9ebabc9caabc76d8cba8dbaf7ab9bbdab9b8
col14:   588874896b829e289ca868988ab8aa8bc7978978cb9c9bc6b9e9db9ad69979495b95ab8ccc8c9bba
col15:   9b87786c9669e69a8b8c936abbac9a99ebd9d9a9bc8e94f8cca959a9bda8c9bdb9baa8ac9a9b5766
col16:   c6a76c6caa986cabe797559b798b897a599ccb78b93b5ad89f989cc7f63baeb59dbe9897d8ab76b7
col17:   5964c6dd56aa88a85fa998b7669a98f89aa78b8a8d98bf8987797ccdf9d895fc9cb77cbf48b8a7d8
col18:   656b888a829b5ba78a86dccab59c6c798ca976788648baa797977998a9c9597ed6aaa97975c3978b
col19:   3b7695865696cb5789eab86858fbe77db8c9dda9abcbcbc79989c89999bb68a9abb79b978aaa5959
col20:   4566a1a8b9a586d7ab8295344b795686da7ecdbacb88c9a69791c383abaca8e798962aa47bb78bc9
col21:   56a679b7696868597caad5ba75c379bb9b6b79d7c9bbef8865b95c9a864ca89879c8ac4aad62ab87
col22:   9a51899999d8a8a79aab667fb67bb6cdb9dd8cb79b579687c9cece8876e6cd9aa87af89aa5c6978a
col23:   8b5992a76768729caada78daabca8899bc588b9d7c6b9c9b799c84bb78df829ba776ac78a6966b94
col24:   88b8a78678daa98d9888d677679b8c967a9897a7b829789aca98999ad87795c7b788593aaca79a4d
col25:   64e35c74653b8ac98b875ba59c9ca3cd999b9a9dd9d89f8b58caa9aaa7ebbcc759799a56bb7c8ca7
col26:   c79c7c99a9d88969da88886b8bafcc9dddadc8a8e8bdbba79889aec95b878bba86e889d9a47a6637
col27:   8479b8c7b3d99d9b8f9bcbafc9977eecddbd887bad7fc9c77faedcaea7989ebe8ba9a5ba838b6ca5
col28:   2679788b5d8a8c9b8ba69d98cb7dcbb68f8acbbdd7d6d77f7c6bcbd7aa7d8699a8897bbc9bdab757
col29:   7a877b7c688a97bab98b5b8cd9adfd8abafbc8bbdbabdaabcbbbcbc56cdb99bdccdf8a5da6acd8bb
col30:   c96989bc8c7f58cd898eaac6f5d67baad9b7aa8a8a8da4786bb7bd978c8aaaa9a7cdab4578ae7988
col31:   6548ace98a99adacabdaacdaf7cbffd78bfccc8c7ba9cafa9cdbfcc99bbdefc9ae4bb6d58c68ab6b
col32:   7759f7787caec9da98accbccc5abbcd9cbced7ba8eaac8a9b8adbdeacdccccb85bc8ccc8a5bbcbc9
col33:   c99dbe86ccda9edcbbcccacac9b8acfabcadbada978daaa79cb6e7b8dbfda7b9aabe6dbdaafdf9e5
col34:   a5aa877757cccfab79d7d6ba7ad9d9f9cabcdadbabebfc69ecfb9cc9ba9a98c859aa9d987a8a7bbc
col35:   9aa98b866bfa8bdfd9a8bba88e7cfe7f9d7d8ebccbcfc8ccdf88ad9aeb9ce8bca9acd995da76f9a4
col36:   6576bb86bb8b8fa676b69a9bd96abdf7cbadafdbedbbbaa89a6bdbb99cb297b6c7e894f7958abcea
col37:   96aaa69986a8a877ce7bdba8dcdcf9bdcbadafb9bdabc8d7a89aa8aeb9abc8b596c9adeba7bfaa67
col38:   9e7745adaa999cef9dafa68a5fdbf9ceba9acae9bbccaf69e7ce9abbc8a7db899c9aa97864a999d6
col39:   d976a86b7887dcbe88b7bb6bcbebfe9cc99e8c7abdec8eeba8edebfeee89c6cba8ccbba6c787cbdb
col40:   6877586aa787ad857d88bcaabaa9ca789b9b9eaf9bf96a9dbd8eab7a47a78b7edcb7dbcebbb7abab
col41:   ac7b58ea7cb767c98bbf9a5a9ce9f8acfcc8cabed7aef5f5bcfb99c7eaabaaabab89988ca9aa7cbb
col42:   bbca9aa6a8b6bb8d6c9d8caacb8899fbbaacd99557fb9bec888ab988b9995a8a7dfb77c3aa959a67
col43:   889d8b95bcb96adadcbacbdbdce8fbdf9b9cccbed8baa7c89c9bebd98bab89abbb9ca8c8cae97c9a
col44:   b985986a7676989cccb5bcb978ba9ae9b9beb9b8b9a6e9ac7cabb9a8879bdaaab9a7b8bbcdaed6eb
col45:   ba6b6a9edaf9d89cb8dceaedceda7ddbca98edcfac9bfa6fbafa775adbbb5be9bcfa9e88a9c9c9cb
col46:   857aa493a7a68d798aeb8d87dcc9c46bfba9aac98ab75bc488979bacd897fdbacbccc879b4a6cab6
col47:   99cbdb6efb8b7865869caa8c8acebecb7b9bcbcdaaabbb78d9abb9dd478bb766ac9baaa4bcc8bc36
col48:   538d419c77b9aaeb86aa88c9cd87eac9bcb79ca9b3edcae979a6a688e59d8bc5a69a9dad85c77a69
col49:   ab9869c5b7e78ecb9a98faccbceaaacab9b8968dcbea97e8a6dcbaaea797b7c9acb8b768ba9f9a99
col50:   79d869c47baaabae47ca95bf79faba99bbb88585ab76cbdbc7bbb96b9ab7daba8a79b978acf8d999
col51:   6747c33e1675c66a742357ac978b798187b8d9a76797b919663498d75a39a615988d937ab76b98a5
ROC:	 BPix_BmI_SEC7_LYR2_LDR11F_MOD3_ROC4
col00:   4aaa69797a637bca89bb798696bdb988a8b78876498e9a78997898879d9b57ba98a8c7727c657574
col01:   c88a8b8b77b96aeb75d978a89989f99bc99aa99699cbcebbb99aad9989bb9a899aa89a7c97dba98a
col02:   869566b869ac9f6699877a98b7a8a9677c76a9c888dba6d77b8bc4bbab798ac88aaa954a8854a566
col03:   788495b8b79a7a986c9599e7abd668bdd799aa69a8bcc7998daca9ab9b9bab8aa8679c789b8a8ac7
col04:   88988a9a776c9b49988b88ac8c87984acad9957ab9bbabb8ca988cb89bcb9976cb89795bbda79888
col05:   4c779cc68b988a896b889d9aa5babb99db8d98a9d8a89bafa9bb9b9a96c68ceba9956bb7bc8aa897
col06:   9547939a35b9a87ac8ac4db98bcbaa87ea98a868789bcdba8889aad9a79b8cdcb9e98676878b4899
col07:   756c765cd6b7c6daa89a88a8fbc947ea8a9aebd99cc9ee8aaa999b7b79cbda85b89ab6db58bb67a7
col08:   6898c74ba666aa98cab6962a4656786e9987879ccaa78b876c786d999d595a99aaa9888f5d96a376
col09:   694b689a5c998d999cb8b89ecd68dbabaa75a9dcd7897b86899b9abce8c88abaaaabb6d68bbaa8be
col10:   6d978689b8bd5a99ba48bba9ad63dadba7b98eb6c68996d99aabc967b76b69a8bdb8aa3ca8678b93
col11:   695aa787ba78449ab798a8899ccd8a7db8669eaa9bfd7b78baa7b9b6a7bab899b98dbc6498caab86
col12:   b8a75c7cc8a76a78889b88a6d6acdbb6b7b9eb7a98bba4aa95c69b9abbc7b9bbb64ba9cab88aa487
col13:   5ac88d8b98bc94db88adbabacaa9c9bca996ba9aa8b79c9a9dbd7c99d9e83cb9d9dca89c59878d7a
col14:   668c5988bb9b9967ab78baa89a597b78ba88ca7799d7a9a999b7c9ae8aa9978ac9c87897c9978966
col15:   8ba88b5a5aa8998abd68e7dcaaead8ba96abc97ab75ce6d8b9a48a7bcb9cdaacbb7a6a6ab6aaa9c8
col16:   4887b89a9a674abbbb8b6a89b6ada5a97949fa9adcd4cbda599cd8bbb9a6abab9988ad989ab94856
col17:   6a9b86a79c9c8c9669ba8bb8baa9b6ca6a969bb969799cca8688858998bbda5daa9aba757b967576
col18:   d95a85bb68b668c68778a9bba69a969c8a85c9d68769a8d8986a9d7a989bbca576958b6a97877a84
col19:   78b7e989b8b987af87cabb98aacba56ae9dbaeab8b9aaab49a8bb9c89a7bc88b96a995b957a86469
col20:   556ba769a77b8a8aab8469a89baab7bb88777747968ba8bda68a78ae797a6959d999d979b68889a9
col21:   a8879a8a87da57db4998b89998bdcbcaa9b7baaaccbcb79ca8a8aa97caab7aba797d6875a798a857
col22:   794699a777779a7ab887aa579b99997a98558a849ca9ccdcaa7dbaa8cb9ab5a978aebb6bc66798b9
col23:   5b8c756aa8aa6aabbabab9caa857f97cac7d88b7ba7dabe5b9aab8cae8b9b8aad899d5887726b737
col24:   97884a9b79bb899aa77a7b9a777aab8ac8bb99d6a978a9cb6a8a9b4c79ba48bac78756888a8b9657
col25:   98cbaa947879aadaaaaaaa79b9c8c99c8abbba88888c9da7bfa57c7adaba7b9a8bacc868787599a8
col26:   86bdac87c8aeaaa68c7bec89cebcb98fcb9fdbebcbaccd8ecccab9adccaababcdd7989ab9ac8b889
col27:   59daaaa7aaa9aa9d9badbbdbcbc6ffbcdd99ecdbc8a7e98ebcbbaceffbbbd999b9a8bc99e6994a9a
col28:   6ba7ec869b99cd9a59b9f85e9c9b89ddb8cbdad8edaadcbc8caacf98b9ab7bbbdad7ccb9c6a78c93
col29:   ddfa768bbcae7ac98d7aa5aeab79fda99cbebfacc8bcdbde89abbddbbd88b9cadadba9cab767cb9a
col30:   99d8b986dbad8b8c7bb8cba8cb6babdab97da8adbccdaceacd8b99ac9cbcdad7aa9cb7c97769cbab
col31:   bdccdadbf9ebc7bd9abcaaadfabde9ea9c8edcacb9bfbfba96adcb9cbaeabcdbcddaccb9dc9bbcbb
col32:   bb8a6cabccaa99b9b9ac9fbaabeaa8babcfe9a7cadccd9aadad9abbebcbaaaccf98dce78cbcacbb9
col33:   c4cb899b5bb9a9af8acf9fbbafbbbcccf8caccafc8eb9ddbeccdbfbebf8bddfeafebabbaa89a7aab
col34:   75a98d8aeaca78b9ea9caab9cabceccd9bdceacaab6bab9decedc9afbabaa99c9c7cccebaaed87cb
col35:   89a9bebc9abccbafccddcdccece7dfdadacaccdecccacf99ad9afcccdf9abda9ead8cabfc99bfbea
col36:   97c87cdbadcabd8aeb9aafd8aacbadbdaecbaabbabaa9d9edc9b89bdbaade899d9aca98abcaa9ab9
col37:   7bc99cabab7ca9befda8cc897eacdcbbebcfddcbeadbce9ef9bdaeafbfdccbded8ca9eaa8abd9fa6
col38:   e8bed9ebd6d79ccac99ecfceabefd9ce9eddb7cbac99dccaebccdbfee8fcdbb9aaadda99cc7bd87b
col39:   c8d8cd7abae9cffbcccfdbccf8cccdbfddfaefedc9cacbcefaccddfa999bbbccdebddccbaab999a7
col40:   9dc9cbfb8c9d6cbcbcf9dbad9bee8fddcbcceeeaeececfcebeedeadaddcf9cbac8f7b9beb87d99ac
col41:   abc7ab69df8ad9b9cbbdc98fbadbddfedacabbef9f9cdcaebffcdebac8fb9ecaedaebe99cfbaada7
col42:   aca6eadad6cdbde88dbafde9c9dcbab79adebb8abbd9cbbdafacbd9e9ebabbddabdabb8ddab77899
col43:   a689aa8bd7ca9bededfcc69aaabcdd9ee8ccdadfaabcdcc9bbcfcbcadcbcdcfeeddba8aac9c7cdeb
col44:   8969a8a9b9dddedcbccfbfe9aa78bcacce8ddddebbbaacddfe8c9ccceaceaddc7bcdf97ccace9eab
col45:   977aac5ccbb7bcbacbdaaecbbcafcc9fffbcdddcbbffcfaafd8cefd7dacbededaeced8dcfb89edbd
col46:   cbabbb7c8ba9db89dbbbd9cd7aedbbccabdecabf9ace99dbb7cacceb8eadbb47ecab3ef9baeb9b99
col47:   bcdd8aaacbaeb8ad7ddc8cf98ad9afbaeccf9b6dcaaddccadabdeaebb5dfdcde9e9d99cbccc8cafb
col48:   9abb9ac8cad97a8cacdfe8aea9badbcbbdfebfcac6cdbbbdaabed9cacabcf8ccdbbf9dbdc8abaea7
col49:   9abbaa8cbefb8dbc8bdadab9ecbbec9cbeedad7cfbabaadeedffececaeedcdafeaa8b9dcda8d993b
col50:   69a9dbebbca9bd9da7a9bcc9bfcb9ebbdccf8bdadabbecbaf8affb9daabfbcadbbceee7dbcccca97
col51:   db76696489875889abe79a8a95b9979769bc7886fddcad7d758b889ac8bcbcacb8cab99aac96a788
ROC:	 BPix_BmI_SEC7_LYR2_LDR11F_MOD3_ROC5
col00:   7a6546677375679689658a57889689b947aa547d778b446aa69d85ba868a76c67117487d65791567
col01:   94668385858379787988aa97e888a6d5caa9799688b98dfa7b7bc99abb8ca9eb8bb55a9d9c7b2886
col02:   3566563897949b89a76abb6aa89b9795669989ea89c98568657aac8887abb6748b8898844889865d
col03:   b887768958558769aa86a88957899569986aa7bcca6d8c9da965999889a7a9b5b6669b5775b87539
col04:   397568cba97da899537c3889a587c989a5a4d9c6ba7a68ccb49a3b9b9b59579759677859a767ce6b
col05:   747858adc6b77a7baa698679897847777a67848b7827a4db8a87c9eca6cca6698568abb7789857d5
col06:   7b454384863a799522b497e589899e7bcaaaa78978bc7d767a8dc9a8bc8ec76bd7d379d78679c452
col07:   847695847aa77ab9a9a7ba59b887cdcb89e878cfb899ac8a28889a7796ad9bdad8aac8879ba99959
col08:   5349857298197664688bb869574bd7b6a6afbb9bc77ab86b6ad9a9d5668a597758cc5877cb572476
col09:   b92c96575778aa7b6988d8a5d97e9c6abe999ad5abcaac66a996894797b9bcc7aac7a5b36bab6777
col10:   877b44574a6b685396b5786a69b8895aa6a8aa8a9679a77e9abd8b8a978989aab9a55a6dca654677
col11:   3b376587865767aaadbad77b89869bdc78adceba8ada889a7ac7b78d7b6cb969c88679696aa88a6e
col12:   647a7b478a795a6b4ad86c5b757ca766b7798a95bcb4eab8c74ac9ba8ea9b89876aa6c177377666a
col13:   a8cb68a39996dc8ab587b9aabe758b88b78d867bbb86a7cd698bac87c9ab86a8a86b987acc97ca47
col14:   a5486c4ac5a3a79a78a89386a9899c88ab7ac799ba7b8b898a9b98aaa89adb8c88d999a7eb9da3b3
col15:   968966ae9898679ab6a7a45ac5d59ca878a5caa88c998cb58a9bb7c69d9dd9c38d57aa947b77d977
col16:   754a8597cca8449be9568996b7cbc88daa8496c67dacb9558c66a997db7f96c78895b75c89762b56
col17:   587aab86b5aba59ec6b9985976d897a9a87b6d9ba9a77d6aa56cc68c589b9888aa8788a79788a6da
col18:   a54647a85656a89abc5a28aaa9b71abb776b788a9bb889c599681b66a96779c88e4b83d859a4aa87
col19:   5ad67c7a8a489b8b9bc84c9a97b49f29b7aa76997abbf6ae8c5bd4dae99a97ab975998797b58b7a7
col20:   43495753a39779ea776a78bb8a8aba798ac7baa489e7a57889ab96b7a4d7c6bc56856aa9c9769797
col21:   8a599567388a7a8a79a9bcc9b79cac6baaab889dacb894a8a9ba9998768a9bdc7abba7895c77d6a7
col22:   95575964bf8aa57858c6a698788c8ab888a593b887ba8857abb7a8b8a4b859776d6c688557ab9575
col23:   9696aa4b7888c87b757d7a7f6e877b9aabadb7ca9e9b8beab97663b9bb9d9967a669a7ab7a776b87
col24:   89937ab769a87b56a5899abc262a969875c9ada8ac895c8a999a6a7c899b89968b896aaa387874d7
col25:   b784678868a88b57c8c3aacaaeb9ba89cbaa88eacad8bc8ab9b98ecbabb8cbce8b939569a758a9aa
col26:   9a86a9ba867aab988dcabc7979acbcb9b94db9e8cbeec89dcf98c9a8bd6cb988be8979bcab4d5979
col27:   7bcc774a9568598bbc9aa7a9dcaccb679cbd8cccbb8a7bdc7695aa5cd9b7bb98e9b78ad89ac6979d
col28:   abaa9bab85899aca6ac5cafc788b99af99e99cab99ecaa99aad9acbcb9d79ad5ca85a756bb9aab48
col29:   9896a98b9aa877bb98ebcea9b99ebbbcbacad9a7cadfa7baa8cb7de99bce68ca797ca899a6a88837
col30:   699baba878a58cdaa8ac77cddbabca4addef99ceccbcc6a7a8e7888b7cdd6bcacc9e59fc9bc878b9
col31:   99e479cb8c79bdcaafa7aae9aaafdb87bf9bdecfdacccaccda9ecb99cbcbabeeef9d986ccf7aa6b6
col32:   a7ba7bae997ad7d678adfabba9aa8deab5a6fdcccb9fc9ccf8e94fa98d9dac8cb7bec78ac85ac586
col33:   777bba8a76b996c99c7bcbc8f9abbcdecbdfeebfaadcbfeaeefbccdad7dabddc8f5c78caba598a8d
col34:   96c9499ab7887b886cb9ba7cfcb8f8daf9caefbbcacbedaca99bb9acbababa7eddbcb98a7bbdeac7
col35:   9895ca97bac9cd7ebfa8ab9dabdcadbca779dcce8dcbfbd6cda89cabcebeb859fa9aebbadc9b9d8a
col36:   67beda9ad78baaa8ddabc68abdbc79c678d6bb98acce8c5dd9acc9faa99a8c8ebdcf8bb87bacb996
col37:   b8899abacc9d79d96fa98eafb8ffdfbefdc8b9bbebc9c9dade97dd9bcf68cbbab8dba9b5accdcaaa
col38:   b7a6adcedc8aeac9db8faaabddcbfbfbecaaafc9cbaeccda9feaa5cbaaacdcdcda99bfcdd8a9a777
col39:   389bcaa9b7b86b9bbdedbfaabc8dfbd7bbbbdbcbdaccbcbc8addbca6b7c5db9ebfada5b89dbeffb7
col40:   6bbcade8a8be6c77bda8b99b9c9f9e88acea9bfa7bdb9eb9db89a8accfbb7dbc8bb8bb9a95baf979
col41:   ab88b88b98baacbbcabb9eab9d9cbad7fcba9d96f9cbdd9acbdbddccecad8b98addaf8fa8ccd7bba
col42:   da999ba9889aaadbeacddcaa7ea96bad9df7e9dbaaafcce97daebdb9ffaceafbb7f7bbdbc7689db9
col43:   acdca7c9bcdecbbddbcfba8bff9aac8ceccebdceeb9caaefdfccdcedadddbccfabddcdda77cbadc9
col44:   5b69af867acc9dca9b8ccb9a8e9aecab8fdf9cf9ffc58fecbbad8bbb9dcfedbd9a9ba588cc7e3c9c
col45:   abc8acc79cfddfbcd7cbfcfb6efa9cacdda5b9eeaad8ddcbf7dd6e8e98c7bf8db58e9ebaf779cbbc
col46:   99abb7989eacbcaabdbafcccabaaaa9eccefd79dcaa9bacddbdceeae8c88babaa9aa7f99cb4a9887
col47:   7c57aae9ebcb9adead78cd6edafdfbdbbddbebaeabbc98f9fdede9dbfdcaddadbcceceaab89aadbb
col48:   acddaca7aabbaa9f8cbdb787d9accf8cebbd8eaddbedbcfab8cbbcd9edbed96cb6ce9c999d9fddba
col49:   9d88ebb8edf9cccd9a8b7d9fcbcdcafddff6b8eb9f9cfdebdafcacddaee9cdbaaeafcb89da59d7bc
col50:   d9abdb9ac79b689aa9c6cfdc99ddcbb9fcccc9ffcdbbabfaebafddacd9cb8eacf9a9a8b9c7cd65a9
col51:   9c7979775bb89c9ca8c76cd978b5ccfcffa768a9bb8899dcbaaa8b7aebc899cda5698aaacc5b9874
ROC:	 BPix_BmI_SEC7_LYR2_LDR11F_MOD3_ROC6
col00:   6566769a897367774977a8ca958c4b878a9ac7b99bf7a58ad96d55b997cb8899c6b77978c6954aa6
col01:   a5b9bc95779a987d7ac8ab69aa99a89a98bc9ea98cadcabda9beac7c9be9b8aab98fa96959bbd87a
col02:   76668aac7a977938a46a885f8bddbbbde78c5b8989aea99ae6c7a68bc8c75d7879e67b4778b6be77
col03:   668789a6cc98b889d7a5fd8cd9d986bbbaab7ca9ccdacce9f99abfa4e6bb8c7ccacab9aadbb6e986
col04:   db79948b99c8a76a9ba76ba69b9a47cca8ca8aabc88ea7cbab8aafc7dcbba58ca8a9d7899e9b9cb4
col05:   a8897675b88a745aa9eaa988cb568987699b88cbbc887a5de6a8ba9ba47bbdb8d66a89a6bc6987a6
col06:   9996777fa89c798cc799689caaba5bdbb7a9a7699dc8b999ca9b77dcdc775d878b9da6d99979c654
col07:   777789c5b898a8c87e89a7afcb78e6aac9afc9ad8ce9ad6c8cfa8daa7adc9fcababac99795caa86a
col08:   637779499c596b568946a85ead5c78bd47ba78a8aa879b7dc98d87ad7ac8cd99eea7985fc99847a9
col09:   b69a7a9ba688a83bcbb8ca9e758cefdbac7cbd7a79ab999ac985b7897b9cb9eb9698eb769d9ebab9
col10:   7a4899777b5ca667c67795899ca749ccc3babbbcdaab8bbc8aab89fcdb9a87848d67b8b76da8898b
col11:   7b468ba458b8878c886589acbb9aab8ad77ac9f8acbae9ebfcd7698caa9d89a98b399f868f58c8a3
col12:   78b78c74989a7ba9a1a78ba6c7a69ab78aab969f9a999a9a99dba9b4896a897a667979879b8bbc67
col13:   7974878c9db889a66aa58cabada98c9a4b8aabbcedbbdca9b8aaabdcca99eac6feaaaca6677886b9
col14:   955687b59a7958a95a88aaaf78b9adc8ad9389676d97c8da9aa85a8a7ec7986a7ac6cb76a86879eb
col15:   a8578b5cb86d8d9dbbaa57aa98a9888a89b997acb89c9cfca8eb898acfca6a68da98b465d7aa95d7
col16:   786a898576a88ab84a8be99bf9c9668babcbce99997a8abacda9acb996cdaabaabf99996ac7ab995
col17:   92666766677887aabcba66a7aac8aa9e4c787ea7a69b4d87898796b88d8a7a9bab8a6998a8a8cda5
col18:   7588559da578799898b89b7a9999ca78bb89b7d9d8ba89586759da3be8cab8d689da57a99c8aa9b7
col19:   8374873777798468ac8bb9c53999a567ca98ac7aa6b4b87cacabc6dbca47a8bc8767caae889897e1
col20:   24358d65499ac357bb4a88aae989ca86c97c5c7e9c5b7498999c57abcb999969a9ab9a6c6a69a795
col21:   99a9a887864c8a68bc8a8abb6a98ab8b9cf97879aabc8c9ceab9abbbccaaac79cccac5bcb8daaaaa
col22:   468a7542a26b62a498567a89575c497949957a698cb99e688da83b89db7b49a98c44779a75977d84
col23:   5347974575b6a7599b5baa8889d9abc894a9ab6aa9e959ab56c97c6da8c9a8879a7c969798a64914
col24:   8828b596a6763c87a74674badd999d994a995884a8989bc89aa66bac8889746cb68a68468a864695
col25:   7a6aa4659c7998478647ababb847aaa6ac9ab6abbc95a5ca7e56cdafc7cba9757687bb7d6ba8a6b6
col26:   9a8aa94a7c978ab78ba9cbb8db77ca9c8ca7b4caaaae8ad89b9cbcbb979acb9accbddaabb69b5895
col27:   73a7a4a64986499c9ab38b9c9dd8677879a78baaaaea9fd87d8bdfa88c6d97caab59a67d6a79b8c7
col28:   955585478ba9cb79c67a68aac898c99dea8a5ccbfcbac7bbd698ab69c9b979acbbbc7b8b776dabaa
col29:   b899e85987774a7adbc987a89d8bba98d97a9dbd7c988a7bdcadbcca829ba897cd98756c97ca9b57
col30:   67813ab59d7359b89c8279aba78e99ade6c6ba9bacb8cdb98d98878bebab9aceda9ebb6bb663aa59
col31:   a94776ab97b7ac88768ab69945bb88c8a8dbcaa9cb9cbab7adcd7cbda7cc78ad98cfaebb79cd6b98
col32:   938898986a676b8eb277999dd99a893a87abbd6adc7ccabdce96a7facada68aa99cb7b96ac8457c7
col33:   ba59db8968f9bc99ab7d9abd9c9ca9d96796afcb889efdad9badd7d6e9bb8b9bbb8bcd895d7cbba6
col34:   7788b759a7ba99968db6aa89a8af5799bccc5dddc9ceae6d88b797aeaadb6aee9cabd9c8aa7a8eb9
col35:   68ea78c686aaab5a96a9cbb9d6dca8dbbda9a7dfbc5daf9b9bcccdefbba8cd9d8b79fbedda9a9adb
col36:   9967b86897c855889a59cad47fa97ba69aaadcca9aaaabe7bc9eaec8adccebcbcba97d988b96b57e
col37:   95a95ba8787858c8d9b87dbc9c3b98cadef8aaba97d9f9c8bbeadb8c9dee7ccf9bbb488c6b8ab8b9
col38:   67a6967899b6db88caa767bacdc99d8badfd99abeef9dbcf6b9a5c8baa9bacd8dbbbbc9ddba8ab9a
col39:   99aa8bbca779ad8c73acbbfccab9bcbbcacd9dbdaa6a9a8d86bc98abcdbaead848ad9e8a9dbccbac
col40:   ddc96b957788aab7ada96ca999ab7a9ea9be88d7fda9cc7bad9eb9aadbccda9bc86d8d7bcaabbdbb
col41:   89aa9aa47a79a94b98b8adbaccab86cba99bb9ce8a9dafcd97abd9bcda4cb8dd9bdeb9c94a6dd897
col42:   8bb66a7c5879c623c89586cbbaaa8a996d79c89aadaacbafcebe7aba7c5cab9aac7ebdbbabe895da
col43:   7547a8cc8979bac7a58b7a79bc6a7aebdecf6ea87ab7b9c9ab8babebaaed9cdcab7bb9899cb95998
col44:   677b98b474669878b78fd69c9e7aa79d989d8b8af89acdffc9a8aaaaacaeabbbba8aa979a99dce87
col45:   b97a787aa6bbac6bba9a8b8c8bbb7a2fbbc6a9c8ba987a9bccbb8c8c7cdcbd8bbe8aca8b7ca9b999
col46:   567b43587998cbc8dc7962b5795e78da8a96c9c76acac9f7dbcabbcaa89bed9bba79c89aaa4b8cba
col47:   516b9ab7599d87ac588c8a8cbb99aab7bbccaaf78b7ddd89bba6aaebed9bacebbed56ca9c9bfab85
col48:   9b4899b87447d769a67a59da77acc9a87988ca98598a7878abc78daa7bcca8dcd67bcc88a8b9faaa
col49:   c21799b99787897d796b69a7b9a9cdd5aaaadacaa9d99b9cc8b9adab8b77bff6f89a777a7c887787
col50:   88964ca75167d77d689999c83aa8ed899a9baada99aabbcc4bbb99c7dca8eca8dda7c6d768a96999
col51:   33465775a88897a798877783ba69a78898b8c4d8ba6598b9a19875a9aac37bcab9b7a8a5676a6784
ROC:	 BPix_BmI_SEC7_LYR2_LDR11F_MOD3_ROC7
col00:   4949851648583a3baa7ac6682846d46b66b97555aa8795ba8aba86a67cb97e6c4e69f59937b47a92
col01:   9577672a43a758888a8a77838bad8ba8abddaaaec6d99bb9cd88ec9de778cfbc9d8cdca68a9c5e5b
col02:   54677a6759597952a77d68766b7897cbc6c9aab996a6e78776daeacb9ccbcd8dafc7a9baa589b758
col03:   7456737a9a7895ac666998d7c7886bd8ba5bd999598aada9ca8c9aa99ab7c99c868789aa7a8aaca7
col04:   676725796ac869857b7b9868669caab99c59a79aacba6cebd7abbdaacf8d9e83cccc88898bd69988
col05:   a58759247547a59854cc9ada894a9669bd7b9c98c6e9bbc9987cedc49abdb8bbcb597aac7a969a98
col06:   7589978779867755a6888b6b787a7a6baa5998bc697dd94a8bbb7ab98aacdccda7a78bb5a9ea7566
col07:   85575e6864ad7941566766cacaddbeb8b8bbada7b8acdabbec9dd8bcab7c6bb97a8b9eba9b8aafa5
col08:   446447368747397a9d7986797d99e98b89859f8887678bcc998897acb9eba7bcf78acba6999787c7
col09:   57758b8d677c8b95696699abaa7886e7aba9a63aca8e55cdcc7f8b7cbcdb7d778acbaf9caa9c7a9b
col10:   21697a67675a4b48aaa56578695c87b88dcbebbd6b97aa7ae86bad8aa9b99ba8bdb9bbc7a88c9bc8
col11:   6669597a95ab856cc9a867a8cbf567e8ad9ab7b6c789bdcb7a7b9fb88f8acfe96aa6957d88b8939a
col12:   32a267b9788787c385687a6b7a788a88c8899d9c85998b88aba8a69a9d8a9ceb9ab98648498c9497
col13:   858789b6717a58a88665489dacab8b7e9b9bcaa9adcd5bb9adce8b9dedda7bba89bc79dca9589a96
col14:   8655a7786b987caab867d6a59b8675baa7dc99bc5facb79a85c4dda89aedb88cca6acca99b7ad5c6
col15:   766987569796575964648dbc9c7c9a6b49abdc979ba5aeba748b6a9ca8ada9bca7b9576aa967dab7
col16:   7b4776334a8866839a787a75db9b3aaa9b8c7acc7a8ab999cbef8ceaaaaa99babe888468ab857c46
col17:   9828283a6a4929866986aba59aa98ebda9999b888b8f8b5f7bc894799ebcccc8a79b867e587b7996
col18:   18435645384d97797a5c689c3eac878956878a88d887a966ada9fc4699b79bb9c9786888796a9c94
col19:   537a7a893935498fa58a86de9dacccb99acd97eeb259c45dba96a8cd7c7bddcc97a8c975c9a6a9c7
col20:   6726764857768a88a99878a79b777ad95d897cd5ab89eec6cabcbb9c6a7ca97b87489c8b9ac89866
col21:   55653a96c8a55979e3b9daaa798bb79887caaba89ac96babd74abcaddbabda899c9c97ac9bb97bb9
col22:   486897566941ba4756ead59377b8a776698896aac59d4b798ac39ab9be89b8d7ee96777887657526
col23:   75b63561872a856667748a8c578b8bbe9d8fca68ad99777b86ab95bdc8e97b9a5767e878a88be499
col24:   55262567655686a98637b775ab8c976969d8b8977aa6a8877b99aa8b8ab6b9aca957ac99cb65a685
col25:   858768759a92a456aab8b8b867d9fcbb86d887fa9c89ccc7eaaae9a9da7a98c8c967b9aadb99798a
col26:   44599b948987ababc6587a79b9bc7bbacaa9cef997aafbd8bcaab9887ec9dddecefa9ba5caab7b65
col27:   81774774a66ac988b795b78c8db979c9ae7b97dc9fccfbfcbb595e8cade789b8aa8b898b99ac8689
col28:   b43c2a767a57697a67ab978fab5cbfcaabbdaaca8bd9abbdddab9ab8ba5b8d5dfdaaeb6ca9a89a56
col29:   5aa9a357ba6a8abac9a89a8aba8eba9bfcdac9bece97e9e9d9bcbedac7cddadebedbca999ab7bb89
col30:   978d545a927ab87996dc7aabb8b9bccabeb8fa4b9ebedadca9cecdaeb98c8cbcb78dbaae8aaaadb7
col31:   9a46666b886bb8b6c8ec497bbc8ffcfbcbcbbfeaf8bb8fddaccdb9baebdbdc8a99f9ebbbcfcecbbc
col32:   9ea69c986bc8a76a99a7869cbdc9b8cfb8b9aaadaaabdacccffe9daccdec9abbaac8d9d9e9b8aad7
col33:   8aba8aa7c6a59a7b9a6be8d7fadafb86cea5ae8bb89bbccacca9dca7d9adcbfebcccabb9ccdc9c29
col34:   9568a88989747abc687d7dec8dc8cb9bd9beecbbce7ff8ddde8cefddbceca8cfcbb9aa9469b5abfd
col35:   6a68a79cba8a9779aac94d98a9ac4d9cdacdceef7b9eb9c9acacacf9db8add9de6d7a9eaacbbbbbb
col36:   c7683996367cbc9799a9cb9bdacc9d88ccf9bca6eadac9c9ccbead9ff98da887ecbabf9d8cfeee55
col37:   8957819979678ae9b9aaaaecbaa9fdbbbdaadea9bafdfdeaaa7eed8cceaec7bbaaabbbad99dbbbd9
col38:   6b8b697db8c5aa8b88a98d7bcfebda889ebcc9eacca9bbadbec9b8cdccadab8ccaadaaaca8a8ccd8
col39:   c3a7c8b99a9c9788af8dd99dcf98b8f9a9a9e9cda4d99cd9bdc9acaa9b97a8b99ca99aca9aeaddbe
col40:   b9bcc586a889bc9ada89cb99e9a7cb8ac79a9dcddccebaedb9bcafd9b9ac9a8eba98af97ddb5a7c8
col41:   3b97b4afcbc85cacac7ab9afa9868b8ecced6fcde9cccc8aabd7ddacadbfffdfeeabafbefeaac8d8
col42:   68689baa297caa659ab79a88c6dc79abaccc5c9c786ca8aabefc7dc5dcddaf8bc8b97dbbdca6bdd6
col43:   796caac97cfa7b78ba9fccabcdcdacabfccdeeddadeddcfefbc9babedd8fc9dbda99cbbcefcfcaba
col44:   5d456aa99cbbeb86dabbcc95fa9ba8a6bdbad89cbb7baadde9a9da7edaed9cafdaaba8bd89dd77a7
col45:   896bce7ab78b8c999db9c98deb7becd99b8edbdb99abaaebaddebd99feebdabfdfbddacab79bc9aa
col46:   b878876ba7b79aa99cb9cc6a89bcca8d978bacdd7b78dbf5c89dfbad9f9ecbbeb4baac88dcc9c7d6
col47:   a7ab9cb9899998bbf8cdc8ebecaa6a9c9f9afe99eaafeeccfbddb99fdaccddaeaaccaed9eaeac8ad
col48:   bd7b98cc8ca8babfb88cc979ddbacc9febb7becd8bab76cbecaabcddadcac98b99adcdc7bcc78da8
col49:   84a9cc9babbda88cbabb989cbb9bbcdcaae8db6cafe9dedaefafceafdbbccbe9ed8a9becc878a9e8
col50:   99b785da975cad9ccbcdd7963cab58d9cbdc9d8fc99b9caadeddacac8fac9cacccdbcecdb997ecaa
col51:   97cb96a87c4b6cb33d7a4ecaa56d3eb9cefadda5eabbcfeabf996aa7c79ba7995ba7787d87de8864
ROC:	 BPix_BmI_SEC7_LYR2_LDR11F_MOD3_ROC8
col00:   5355686355958b5695558478797ba98b977586b5538869497898a7a979698a57a5495988536b94a8
col01:   66979592a988976687aa879ca7986aa89cbab99b767aa72ac79c7a9aa9779a79a77c6a99a978aaa8
col02:   547444876876779a97798978bd7a888989a7c9ac7a5888da8977bb87a58aa9aa7baecabc947784a6
col03:   9777899a9a58488766bca7689abdbb8b8ad99a85accbac7999a777aa9b967aa9b9a99bac66878bb8
col04:   295a88b9a268b8b678889569f978a9a88da89bb99aaa89a788aa7575a856b9b5a758d888ba999977
col05:   27558537b688a57c59a584cb8a797bd8aba7bab78788786b8cc6b89b9c79c79eaba7ba7a686696a9
col06:   71986a479888737a5a8a9ac98aa69aa798aa897969a8889b9aa9dda8b89b67896aabaac399b6a6ba
col07:   981a897597984bb899a89b785bbabb6ba69bdb8da9ac7ca98abc9c99c75687ab97cc9a6caa89ac7b
col08:   787768ab59a8a948bca77879987694b89989c799b6cde989a989ab7979886d88bbc8c8a898989759
col09:   59859975c56b9978c9997a99b96b8848cbacc88999c898b4aab9aa5aa58a7bbaa79cc9bc7898acb9
col10:   877556754b89b67a7658776b7bc4b9be886a6a877cbba8a9b768ba98c89a8c9b9ac789b9988a7a99
col11:   7778b86b858a77a668c99d89ab98aa8ba7889abae9a859b968799da98caa98a9ad999b9b876b8ba7
col12:   b985976a7787a6695885a579b7895a748b97ab968ba7958a6a98648ba8a99ca9b68976869989a987
col13:   5564ac87baa9968bbcacdc8899a4be9ac5bda99aec9de6a97b897ccfa7ac7eb9aaa899a9ab8ac8a9
col14:   86699866a598b7c99bc78aaab97aab8d8a8ab97a89a5aa5ac9ab7d7799b8b798a8caa8aba8a3c5a7
col15:   4596a7ca5ab8a9c998b6778897dca7bacff7d9d9a79686bb96c979abb77b89b8c87a97679867a598
col16:   767a6885566589c484579b89b8c9b89cdbd958b89b7988a69768abb5968adc8b9898b9998b8d8796
col17:   4a98756ba9a878987c8a96b9a98cc97899aab6b75a8bb95a9a5a948b8a5ac8c9a57b699a9c889a98
col18:   796a79a5b789c98776a88679b996ca7b879a6aa79896aa6c892a9aca8893a78986a8978696b68697
col19:   8a8986aa8579777574a689999c8cadcbba8dacb96caba7aaababaa99ca99cbb9babbb9698898ac86
col20:   84398bb879aab9a896668ca679c9ba99b76d88ca768586aa88e9a7cab9aba9ac97787a8757a7796a
col21:   75a9a6b69579c777d897889be2bacdaa6bba657896a5898dbab98c8ab6bdc6ac9a8bc8c7a9699a8b
col22:   94668768789aa979469c99798daabca79c8cb7b79a876acb89ab67aba699cc78796bbaa589b96998
col23:   4569b69a867899a979c9bab797bbc6b897bb95bb9968b989b87978c6778be8aabb8abb5b6986a99a
col24:   76677687877869896a8888b87a98b9798646a7b679e8dc7c878eb5a9aaa9a4b89a799999a9b97987
col25:   75574caa9775c7a7a975d668abbcacada89ab9e8c949c56ad8b5ab9b9b7999a9ab76aba42b979bba
col26:   7b87a8bc7778b89a7b9aacbdcdbd9b899d9dbab445b7acb99dcb968cf8dc9c878acaa7acb8cb8a7a
col27:   4aa8557e9cc8ab87aa8b9abcdbbfaa8ca8a79bbc7a9adaacbb6c99bac88bbaa9ababaacb99cbe9d7
col28:   b885a976e7a987ac9bc9bc7cbca8dc9ccacbbba9e99b9b9cca9aaabacab8b9bdccb9ca8cabaacc9a
col29:   aa9aa99b95b9887a9999bfcbabaae8b7abbcbddedcdb9a999cfc9accbb7dadb9a99adb86fded8aba
col30:   9788b6aaceaaa9cc6cac9bdbbce7c9c8cabaaaeaca8b9bdbaeaa979cab9d9baac8ceaa67bfaaccab
col31:   7a8bb89b99a99a99caa7cbdceecf9daedffc7dbbd9baeb9ac8dd8acccbdead8dcbbcaaeb9e89cab7
col32:   88b7a958bbab8a6baaf9a9cacbc67ab99cabaddacdcabcadededb9aad9c8babc9fda9bd6bccec78a
col33:   99aacad99c9b98baba98db8acceabbabbdeb9b7ddacbbaababde9baedd8cc9dbdbc7bb77ac8aafa9
col34:   cabab8896bd9bbe9bab9bd99afadfabbdcdadcfbbd8ccb99ebdd99bda8cbdacdeabf9c98deb9acaa
col35:   8c8a989599b9db7cbe9c7aa7ddbdaeecceddcd9aeab8ebcc8afbf8eed9ef8ddcceddbbb7adabcda6
col36:   ccc86568ea89ddb8eb9cdadadebfdacbccba9bb7b95deebae8abcbcdc9b8db98ebac8cb9cca4da9c
col37:   8b6898bbbccbb9897cbbdddcb8cadbcb9cdbaceacafed9fbdecdfdcaabecfb8cccca9bcfbdccc99c
col38:   7886a99d89a9dbddbbbafbbbcabedcceba8bbd6eaaeacecdcaadd9c9bdc9cecbdefbbc8cabcfc8ac
col39:   77b777cbd9c9ccba8aea6ccaac9d99bbbcddfca9da8afb99dbace99befdeabdadb8bf99bdbc8ccaa
col40:   95978aa89bb6bcbbbabdbbb9b8aecccbeffbfbc9e8cab99bebfeebeccecb8dccbace9bfaebcfacbb
col41:   a9d7ac8ec9ababcbabcfabdacceacbcbda8bcefdbbacfabceee7cdecdbdfae9dfccddcecacfebca9
col42:   89baab9bcbbaacc8aa97ec9aabbebdbeb9dcaaa9cafbcabcfaabecdafaacddddb8ba9aad79ddddda
col43:   aaaab8ddddadae9adbbbccbaedf89fbcaafcffebcbcc8eecabfac8bdccfbbfdfdccce8ecfad9fbcb
col44:   9b99eca98abe8b99bbd6a9ceaaab9baf8feddcbdeeedcbddacdababfbdaeaebdc8ddeaadfc9ddcfa
col45:   9e95d68a8979c459cc9ea99dfccab9ccdccf9eacdc9ddce9dbcafbd6feebabacacddcdcaddecadea
col46:   caa9bba8a779abcabe99adddeccecfaabbecceecbdacebdebcdcfeddcbecddfcbcbac99e9baab8ce
col47:   c97ab9bcaaf7bbac89d88abeba99bcbbdeaacbacdbdc9afbda9eadcaaecdbddcbdeacbebdcedeecc
col48:   97a968a9cdbcba9b99b8dc6cff9daeacbffbddbcebafddfeeabafae9ecc9e7fdbddddecdbaba7a98
col49:   69a8d88988bdfdcceaaabefcbbceddfdcebebaffdcffdadecfbbffaccdbfceddfbdfddeff99cddff
col50:   77c9b7bba9ca6bbb9bacbccaea9cdefefba9d9dcbeecebccfdacf9ccfbc5cedbbcfdecacbcdfc7cd
col51:   59a68b9c9b9ba6dcaadac9cceaabbcd9dbda9b98adcbdf9cc8dfcbabbbdca8fdd9caacb9ed8cfcc9
ROC:	 BPix_BmI_SEC7_LYR2_LDR11F_MOD3_ROC9
col00:   352656669155355968976784787768496985a85899975588c67687657877646459534393a6875681
col01:   784899976a59948c869aa989788baa889685789bfa9a799bbbccab9bc8cd9a789a9337685b775966
col02:   356757685565896c8745dab878799aa5a8ba8a82b7b99a7996c78788a96768a578686a6488bab787
col03:   86484734778867a6a6a888757868a88a976cc9ab89caaaccd98b998aa7894449ba535b6a99889877
col04:   754886866595848586855985aa9979a8a978accc67765a87b97ba59abaaa999869749b6766c63765
col05:   6876556877828973a87a9878ba997a8987a8ba7a78a7d7d9786aa798878ba9597866987464955365
col06:   a84889886815b88577666a8686c649c8aa78b888968996a8cb99589a986a88887a59688b78a65a99
col07:   a98496786b68a7698969769ba959aa889bba89999b6d9b7879dcd98997a6a97a87d99989a59b87ba
col08:   976892889566897a729779a7889b98b5b949acb97c9699da7a7948b88b65b6e677aa9a5768999a49
col09:   5483766876895898a6998ba8888aa9ca5c68cb9b8aad99c8a986899887ba55797a8daabb9a97ab57
col10:   5a54476887596878a4aab94849579c997999a79a8998c689caa68b87989558787c3876c857899678
col11:   59778578646497759bb45c7989a6caa8789887ac8879cb788badada9689a8a788589858965c34d88
col12:   75657885557446a8b769aa99648b785aab9999abca9889b99869a4adb889c659c7b89655a59b7777
col13:   79577669a8e888889caa8aaa8d687b5958daa87aaab89bb987caab8aba9a9a78b89aca9a67cb7a5a
col14:   63687356458b9558a985787bd7566a888788abc6adb99aaa89a9a9bcb69a8abaaa8bb6b98899877a
col15:   974b76569a5195598b5b99db9a9a9abc9d88bd8ca99cd889eaac799d8aa798bb9bba4987ba699877
col16:   5562255aa8877858445789a89a77a5b9869c45859b897ab97baa8aab7a7a698c9a997887967b978a
col17:   593883867866777797b88a697987b58ca7b8955aabaa9ec899a9aab95b89bb879c59687875957995
col18:   5878594552697a686957b5b79ab87aa79cabacaa9a87699cabb8879aa8667bb6889983b7a7a7888a
col19:   698695899688596a7ea98b6aac9cbc9c97a99bb7fabcd57a9b765c7896899ab9b69ba858668b7b85
col20:   4485936b69a5a9a67ba99897bbcbbc9999a9b987aa7877bbcaae88c8c884c9c9b98c9a95b8579966
col21:   13877597a46765ba7b69979d69a7a9ac6b98d898ab5aa89ddb788be94aaab9a6aa989995a9698987
col22:   768656847a768589887aa768ab96ca7b89999aad8c978adbb8cb7967b97698b9b96baa88ac75a593
col23:   556558457388b95748888ba6d48b8a99a9abc9aa7adacbc8969ac9b8ebbac579c89ab76ba7764666
col24:   853683988739597ba87af88a7a889bbb9c9898a9cab79b9a88b9999bb88578ab996a8cb6a79a6766
col25:   85b9b7569a57998a9999a9c98ac99cb89dfbb8bba8ba7b99a9e8ebabdb9df8899bbb88bb96a8c9a6
col26:   5aaba79969767a97a69ebbcabb6dc8cccedbaaa8cdbcdbcdb8f9779cee98c9b7cbab89c769568775
col27:   88979c5699aab9ab96dabbaab9da76ccc99ebcab9caa78ddb96bbbccbbbcabb99997779aa8a9bc98
col28:   8c67b6b89be8db99bb9b7acdb9a9bcddcbcabcfcdbddcdcbc998cccc9cbabcba8dbadc99d97ba68a
col29:   9a8898b9c696a9899da9bbdefbba7ccdefcbabda8cbacbb9bd9c97cb8cdd99ca9cc98f99a88978c6
col30:   c95aa9ba99999bc788ac9a88add7a9bcdadaaccebad9febbdbfae9d8cac9d9ddac8bcabbbb6d785b
col31:   8d87aac7aacb99ccabfd9abaafacde9fdfcacec6ddcca9c8dfba8cecd7fadec9cdcd9dabbcb9a7eb
col32:   b79a8a888bb7c5aadcbcb8d8bbbf9fadecd8be99cbcbbcfadacbfcfddeafcbcf7cceb99cdcabe8c8
col33:   a737bbbb99ab7cadc6cd9bcaf8ce9f8addaba6e9bedaacecddcaacd9eabcc96e9caaed9cbbed9959
col34:   b9899ccbb88cbedccfbc9899ecababbbbdcfbcccefcddf8dbbacfedbcbdcccbbccc8a6cc4aea8a67
col35:   79b8bacaaea8ca7bb9cddcabcacebbadc9ccdcddebebc9cdacbdfddd9ddac98cebb8d8bcad6bb86b
col36:   96cab9b999acba999eba7ccbbcb9e9bcceeeacdacfdfbfc9accdedbabbcaccdafdac9c9cbdccaca7
col37:   9b8bcb8ddb9cacadacaddfddcf9ecfbbcccbc9ddeecbadd9cdbbbbcdef6dfccacebac8ebbdb97889
col38:   a8baf9989aa89cd9a9df9bfcddbcfab8aebcefbbadbe8dfdea7adfcbbf9abeabac9daf6d7bbb9ccb
col39:   99ab8cbdca8e9b8bb9acdeccbbbcbbed9dedaadbcadcd8cdbcdbbbcdddcadbabaaeade6bba9ae8a8
col40:   abeba8a8b9bbc9abababaceebdacfdfdbabdcfdeecdddaccfbccacabedbaccf8a98d9ca9abd7d9a7
col41:   fcb89e89bbdab8cabebcfcbcbbafadbbffdeb8ccecaaccfb887bbfaadcc9bdbbdbdaec6cddacca9c
col42:   9dcae9ac8caaecb8cecba899caa9dfeaeecccdaabbddbdeadcaaabbcbacb97acdd8cabbfabcb9986
col43:   cbeeedbba8adcecceec8cc9cfcdadddeddffebeaae9f9afdecbdbbad9ecc8c9adebcbaca99cbbc7d
col44:   799ba9ba7dbfbafb7cecbdfdcaedddcaddc9cfcdddbbcbdecaedfbbfbaaddbd9a689a9dcbd9bf988
col45:   e9c599adaa6b8aaaaaad9be8ebc9deaccecf9bceecc9bdb7ecceab9bccdcdce8cd9aecccad8db8ab
col46:   c99ce5a9dccfccaddcafcccbeecdddeaeebdcafdccacdeccdcdccdb89dfb9dbb8eabcb897eb8bdd7
col47:   8aacb9babe8acb87ccfca8cebeabfcfcbceafeb9ecdfcceeb8acd9ccdfdfce9fcda89dcebeb9cd7b
col48:   accdbdc9ebdac8adb9ccbf9bfc9ee9bcfaceacedeecdccaa9b9acdbefbdc9ddfccdebc8bbded98ab
col49:   ddacadcbaadaaacffbeb99ace8feecbf9dbdedcacfebbeaadb8bcbdbcfcddb9dcd9acba8c8aaaaca
col50:   d98bbabdcef98cc8cbb8f9fd9ac9b9deafddbcfdadedaffd9ccde7f9bfabdbbedccbdcca86c6acb6
col51:   88dcaba989a5bba9ddab95bdcd9cf9badbbad9dee9ddbae9ccddaaacd9ebaa9ae99abbca9469cb82
ROC:	 BPix_BmI_SEC7_LYR2_LDR11F_MOD3_ROC10
col00:   327795587178878667756b959677596444557a688887886489675543765358569454774678784764
col01:   97496a875767b98994a59aa675699aa7bb9997794aa6969766a889788c77998bb793c57876788863
col02:   6774679895777a785666784d579d7969a489999998b5597888647c69781a39876468548595589477
col03:   5693a9769d76b6877c489a925a899697a75c68d79e8c9699a97a479967b77b75558796348b879886
col04:   66a6a869a7795a7c59694b587787a8877ba9aa86b998aa66866b779678ca9688b456878766d65a49
col05:   9383757c47a787a886b78667867767b88c899467cba647989b17a8799995997789577b8a76487848
col06:   1c659695966966a1bb559759887c9d6997677597967b79874498c56a7a8985998378975297762696
col07:   78759846886998399788997768687b89479aa48899978a8baa8468977a877a8a957596cb584796a5
col08:   6883b6a8a567a65a8858568675c8466988c87a76a865879654795bc9795975768b85a8a4a8a7b864
col09:   557748697883a889b876b972968aa9778979976a99c988d997675ccad85778558cb7858847446676
col10:   4664857765797469988b7a487878d7a7a899cba8a585a897a789c75c98b869c87768d86a96a87775
col11:   97675486884596527799b9ad87a69a79c89579a86ab898467b9aa688a8a5884a46876a6759786aa7
col12:   49775677899669a87bb58978ab8cc7aae67ace957786785a77ac97a9b895646767aa544893483c77
col13:   99769a76a6b757a9a659588cb7a88b9ada98baa89b6aaca89b9b98858a745786c667b69786586c9a
col14:   6464497b5666a9676539b679799cab5a8a7897a8cbd678979579767c88b376aa89a588799b6c8686
col15:   8563a454279789b8a8867865a9597889a9c66ac9a997a9bd4a7866caa9a986d69777687689668466
col16:   a6565564768a84a777b68b99a89aadc8969a899ea9a7a758b5c9bbaa4898685836b9b798a58777a1
col17:   7395b667a8488aa8bda77888a798ba9db97785a8a88a87979b8ba88ba79889a9d7998686b696b8c7
col18:   7877787a9d969c5879a574b69b58aaa69a8cb958a899a8848a9b988788576a56969b87775475b758
col19:   773987c7a6ccc8aa88b8a89b5aa9b789c889869a979a58aadabac69b49a898889389bbb87cbba998
col20:   8a7966878675bb84a7d8987a589a99abe89678a5678b9b947b68d6a97a9688b957ab96996b88aaaa
col21:   754869789889d8a8a89a876a6a9a898a8a88959989d9a89987a9a98aa7ab89a9657b85897cad9589
col22:   579848987aa8ca89998a79ab8aca86cacda38d8d9896aa29d5a8a98865c8a99ac4ca4893a3596656
col23:   5737969a6d9988b986ca8c9abb869ccb67a7e8ce8cca8bd7aaab57a8ba77887699bee68985769ca9
col24:   96837ab999b5a74d89d884a98aa9a8a7a99a888a75a962967a7aa99667a9847949a84898887a46b8
col25:   a5aac99b98aaab7c89cca7bc9acceb9d97dfbbc8dab99cad8adcaa7bb9e988aa8b88a875b8d88b7c
col26:   7a97978ba4bca9b6cb98879c8ea6aeadcd597bac59cbc26af7dbca8cabcb7a8d6ad99ca69b88a699
col27:   88a99caaabdc78a9dac9a79ab87ab7a988c99dd9a9b8abb7cabbc98dc988ab97986baa9db87b8bca
col28:   69ba8a99baaa8b9cbaafabb79ade77caa9babafbe8bcac9c9cadae7bda7b9a7bf7e898b9ba9b8ab7
col29:   988c8a7c49d8b88fbcb9c9cc79cbbd7b98d98bbd9da8ecbbb9cb9c797acae9abbc6987a9ba9a89a7
col30:   ab7799dea8b8bc9a6b9aca9a9bcabaacb8cdbdbb6cebcdabe9beb9dbdaa6aab9a9ad7d67b7aa8bb5
col31:   c699daec69bd9cbba89be8ad9becccbacbfb9cbdb7bdbbacccbabae68b89abb986ccc8b9bbabd9ca
col32:   88a9a6b7d89cc9fda97cb88becc7ca8adacbcbfbc7cbcbcaababbbd8c9bb5b9bb6a8baa9aa9b9c9b
col33:   7aaa98abb6dbd9b5ba79cc9dbacbdedfb6abe88dca6cfabb8c9dabcba8fd8acbae89cafab7ddab79
col34:   8cc7eadda89b7a8a78ad97cac9e8bbbccfbcba5cbc9abc7c9ccfadcdafdcaba89bb99cc899b98bb8
col35:   a8bcbaa9aaec8a9aaab88bbfcb9bddfdcadbdd6deb6dbdf8feebbface9daa6b98f9f89bb8cb9bba9
col36:   9c86a4cb9afbb8cbcacac99c97bb9ddfdcfadebe8ddcbbbddeeabab9ba9a9d8cbdedacca69bcb9da
col37:   99889bcdaccb7cdbbadaca8cddfdbccfdddfffddf8fecdbd9bddbfed79aab8bd9cab9bcbdeb89eb9
col38:   aaeb978ceacadb8caacaccdbdaac9dddbbfdcce97dec8decdfbacdbebfc9cbbb9ccecfb9cab9d9c9
col39:   dbc7c9c99ce7abd96cccbccb8ceccfbbdfebecddacbcbdcbaecdef9ccbaadf99a8c9bbacd7d87957
col40:   8b9aaaa9abaaabc9cc99a8fadccbccdfadccbbacbadaa7c8b8bbc8cc8f9bedcc98bceedeaba6bca6
col41:   ad9cbbacf9fcddfce9ccabedfedeecfee9faddcee9dac9bb9aa8cceab8ad7cdbf98d9cdaaeeec999
col42:   b7dbd9ef8cdc99abad9efceb9abdddb9cedbecbfcbefde9bb8dbddcb9ca9babb9ab8c99bbeecdcca
col43:   b799dccbd9fedfadcbfdcffddefcdfbfceabd9d7eafcacefbebabeeadb9abbcccbadadfcbccbdca7
col44:   98a7bc9d8dbeee7cbbbceccfcddecddffcdedddcda9e9dcbffbedbaaddc9cfaa9abfccaaacfb88d5
col45:   8abaa9cafba8ccdeec7dfeacebfacedfcebcebdeefbeeecac9bbaabaeb8fbcbc8bf9ac8b8dbcd99a
col46:   9ccaaae98cbdbdab9ecefdebbdaeddeedbce9dd8fbbbbcdcf8accbf8fcccbabcbccec9ceabadabca
col47:   99caedba89abadfeddeceffadedcadcfeecddebcccdcccfdefdbedddeaceeccbc8cdf9abbbdfdcda
col48:   d9b99bb7abebcebbd99bae9ff9dcf9bdc9cfda9d8ac8bcadaccceaccaddddeeaabcadac9dd8dadd9
col49:   79cadeaae8ccc8befcbbbcbcddefedbd9ebdebbbead9dabb899decf9e9abc9cc9ddbecdd9e9cb7a9
col50:   d99abba7dddcccbebbcdeecdddbedfdfaaebecbcfeddd9c9dfccca8cbeeaebbcffbddbbccedfe86b
col51:   9779a7caba9ccbaadacacbb9dac7bbcd95dcbcb8a8a8cb899cdba78fbdcfdcda7ddcb8e9b8b99c99
ROC:	 BPix_BmI_SEC7_LYR2_LDR11F_MOD3_ROC11
col00:   7446a563688ba4a848a9449977772785969a8b5338584a489b5728546999986796867469c885c861
col01:   a776876b69775ca8b68aab98ad9a6b7a869985796767989d9c886898aa799b7a69a9998899679b59
col02:   9585354bbb7799466ba8a7887395ca6ca9967a97c78cb58baf88a9a78bd85b9a7a8b8a87973a8897
col03:   738b785a87a64477778acb798b79b789d8bab9fb898bbb789a9a857a479a767a8975adc596667874
col04:   55648349a68492ba79987739895b995c886687bb8acd2a6b7959d7a98bd996a97b998aa87cab87a4
col05:   98985798874b8937a8958498999937dbba7b8cb9c9ca8ab9879dabebad8a38988bc87c9a8b8798a6
col06:   87757c58643b88c98938c695ab9969a8a877878bba987b9b8887d78aacabac567b979c4c884a4744
col07:   9879968ab869a8b89a6999b9bfdaadb9dab8bacbadc6a89b797ac497bd56abd8ad6b7a899976a7b3
col08:   4586875a3888b575598ab769b8baba689c99a89e87daa998aa86cb88ba7accba996989aaa8776b88
col09:   85a45997498b776799bbaaac7cdc78acaadac9daa69adbadcb99b8b9b789ac8c9b584a88b8a98899
col10:   792b9484594c95583c6d9957886698ac88c9ba6bb9ba99bd97dab9ba775a8c777ca958998bab3888
col11:   7527748897899d8a88b9cab79986b879b9a9bbc2bbaa7bcbd69a7e7a8a687997769fb996a7cab79c
col12:   29776b23658a8a87aa9946a898b87978aa98fad889dcbbaa9b899c6aa846c97a68889b5a99877a66
col13:   6977772ba76c9e9588988798ad7968ac9ca6e6dcbdbeb678e9abafc9da8b9aa887da967797a96998
col14:   65769517a967aa8798a29bcabdb8bc8baaebbb6bab85b7a8a6cadaddab7c997b999d78c89ac66a68
col15:   a5788bb5637a9cbbb998a7b97987ad9ae8b89f89d89cca5977a98ac8b966ad7b7a97bb997aaac7a8
col16:   3988a7b994aa79d886b486ba8e78aadd9759c9b687579badabc9ad6c69899a89869aba9c87869387
col17:   75877aeac67957d8777b6caaeac8b7c9bd58a99a763ea9d879866179acbca99b77ac78a796b8b667
col18:   58a99736688859765a297ab8985b7c9b987aa98967b7a7aab94aad9b8b8ada8ca6de98ac97886987
col19:   754a8a696988778897b9c978cbd9acc8acd9c8bca869ccabfca8799fbbca998aec97836798cc65a6
col20:   69587aa5988987748822a787caaa79a877abb8d7d7a8dd74bdababaa95a8ccbabb9758aba838aa5a
col21:   55a49797547b6c8ba7797aaa6a8c87c7ebd8cba6af9aab997bcacbca98aaba88a9caa98dbbb7acda
col22:   6888b96284a7a94a678bbd6e7e9ba77b8a9ca9bdaa9ca8eb8784a7c8bdaada9ba995797597eab8b6
col23:   9ba7654b9773c48aaa67bbb9bbeb97aa98868a9b9bc577acbcdcac577a6a8aa87ba8a9878edca539
col24:   a82779a6b76a535777bb74b95a9f59bceecaab9789b999aaab9678aaddac87c7cb99aa4aa9a69886
col25:   2969a796799686896ab8799ebca7ce78a9abfbadba69cbbcb899ab8cbc7eaca6cd778a6c68988aab
col26:   97c998c96899a5ec6ab9d9b9999cbccdbd7cabdbbe66dabcd9ccab9a9ab9ba8dcdb8ecbb9c78dab6
col27:   a767a8cb9bcb76a9978a9d89bcaaecabea9ea9caa89bf8fcbbeccc6aba9cabaceabdbebcad86ad93
col28:   8659966dac3cc788b9ad6bccbdcd8cab9aedcaadade9ac99fdbccae8abdbadbddb5f87b78995a577
col29:   8c8b3bdbcb88c788b87daabdbf8af9aa7b9ddbebda8cca8cac9d9dfdd7b9dcaaaac9aa8bb868aba8
col30:   9bbae86cbd9997b7acc7bd698cfcb8aac9cdeaefbb68dcbbdbc6cc8eabbaccd979c8e87d8bd9998b
col31:   6a65b9cbab7b889b786ab7cde7ccddd8fddbfcbacceacad8bfc9adddafcacddaadd98cbaaa84baae
col32:   ab99a8a56b97cb8aba9aaadbeedde9e9aceba7d9c9fddbe7bdcbdfe97bdbfbcabbabba9bbc9968bd
col33:   9a76bb79c86bbbacb98bcbcb9bafc9abea9ffcccfba9dcccbaffcda8c8bcafcceab8cbbbcccf9999
col34:   6867c98aacbcc7dabab8cbabadda9cdebaeea7cbacaaeedeadadec8bbb9da68cfcb98beb8eac9fa8
col35:   9bcb9aba9b5ac63abdbccbcca4c9dbcf9beade7d9ebfbcbbdbb9cacdae8ccadedbdcadba8ddba97b
col36:   7798c9abd79996c8bbd9a8a8cbfcbabfbe99acbafaf8c9adeccbbbebec7dbb8abea8dcf9b4b7dadb
col37:   7c8a8b7abcbdceceec7d97dcbd8bbebdcfcd9accbbebc8bdeabcbedbcbcea8f8cbacadcbce8aeacb
col38:   aeda6c998c97eaad5c9ba8ac8bdcdcfcddaddebbbba8dedcdd7eccd9bcdbbccacaacceef8bbd88aa
col39:   69b6bc7ab89859abcab66ed9d9c9fb9ccacb77cd9a9ddffcdb8ccaaebecfcdba9bbcadfabadb9eda
col40:   aa7ad9eb9aae99a9acb4cd8aead7c8edcadeccbabcb9ddbaad9fea8bfefcdbedbced5afb8dbadcab
col41:   bbbcadabfaabadc9ccca9af8efdcf8abbbcedafbdbfafadfbbdddceffdcedfdaecaaecbbccaa8bab
col42:   69c86a98caac9d99b9ba9bcddab9bcffdbfbcebdbad9ecceeeecbeacbadd9eac8cfb9dbbdb7a89db
col43:   bccbcea99bdd96abaca8b9ad99cbdeccfaedccfdfeaadbfceaaacedfffecabffd8dcdcaaf9cadaa8
col44:   b8aacadc7a9e9bfb7abfadbd8cacefda7acef9effc9cadd9cdccdecfcccedebbc98fdbbf99bfbbb8
col45:   b6aaaaa9b8bbbbdd9acebcdccecfcbffefcafceacacdacdcedbeccfe9cfbbbacadbeffa9efbbca9d
col46:   a9f9accba9cad9d9caabccebfeaecdedcbfcdddfedfbdba8cbcd8badefb99bbbaecd7cbc99cb779a
col47:   d6aeadbbacbdf9a97abb6aacc9abb99cbcfdd9ccb9cecbffceadde9c8bffcbadbddeddffecd8dbc8
col48:   cd8aceca8ac8cadaba9abb8cecafffecbaefbdcbcaadedacda9b99fbbdfffabcbefccaabdbab7a98
col49:   9baabb9fc98befbdd9babbdbdcfb9d9bfbeedcffdafbbb8daefeadecc9bfba8adcdcde9abdbdcab7
col50:   bbb7db8dddc7cea9a9cfbaa9cdecfefedbafaaefcffafb9baba8af9edcdccbdecddbd9d9b7abba9b
col51:   97ab898865abad899bc8998cbcab8a5889dd9a9affb7c9abedaadaedd9a7db7bc9b89bb97b686bcb
ROC:	 BPix_BmI_SEC7_LYR2_LDR11F_MOD3_ROC12
col00:   27445756c86c888b236ba5a35f88975896a9679a5139968bb8a8a797c266899448469c76d4857664
col01:   676954847adc987755d8785b76ba586999ca889c6b8899798ddaab5ba7588d8849997b35955a6757
col02:   66a735b847b98d86578b4996a97688799da658a686a9aab99ab9877b68c9c8977b884ca6baa87b75
col03:   a5b937b4aa5699ab98a9d5ccba95969a8843857b99b3a78cbc985377c8a9ba69798ca5c996c99989
col04:   5dab496b897ba798a89778c98786987869ecb9c86ca76dd9c8b975a8c98b9a887a7966c7a8d8a675
col05:   7657768b388cab63ab998da8ba999fa886b6d9fa8ab7be8b7ba88debb59aaa7a967797d89b657b58
col06:   959776b97a388aad7888bb8a2888b6b76747b99b8989a59ded8865999adc7a7cb4c7b7749a874b77
col07:   3697a39aa4878b9b8bb96accb874a88d7ca55d8dba778ac6f96878a9c63e5b7699389cc88988b98b
col08:   98552676a57aa659895ca8689867a8d89ca59a769dadc896a9caab8b89b7b9a67987b9ac4977695a
col09:   6369595b7a8966997a989a6e8bb8c8a8da9ea8ab79aed7bc9cddacacac4ccdc5bb9a84d78dc8999c
col10:   aa2957a57a4a97b52cc8d574a89dbcea87dc4cb99979ccad98ab997a9d7bebb69a7793a79a857ac5
col11:   8c8777b89978d9c8b9a8599cc88ca8b69e7d78ecbbd8adabe98d88d7bbbcaa9b69974868487cb887
col12:   a5787768588a796a6d87978b77955b984888988999bcbb68bda7bb489bb88669ac98a9aaa95a97a6
col13:   268b669a458c98c95999ca7d7a944a6b8baa7c89978e8b88b89c37bcded8a9497d48668986b87988
col14:   66ba468339b86889b97498ca49937eca77c8e9aadac9daa69ca6787bc998aab8cc8475aea77ac759
col15:   ac5866b868b9759856b6774a98aa9f7c7acb99b9c989bae96b78ba8c9b9abaaab6c789ba9a889479
col16:   bb54a79799b8a99a596a76ba9dc748faa9d9a9b8e99a7b8efada9878b9ba8759b97a7a8969a69839
col17:   48955887a688988c7ba9b98c8ea969b8b9b7aa8a79ad6bfac95da8fa8bb6a9f75a8aa86c668a6766
col18:   987a778cd97cb99aa5749786978ab88955aa887bacbe7d9999b79da5a74c9a2869589775a94a9968
col19:   6da76879787ba6c7cbaa9ba9e78dc9ba9b8e95cb99679ba9b7bcb5bafb9fa988988b967bc8765aa4
col20:   74345d967755ac9acbaa9677d7da686aaa9bd7caa7da79b79dba8bc889b99b8aa8ab5abc9958a97d
col21:   7779c9a4ab68a878abc98a8b8cb99abacb83baaabf8a9cb7898b95da99ae6b969d988a8aa8576b68
col22:   a787847988589797abaa926d9b68ad8a9a6a7b9aaa899c98a58abbd779578777c7494798b9a9a836
col23:   5756666698994a989e8659c58daa88abbb67e69a8b6974b8bc6adba9a88bb9938d8a465aa56595a3
col24:   95ca5848955b7987a9a678498b875aa456958bd7dcbaba797b3a87ca896b79997a799ac487699659
col25:   79baa69678caa6a97878a9cacb8bdce8aae77ccbbc99a77cdcbd9689faa99557d8398a7744a95897
col26:   a9986a79cc858c68beddc69abc9cd77899baaca8bfd7b6b9ad99ab8bcaabba99cb95a8bcea9556a9
col27:   a9898a9db9a6dbc8dc6baaba9abcc9b898badcbbabb9cced969bad98dcb9a96b9a86c76d9c979a79
col28:   7c5cc87b6d8baab8ab9dbb8acb989cbe79cdecbcda8c8799abc9d9aafefed9cce8aab9b97ed745d7
col29:   adc866c56ba8cacb4bacaababfcbb6dd7cbcc99cc8669abab6899b8caaaca8beb8af8a89988c8a74
col30:   ccbb8c88fd6bcb8b7ac7caebbab99dfd9abbb9aa687fa7ae97cbdb99d8ebdc5a8ccc96ac6dd9ab88
col31:   798a77d5bb68beb9e99dafb9fbcaecdcd8becda7ad9cbbdb7dcba8c9a6ecbaa9eb99c6ba9c6abac6
col32:   c96a8896eab9aacbbbeaafaaecaae7bcaccdbb9becce97b9b9ba99c7b85acda9d9bea9a97ac8c9aa
col33:   babae8bd879d69cfcbbc6ccdfeadfcbb9eeddecabddf9bc9aaf89f4be9ce8bbaabcebdacac9dfa89
col34:   dc7ca9aaaadd77a4c978c7a9bfdacdbcc9fa9bd7baaeeaddfe7bbbca9acb369bbc9abae985bbaba9
col35:   aabba8999dac9bd9fbdfa7b8bbcbbc7eeddebfe6daedcc9caa9acadcd9cddfaba79cdbcfab9a6a96
col36:   7cac7acbb9d5fdeba96aff9adeeaa9b6e8bccc9afdcaccedadcfafb8cfbea9dc89b7b8995b5a799a
col37:   bbbbde967a9ff7bbeaf9abf8d9aedbbdd8cedaceacceba9c9ca9dbbd79dbacec9a766a99bbb69ca6
col38:   aab78bbbdfbeacedba97d8aae66ccadbbeefefdcdeeecafeaabfdfe8cedce9bfacb9fea9888e6ab9
col39:   baacbaddabbcdcdcdec5caaecdc9edbe9bbfaadbbcbadbc6c9bf8dddbcedaa7bdf7aaedaa6e99b9b
col40:   b9cda9ecbecaecadfa6ab3c9bbacbebfab6bd9acfefffce9cdccceeaefc9cbecad788a9d9c9e6d8a
col41:   b9b99bc9dbcfc9b8be9999aeb9bfdbc8beccdeeab8ccbccfedcfd9defc9c8b9aaeccfaeba88ba9a8
col42:   899a8bcabbdabcaecddcbcb9dcba8eedbce9eebcec9ddabadabbfcaff8aad7defb7df7cbd988c99a
col43:   8becfabdcfcdb8bbe8fbbdbacdaf9cbdfbc69bbdddfcaedebfecfcd8dad8bbbebc9cdcbbd9cddbcb
col44:   ba88cbbba9abbda8fde9d887cabcc9cf7fcedececc9efcaeebc9eb9bf9a9edbafccaaebfa9b9cec8
col45:   8ada8dccce9cddb89fbac88d85aeefccfcdddd9deceadefcefdd8eb8ddede8ea9ccd8959c8b8cdab
col46:   a8c59a9a7eba9ce9688c7dbcce79a7cddaa7cdbbccbcafbdbe9cabdf8faea9edecd88adceab8eae9
col47:   c98b9e7abd96ca8bba8edfe9bc9daefeaefadee9fecef9dcceebaab9daaa9aecaacd88ddcbaa878b
col48:   aa9a8ac9aabbbcfabdcf8bfafc5adeda9bfc9d7b6ea9bfccde989bfffcabbcad97e9d9dbbbd9ecd9
col49:   8a88a985a9dd6dadeccaabb8baebcc7cdf8b7deadfbcb89bbccbcaacdaecab9dfdabdd886c8ab78b
col50:   68cbb5feccdbb9abdc8c7ac9cbccccca9fdedd99bffddcbbeddf7f9aedadd8bc68b99c7ae8966b87
col51:   3999cd66798a999aa9c8a748c788a6bb6779cc7a7acccb99c6b9aecabb968ab8a789a788c7ad8b8c
ROC:	 BPix_BmI_SEC7_LYR2_LDR11F_MOD3_ROC13
col00:   212335741217642857917854b688975152736b56383599a385947a663a7254467899957485374661
col01:   76596a54878558733a8885869bb6595aa5578899b2b18ba88899b88cada789c8967ba76a6779b946
col02:   565695d37465a6a645629966aba96a9a664a987b6a764b97756a266963b88877a38475ab568586b5
col03:   8b55b87563924799b88579576a46566b88abead6abc9cc747aa58567aabc8c4b9989b5567b7856d9
col04:   86663537a8a488546645653847788a959883778878864689e687773a687a65a667a8868977856525
col05:   4899565a56877e96687b195b77ba8a6a5b72488a78b588795976b9278668687a8a9a6b7598784856
col06:   49468a7a69884958d593628958997661487c5aba97cb9c6839468a85a9827845a6e5a9838a477575
col07:   a94375927856b5a62a577698a8c9749b6528ab7a99e8996acd9c8a5c7d775e896beba869a9c8a856
col08:   37536a47bc43a8d25c67f78797d8c4784c7bc8876b997a99a2b386ba6c957645a8acc89a8778a956
col09:   56d25ac7487794897b98cb88b78848b688d6a98c9a76bcb9989697d77a4889496ca7669d87db8d6b
col10:   53a5a734a478a77b49b98b857b69578b8baa75b8b7969c689aa999a88ac3d996ac5aa93586a58777
col11:   5866c7aa656388799b96939bb7b689758b5c8baa37a69577a78a479668745785999597778799a9a4
col12:   6367488865b734885474b5488975989987a99b976a79d97599d9baa786599ca6aa7a78a1a3b7a779
col13:   738695b8cad9667788a5a7aca86b8999a9769a7b8a8ceaab86b79ca999976e882eba7d5aaca6b796
col14:   387a78a5b64b358867279f7ad8a5899bc69a465875b69b598af8a6db29a5a69b84bda77673665661
col15:   96a77aa767575e6c669896f9ab666f5ba83bb697886a895fc9a8b7b6b5a6ac89788c47974386adb6
col16:   5796677a57988958c47936aa98aa88cba9c466acc9889cb929879756b8697a88b69aa97874997974
col17:   687341966889b768aea7754b7b77a7b59c9d94a367a89d885ab6e97a79b8a5a5599a685a68879487
col18:   15198667a9535688546a69679a89989b3598a8a4a6b9a7eba76a8447586c648b3984cc966d973857
col19:   68757ca2874aa668489838c8cc85c9d9d58b8ba989bebbc7ab9b8a87ada4a59a8ce6ac6984987786
col20:   98826c7735a49c9a5b75877babad99a989b85a78a8a57db99765ba9978957a85355bb7537a597b73
col21:   5845a66968b81c846a8ab499baca8b96786a9faa9c94af97a9b877799c5665887a69a89986bb8763
col22:   6a9789638a68e6536597a7897a58c69a686959c28fa9b7c79b84b995b9c7a8a5dae6a5a78b8a89b3
col23:   3582c99acc77658ba6898589ab87aa8b96593769a97bd989ab9caa975799898389888975b77774a8
col24:   567984a9a93a5aa86a89768879abb78bad8957a67984b39886ca667c4a9658ba98874b8b45666544
col25:   69a5c79c9289897aa886a9a6a949ac8998758aca9987b4babc89bd5d99b6cafda96da557a84ab789
col26:   b6b88a95abbda9b7d97996e8c9bdd7b6ec8cac8777a8bac8cabad8f5c9a69abb487ac6888be8a8a5
col27:   6187d7868889a9a95aaaaeeea99a8b8bdfcc97b889998bc8ab9c9cdd9bab88b67aa5fb9b8a6a9ab5
col28:   a5698ab8997998cc7c95ced7cba7aacad9bbaba899b6ca97ccadcf9ba888aabdb9cae9d9a5a69a7a
col29:   9487a8ca7c968cca8bddb6aabcdc7aa7ac7cf9cc7ccbbcc5b8a5dcadcdbac8dca7ab8dabb8998a9b
col30:   6739dc9b896c498799aaaf8d8bcaa99baa86abcb9f758ab89a8bbfd9fb94aba999bc7aaca87947a6
col31:   c967bb9acf9d7bb7ffecca8cd9dccacbcbaff86a9bade9df8ecbadc8cbbc888a8aeadaa9abae6988
col32:   bcbaaba9e5ab9fbb88aaab9989afafbadd99db8bad29bbaaba79bcebf9ff8dbdc97d88c858de8eab
col33:   b6bc986ebed84b97a89d8b6abf9bcc9ccbd7d9c8b8ab9b9bb7a9ffdcafbd8eaff99aaebaa4ae9db7
col34:   9a779999ac9cacbafcaa9e7ba5dacadcadfc7d9969cbbdadbedc8db98aaaffc8db87a4ba6cfaaad7
col35:   8a688b8a7b8bddabd78cd9598bfdbdca9c8b898becef8dc9aaaf9cc9ffbdbccc9a8af7dbcbaac996
col36:   cdd7bcc7fd6b8caadbc9c9c66ca8dbbbe7aba9dbec6f9f999a6e6ddcbacccb8cb9a67bb89bcd7b99
col37:   8af9dbdbfaaaceacb9bbdadda99acbcaccadfcd9ed99ccc8bafdd9bfaa96dd8ddda99b99ca9dcd88
col38:   59a999ffbcabbcc8caa79b6e9dd8bdaabbcb9bbbafbbb9dfdbd9affdbaac78acc9bd7dce7cbce8d4
col39:   9a97b38bb9acd98baaaabababb7cfae8adccad78aac9cdfaababbef9699daaacb9cbbba7cacdcfac
col40:   acbcbbdbb9abd95aadb9cbbdddb9cb9c6d9a7eeeb7fdbd9febedaadaababfbfcbdb4f9fc6e6eb7cb
col41:   aaccbcdb9c9d9cee9efbbc9ccffdec9999d8e9d8bbdabcaaacccadba9be8aa9af9fffabcddac9bdb
col42:   aac9feab9beed798acf8dad7c78acde9b78abcddb6ecabecddd8bdedfcc7caab98d8ab9ac9c9cfba
col43:   a7b9b86cde9adccafdac7bbddafcb95dfcabde89dbfadcffdbdddcee9d99bbb9a8d9bfbb7bbbebb8
col44:   78adc9a8ae8ad9aa99dff9ac9cccbb8ceb7b8bfbbccfcaa7acceb94bfba89edfca9ac95ad7e9fbec
col45:   57799b9c9aae79b7ac8dcebbd9fbec8cdccfcddbfbb8b99fafffbb99dc7bfa789af9abaaea7caa7a
col46:   8895cfafdc67acaae98e989dfb9cb9bbbcadbcfbabecbccfcdedacdd6dceabcc8cecbadf6eadd886
col47:   96ad88bb8aa8fcd8eddbd8efcccacd9bcfcddbdddcdbcdebdcdadaacbab79ebab9bce97aace9a9bb
col48:   a8987a6e9eaaccfe9e83aaabcafcf9ebeccbbaabadfafccccdcdb8ccbcc9f8fdbdfba888ac8bfe8a
col49:   88d89f9bdcdfbffaaab8bbcfdefbcffbeacfc9abbdccefaafffcbdadfede9cfc7eecf7dbcbafb7b9
col50:   67ace919a9bfebf5b9b9eafbedcbfa7abecefddcbfbfecdd8dace9db9efaabcfba8dac6fb98b7ad6
col51:   ca66ba99b9b6b589a9ccbabb99c9adbbcd8bbeb9dcd6dc98ecccba8ab979fab6899ccaa8978da8ad
ROC:	 BPix_BmI_SEC7_LYR2_LDR11F_MOD3_ROC14
col00:   b59896b6e88ec79d696ab8cfd7b9995b79d6488a6cac989acbca568aaa79c8cc979a98a8aa8c6868
col01:   aa8baa9d74cc8c899b9bbceba9befbcfd9ac8ceafedcdccc999acfd99aaeabbcc7a96999bca89cbd
col02:   698e9b9b68ccab87bb79b9aab7ccdcadcecac7cda79fecd99a98a9bab8cab8a8d9afc8a9cc976c77
col03:   9cf46bd6c899b9bacb9bac99caebcbaba8bbdbbbcbb8a9ccfcb9acbbffbb9acb7eaab97abc977b89
col04:   88cbbbe9bdd7ba7aaac6bbe7bc98aabbdd5ecb9deecdacaedbaccc69ca6cd87abadd9e9d897b8d8c
col05:   75b686878a4aabb8f8adaaa6dcb8b99cade89bbdf7f97dcaadc8b99999b9b88d6cddb9aba7ba68c7
col06:   c5ac79ac5a9f7e689ca8c9dd8ab7ed85a9a8ada9eaca9a8dbab8dbca888bbca899dbc78cb9b97969
col07:   c6cb65ca887bcba886adadbdda9cc8dacbebcabba9faaa98f9aabac8e8bcb7a9b79b5bb8aa66c9a3
col08:   8e8976daccaa7ecb899aa9adc9aa86eccdbbaf7fab8a9a45baa8b7ba7eb9b9d88ac6b98a7baa86a9
col09:   b766979ea6989aad4fb7b7db79ffcf99fea89aad9af9786bd8ecbec9bb8ad68a789ac55ba7fdb974
col10:   9ac69e89c8b8dac9988cb9ab9e89deac8fceda999a869b9bbf5a89e8d9f496b797897a7b9a9b8779
col11:   987968cb8d5838aabacba89dca8c9cacbac8babecada5ceac7abc779a9a7a8976ab67aa95ace6657
col12:   bbbb354abeb9e98d98abc59b9a7bcba997ccabcba6dac99bcac9d8cebe99aabbd987c887a4b99c77
col13:   89da9b77c88a99cca8799c796db66aafac9aba7a989aeaadac48ca66bacc99a88aa55a99b886677b
col14:   b687e76db8b9ab9a798cc8da9becabd879ccddb9b9bcc7bc878948a7ab9bb787a55a889cdca98366
col15:   889b789984bb9b9d9f9aabbc9bacdd9e6ac8bc8cb9b9eeaacdba6b8fdd9a7b89baab98b6a9948c87
col16:   a99c7b87ba9e5be9b89ccc877acaba7988bce799a8a8bac9bc5e6977e8a8588e96d8b8c99aab7ab5
col17:   86b978b55c28afe7ae8daa6597f7e9da7b7bcd6cdcacb8aa6aaac96abaa77e6b9a8cbba8788a9788
col18:   989aa8a797ab969bb8ab8bbaababa8db9bcc79edac7c989bd998ab9bc7c8c98bd9a8848975744885
col19:   a97559877ab598b7b96c9adb9ba8bd7892b9ff679c7daacd989a98adb6bbaaa49788adec487b7575
col20:   7996b659aaa88ceb87cb949a8abb8eed9c6c89aaaa8fdaecb9c7b6aca9b8e97873879476b87955a7
col21:   58b974aac67a7986ab9db5b7efbbd7bacd9b9da85edd7cba8bdbc65c9b8ada8fa8b8bebab6caa6a3
col22:   59f9959689a9cc6b7a98c53a9abdb9acbcf898ecfe86e7c89ab9b877b7aba94b9885a89aaa8a8959
col23:   bb991689c9a68cbcb738ab6a8f78bdadb8a67a9b9badb77ab78dabcccd9aba7948a579a8a8b78465
col24:   28a866696787795685cd679adb84cb88ca698a79cdbaac89b8b7abeaa3aca586ca998e87aba8897a
col25:   6979b78d9cbabb777a9b89bbb8a7ccc999b78e998d8c7bbdcba7999988a97a887bc8a4a8569d5884
col26:   ba799b7aded9a89f5cb99af99f9b9cec8abbafccccadeecacbdccd6fb9acbdb9ac8dcba9b8c799a8
col27:   c59ab5abda86caabbb8cdc5c888cdcada7fbaccbadaeeaccaa8ae8cb9fb88a9ca898a99ac5778ba8
col28:   9588bcb988996bbbd8eac96dfb7eb9ceebbcfc9d99bc9bdbbcccbbabaddcbbb89de7a7da7ddb9dd7
col29:   adc4a77cd76d8a8b9bacc839dcccee98cbcbbc8eafbca9c8b976cd7faaabdc68c8cedabb8c8a7bab
col30:   9995b99c8a58596dfce9e8beb9dbbaa9ab7c6ddcabcb8bdd99c99cccce7986ca7efb89f67daa8c69
col31:   b8b99699edbab99cdff6ab98c8cbd9cbcaacad9adf9db9adca9ab9ece8abbd99caabddbbcaacb999
col32:   678adc99ebeec78ab9b9b99ea9d988dbcad89b78a9e7bdcbf9bea8aa9978cafa8adca9d87a8ba9dc
col33:   87dabfb9edb6fc7bbdfba7ef9cbbebbafbcacb7aaddcb8bacbafc9b9fa9fb5db8d99bc9d59c9ccb9
col34:   8a5a9e5dcdbba6ebc9dbdc9aacabbdcfa7ccabb7b9cccd5bccbcef9bafbdc8bd9b59bd7eb8b9c987
col35:   8ad648a97eabeba98adb4777c89ab9bc9edbcccacfacce9dedd798e9a9d69b9eac4cbc8bc6aaaa69
col36:   a89afa8c7ba79cea9c7e89eaefe5cfceacecbdcfccdbcbb9acb8a99acb6adac98af7cb9dbb7c8b75
col37:   5c9aa87d9cec68d9ebca8b8cfa8ffda7ddde8beaeabbfcd8a9bc6eccdde9bbabe99ce9da5afdd786
col38:   987a659bcd5bcebd98b98d9a98b7bcdaafabbcbcdacb9bd5cfa9aca69c8ceac6adcacc7998bac998
col39:   4a279a8bbcbc8aa9cf7c899a94fdb8cabcd8adcaadaadbabfaccbbf9acebb97cb87ae8aebc5a9baa
col40:   97b8acbacb9c99ddbabb868c9d8cbbaccab7facfc8cda8c898aaccd9afacdd9adae8ccd8ecaba657
col41:   7667aa9279b7bbcbcde7bceabfcfeaca7eec6fdbc8cfabeebc9ccadebbf9fa9b8cc7fbd9cbbac86c
col42:   89beb68a9ad778d998d995dbeb759eacdbfccb89da88f9abcc8c8ca78c9c9d9cb98c9cabbb4bc858
col43:   8a796bb6c9dd7988cbaa69dbb96abcebbcacdbfb79b7bebbaabfbdabfccc9a78fcaa98ada7ac9dc5
col44:   69a8b5e98ccc8c97b798ad88cbeb8abcbddb9c79abedbad9cbbeacaacbafdbefbcc8feebaababcaa
col45:   76c6a88d69b9c6d89cb9ab5de8859ca7fbeaadfcb9db9db8acd9acbbbbbcbeabfa8f99a9caeba69a
col46:   875b75bcd6cada8d888bb9ec999bcaec88a8cbcb8cee7dd8ef8ab9ddd9d59b8dd9a9897aeaa98c66
col47:   599a9578a8cdb4d9a7a8a7d89adab98ebed86cdcacbf9bc9aecdeecb74d7ab989da4a97ffbcac894
col48:   7779e7a78aabaa9ebbac5cbc9c98cb8bc9cec9beb7cdbbacbebcaceb8cbfbb899a8cc6da6aac8eab
col49:   48aca65798b99c6cbbbada9bba97f9bac8bfdccfcaeddbaecda978cdfebeccaead8d9bcfe369a8a9
col50:   9777a99797775778ab9894f9d9bd88cfdbfcb8ecdb99bec9fd9adc6dcb97becace7cbb8fdd8d9a76
col51:   b575c49b653c21288977a558ba7da8a9aba9fa8bb889b78a7baaf9bcbbbccd8976689578ba9aa99c
ROC:	 BPix_BmI_SEC7_LYR2_LDR11F_MOD3_ROC15
col00:   6573369b3a99983b85c286be5cb99db5dcb687974999d9677bd5998c96d78ad79b6d6baaca76b4a7
col01:   326671679667c6acbbd967dedb49a99ab9cc7dadb8adaafabcce99abc79cdc67f7dbcda78c87ebab
col02:   859976877d73857a878ad89889e8a9aec8b87a86a9a98e7e9a7caafbcae8c7a94897a7aa7be9695a
col03:   79d477648a86888ac558b85f6c5ccd9bb9aa9b8e99aebaccbd96b8bbca7aba5bbac68b8a8bc8be8a
col04:   587a982587aa876db59b89478cb8a7cbce8ccbd6f896d77b8d9bcbadcfcadfbbe9e9898ba7d9aa9b
col05:   2596599a98b889a98798b9cb8abae97a798d69bba9e7cea89db5c9ecb9b7a8cc94daaadaaaaaafc9
col06:   6a5587488949977886a83acb9899cfac6a889becd98a97bcad95bc9aea4fb9c855c9acaa9aba99cf
col07:   569bbaa885869996b45a9b9aaadaa98a9cdc988bbb9ac7abecbcaabd7e8aacd9c5dab99e8a5bf979
col08:   458894896675b9b5878a49accb7cc9a8a4bcf8eacad89bd9e9ad9bb7a49b967da76acba9aaa8aaea
col09:   6778967a36abc896899a66accc499bb9bac7fed9caecaa8998ebccfac78bddb69cd8e8b99bcb7caa
col10:   a4768aa865a9b995bab977b79fba4b8ac6ad9a8bcbc9e5bdaa998d999ab7afaadbbadccacc4d76cb
col11:   2167759a9795997797b9b979b4aa99ad9886fa86d7beac99bddaedd78869ed9bb9a8ac8a9bc9fba6
col12:   85869575687b698a69888cc836cb89d9ba8799d9b9caaaaaa9bddeacd9baabbc8fd5c8abac7ba8ba
col13:   565169b5619683a8b99b99b989caa9a9cb6c9dadc78dbeaccdbb869d7f8ce89fbcbeabccd9a6a9a6
col14:   3717a8746847888795cc8b7987c96e5d77cbb68abbaba7caddb9bccbab7caa88adea8e87a984fcb9
col15:   48a64897b6ba6cab5caa9a873c86bbecc67b8a7b5ba8d98bac8a7b89ab99ed79b96cd8caa9c59a9a
col16:   5a59aa5577a57aa876a7dca8a5998bbc9aebdc68bbd6aa7eca5e948bb48779ac6bbbdd99bdeadc9a
col17:   6a7579547879aac78799cc98988998ada99b9c689989eba67cbecdca96ccbbcb699ba89e9be9cd55
col18:   45565484ba7676898986983b99a99b7d8bca8b68eadcac7b8cac8bad9c9af7bbbaa8ceac999884da
col19:   7744c758768bbcaa9c995a7a77de888ad98e9ac576b867adac89a98aaedbcccb9bcaaa9aaa57de86
col20:   5965b696b89bc9785aa87859b9cbcbb5dca7cb9a9a76e97d68c9a78b98b9abea77b6e8aab598da68
col21:   6685969a7a69a978a797cb9cbbd89c5a9bd6cb9b9799a9b9bbfa87ba9bb8c7798caccacf8abcab58
col22:   874a55936a5aab97b89b66b7b798c7bcab8ac9b75bd7e8aabf574cab9b7b66dabecbbdaca97ac7d8
col23:   799b6c9599c6c6acd9aa89c6aa989768b8a4b678b87ab98cb9c9cb6aaadab9c698999ac8ba9adbc7
col24:   355b69887b98aa854968a9ab5b9e895bb68b88bacab8c69ace7b99aa88fdaebac695bb999976a66a
col25:   6653abba7888a7987779929bde948b7bbaacc9abcdabebb9a7cf5b9de6a8aebbcfbbcac7b9bb88f9
col26:   bba4a59a76bab799cc97987aeac9fecac8b5eaa4aace99ce9bcb8cbc8fbabdd9caca87bca8a9d9bd
col27:   878bba947c76877a993db9796c8acafe9989b8baeceb9ce9bb9aeee9bebafcabcbbdadfbc899ada9
col28:   77ba8bc9c96b7ab67988c9ab87ca6bb99c999e9eaaea9c6aabc9dce9bc9eadbfdd9e8abcd9be6939
col29:   479a797987466a96798b79b777a8b9a9bccba89fbaa7dac58aa7d9e9adccfdd59e8abce9c9baeae9
col30:   7a887bba9699589888bac8bbaba9e99a7d9ccbcb9adacdaacc8fad89acbfba9caaddcecbf7a8cb78
col31:   bbdfca469cb889aa7e6889cacacaae7cbbcdba8bbb6dae8bddad9fcbede997cbbeacd6bd999c6b98
col32:   67aa69af7b6799a568da68b8a5c8bcfbdc9ac7accabab5a98c97bb98edc9cabadcc5d9adbd9cacc6
col33:   a7956a7b98aaaabb7aa89799dbd8bbaab7ba985bdca9fdca8bdeb899cbb8ec9bccb6c9dc99dccbc8
col34:   4468ac8a69c9ba7b4a8acc879abbbaecda9ccba5bc9b88cd8ac6b96c9bdc9edaf8c9699cdaca9eca
col35:   d879886a7bdba5c69a69dbcb8c9ccac9b9698ddabc99acf9fbc8adca9d9daddc9dbaad8ccab8eada
col36:   767a76abdb79bc7758a8caa9aaf96cea8b9bd99cdbaab9bedb9de9a6e8bbcb9cabe8c74b89bbabd9
col37:   768848784ab7d56c7a4978dabaa9f8bba9a7c7a9caadc8d879aadfcd9cec8a89de9af9c9ba9bd8f7
col38:   7957c6a973b99aa5aa899b8879acac7cdcf78ccdbbca9bcdbccb99ad7aaabc8cbda8ac98cbfecdab
col39:   485a7ab6987d2b9896afb7b8e8ad9ea7a5d6c679caa6d4cbb5cec89aa97aeec99b9c695e9bda9da7
col40:   555c67aa87696ba89899cababb7ba9bcacbad998a9bc9cbdbf7999a5ac5bcedbcbcdceabb9c6cc7d
col41:   23615468769387b7a886ecba8be9789b9a997c9bbca89ca79da5cb9899b79ec4b9a687e7b98a8b9a
col42:   387468594658b535ac69875a7999ab998cbedc68a97cb6ace9ab7ae98adabdbacc9bd8babbb19bb7
col43:   4978347769b4a778599aace6b77fdb78c9ae99be6ec5ba7979c9a77a7baaaea6caaeaacaad9a9f88
col44:   86655887578a8688a976ab699899a8dbb8cab8ad8abbab9a59bcbdb976bc88df949bcaca89c7d6bb
col45:   56696993677771497779579d68b3a696bb6db9e9bc5bb56ba8b9cabab78dc7c69bcaab7ee98b85a5
col46:   6573598934578a867998757ba6ab9b557379786679689b8568bcd8958697957bd5da8bc89d598758
col47:   86398586a69588a88667563685999ab8cb7e5c556ce997a9c7bd985c879777b49ca5aaaa8869b735
col48:   66664276558775b8395375c5ab77a6ba8cbbbc5bb5aba9a59b599cc48e6989c988e9bd55a6a88abb
col49:   712747a42489657a49797daa77885a48b8689cb899a75cb6dc679bc576566bb9599b36cc5ac78db8
col50:   68864567675a65999869689ad5a79b8a76798b485bbb98daa997cb98acda88acc7ee9b6c8c5899a7
col51:   576772926626765166743975684556897b4399b96867468182166516878a8177467a89964496b8b8
