ROC:	 BPix_BpO_SEC4_LYR3_LDR9F_MOD2_ROC0
col00:   76a755c878a75966779894556778a79b8a8b9745718d9665aa89a798b98639bb98cd88778c48a656
col01:   7675839a579b76ab6cc9767789ba9aa87a779ca9699aa79a88ad886c9b39a9bc994579a9bbc59a8c
col02:   666896cad679a555bdb437898b6dfbba98c8cb7b775b5c9daabcbba9bc7ad6b98b7799c4e98bbc89
col03:   988db7c699888c9976bca758ca8aacbccaafdbb89a969b89ba87699987c7b67a79b8b99bd8fada9b
col04:   a8c5dba9a49bb7887a8b9b97b67894d9a7a978aacb7bfc97a69b99c8a878a9b7ba9ec584989aab69
col05:   695e6459bbb597666dbcacfa8ad7779877888aa568a46f88cadc9a8aba9ac976b96a5bc8a257bd96
col06:   a88cbbcc78aaeda87a679bb799d998db96a7acc995a77ac9cba9dab676b99bc88ab9b89a9bbb56a8
col07:   6989da98b6d8eab99989ea5899e9adb8799b6bcac898acb9dccd97ac888cb9d57aca86b68c94cbb9
col08:   5797ca6a9b9397bb87aa98498a8a99dd8a9aaca9d86a9cbaa788bae8c7ac99eaccae8abd98979888
col09:   4c8d99c998d7987a8987ba69badb7b7babaaacbddd9b7bc9c899cb9aea87baca29bb8b99a7bb89a7
col10:   a7a956468bb85897b87aba6498b7accac3ab9a98a86cacac89bab9c88b6c9b6a6e979ba5fc37c8ec
col11:   a9787779ea9795d7aabb9b869bc798aa96aaabc97bfdaccbda6ada77dbcbec9f9ab88e9a67a76cc6
col12:   b8b486c82d799899aa8bcb8b59badba9dcbcd878dabf68967cc6e8ab98888a9b9bab8aa899aa9aaa
col13:   d7daa7a6777ca888ba998bad5c6b86b87e9ba855c47bb8aaa8bafe8cef9a5c65eccbbc75b96aa6cc
col14:   78568b8a99ea9b9c87798cb769479a8a8a9a66ba8aaa89c975ab94cbbc7aa8faa99b6a8b8acabbcb
col15:   5684a988ba697d86baacbaf69aac8ca89a68b6bec2a9ab8aabb8e99a8c5c859bc4cfc9caa8bbdab5
col16:   377c68d99e9ac885aaa9836a799c9abba8c99876ca9f6aaca6e96899c9aa86dc9ba7889899d798c6
col17:   846a7886b6a8d56b9a7ab9abc9a8abca869a9babcbb7899cca98dbd9bd97bd8d99b6cbb99ae79a45
col18:   767aa599c3864a5b558688a7c8c8a9bb9ab9d8ab77a4879b8998cacb7a79cc8ab6a6bc77779bcd9a
col19:   9676cbb7ab4a99a9a9c98b8caa49679cdba9879c8a9cabb999b9a7d999a8ea6c8c7abcc69c999886
col20:   79566982bcc89bb7b867779ab4cc777a7b97a9b68a88aaabaaeb7a8a78dcceb89bcb5796bc8997a8
col21:   6a6ad4668391798abccbdbb78bba9a6db59b9dbb9c7cad6ab98da999889cd9c8cba5e8ca87d99cb8
col22:   8369936977878aba9986689ccfba89c9eac7aa5c79a96b79977799fda8dbd78a89b79aab73ea978a
col23:   996e7969a8c6ab8999589697cc85d9a7b965ba4d9ab9aa6cc6d49be8bac9e89da6f6b68a9997bcfa
col24:   8583494a7b8baa97787959a9987a895acb9dbdce7ab8d87d8caa8969baccbc7ca9a48c9a99ef8b79
col25:   a969ab899a9bddaa7bc69678aa9b7c9bc6c8dc8af9a9c9fcaaeabcb9b8daeda69f98aabbd596a8ba
col26:   a99a9ab9e76988a97bb9cdceaaab8ed8b78adabbbcaecdbdc7bbaaca9b8786b9b9badfe97eddd8aa
col27:   f7987c79abaea778cbc7baaba7c6c8cbb6bca7d98bb9ced8cbccc7cbab8adccaa9edbdb678a8bdaa
col28:   8669b899c5cae88e84cfc9cacb9dbcb79daba68b8c97cfabbe8b9ccfd9ecc7faddddfdbcf9b97eab
col29:   6dd68c5aa7edabdbafbc9877dababbb99ad5c9bd4bafcd88ccbabfab9fda8977a6abd7bc8cdbbcaa
col30:   5a8b9889cbd89b88c6badd987986bbcbaab7caccbaaac6cea8aba9ca9ecdc8bbebbdbbddaebc9ccb
col31:   88a96aabbc9b79bb9babafbaeaabeb9bbfb85fd98aeaabc9bde9bdfbdb8cadcedd7998eccccfaabb
col32:   cad789693dade9f78cdcb8bbecabbb89dabbbbbaccdc7bbfb9fcf9b9a9c9cbfcccccacbd9dabeadb
col33:   739959b59ab879988ec7ea8baddd89cbaac8acce8cccba9a9cbdffeaab9fb6dabbbc7deefbefaafa
col34:   89a69aaaaca8788cb7fa89ebcfd8bcf9bdc9ff9cabeead9c89eefcceff8de9caed9dad8dfbbc8abb
col35:   89967baa7bbd6aac66fdbc5aaccccfbb87beb897c5aad8bfc89b8afecdadbdc9fcafeabeaddddddf
col36:   9b88b895b79b8cac6ecb999b9a9bcdcbdcf99cbc6ddbbbcccac78bcebdbaccfbcdbcbcca89bbb9ea
col37:   a8cca8acccedeaaabde9ad7b7fecaefaeabbd99beac9dc8ebddcdacddceeab6cdddbffd7cbc8fdef
col38:   8d79eace9b8b7699c8c79b9beb99dabbbabefccbecd8daab9b8cfacafddaccddaddcc9f9fb8aeacf
col39:   989788ba9cf9c9baaa9b8acba9dc69acdbb99b969ecdec9ddadbce8dea9b8f9cfdabdbf9bdadd5e9
col40:   88abebaacaeaa898ba796699dbaecc9bfcede8da8aaaa8aa8feccabefdabeac9f7fbb9bdbc9ceae9
col41:   a18ccccac9af7eba9f8ca998f988f9c6e8fcd8cfc9acbcbebeef6accbadacce9cbadcbcc9aedecfd
col42:   a9ca3d82ab5c789c5b75db8b9899fb9a9dcc9bce9b9be9eaeb9da9bad8bc89bbfbc8bcad9ceec8fe
col43:   aabe989bac9d96cedc788adcadeffbcbcccc8eededddabeaeaddcebd9cf9bfa9fcbdefabfcfdecab
col44:   c4a74d8ba7fa4a8abadaa898dacdba9b99c6dc9adcbdddc9b9bbed8ca5ea98eebccfed9ecabbdaeb
col45:   6ca9dd6bbbe87ac988ac9b4d9b6abbcbacebbe9ccce8ac8be8aacaddbcb8f3cabcdbe9ade9e59bdd
col46:   78abaaab88b84ebbc9ab88e97a9efd7a7d5dbaccddecbebdcafaabaceb8a9fbdcaebcfacea9fac9b
col47:   8ca89c9cca99a8c96fab9ccbdbdda8caae99dcbafeaacbdfdfc8abfacbbcdc9e89c7d7c7bee8bdbb
col48:   ac767988ba8cbca8d5a988897a6edadabef8dc8dabac9aeecfbd9cfaabcdba9bf7bcfbcbcbaeeec9
col49:   9baab6c6969d8cabc65c9b9a6889cfbcccdca8b98e8bc8b8dadc9cb9addaecafb98be9bdbe9da7be
col50:   8ea798979aa8baa9cacd989d9bfc8cd8a98b9ffebaaedc9c9beeacbdacebbadcbecb8cfdbfd9d8cb
col51:   65788966457a657598788a775fac6cce96aabc9bab5ce69abc79c7a5c8c97cfcab7b8bacc6a7dac8
ROC:	 BPix_BpO_SEC4_LYR3_LDR9F_MOD2_ROC1
col00:   53545247874444545617552649357766664358262a41519677633154752643251546215442121112
col01:   797455795573775676a62467877757797674887576a869866758643475a586456352459497364256
col02:   4685543688687565687737b5738566667578a48955a5856565663b36a56235545586462454956273
col03:   977579748557586b96896948b46788877a38a5828767567785528738569456878596352336675441
col04:   869855789a5944599579827768568897586589b376688687a87775756756837166636683655a6514
col05:   4466a85596988755887966277646666648698848489887545934477693471827745a463613548442
col06:   755767ba959558a4aa8aa496787757555b93684a72669a6a84269362656745786473856365644448
col07:   276a16665878a88679a9a4756787997b8a88897a96685977c793a66a977795336596478654884635
col08:   7676cb766a878868788697778578a879667489595478a75958947247858597283897836548274463
col09:   6797777376a67a7755868968838a66498a8aa98bb7387477b6267596987144884661666695656551
col10:   a8769c669767946866359678774688b8789756578978666799636656269796887577585226844634
col11:   99657478795acb6968748685a776a955968974699397795778885555756864758645986765925323
col12:   7436896666aa9a288978669965563b899a687a68898796498b4787865769465976859a7357636592
col13:   ba7e8a9a8a79888868a7787898798a6a697b87a48a9966b989866697944357865548459765563268
col14:   75a7a76a9a845ba7578497a7777949cb586597697a4673a367886658b86988683695856897566862
col15:   758499374996878698a55c6656a8a98a4a8b8c9989a67a97a7988b99966865986157236736768533
col16:   9c769679a999a56967a97695998d6a769a868da8c86798678876785c58c56a775555a57372576987
col17:   9756778b6ac8659a8866898899c9898877887aa7688787a879869a56aa99587777b588656a956781
col18:   676a9a89b4b668957a89969a8ba96aa779657689769985a9b677a9a6987548654688744877579471
col19:   96ba69b7757979a878798c9996799b58b669a87a69986aa847a79997a77599a795595777778474a8
col20:   9988c79977998686a79388749a7b786aa899798978987698a787698776879a9456777aaa97965594
col21:   685595577a967ba776998998a769ba7997b8c8aa99ae8a977ac99768698488787847758687d87a84
col22:   829bbba9948858a888b79679999a84787a67867a99a93567aa89a699caa8944588c9733868838752
col23:   8888768388638a68659996a797c8a9599a9996babab788ccaa37a79b78c76776727bb98366884a85
col24:   69679b989be48787b89867896aa6abb7d987a7aa7678876975b698a5959678b57a67759933b77968
col25:   8a9946b8966a89ab8b799a9bc6a68c79c7b8ab8aa88b99b778998879897dbab878a79a7468798466
col26:   cdbb869b8ecb9aabbd5a8ab9aaaabfb88cccbc9b98ca7ba9c8a7abac7ba99b869d87bb99a6b6a997
col27:   6a968d7aaaac98ab99b99b7a48dababba99abaaababbc5b9a9ab7ea898bbba88797876eba99696a3
col28:   c9ba87d6baca9abadc9ba9d9a5aba8baadca8958ab8b9d8c5b9ab8dac9a6a9ab8b88ac6b8a8a9597
col29:   998c8a8c5cbc9c78b9a9b9998b8cbcb9b879c9c8babbb8baaaab6dacb8cb96ba99e985e9b89a7a5a
col30:   bc986989a9a9ba7ab9bcda7b9adbc8957abc77989cea57ba7c9abbaaba9ba786a7a8c98ab6a8cbb8
col31:   a8bce8cbbbb98cbcdeb9b8bdc69ef98bdc9b8cb7a8c9dacc7cbadaa99c889dcde9b9ccaa99dbcb66
col32:   77876baa7b9a79c7bb9c9c9bbabcddaddbd68aaabcbbdbcbb9ac9fbbbc879c69aaa99aaa9e97769c
col33:   b86daa6aaa7a7da9d97bbbccb99ab79aacaad8ebe99eba9bd9ababde8aa9cef7a8ceaa7b98999c87
col34:   cbc9aa99bb9cb6ac69badad68fdadac9bbcb869adbcbaccd989cc8ddb8d79cb9aaaad6c6ab8a89b7
col35:   cdc9bcb9ba9d8dca8d78aaadbcbab9cbeabbced9caa98c9a9cbcecbaa8edbaac7a98bcada998aa95
col36:   c6aba8acbc8aaaabdacdccba789b89bacc79bd8abaacaa9bc69bbba9ca9ce8ca989d7be98999ca94
col37:   a6acbb8acabcb9aeccaacacd969eabcaaf9bcbbba9acabedcdbcfabcd8aabadd8ac9eabaab8abcaa
col38:   7bb7aab6caadabbebabaaab8ecccbbc6cbffdddcdd9bacbbbceabd9bbfeaabcbb9e8cccb89aaac7b
col39:   9baaaabdbcdcccbbcbabbaccab9bacead9d9acaa9cf9bcacac9a79e9deb7bcc9ebc8999accab4b96
col40:   88dccabbfacbb9c8b97cbedacfaafbacccd9eabce9cbe97ccf8ebecbae8dddfbb9a9cbdb8ca9a78b
col41:   bbedaed9bcdbdcadb9abdcbbbaacdeafacbadfceedfbbcccbacd89aaffbaecdbc8d9bcaae9c98cab
col42:   d9bfbbfcbbeb95accebbbafafdacadbceddbdcbcb989daccbddcfe8cdc88c8aadcb97bb9bc87cf9b
col43:   e99cee5ec8ba6cbabdebcdcfbadddcdccdbbdebbdcccacfbfdefededdcda9be9caceb9cfcbeea978
col44:   cbccbacbebfdbac9cb9ceb88bcce8b9ebbdfeedcacccfdcdc7bcccadc9c79babddb8a9fc5aba9bd8
col45:   cffb7bfaabcbb9bdcddcfaaac8fccf9cdcdcabeaac79dccecdac8aaddd8aa98dbfbbababbb7aea99
col46:   cdfc9bfdcfda9cfcbedddcac9bfec9dedfdbabbdccc8bdc9dcebbdcbddbebaeadbab9c9ddacbb9aa
col47:   aaabbbadafdc88debdfdedbcbbb9ccdccbe9ee8ecacb7cb9ecaccfbbcadbaecbbebbeb9a9acbd9ca
col48:   9aab9aca9c78bac9afbdbb9afdadddcccdcedadfedcefbadcdccadccbdbbbd6ce88baaacdfdacac9
col49:   fc8acdbadacacffffcccff8dbbcdbdb9cdedcceaecefbeccdbdccdcfdc8fdbbbecbfceddb9c8dbab
col50:   acedb9ffcdcebccdeb9abdbaa9cbfdccceceabfadcfcfacdcdceddbdbade9daefbfcbcbe9df6dded
col51:   a875dbbd8abaeaab9bcc79bdab9ddeaebb8aabcc9ddd98eabcb99ac9c8c88acbad9cbababfd8cbda
ROC:	 BPix_BpO_SEC4_LYR3_LDR9F_MOD2_ROC2
col00:   59a76a3556b7564565876595838886496a27267b7675778784669874b977689554d4774337448381
col01:   a776885a7896a769855a68568855aa4f676897daae7697a398bf68ac5796465a66657b7665953533
col02:   4c5627778346388484767a35687999a96a9887a7997b55ba89a4692a667656a155682875674a1936
col03:   a896aa6b643598b64c77557858489a766a7ab698857b8cbc98789a89977da8a7a796649252787655
col04:   b665684996668a27c5768839a86897b64a597a4d68577ba839987ba85a62aba975ab8547576d3452
col05:   88496547677462786399c68388a7b799ba7597987788619379587a887854575987866c7878437497
col06:   7b786788863777294477782557777c98aa5677689a68797b6ba4c99ca967aa96caa59667b83a8543
col07:   aa589498a8c6537c797777d85789cb988b8abaaab576a9eab8b5b5a37a9a6999a86787c9964a8948
col08:   685475b88a78b59559776766558766ac7a88a99a39738ac975aa4a96567397656a549b7a76b94885
col09:   8888bc6b66d489b878da7a49ba7c9b9bb8a6b879698eaa998a39c689a859816869997a65aa975792
col10:   8875a8997b98969696a5774677c898a96898a5a96aaabcb57bb899676d96688773c4996b98885745
col11:   9694a76a7d3b6648797589594a9ba9bb47755a9e957a9bad899b93c9bc65789a6659389564782718
col12:   559454974a554859a8a9778ac35a89e4a78944a367297766577558a74aa77a9a7bb69a9844745c65
col13:   9b57a58943999495b5ab58a8b69a7cb8b7866d89ac9b6c789da89abdba8b6a4caa9bab89569aab34
col14:   79897357644b87957787889a4b7879a88bc787ab7898ba7a97b88a8778b955977aa57678b9a76795
col15:   6a876a8678645d77987cbba7895b9c55b5a9aca8bada78977b7ca7aa8a88c9567966ab5b8b6a2e78
col16:   d887675a66466686b85788966a4b5ac76654988ba369ba999ca8998976a8d7769578a888677886a7
col17:   4496664b7869958765976d6b6abcb99747a6a699a5a8d868878a98966986aabc7a6c9983a879a744
col18:   895bc995a85a95696689a69baa6956579e85cbb6bcba88acc799abbbac6aca888669a66757549854
col19:   9a9a9b4659b9baaa8b8a967487778a9b78fc89988c7c98787d8cb79ababa67a66999a6ab7b975476
col20:   1875a976757678b7ac577b9aa8d89a87988bab8abbace94b9838975a86d85958895a6aa98b967856
col21:   36845985758885867abb89b8899697a88b9998899d88ba57bc89788b87c9aa47a7997599687a8869
col22:   878875789777696a8876887892b93ad897789a9999aa68896bc49779ab3aa7957a97569d6679aa26
col23:   54a67559ab79b8eb68a6b9b959484b7b87aab96a4b6a689baa9bd9858bb7bc8ca84aa7476a988484
col24:   6587675487769aa659678782485cba66d96aa68d5aaaaca76c67d8a99b867a499377cd696a574c9a
col25:   d859bac7b749b5aa77879bcc7aa88a99daba86896bb578a8ca8a99e979c786998998758baa977365
col26:   86c6c9c74c588a8d997a8a786aab9877abca9c757d7989cebcedb7d778988bcb6cbca48aa6acbba6
col27:   9f4597aad79a69ca99c9edbc897bfb68b889ca8bc7c779a869c9b5aa69afaeea78c78a98b8ca6788
col28:   9c989aa58b69989dc986b96859eb8899b5a5a8a89acaafbdb86ac9a9b6bcab9e7acea99bb973a887
col29:   dc7bc99bc8a986c9c97b9ba98d99ad9c89aaf9b9fd9c7b7cab9beece7cdc9b7a99d7788b8c9cb788
col30:   79967859a8de9b8bba87a8b8b8abcb8a9ac567bbed999aadaa6cdaa9b9b8b98bfecbab6ce9786b89
col31:   aacbcda7ea9899879aa6c7e9d5abdcacdc9dccacbeead8d9a98aebaadf8cdb9ada9b9ab7996c7b68
col32:   8fba867b894bb9996bacab9bcb95ccaacd5cb789ebacb999aa8f9ca9bb8969bd8fad5d6b6a97cbb4
col33:   8988aa9fc7995aabbe6c8bacbdb7cd9dfbcafbbcbecc69be8a99bcddfb87bdeb976e9b999bb9a56a
col34:   aa876a996b7d99c8ab978ab6a9bcececbabacfaa88bcbb99cbcabdccaeba9dcaac96baace9a9c8b7
col35:   9abca9d75ac9ab89c8a8acea9bbac7dccea8adecb9c79ab9bdedd8cec7cdaca6ccbcfee99dbebbdc
col36:   8b986cbb6d99ab7eadf9e8d69ba8bdc99cfeec9bbafac99ff9ffcadaa99c8a9acca6969edeccd773
col37:   baab9cc969acc7bcdbabc9addcc9cccac8febbecaacabbceaaadfdc8c8eb5ea6bccbc9d9c8d6ca99
col38:   b79bbca989acc7a987fa9fd79e9ecbbcea9bbed8f9adeacb8ffecaedbab9ddccdc9ba9bdba8bcf98
col39:   99997689bab89cb99b99abccac898999aeadadacddfcbeef8bdcaabcdaec69bc5b8bcaee8bcd8aa9
col40:   dd9c8d8dd9a8b8bb8bccb7bba99aac9c9bbbfdeab9eaca8caa9adecfb9dc6cbe9caac9b8efbcabac
col41:   bbca8a88d7bca6ddb86dedcadbcbbaabddfacdad9eadbecbfccef7cbbdebdddbefbab9dcea98cedb
col42:   c9688bbc8daab86668bc5db5bb97e8ebbed8ccdfda9fdca8eac9ecd8d9ebcdebfbfc9cb9ad8eec86
col43:   bb9c6b9c9aabbc9bc7aebbaccaefabb9fdbefbbdbbddfedc9babaeeadecafeecebddcdaab99efabc
col44:   77ba9dbab89ad6bc6bb3c99bdadeca3b68adabde8fdbcbdc87adeaacdbcdfbdbbcdb7b6b8b9eeaea
col45:   89996d776bdc9b85cbea89befe6ec9a9bbebbbbdbbecbdefe8ccaacfcbaccdcfeba8faadbeb9cdaa
col46:   a8ba8ae8b7caca88acacbb6daebddb9feacc7db9e9cdbccacbbbcfbfbadfbdd8dcaad9accba9fdbc
col47:   acacc4ab489c9cecdccadfabfaabbcabc8db9defdaecbfbddcfedcddecfbcdd8eedcfca99aaabba8
col48:   7cab8c867bc8cdbbad99adcb7b97dbecaaaeebbdcaccadcfbccabf8bbab9dac79bbcbfe9b6cc7a9b
col49:   de6babb6da98cb79a9a6cedfccbaa9c9bdab9bcedcddccddfdbbddefafeccc86bdfc9fed9afca9bb
col50:   acb9daca97b997c7ce7dcb7cae7bcccaddeabeb9df9deaabccfbdb7baf3baccadabccbbeadaa8cca
col51:   669aaaab867956a8989a8baab5ac7aa9b86f97a89b4ba788bbbcaaf8d8bbcdb6a9ba77cbf899a7a8
ROC:	 BPix_BpO_SEC4_LYR3_LDR9F_MOD2_ROC3
col00:   12145454544755153243261316871434355458754698452777414855151454432243125544415631
col01:   62545478535667465583b98773444787547334678876437544776553484582835545566663734651
col02:   86663431266171876754663397867774968565375756978443396264655455527654364446745611
col03:   77655382724954648945576373986787b5467495877588668473535655b56546b486576547535815
col04:   24546457386582574696837965578456576758566455448775538536766776565657186855656592
col05:   656775547665374657427566657697467374a46474558776496497676a7666277565857575663875
col06:   35759568966767465873579546874a76858789838858766955897666478586897573866654a76355
col07:   547a2677654788764649878695765657a66b8246657696537744a966688787537866777a38597865
col08:   6654673855237877486297877a9996977966458667656557a4456556a665a7737875558655765276
col09:   8575637456664577ba868995795776857a778788388a368885587a87765647546347474575853876
col10:   69884685668775683a4689887a896a64687878669978347656282634979894355865744463885785
col11:   89656785888368a66549888586579a67564697578967886857885595875465375675976577745565
col12:   8766657867576526476766844a888676656554889b48567776577668685a65664556748765677862
col13:   57455857766665898557a788a59596b498a87b759567559847aa78579985a98896a9a96866567875
col14:   a676888845746897688577a8887598887a75a87967579899477a6868776967459786778556685345
col15:   6877586a598957897498837a77a6a9876855b56a87888899a49667968568b7978746b777899a6877
col16:   8958684b553965996b78766579687976888869aa588a689779587856c8769688a1985886967a8595
col17:   6458477975b66868798797596769b68969479a7969887aaaa7979678c679378884a8a589779766b5
col18:   a37776777b8867589a68889a7a6a7a756a66696596c6a88797777a97566a49756977b59778a96781
col19:   498a8767d7aa878a87977d9997896a6a7ca7a986a74789879b8779a98a95aba67ba7b7c8469ac996
col20:   56878999767787269c8976a8899986a68867aa887ab99887b7979ba9aa7887a299578a69ab897a77
col21:   95a6859797875b85669a9a88a899aaaa7689a95b9bb799a79b868ab7a999999a8997674978a86676
col22:   7754b776826b898b798a98c779a898899789a58889996a7a6b8b77978aba889778799786a7a67566
col23:   8997ba8b8a68b4867a6ba9997888a7788b74989b87788a8a99a8969c7878776a7696b899678788a7
col24:   8866669776778a55789987b9c89ba96a9ab9ba588b8768bb67a69ac8ba979b6aa798798789577484
col25:   99a7777a9869c66ca9a9c8b897bcb99b89a98965999a889ba98b7b9699ba7a9cbaa67996ab7aaa88
col26:   a69789cb6787bbab887caaa89a8accaaabaa9aa678f999caabaab87bbcddabaaca9b99a8d8b989bb
col27:   7acb99a99b99899ba9a88a98cc7cdac969aa79d98995b998aaa9bb6a99c6dba8c699acaab98a9a97
col28:   bbab8aaa8999a9abbac7ac9daa9babbbdb8a8acc99aada99aab7bbcadc9ac997998999b9875b8a7a
col29:   a9ac9ba98ab87acca6dabcaaabd8c9bab9e9ca79ccbbb98a9b9a8ababbbac9b8adabaabbb8ca998a
col30:   5ba9c7adb99bccaaac7999ad9c89abbac986ac9aa8b8aa9ca9acbdacbacaaa9bdba9998c9ac7a77b
col31:   89987abb9ca58aac9bacbaebbbbadab9acaabec9abcbabbcbebd9ccc9baca8ccddacadebcbc9ab89
col32:   8baaa97bbbbb8b97b8dbcc898edbdaac8aebaeacddd9cab99adbcbbc99a7aeacbbddb899cbbbcdcc
col33:   88689ba8aab8bddbdcbbbc8adabeab9b9cb9b99a9cfaa9bb9bce9adcdccdc9bcdb9bc9b9bc99d9ac
col34:   aab8dbb9dc79bdbb9ccaccbaa9bacbbdabb8bacb9accccabace8bbcadc9bc89dddb999bbcbcca7ab
col35:   a6bcaa9bcd9acbec9acbcccdbbd998fcc9bbeecaddecb9ac8c9bbabada9ed9dbccdbdac8ccbaa9da
col36:   8ab8cbe7dcc9aaaacaabababbc9dc99adccfec9adacea9bbccdbbacdceaa8dbccdbdbdbabb8c9aa8
col37:   f8999adbbccaabbbcbcbd9cdebccddcbafcaebfcadaaecadaaeadceddacbccaacacbc9dbab9bc7d8
col38:   a899da9cabbaa88dbcecb9da98bdbdcebaccdcbab79b8b8be9cbab99dabdabcee9dbcadadcbdabcb
col39:   cdaacdeccccdddcdaa8c7fdaabaaaaecdcaeaabbbcbdebcca9ab9aebdc9dcceddbdcbacdcc9a9978
col40:   aa9daabbbbcbdc9bded99adbb9cddccdcabbafabbabddbdbbdadbb8ebbbbccbabbdbcbeabab9cc9b
col41:   bdd9cadaabbd9db9dcccabcbfcddcdcbab9acbaaa9acbaddae9bcedfcded9dcdbeabda9abacbfaca
col42:   9cfbbfbabb9cbdcadbdccebb78acb8bbbbebeecdcf9baccdcd8aa9b8badcbfc9eddcaccddcfabd8c
col43:   bc99bef9bdcecdaebcccbdcecdbbcc7eccdcdbdfadfddbbbcbecfedcdefdbeccdaccadacbdbe9b9a
col44:   ccb8bc9cccbbacdcebddddeacbadcccbcfdddebce7d9dcabbccddcbbceccceccddcb8bcca9ddebcb
col45:   9c8bbdaadbafeba9bbddbdcd8cbbebadcbccbebdedeebccefbdebadeccacddcdbdcbbbdeddeafbce
col46:   bc9989dbbcdadbcbcebdadbbcdcebbbcdbdeebbcbbceddfabdbbadfeaeecbecdbfdafadccbcba8eb
col47:   cacce7cdcbefedccbfdccdecbcedcbaebdbefbadeeeefccdbbeecdececfecc9ccceefbcdebdccced
col48:   bb99ccd9abdbddeababddbbcfbbcffbafbdc9cbd7ddacd9ef9abcfbbfcddacdddabc9bd9ccaffafc
col49:   fbdaabbbaecafc9dbefccbeccaed6cbedbbbcdcdcdcdcdeecbbacbfcededfdedadcebdeceee9ecca
col50:   cabcbccccbefacbbefeccdaadcbfecbfbbe7cbfededdcccfecedaeecbfdbcb97ebec8bccb9dcfcdc
col51:   688aa9c8b6e9b8bd9cb8fa9bcacacabbcccdaddcccc9dbe9c9bcbfccbb9acbadcdddbabaacebbbdc
ROC:	 BPix_BpO_SEC4_LYR3_LDR9F_MOD2_ROC4
col00:   a4758566a894392658636bb5da864cba9ca8b896359bba4ac666b86cbda597a9a5d75c6c98a6e4a5
col01:   266b568cb6836754c7e8b8e8669aaa88a8c2c897add8a89bdbd5c89479daf9996675cc576b85aaac
col02:   84b2639343a65747897aa45387d687c79889a8e98fb99597a6899b56d86a87bb9a5c79ab96bdb7d5
col03:   a78697475679789bb6967a6eadd8a7ae285576fd877a8bd8bbabc7a69d57b56c8a9b9fac69596a99
col04:   64b4c898c699958abb785c87968c77da6a976f9ba8a58b4b997988accba698c7a869dc7b9b8bebb7
col05:   7676979d9b9493c8857baab8768889abcc6d58898aab9969aa46a59985adcbc89cb9b8abc5766b94
col06:   367554f588539a969bbccc8ac7a99b99998d8b58b5df8d7f587769998c686aacabbc797d9a87d8a6
col07:   5439858885876598a87b69bb6e9b97a89875bccbe8aaab8998c879c99a9a9c8a49cc7d7be6b497a9
col08:   5445c85a3669a677758a462789879a55a74768d79aa8786a89a88ab95c5bf8c25b7b9a857ac996b5
col09:   67c8b648a8a1d9977969b6996888c9bba9c8db6aaa9abadaaabab4d7fa8bbb779e9c8ad8ab8b58d7
col10:   5824b47b4a89b35a95864797b69cb9bca9988999b8cdc898b8edbaaa8bbab7a9aaa7b8bb98c9a8a6
col11:   469aa86469356cb54977a93cbab85babcc77b8ac79b9e279759a7e6599e7c64986caba8aa987998b
col12:   4c967a89ec666aa6c9ab7b5a8569d7dc8da8ca77d4a69ab76a8aa8acbdb5c6d8ce9f7b6aacb898ca
col13:   a8368a4a69897294c73d88a9bd989bb7b9ad846658ba88856c69ea9dd6c8c8bdeeb7a9ad7dab9bce
col14:   5b6928878376887aa686b59b7dc7998acabbda89b9db6ba9b9887c9a999ebaa8bcfbb979adca8aab
col15:   6b61998b96597c1c6c6c97b8b7cdada8b8d7a9e7bc77cb76baa46a88c8d8689ad88beb76c84768ae
col16:   99e84687887478777476cc767ccaea77ca98b488eb6cbccbcdad7f67bb7aba96febfdaec99899a86
col17:   56b624b7b782b9a77776a77d7a6a78b8cb47c8999a8acfa6ac974bcbed849782a7e86ccac9cb9cc7
col18:   36638947a7556986489568aedd88bb9d9899bc8a9a7989aeb5c659ae7b99f89aa7ad989a38bc76c5
col19:   85bb866b5c78b6a877b69778b3b9979d989adb3c9aacaccba7bccb585d9cae9b68a74b9ab8898b8a
col20:   8997668998b67d897798b91996a7ab95b98ca798996bbaa968779f75d8d999ab77da7edb7876c4ca
col21:   e4e628395ab57c588898ca9abacc97ecc8bbca999bcc4bdbc9ab7c78ccca88696efed95b9ba9ccd4
col22:   844675647654669588578bb5c497c997d8ad88b899aa8ab3bc99ab869c99677855ab8cc8898bb8c9
col23:   75a9893799a67984835a794a796b8a78869a899aa7e6d69888c8a86a9dc9d999aaa3c9c86b7769da
col24:   9c67975a99cb6ca67a87db579796859abb9ad8da69b999a97a58b895bbe8c8a6aa6da9a6c79ac49c
col25:   95a64459cb9a77559b7d9aa467586adccdd49aabca9aa1aaccaaccbd86d8c9cc4a8a99d9adae5e84
col26:   a6cab94cd98899ba9baa9a9db8f98692d8d99b7f889eccebbbbfbb8bccdce96cadbb9c9b9c9ad9e8
col27:   8379b9ab639b9988fab8eae69cc7b4fadda9bba8babbbdabbdbc9ab67d9cafedda8bcdbadd77bad8
col28:   7c8b7db9a9bbbc8cbae8b9aaca9aacaabadccc9edbbeebedeadacbd86bddddeb89c9cab8aba79cdc
col29:   89eb56a87b99c8b9aa9e7977bd97bbcae7dae6ef9cbcfcbf9a5cc99e9f76fbddaea68bdbd7d9a6fd
col30:   9dda57559b78a659d47ddab9bcdbc9d7a8fcadc8bdebcbaaf68a98fdc8a6bbef79cb8aebadb9aabe
col31:   95b6d76866b987a686c9757b97b7f6e8cbfeddd699bec96cfbdbcb7ec9768bb8bf7bdbe9bdcacbc9
col32:   6879d79c7898a89babcc46c39d999cb5a9ad89cbcc77adc8e9ebb8bd9caffadedccaecfbdb988bdd
col33:   8badeb5a9cdcab9af9fa899cba87cac97bcddeebecaadbb8c7aa9addcada9ceafa9ba6bfcbcac99a
col34:   87b9a67aabac6cabea69b792bea9c89abdebedebbba7eded79cf9aaadad8ccdccbaeaa98bbadebab
col35:   ac787979a59a9caccfaba9ba87a88d799f9dca9ca9af9b96a9dada8ce97becbcceb99aaacdcabba9
col36:   9ec44bd9b78bdc99a3ac7b9de7ebedacfdbad79dcefcbbabfe99fbacbecdddece6ccc8ddef6ca9ad
col37:   97a9b5d8949cb9ab766a8cb8babafc9bcbfcb9b9ebcea58dbd9ae98ad9fcbbccc7accb9fdc7bacdc
col38:   78adb9b8a6e6b9cccea9d7abcde98bfcbbee6baca79ad9cddbeceaf9b9f8f7cc9bdfcfadfcce96ae
col39:   c58779686c595bb8bbdd88cc39b787abcbeaaedfeaffddea8cbbca9dbcacbb8d79dbfb9ad8c9b7cb
col40:   99785edcac6a9b78a8ca9957db9cdbeccbb9fcdea9edaabaceedfdb7e8bcff7dc9f7ba9a9dc9ca88
col41:   69c67989b7857a6a8accaeccbeacfd89a9dcbc97adabbbacbb6fd5b8cc9bd8dfff8cfcdcda988bdd
col42:   dcbac9bdf48bc9bb98dc98decbe9cffaca99ca8f99eeb8aeef7cfe9cefc79cade9cfbfdbdfbff99b
col43:   6c689a85c89ca9798dbeaddebbb8f99e897b7c869beacaaed9ab8cfaa8de97b9dcbfbaacf7edabbb
col44:   9899dbc69aa8dacaa8d6ec9ceac8dfbaa7f9ec7f95c9f6cdcc9adc7caca7cefe9aeecdfc99ebdaba
col45:   8889a98e96ad9699cb99a8a79988d9ced86b7caa69f8cc6b57fdfb9dca8acd8bcf3aadf8bbbacdfc
col46:   bb6d7aeccdd796cd9979cd9ca79967c9e59bcbccbfaecbbcdbccdce7cdfdfccdcc9abeb9be8bfba7
col47:   a856b6acc6b898f9b9d97cb9c9b788b7b9aaab9eaabcccba9ca9ccbcbfcdcedbaa8eb7a7aaacfe9b
col48:   8583bb9b589b895b98a7bbcac99998debadb888cbc8a5bca7ddbd7cf8bcc8b9cdabcd86cfe7aadfe
col49:   76a97899adbac7875d88c9b979578ca8adcb6aabc8bdb9b89baaa9bbaadee58e9abdcc9bcdbc79d8
col50:   93976728aae4bac97ca97a7bac8c9d8b6cc7c878ca7afc7abceade8dcfe8beabcbc7cc9cdaab77f8
col51:   8592a55a687747695ba68d47bd867f99a99bb98899776773bcdcecd488898afdd89a8e9448459b27
ROC:	 BPix_BpO_SEC4_LYR3_LDR9F_MOD2_ROC5
col00:   8324712966a725824663a57957766597753b67559a8756a65555a66264658a694524537467298265
col01:   896876377854379798757777b55836898ca59db8b5a57576d78967687897b1bd76c48b47a8948a87
col02:   25842989114745976196669a4655d77795c19a798659aa77a88aa88973b6d99a855779198b987665
col03:   7a833c7918cbbc37765336888599698994899a6fb895b9ba68a79e665258895996856469ddb7da99
col04:   75668856775ac5b479878669593c668457685a97d85776771c4b868b4a7ba97ac6867874b878aa32
col05:   7565668667588355a179ac447647985f9a8c88ab44ab78e28a9b96cbcb8c585d9887bd995b7b989a
col06:   575191986479a69479b789a967a94a8997926a8978e628a678a8a9a6887a5786a77a8a7597589876
col07:   896745945e9ba7984d756888a7b6d6da68875a99653688697b7a66b7a9a769aab876c9699c98b767
col08:   867936861635849788838c84833567a78a954c6387ea256a7b9ab59ba6b89797da67267c866a8997
col09:   6685634858b6599657874ce97959b98bdbe7686b5b79a657346688ba897c9c94bb6ac89b9939a645
col10:   4265378344879cc7c8398aa5797782889a978b75a65b7b889958978ba5abc8c57b68996cb8bcae95
col11:   767a75768798a798b55b576278aa58794bd887c387bb8969e566bba8b68aa899ab97ac85c87c9887
col12:   461b7a699688b637497b65685768a798b7b624699889b5887b98686a6897e88b7a79794fa9379972
col13:   45895948b733773a8b696aa787c88698abc7a9c7aa9c46b88937cba57a6b98a86c8868baaaa88ac6
col14:   96544969aa56161365886732a16669bb97a8bca58869b9687b965a96abc78b896686c88988b986a7
col15:   8898489b5877aa555656a76957985b57c775abacd69cb98a5996acbb9689cab8d57976bab4a8d1b4
col16:   b887545a8457959766863a7989b988bec8867a84799b8b75689a673a9a8d8b7bb88db7789679a8a8
col17:   7685666c569ca95766486487688776aaab97777aa6769d675d27acaa988bba7b899c751c78ad6765
col18:   9777576564671886383992648666c578d55b87a77b9587689775b88bb6bb48a98874857acbbd9a98
col19:   e4669864877b8a68669c73cbabc7d969c886ebfa9ca59f9a9db798956cbe8b7887aca97a9aa779c7
col20:   76b7a1794785364979d563aaa574881c67983a6565a7f6ba84b9a6a6d8779a77866acb8488bc96b9
col21:   9536c4a9e5897ac8b89bda8ba8679a7ab945d788d8687ccb8a8cb687c787bb9f87ca9869bcc94869
col22:   56b624bb766878588897a46b8ba4dc33bc878b66967aa89ea7ba899991998acb68ba7849bbb586b8
col23:   96837a8c35498a968885987bbb7c85b79adda86eda69a898cac79988c97a77b99b88d9cab9bb7698
col24:   76827b44a549555968669a8c88878597677667ba57ca9d6aa86a6876ab68b75b765757c53b668b99
col25:   6697396d789857b76998b76487b769abdb96a7cb89ba8b989b49c6b68d967aeb47887cc799abb7eb
col26:   896877576b7d7aa6b99869788b79b9a3aa69bab679c57ab5ac97a8b78697699e4ad6baacc6b6d998
col27:   7adcb8a87959add9985b7e94c7acf999c9abc8cbee589ca977ba8b87b8a9afc88d6c779b9adbbdca
col28:   9a5b78bb97cabaab9a76a7baba89a9a87b997ab9dad6efdbd9698cae9aa8abc8c9caa9cc8cbf9d95
col29:   986a88d699878d984a87b5b98bcab8fcebb66bcafac9fdeedc9f98caa8dacc8fac98b987ae9b8a86
col30:   85a5757896d9ba8bbd6a6baaa98d9acd967cadaa79a7dbd9ba8eccddd998bc979aa8abcbb896b9b7
col31:   8b4784a776bbbabbc6ccbaadd79cc8a7ea88e88adadbf7ca7f9dea889696ac8baba97b77f99ce7bb
col32:   999aa5c87ffca75a86bbbddabe7bdcb97aafd8bd9cbb9dabba7f5f97aa9bc9d8ae9bb8ca97e8be9b
col33:   c6875a8aa8b8cb9787cc8a8fdff9fbaba9f899cadbfec6bda9ab9896c8abeb9cac9fa89caaebaefc
col34:   cba76a9478a5cd97a7b986ddc8cac9adbca9f69bc8d9cbdbd96bcc4c9a5885edcafcb9bfbbb894e6
col35:   b9bca89d9caacf6abc6aefac7afbb9faafaef59db8bbd7a89b6e9b99bdea79eeaceadabcb8abc8ea
col36:   9b6369abcbaa88a798a848eaebaaa9c9cdb8e8bdf8b9dddbac68cac7c7aaeabafdac97caa988994b
col37:   76caccacaadb9abba8c76d9c9aab9a5cbaba7c9dc89cdcf7bd9da8c68cfeae99f9d8ccbbcbdb77ab
col38:   ac8c9aa92b79a9aacbccbdc99abd8acbcac9abdbbbdc67bbbaed9ad6bd9b8fbe8becabb9ddaded98
col39:   fa8cbbe69ebba7cbabd7c9a8cc9cbedceca9cdcd9c8abf7abd7abdaffc7c9dcebbdac97dc8a8ca9b
col40:   c776c7ddbca8faf9b6bd7dcbbffc7abdfeeecce2cbafbcb8d6b9cb9cabb998ac5bedacdcbca99bbb
col41:   6da8bcad7a9c8978acc89bc9b8ad59bfca4cf78faa8bb8ba998d89abb8bbbdbbed9988e899c9bdc8
col42:   87d8c9ca8798a76cbb8889addf698deaaacddedebb69ac7ebed8dcddb9bcf7bddaa9bd9a3bcced9a
col43:   c7a7bc88b878bba9b9fcafae7eb9cbfffcb9f89d9fc9caadd9bbac8ccd76bc9c6c79bce7ecebccbb
col44:   ca898ccc988a7a8baaadb9bbd9bee89aabbc9aeb9afdd8bf7fdc8cbdbc9fabdb9c9cfab9cbbcbad7
col45:   7c5ec69bba7aaabbaabdceeeaebfb9c88d8c7be9aadccbdbdacc9dbaf8ddcaba9dcac7bbaa8dd8bb
col46:   ea9aa6afadc99c8becb989e8babbbb9c7c7afecd9acbdfd9da9c87469cdb7be6b8badcab9f8e79c9
col47:   c99a9bb657ab6c8ba96b9bb899deaefccbfa5ebba8cc8adc4cfadceffda69cd7a8c9fadafc9bba99
col48:   a5ddd8c9bbaac9b8dbd8ba9d8ccccbba899977e99bbb4c9baba97b69abe99f799a99f5c8c79fc8cb
col49:   b9869a7dcd7eaceb8d9aacbbbd9ad99bdced9cbfd68aba9b9d57beb47cbbbecd6899da87ced9ed98
col50:   b987c6e9bb9cdead7faab98c9de8bbdba8d9db8be98c8dccfc5bbb8d9abfac6cda9de9cf79ccab67
col51:   843975baa8db74678a5796c9677b7595aacb9582565ac7884646689ad988caa89768ac8c86b9a897
ROC:	 BPix_BpO_SEC4_LYR3_LDR9F_MOD2_ROC6
col00:   a958978a5b85a98c959c89385b97baa769b9bc8acb886797bcb8b7c6a9a5bcadcbab5ba7ccbbdfc6
col01:   84c5a8d7b7aca989986bac99e89fa9d69a8facceddadcf98bf9bdbdacfcc88bf8ebfcbc6ed9dcec7
col02:   78825559999b6b8ca6aba957cc9667cea969eccaf8abbcbdedb8fc9aab9c9c8ebb88edb8b5ded9b7
col03:   8517abfc7aa6b99c8babcaa799ed9addbbcae9daadbeca7eccfdefafaeb65af9efaddfdded6dccda
col04:   77c498bab9779c9998cc7ad3abca8c8e8cbceaecc8dfcfafd8aeb9fdfcadacbbd9edb8b99abb7cad
col05:   93569aac823577b79bd89c8ce9cb9a9dd9a8a98bd7f8ba6abc9ec9bb6bcaedbb7badc9ebd98fcfca
col06:   a746ac54ccb54d97ac78678a9bb79a8ac9ac9cdbbbbdacdce7789cbade8cbc9febb6b9e7eeb9cafd
col07:   86aaaa86b6c989877a9b7bba89788baa889acaeabddcbaeccae9bae99d9cdb8ffdcbacee9bc5d9d7
col08:   5412b1898d9a8b97a67aaaa5797a98bcffa87bbe8b68deba97addc7699dcae89e6c6fcdaebc9fcab
col09:   878968b8b6c8cbebaad796fa6b895b9eaabdd7a997999d9a6e9dadfebb9dbe9ceefa9b89ea999cf9
col10:   8737d79b76a9d7836c5877dac97a67a7978b9baa9bc9bcda6dd8958adbfc979bdcd98abcce68afe5
col11:   a779988b7ca6776ea5ba9cab98a89a8a994d7cab89b79e7f9fbb89a9a6a9c88a8a8baeceaabbaae8
col12:   7c6692bb59b67869c8bbaa49d89f9ba7887beadbcfbbbb6a7bd9a778d8befddd6ba7f7a98d9c7a9b
col13:   97aa679a7d9bc5da4c8a9a9ca8887db9ae889c789fca89d88c88fcbfbccacb4d9cadeedcb88facfc
col14:   5947f85279459cab95657865489499c64cceb9ccc79bc7ccd9bbddbbab8b6e8fa8579b8da8ab9cd9
col15:   6588cbcb9995cbc476477979d79a99d7adb9ede7da8abbac9c8eca7bc8ca85b8cabb89a7bbcdac97
col16:   437b87a8c7979b96a57774b8ab97d6acbc57b6aabbae9bddad997bec96ab87d855a9db9dcf8f89fd
col17:   a574c7a46996a6a86c86b6ac7ec7758995bbcdcc5cbd4daa65c88a688788dc7eab885ce8aae8ab99
col18:   489555888649b58a9677a68cdaadd76bb6c58789ac5ba9dd586b78a9dc4caac88966bb886a9acaa4
col19:   568a98965759c85a81c6b39954b7d9b949abbacbb9ad93ba7add9aca8f7cbec6a7d6a8dcc859b799
col20:   94a26618587867877baa778887889899cdcac7b998b45b8b99b96ab8ab7c88b9ca698b59187a57a4
col21:   778366a697967779cb8ab7da9db5e98b5cc59679acc8a8c88ccb9b9ef9bad9ba6fd9a97dbad498d4
col22:   7446573a7c735894978a9a591c7792c96999895abbc77e92afbb899699bcc77b66cbcab6b8797796
col23:   a534466b18317895567886a4a6964a5b668c8a5985caa9bc97aa6c8ce99c9a977569a898acacd993
col24:   969aa3632859964ab4a57ea365ab869bba6999b9bb7d9a879cc8a7168bab5b69a68a5dc66aab43a6
col25:   573b95964678778b59536ab787a888a9ab7a83d5b5a89a78ce9a678da9aa717acc8ca7f8695bddc6
col26:   49775a4c99ab597d784a78688ac9788a7d7b87c89eecaba87b47adc7bcdf688d9c87b9cffceda8a8
col27:   73d74b759bc84978aa29cba9bc9c79c88c79ce6dc9d8d8b8bda99c8cadb4bedfdade7b9b78bc99b9
col28:   55698b7a58985d57797d9baa778ea97cd57958979a7cabcebedbbdeeacdba776969bcc9898eacb99
col29:   8491cb48a4a97874997c679a89baabadce8cd99afba78a7d699e6c88cecc9bbbd795fcabae6be9b8
col30:   5a5b6477a896b7b89575b6a7bab76676977f6a69adcbbabad9a9abdaaeaaa66bbbbbbfe9b9ae9aab
col31:   c999a668456e9ac5ba7a87999b69b5c996acabb6a7787a9fcb979b9a5baaa887edbb9a9a5cf8cb78
col32:   a3475cb9baa8a86b8aec994aa69bd6b99997d97a8e98cddb7badaac8beb6bb9cceabd8baccaef979
col33:   593aba6277a7ab8bafaca6a8aab6c59d89bec7bafbedd68dcb875d9cc7c5e99ab9c699eac9ef6aa7
col34:   65666768ad9a889d86aab8949898b3498a9bbbb8c7acb7987aaacca7aa8cbcce6cbc8c6b9bbfcbbb
col35:   c348a9b89ba555a9a89b9b99ac8ab8585b57699b57a87da6baad77c7aaabada9c796dbbf7dca7da6
col36:   5149aad7ac46b8b8ba668acb5486c8bdb7a3ab8ca8d7888d6b87ac98caabeb9bddba9e89abdfc7c8
col37:   98988fd8a7998ba537bbb9f7a99b6b79988bcb99ebbcdd6de77a8e6dd8bb9a9cadcca669ac9baba9
col38:   8559a58349647b9e8dcf9b8ba6c867477d79eeda8d7dcaafba9b73b8caab9bfab999babaf6efccd9
col39:   5758669b4ba739945ecb7a8786c68997bc587ba8aa9bcbca9c9a996cbddcdaabcca8b6ba9ed9aa9a
col40:   46688a5737c273b9869ab668db795b557b99b6e8b96efad696d9cebbacaadcb7aba8b97bd7a8acd9
col41:   853865a6bbc7a55578776a867d979aaabb7786bbd7aaac76886cf9e8c8abf5b7a498bab569d9bdb7
col42:   6a7893798375a58a8996bb87e89e7a79b6567a9968bdcaeab6795a996beca7bbbaaa86b879978dab
col43:   4c7956abb5768a9e6999c7aa9ab4f797b9988399bbadfa88b958ebbaa99c66499ddcb8bda87875a7
col44:   78719664956998948854c796bdd8b7ac87aa8b875adaaabf39a7aa9c8893cea9da5c99a99886b989
col45:   63c44b445787d874a4887699db899b98c5797bbba8db69a56c7db2a859dcb69d4dce9ab996699974
col46:   9556ab8769588bb7a7a995ae78a8b57a589898d686cc9899a9b6b59a9ab5acc7da878c8b8baa6b88
col47:   45986499995459659b74954855f783889777b7bbac9648bb6598d8daabdae946c894cd9afa8dabbc
col48:   14474873a62598aa61784661695aa2c9aa5978b964965daa6a364b8e9e96c576b897da48966a8bb8
col49:   46778678557ab7acc78376957a4a6bab769cad79948c5698959ab965ae9abe6baae6ca588ac7fd89
col50:   1495761434b9879898b887656a996759f798739686976c88689876b8995aa84aa96fc4866c6cadc6
col51:   5155684318463133117466158358167445aa597163845856796915478156352884baa7859998495b
ROC:	 BPix_BpO_SEC4_LYR3_LDR9F_MOD2_ROC7
col00:   5a864be5acaaa6a569dc7dfaa9b9ab9ab7868b9bc978ab9888c7a78ac99aa79ca7abc9ccdaad9f87
col01:   7aa9bacfc99fa9b9d9ccd9cdcaeccdba9d9cdecebfbdcddc9bafdbb9b9fcbbc899dddafc5ccd7db8
col02:   afd9bbcacbfa9a6cbc6fbbdb99edc8dbbdb88fd9ccaded8e9ccd87ee8b8ae8ccecbcbeab7b9ef6b9
col03:   c89b9d39b8bcaeb88d9c9cdea96caa89aaedbcb9df8c7facc9da9fdabbb768cb8f9adcdfcfc6ea9c
col04:   a5b98c7bbbd9b978e898dac7bb9a7cafad5cbefcbd8dcbfabbab8fcaace7bdc98eac87d75ffb9978
col05:   b9cbd9f69be99abc5b78ab9b98ad7bba8ab9af6ccfefbfbacbddabdbebbaccdac7c9af9e99facad9
col06:   e998bbaab99cabbbc9adaac778bbab7b7888b9eeea8aeb98cbacadac6fbabcdc9b9a7b7d7aceaba8
col07:   ab7c48bdb997b7498cccaea6bbd796ea9ac7ae8d8cccbfaab87fc7adddeea69caa9999bfeabb8aae
col08:   5599ab6ccbc997769a8daa9dc78bb98d89a88acca999baaf986fabfdb5cfdbeacbcadc66be879688
col09:   8a7cb9686eb8a99c7a599aba8b8cebbdabcbf8968dbeacbb9bfcbce85beaa89abdacb9ca8ce8bb69
col10:   bd98b599c99aee6a8698bab7dbccc7a8ac969baaa99aeb7a8c98d8d6b5bdb87bbacbeaa9f57afed7
col11:   f9799b89c9d58be7c969a68beabb99aa96ad989cbb9fbbc8d9bcc89cbb9a895eaabc7daabbc9cba8
col12:   998877b98d8999798987aa68aad6dbfc8cbdacbcca9aabab9c9ebca998d7796afbb9bb8a8cb58ae8
col13:   8296a9496dab98c7bbac79f9ca7bbaabd7aacafa8edaccb98d8acaca878adb8ade7a7acdcb79c88a
col14:   9698a9679885b57998a8d9db87b8d9ac9dc7bbb8b68a97c6cab9bbc9bd6c99b96c89d9b6bcbbcb96
col15:   676a59a7b6a9caa8c98bd68accaab8bbbacb9ba9b8977b99c9d8ac999796d8da6a68cdec98d9bd6a
col16:   a9a9ad87a959877859ba9ad7a88c99c8aacb6b8f7bccaec9abdcb9ab8bcab868aac898f9a79b7bdb
col17:   6776468789598baba4abdac68d89acd6a9bbba9da7bbeabbb57b6ab9aaaabc869ccb87487aab7a63
col18:   988866a8878a99feb68c7479a6b9eaac59a7b7acd8bc78bc9acaaaacd9a9b8edfd6aa9879c97c9aa
col19:   98a88967cbfb7676b8987bbbb6abac9bbcadbbf8b9298b5979598cb3b3ad9caab76c79dbb8ac8989
col20:   54791a85a99788aab7d8877a8a66b47a9c9b88c98ab699a68a79a69bddb77ea84aba91a65895b385
col21:   7587875762b6697a9ba8879adbd9b8aabcbcab8ecb9c8a7badbba795aeb999cb9abca8a9b89cc874
col22:   48a99638785baafa364bf3aa8acaab9b7b9dbeacd874d859cbca88b998a9b5aa9a99a797c8bb96c5
col23:   885c9719a6a777aac8987ac68d9bcda888dab9bbb73aaa9897a9979975989aaaca9b7984ba8b78da
col24:   5699a9579c65a88786a7aa88898665aa8c98a7aa5e65aa5aa7988c7a47575aa699c56d98986a3776
col25:   ba7986cb96669a8998d777b67cb9c986a87ba9b9b7abe9acacbac9e9a98b9bb99bda7988abebaa75
col26:   9276b7bb7b89a869db99b8c68b8bc99bde78c6fcd78aa888b5cff9e849c9d997bab9baaab78a6b65
col27:   b8a9f889b7bcb98babc9bfbdb7abbb89ebb979adb66fa9abc9caceb69cb89daea9ca9dd4fcadaacc
col28:   58a19a7ea958748d589b97ca7aab959abbbbdac99bc8da9ba9cfd7ac6b9975dca8988bd677f9aab9
col29:   c48a578687c9d688b789bab59767bafaa78bcc9daa9ab9fc9cbadabdeacda9d9c796f8d8b6ba7cc8
col30:   59b79b7a9b4799e9ca7585ca7ac8bb8da87a7d87b9bb99ab89adbcb9caae978b698cb9996b7aaaa9
col31:   68aa84baaa7d4a9aaa8abbcc79dddb68fb8ba79d9bd7ccc6aae8cc9e8cc8daba99acb6a69e968acc
col32:   8368da8db8a6abdab9db6a999899a9fbbc9be8caebcaa6e9c95bb9b9c7bbdbcaaacc7a9c928c6988
col33:   86757ab97d7dca7c7ca8898bc8cbaaaa899b9bacf88899b99b889a989bd5ca6cbd899a9887bdbbd9
col34:   7573659aaa5eadb9682a999a88bae48899a847b78d7e5bd7ab8aaddfd6b8ac9e6cac7498ba94dcc9
col35:   7a9db749b9a5b989599a799de9a99ea677ebb7afd8de6bdacaadc9ac6aad8b89ac9679aac794ac78
col36:   74895b7767ca8975ae77c77888988ed88b9b988adc8aaa798b96aacd8a88abb8badd6aeda8876d9d
col37:   58b999a97ce69b977ca89e9bb99c9bfb9d99b7b7fcc9a9898fd9dbdcabbb7ef957d4ad48b8a9ab67
col38:   6ad9acbba779a887686ab9fbaddcab5bffa9aa999ac8bbbbca89fdaabbaa7899a88c9867c6aa9787
col39:   6aab7baaad988cda7888b9e84bbbbcabb9aa9bacde8bb28ae9ac7aaba586d7a9c999abccb98a667e
col40:   7b9a988658a8d7b9dcc7bac97c6ac996e7bc979988cc9a99cd98885ab96877ada8d78cbba5967aba
col41:   aa68e66edbaa9a9bba779cdc995e9c9b795dbd88acbdd788aaca9bccc6d689cb56b99aaaabeabcb6
col42:   74765999887a99baf5a789cbeac78bca9cba9dc876968ba9bd77bc7989a9bba6a99aa6b9dc849ca7
col43:   5b6647a78986576b7cbbbba99a7c7b8948c7cb8a7977dc99d99bb7a6aabdaa8d8a99a88d6d68c9a5
col44:   82a859b88bc7399a6b8a59aaa79bbdc9ac8bf98889acaa8a959897dc98c878b78d99db9d5c695bcb
col45:   996cbc698659988657769a59cccbb9a38af8a77ba8aaa8b76aa9c357ab9787cb999896a988dcc799
col46:   878485585a99ba8e9a8897597675c5abeab8d9a898aaa6969786975de2b8be66bb5bc88bbdbd768a
col47:   5c74c79d747b7ab76987a64baa9b8aaa7b6a875aab8c7dbb97a8f8856cbab69a9988888a6885a5a2
col48:   56b9b9a83b59a8a57ac892a8a98a9a66bca76da89c896689977ad897a56bc89679ba86ba8dcb46b9
col49:   8772aa92ab7a84a9867999b795aaa79bea9a6b975ba86bbe96696dbd8cabcc866897c98e9da7cbd8
col50:   48674b8564783737a756686a7a8978a8999b5ac9bea5c8a979b9968c96bab8b7897a9c457e758895
col51:   542553853498367648676448754384769877997a666785744785765a1ab4255f9554992695766997
ROC:	 BPix_BpO_SEC4_LYR3_LDR9F_MOD2_ROC8
col00:   574d338768956954666a76a47286643675737a967748952757541465652224531236133121111111
col01:   5b78b985788ab9984a966477c6b97667476b676998b529b898446569944673385652674775445721
col02:   8a5b67867677d868974777869a66458a6b4a78788587816565678549792676611593467613241411
col03:   98797897b98675888b78797d79787898ab987cb66685a46aa6686666723548824573222575121111
col04:   8a589898a57a486b667765985a8a99898a548a8b86889268889b55b8467678843575531554685611
col05:   8a879886779966776998789a8a8a6556b898b7688754487765623848577925554123762223653231
col06:   9885989887a687949986387b76a796e8b8977a586485475847a686638559645a6257526621173422
col07:   679878a967a989aa9a977895aab777597875d9786a8688a9b9678343764775794467364681568445
col08:   b8a783699a9566c8a78779968a4a7768988877648b87a979562a6758756738793524335355144224
col09:   6b9a8ba888aaa99b87a8a799986a698a97cc999778952a6668575583993684a14549226744531744
col10:   799b976bc88a8888799769bb97976b8d7a69786588a7a988a66795799686663746a1135574332114
col11:   79a9c6c88777c7787cb75986b89889aa9a6b9769ab958877878687277a5846474579842453469456
col12:   88a73ab89a7644a779aa9789769b5aa74aa9746699b666c97b72374456a777895646762554437552
col13:   bb7a58997ba9c79998dd78b66a89b9b7a898b9886ba79a669aa69979776738296755765826754211
col14:   7b7868b9967c9a588b7a7a7899a97b87aba967854b67998976a9858a976985767864344554257432
col15:   b9a488a9baa375c758b8a87a8a989ab9ab8b895958b6796255947887756797668357762754365635
col16:   9ba99989678699c579c86baaa99b997b9bba8997976885879743a677877778579853554445321547
col17:   bab896b6398568acba98a7a59ca8a99ab97b8a68b79656589b547894677638336353595875247164
col18:   c887978b6b968588a686885684799a7a5bb96aa7b979ba7588936558753363356445464242244144
col19:   98cd8c88c8ac99789a96468aa89a9a9687ab677698a897a858563649466859977675882a75649722
col20:   a79a9d9c5757977a79abba7a95a7c8b9897a7b79a89987599a597667768649756934856644652117
col21:   5b5e895ab9b979a9a976989a8c7b998b6b999459c8988798178a977a86847a876234888984222732
col22:   ba869878a8c67849a8ba69999aba98aa7c9999ab8b97a9868996396a836977886275764a43266335
col23:   b587aa78ab8cb8a9abb9ba89a9b99babb878d6cbaa76864589998787977978673575532626555342
col24:   c98b8abb8aab7aa99acabaa9998bbcb9997aaba86c598956b66a49a456799c736447556567256351
col25:   a7bc8c8ba87e8a69c9879a8aba697aa9e87a8b9a9c88975759a8c784969a88897814757384853833
col26:   d9bb7bcddbeccacccada99bbc9aaaeb8acadba9bac5c7ceaa88977b7a96597897534887633547a42
col27:   cacbdabcb89abb78abb9899ec899c8daccaeb9babd8d879e788ab798696687997585666776868653
col28:   ddcb9bcb7b9cedaabecfaaeba7beeadbda7aaaac99ba9a6ccabb6978aba8ca578466687896765463
col29:   accda8989dd9c89ababccd77a99babbacadaae789b9b9c698cbc8876797a8767ca476877a5449676
col30:   c68d8bc8badea98abbbb9cccaaaa9ad7bb99e7ebeb9cb79b6977b7a5a6a8788a79687765a8575535
col31:   badbbabcf988cc89baebceadbdabbcebdcbabb9aab9cb9cc8aaab889cb999aaa8b9aa9766a687697
col32:   99cc9bc7cbc9ccadc9cc8da8dbbbbedccababefb9cd9ada99c9999aa5ba979a9a799359a887a7554
col33:   cdaccdbcddbc8af9eacaba8999daebcbe9daddaa89d9bbc89c7a89bab9cb897769587a8883699764
col34:   cbab9898dcdc898ccbbccdeaabcbbc87a9bbacc9b6bcb8dbaa8a8eca997a6b88a889886a85765985
col35:   bbaaaca6accbcce9ebaabbcbacbcacdcdccdbaab8caa9ab987ac989c97b78e8a8885b63a88773762
col36:   9dacdacccc8d9bdb8bea79bbfddac9cbcb97c8b9c9adb8b898ac69b7bb88d78b965b768ca988c846
col37:   dfd9cabccbadcbfbaec8ceaaa89ecdeb9da99ebebbddb8d8bababcdbd7c9897bc99869a34946b975
col38:   9dabc8aabb9cde9aadbcaccc9dadbeddcd8ddf98cccaafbaab9b8bb9a798a98bcaaa97b798987396
col39:   c9accbfbcbaeddb9bcbbcc9dedabbc9cccccbcb7bcb9b9bcb89cccba9cae99789959897687985843
col40:   ecbfee9acdae99fe7edd8dabcdf9deacecbb8cebc9baace97ac6bacb989e89c8a88aa967698878b7
col41:   cbdbc9d9d9cdcacbadcbdcbcdcffcdbccaaadebbfbdcca9aba7ebac5bcaa87e9d8b779676786c684
col42:   dbdccdbdbc6cabc9fa9c9ffa7bcc99becacabbadacb6db8abd9dbbacab8b988d79a6a873b96aa666
col43:   beeccdabfccfdcaecabddcdddcc8def9bbccc8e7ccbdecbefbb9b8edaad8b99b7d8a9769a9a8ab97
col44:   a9eefbcdcecf8dbf8ec9abeddfceecbbbfccadaaceacdbbd8acbb9aa999caaaaba9caa78c6659878
col45:   abcc79bacecbdcebbbbccccdbcccccdc9ecebbadebbcbbdbb9ababb8aab8ac9bacaa787a77666395
col46:   eebaa9cccbdfddbacdcdeacfb8cbd9eecdaea999cfade9b9ab8cdbaba7cad8bd9c67a597acc87aa8
col47:   ccdbef899dbf9eede8ddcddbedaededa9db9dbadeebbb9cadccefbbaec79dba989895779b7aa96a7
col48:   ebebe9cceccaa9bbeaaecdabcdadebadcc9b9dcdadfece68dcbc86acc8cabc79db998a74a6898777
col49:   ffbafdfcddcfbacbedeebbcbaddeecacdcddeddcdbcbbdeabab99aaad7bdabbbd88aa88899668a67
col50:   ecedbdeccbffcccbadcfcfcff79dababcebfe9ae9eccb7acdecb9cbfdcbb9a98c8aaada9a7a99a77
col51:   ebaddba79bceccbdbad99c5cbb999c8cbdbabaa8d99abeac8a85c98aa9898986ca97767799665585
ROC:	 BPix_BpO_SEC4_LYR3_LDR9F_MOD2_ROC9
col00:   4262611466238567637344254354a1859464177788375495562375796855383468a2565a78979573
col01:   9524a3437475914355569387475668a55b9686598657a9c55879aa7757697967838774a978a98695
col02:   345367316566663732697757757865a39969886a6456686b7878454957a3648877644c8876a76966
col03:   54266643a4975984767777b7654867c8c65b85d8488587cba957aa8686838c7966939a9c558a7246
col04:   2345288888646433575297756965c4674777795aaa57a69969b868b98b98695347677b86aa799874
col05:   36674378747247a61a978a7636669257b778774958a4488a8a89989a89aa8cac9a6756538a95a754
col06:   42265777825a5765a68769a6626879596988797a6a689a8479778a5a5668599ab71995a988996b96
col07:   8b37886677638458979a867b97b77875b9757579849ca8756a86789a5898a768958c7464ba5a9885
col08:   64564568366b548882818a4666b76a8a55897579b567387694857c7985a87275a99b583466d44665
col09:   358744975b8767666377a677b5cb8967ca669b7bba96c798aaa76a9a86e9984bbb89887caac69b8b
col10:   23755a48858866486b679a3876882d87b83d9ca88896a577779b848956b34765b57b7887779b8a99
col11:   95563432459a5772978458a88756886ba67fa678766569eb9cbac7994acba6b89a578ab59799586a
col12:   735694775597a87543a55899bbaa7539769c97889a5a88747a7c9caa89699696aa8447699599b997
col13:   89478678a9aa875689955ac38c78db99aa89c778968ae5799569a88b99e9784897878ac885a8799b
col14:   457677c773377555442874362b958cb96888aacac8987b3b9749a999a89787a7886bc9a6a96b36aa
col15:   7471458676c8bc966997945885677876a979b899783b87a6ab859b74a897c89989689684697a86a6
col16:   793735783857a7a448a89a9ecac8acab9b8c99bcc6767fb8978b9aa6978cc9978c47696b9bc96a59
col17:   848593467b4b1b77662a279a5568a97996a655957bc9cb8878978d675aac76cb92367736a6a5745a
col18:   4766a758a7976645d778c897aca8acaea5a79988cac5a5b2ca5cada8c9a497c6a988aa86b87786d8
col19:   86e997954969897896a6c867a86a788ca8966c8bb875e8b588ebd978bb8ca8d94da5daad553a8965
col20:   8647b6877366b67988985a796b988896866a9b9aab8879ccc8977c79775b896aa798b9986a6b9877
col21:   8977564696b55999a487b9a4a87c89b87c8cc9988d99b9bab9a77e9cac98a68a5886b9529aa77586
col22:   68355847a37788e79889c76c597aa6ca86a87bb38aa7b795a5abc6b7a7ba7bb675c7caaa9b6b7da7
col23:   757398a8bd86baa97575a358c87b89b8898d988aab7c86ebcebccc8ce87b987da6688c667979b8b8
col24:   8483a79579798594646468988c8b99ad5a98bc68a9b77cc777c7abbcb8959889a9b67966ba78c99a
col25:   6955a559398d99a877686984869bc987be9d6588bb896868d7b9bc9d8abb9bb6b8699aaa7997bab7
col26:   986777dd9697bbaac99aa7aaba8aaa988fabaebad8f88aac7b866bcb9b8de7cbcabcbacaa9abbc74
col27:   8a77c8ab78b78be7b699b8cbcc7aaacdb7befbbb7bab87cb6cb998e88aebefb787b9ebc689ca7c8a
col28:   59ac966999b9a866489bbc9dbaaac6edbcecc8bbba5dbbcebdb9d9dadbb97babcb58bca98ccc9988
col29:   64788fd5abb9d99bb6c8a9ecdc876cdcaddab986b9c98d9cbbdbbab879ca5a9be9cac99b7898aa89
col30:   697c52c8a68ca9b78acc898dcaf7caba789bedada94ac9cb79a9b9d7bac7c9fae8aaa87699579d79
col31:   7b76a55aac78bbcaaad877a6b7ae9a8ec7ee9bcc9aeabaaedacacbcabadcbbac78eacad9be8cbebb
col32:   5a789a9b879bfcb9a9dcdbda88ac98dc9899b8cb9dddeca6bd6cdca9eb8dd7da8c7588abaa97e4b8
col33:   9797ac99abebdc98aeb9dbdca9bedcddabdca9dadbcbcaeecb8edcabbdda7cdacacaec98c79adafa
col34:   768baab9a78889cacb9acc6968aaa87adb9b999cb5f8becbbafedc59bab9bacebbd9a8caadcfbb87
col35:   998a678bc5baa5bb8bb86abdfdeddfcedcdbbcedbadaadd8fdcb8899d9fec9fceaeac89f899a9987
col36:   748a9887b9767aeb99cb996acaaeceafc9cbedcbacabeef8c9eeddddfecccebabcb99b9999b5cde9
col37:   c89aa979d5d9bb9ac9fcc7c8cf9ebc9b9cbaaadcbacebfccdcdfcdd9aeaedec8cbdeafdbb9d9bda7
col38:   798cfca9dcacb9d97ca6acab9be9febbeedcebbcbfbcfaeadbddfbee9fccdcbdbebdbefebbdde9ec
col39:   6758787a9ab8c8ce9a979c9d6a9bd8ca9b9cbfcfb8bf5c999cc8cccb99cfbcba96aadaebacbaa9ba
col40:   6999b9c98ce99af9aae7bbbbaabaeffacecbccefbcdcbdddafcbdcbcddfcbcfeb7caaabddbe9abbc
col41:   956eb98eaa9dbae9cb9edabcdedcdfbbffccbcfcebaedf9dcfd8ec8faddbcfc9a9eaf9dba8acdbcc
col42:   aa59699ffbab9ec89ec8caeaddbc9fbdeadcfe9dacbc79dbf899abefbccc9ca7bcd96a9ff6cfbe8d
col43:   cbbcdadbcadcda6bdcbe79ac9da9ba9afffccacedcacf7c99abfcccbf8cbda9bcded9b9ba9cdfba7
col44:   988a9bcdb8bc69a58accdc4bd9cfea99adedfcbb9fcdbabb7a9afecadddbab789a8bc6cdfb9daeec
col45:   b9aa8c9cabccdb9b8ccfacefd9a8fddde89bebb9cabd8ddecacadcbbdadcfce98d9cd9c9ca899b89
col46:   d7abaacc8ac8cec79b9aadb799aaadd8ccabecbcacecbdfbecdce8cafdedbbea9acaacbeb8fbe8dd
col47:   afb99a78cbeb9ce9a9b9aefce9e99bf9eddcfedab9aeb9fdbcebcabc8b9fbccacfecbbb6becafab7
col48:   c8a9bcca7b68dc9cae9cdceb8cf89ad8adac9fedefcbdc9ccdc9daeebbebdbaacbba8fe96b7cf8c9
col49:   86ba85dcbbaaaa8a8b9bdccafeddacedebcbdc9ad9adadbcdab6ec9bbaf9a6b9aed97c98becbaced
col50:   bd9aa9ab3dbbbdbb9ccafcaa9e9ba9ecdecbbcdfcdbadadcaaaedefaeb5bfddabbb7f9bebe9c76cb
col51:   17589ab55b64758649abca9ac9c4b88cf7d98f7a97c8bb9ba7fbbba95c988aa7aa67db8ce9aab8b9
ROC:	 BPix_BpO_SEC4_LYR3_LDR9F_MOD2_ROC10
col00:   257ab7f98a776967a76a6d99cadcca97bbbbb8aa8cb9abd9a7bdbe7db8e6cd589b589c81bc796a7a
col01:   b956d48badd95a65cab596bbbdcbbb77cecb7f989bc79de99ce99fbaeeaaaebdb6e99bbbababada6
col02:   6c97d48d5dda9977cb7ff8ac8abc9aa9ba7986a9cb7da9c9fc9aaac8ebf89d9cfcc79c5bd6a9985b
col03:   cb68c9b9bbc77e8a8a86757a8999ab9bc89a88acacdc99bc9dbb9cc9cbc9ddcbb899fbb9ebc9a8b5
col04:   96b8bc7bfc97baaba668bd67a989ccdcecbaddbeb6aadcebcbf9acdaceccb9ceab9b9bbb998fd9b9
col05:   88c997d9b8ca79b9c9e87ab9cab648dabca9fbaecfab7c9dbc9bbc99e9caedb8d69ebe9ab6bac57f
col06:   97797cdabc74976a8689d789bf5b9d8daacabdceeaf98ca97debc9c88cafbbccad89bbfeb78a89b6
col07:   b768d7a8bb999a87bbaa9bdcc8a9cb8abda8ffcbbdbebacafbdfddcec9dbdba99bacceafd9a9ad8b
col08:   6796ea78c67b8a697aaa9dbbbcc7bdcadacc9aacebbbbdbbce7b999bebecccbfe8ea9b988ac9d6b8
col09:   a884877854888b879c9bab99bccabaa8bdae9faab9ae9ccdb79bde9ae8aaddfe6a8deacaeda86ac7
col10:   b9b86b8b9a68aa8ab9a99acdfbaa8ab9cbab7a97aacaa9cbcb9aecca8ce7ba99daab7bc9c699ceab
col11:   7a4d79899d5c69c698bc987bb8ba2b87b99dcaccedabda78acbbcebec8da6bd879cad4f8a7cd7b8b
col12:   a8a5b66688a58c87678bbaa56988b83afaeadb9c9ffd8cfdbbbbab89a9878b9aa97bd8dc64d97766
col13:   b969987d88dc7d86baaab78ab8b79abc9bdcbcb898e7bbb9ad7df7bc8c7d977bf8ececf8dedab78a
col14:   b587a564876ba6978c9b658edd9a57be7885dcabcfceedbbddaeaddb7b99cfbd9dacb97be7aa9b9b
col15:   7668687dbb997b8c875a9bdc9dbdc9dbcbfb897aacc8cda7ebad99adfcebea9c8babccafa98bcd97
col16:   7dac56a87a6878a88c87da79b7ae995c9b6abdbe6be8fe7baabdc9b8aa9c999c9cb7caea5a8aa9f7
col17:   98799b68476b9995a887b955b8b9b796bd9aa7a799bad9c78cefdd6fab9a87dcd77dc8d9c66abcc4
col18:   778a98c6759a9d68aa8b68cc8b8a99ba97ca77bbbba9aaaa994adea9aee7aacaeba9bbb7a9f35aa7
col19:   a89a6a9454b86ca89da68b6adac79bc7ac8ace8afaab897bab9bcbedab9cbce8b7ccafbdcb9ab8c7
col20:   8857967c6b97a77a6a9887a59a9daa8ac8bccdb8dba67ca9d8bccacedb86acae9be669dd75885886
col21:   8681a65888a5b5b5ab77999cba7aec79ae9cab9abafc8af9b8d889bd9ccabc9a79db78cc876a9a65
col22:   a85735a87b7b49bb8aa7b78977ca9b7b9fc89da8da99fb8a988a8aa6daacbaa78b9bc9978cca8a8b
col23:   a3a332958b9688b88ae77abbba967cb9be88699c84a856c8b5f9bdbdcd997aa878cbbdcaa6b7a9ba
col24:   6b8876946697ba65976cb98a9aaacb9acbcbaac8e6edcc8de79acaba9bac998a99cbc87e6bc9bc69
col25:   68579a45bb458a8c4ab9b7468b95bbb78bc8779abbc48daaaa97ce98fb9ba89b9ac676b8b89bddea
col26:   a474746a88d9cc9a99cad99ad8cfb76b99bacb9bbccafdedde98f7fbcea9faeddcab899dccdf8dbb
col27:   868746e77cb99a98c9baacb6aca9d9cccd9abdfebb6acbde9dcadca9adabcbc8cacc989d899daadc
col28:   a7b5b69b88ba769887bdcdede8bbda8d5eeebf9fc9cd97eacdadabccda98ca7adac9ac8cbbcdcbe9
col29:   36da763887a9fc697a7a8db9b8d96feb8b7ebc8cbf9b7cbaaacccafcbebbccd9a8accc99adeeabca
col30:   888757c9797888999c47dc6c7afbb8adcbcb9c9adedbab7ac99afbef9bdacd8e9cadd9d9dfa79d9d
col31:   a59c69b968aa5989a9899dad98ea8a8c99e8abed8aab8abcbbdd8b9da76de7ae788dcbdfddf999da
col32:   c9b9ab9ab858bb4ca97b8b7f69cce9a9dbc7fa6cbff8d9cc8b9cd7a9feabddfaccadeb99a5abcbbc
col33:   978c5b87b9a87abab9ca6958f7ba89eafcafbdbcacbcba98ccadea9df8cfcf9cdccbbcad8dce9bb8
col34:   55b7d5b5c8d58abbb789caa88aaa7edbb99bbeafb6aace9abf98cb8afca9d9aad9cfdce96ead5899
col35:   a98a8888aac88989e6baace96dbf8b9baaa8bc9fab7dbbcbba98cbe88faef9fcd786fece8a9dcbdb
col36:   8b7a877a77a78a7cc999bcab98959bda9b7ebbbaacadcd8bebacacded9c8bfcdbcbdccbacacba686
col37:   356a26f9756a99b6dbc97a8ecd8b9ac7dd7fecccefbbf8bdc787dfa969ddb9bbf9b9bcedbfde7cba
col38:   ba87a679a84ab78aa85a7d7c7abfbc5bcfecacdbb8beebadaadfcfbfccbfdbd78bdbbadfaefffd79
col39:   c68778c57b39eaa8acd9a67df8cbb89fab9acadaecae8aadee84fbefbbb6ae58f8fadfcabbaebbd8
col40:   6abca58c76aa9ecc88b87f6cc9dcb9bc9abad9b8bfc9cbbb99aca9bbbeebbd7e89d9b9bbbcb8ee7b
col41:   885567b9c76b6a79aaba66a79b8cdbbfdd9ebabacadfbcae569ac8bdaabaafbbababca9ffa6b997a
col42:   595baa48ba577787baba95bbc8a7eaaca8ba99c9ecadcdaccfae7a9cddbcbac889dadf9acfc9bdcd
col43:   3a8863589557cdb8ac6bd9a9caaabc9ba749baa9facbdcafd7adcf99dccd99acdcabeb7ccbaaa9ad
col44:   3d3528859b876ab6cb99578a8a8ab7a7cb6baca68d5fce89e8ccaaebecac9cddb798ddeebdcca679
col45:   665a79c867b5969b89c6c7acbac85ea878bdac768ea8bfbdc997abfcc799cbfbb7cddbd8ebdc8ccc
col46:   7575caad68b266897a9a6a9885d8caaccab8cacaabcc9afbe9eab5cee99cdcbbccdbdc8dcc7cb9cb
col47:   35b88bab7967d9c497a585899eb77989b6a8f8acbbd5abbb99bca8ca8cf9efe97bdccbba6c98bd96
col48:   9788ab4a5696b9bca688a877b998995ba67db7cb8b7e9cdccd8877cadeafece8aafa9ebaee3adcd7
col49:   669746895199566795698a9c7a6946acb7799fbcdcab99bccab99c9deab9ad699b988dea7edbd9b7
col50:   841966663496abb8ab7378adbaa4baa4b7baba898bccacc9ada8b9effabab9ee6cab59a9b6b6fda5
col51:   531862415661873627596a54862b6916567577a2a79aa861978984678a8767f98bb79c399bc6e977
ROC:	 BPix_BpO_SEC4_LYR3_LDR9F_MOD2_ROC11
col00:   4155231512723749568162435286554565347545574564a7786156555b296668753798696679644b
col01:   6a768363866866548445387988b686666688b9b39a664b85a78649568a87bb958479a65781355641
col02:   8727158557535346b9b43646c2331669673565657579a6885c6c68a85a86458ad829734db7796831
col03:   2a97846a84595866867a8596956566978a35a36b3873b69565b67c658c8668b4566d3447667a7448
col04:   248776a64517a7368d49647746966388374477c55f521666786a5878587889a7a79848945d599681
col05:   87579a666347b67283a6a568375237389519a56677858599b979979c68b7897986871986526c7866
col06:   59443a35878275657734975dab85991c99ada38958796a4ac97997765995899a44b678b76b57a659
col07:   491225682575651576987698583a67673a68b77c86996b99778657b96668a8b67ca6475b77826fa5
col08:   845674a47157638968738896a57678b7a3768877d989376435869968b597868677157876a9688834
col09:   a484447a7a5955873755969459697a81b149b87866c44c6ab76978367abc9aa8aa466cbb8378b7bb
col10:   69354464521b549797c668d76a884669a886573999668e6baaf79ac699568d887989799588bd6a85
col11:   226558a3879658283998b455ca6656277a879c5b8965a78cb69557582585dbad4b7779b657967895
col12:   98866184a6a9276a36449746599a6c48958d85768e79778b75596a68a718b6948178654428b55579
col13:   97166875278977755656965b868b7a68876c8b76ca679dae686467576c8697a877a8668177545958
col14:   7aa764992554677374895998f8b69b68966795b5ab776b66958bb879647c8bba49bad777791b4357
col15:   2661968334489635943c3697c636a8ac4bc65c98598a7599b97695566b9d69abcb68599953627654
col16:   b6a974959a77363a9974a44c9b765876b89946868ac89a77a6683b4737a79b79ba8859c485b61365
col17:   732633443556587957a488b4c967a8aa7ad86896a6aa8988893379b864b84c2b4777a7459757b65f
col18:   a854765b26884678875aa79965669dc189179878cb989b79bc96b8ca594a889a1b94a5958b635958
col19:   8561758476a7766553713a63459788888c5a97c2858b59a6a79e7b86b979878a65c6465a74785c37
col20:   6467364162936498a6aa7bb88c28b279957968799a79a978579aa89796a8d8a981268684cc884328
col21:   55166353786653a4a7a79b9c7b6544869a8997e89a67869a979c4b53888c997aa4b85ab77a92ada1
col22:   a48797277598685163889655a91a57874769b77ce58687ba9b998598875961d6869892c733745765
col23:   82158475866768777975c756497c695957857d48a99752b957797da9579769c9777c9846568624b7
col24:   57a716666878a473886899748b73c6b79a37798679559aaae8759bbb9a66cbaba56159697686b6a4
col25:   93a93341558c3868697da7b79a88b57cba8447b7df9a5746a6897c9949799b87b89847876844a956
col26:   66a4a43344888887877695c78af5c4cab89dbc38ba9d9cba653d8a98aaaae8c9baa89726993aaaa5
col27:   67731957b3957c8b9a9b7c99ea8cb74a58ada7999c7ca8aa97bd5c5c988baa38798898b89799b684
col28:   69813166e69893986aa86996abcfa38aa8998eca7a7bd9a7b9bcaddcd96bb6849b8b6a56abc88992
col29:   868662695885bb3d9977c697896ca7c7ba977bc99ccb858c9888b98b7f99b8ad7bcd9896c44acc16
col30:   766768685b66b746a68c6d555ba6c696baaa7cd5d8a97df8be8b96dcac9a79bbca5888c6aa4b8955
col31:   987c39668b65a98a75897bca9a5e97a839896da8a9cece9babbbff6e77fbd9ab888a88dd59c947c5
col32:   6586a658b847967867bc78aac8bad9bb89dfeb8a6998c8cac88bbca9eace7b5ca9f8488bb79b7e55
col33:   547e46a63ba68aaa7e7a8d789dbccbcb6bb8bfadfa99decbe6ad989c9da8a9a795b99ac96699a6bc
col34:   688c377a42597b5cac998b8c799ab9ba86acaac9fb887eaf6a9eedbacb88b6daa1ca9b9b75a74cc8
col35:   9868737b6888ba786937bd777af7f8ebaec75bacaecdb9da7f9bcebf8bcbaaa979dbac8c896a6b93
col36:   a4689789cc878bd7baacb76cbaa9aa879a97b9abb8c9db8879799ef99b8fbb7b9a6aa8a6aa699ba6
col37:   6a8898ac7a9b67cab9a9babd85dd8bfe8f9c8a9aa94866beccf99c969bebaaaa86d4da89fc5e69a9
col38:   b26a6796a68c4c757ca7b9c9ca998ad7bbdababbf67be6b7cf96dbadc9a9cbaaad8cabe6a7bcbdab
col39:   836ad5676aca69cb878b499d95da8dec8c9aa599bf95ba6ae9ba98cabeb59bbcd59acb976ccbcc98
col40:   9786aacd4cb9b89888899f6959b9b99abda8ae6bcb8faba8cbc9bacea999bff88adc9588c9caaf8c
col41:   b5965794887b987987aa88856e7ad8a89baa799ed9ddf9fb7ccaacc8e9cbea99a5befd88ca9ab986
col42:   9657d794397747c7d79b9cacc99bccbacd6aabcf88cafb9aedbd9cb9dac7796dac7c77c8d9977af9
col43:   5b8784a6e7aa988b6ca98ab9b9af98588ac988acbe8a96bcc8aae8bdb9bcddeae96979ca68ac9aba
col44:   ab57ca3988aac8b8aa99ab79cabacabb976bf9bc89acd7fafcaaead5cd9ad59ec8bba8ebedcdea9b
col45:   995b9b7a9bc9a9cd6bce6d777b9fa9998a8f6c9eaca76cc67dafa9aba996ae8c9b7ac87a5ca8bcc8
col46:   78b576a9e77554a8aa96a29b9aba9bbcbba9bddc6dab99c797ce9ec9aba9d66e96f9b8ad8ba99876
col47:   adc628b797784cb68cbda9b8aab988568bcb976bac8b989da9cdfcdf9f9ebcbbefabb9b9694e9ba9
col48:   a89a9b67c5b698765a95bae9b7bc89acbd9a8dacddaa6aafbba77ae8ab98ebbdda8b78b7bcda6b96
col49:   697579799869cf8adabad67a6b7ada99a8a6b9b786d87a9baf9bba9ddcaf8cb9cb8b9cbcc4aabbb8
col50:   4c5d786c87a6a97876aabc89cab6aaac6baa9c8e9dc896ecccaab68dda99a7a7c6b7b89d99caad96
col51:   855aa553566271556c6577abdd78a66667a1ba9899557385bb38848d9ae88788c8886657788ab8aa
ROC:	 BPix_BpO_SEC4_LYR3_LDR9F_MOD2_ROC12
col00:   56687174a7a67147999247684955448b878aa758586678878b8914898dca75b878459a788c47275a
col01:   97b798455f8585657bb78c9774667a689577c856bc57a8adc9c8a88a9eb39a765b7db9b3986a9c78
col02:   768661544878765c4873d996999669b8caa77aaa8caa7b87aaca83b7547b47777b6778b86545c8c5
col03:   abb67a87bc56a95d3c88489ab888ba8b9ae7ddb6a897b72f97586678cc7848a98955dd7b7a8d7794
col04:   ab985257ba9599b8b8399af859c99cc786a6a6ba69b8a7c89f84daa8c6bddab5aaaab7625aaa7a94
col05:   9a538898a6463c958867794a8d967b59abbca6cc89ab9bacaa98b8adb9669e4b7aab8bdbb68cc6a7
col06:   c67669b889b37997a78996da8b5b978b67ac87a7cbc7978ccdabab68b624996b5ba79b8c6c963a89
col07:   5658a6b6cd56c8666ca386995c7668ab96dc7c89ad87f798a99ed88cc999a7969bdbd7a98986b549
col08:   665b58a696786a479578cb48a8ccb5aa5b8b83cd48dcb8986728994c9a9ec898b75a7ab99b3b7689
col09:   86a6a97aa84747a88c79d99689d89ca9dd8c69bd387c65ca99ec86aacedafa8a7bc84a9379b46d76
col10:   84436aa853b8ab7a59a7788a9bda69d966da8bab7acaa974cbabbb85bab958aa8b9b27ac64696919
col11:   6b944ba657ba76e8b7b995779a7788bb5a5ad9a87ba5ac9c78d8ada7df9bbc9585b7bb4aa6a79c86
col12:   aa185a9666685b797a5a6799d798584b78b497c8a986e88cc9e9a7aabfcdb5684cc69a7aadb69bca
col13:   79a8447ce68579b86d67a9acbea769b88b989c8dabc5f679a844b7daa398c7e95ce6786988aa8894
col14:   d878b7dc6b768ab47563888875a976ff766a6a99949b859cadd5b7f9e6c99ba6a9999a879a779b6a
col15:   6a87a799886666966a9b49c7a9e69bcb998bbe7b8cd7dd8c9aaaabc59a9ccc999db5e87b8af4a498
col16:   9a54d7957c5cb378d8d79b59a67999eebde7fd69d9b9bcd5a9dfcb8b71779aa79abad88a5896bc53
col17:   6b699b769d86ae874a3787bbb6899c9bc6abcc4aa97b7aa37b9d8cb3abbbcaa94a85b9cb67798999
col18:   939ba816a73768ac78ad8a879d68867787897d5b78ca97cc799c8976e9cb8cbbb2884ac798a76884
col19:   54b694ab7ba6757bbc86fb998adc8ab8897788e9dcacc9baa7dd9edbce76a739d94cb569d9796666
col20:   7ca7aa858397a98c57f9bc7778d8b93eca8bc9b5bab89dc68b699bbb7696e9888b778957a756b866
col21:   9455a66528b8b58aabd968abe5799598c7bf7baacbbaa9cc659a3e8d8f56b17f78c9776b7af4d656
col22:   967a46779787989ac756c98787ac977b86a7d997d8b877899a887b87685c78c99a5797c7ab8667b5
col23:   a687c666688ba66eb9a6d8d57679a898bebab68b55d9c6677744bda9cca4bd89aa7dac59677b8796
col24:   469b5896a65b93d5eab96bb978d6979a8e6ba6b9ababaa6e957b4b9a8a9dbb8bb839b4828e87778d
col25:   495657c878a4bd5b9665d87787dcac9bbdd6c9acab689cca8b98f9a9bf77c78ab9a9bbb687d4bbb4
col26:   7b7c69bdb9cb99a8d7df9cb798aedbdabbb9a8bade9b9cedda8eb77cddde9c97989a8997a9b75aa5
col27:   b5a7a599a6678dca6be789cb99b6adcaacabbabcb9bbc7ad8eae8cfcbbdacbc7a896d87ba376db76
col28:   7cc6cfb8dd9da97d9ad8dccdbbdaa77bdacbcbd96fcbbddeb9abdd9adddcaa78e5a9baabaa8798a9
col29:   76b39a9dbbd78cbaa6b8cd88bca69acaca6e9bda7edbfbc8bc97bb6abc977cad86986abb6a99897b
col30:   c39c59a7bd67a8cdabbcc9c89cbebb8dcb9dbcbcfd9acef86d9cacccfdb99a8bfbbbd84ae8b898c7
col31:   a496b8fc8b57a8a998bbbbeacadbb6bcccbeba8cad7ccbaccf69b8eb8ec9bbcaabca8f87ed5b99f8
col32:   babdd9a989c567cf8dfbb7bdafbbcfa98da9bcdaecd8d97c9d8b8b7dfecfcbcccbacdec9d9baa979
col33:   faa5c796bca8b89b9f6ced7aadbf8fdcfadc9abdd9ddacebdabbddb9c9c94ccbca9b8e8c8acee9bb
col34:   9b9bec6dde7dd9e8a8a5d7897cdc99cdbcfdabe8867f5999be59e7999b7bb5cae8ca9fc7a77abdf8
col35:   9bb8c7fb969e86cacedeabaaaefaaafcdcfacad6cb895c7bdccbdaeebdadd98dd9a5ddfefdba7bac
col36:   7db79ac5aaa8dfdabf9bdaa78c9f869aa99d4b9ada99faafc9eaa8a97a7cfbbdffd886a89dab5a76
col37:   6bdab98aaa4bfbf7c9cfdc9ec99a7bdbb9bafb9fdeb9a9dc9ade6a79e995f98acc6cdab67dddaa88
col38:   dc9a9d8ecb88eab8bfbac99dd7bdcae97dddaf7caa7cc8dbfbbabbaa8da84cca69cccaa9dabebbdc
col39:   8b6baaabd999576dfac8bb9bafa99afee8a5cccaf7bac9ecbe98b4cf8cec77ecb8ac68bc5aa95ab6
col40:   adad8699acaca9daa68bdbbb9eb9a9caac978afca8c8dab9eaab7cbb8bfdeabcdfebadab79399c88
col41:   ca89b7acbb4ab89cdbcca9eb77eeddaaff987de9fbbbbebbcda96aa8babebc9ca9e9b9bcc9cfa4cc
col42:   98a5baad8dbcbd6aa9cecb6ed79a6c9df868dcad9bb7c67a94d66acafbfdbd769bedabbd5c8cb858
col43:   c6baba6aba9796e7dcca8ebef86ae8fc9c9fda8fdbadf8ba7ecddacc99cdbac9785eba5aa9e7a8a8
col44:   b9ba9adecd9a7a89afb98cb8f969fc8d9bfceafdc8ccb8cebf988c8be7a9a8dab9fbb7faa8a958b8
col45:   eaaabe8f7ccc9b6aabebc9a5cae9cab8c88c99e988bc7baa8aec5f8aaa98aaaadaf8f9cb4cd7ca8b
col46:   89ba8b8e956c997babaab76bddacac5a9dbb9b9bcaaedb888dcda9ddc5ddd7cbab977dfbce6a99fb
col47:   748d8aba9ba776c88b846dacfaa6aa988fa987fd89fc99bba76cabd7896adceab8dbdc9b9d8eab9b
col48:   eabdbac89b38cbea94aba98898cc7a6989a8a6e96abbccebcbd6bbabbcccac7aac8cfb675cdbd9d6
col49:   a85b459a9c7bb8babbb45da8b9dda9daaa8b5b978779cbfae9c8b9bdabbc9a99bbd8bdc7a8fa9aac
col50:   ae87bccdbb9ab79cabd85a9bae8f9cfe6daabccbafd799bdbccddadbd99ddeabcabb79669b9b8ba5
col51:   17958853b8b64696e2676988786589bc9b8968a989aa829aa76bc8aaa747b8557386797878b659a7
ROC:	 BPix_BpO_SEC4_LYR3_LDR9F_MOD2_ROC13
col00:   93628436555251635a66424356356857774665794596738858756569967a51a3976686b467759384
col01:   751167954336566659667a543768a6a7b357a46646a67861768b989896b8ba7879897c68898b5454
col02:   844b1a4364286854586656877d784975798a68668577955747879d85a76945978b8974748983a999
col03:   44869547681759746a978867956b7998459789894ba988879c79a778867688779495375ba799b857
col04:   48936657275877486854a86766498b67a7a5b685c97397757d787a5a9ab969788889959477959658
col05:   6562658a2766617988896589a75b84a68a66786869a966aa8979757696a7b779876c8595495866b4
col06:   865699778475863847a78698ac758848896a4887a7a6879996da7a84a8a697787747997987778a95
col07:   54577884a869a777a577b8a997688a5989c89888459b9a88795a6c8838c7ab7387b695885a785b96
col08:   6751759946652a65995564a48576586a977698a8a7a74898678aaa95896cb9b794939b686c858776
col09:   81577665868787896576ab87a6a757b58ca8a617aaa9b685c7a79877ccab5989a66ba98c59a7ab49
col10:   557169a737282254a686a8965eac88979b9621a8a49a6d997a87b95b9c6c9a896a8b8b6564857985
col11:   785a4468b78649a79838b7369a9a696696998657688a8aa678a6769896d9a9696b636866755887a8
col12:   4754b4985a557653999477988588886a688b875797a89c9c86798978b98b89b7a6789a7b85765a75
col13:   69a779a7684677668a67229788ad9a8aca9a6b878aa88c9d8caaa67a99a7c74b7ba9d9b7a7778888
col14:   6794a753867563885599698779854996874aa995877ba8667989996aa77886aaa87996a6886a98b4
col15:   484138857939768885878babe9a68c868b5b86689569aa7978a7698bb89798a89a7588685ba679bc
col16:   642976985a688768a835b498597988b98998bf896986699ce7a87db9ac789b8989736699988669a7
col17:   466977b7847928a8a7987889b6a9aaa6a899a8989baaa6a6cac8a7b987b9f776c7a89788b4c66799
col18:   b7757836565478956a769c9754aa85a9fc879a6cc9a58bc79a9a7838aca5ab577585b974a7aca8a8
col19:   7546a98888a6a89aa58579a9ac9abc998b8aa98bca878aaca7696ab98c759c78cc8967888c9a4899
col20:   775988689567657a9b4b7ca57aa6aab9776999a8799abac72a59b9ac98797b6a9a7879b77577ba98
col21:   6ab8a7478465886a79b98b8688ab8bbb7ca7a8a988998a8c8a89b59bbbab97a768787a7a568ac966
col22:   67649879a7756a89b79957aa8baaa88b8c8c8ba79a9c86cb948b698d9aba969bb485757b57669797
col23:   7468796944459a4a8984856b879b796a8879a99acba9d8a9b9cb6abab99877d779787988868a8c75
col24:   6945649aa54778a989a889b7aac7bd9987979b9c5bbbd798b9687a7cbbba599c9ab8a787999a7674
col25:   777776a673967a6487c86c88a7bb8b99a99a7cb89ba8a98ba969abb6c8db889adb67b76986adb959
col26:   d88ac88fa6a5896e7b89a9c97abbb9b8cd6ac9dada99fcd8b99acb9bcbb8afbac87aabccc949a5b7
col27:   77c595878c999aa599baccc6cafbca89c9ab9c6ac989addcec7b96badabbdbbb9a9c9c9d976a9848
col28:   997abab7c59aacbbbcd8caac8d9c9dcddfdd89b8ccb6ad99a8ebc8aad9cac8cbab6ca8ab989bbb99
col29:   6bb7c6b9ab9997a7639c8dcde9cb9cba9cdaac7b988da99dac9aa9a9c9c8c9cac867b5988caba497
col30:   cb467ba8b88d8796ba6cddad8ddbbacbaa9aacabe88b9ccebadc9bb8b9c7eabaadaca6d75dacbbbb
col31:   5a98ad77d978b9b88c7bbbac8dbeeede39cca9eafaea69bccb9baea9cbaacdca6aedaa9c8a9b8e99
col32:   899ac7acca7798ebcaaa8ad88cd79ea9acccdb9bbcdfbdc9ccdb9d9c9ca9cbaaaccbdd7a6ab8a8c9
col33:   a9a87ae99b7bfd8cb68be99d9fbecc7cc9fcb98bca9ecccababbada8cecabaccacb9e7dca89c8da7
col34:   ba86bc667c6a9acdbbcb8dbcd9bbab89beabbbdb9978d9cc9e9a9baeccbabcf9c6adc7cbe9b749a9
col35:   c8accbb88a7ca6ac9beccb9d98cbbd89caaa9ddfe9fdc8cbc7ecb9cdbdcdcecbdcac89aba8aaaab9
col36:   da95baa9ac88abebb9adeccbd9dca9bdefbcdef9abdafdcabccaaddaaeceea9ddabdf9c9bc9cb8cc
col37:   769cbcbba7c9bb9b9bb5cefeacadeacfddadcc9bbebbdeaea68dad9fbdeebc9ebdba8dbaeabc8a8c
col38:   bb9a669ba98acee7dbcacb97cd9aaaccaadaebd9fb8a98dcdbda9b7ebadfc9adcc9dcea8bccdcce9
col39:   8a8cababacdbbccd979bbe9dbccc8feddfc8edddcdccdfebbccbcfd9fabdedec9acdd98bcfadbbab
col40:   c9ac99ab999fab9cee999cabddb9eecfeccb9cbb9ca9afedd9bdbd9ddfebbfad8b98bdbbbc8acc9c
col41:   a8acaaaaaa99b7caaba9bbb9eccebdadcebdbeacadecfbcdeabedcec9decbcd99ac8bcecbfd9a99c
col42:   869b8cb9a7ad8bdaccc9cbbddbc8ea9acdececadb7adbddbcdcccaeccbbb7bbdcabbafb9a88cabba
col43:   dbabd978bc9bd8ababbdedbbaefdd8daedcccfbbdbbbae9efde98cebfdfedcafdbddbfdbbcc9dec9
col44:   9bbba9beaeaeccdec8ccacfaabeabceeefadfcabfefbbecebea9ee9bda79c9fddcacbdbdcdbcadbd
col45:   bbabdbd99fa9bce9cbdecfbbdc9dcfbe9caebdbbcdbfbdecc9bbbfbdbdebbdbbccccccedaead8dc9
col46:   97a78bad9acca9ecbaadbacaedbcfeccacfeecececffb8bede9adebd9b9ecbafddcce8e8bcadbaab
col47:   9c6aaeabccc7ccaddbacfca8cbddbbebcf7bb9fabaadfebcdd9edeccceedcccacbbaddf9acfeeab8
col48:   a89a89cacaebb6dabcbcabeaebeddfebefcfaecbefbeaacdebfd8cbbccbf6cbe8cfbbeacea9dcfaf
col49:   98bbadaaaa9ddb9ca8ac8addbdbbdbddbfefadafcbbef7ce9dcccacdedcfdb7bde9bbcacb9ecbced
col50:   bbdc99a7ccad9ecad8dddd9adfdacbccbbfabcdccdccdbecccbecedabdcfdb9bbccdc9dddbbfdbbb
col51:   8ba69a6d9b9abc98ba7a98cb9da689fecd8cabad698ad88cdcadddceabdbfdf7faead9aebaaa9b9b
ROC:	 BPix_BpO_SEC4_LYR3_LDR9F_MOD2_ROC14
col00:   25166741915235447446686766a5a63b55786439876785376687535c7977a6688359556677623834
col01:   a59157926353a5794968a484b9667839996a85c68698c686883589887677a869aab6786565998676
col02:   817545297654b685785887689766a6688467769b9566848858a78876aa956a978565887978797687
col03:   39142b894977798867a67177b5265a9ca4ca6bc8777779776999869885cb7b99757bb879ad958b78
col04:   7732765953a55647869787875979388589a897665758aabc59b76996898675b97a79b8bcb9699579
col05:   768586758847856a297759476a672a58d8a476966c6a7a9795a4a9568a799466689879a89a796958
col06:   3513666364443b9a85787374897577a677687898aabab489b8ba758776acb99a6a3bb7586a74788b
col07:   94462586699766b59aa55687868aa8789998cb789688977ca56b879959a9b688aa797b96588b9795
col08:   8468486a5856766793587747c947494788a78897878a67a88897798788788ba8798957da986a6786
col09:   596357779666667a9987689a9997887a9a9b349a9678a986b87a869a59a998b9da79ab8988c8a899
col10:   5766a5a957676547375a8687488678983a8a87894b67769ac956a796b798ba89a58b6686a899965a
col11:   42596787667467b667a7487657c587859786a9665a7b7c79b5897bb599b8a799ab987797584aa77a
col12:   47959537696895877877a869752aac45aaa9b8b8988ab9aa7bc9585bb9a9b8c99788ab78a7686c96
col13:   7635765665575847557778675b7688978978a57b8c787a7aa9a8894a799978d59b76a989683b7986
col14:   665968768567469798747677797b6a4a7b7877895a4c99a8878996969594ba69a8a87b69b9795a9a
col15:   5288a7ac69967a967682863898a8846baa868caa9c789a8a99aa948959aaaab788a9c469c7b88c9a
col16:   5845977b83875c357724969887767966679b9897799b8a7978ab6c58c8baaaacbb78baa9aa789887
col17:   47982256957577889788866677586a97686649bb9799966888a6bd99779a75878789a8b88899a8c9
col18:   72576667867a945699b76868687788896bcc8998986c8a7bb8c679baab876aa8a9b9b69879bc6a8a
col19:   84b56767634a498577787767a3979a9c97967b99887a88998a599e8da58aba9a99bc87b88799a779
col20:   23763576a89796969775748866b9794aa9b9a8678649ba7bb85a969ca988a98c9c8879969b9877b7
col21:   99476a96717679987b4a72676893677988ba8a8b679c8b7a878986aa9bdab9c8cac5b8bb9647b7d8
col22:   983757765865958a756969a97b77977899aa9778a69dc4bb6b9a8899ea89bb99b99d5be6aaba8a97
col23:   8544453b788655793a89a8769a88a8759c9a7757a9799cd9799f9acb889aaaa659cb9bb79bbba698
col24:   556978968ba8585898a87a9a87378778999b99a8a9cab7978adbdbac78b9b7b87889cb8c785bbf96
col25:   898a87b87a9a7a4888ac5889598969a779a689a8a8c5b8bb6bb9aa57b8a99cb99abcaab7b9ba7ab8
col26:   9996a697b988898aa99d7799878cca69eacb9ad79798caca979ca6ceb98cb7b8ceadab8d9bb9bb9a
col27:   85677c88695ba879799aa6875db79b79b9a989a979abaccd7d8ccc8ccca9bee7ca9bc9b8b8bf8b8a
col28:   a5799889a959a97a9b9b787ba8bbbc8a9ea9d89dd9addab8eaabcabbeebabc9edcc87adabcbcba9b
col29:   5578cad968867997aa8c89d7a996cbabcc9caa96bc99bc9bd9abaecf9c9dd9badaecc8bac89ab9ba
col30:   aa5997a8aa79a69b8998aaceb87aa9997b9abacacbbbc79a98a9eca9cabbcbb9ccac8d8e898ad897
col31:   987789d788b9c9d9aa7ac89997ddbc98ca8ac9cabdbc8ca98fcaacbda8dbabdb8cbbcc9c9acacaea
col32:   ab9878ca969bca7aba87bd9ca8a9bcbbcababbacb9babbccda99baaebadddab8a8cd9c6dfc9bcada
col33:   8a8ccb697ccbd6bac9acaca78baa8a8e998cbd88cbeabacbebbbec9c9bdceccddbdacc9bdcdcf8bb
col34:   a769bb88c9a8c7bcbe9aaa8cc9b9accbbcb8caacaaec7da9eaaaebdafdef7bccadd99a98acd9ceb8
col35:   f5a6aaabbb89c798aac8acbababbaaac9b9bdb89bfdebbcbbfabbbdcbbdbed88cbffba9baab9dbed
col36:   a99a897aaada9b6acbc889aa98bcbbaaaccec788dcdbaddbdca9cc9aaddc9ae9eddb7c6bc9d8ccdc
col37:   ab9b8adada998aa7cb996b8a7bbcbcbe9ccbbdbcabb7bcbefbccabcedbbbddeabecdbccdaa9cacc9
col38:   99a977aa98999bb89bcbfccdbbe9ceddccabc9fcdf8dbde8ccccdceeaaeacd8efccecacbdebdddba
col39:   87b998aa9a98898aa8a77cdccbccd89adadc9bbbdacb8bba7fbdbbaccbbbbfedd9eafabcdcdc9abc
col40:   aca868c99ba9e8c9bc98d89dbbcedadb9dceccedeefeccdeeebbdbbfdfeabdb8eecbbfddb9dd99c8
col41:   c9babedcc9da9b7cbadbdc8bcc8dbecfbebddebcaaddcaebcebbddebacbaffd6feb9abcddcadbbec
col42:   a8b98aa98ae86b6ab89bbcbabbbdbdbccdcececd8edbbcebcedcebbedbcdecdebb9beeddbcdcfbbd
col43:   bcc9c9cb98acbbdaba74aeaf7bababede8cded7dcabecdeccddfacccedebeed7debdeb99caa9abed
col44:   8bdbb8a6ace8b7baabac9bcaedcbbce9dcbadcfddcaeecfbbced9dddffacf8d9dbadcdfc9cb9ddcb
col45:   79d88aaa7a98bb88a9bacbc9baccceaccfadcecbbcfcbebeafefef9dbdeafdddcddeddcfceddaabc
col46:   b9c99dccabcad9db98dca9b9cbde9b89ddcbbbdeadfddcd9bcbfc9dfc9ecfbeace9dbbbdbfcb9ece
col47:   99dab9cbc9ebeacbcccba8b9addacdcefeccd9aedabcec9fddbadbcfcecacdecccbcddddcececdca
col48:   abdec9acabc8bacadccd8fceaed8bad9bbbdebdddccbdacadbddbfcfda9afc9ffcebbcbefda8ecce
col49:   daaaa9bda98d99cc8bacbbdcbcecbdedc9bbdcccfcddfdcdddbaec9efebbfaaddeee9ebecfefceaa
col50:   ddf9ca8c8d9cccce9bcabfabb9fe9eadbaf8cbdacbaacdbdfbadddbddaecdead9cebda9feecccdbf
col51:   aa9bcba9d99cbba979898c9daac9aacb89acd9ab8ccbdbd8bdbcc98cc9fbaadcfaad9aabbda89eca
ROC:	 BPix_BpO_SEC4_LYR3_LDR9F_MOD2_ROC15
col00:   525177697782555465a6538577976a8575a777758da4987899d69a7597887998b689a77897a5a886
col01:   83356756679777486b598787a778cb988bb7c99bc9c9979ca669ab6c9b8bed8bbd879aa9c9a8bdd9
col02:   87385887a888a5a748539c58a997687689786d5adc8ca7a989b6a75aa9b95c787cb7e98c8ab8bba8
col03:   648734a854557487876867a7ab79b87a5a9acaac68ab4c5c8adbdaacaa8bcb9aca99b8a9b86babcb
col04:   b536549541974b6778ba77d8589c9b99879698d97969a689b7bb9999babacaa9cbbe9a79878997ca
col05:   5346558686545537894876b7a97976a98c98c79caeb89777b9d7ab7bb998bb9a9957bbc876796d95
col06:   4737286a7888857652784767c5978786767869c96cd95db9ca6ab668aa8aba99a8a7aada9e9d9a97
col07:   7685587635487787b6498c856799db7b7d9aa6a68d888787b7bd7a89aee9bec7a998e9fada48cbb6
col08:   6435924763a67396c6579a7939857577969b9c978ad798dbd8b8a7bcd8a9aecbbab8cb78bea6d982
col09:   9798394747979695878aa5799a7d98889d6b998a799ccc8c9ce9a9a9799b97aa68daadabca87c896
col10:   9a4648566463aa3187464799b88b78669da98a7cb9ab778b88bd8679a9d8bca87b797d9a79b8aa4a
col11:   9753665326a658896a65987578aa6d96ba8a878799778db8c9d7b87ba7978ccd66795bdbaa88a8b5
col12:   a3367645845586688847649789866b78a7878aaa97bbc8ac8ba9a899a7c99a76a89ac87d9ab99998
col13:   954783756624377678487799894776bac96aaab97a99a9eaccb96c9899cc45779dab77699a8bbabb
col14:   9949456866a85878866a4967665a1986abbb87a9ab89ceaaaad7b5cb5cba9b7cbab7a79a9db9998b
col15:   6375647628767788135976759b99855bb68a8c7a79a7a8b886adb78abadaa9799dbdacf89b9ba9d9
col16:   6726574154666397656836385985789976ab8926c7aa9a989bccc97b9d7a8a979a9e59b98ab8acbc
col17:   3b6355795979878764666729578a5a2995c9959999a69e96787e9a66aac8e75a87cc68ebbd8599a8
col18:   623554687577847c4576798a59878a5655694b9ca668b8499879c9d9a9896b8c89ba8c8b9887abd7
col19:   533695555663886a8477a8c97aa688895888ca39b76996aba89898cab9bbb89b986eca79a6ae9ab7
col20:   578647586857557846666ab45b766b7bc8a76989acc2aa97c7ab989b2f9889b6a5c7bd97a68a8a9a
col21:   35143a677477557664a78466875889789abcb9995ec9aa8b9dc7cde9a9a7da7a8adaa58d9b98c777
col22:   4165a4655579787946867569a67a6998bb7a7ab8b8a6577cba7b6776c88989697c9a8b7bac8aab99
col23:   789193361866967553585a88579798567a9a7878b89baa9b89baa5c5aa76cb697d93996b6d8baabb
col24:   494533448a632659556a857b64878596d846b6778ba666599acaada8cda7bc95c8ba98ba6a799966
col25:   18695554368247873b73776649a7b78785558b8a76b78587ca777c5b95c8ca9cba76a99c8aabddc4
col26:   5758877795377877955798866888a969b89c7bb9d9ac68eabafa9bdccba9bb8997ba9bbccac9aaba
col27:   765984d994446966ba6b7888b6586d8b797696dba7a996ea7dbacbcc8999a9b89bac8ca9d78bb9bb
col28:   44246366966848336a7bb57ba8a9758c787bb87dccca768a997a6bfdc9f8aaafa9abcddbdabda9bb
col29:   56656a85896c9788a7a86a6d7aa9999b988b894ba6cb8c9dfa99ccbc9cbabd7ce999abdaaeccba88
col30:   8785766684669668bc8b65846868c6aab9a988878aa65a7998695ad8ac99aab7cc9aa7c6a99caa89
col31:   467a6837646c54a89c98a79b7b9aacd7de9a7b97789cbfdebbdab9ac9fee8ba78dec8bcc9ba99bdc
col32:   5477898998b76a674595b9888e76aab8b77bed59ca6ac8dda999db9a9babebacaca9bcbd7a6cda7b
col33:   76969868547849c97744797a969bb8caa98aaaa7abb89abaaab9ad9ebacca4abeba9d999ac76a9b9
col34:   7b5a787c967c79898586647967b97698a8afcc99abaabaa8bdbbddbbcba9bb9aa9dbc97cbbab8c9b
col35:   275555458a643789a798879984d68c89abbfa688c87a7aa8ba79cab8cceed8987c8a9daab8e8d9a9
col36:   7479785395468738739888c897aa8b4aa78c997bbabac5ccab9cba8eccfbcbaabbd89aab7aee5bbc
col37:   a986a7887b78b697b8879c7bbb6ab9ad88898e7a7999a9b99ecb7a96ac9ccdb8acabe7bba9cbecb9
col38:   8566757e84987b57a79a88796bb78acaabac9dc79a9cfc9b8eabbaaacdbc899a9d9eabdad9fadb86
col39:   5679733698289567599987a99e8c9abba997ba79abb6b9b99acaabe8b88adcaaaadcab9cafaac8b5
col40:   599667527565a957996749b9a6aa78db7ca785b9aa9acb6cc99cbacb9acab8beac68b7bfdacbaab9
col41:   99966659437a87987aa87d8969b7689bbdb75a6cca8e8dab89ebaa8aaa5af9ecbe9a8bacc8cf8d9c
col42:   686a58685a5799764c4578aa966b6aeccbcac86ceb997bac8a78889f9a6acc89bdd9c99cda9daa79
col43:   518b7577975b6648498bc9887597aac6bdb9cc98c96ccfad88abb9c99ba8cbc9dcdb8aadbb9dbd9b
col44:   b878987b86647877979677777899d7878c98abbbcdbdb7c8a8ccb8ccad89bebbd98d9c9a9b488baa
col45:   66a667796ac599875a87587785ca8b99db7ca9a9a689c8cb77baccb58be8d67e97bb8b8accd9aaa9
col46:   7896a875668a899767aba85a9ba9b6a9c7a88ac8b9b99db9bce8ea9a9acdc8aac8c9ccbcdd6b9eaa
col47:   66984c8d838a7884599c348ca886a9acba7c98bcb879eaadbacbec7b9aacab6daaabaed9de7cabc9
col48:   86529979679b68989746cc9387787ab98c8dbc66a8abbba88a98a6ca9aab9babada96c9bd79ce8c7
col49:   8879598947955a4665aa8959786899abb9ccfacab89bdbbad999a9bfcbdad9c8bc9cbc9db9beb8b7
col50:   657898a65159bbca9c9778769699b7b3a796cdb8bc9999eb8e99b9abcebabcfadaaebabcdd96aacb
col51:   35557664845679555549268548a695c47797a8ab98877c9b89768bbbdcd9c667a47ba88779aa9aa5
