ROC:	 BPix_BpO_SEC6_LYR4_LDR21F_MOD1_ROC0
col00:   777143888b558836986988b879857a737a8388b7766786698bb969697ab9ab5555885c743a475774
col01:   aab5638562a56b8e6a8c9aba459ac67b8a8e8c956b89d899597aada9679ccacab8898b7789a78888
col02:   7565b86694388a98899a99887d9a876b778dba769a5a8aba9a89a4ab68a9a888b66b8a4b88877767
col03:   387174968695431b3568997a9aac76887aab587adb98aa6b888988ccda7a8b56bbb8575b77988866
col04:   a82b854432b7896bb58b69926498ddba67a8cdaac98698aab7a88a9898b97b79b8cbb6b77a7a6948
col05:   986888893767968a74a7a589a9b6988c7a76aa9849c89b778d97a78bb879aa686877694986476947
col06:   45db7a966998485a8498c9a78999bb9bda9e9dba9b7a9fa8a68c997bd988ad67a957679828a7957e
col07:   8897b8599aa878b5569a9978cccd9b9a9c8d57c96b99cc8a5797ba77dabd999b68aacba9c599b684
col08:   288b8996aa64784b878b899ad8baa7a7c9b9aaa966c979dd89a7998ba79a98da8ea7789bab768967
col09:   36754b5768766e695575b8a9acaad5cb98da8ca8a4896a9995be9f9888aeaa8ca99777b8568992b3
col10:   767566657b5897aa788b666a4eab5b985c88889c89caae9c8c8a79bc9da9a788a77a767a6b78b966
col11:   5a7476b487a6558a6a968699baa77689a789acbad5d9ac68d66aba9aa8a79887b99924664b6a54c7
col12:   ca569788aa3624669a9578b7886c8b58958c6c767aa6a8896adba69b989aa8a66b78d49975267678
col13:   997965988c9c679d49656b5a6689b68698e99ba79abebb8757a8cb99b89c89cca8687978955a5864
col14:   6a576c77666558b98c6b97a9a6997cca89ae994498acd9a89aaca8c76a76988d78895476b9696685
col15:   5999464577b5c799a6a589ab9a95385b9a6bb9837badbec88c5a69c79eb961d89848ca75c5a78986
col16:   9aa4896878458cd99aa6b587b9a369aabb95a6c8acaa7986ccae7ac9a7fd7699a8bb7a4d64ab6678
col17:   6584773a88619789ebb7567d6997cb568e67889a9bd8c8b59b988a898b9a8989558a569b97899a75
col18:   a376b86274777577865498a692a5b8569799d8785a78889ab556b849cb5e4ec9968356957999bd56
col19:   67c55577a38679a58ca68964bc8a7969929c98ab699cc5a898899d7b568ab78a6866c76a58a3b7b5
col20:   98ba53b78566a3963948a89bc7a7739967a4bb7cbb9b5986879759bab5a78aa78ba674ba57415499
col21:   54372878a717d89976778a8a6bc866a5d98a7877c6aadb8db9f9bcaa896abe67da66979a48a87564
col22:   7c39575b756758977aa9a8a9d9997a99a6d356a79a8898879b7daaabab666a8a569a678dc7f55865
col23:   767861465657947897baa898ba7aaaab8766baaaaa9c7ecc7968a66ac99a46a75839db4578455465
col24:   9228c78a9689dca866a8666998a899acb67a6c897a9a79d697d9499ab9b99997668b56a676865785
col25:   77a95569586c886aa9b97278b979a6ab9bab97ba69dca7b9c9e697b9bc8b789878a798993b98966a
col26:   c768889588899679ac8aabb6bdabc98aebcb7eb9bbba898abbac8bb9ab7a9e8ad9b98a85b8b7a5b8
col27:   a556b36895886796b39a6eb4979493a9cb9ecc8ab788bc8c94aab7ccbcb989d86b7b86ba56d597a1
col28:   5866675a6868aa6598586d9dcdeaacba6e7acd98abdc7d9cddcbabcdac7b9c98bdd87e74b868db49
col29:   1b5598678767ef866897bbdaa9ec97bd95ada9be6a7c7a9a989c9d9c9d79f8856b46db9b9988bb56
col30:   999ac679798ba9d7a9cccbdca78b9ded9ca9b8dcc8bbaada8abab7c9a9cea8b9897aa998b567ca56
col31:   7b9d97a95aab67a96ba7ea7cb868acebee88bb996af6adcafb9b979ca9bb89f9b57caa6dbc5cbaa3
col32:   69947478b76a86799c988896b6abcaa5c7ee5abab6c7989c9b9bcad6acc5d8ab87989779885a8966
col33:   799989995b7b7788798c79abaa9e9abdb9cdc9dadabdaaabf8b9a9cccbbb967a7bad98b9cc999688
col34:   787a697ca6979a9ccb8b6badd9ab9bb99fb7edb758a899cba7acacad9aec8888c967899c7a787be7
col35:   959787776648c7bd7ae98abad8c7b9bad9cdabcc9cabfaaccd8af989cbaa8fbbb8ba97589a8cbc56
col36:   7caaaa69bd897987a79cb8888cacb9ccccabd8b8e787dadacbabb8a9bebdbf9c978ca696a878887a
col37:   a576688598399acc989f68a5ba8cf988c8a9aaddccbe9aade8ba9abdb9dd8b4aa5cb9cec8e8589ca
col38:   c8b9a6c79cb39a8b79a99dc9ae5dcebceb8dc797bcb8bdccbc7aeadd9abb699bcb99bb968d8e8c77
col39:   c884887bb698aaac6877babe998bcecc78dbb8cabba9ab9fd7aebcaccc9e9c699d59b7b88ae98767
col40:   eaa77abedb7a8d5ce896887ecdbc8acb8dcc9bfdec9798becabbab7bbeeeabccac6edaba676978ba
col41:   87c85b5ba6aa6c7aa469d78bad6b8acc775ebc8dc78aa6bbda5b8bcf95dccaadbbbd9d9d9467acab
col42:   6798a58bb89b49a7c9488b9aa8dbc98bbdfcc77cc8bb4e9efe8a9cb6bce8bd7a77ae4a7c5b66979c
col43:   98778caca998c7d86987ad8bcd6adb59cbabcc89d9bb9eaeca5ecbbedb9cde97b9bdd66cca8ca899
col44:   9b89ac897ba7d8bdcad8bba78aabfab8cbc8ef9ba7ac9ab8bacbc8cbab9aa7d9dbba9bab9ca69576
col45:   9878c894d77387c9ab86aaabbcb9faad6bcc7beabcb98bacaa8c9b8b9c9abaeb8dabba7aa85aab9c
col46:   7869739889bb387aa966baabcc68ade9cecfbdbbcdc9d8aad8bbd7fb8acd6878b99bdba97abb8677
col47:   aa5bab77d98bd86c9b697e7aacbba9898ca7cbcbaca8879edbbed8bae9dc8db9a977d9ec5c9598d8
col48:   ba78a9d5c99b87879f79e99acba9ad84b87dacb99e78bdbccdbbcdafeababaceab7b99b9baa3c7a9
col49:   ca7a19a99ca6798a7897c9aa8dea988aa87db7ecc87cc9989baab78bbb9cc9face9cc5aaac85bfaa
col50:   e667968a8aa96ec49babb5bbac9dbedbcadd8cbf9abc5edad8b5dbbbe979acc8c9b78cba897aa485
col51:   7a1884787c2998687ba88977ae866e88d7587cea877baa7fbbb5bca8a9a849bbb68b7568ad976648
ROC:	 BPix_BpO_SEC6_LYR4_LDR21F_MOD1_ROC1
col00:   b8467bc596558a4a85898968bec79a987a89abab9cab6c58aa99a7898c9d76446a8988b8696a6958
col01:   98a885c67dab748aa9789873898ccda4b99b9db9b9aaada9cab96a475daa9794ba768bb8aa7b5c75
col02:   79679178968c8a97b688578cc8ccabb8e79adab998b5589bbab397e6bab98ccd6d99a47adb865a88
col03:   88867ac681b74678aa97a98b8bb9c8dc9bd9aabab88ccac9a988a9bbc6b9db848a5696ab59855b49
col04:   a9a4daa65a6597ab8bd9aab77cae79acd88a5cb9bbaaf7ad86baab7d9b8a8bab8caa98789854a875
col05:   b76a96b97aac786a5abcbc8aa96adbcab6cac5a8798dc8b87a9acd979885979aa6cdd969e8a868ab
col06:   974697988a6d8676ba5c88d8cdb7ca96de9baad7a869887babbab7a78aba4abada49b46a8796799a
col07:   78a685883a97959b9aba2b79999977ccbaa758968a879c989b9dac9a96bdceb9aa999c8969b8d796
col08:   489894a9a558a58677da8ca7b9aca659979a69a68dabbaaaa4c5777a77aabacb866e7d5b9bbab7a6
col09:   67a687497aa89b775a9594948b7c9d9fac9b797a7a9abad88ecd8a8994ecbbac8a87f84b867956a6
col10:   b46a9999b87866796ba8d947baa7acc79aba8b89bcba78add87a989b86648bb6b8699884bab6a99a
col11:   87b8a1aba99a7b836a6978949b885d89acbbcbbac69bccb867aacd7cb7b8c8ab7b9abaade7658968
col12:   9a57d978879779553ba897a88f9abac88a8a9a7788b7cd8a66e879e58e89a798d69c4aa8b79894a9
col13:   78544b59ba6788d659a8a84ab9d6c8caa8a59bb8b897a7989a9da988a7dbfb99a97799b97989998c
col14:   c987b798c5989597b26a9b2a9997a6c399e97a69ccdaab8a9cabcac6ba889bbbcb8a96ab8cab66b5
col15:   584c569c677679b975b8b8bb9888688a9c7a9a8ca75b657abd88bacae9ccd9cd7c8b846a8bbc897b
col16:   8b857948859787299ab8eb78a8a7877bb76c999d6e7a89ac7aba5bc8ccdc87ae987bb577aa897963
col17:   a76848859879a85382787995979e8688a688ba79bad8aa88789bdda7db9ab78cbc696677ca6a63b9
col18:   ab78b9a8b8a77579989459b6996d89cafda9dcb97b6d9b8acbaba998ea88ccb38a888c779a577886
col19:   a3787b987376746d67897ab7aa5c8977b7b9accaaab9997cb86ebaa9996ecaa6679a9c8bcb8aab51
col20:   699696735b768959546ac59a8cad99d64bba799ba99879abaaa5cdc9ebc9bb978bb79a7d7889aab4
col21:   7899687957a96a59a9e856898baaaa2daa87a7c89a7ca9d997bc9b8b78caaba89b799978976aab87
col22:   8c3456674a99957aa9655a8a98b7879c99e9aa97cc8a69a6ba9a56cd8786769989a7aab5a986c7a9
col23:   3634aa585c8775aa86877a9b8b9859c6e97c7749c689b99a8b8e4cb89b8d6b7ba8c81679ba8679b4
col24:   979798776b66576687b5c759968aaa976a7d7bc8a8b9aba7c7a89d8cb9aa98adbb6b66a7b79959b9
col25:   77885685b88678bab87a9887dbac85a7b755bbb789bb888baa8988787b9d9ad9ad8cb649b9565c7a
col26:   7888999ba677c9a9ba9ad869ba9c99b7bca97bc5b95bb99daf88ebdcccabbbcd79bdbb6b77bbab6a
col27:   6e767c98a5ab7a5b8c888acfdb7b6b98cda99a9b8dda9cbcdd9e69c88cb979ae749a7ba896aa7785
col28:   c8d98b9879989677796c88d97c9ed7a7fadaeababdad88ab974a8aabcf8c7d889d9abaddcb9d6dab
col29:   8c84b67b6c979b9b846aa6b79b48c999a9d89ebdccacab9d8cecdcb8bbcbf7ba9b998c6acc7a586c
col30:   77a97999b7ab9aa89949eeb9dd6995d7dac9da9f9b5d9aead9b9aebe9aa8d9aa9c9b9a7cda9f89a5
col31:   88a789bce8db8dac98c99aa88baaab9aa9bac9abcbc9abaa9dcd8c2bbd6a97bdceada87bdafbbcbb
col32:   a8556879576bba854dd9bccd9bbbfa97b8bd8bbbcb7aebfc9acbdabab8accab7bc9ab99998baa5e7
col33:   a96a8e8ba8947b5ad8b95b9c8fcca97c78aa7deaa9a9daa8ca6dda9fdbae874adaafbc79b9b8a95a
col34:   a77b478daa97f99a988ba9ba6a8e6ababdbaecca97cc9b6adbb68979cccfc8aa9acaca8ad9ca99b8
col35:   acc9b9c7868a9876dcc7ba788e9ab9cadff7da9dacab9accaa9bbc9cdab9e8bcc9cdbbfcea978986
col36:   7599a4a97abc899cc99bac7bc7bcc9adfbea89eabdb7acbcafbc9cd97ed9da9bdd588bb99b8e8895
col37:   8ab467a5c66bba7e79894bb9dc999ab68bfbe8bbbcdd8ced6a98b8eda69edaababcb77ab8898d6c8
col38:   9978a699b8ba8ea9babe9cead4de8ab9cb79eafeebbcbde98ccefbfebbbcfe8adcb9daaaacb9aba7
col39:   958a6989b8bab7a7c99dcb9c9fb8998f7aa9ae79ddca9baaeea9c6bb5988baa5bb8c6aacb796eab9
col40:   6657cc65bbca8aaa9bc7ba6ca7b8dda89bd6a7abdc8eaacc8bb99e9ba79cacd9dbcdbbbe9ccbb599
col41:   66c97b687688d9a9aa78a99b7c988f88c99bdcc888bbccbcd8da99bb897cf59cc9b9ccb98ba9ab95
col42:   87c8a9abb7aa96779789a78c89cbec8b9debaab9b9da7ffccecaccbf8abdc9af9b5968aac9a79995
col43:   98a84b6a97b7958b88b9a9a8d7c7a9babbcbd5facac9c9aca79facd9ca8fe5b9d997a9acdab85aa8
col44:   9a7a56aab9897cbb7cac9c8cdb9bcc89cca9bd5afffbc99cfbcdcbccabbaedbdbb7cccbecba9bb89
col45:   789896aca6889a67a8c99dc8ae8bf7db9dbac6aedbfed9bad9cd8def9ba9dd88589b8ab99a8daa98
col46:   94857ac8bcb7a99a8a8a99aaab7c9a9bcb868adaccf7cbc7aacabcbe8b68ac9df9b9bba8b87a98aa
col47:   84baa6a95c7777ab968a99bd89aeaaccabdaedbdac7efb9aac9d8b8df8b8cdbc9fcbdd89aca98a5b
col48:   9999a85a997aaa6baad8aaa9868aacd7d9cbb5cc8ac9ab99c5abac8998779a98b9abb6dabb6ea9aa
col49:   3c8a79b8add8a8bbcb987679b96bb8a9ed986abca9dbdbbb8a6a9b9cba7bdaaba7c78c779d8ca989
col50:   95b97ab68a4abb78bcccc89b99caaabaaabb8c9ebd8d97b9a8aabb9b87bc9bb4ad6c8cbcdbb77a7b
col51:   a5a5a6886a888689558996ab5878aa7b5795bc99f9ea86ce85d7a87698976587968296966e88c978
ROC:	 BPix_BpO_SEC6_LYR4_LDR21F_MOD1_ROC2
col00:   753863395a2166579478918348685b948977b77bd69945839b8a2a5786969c655686464557576435
col01:   67a49764a69c7a898989a8c66cb99a898d9ba89a5a6da68bc9a9b8a8bc89b795887655baa86a9998
col02:   83727475c476a889955d86a79975acbd66cc9ab79babab79a77baa698b85ab8776b8777667678716
col03:   9875b8838856556a47a887a37997869a89c6b7a59d8bd68db4a7a54bb89a9abab93967c89a5936a2
col04:   a9a68a6799a98678a7a877bcaba59e7bfa98acb96a9aadb9c65ab99bc9898959795b6877d7445a87
col05:   742948979658869b3787957799b787abc7b5aa6b87bd7bb9a8ace6d89a7a7c997aa779c5a4848978
col06:   6659b797d35a4778699779ba72aab865b9aababc59aabab7bb74bda8ab896775a88a697786a8a78a
col07:   8a874a9986b7997288b95968aa8bcbb877dab9bab9a9abbaa98ab8ccab9898898a68c62577a5c996
col08:   788657ab7767ec696a8888888b98c6aab97bb678d9a8aac99878bb757a7bab799a5c55a684868779
col09:   6748677a56766a6a8677999abb5a858aa9b9859a7a97b7aaaa7bbbba667a897ab9b9854866b65876
col10:   4aa88a39a8769a67b59775799a847caaa898c99daa89b9e7797ab76b579ca86798bb4a949b235886
col11:   969abca676a499ab69af89d87867bcbb7a8389fba8c8db688b9a6f9a88c79988d8889a93677645a6
col12:   7697765a37589989699746bc9788abdeb9cbb697c6c8877f7999aa77b6ba9a58aac6abb78b793955
col13:   49797b763478b56a5927aa8b8a98a9fc8b84c9fbba7b689976a846caaba889c99b3bc89ad6a57888
col14:   88856689a336697978897a9b6a978a7b8bcabe979babbb8bd7888ba5a998aa9aa8a786977b777356
col15:   756a8a97ab7589a567598bc77dc9ea8d859a7a779bbacaa898a9dac8aa8a9ab9a985988636c55783
col16:   785b99766a9769978ab78ba7ac79977cac9a7cbacb8a9a99a8ca997aa7cac6c98ceaa87774377796
col17:   9a2488686459858b9aaba978a799337688abfaba9acbba76a7d999bbb995a6c8a7a8679566955695
col18:   98797b988848a8ba956a979977aa8878c9b78aa6ac7d67de9b7cc96b98487979b887744796567439
col19:   87533748567768b9957576a87c9cc8aaa8aaac9c799ccbcdaacbb8999bd7399c787a8798c979a888
col20:   966c97a845c3799ab767b9696b8d79da9978cbfaeb8aaac88a678da8d6bb9dc9a767546a6cbc8a48
col21:   965aa8798a95c86287869cb96b7c5c8b7887a8a96bbc99b98ea9aabdc9c7accb6779ba9564959357
col22:   54b8b3c9496788688ac88988784ab84afebc78eb9c8b97b6c699bcab989eba5d9c56846979686b86
col23:   865959466ab9735495aa9d787ac8baeb86bbada98abaa7a64599eeacb9bb67597a8b766983936773
col24:   6688c87689788aa695ba85678c7c99a89ab88aac959af6baba8baa65d77b8e636689834775666757
col25:   78a2896955a798b6c8cb97b979db9ca87797aeed698cacbcd9be9c9ab9eab98a357ca95d747a8667
col26:   b79a89989498769b979a9d9af7c9867be987a9e8abb78aec8cbbaeddc8b9a7c7ab9896aba9957b7c
col27:   5a8b339c6873aa6774ac9b998a9d97c6bacaa5aaa89c9acaccdaaab798ad8cabc99669c7644ac685
col28:   785579bdd8a899ac9bb789998a98a9cbe8f9fccb9ccdaabcb9baaddd98ebcc68d8a958788969b8c6
col29:   a7ba76bca7999778974b9dbbbeaab9bdc9cc9acca68c9b9ab8cbb7eafd5cc8db9b9fb8976699996b
col30:   69987988d878b8abb75996bc8abaec6bbafbdea9999cc8b9e6aeaa8a9e8eacd7bba8b956887b97ba
col31:   68a79a6c8aac97acacec9beb8977acaccbc99c8bbcedecbdcbc6fbcb8a9c9cacd846aa5bab784877
col32:   6c998978adeaa8baceaab7bededb9879ad8b98a88988ccaedcdceb9c99da969aa8aad79aa52b9979
col33:   997b889989766dca8c7db8bc788cbb8bb9a9de99dcda9aa9f8cbda9dba8beb9b76cbca798c7aa7b6
col34:   7b977b9a998976b8bc97d9c79cbdabbe9ab9bf7adccbe9ebeedaadecda3a6a7ac98988aa8b97a9a9
col35:   a58d6b874a8aca99caf89ab8bbbbbd8dbfc8beb9bffcb95cacdebaacbdaca59ab8bec8eb99aa7aa6
col36:   a99aaab98bc799bd89af79b9b9badcec8daa6999accb99cba78a99bff9c9aeb9adb88a6b7898b897
col37:   aeca86acb79baa7a8cba9abbf7bccb9babeabbede899debeababadd9bdccdd8bd868ca8afae7b8bb
col38:   e5a798acc9ccbb7aa9e7c9ddba5cbdc9fdea7f78cbbeb6bbabcabcc6caabb7fbc9567bb66788bdab
col39:   c9b558ba6ca9a7aa9c79ccd9bc8bcbd8dbdeba9fbcba7d8acdbca8c98b87ba8db8b9aab8caa8a9d4
col40:   89b9b6b9dce88cb8abb99c5bce7ebdccceaaec8bcba8dacab7a9ebeb8db79b5cd9c9aa8cc78c99a6
col41:   999887ac7996c9ddc9b9ae84ccdabccdb87cd8aafacfbaacdfcaee9cefa8accfddcec9a98ab7dcc6
col42:   a9baba76a986ae68ad8cca9ecbebd9d9d7bbeddb9dae99fbb6bd9ab7ccb96d8ace4bc97988967b88
col43:   88acb9cebd5598a98a68bccbcfcefdcccebbcbbbbd97fb9deecabcbc9dbfac89a887b8dc899bb8ab
col44:   cb9798bdb69a87af8c589bbacbbabcbcbc6d6dc9cddaeeebcdfbadbbdcf9a8bc6878e98b8893beab
col45:   7c549c99ababdb96a9b8cafeb9c8cd9cc8dcbbd9df8ca8bb7cbdcd9ca888ef8c7ac6a9ecbaaab38a
col46:   eae9a78aab8cda88aafbec8a9ad9c9bbba9c6babcecbeb8ccff8a9afd998db9978acac88c6aa999a
col47:   98ac9c9b5b8888c9bcbd7adcb7dafebabc9dcbdaacbffdbcbbcc9a9eaebbcbd8aadb888fb9da9aea
col48:   d9ab579d799ccc9ab6bcbca9dd65bbea9bdaa7abbdacea6cca8dbb7b9cacaebbddbdaa59aa7974b7
col49:   b8cbcc49acbed9aac9c7bc9eebea8ccffcd9cbbadbe8dd89fdaedbcfaebce8d9af96dac97c89b985
col50:   cdb9abac8a776ca9beb99ad9bccbffd97ed8cbaba9abc9cdb8a8bab96dbcfd66bbdbab9a7b8a6b85
col51:   a478872abb985ba98aa8bdc8acdbbacc8c98aaac7c7bcb9dd776baa9bab9c89acba996884758b597
ROC:	 BPix_BpO_SEC6_LYR4_LDR21F_MOD1_ROC3
col00:   456996659b886afe8889ba978b765a67c7a6cbadb9ca78b97a79a765777a99b944a969639a96c6c6
col01:   6c9c7a7c897878a9adaaaa98b8ab8cadc7dcc9bbac8cc89dd989acbdbf8d6baccb9bb265d7d6d9a5
col02:   cb8886457cb7c99bcb8ea869aad9aababad6ee8aafbbbcadd5bdc9b6baacc5a4cb88ccba9c9b6b96
col03:   3865aa9989297a7cbe9a8cb8c99ba89bfeaddabbdc8b8bc9a9a7b9bb89a48bd898a6bbbb99978a95
col04:   79cbaeaa9b88c9975a9aa798aabab88da8bacbbcefdcf9b89aaca78d9cecabc6eca8b9988b94a87b
col05:   9987b8876b7b9968a78c9b8899b85e78fbab9b5fccacdec9a9ca9aab8e8bb66ad899afa8a7cbbb8a
col06:   b89dbadb7df8cba667b7898db9c38cada9cadabaaba7b8c79998ca97cc9aad9a999d7adbdd898459
col07:   794a4a688aaaa89c9e797c88a85599ccbbdda8dccbaaaae9daccad9aaa7b97bbaaa9b7c9aabc9598
col08:   b77a85996b879b7a79bab5669a9686acb9baa98cb8adac86bace8ba88a87b8b94a6786bb5963cb8a
col09:   aa6a86668cc9728b6a9aa88fad9daabbd9adbfb9ccea6df5b9becbcbbc9baabc89ea99f89b8888a7
col10:   b7ba7a696b8585a9d379abc9a9acdb9ab97d899b8bc99d89cbbbb9cdab74c98c7ab9777a8f588968
col11:   876a98c9bb88a87888cabb9798a8caa8da68b6dbd7ad7ca557c977abcb968cbd8babf854ba789b6a
col12:   87aa97a75c85c9c67a969cb88a8b6a8a75ab88b9b9a8ca9aa779cdd7aab5b996c6badb96b5399abb
col13:   54b878b879a699789b66b9bb7c87a8ee7bca9c5acaadbbacdd96bdcf594c975e89b6988a89987a4c
col14:   68999a879bba69c9998899bb9dba8b9aaabc8a9aa8e9d774ea689c8dca99997aabae8a9647839aa5
col15:   eaa8aa8aabbaa7a598b8ac67bdabdc7a9a9f9a58d88b96da7ebcbc9cddf8dd887c588aaae669cc77
col16:   59a87b6bad8d77daaba7a99ca979cbee889b4bcccbcaaf75fbabacbedba9b5caca9b7ba73998a766
col17:   9ba8a3466ceb74b9b9bea7a18abca49ac87399c75ae7396b99b9ac97cee9ac99b794656b75728c6a
col18:   9788878b89a79987aba8dbb78c696c5c8b8aad8a9cc8d9e99dd89a78ba89475ac6b7797ada79a664
col19:   9c7d97bb9998957adae8aa77bb6df7db9c7abb8aaebfaf66a7876adbbaa89aaab8589984a9458fa7
col20:   6865b7cb78ab9dbdabda89b7ca78f79badac989a8cac9bc49aea87a78799a8aa9999a96a77786ba6
col21:   8a7bab8a9899b948babcacc99c9a87cdaafaab88db7c99ba8ebb9b89badaa9c89ccd7749a385697a
col22:   9b89775ab39a8c77c98ababbd6b9cc97bbcca8ea9987abedb98988cc7dbb9abd8b7866b29b25d983
col23:   8687d969a5c468ca59aa949b4b69db7bc89baddd76acbcbcd7a7a8a98cc8ab7aa85586ac78b46995
col24:   95846a775b7c4daaaa7ba58c8c8aadba8b9df9adb5dcdabb89ca9ac99bc79cd3c79bc3da7679aaa6
col25:   a8777a6587c5abbcc8aba7accb9be9bbbadbecca6ad9bccc9c999b8b98dcc6bbcdaa9cca87a97975
col26:   d8ba8a8e9b9a68baaa9a8ad8dd9ecd98dc989c9ccfcbcdaeb9cedbacaa89bdadaba6d79babb7c75b
col27:   989b95a9aa4aebefdaa7cca9bb9acbdaac8ebccbdbce98baaded9c9bbda9ac79acba9cd86d8c8ba7
col28:   d989cdb8acbcba8abca8ebced8b6dadbfbfc9bcabbdfc9cecc6ecdadaaadbaccabad9c7776a57c89
col29:   a7eda86b898cb47c7bbbc988adba9ee7cbdc9fbfa8b8abbeccac8ff9b79af8aca779cbabdc797765
col30:   bbdb98b579a97799abba6ca9ed9dbbdcda9ac79edf9cfd9cbbaccac9accbeecfaa59c7998297385c
col31:   b8a98e9eb597d8d9b8abc89accddbcab9abbfcfa9f8cbecfadcbd8eddbd9ac99b7e9a8ead96aab67
col32:   8998b9ebfca89b7999a9aa8aab8a8bbdfebefddef9c9dcacb9bbcdcb9cbc8dbdb88ccb6cbb978957
col33:   ba9aeac78abaa87a9abcbebfbbceadf9afdbbacaae8a98db8dd98baaafbcbedb6b6ad18699ac99a8
col34:   bda8b99aabbba6bbbcc9ccccdebdcbcbc7cfddeb9cbcadbcbbcba9aa9db6f87c9ba6ac7a8aa8a366
col35:   788ba76a6bad7b9bbbbbcaaabbfcdedcdcababdf7dbd8ccfbce7ac9aca9cc7adccbdb9b7c9aba754
col36:   a9acbab7a7aabbbdbbb988c7a8eacdb998e9ddddccd898cdafba959ba9dbac8dc969a99a9b99aca6
col37:   cddcb89aa8ea7bdacdaabcb9accabbc8eaedfce9fbbfbbacc7ccfcbdbbf8999bbfdab6aeb8997878
col38:   ccbaecd9ebcabd99d4f95bdcfdbbebcdadddcccadb8ebeeebeeefc9adcddfee6badafd9b77caa5bb
col39:   b5a9da9beb7c9abadcdaaffb99dfbeebdead8cbfeaefbdf9bcddcddcabebcdabbd8adccdbb9c77cc
col40:   988da98bab9deaabdbbbbbcbcdcae8deecdebebcdcc7ceefbdd9d99daedb9bd9bc979977588bd8ab
col41:   e8cce9b8bd8a9cadcbaa5b997bacabedfecfdfe9ceedefdc7ec9adac9ccbeda9dd79fb6ebfccebd5
col42:   97ecbbbbb8b9bc8accaad89dbcadccbebccaeac9cf8dfedddcddcea8fdeb9dc9cdcccb8aa6759789
col43:   8da9bacd9aabbacbbe8acedaafdb9accd9dbebacacbda9c9ceebccbe8c9f9cb8bfcc9cbb7aeda489
col44:   9947bbaf77a6eefc9cdcbbccccbbfbf8daacbdedbbcfddaedccaab89b88abcdacbb99da89cd98a3c
col45:   c7baabb95bbfdbecd9bafccecdddd9cd9fcdb9c9ddecd89dedddcbbeb5bde9bdccbbaab89b9ac648
col46:   dbabcd9ca6bcbd8cb9aabd9e9c9cdece9dd8affba8ec9b8dbefccb9bcadbddbaddda9ba88ccbb8d5
col47:   ada78a9ab989b9abaa9bdcadbfddbc8eb8bdbabefbcf9eeacbcdcebb9bacebbea9baca95bac9f68c
col48:   adb776b9b6d9f87bba9adbcdcdbacb9dbcf87cc9cabcabdbefacb6cadaccebaeaadabf6c9ad6aabb
col49:   8bcba9bb7b6cca89d8babbcccbfddedbdcf99aa8ddfbd9cdefdbecaaafd8caaadcacbd788ca6ae94
col50:   6aceb59988aa7bb6caaaf77b8c7bed9beecceed9dcadfd9dabdcddd9beccfbbeda87ce6eba6b8bda
col51:   cb6739c78bc585c8c86e5ba9ba7dbbcaadae88b99dbaceac9a68bcc9bc9a7ddf89897eb889598a66
ROC:	 BPix_BpO_SEC6_LYR4_LDR21F_MOD1_ROC4
col00:   89598735757874785496787971aa64aa5639999aba6b75767a7878c84594676456a66954a9245761
col01:   85869a767975875ac89a97898a75eaacbc9668ab86a86b8a887ca779af8d7bb88e99878866977763
col02:   6867878a55667a568378795469b76881aab6baa77759986a8a988b9689d87a5b8da6945966196753
col03:   96887486c885aaa8767768b57b866a88c898989a6879b6a498aa8c7bb9cbc66bbbabb68795c84793
col04:   9b5a46688687897978aa57859ab89aba7a857d7cac967a68a8986babbd7eb6888a776a56a988a979
col05:   67777689678a55878879a9a699a886acbae6a8ae3ac86cb9ab399497889b8979b97a8688881399a7
col06:   778758a7496a5b93749aada689ba79a8ba9a77afbab97977877558a7768a8796aa87587263577156
col07:   47aa65ca777a695a78ac96eaa9b79a598a757aab8d9d98c8d874b87abcb6c7ab7ab7aa8664756a46
col08:   ba5797678967567c8884634657a599b8cab8a9ca9a7e8a8b8abca58ab998ab7b96a5858aa98a6648
col09:   a98b5b5988776855577a79aab9487597aba5b9c4daea8a9799ac99a5bc7ab897a9b877c493a8a759
col10:   86bab965b67778c39aa98b997759c8aa9a69d897b699e6e9797b6bba869ba67b3b9b77b89681384a
col11:   686769748a798a7898a7979898a6a8c89959897898acc8a9ac687675838987778a7b9779ca568429
col12:   a67669589889b594a955389888a87aab6ccb967b8aaa978bcbba7484be9a87896c9658cba765557a
col13:   5b229954597787bb58879b68aa7957b88b9a69a88bc9a4abcbcb69aaaadcda776c7936a988a67b59
col14:   798747bb87889898777a4ca768aaa978899d799a9ac477ab96bc8889cc8c977787679846a736a6b8
col15:   6959977c689757bb9769488c98cf9caac9a986ccac87db69969bba58bb79977787866ab7981b1356
col16:   3444c44968969357664775879a99796bcb877caa49aa8a89998997898bbc57a9865a779576888179
col17:   bb9b7c56239569645a9b58aa78837b5a7cbab789b8d8ac999bad6776989a89aaab67b87ba5699699
col18:   8885988877a58e7a5ab978a996bcb87999b8b868a64bb889ca77b89a57b7b878845bb78ca7888ab4
col19:   384a47a8bab6a875c3c7ab864abd979d97675bac95899597a5f8bb8bccfc88bc7ca85839759548ab
col20:   8aa5695a4759889757694b6868aba1a98c95c9ec8a7dc9b9cb88788b98c9ca69769687c774176754
col21:   33bb88a498886b8997f7a969a96799ba9db77888979878ac88aac97b878b7b99a99482799b676a51
col22:   7679494657959958a96bb898a6a97bba7bbcb77799969978acc79b768748b79bb8986aa78d7843a5
col23:   857c66875572b998787bb98b889887ab6ca7c8cabaa9b989cca5b59a8bbcbb6998845b67573b93a7
col24:   8a697a95b8a88948897b89bba5789bbba6acaab7b95956596cad88b89a4a99688688c7899b887778
col25:   6466a966b8776777b9b98cb99c9a8aa95ca8cc7a9b886dbde8ca9acbcaa65dc89977ab648618a983
col26:   89799957a98ca97ab6caa8bb7c9cceaabadbd9a98acc9c9aaa78bc96b78bc6bb8b77b6ca8acd7758
col27:   99b7b8797a867a4e9acaab778bab7cc7ceabacb9bccbbdbbb8aba7d88b68c87d79bbc697a965ad88
col28:   8ba87a687aa88ac6a6cad6675bafba9dcdcdacbc989dccc9cf6b9bbfcd99ba5ea5789788bfaa8a96
col29:   aba7ad55abb97e8ba8ddcccdaeac69d6ad7cba98acccddfbb9a8b6797c8fc8d768cb8c89dababa7c
col30:   88998ba897bb8c9ca8ab99decbcbb9ada9adec8aa59dab8ccb8acb9a9da5cdabba978bcada36bb77
col31:   d979aaabaa8ca99b989edbc8ad99addbc9dfdc8a98bccdbaaceb8cbb8fcbefaacbbbda56ac99aa69
col32:   aa9a99acb997bc8cb79ca99ab9babcd8ddebbbdcbcccfe9f8eb8b7bc8f8bcd9aa8e9fa89b98a67a5
col33:   788a86a97b7988bcb996d8bdbccb9d7adbccaad5cabca5ed9bdecb88b68bba9baa69baaaa7c99cac
col34:   989ab6dc96ab8bcba6af9a9a9ab8dbb8accbaebfba6dc7bbacced9acdcccb7dcdaa7f7a9b9c987ac
col35:   a6ac98598a8c89b88bc9a7a898bdbc9ecbca9dc96ca6c9bbb9aedcd99f8aaca98dc4c7da69a9868a
col36:   966ba89bead6ba87c9dd779fceaaadd9be9da9da9bce9ebb8b8cb88feab9ab7bab858bb98b8abb98
col37:   b4b88bb95e79bd9bcac86cadc89ebbbcccdde8dddb98bafccaa9baced9adacabcdaf99fab87ccf7b
col38:   77ba95dc9ab9dcbace9bafc7db79989c9caabfa9cdebb8bcebbdaadee9aceca988bdb88eecdbdbc8
col39:   abc8aababa8cc7abb7ea9ebceab89ccba89cbdd9bfcad8eacdbcbcb7caacdec998cb5986cbaa98b9
col40:   d5aca97998c98eaebbaea96ed9e8bddbedddbbce6bb87ddcbcecffa8cb9d8aced86a8aaba9bc8aa9
col41:   bcb9ecb8bb8d899cccba9cababcbbabbbdc8aeebccaaceba9cad9eaebbbc9beed9bbaac99eabdcbc
col42:   9aa8ba5994bbadab9bb7a6dcabaa8ccdffcbafcac9dbcdeacafcfc8bcbbadbddabb7ea6a9a8ceea7
col43:   6ca99db9a9aab5bc9ba9feddcedaabdb9cebadc9eebdefcfabe89deada9cda9cebddabaebfb9be8b
col44:   bd9a4b69c87a89b7ddacdccfacbdba99bfaaa5ccfc79cadb8cddcffefbbccbbbdc7b8e899cbcab96
col45:   d8a89878a68cbdbbcbabcafeeccbbced7dfcebdeaeea8dfea9a8ddcbcc9daeddcb8abbccbc9cb9ca
col46:   acaebdb6dbdb4aee6abb9ae8cebddb9e9a5ba9eb9aadddbbccfbeeddca8c8cdd7d9eccaaea9c7dc9
col47:   a94c9eeac8bbdac9b9acf9b8bad9abcbdbdf8bcadcdbacf9be9dc8ccacd9cbce6d97ab89faaa989f
col48:   9b98bcca8c8bbabceccfaaadce9bbcc8eacdecacd6cccecbf7dd9ecc9fecceae8cccbadbca5a98cb
col49:   6b9ae7aca8986fcdc7a8d7dacdacafabe8eadbded8be7ccedefdebd9ebdbcddddbbaddcac4c9a8eb
col50:   986f99b8699bbdbcd9badec99ecec8cddfcddc9ebdcb889cfbbaadbbedcbaccaa98cdcbfecbbbc9c
col51:   a9c88bdaa996887b9cca8bcb5abbaaaaccb9cd9aaedcccbbbaada9dcd8999db9c9779bd9955667b7
ROC:	 BPix_BpO_SEC6_LYR4_LDR21F_MOD1_ROC5
col00:   56882535565337645a55493d77777c688488c63479559aa5b7ba57a7776759865a48378a75588931
col01:   847cc359655a5b9a75848ac7d987c8aa97a9a9bb89aadba8dccbaaa969651ac557946ab4b998bb82
col02:   653475ab448898a727a5aa57aa585896a77a7aa697788689789bc6c6988a9aab684b978677741228
col03:   a7a896b5675ac5699d79197987bb28adac747a796ac567a66fa8b6a8cbdecd78adba787a8a468972
col04:   a56669a989697995a56c8a99b67d95aa6cabbbbda88e2596ac57e88c9a98b55789b8b3a5987bb878
col05:   4677848498798d7a685889e986b83889aa7977bbbabac89b58aa9ba86ac38656aa79a988b8772c31
col06:   8b6965977a6549989b93b6a78549c9a92cc7b95b965bbd95677a8a88ad5b5596889c8746b66b4956
col07:   795796c9849968e7885779b6a9d967b98adafb977aa8c69837a6bf98a8aa799678798aaca9bb8686
col08:   76318a69874246a8c89c7394ad26b9dcadb9dcab6bdb9b7866898aa3ec69f6a9aa69686786677498
col09:   76a56a4bc587779798aa8d9d699a65a36c6ca88c9db9cacfac848b99797699ab55b56a4998535646
col10:   66886995569673577f7677ca6885799d799bc5a79bc67596b9b889ab889b66b995a3878a8768b648
col11:   a46a775a266a75858928a8a598b889caabab6da9d676cb6aab8a9dca6ae878bc9785859b783bac64
col12:   5759a75b7c561ca15988ab956586b6ae688add56aa9789a6b979b4687a649c867a98a74596c957b3
col13:   69765295779a9b868579b788bac99dcb8ebba9c89ae89a5a5c6a8e96babc6aa9ab988ca594c78acb
col14:   947a57772b5ab79777776759abb96b4bf99c9c9a6aaaa9bb9a9bcd6b9a9d956893695ec77998a6a6
col15:   6942a4868774863ba8c98599faa97d8abb695bacb7a9abac9dac9a39badc48585b69c98389885966
col16:   7359a865c2acc988596ec9b8a6aa8b569b9ca96bb986c98b7cab68e9bc88da8aa75cb7b9a4259567
col17:   c5d696586676a8888978827786c62bb8caae786c3e976b6898d889e789796ca79978bc68376394a5
col18:   d575626e9b7597879888587adad96c649a9bafb888ab59a85e96a7b88897975ada7a8a47b9a65545
col19:   d819a77664a78ba6ab69bb7c9b9856585abcab9d98f8bb6ba9888c8cbacdaaa5aa78a9879c966697
col20:   a3957767a3ba4a9d962887b9c6979898aa69bac7699698a8779ab9cd8e8468b8cb5bb88525845967
col21:   83599665a888a99967e99c98b7ba6ced759aaccb67a79c7c99aa87aca79895cabca319a887558cb5
col22:   99765578c67b34b9a7ac8ad8c6b8b3796a97ba897d8aa8f8bca9d7896999619a37b78ca984997698
col23:   388ba76ab99647866a89c9867896ad4b95a89bbaba9998599dba678a97a87a8cc987b8a489988975
col24:   87a8a959997a68a79785ac776aa79a9f8ead8cc77bccbbd9caa75a7a57a795995774999a9999a1d7
col25:   aa6e4995a8d75b798d85c76cac5ca6ba7c49ba95979cb98cca6c9a99a79ad999ca6d9c976877aa87
col26:   bb677b99eb697c46bda8bada997bcaebbda8dc8dfbbc9af7accd787eaa4cec955ba8297d68aa8aa7
col27:   79797968a678c899644b6aada5abb8ba9a9ac9aaac9dac9a7d78aa9b5bbb98d8d687bb7958f86ca5
col28:   56bda7aa8a8babcb79977baa468dcbccaebb8dbeec9cfb9e5bb9aabcc79cadbda59b79588b687796
col29:   7a66a7a8bbba7b9a5dcdc5abb55bd9cbe6b9c9afdb8acb7d9ebecaeffe88dbac79ae987a8cc9b9e8
col30:   b256a8eb69aaa58978898ab6968caa9e5a7aacabd2c8da8c9bcd7caaac9ba9bc7b6b97b9766786b7
col31:   78995899885aa46bb8a7daedbcd9aabd9ebbccdde9babbfc9ecb8f8dfaf9bcd79dad9bacddd67e97
col32:   876989a957c8a78a6b6d74ccbb9bac8a7be8dbdbabec98d98bcbb7af9cccaa9bcb8e8ccab9e9c9a7
col33:   97cb9d2a887d8abaab98cacbadfbe8cca9fcce6dcacbfb9dcaaeaaef9b89c9d8efabfac9849bac69
col34:   a6c8a9cc97daac7abf9b8dd9bcac6c8bedbbbb9c9bbf4ccdada5bba88dbeb9bce8b67dd96ced7f47
col35:   78dbbba6a88ba9f46caabbddcfa8ccbbddadacd96bbaccfbccdaadaa6a89fcc98b9c7a9abab68b89
col36:   6ba88beb99bad5a7e799acdbcffbca9dbccad88bccae9fbe9edafcade9ddaddafe7e5c777dbecc97
col37:   4857ddca7a8ed99c8bb9abbfcaa8cbb9db9bf9ddcdcccbcc987feb9c99adc9da7b8beadcc689ab59
col38:   cabe589aa9ba99aacbbeabcccbd98e9b9acbebbdd9dedddbddcdfeeccd9f6f5ae8eb7afc4a9ba9d8
col39:   aab9978b9dcb78667bb7ebdaaad9adeccbb9e9bae9cc5d7d7c9dcbbfa9b9de7fbcaeb7ad8885aaa6
col40:   6986c9cac96c89b9bddbbbacd9adbc88bc9fffdbbc8cbbce39eaaca9cebadd87ab98ed8ab7b5dc5c
col41:   9b95a83dda4cf8cdbcffafc79a6dfcacaa99cacddbce7db9cc8c9fcccace8dc6f9d4fd9badca889b
col42:   d8a96e96bebbab89aba8ada9d988bfdd88d78eb6cdcbbd6cb7ebc889aaeacc8bdcb59b9ab3486b97
col43:   a56a8ad8dd9c9bcabcabcdb7bedaddbecde9dcefafdeddcdbeed98dce8a9accdccb888b99b9fa8d2
col44:   5d9b8978f79bea5dafcccfe9ac9bbacfc8ee7afba98ccf7edbebcdb9cb8a8d9ab4b87a9a9b5a79c9
col45:   99b9bd967acdc7a9fda9f9fb9cdf9dbcddecdebdd9fefbaabdf8a8ec9cd895c87dcaabacbdba369b
col46:   adcbad8bbfaab779c8bc6eabd9d9eebb9cd8dcaeded9d8cbc9e7fca9daddfd97cd9c77abad5dd8b6
col47:   a7bc7ea98cbbda989aad77aeaefbfc9ab7baecacadbab99aebaaabcdccbbcda77ca9eedabaac9d7e
col48:   b6bc9dfd8caab9a9a99e8d858ee9bdcccbfaaddc9c78adb99bff77c9afb9a9c8dbcd8da8c986a9b5
col49:   a789cfa9a58aaabaacfbceeccdfcbbcecdfda6bfa9dbfea9bd79aaccec7faad74af9b9ba986dbebb
col50:   99eaa49b789fdbcaaabdafcdfd8c7daceeb9fb8dd9dfdfdf79abcd99badcaedcacb4cc8ab8aafa66
col51:   39c67d8989abba8cb87c8bc9c978ab7aad99c5b99aa8c7bdf9d5fc79b9c58999a5ba77693a8a77ab
ROC:	 BPix_BpO_SEC6_LYR4_LDR21F_MOD1_ROC6
col00:   d9816353658997c9ac968889987b7b828c7ac7968abcba64c87ab796798bb7975958998867895674
col01:   77787bddaad57e899ccbadbbf8e9c9ae9b8de66daa5a9b5ad9a899d9989c897cca9a83a64a698949
col02:   a9c88a5998a79ecb7c99d8abcdbb9abcac7957f77b7b76cb7c6b6add9597abb99a666bb69a89c652
col03:   9797b696a87649bba677abb9babb859b5dc8a8e9bdbd779ab5a9aab78a8b98c78b6acd779896c6a4
col04:   7869b8c7aa8e7a49c687cc8bcdcb7aac89aead9a999dcab588989c8a9a9298acdbabc5e7689c68c3
col05:   846cda7cbc996a53c777addcc89ac7d99a9c9864989d98b668bf99968abaa6aab988694995d94637
col06:   67387968b6ca78aec4af8accb7c689759cd8a7ddaabb8ab8a7d6babba899c9d889b16a7a8966a476
col07:   89cb6a997a9abafb698d7b78bbaaab6addb9b86badbaa7ba9aa6a9accfb879c9a4a984a79887a977
col08:   9a3647b5bc86a84aa8c8dac8bdbb986699996ceba7a7eaba89b7a8868b875886b95c89a7b6977a59
col09:   9c79a388a96bb9986cdab9aabb79d86c7795cdaabc8bcb9c997a77e6cac8d98a78699bac79d78648
col10:   78699a7a75d6a9c8d86a99d9cb9be98ab77b9ca9bebba8ad9998aca8c9dc6bcb96656ca9a7976a75
col11:   a6648b9bcc687bc7a7ab479cda8bb9cbebac699c796ac98cc6aa88998a9ba9b9aba9ba997bab9a76
col12:   96b6c3cb6ac5b599c79c98a5b86bd99d9b77a976999d6c9885b9a86daab9986779ca87a36754b888
col13:   c638b7859baa7b68b9dfcb879ddebacc9de89958a9ab9aaa99a99a9b9a7a89acb7a8b986b984d8a9
col14:   55b56b87996f9aa9bd8aa9b9a9d7959d8b9bdbcba6aaabadcac8ba4b9889cbec7a9847887b5b88b9
col15:   a6a5868a66b8bca58e7aaabcd9c8bb8bacb9af88dcc7d76da799a8cca8b66bcd9a59c57e55aa9777
col16:   75b8358d7a9a9a77778b99bacac89cc9deddbb89aaaa888aa97abab9d9877a849b97949bca839e76
col17:   865a7973e769593c9caa98bbc98bc9aaaf88a8fd9b8faa6af99b7c487c68a48875a9b998a7a97a33
col18:   b9895a8caa7a6c96fa4a9889baa78c7568789fca97a59699da4ba83998ccbb9887858465a9548995
col19:   67688cada8eb6aa8d76a7bd9db9bcddca99baa875c87bd9bacb8aab98a85ca7da7a3aa78db9d9887
col20:   9927b9bdb576b8857cb98cab6b8b9b8d79dac7a9a899b9aaab9acb6a99ac99b948986937a8cc9668
col21:   76577988a77a9ac8abbd7894eba7cbb7bbb687c7dfa998bbb9abccf9babc9a685878aa8cb88bb467
col22:   a739a3875ba787ba9c9a87b7ba9ab8aa899c989b9c9a99bbda9b9a6589ba9a97a97a98798a9d8a84
col23:   3879a6a67a8ab79788819c5aca79c7c989dc9cc69a778a6e87ca7b8cb79799ba9b69778988796995
col24:   73c8768897c89d88b87a99a87ab9ba99a9899a88a4b895aa67899b78bcc97c7b9b699978b8b57698
col25:   79a7677c879895c89a98caaa6ca9b678eab8accaabba9e5bd7aba9b9ab96dbcbbacb6c8b99a97784
col26:   99996a8b7aaa6a87a8b9ceabb98cdecdaaabbbe8dadca96da7b8be5baa9ca9ad959999aa888a6887
col27:   7896c99b9bc97897c97d7b5c79abaaa99baaa5a8cb9ccbbacba6cabb9a9abaaac7c9497b9879b989
col28:   7b6ba6ab8c587e7aea677cfca98a9cab7ea8bca99ebcadc96b9a9ddb898a5c9ea6c5ccbaa6b9b786
col29:   99996796cab999bdeb9abaaebaaae9bb79b98aaccd98bcbbdcc9dc9ab8eaecea67adb8a68b6eab37
col30:   ac8a99ecaa7adabbedf8d76a6e9acb89eaabcba8acbbb8bfd8dfcdcc9a9bcb9a99ac89c8c6699756
col31:   979a7886ab8babeccb89abdea5bbad8bebcccaba9baecbabf8e59bbaac988c7a9a97c8c69c79a988
col32:   98bf7bde8dda95a9c9c899c9decbadbcab99db8dc9dfcecccbbdbacaaaa88ab5995c9b79a998ac7b
col33:   9cad7bacab99b7b9acaabc98ba5d8aa8a9999ca87b8dfd8dcadbbbacacfdb9aadccab97a7a794c99
col34:   b9d7ad7e78cbb84dcbdc98bbefd88ababfacdcccdbbc979c8bcaacc9b89d8c5a599ed9ecc7a89b66
col35:   bbcbacba6bebca8c7aaecbccb98ddacbca9aeacfcaf9aed79acabbdeacecceeb9d8896a594998b87
col36:   abe7bddd96bdfa7aeba7d7dfacc9c5dea8989bacb9b9cbcb88b6c9ed7b98ba99a66b9db7bdac6889
col37:   87d987be7aa8cae8cbcedacae8cc9c9aebbdedadbcbaab9b8bcdcadaae89bdc89d9d9bd9b99e77d8
col38:   8aacb88b7bcbebbdcbd7fd9dfceae59beb9fddbcaea6cc7baf99cdddd68bcdaae8ab8cc7a96999a4
col39:   8bab99bea8abb9787b89b8aa9cfc9aa8ca9aeacfcdbececcaac989d9c9bc6a78e8998cdbb4aa9a8b
col40:   99889aaa9bcabcaabae9caacafcbccbfafdaaf9bdc9a7dce9dc8abccddbeac9fbb7ca86a6baa7a83
col41:   ae98ddcaccfe9ecc8cc9c99bbdbdecdbc8edbcfbebfcecadbddddefcbbce9d9abbeae74ab8f8d79a
col42:   cb7ab89f6cd9a6bad9c699ccacacb78bb8cddcdcbbb5ababaddcdbc6bdbcfbca9bbbca9a9b7798a9
col43:   ca8bccbc9accc9b9dcba7bdd9fcacedbbffffaaddfbcfba9f7dcf7786a9fdbb98fd988b89aaa78b7
col44:   badabcfce7b6ca6ebca8ba7adb9bdeecc9cd8faaaedbcaeebb8ddcd8b8cd7c8cd9a897b9ecbaaaab
col45:   8a6b7aedb86dd7cbbc5b956fcc8caabecfba89b8bcebaec9dbecb9cc7efbfdcb9ca98b99a78bb889
col46:   bab9aa6d59bceaa99ecfc958aeaba9cc9fbdcab8bacdd9cfaebe9acdbbbcabba9caeaeabf9c8a78a
col47:   78bc8bac8cadaadaf8dcbccdca9cabebff5ddcccfb99ecbdbbb979ca68bdc956c898a68699baab56
col48:   ad7db8b9c9baaadabbf9c9b8bccfbcc8ccbabd9efec8acefcee9eaaaa9abaa995dbba8ba6b87e3a7
col49:   eac95e79cd86c9c97dacbb99dcebadcabbb99edfbdc88dcb9ea8bac7eafddfb7afca77e8b76cb876
col50:   98687aa97bccc99cb8afabf9ad9facb9fa9fbaeb9c8a7ceeedbbffaacdadcdc9d9ca9a9f86c9b9c9
col51:   7bf7a8a98abe8b7baa9d98aac9a7feb89daccadbdabd8ca9aaa88ab96b999b7993bc7da798898a69
ROC:	 BPix_BpO_SEC6_LYR4_LDR21F_MOD1_ROC7
col00:   ccd3788ca7484b8a976a69acb8b86c9878c9b87799d375867b8f6b4fb89d68414946636695885964
col01:   94d7b8a75ceb7c7f899fc7ccd9ca89d7d4799bbab7ac7bfc7baa56da768d98a649899b3866965ba5
col02:   9a9e96c75c7bd4e9c48e6c8a79799ee9fc8a87ca6a6ba89dd87bec6cc9d787ad64a9d47bb92b7667
col03:   7d5b7877caba9677cbaab8c8b675acebc89cd979db895b8baaa6ccab78bac999b7ac8c8887763876
col04:   add48bac7b9eea9cdb6e888aceea5ab7a5be9a999fb8c596bbcbeacd39c6cc647bb687a3885b72b7
col05:   6b7c99787be8b8ddb986b76bcc8d6ca83d99beb84abb8a98c6bbc87ab778364b6a398798a9554786
col06:   5c6acb7b69dcabc8b99ba75bb78ab9cb8d3d7bf98a7bc7eddbe9b69aabf699545986a8579a8bd668
col07:   aca9bf689b7c99a7b7bccdbadcab5b9b9997b7e7b75a68bae86e8ec8949a8b93a9b9ab8c9b6d3a82
col08:   286c69c78b7796ad8bd7c9859acbdac9a89799468caac37966a81bbadb5aa83bb928a3866395889c
col09:   98a85b8ad987a59acb38a6af98bccbaebbc8debddfab7ad99e9a89dce4f79b8924da945aa38d77b1
col10:   b8aaa499b877459b959ebbc66c87966d9599a9898cc699cb77bdba6ec8fe386a887c95e979879594
col11:   75caa76a8cbbb697aa84a4c7d98eaea78aeb6a8bb899a28aa67867ba788bb6588795575a77687545
col12:   9b8596688a98a5eb66cbb7e7ca7aaac5eacb96bb87ccdc99bca998b89ae7cb669576eaa965a98966
col13:   6c9ad9a678cafa9aadabbc78aec6bca399bfa95ac978ba7a89c7a586dbb7bbb39b9e896dbb7a4655
col14:   d9ad7b686dc5bbb99aa9ada5ed8bbb7b9568ac8b9cc79582699a94bb7a888bda6c496875c5a89559
col15:   49d9788be6ea7bdcbaa6aab8eaa8caba5dc9aeca3aa86aaa89b79bbd7ae959875b9a9948a856856b
col16:   66a8bbaa778996ab9aae7a5ba8c6858eab78897897becd9fd9ac9bac8ba8ab5875b687b78b765978
col17:   a68bb957ea9a84a5696a7ddac85adbdd77d57999cbacbd9c7ab9777c37db9c7ac374925677545976
col18:   4b767b9bfab9c88d79a5a7a9c875c8c8bf7cca56a84cdab8798779e9567e9ab7888699c857b42681
col19:   2397d38786797a8ab67aab9b8c69ad9aba99a84797bd8b55b867ba89a98a997a765a455b699aa735
col20:   177a7b9bab6acb6867be8a7a37477ba6a7a66bcd78aa7ab69a5878ad8bc79ac5b72a4a8689135754
col21:   8c99bb8a6c9a8bba797c8c995d38d9bc69d96ed8ac8869b97a9dbae76e9b8a8ccaa887a21acd8347
col22:   a6d78476b6ac98b69698aa97c5a7b98cec99699ac79ab9aca6a7d97b8c9bc6bb96497636cc3a4875
col23:   7899849ba77fa89c9899797a5ab7abcaadb77c9a984c8aa9a9b886669acc9d86676868a68681a766
col24:   538445aabd8ad8dcac9de557d77b8ae7999ad8c7a78d75a9a97b8a768e9bb8b9b758338767454647
col25:   96b9baa9ba59958ba9986ae9a8b687ab6aa7899cc6ea9595d8ada9d9b9b6898759b5ba56947168e6
col26:   aa8bb8cc8ef998aac6abebaddbdbdafdda68fa9767cfd98f9baabe9b9d97798a747d9b7a68d59898
col27:   897b9bd9c3de9a9cfcebbdb7cabfbadfdc9ae8ab5daab9ba9da89c7c786ad9a4bba97ab6b76767ca
col28:   f9898bab89bc9eca69adbab9ce8fceaa3cdead99babc9cdaa8fd7a887e7daa9bb989b3697a59a599
col29:   79c99ea2879cba7fbc8d7cbab77a7ced6fa9977579babc9a798aae7ba6a7e9b8ec87a68c997b98d6
col30:   a8c9bffd799dccc763c9bdd9b9a89baad8b7ecd6b88cea9a87ebaadbcea3abaaa9ca64558a48ab9a
col31:   819a7dfb77ac79e9d89a8ccabab9cc6dafac9ad9cff9fcfaea8ccdf7bae99ce99c67ad77887cb869
col32:   c8ba9b9cadfc89cbcb9aedbddd8fbbbaacaebd9d9a4ebd9af9dccbb777c98d7cd7ba8572b888ba85
col33:   688aa9aebe7bba7d9acee7db6cebeb9bdfd9afcdeadba9acc9aeec88cb99deb99a4a974789d86a73
col34:   98f89f7979aeaf9fdfb8ac7767bbbc99ac9c7fafadbdbcbc98ac8ec6b849b5b4d7988a767678c698
col35:   aab8a96babbb9bbbac979bcadcb8cadb9aafbedafe9fcf9caa997ff8ddc9cca698d7a59d5a959955
col36:   b7db76c9c879db65a9abb8b9c89f79fdacbfa9dbdbdd89f7d6b7fbb9c9a2b87cdd38997cea77a376
col37:   9ac39b575c5fca9dac96b9b7bfebdd998db7ebc9c8caccf6ecb99bac9ebaf8ea879a888ba7ab896c
col38:   d6fa7ddacc4e95cc6dccfcab9fccacc7dfadbbddaa98c9cddbfefdb9dabe9795f9abbcd9967cf996
col39:   7ca9d78cab979caaceadccdafdddcb5efadd7facc68b6aa79bdd7caaaeacdcd6bd9b1d89fbcb6c75
col40:   fa77759978c8dad97add9fda6f9ec9bacbcdedf4cbb9aa89eddbe59ef9ecbcbabe69b865cd7a688a
col41:   a9aa59daab3bb9bbbc9dcb9eadb8b8bbc8fd9ba88e9b9add9cebbabbfeb8b6768a8cabd9bbf7ab77
col42:   99ada8ae39b8abcbdbbd596efbcae8cea8adb6cafb9bb8eccbcaccacacfc8a669faa68da888a4667
col43:   b76689ed8bacacb7fb8d587dbceaddfcfefa88cdcc798b9feb8dffe58ae9e7a895889cc679a6866a
col44:   e78bc8accdf6c6acea77eba5a9e99bac6f899cdbe8cbbcbedfca979aaddbfcfdb9ca6b98acb5a758
col45:   fcdc3b6a6ddaecdaaf98bcbdbcadbdbe6fbf7fcec6d8cccfd858ae8bdcb9cb6bb76da8dd98a94bb7
col46:   88d6b9aacbcacaaeb7dc9eaec8e9c8d7abbbbbadafbfeabbdba9b876bdfc9a9fe97cda7b4aa6b9a6
col47:   ab9bd7bfb64a9caaf79cdd5fdeaafafa6c8dfcaa986bbeb8aa9ddded9d8abc6da7c9a553c97d67b8
col48:   a7ce8def78aa8bec9f988bb8bbcddc97aafd8cb79bbd9c8ea97dccbc95baaa7a6cabe8977b88d9b9
col49:   bc9dc9e989c99faac4b7865aabccef88cca8baebcffd9caccd8cbdd9ccd7a7caccaa878798a788b9
col50:   cd8cdccc8ab98b9b9e88ddda9d9afec97babb9a6cbbd9e5f8bba7bfbcc8bb89bcb75b8b87cac8b68
col51:   c4b96a9686b8849944e88a8b9b7a2ba9da68ca967987799a7a9b867a9b688a58c53898dc89844833
ROC:	 BPix_BpO_SEC6_LYR4_LDR21F_MOD1_ROC8
col00:   8a892567a781977a556997877335587c9865c57956a5753478566677a77a46952857333737645656
col01:   95877a38786877b94a7799b996a9a6b7486a977d7eb965a6789ab868bb989875898476d677a99196
col02:   5889759a798e93964aa7a488ac56869a6bb782648954a87981977878378985654a7962c2a3776696
col03:   67c597868538ca88797d7c97d95a98b2a7b975a7d76779ac78989667c4aa5936556199779a685957
col04:   5957b8976b6a67637a668898886c7db7d98bb8896637666a98a99b66a95b36b66c6c6888a7745688
col05:   7a8779987b7696ab987a6587698998aac8a9dda6aae4884665a7867c5979a95557c98973596874a6
col06:   7859a5669886454978ad689a26dc4b589689a9656597bb87b969a64754b9b88989b7b474a7575783
col07:   986678686a8acb8a89a84c65a9cb9b97bac9a5a6b96cf9aa957caaa9977ca9457b478967b75b9579
col08:   a65a4999a8a3c869ab9ba4b96cb667ca8d748a9a9b95876a9a7b598fa65a4da88a45a888435965a5
col09:   587934a8ba789cdb9bb748b896bab6c4aa6c67acb55a897c858a8bb96b7b6abaa7a77896c9865785
col10:   9839887992878797a8b7b88569a386b59ce99b59bccaa99394478759a997568b559abccb7b98d856
col11:   ac75985b88767a7a586299db9bd9ab388acd67667a74a888a7978999c8a86c86778a671b6d4b9758
col12:   6a85b949769c9547b58898874ab648bbaab9775c99b7c88b6a9598684b7c788b9cb5756268495768
col13:   768779aca99888589954caaa8a8a98bfe8a7769b9a6c77b958ba97cc86681c5859a67457c9687696
col14:   aabb8879577978c7796857a9aa497d8a68b9acacbac9a85ab65a6776b6ba78a89a996aa48756a653
col15:   58b9bb99e89a692a7646c6896a9999c7a8d5a9a9d868879a766ca6b6a93a9687baa9b8a6784b9892
col16:   937859665a98b76ab9986d757b6768a56d79c5796cab8a874a7d885ba8aab5778bc5699597795599
col17:   47a67999c89b97a89976d9b888b7a7989a578ba7699a6ab9797a99698b36889683aa7535d7aa8988
col18:   986b6cc5724677ca84756b466d9575a9779589894c5999ad68a687a8b8b5f6865888762b89345a35
col19:   b889b97967649aa669b8c7bbd8b9d957de9cc6a6c999c9e8896a77b8caab98a97ba4f8aca9aa9648
col20:   58a46ba8aa8b78a998899988576388886a3a8aa86a8686889697ac995798b88648969887647747a5
col21:   67887799654abc5a7766da6879969a976b9ba8a38889c7a46956e8b7a779cda79a49a4c54a88a33b
col22:   479b9c77799d6684a98aa77a9866a8d9b59955bad88aa95cc89a856c7ac68b449bb7655548667461
col23:   acaa66a8899985b26c9b799767b9acb9b97c8a7897d26ac9baba5aa72867cba9576948a8567aa897
col24:   b34b9888b878875575965848aa7c97babba59989887b67769a988eb78a577b84364789a675645749
col25:   a9668bbdb8b8bd7b8bfb879ed89cd6a9dbaea7bdbbc9788cba89687ccd8aa88b798485b9ab596889
col26:   a79dab9a75a5a9ab887ad7acc7bdc9c88c9aeb9f79a6a8d9a7d8ca79d8bb78cbab9ca99b6978a78a
col27:   c979a8a888dc9b9b998d97aedb89dcadc97bd69dbabcb8a7acbeaad6a79da8b59ba8a7a799968949
col28:   98a8aba8b969bb9aab98b9cba7a73bba9fb998bb7a8badaba8acbdadfa89aba989cab8a9a9967a62
col29:   bb98a7ac9d5bbad7b99deb8baa7a7a9cb7fda9788cccb7c97cbab9dfb9988b6bcac8bcca2a92b6a9
col30:   96ab9a67cb99a9ac7a7a69d7acdcd9fd9b98cabbbd799bc996bc94bbae9caabaa7979b6836a66b74
col31:   866b99f9ba7fab9b9a89cdbdbceacb9bad8cd8dbf8b8bbcbdebecb8cafbebe7bb9bacdcab669964a
col32:   9b6a9ab969ad7b796e59cccfebab8cbbbfdc99a96db7dc9b9bbba9daca49da99d8a5aaab6bba7a78
col33:   b988ba68c89b77968dd89bbdbcdcbabecc7abc8e9b6a9cefadbdb9bcaa888acbca8746898ba587b9
col34:   999bb966ac76a8d8a66bc9cbc99ca4eabc7d9cdbabae8beacdacbb99a9adc98baa6ade5b7ebc9da7
col35:   9db778b748eda7ab99dcaebe9ccac8efc9cb9bbaccdbbbacdbbcbe8dee9af9d7cab8ac279887ca8a
col36:   7785d7a99e9a9cdbccbfcebbb9fdcabcdedaa8b9b9b98fd5afcdadafa9aad8cca98a6b8b8966a994
col37:   eafaab7a9dd9d5dbbceadbaf8cbe5bbade5bfbc9fcfacfaccceadc778b99a6cbc898999c98c7b97b
col38:   87b7bc7d8b7b8bf89dfdcb8aceacba89b69cfcac9fbdafcd7c8c8cfdd8bbc89eca79c66e784ac998
col39:   89a688bb9ad5bdbd9abcdfce6dccacfbbfaddbdbcbacfde8fbbccba97dacb98b89be9cbdca8b7a95
col40:   6c7a5c8fa9acca7aacbe9caa989cafcf9bcfbfccbfcaeddacadbdfc7ad8c8ba994799b9acdb769b7
col41:   ea939cccabdccdbc9e9eb9d98fcceedbfebd8debfef9f9dbfaafb8dcedcfcdbb96ebbdaaa57ba7a9
col42:   ca8968cc6b99bb7eaf9d8f6c7ba89edaba7ffbd7da89ba8decabcbb99cbcaa89ddacbc98e8b6bc89
col43:   a8a8addb9aa6bbabaccdedcefceec889eebbfeecb9b9ba8bdcccb97aa8fdfddaac98cf959c9c99d9
col44:   bb9ea998abe9abb99ffaa3f7dacebce9bdd7beefacbc9faaadbceddd9ebda4dbabbd79ba68df6ba7
col45:   bba9cad89c9bac8ec6dcabcbcabbadcadedadbacc8cbfafbfab7cadac9ce6bcabbbaec8b9895ba66
col46:   a599b9bb9aaacdfbad9bacb9ab99d7add9cecfdb8bd9bca9b9f7fbafedbbbb9afb959b57a8a67d9b
col47:   a9abc9acdbbebacccfaf79cdcbffcaadedefbcfdfddde9b5ebc9cebaefabbe6accadacad99798aa7
col48:   ba79c78bdc8dfaabcaaaedafdbddf9cbbbacf9ffefd9fe8ebcc8c78fe8deabab96ed87b67a8b9999
col49:   ad85c8dda8c6b9eeabaa9afdfbbebbcdfaefeeefebcccfcaceeeeec9fe7afbbab9d6c99cdcababb8
col50:   a899cdb8dea9da99cb8ad8bcb8bdaffd9cbd9facabdcbbffbfef7ebb7f8ec9a879aac9c795a9a997
col51:   6b689797bc8a9aacab7c7b69fbaadc86cadddab6c6dee8bccdcca6acca8ac6bafaaa8cab768a95aa
ROC:	 BPix_BpO_SEC6_LYR4_LDR21F_MOD1_ROC9
col00:   586a38b7a7a84962855587975647597bbbb46a995cdc49a78c4b8a5b34b9839636943628871a6655
col01:   6584857bbc59798885586aba7775ca8b86cb957a878b8c7aca999c88baa6ca9c4b979863878367ac
col02:   a8898766baa73a6b6675998678f9da8dc899a898659ac9699bb9a4a7598bb9b65964877b6a663796
col03:   7887c98b947c4898f7967acbb6b95a89cc8aa7cbfbbabc7aaaac9997a88676a6a968379a34865aca
col04:   687969ba678795a7b6789a487a9ab5a8b86a986a9b67abc558a89688797a88773b885e79898799c6
col05:   77a76b99bccab5a7caa866a86acb94ba686b689a897cbd5a878589ab9975a796ba985b998619b555
col06:   457989a8ac6a966675a4966c7b4b69937d788a7aba4b6a39ccaba89c1b87547a875a972651492844
col07:   a7a99a9598ba47889bd685a68869c95d63c8c98a7b6b7cab9b7bea4a79da9ac37c5b8a7798c5798b
col08:   a3c8bc9eb899899996a7baa78fba6888bb8caa96b79aab8859ca66b9c9b73bb8a8aa898596b67585
col09:   b48a889bb8a989b7ab47b694c8998fe9c9c9b9a9baeada3677de787ccdbb99d58775d997845a8968
col10:   775a968ca863edb65b9aa4c4c88766c8698699b89a5d66a949988b97ca9a95ba6b38589839647566
col11:   586865cbbc798888a67ac2aababad899ab78624ddaa8a66ba4386796aa986ac5a6a7979a8b979b58
col12:   a4787a47766786babb7c97bfa8ca6879baa78ab86778aa9cabca79699a9799cd777d896899386689
col13:   4fa3c97498bb86aa8b8678867898769a6aa98acaa29898778a94b987c67c8aa9a4a57b78e6667865
col14:   a83b5b5953869aaa6c7ad696868c9599586c8896ab8769bd7bdb7a7b975777dc689b787776296878
col15:   659999a69bb3cb6cb8c56b7ad877dc689b9cacb66bab589c46a6b675b899aa9eb9d3857883746888
col16:   8ac1cc467b8b966e3cc8698b7cb97abb8a95dab72989b899d589ab9aaa869385367359896b5b7685
col17:   58ca449ba78546ca9aebb9997b7584c686bacbbd8b688ad9bda95aadcdcc9bab66aa75b8861a8799
col18:   8a7c5b8977a7b998a7c8c9d86a386e88789dc7a8ab7eb668866eb75995bb9c8485b9d697b7d576c4
col19:   a89a9a7bf8eb8d4b987a9b668daa4cc4dbd9ec8cad9bb98bbb783ab599666ca94aad76a998597ba7
col20:   569d558c785c6ad88c93bbbb8984aac965cab9a698b88b7b8b69b888489a7879a887a9b4b8967874
col21:   486a5684b9698aa799c9a7caa698c86d8798468bd5a977a5a885fd8576c788c7cc87be7583987878
col22:   6686a8a78b779a99a8779b6bc955ab76c994c86b7b967699d997b6988bd678b9aa7879c63c893aa9
col23:   aa4889cca3779b67a86bac68a8aaab639aa7a8998999577a97b399c4c47aa9b897a976aa28a75989
col24:   c687a99ca767aa9cbbd9998aac65babaa76595bba787847db647a5986aa98cb9875b93858949958b
col25:   8a71a8bcb69bb9ea6a7988f9cc7ab95999cd9b85b8bea8aeba59bb869c7a899cf888ba8c8bc9bdb4
col26:   4aa8bad999badcaa8ecccdcbbb4ce7bd9cb5fa5bb88a6d7b9acbd9a9876c9978987cb977c988a775
col27:   9daa9aab48cdacb8ece9da889b7bc9ace4cac5aa98858be9cc79ca88ecb7e9c97ac97677ad7b88ca
col28:   858ffefcb67a8b599b6ebcbdbadca8a9baa8dac7c7abb77bca8dbc9c7b9bc9a6cc63ac9776ab8ca8
col29:   dba889ec69da9aa9eb9cccded58fcceeadacc6ca8dedc9a9aee7dee988d8f9ae99bdac6cb8d89fd8
col30:   d869a9afccbcabfb9dbbd99abacabbc9ea88babacc9ddb7aa8cbb9ccc9db55dcdb7c8bba699bac9d
col31:   99addbcbaeddd98bdacf6dfbacbebaebcdcb9cbdcdccc9ebdddcaae9c8df7b7a99cbacabcd97998b
col32:   9cbdb9a9b9aadb7b9edaadcaea8faccfebdb9acaa7ad997ae9cbccbd9ecfdebb9a897da8acdfbb98
col33:   cab5b9b8fdcbb6aceee8f8ecccdd7bc7dab8acdecda97dbdab978fcadc7878bbf9daec9b66a49dab
col34:   8bb99abccbe595bbe7c9e8ebfadceed69afbfad9cca8cbdcdbc8dc9b88c7cbccbfcc699edaf89bfc
col35:   b9db9f6e8b6caca7c8ebcffadd9aeb99ebfabc9dc9a9cbaf99cbdb78c9adc8eac97bfbbea9abdc94
col36:   89ab875ad9bb7bb58c7ab9a5bcd9bb997daaab998ddaf98d9ccc4babc8a6aaaf5bf599ebdad98ca8
col37:   a699cfdce5add89be99bfcfdbcfcbbdddc7c58a8cdeeb78faecdbbceabf9bd9b96c8ecdbbdaba9ca
col38:   aaaab9fcd9badcfcecacbbcad7de8eed8c7bca9b9ecbcabda98dbddbcdd9b9feec99c9acf88fcfd7
col39:   bc8989af8edc8bfbbbdda869ac7cfabcabd8dcb9accdddddabeeaff5befb6cbebad9a89adaac7cbd
col40:   dbbab6fcbba5f9cac9ec9cfaccebaeebcbbefc8be9b9cc9adcebafbedc9acca9a5bcffac6beccbdb
col41:   c84a9cabb5daddfba7bccf9fccbddaedfcdcedaddbffdbfdea8fbbaedbb99ddcebacddc98cfddc9e
col42:   abcab9cb9ca9ddbbc7acafdfebcca7cbeefe79dccbdca9dacaffcbbcebcb7dafdded9a8ac8b7cc4a
col43:   a6dcdbadecffce8d9ccfbcbfccfaeecaecbcfeccabdfbb9eedc9efbcdcdec98ea9b9fbadac89efec
col44:   ee79a9aa5dadaddddcf98ecdcdeecaf89ebeadebeffb99fee9ad8a9d7babfbfc4cfafbbba98dd599
col45:   79abbcbbf9dcebacfcadfecbf7accbbacabfabbfbcabadcbcc99daafbf96adacac6aeccdbf997be9
col46:   b8dbbaddfdcafbcb8d9dccddafdbde9bbfdde9d9ca9abebabfebcccddebdcdbbbbe9b9ba9bc87bdc
col47:   98fdeada8bbceb9bffd7cbcabaffadbbdde99dd78fadd99bc5ecccdeeaeaeb7cbabaeddebd9fc7ee
col48:   cac77cdcbe88eecb8e8abbadcdfe99fda9f9bccfabfeafe9baddb9efc978bdacbad9a8a7a8ca99ac
col49:   fcc89c6efecfdcc9aeadbfffedcffbedbfecbfbbdcdbdff99badaccdfcfaab7bdbcb9aee99bbda9c
col50:   acba9c8e9bfce9f8bbebe9fbdbbfdecafb8cbbdd9fcffbfedcabfdafbbbbefacded8eeac7ecbacca
col51:   9ababe99a6ae8cb8cad79d9c8da5dba8cbdceeacbacbba98bded9cd9cbb99ceb789899cbcabab9ce
ROC:	 BPix_BpO_SEC6_LYR4_LDR21F_MOD1_ROC10
col00:   765697876d838a19953b567b5b3e74b477797a957a9498a88c753a399c89667974853b168d85e6c6
col01:   588c529677558599db998f98888a998e957bd89ac778658ab69896a7a49b7baa28b6aacb567c9ab5
col02:   2577b6a79b8ab697778aaa789b868b7ac4c7b7b9a6975979974a597a1998b9679b8c655d88c8a984
col03:   76775b995c98b56765899cb99baab88bba96bbba99d9a9ba7a67b9979859aa97c6a96b9b93b9ac53
col04:   97a96a58b88a98b796db9847747dbc888a5a647938af7ca787baaa8b77b6a9c9a68498bba58bc84b
col05:   55a775abda985477b8dba5f89abaa77875b59b97786be898ca96aa4cd97879887b67756a78586e76
col06:   89a889c77ba77d78b799d9699895bc4a7995dba87a896c673763eb6c89aa66979874568de8888766
col07:   675c9679b3979eba35aa85e97abb9e45a6b59eb9a7ba84c368658797987b99a5968b5b67994a2687
col08:   76823799a6878693774597ac786b19b9799da76aa596eb9b688839885a848349c57684477c496864
col09:   6a6b948ab6bc897ddba985a499fa8a7bfbad9a9dad98b8b4bc5578a77a88ca57cc7b64b6589c48bc
col10:   8718ba68a85a95a7abd96acb978c657cb99a75d9a9995987a69aad659639756aacdc799b948a69c9
col11:   6835687cca9ca78b3c8aa589aaac696b9f69868585b887ab99d67995c5aa68476c6665a3a8778764
col12:   75c8a8684c7b587c18b693897398679cea8a8a77b166c89c9c8c988778bb34598cb8aa976485789b
col13:   66c9e4c58d69b9689b9be7a874bb69a66a8746b97ba7da8457a8569a938c8895767347898aa8c74a
col14:   c697694ab9a48f8687a84f787adc78789767a88ac7ab75997aa8bb875dbc731886b99a3478c4a78c
col15:   779b9888abdc897aa68a87979aab7989cddb5ca76b859ae79a7775d978a7748b8a8693844675b888
col16:   58dbbac687a888db9a8ed969c87beb8c8a9969998769baab9dba76757966b626e7554a968a77ac7b
col17:   338699a9bbb9878a96896d9aaa776b9b779459a57ab6d6c54b8aa7988a66b87a98ddb58757b778e4
col18:   db6a5496969ba8aaa77b758a399bf775bba8a6e576a8b4d5bb87c585c766698a8a89787a77b78585
col19:   9a6c8775db8aab789656abc5b6cab8c79a6a7e68b96bcaa8bd968aa9688ab7bcc8bba9b79c77944a
col20:   925978bba98a886b6a86a8c7726a4b5faaaa9ab967958a798979869835c49a7581793b8596791646
col21:   87b878c8ab9a68d2caa8b9ba7abc78bb79a877d736b9ba56b58a466cbbc9886538a9c588d99d5356
col22:   7b6648c6886857c8a575bb89a8c49967989bda6b78b88886cb6889ba78587566a9ba7b93d9785767
col23:   c6a798b848b8daa59cacf67eaaa6cda7868899ca68797569968689bcda9869e65671cbbb9d47575a
col24:   883a55a998dbae96c65c9846c97bbb99abb95b8a869c88a9486a5fb78477995797ab398779683846
col25:   7978958cac96ead798c56dd7c9787b9ad7ca8977ab47a7b9a67cb9a9c3ae4bb947ca7cb4a7d86882
col26:   ba9ba7a9d869a9ba98dda3badcc8efb9cbad697bb9ba9fc87af2ba9c9ec8eadccc78abcbab5ed6a6
col27:   ac8bdab9c8aadc8eab7b6dcf887b96e8aaa986c7fba5ab9a7879c8bdce7fb8aabb88898a4a86cb6c
col28:   a77ba4daceb9bc9ca7baf8b8bdb8fcbedcb97c97c87fb97d3ecbbb5bb98c9976aeac85cb9c4aa7e6
col29:   99a67ee977daeb84bc897bb9c9e46a79adcbbcdeaa9ce6878c4c8bc9d5bab57a6c95ca4778a37898
col30:   84a84bbcb78aab7a398bad569baabd97b89b7b7abcf69aa957b7978afbc77d9bda59cb7aca496aaa
col31:   8aeac7f66a7bcbcddbba89ede7cfeecbdefdfccbbdc7ea9babbe8a8a89bc57bba9d99beedaeccb99
col32:   eb9f8969b7bb8ed6db7c88989df9db49dbbac7dab88ae998bb5c98d875add5a879db89a5597328b9
col33:   98ebbcc95eb5d9bbbf79ed9e7d7d89bbdad6dcb9dacb9efe998cc877cc6947a9fdbd7caba65cc78d
col34:   bdbbd76d7c99dbcfa7afaa8dddecfdbdfad8ceb98bb9aacedebc843d87abaa6be799a7a9ccaba6a8
col35:   c9ca976ecbda7ac49beab9fdbfa68cbfbdbbfae6879bceaaeb5b99c68b97998b96b9a7955dea9856
col36:   89ceaaba7ab7ddaf7bbcdacb9a9ebcc9ec9ce99b9cdaf9cb99aef9af7f89a89788bea7a8e77a667e
col37:   9aca8bedd98cafe5ce8bbdcd78cbd9ddd8debfacc899c9ac46dd98aaa98a6b7dde6cdc9d97dacac6
col38:   9acd9baf8de8adbbc6cd9ba8fedbdefbad8eb9c7b8ad4cacbccddbbbdaeaddecc6b8ae69ca9bfcf6
col39:   9edae8cf9cfeafc8b8addcdbcacacbc6cedabfc9c8feadc9d8b4aca8ccbfeaeb7dc8ecf7cbbced99
col40:   cc7bbab9cbad6efc97bc9caf9b9c9bab8fdc4ffbec5cc9eaecb9cfe379dabaa9f8787aadbd5c9b7c
col41:   f45c9ffce79ea7cd9fccdbbe7cbccdbedacadafffbb9dcdaf9faecf9acbde9c999ee9dafb8b8cada
col42:   aebf7eea9ebcabbada8dbeccbed9d9fceccb9d9eccc6ebc1dcbcccfe9d9d999bf99f99dcbd9c8b96
col43:   b89cedcccbddcbfa8cbfdaebec9adcdd8bfcfbabedbcc6bbfcbda98ba89a88cdd8cf98f9aacebbbc
col44:   9a986bbdbdfe7c9cebb9bebabfe9dfbae7becbee7decc8fc8afdfcdaa98a7fcb8aea69d8aa6b578d
col45:   ab7ccebccbcdacd8bfcfefbe9efcacfcdd8fa9c9caecaf8ca99acbbc8a78bcbaab6c5fe8fb7fdac4
col46:   6a98fbcc8dbc8cadfb99dfc7eafeccdc89cee9d9ffbfcea9a8baacccb98ce6babb8a9adbaf982eab
col47:   7bcccbdcd8bddaddeafecdafdcf9cbd9adfecbecbbbcf8dcea9abbacacbbba8759ad9cd7ecf9b98a
col48:   955b97dabcbddcd8becdc9babdcfddceceabfedbf8bc7bbaee8fcbdaedfdbbe6c8dc9edabacc977c
col49:   cbbcb89cbc87da7cdbeba9ebbedaea8dcdedc7cb8cbdfc9c8baab6f6cde29aaad98aadcc7bb4bac9
col50:   bb9ceaeecebd8e9cddeaddbfd8debdbbacbfbea9cdde58ffabf7f9cc8c7cd9a7bd9a8baabd9d84fb
col51:   da9c8467bb79b9bcbacec9bcac9aa98dbe9c6addfb8b7aad6b926bca6ea8895987ca6c9784897aa5
ROC:	 BPix_BpO_SEC6_LYR4_LDR21F_MOD1_ROC11
col00:   78483a74886758b5849782a7a8462b85a776a55175474557525475548567798655463629657b7543
col01:   b75b9687387678b98856787a4a8b8a89659a9899745459778a96667a762b485a653bb69696567376
col02:   588774b75469745879797784798666678a5a726b5786867345a7575767943291763986a794526443
col03:   46538699898aa95b97898b76b25979987ab498a778a959ba5868887b5776677867b3756479497948
col04:   8866b969e6999675757a7764bacf878c9788825c9986847696a8982839889578965446b5b3779a95
col05:   343587a9465879a7cb77ab798aa796b7a78a588bb78a59cab78989cb478676a53418657966178931
col06:   63ba49497846caa6a8528ab7bb5879ab7568c588a76aa87a9b65b79784659b277466787965b77773
col07:   6685c6c76b7b979ab3786b877a7a89d84dbba5779b9a467783fa975768967679b65596ca68797695
col08:   786a547c89586c548aca99c688a958d997a969966b8834885889ca4851a57884977a576388a83536
col09:   a6b2476a79c45398597895babebb79557c9779c7a7a867a8a6aa6bcc95689845b8c77799a5c93847
col10:   6277869958a67c7685c84598adca9c655bb9d84386b185796597696b5b7475765476577877657568
col11:   3443b56a95788688aa98989a767859a884b66796b9bb7a988776a94758bba7995572185876696743
col12:   9876767a7716c997b4b98d4aa586e68b86cae6358a9996a9abd4bd37b5a568797856976674162286
col13:   9a75a679ba27887c78b9b88995b98a89885698349bab9868bb54686595987848977997b8b8a86a95
col14:   41774736693aa8798d995986cacb9d8daaac57677a99738a87a55a9a858856496476a8763a666254
col15:   654a79752b399a98ac79c99eb8776877ba78aa567899988795899878798578c74897979634395968
col16:   6967a675a66679c877555c8f9698a87b49696a8a86aba7938a68888a77968788a3a57896a78a4585
col17:   b149768646b6789bc7b79a96a6baf8d9c58b959c747a9875bd958a8b6b94873c54897b5994666766
col18:   57684a66827587988aa979b8879d9aacf8b9cabb54a96a889a95879c95198928a7958675993b8586
col19:   588475aaa7a869a89895aaaac898b8aa7bdb98d688ac96984bc752db9859d8965979a489898659f3
col20:   ba5886979a648a83ab9b9ae868a9ab8897788b55b8b634765aac49767ac98a6a899b858458836b94
col21:   a5889768a454b77b859ca7874c96b75a96a99db685866597aa66a68ca557a66699566869979a6758
col22:   425288a46a5889ad7cbd99b8ba97c68caca5b8bb7a5963a6b67689aba7a9878a576969a954b97c66
col23:   8868a3486975557789aa89d678baa5b8b6998a7997a977a4abc6a869a6987e6a67978b6795276877
col24:   6868a95b798779a699988a556e759aa49bb89b98bd75ab5ab795757776b9869699a869a676584486
col25:   79b86a6596a6a758a8aa9a7bba7acb998aa9b9ad67b98e397a798897aa9c6a46c76c9b8988699696
col26:   696998878b59a98bdc97ba8aaca79ceaa8b8bdb7c9b9c95cbca9bcab8c99c6abe8da69da9a879997
col27:   956ba388b5d6f8aba68b9bbcba89c97aba9b8a9ac9ab979bac8ba889ca75ae87c999a6789c9bb988
col28:   7797ac9879cae9e6ac797bacba7d5a7a97a7afc9b988abbbdabd9daaeca77ba698facb74958caac7
col29:   a6a58aadab77d9baa9abe7a8fda9aeaa6bd9c78c58cca9abdbbb9bd9a7b999c88949acac5db7d8ba
col30:   75649daba8bc99ba9fdebb9a6dbaebacbb9cb7abba96e8a89baacac9b69899fba59b78cb79c9aa8a
col31:   d7a6caaaaba65aad9cfc9aea9cbbdeacbcdabe7c9e6bdc9c97b9c6bb98a9baaecabbb88e78a9cbfa
col32:   96aa9afab89899897afdebdc9ddccf8aaa7dcbcbbb9dccdbc9cda8dad8afabdc9bbac987cdcce5b8
col33:   9be9ccc8aaf9c7abcadadaab8dc8bbaaa9ebcdbbeabfa7cb7da97ad86aa8bb7adaaba7bbb9bb898b
col34:   95ab8babc49bb97ddcdbca999c7c9bbadebfcca9abbb98cddacc9dc8987bbab8996abaa89caa5bbb
col35:   98bbfb8c57bbbac9ab77ddddc9a99b7e9bbabb9a7ac9dedb7c98cdba9ca95fcdaabed7aa8a958cc7
col36:   986a8ac9bda8b8dbbe887a7bcafadcca7d8dbd8a8e797c88ade9c7cccec99ec688ac5d789b7589b9
col37:   687dadaac9cddbd9fcbbd7eebb7ecfaeaccced8dacc8cedb8dbbadb8dcaadbbcdeb76dba999bb85a
col38:   ac9bcb6aa8bcbda96cc9adcd9ddaa9cbbffbb7ccdacabcdbe6cbd9dceba9da7cbc9aabc7ba9a86ee
col39:   aa788e99b9a8cdcadbeaa8ccfba7bca8cacbab7acb9cbccac7cb7abceca9aa7daaabce79bcda8aa9
col40:   89cfbda995bb6dbeefd8bfb98a9aacceaedabf8aaadebded8cbacb7accfbaa8cdcae98ccafbb9dfc
col41:   7a97a57969dcbbadcb8dead998ee9c9cec7ebfbfbbbbcccddc9ebbaada9bcc9dccb9ed8baef9cda6
col42:   5b878ecd9caaacaa8befbfdddeab8adc8fccb8dbc9bfffe8db9abcd7ac6aacdaeecbacd98f8bb8a8
col43:   968daaeacdbaf9dab9bdcdbbbcedececefddafcebfccaac8ccf9abfecffbffbcadcdb9ba7e9c9f78
col44:   aaa8ccbbab9d8c959edfaabdecfdbbdcddb8b9bae8ccd8cbafcc9edcdedcbca8eecaea8fa4cb9cca
col45:   97ba9bcaacaabc9cbc9db7cfc789fccabac7bbdfb9a9bf97fcfdfeaafa99ccd9bea9e86a9cbeb8ac
col46:   a7ca9bb7edccbdd9ecbdebd8cedcca99bccdcacaececa9d6aacbd98dbdcda8dcccbdb8beeffbb9a8
col47:   9cac9b8bb9cccaec9979daab9fcebdc99efceedce8aeefdbc979bfadddada9cb9ce68caaaadecb9d
col48:   8c99b9da9dadbbbbacdbcfdbcadabffdcccd8b9dca89abddc8faefbadbdbddc9cc9bb88e9abf8a98
col49:   b8bbacb8bdcbce7bbfbeeb9dcacbdaeeefadfcffecf89bfd9ecbcdd7bbdccadfbdbabdadbabcefeb
col50:   6b9b9cb9fedccaed9daccb8fce9ccabcdcdfdcfdfeaaefccdccccebacfbb8cd9debd9adeaafbf8cb
col51:   b96995c9d67a9aab7adcbf99db9a98faaea9b9fdbbb4c9a6dabceaf9bc76aada89cca9a99bbbaa96
ROC:	 BPix_BpO_SEC6_LYR4_LDR21F_MOD1_ROC12
col00:   658518634268736545a57646537848765b779696686598747888a6875795ba686779748568996456
col01:   646686a655576876656b88a8587687786a78989777a66458647677479b6a86a5464888a769568669
col02:   658545496372aa92c56949786476877b478368c89857697879997a74848a9c766887578756698347
col03:   6368a6769486656776c7a966746577a56465797892759aa67ac676667779b6a7967599a744696446
col04:   7765435457768a9846668956a77984879b4778c6a8aab2967986778744a795b5565667a787969576
col05:   43657998366597977956469758676a9c78879a779594875a96ab8756769975997999b458a7789462
col06:   a75188276315769a63878b78a59446a899a6869767e7ac749688475b8a4665aaa748a95797699879
col07:   6967366785759555a57788739766a88989595389695b8b7886579786839a85879a8a958696996a87
col08:   6438495898679696aa56575697868b59a97767a98977b88886796597988775668459588687298b58
col09:   67686a8456969966988668c6b8968b83aa8a6799a7a688969c6c69667aa95a68b89578a668688956
col10:   63398556676655696977aa78884869b76395986968aa863828a8a877968567878938355977975678
col11:   2876566458764767a88768995979898665556a99c2778c5a968856894866a9648998789a96574676
col12:   5573769668586b677b47663a64579a9d7aa8489769a8668a85b77a7a6a877a98788a896475a88665
col13:   528775a689736386866a575698a8969aa88978a8796b745867779757897598a35786a4997b559546
col14:   55669542456485b6967587786987b899748969aaa95948867a8d653987569c69c6a8876867a46869
col15:   577568578298928688568996a74678a9a8887858796b9b76d8aa8a989787866b6498897932879a87
col16:   8456977562864767b8858888a8697889b9b89795766ac777677997798868756885958697a748867a
col17:   6835a45452768a4735757776757889826597bab698c56777766778755766a565585b6665876965a7
col18:   75474264852477545569864796757a8775799897a7493b85887856687666764658865587895587b7
col19:   7546758294466867555688695a99a867597988a89787869959846877a776a879757397968775736a
col20:   4177853493346577897378a8956663888799caa86c89a786694a678877686985736948a664664486
col21:   543666747686676889875599468a46c7578697778a85a96a57966465697993658584587a8ab687a8
col22:   3623467654556756853985798b7897b98875a8a8cc9a959887767969367767a87568486793954557
col23:   33562576756667644687875896787859789647688775b7769776a9665857858847888566799b8768
col24:   6278774247765576788a6497958589a6a7a7676b677389749688c6b65a3587975697558796754657
col25:   44663a7652978669575464796295ad69a7b989787888747a49889a89869b7b49696989979a453a84
col26:   87658a66556867776885558a977a68b5979bb8aca68bd6a9b97a8abab7695cdbaa9ad7a778a6a896
col27:   23d686a89b745989b768a798a88aa7989abb88ab6c7b89958989ba879b7baadcb7a49ca99a846888
col28:   897783a768667aa6666aa68a6298a8b8989dd99ba79b56a8a689987879bb998ac96b8a96878a8866
col29:   949486958a78688a69a3c8a676688a857b7ba898a888cbb89897c67b96a97a67aba7879548998796
col30:   653555697ba7988758a87a2b9aa985bc796c87a97896a7b7b6a5399857a899bc7a88b988769649a6
col31:   7872588684a59d58746a9aa8887abb99aaccc99acb88a799957cbcb8bc6a9aabc68d9788bda97673
col32:   878a9658767aac96b8e988a96679ab9749888cabb9c8bd99987899b876c8bda798ba869598767a37
col33:   6a5858587558a9c3ad6c8a898b9779779ab776bcb9baa789678abc97985da9aaaab69baa79c66865
col34:   48476899568b7699b6e5356b97899b999b86a88abb899d9ab9988db7999a86b99baa777778879a97
col35:   5668867aa996959789b6a96a796a7aca9d97a7a9b88aa998ab8ba887c898c6bb6aa69ba79b8a9889
col36:   a76968697888869995a6aabba9ad886b9b8bc5999a9bab99da98c859aa84a8a46369ac777a497866
col37:   88759a89a885a99986a8674baab99599898a9b9ca9a668caa9a985a4aaa78ba8ba989c97699a7aa6
col38:   777969795765988a74da89aacba78aaccaaaad7c988ac99ac8997ab88bbca797b888a8897ab9d788
col39:   6837685c67a567abb57866a8ab677a8a5aca7ab99ba979d7dac6c98887b958b977bb6aa86cacab97
col40:   6747d95675b966a877998b9b9a69a8aeb7b6baac9998767abb9a7a67b99d78aa9888b8ba99599572
col41:   978657aa877998b8bb983c6dab9ababc9adbaacb8b99b8988a9d999978a9c88aa98a599aa8cbb8a6
col42:   635576896c9a898795997886a99aa87889a9a96abbbb8cbc95ad8b7a6c84aacb879cb8c8bc88b997
col43:   9648475a8a76ac9a6c9a867bda89899bb785979baeaab66a9dd88bb988aa669798b9a9c8a96bfb79
col44:   a6a67aa689579a78a898a7abdb8baab8aaa89a8bbab88696b8ccab78a98abc7aa9aad88c6c89aa98
col45:   9a7772488a87b99aa9a5bb7db99aaa78eabb88baba88e7aeba8b6a979c998999b97a9a6aad79ab99
col46:   539355aab96795895a857896a966b9dca7899677d8ca9ca578b8b86dc7a6889c6998a778a98a9ad8
col47:   837a8797789a9bb785857ca897ad8baab57a76abb87a89b77a8bcb9a8abb78a9d87b8a9897816aa8
col48:   77475666978baa87ba7766c9999ac9957ab9b688789bab6c97d9ac7c959ca88882a8698c86b89b78
col49:   7553a7b78a89858bec99b8a998ab8b87a7b8b79799aaccccc8b799abab9877b8cab797a4aa79aa88
col50:   755785779a79679896a89ad6d9bb6889ccc598ab8a8a886bed99ad95acb7ababab9aa74bc7aac988
col51:   5344796a999666686976687977636a7986d998b987976896776bc989876a8bb88a7a697986867586
ROC:	 BPix_BpO_SEC6_LYR4_LDR21F_MOD1_ROC13
col00:   694777357b998a8e7578b8a78aba5a86d99aadc93ab9883d9abb8ab9898d597c879dbaa67633bb9e
col01:   77ceaaa5bcca5e9868bbcab9ce8a9cdafcb7bdbeadb95badb87b8cbcb6fa3acb87aab8a796aab75a
col02:   779957ab9bd9996758968b98cba67baac63ab988a6dcf97eddc6cc775fa5be9a98ab97778a748a88
col03:   f9a56768bd6ba9bdf9a99fbac995dbbabfabccacbdbd8eba6ccecfbfddc788accd7d6c599a7a78ba
col04:   76aba5795c99a9777abab737a9aae86a8bbdbcdcc9fa8a9ea9baba9dc7eb7cab97734c9b7a8795b4
col05:   6d86879a8b9968a9ae988b57aac97dcabc6abebaabac8d9e99cced9ec6899d5b7699b576ea8744a4
col06:   996c9574a7ea89ab987c9c89aaa99acc9caabbb79a899adeaa75cbcd688abeb6ba9a7baabac79975
col07:   6c98746a5da799bcaead7ac9aa799bd9d9c4cc8ccb89c9dabd7a86c86acb8babf69d679bbe6ba673
col08:   a39895a44ca999d8ca89997accc999a7c9bbc7c78f8bbca779ca9bcaaae7bbe97c9979e697887526
col09:   96788887a9a8caada5eac9c7ca99d7eea6cd9adb9fbc9b876ddbc9babecebc988bdde968a7997786
col10:   6ac987aabab56a9681b6dab8ab9b9bcd89e7baafa8c8b7ce8c6d999bdebb9989a59889d578578a93
col11:   595646877a778b5a9ca6dac9a9e999a85b99ce6a87ceb9cddcdabe6d9cdca9eaba6fa99b5cc78b65
col12:   775a989664a9898c6bb498a9d8884f7aa99d8a9ccbeb77699bc9a978a6ab78b97b89cc9497777b47
col13:   d96488d3d8898969eab5a98ab9b97bca8c8fa8a6bbcb8db8cd3696d799daa7978ba7c9b999956789
col14:   963aa769aa946a6bc579db998bbb87ab9c8aa7c9aeadce798bdb689ab7fcab79ab59934885b88b78
col15:   d89578a799abba9cbbebaee679dc5cc6cbaca9dbb9adab5aec88baf5b669b8c9a9abeaab7889ab9c
col16:   6a5aad7bd6a779bc78b89ab8cabdad8aadfc7796ca695b9aabeccbbbc8868b8dab5be7a897b759d8
col17:   948a698a88aac9968966bdcbb4ca99babcb6e9789d9a8c9ecbf884f9ca8ce998857bbb4a96669a54
col18:   778858685654aa9a376699ca96dad9b8a4b97b8fcbb4ab7cab799b9b57d78c6d66e5967b7a4b78a4
col19:   56a75c56567c4fc8aa4b7ab896d8bb6b6fab9d9bbcdca9daa787dcbbbec8cb88bdc78ad868ab9d75
col20:   5988687577a97a97a655757558278bad99b98979999baa7bd6ad9793daca999ac58dbb88686ba681
col21:   35a78b699da9aa6aa688a8d67789aacad56daa9eb6969c8cc89aee6f8aedba98769b99c998888b9a
col22:   677387a759897a997aa98da787c8ada8aafde7bc946aadaac88eacaa8877acc79ab83567ba996554
col23:   a7697978799d787ab978bb9b5db7845879799ca8da6b97b889b8aabcd99879a8abcb9d989b689c98
col24:   24668a66687686787585a96aa8c6a98999db79c3c87cbae58689ebb8b9ce84aa871b873687cd8574
col25:   ab72487a55526b67b8c78997874ce9acc7cc8a9dad9cb9a8869c488c4769cb8bbebbaa999986caa8
col26:   e67a5389a857987b78bb6ecc9274a9a55dbcb7c99abd8e8c58bcea9acd5c7acabab6dca96aa9768a
col27:   8299d9a86685a9aa775c7abc7b8bc6d7dceaafbc899b89f5b88aabe6abdfccc795cc9ae966bea6b8
col28:   5695a7787a7957898ba6eafcb6dcc8997c9fb8bbca9af9989fabebea99bbab988b8bb6c9c9da67c6
col29:   9368949a95ada79ca89cd99b6b98d99cfddfbdaa5fadbccafa8df8abd6fca7dcc8bdeacad8f749da
col30:   6759a58c7a568b8aa945abfc9b8acc797dddbddc8c8aaadbe47b7d8b9889ba8db8f79d9bbb87c79d
col31:   7388bc6badc9dabe98badd589babd868dcfb7dacdbff8bdd9ecbd7accd8ad78cac9ddbdac8fd98aa
col32:   97aa877d7a99a9db8c77caeedafc88dcab9b9bf9ccbcfaeccb9ae999ec7bafbbccc89c8bb6b88e6a
col33:   a9bb896b45798c988bb7aebbad8bcbfaa8cadbec7ebfbdb7a7da9ae9bcdfeca7e8cdba7b9dc3a97a
col34:   7a8868a7c8a7ce8bdbad98dfcf57baa9eacbbcdbbda8ddcbc8c7b7c989b6cc6d8867b9849b798595
col35:   978894d779a8c98bc8bfd9f9da999fcdec7a89bbe9bcfdbaaba9bf9bcedc98fcb8baab9d8abfe54a
col36:   589a87d8694ab9c7e75ddaadeaa57bbcc9bb9fafefeacabba899bcfb97bbb7b67a6bbb8c98d8ba8d
col37:   588d97b7a9eaa7d7ddba986bfa8cbccacdddabdbdeefb9bfbbbdfab9fffcb8aadc9f5c9d9acc99bb
col38:   59b79c27cc65bd98a8dabfdbbebb877cfdbdcbcce8eabab9babd8fbaafacbc9bbfbfb7c7babe39b9
col39:   766a9ba98ac9887dcc87c8ec9abaffbdd8cafadcbdedcbf9decddecbbdc8eaaedcccb8fcab99cbc8
col40:   8c9597d66d7a966bbb5adbaca8bbbbaec4bc8fdcdadddeca79a7ccb9b8db8dc9dbbe9bc8dbae96af
col41:   789a879a5b9938bdabbb8c9abba99abbafcac6d9ecff9d8dcdeeb9fbb89dfea9abfcfdefeccbebd7
col42:   72699939aa99c9a897bb9c9bcdadbcc6adbe7bdbccbcbcbad7fedccfbcca9bbdeababad6abaa8cb8
col43:   994b8aabc9cb6cf6a8a78a6aeccebab97fe8be9fdbccefad8dcdebeccf9c6bd8d99a7eeabcbfc8a4
col44:   ba2978c6ebb98add8e6a4b8aaba8adf6eef7cfacebbf7bfdeadcbbcace7eb8cbd9cfaccbeabfbcbb
col45:   68948ba989a9cb9a89cece996999f6dadcbebe99aedecb6ec8defcbed8bcacfecc86beaa9dcb879a
col46:   8987b3d567ee8587a89abcbacaf8ebbad9f6b8ddd99f97b9ebdddfffcbd9dedbd7debce7ac8a7c59
col47:   8b6985e879cc88ba79b76c987cece8b7fcc9c975f9ebccaabfb9cdbf9dc5acacafadefbcc9e9cae7
col48:   a6879b6dcb7a99cca8ab7cbaccc7c5897a8ea7ba6fcddcb86d9adcabbbeedb7d8def7cfdc947b9b7
col49:   97484899b7999979989abbb8ecf7afbdfcdfa8dda8d89fd989deebbaeddcd8deafaddbaabdac9ac2
col50:   4c87966b59a987b8bb97c966d9c99acdffddb8bd8cecacddaddab78bb9d9cddb8fa8bfedc66cb956
col51:   622c611686c6a69b897b78d9ad94c5b7c3688cb889d9799eba98a7b499e898eab977f68daa74e87a
ROC:	 BPix_BpO_SEC6_LYR4_LDR21F_MOD1_ROC14
col00:   431774554775346a69566664755643899688459479997885959a7c9a88766a57599c556a77d98783
col01:   537666995854a587489599b899749aa99b8ba7a97899c9a7ac9a96ac79936b98cc8869996a898995
col02:   86477858a966997a6867a9c7695676aa9d867c9a9986ba997769789ab87b89688aa968c698b688a9
col03:   625a68697875888a8968a4a8b9788a76a8a9786769a86b7cc7babaaabab99c9b696bacaac48659d8
col04:   47665a8679586997a9c98a7577968499a68a696a8bb849c6aa59aa89a8a68896779bb8889a66cab9
col05:   6a6398aa6479764964b87869aaa49847c8bca69b9777ca7987bab89a89a89b799b5aa676a88a789b
col06:   65666a678866a66965846689c7aab8b6cb97c88a98b9c98999b88889b76aa99597c9ba899cdb6aca
col07:   536857c65ac67ac897d979ab6738aaaaa6bba9ca7aa7c8a7c9b88c99a9b7c9ab99a9879ba6b78768
col08:   5191b856a76cb76558a4b7ca69b657d7599979a99ba9ac88b9b9a978ba9a9aa9a9e798578c7a7da7
col09:   4a7964b6a8948958a99a5a8893be87a99bb6969aa9a4a7aa798db899b6b79a9887e899a79858bbbb
col10:   b5767688995867a678a97c69bc9569dab9b7688c9c9aba5767a959bab488a9b776a998a978b4b7a8
col11:   6793649a958478858676caa798cc87ab689a968d6a86e9bab877b9abc9997bc59acac9abc8d778db
col12:   2677787a559a87969688548689b76ab8b59996aab98d9bc9986b89aaaa9da9ab977a99fa7969a78a
col13:   a21375b8a848bb97987ba8cb98a59d8a9cabcbaa9c879c69ab7cabc9a8b98c87ca9a9bbd79668d59
col14:   666699598557668a88988a5a96898cbaaa759c65a9bd8ba8cbbcc8ab667aebc6ca9877c7c9859869
col15:   88589a98669b8a888ca98f689a8ab7a8789b9b9a95a6a99ab9a8ddda887c97a5996da69877acb598
col16:   b6a763874897a7965a9a99998b8a9aa7c97c86a978bc897a8ba798c978b6d87cb7b5977ab9baccc9
col17:   45787bd8677cba7896b96389a89c88aaa86c8bda9ba9799b9bcc9aac7ea7bc89caaab7bb8a4a88a9
col18:   4569999998aa9b889a89cd3896b879aba9879899a689ca9ca9a9a9a99899ba98ba8ad9d88db98ca9
col19:   7a6882598b6b869a6977b98877cbdb7a8bb8bbddab639c68bcaaa9897aa7bbbcdcaf98a98a66ba69
col20:   279796976a9bc778a995c78d9a865a9b7daa9b9be99a8a7c5c7be99c9bc9ba8b9aba9db88ba89679
col21:   8d5799a7949b9866a6ae6ab785a899758c8b9d8b8888aca8b87ac999bdb9b9ba99c79baa8ac9a6aa
col22:   22885677898b99837997989977abbda696ab9875db99aadb8baa797aae8bb98da6a8cb89758a798d
col23:   8655b86b7c887699a979b8bbb89a9a98eadcab9a98abaa69aabbc8acd8a969b8a9caaad9c9c7db99
col24:   b67a897a65c799aca5b9b698caaf8cc57bba9cbdaa8ab88aba6ae5ad69c98bb7aaa9a9989988cb8d
col25:   7397996c98b9a9788da97d76b7a879bc76a6ba99cc99ac98daabbac8bca98c999a9b8a87cdaa9da8
col26:   89997997c8a8d7c89897fd9cba99a9bcaac9aabbadcdd99cda7badebcdc9ca6a9ccadbcabaaaaadc
col27:   868a69b9666abb99c9b997c9b987cacaaeab89b8cddcbbac9a8c9b9ccbac7e9a8c8abdabaa9b78a7
col28:   ba987d8aa9af998689a9babcceaaba8fa9acfbbed98cecbaab9d9cbbc9acdfdaecbccf99adacb9ba
col29:   b56a7a98a9cbbb8adcd9aba9b98deabbbdeddddccacbacbcacdba7cd8addaebb9c9baab7e8bab8ac
col30:   77a86776ce8cb88b9b8ba9ac9b9b79ccc9accdc89adcbbbccfddcaadcc8ccbbabcabcde9abcbbcab
col31:   87ad9a9c9897bc8cc8c9db9ccaaacbeadfbbbecedde89bc9ddcedac8adb8cab9ecb9bbbbb9bdbbb9
col32:   bcb9cdb6d89c8cadead6fbbaccbbcabeedbccaeacdeccdadddec9aaabdfddebed9cdbaabceebfbdc
col33:   bac8f9a77cdc789aabaab8bcdbdac8babf96cbbcbacbdaaa9afdaadadb9cdaabf7ddbaabcc979aec
col34:   88a888ba6ab8c9dcbcbaabb9cbcfac9bbccdbcaebbebdcaaccca9abc8ebcbddcabdbcfecdecbddbc
col35:   d6aae88acaafbcbb9ae8baddeaaedccabbdeb8cdab99bafbccbcdabab9bcf8abd9babbbbceacedc9
col36:   aaab9a5b88be9bac9fcddbbcbbfcec799bacfb9bbcfa9eccdecfbbeddddc9b88bcfac8ccc8db9bcc
col37:   b8b99a9aa8acbccdcdbbdfbdfcecccbeafccafaaecdfabd98adcdccd8c6ccfa8dbcc9daabbaba8bb
col38:   6978c99aba95bbbdcabbcebbfbdbdfbddacbedaabfbacedcecbdccbcaddbdccda8c9ceabffcd969a
col39:   996c7bbfc7ebbbbcac8fa9c9bdfdc8cdbbd9a9bd8edbccfdc8ddddcbdcfbcb799dafbffdbbdeabdb
col40:   9ccabdcd778ce8abcb8abd88bbdeafacddebdedf9ccbdddc9a8cb9dcbcaddafbcfdeafeccefc9eab
col41:   98a9b99d8cdbcd9cbd6dbcbfbbbefcfdbeb9be9bcfc9cafbbcdaecfdd9eeceaffadeeadbcccfd9cc
col42:   aab9d88bba9dcaedcacacbcbe8abacbccbbcccbeafefadddcbabc8beeddfdcffdeccccdbfebccddc
col43:   bdbb99ecab8aedcddb8becdaadfdebcafadceddfd6dadefafebf9cfadbcebdcbdcdcabecfcecddfe
col44:   abdbe9eccabcdb7abfaacaacbcbbecaffabcbefdcdef9effcdcfefb9dcceeedcdebcad89b9bbbded
col45:   8abbc9dbc89eaedd88bbac6e8bbbec8afceccedcbabeaccfbdd7dde9bbccfeddbbcfbbabacedbcdf
col46:   7aa9dba8dadbfacbbeca799feab6aacacbfbeaf9dcebbedfefc9fcaecfccd87df9dcbceebdf9fcea
col47:   aaa7f9bdccaaba9aecebbaccedbbfcfcbddddbfaeddbcddffebecddafcadebdeeeaeddcfffddebce
col48:   caadb8d9eaabbd7ad8debdd99dfeb9cebe9ccbccabcbbddeacfafdef9dcabeccb9dfafafacffdc89
col49:   c8aaeabca9aeacdbacfdcda9dfdccbcdcabbcccfcdefefedfdefddefcaccfafcccf8bedabefdfcdf
col50:   d9a9b97ddddbbbba8becea9fcddbfabaaafefcebbfa9eddf9baccfbfd9cbdceab9efbccabaefcddc
col51:   7c79988bf5b989bdb9ebbcea7bb78bbeecbabfabaa9abbbbfdc8bcddbcbcecbbac9b9e9aaacc9eb8
ROC:	 BPix_BpO_SEC6_LYR4_LDR21F_MOD1_ROC15
col00:   32656364a86363667446773939c586984a9955968886657b8a8a7b7591895b576a7948c7a68586b6
col01:   887973e8696879ac9e8c966865ac4da89c69b8c58e9ebebb6ca797de89d986b98da99969ab96ab97
col02:   5683847a7561b8435777787a495658b97b7c7765779b89a5a8897a8885b6db94db847cb79ba5db46
col03:   55493a597885829668577aa98b97b5a987b89ba9aaa6c875bc99769d7e6c7a989759b999a69a79ac
col04:   435664448438674751aca5b86799879a6919a826baaab68a99bdb864a79a989a678a88b6858cb876
col05:   37648567677556aa8729aa6c6c747a78bb9729a6f9b97aa887ab797999988ba8b9b9c9a7a5b1c6b7
col06:   828c6755a7a454789a88857aa66c7b98d779ab77b687b9d88ebaacee9b784abc6a7aaa68cb896866
col07:   866915878a55ea175abd459889787d6d968ae7bacb7c88886789aa77cdadb9dca998caa4aa97aab8
col08:   584476632b96547a7649c8ac83657b6b6a9c6aa658dbb57c7da85c8688d977bc5a87968976588b65
col09:   6945665a68c956a696977a67565ecbab8aa59db9a8cc9978a98be985abaa7ea85db86b69bbab8977
col10:   7239645716a179831369b7c884aaa9389598ba6ac9a8daaccca7988d7b999b577d99f9848daca747
col11:   7628446798287945558b696a6baa8984c67a78a58d8cbc5a68b667abacd57cad7a7b78b89798aac7
col12:   73a776b659846867278997c6665a7a7aab86b98b66ac978b57baa8ab7ab59ba679a66975ba77a967
col13:   117866466a559689acab888757bcba6bd9798fabad9b44becdabce399896dec78aa768999ca9cc78
col14:   271545786546a94596a86637a9a8867b86b95e859eb698dcabb66ad9b99a59be9766cc716e7a19c8
col15:   77175b88769b36579798b9aa6bc7767b9b75e7ab9c79afb8bbfb5a95c9888998d88986a99aabb878
col16:   6576a89847587aab51948795377aacb85da8d4e63a7ba9c98a689686a9bcbc6b679adbb69c6683bb
col17:   76667443ca58495598b79b67dbca7b98398aa58999bc77bcb9a6aa85899789b7647844c5399598a8
col18:   576264855616c7817a4a8667ba78a7b4b967aecb2a66a9796ccbcab9ac89bba9796b57a59c88a577
col19:   3468869a698adaf7496776877c78ab7ce88d689ba9aea867b87bdc6ab4abd7b366fa94866a88ab45
col20:   6463583698765552367869a457a7a69aa6767cc9c9a75988b9a6899abb8998c678768867746729a8
col21:   28445a37a9a655a7d87796c8a98ca987f7adc9b78fa985ddb88bad9ac9a5baa69495a7d9aacb8a84
col22:   a44876627a59869baaa9bb7297769aa695899889998988a7b796baa6c773668a9b5a5775aa8868b7
col23:   615669a6853379d7b3398786a84654988dab8aa5999968a8498798a869bbc8917a8594cdaa9c9bc8
col24:   739778665aad979a64c9696a5574ab79ab589c69aaacbba4daca6aca78a887cc77677be5c68aba8c
col25:   67d53a98be485e4789856a939875e4bac99cce77a58c6a998de6b98b79a86134a6c979789c989a84
col26:   a7a86ca98556b5dd99697b3ab99797699dcb6bc5d7accaa8ad7b9b5ba69bbba5b99939ab9cb87b9a
col27:   7827b8878bbc8899699bc8aabc9dbaba9d9adbc9afcbdcbebb968bb88b9bdeab75b5baa75e89a88a
col28:   48b3b689beba8853dccc789adc89d9acd9a5aeecaacc9ac7cdc9ab8ca9777aeb8ed9aa9bb8cab997
col29:   463b889c9c8b97baa797bd8d78ade9d8caa9aedefaadcbbcbac7bbbc88c7f789e9fbd8eaca69baea
col30:   7a7ab6a768cc855b6a9c8c7888aaddbdca9aabab8bbbacbdcb9b86cb7c68b9ae83a487987a4ba967
col31:   68aab5cd76978e897af97c99b97dc8bbdcbcf8eac9fdc8c5bccac89afdd6aaccbb989dabb3aaacff
col32:   8879f88c9c948ac97bcbaa9998ffdfd8eeb89dfbecd9b9bba9ca8ada6cc9c9b88a649c9b587ba984
col33:   9647aca9a7ddbbb95c7c98dfcabeaadaf7ccafcbdbda7cbcabb6dcede9ea8b8bb8a853ecccbbb8de
col34:   79b498697a4dbaabcc487bebd9ab7bbac9bcaafdabcbbcda96c9999dfabbb7bedb5b5a698e9a9a93
col35:   b99b74c799eace53c7efdaa9c8adacd7dcc9ffbc8d8c9caeb7aaa9b8cacbf9bb6996d9eaa98cacd9
col36:   77bb7ccd667a4d67aad7acbda8b77aafd6aedd9dbc7dbd8b689ad8fcbbac6eeaaeb979b79baddb96
col37:   b96c8be5946b97aaca8b9b8ccad8d6ccca99abb889cd7f9aa9acbba8e87d9aa9ccd6d7dfa8ea9998
col38:   bb82cbaa7b96d8a5a9bfdaafbc76ceaabacdafcfadadfedaddec989dcf8ca8c895aab666e8a5bb91
col39:   49c7baa9bebe8bb7899776a8bf97d8abc8fcbcddbafe6bbadda6fbba7aab999cfbcacaaba8899ca9
col40:   a5646bda3899aaaba7aadbbb9f9dbcbbceeee7bdbdc5c9cd8e6abaadbcd8e9aadbc9ed98cb7588c7
col41:   797e976be9ebbbb9b8ceaaddaeacbbabb8f7fcacbaa9aedd8cdbfaaacb99cd9ca7cdcd93869ca8ab
col42:   356ba8ae79a789da9d29a88cb99add9a8bbcd9ac68799b8add8cdbdc8c7bdf9f577bcb7bf8aabd89
col43:   bbbc6b6ddecb7a8b9c9bfc8ce6abacdefde7da9e5ba8ebdcbbd8dec89b8e9eb6a7f78febbab7ccf8
col44:   5678889669d7ca88ccd93b8b87d9cac889dbb9d9998cb7edeabdacb9c8eb9599cada8dbb57cf8ad9
col45:   feb8a8b88cc8ad48d97c9dc9b8bcbbdbdebab6ac9baeb7e8d9efb9dd9ddacbbc9cefedeca817ad86
col46:   a898b8b5bcb67d9589e9bb8edaadccab9cafbe6acababccbc7a9cfd9dbecab73bc9faaccb697a5aa
col47:   787c6dca87a9ba8bdef4c7c9afd8999cdfffcdcdcdba8fdfcabae6a9dc79dbdba6aaf7bbcc8b5689
col48:   8e81578947a9bc8aedaaa8cd6ca9aacd9bb878cc8ffeadf75aeb9dfbccb8ccb9fc9c8aa47b8cfa88
col49:   4cda479a6db5cccec898ecac8a5dcfdb8eba79f9eaeaaa88c9acadccfcb9a99add9cdacabc9cea7d
col50:   47a7dc85c8aac82bb69aa98b5ddab8bceefef8e9c9a8dab9ea9eacebd9bcffa9779984bb99ba9a66
col51:   d66a77967a62487ad6b94a9a89d9e88ec9a7acc9a798ada799a4aba9a95655946a76aa5a97c65758
