ROC:     BPix_BpO_SEC3_LYR3_LDR7F_MOD4_ROC0
col00:   63A3844353483557376785477A97653458658655696884A997785954B577658A9687743665863788
col01:   53765565569865638B886769656657787658388A9A9BB7AA7757B6578987777B689977A6977A79A6
col02:   656354436678967486847A9279992564545978848889AA96679959695668789B898999887996A557
col03:   585666625874586475857B6965789889689858796A96877668789997678B7B78798A8887889378C9
col04:   4484354557546386658796675B7A698985A57889A8A77858B9969779478A7BA6677A7BA87778B958
col05:   735587675756755648A67586A69879A97667649568A6678679665799666A9A9B956BA798859987A9
col06:   5149656576685645648977577788B757668669A6A57685888A799977878678A88778686988BB896B
col07:   55945737874564557596A767AA899A769687A6B7A8D56A6B7C98878B9778888B9988978498987985
col08:   69597565535662556676766989858A6499B886A667899887A796965877A8A64598769877889696AA
col09:   446893544754558857276687788453A48686878988A6653879AA7A7A999476999666A988B37B6B79
col10:   76366765655547786665787568B8467766AA97865797736869A9A97966A898988999B87877985948
col11:   514354968768456766586366869A598396A669A76758898625779995A8876488B666B8679A358968
col12:   56554464657864586552678747B896855889A764968978959799968568B6B38C7A57788886789698
col13:   75536646977545A78764556457966B77599A8A9877569786797779AA999989C767668BB96886A889
col14:   7A145458538356696558598688759457988867667B79994B9676BBA868756979689A8985AA8776BA
col15:   878784679785464796A6966756777997889666475A7858977A9756979976A979988B6774885967C6
col16:   335875846867946335A5677564686674887636A6787986986B69968B8866698859A88746A8B69768
col17:   5645664775797888766485686855A89647585889895757877996B9967897769973683889559878A9
col18:   4377644645756755634478366799A7A998798858639898787A9568888769879778B878B977898778
col19:   6496A557689B65965A9578826968665769759957987A9A896BC756887797569689767A996988B798
col20:   2466587696776196768A6766578A856987777487797B8AC89669C6BB76767995A686A59857757887
col21:   536787687573848886986968A454A7AA8A9A774A6485AA6695B7589877798687749A87A4746798A6
col22:   484635779865A6A66A7785B768869797966788A68376A657699989995576A9986769AA986A979475
col23:   7675555377867568666695A65A748869655564756789A78AA86C3B957668B947879675869685B9A7
col24:   957556554A73558786A7478998A386673898A6A687A89576898868999768999891A5863899989A78
col25:   84544758667676B93B764A67799792A96955B99A978687A89B68989A66A589B99B775596C9867887
col26:   495988C94877969BC9AA9C68BA899B7B99967C7799BB5599995A95978BA9D87968A99A69589A8989
col27:   78589468A775789B9798AA8C969AD79B98778BA99556A7897B79796BA6A99A9B988A799CB9BA7AA8
col28:   59698999988589B9779D857979498C7A9A99A7B8889CC798D99BBBA8BA899A89CB887A979557869B
col29:   65994837676BA59799A88987B6B999A959A7BC5AB97C9B97A989B9C978A7799C9977A7A969838796
col30:   4748658D75638B9668799957679A8AA579D9978AAC88A7A99D987768B99A887CA84799A5AB68A996
col31:   6685B99788A89B5AD98AA9A9C8A5B7A59A88B98BC8AAAB89A9CB8ACC97A8C7B79DCBA97BBA89AAAB
col32:   665B6758B8959888776B79A995A9989887B8AAADF77BBBA98E9A9BA6A8CA99A9C98C79A7ABBB7898
col33:   C98567679A589798A779A4A998A9BA98BA6BBAA9A8A67BC8988BB798AA89998B97B8A88A87A89B9B
col34:   64588AA988579AA96A68989B98CB9B8C7A6CA898AD98CBB7B89CCBAB97B8A8888B899CAAABC8BAC7
col35:   87A4987968998C6958B8789A798AA9CBCCB8999BAAA9CAB9AA997CB8B9BABADAAABBB9CBABB98A9A
col36:   6878576A768A7B9678A798B8798BAAB9BABB798AADBB89A9A5DBE87ACA9B8B9C99B98D9889BBA99B
col37:   6959A78AB587668AA3898A68B98B99A8BA9BBA889EB7B79C7D9CBDA7AA9BBBA99AA9CEB9A8889AAA
col38:   66979AC4B887A9A7B8A97A79BBA8A9B7C699AC9AC989AABAD8C9AA9ADA8ABAA9B99D96C8BBCA8CCD
col39:   457695599695768876A7A688A9A9B7998C9AA889A8BA89C9ABAABA9CC7A999C89CB987C98BAC99B8
col40:   9765A97976868968B7A7B778A67AA999A9ABDA9C9CADBBBAABA8AABAACF9DBBDA9999A997CB8FDDB
col41:   976947B9A6967D69BAA67887999BD99B899A7799A99B9B9DAA8AB99BCBAC9ACA9A9DCBDA9A89B8A8
col42:   7865798985486868A8B9AA778968A8AB858B999B9ABCC8B5A89B69B9AC9BB9BCCDA8C9BABBCDABAA
col43:   75A6A88A99B597D5B9BBBA98BB99A8ACAAAAB9A9ACACA9BAACD8CBAFBAD9D9C8B7BAA8DB9BB8AAB9
col44:   9856847C6888A9B6B7789AA987A9A9AAAAEC989BAAAABCAAA9BABA99999999C98699BAACBABB997C
col45:   9786A987A9887768879A67997B6A977A99BCB98BB9A8BD7AABBA88AAAD9B7BCDCB8A98B97CB68AAA
col46:   99B666796757A95D677DCCBBB6BAA89AD9AA8AB998AAA99BCAEA9BB7C7CA9DA8FAADCCCAC9ACB9DA
col47:   A88764688878887698A8B8C7A79AECA9B9B9BBB9AD8A9AAAAC9CC9A9BBD7BACB8CC9BA9CB8AAD8BB
col48:   9776867A7A999A8788BAB9988AEC689BBBADD9A89CBBC8BD7AABCA8B9CBA8BB7B9AAAD889B9CBABB
col49:   8666A95A99A89897AB89A9EB69796A9BACA8AAE9ACE7C9A9ACEC9B9AC98B8AADBE9BBCBCC99CAD79
col50:   78878899A887B6988897BA39CC9A88BAABCB89BAB9C79C9DB9CBBDACAACBCA9ABCBACBB9BACAC9DD
col51:   65476788637A978386A787BAA88769CB76887978AAB8A988BAA87AA9B7A9A86AB8B6CBA9DD5CC8DA
ROC:     BPix_BpO_SEC3_LYR3_LDR7F_MOD4_ROC1
col00:   17213141646842621342755175288752456654515437415937199236756625774137512233175134
col01:   311548935664265774628758475D5437826746799A38979556746936456946628175483325645651
col02:   363544736496415A5455414767357666682644A644A453874A55A6713825822517734625147618A2
col03:   4357575763654564623966656856725689674A47143576566883675654854575666685B337565634
col04:   45164474667427666136567667678646493777534955554476588868438846757665559644845464
col05:   454163185365338847636387555486449676555345668957256656476646283364B3576542867445
col06:   53825662441564564254869348577649374696134254345236857432617664557223534266616944
col07:   73556567966585755543749254694387757815876374967743964557726685767715735347513671
col08:   42774558656344556167653755566784756673435527A487B68755A17838984687477A3544634786
col09:   344589318423424696687587851857738557946459468388559A7968775552589648543945165243
col10:   42525485446644675677378977157776774666747735515673544768474476274195764226755436
col11:   46864A448566778197B1546844676568664547685A86266646766356565876747955664388644364
col12:   8455866637435426B76487456777B646798745783966547445661524546A36635438563763534761
col13:   42738447146572477542787895965757656765268528787966684635697478755795673665775843
col14:   644344563513678A66828866768261476764B9876A8666878487A6879178455856763251128577A5
col15:   4744866162463198665557695B77486567B6747877855787A66147A686674663A583615468536254
col16:   616258735866486273377597633634A66685975A7646547474559538966643783797144665468373
col17:   41847314737562355775263866248772668656395154858B63A68653862193663252598232769761
col18:   574342555546728563445755551778624467A4578354533446A68455596888527554547836348535
col19:   68857533842815936436697686747657557773796556767786756855688493855246838396464583
col20:   3373225696665363623758A9949576366876177B8654488777737639745385984897889747679526
col21:   A691766155547566626543754944664567784579863386958A9664AA485627754972643662671774
col22:   13544541366234488577848966313428777756657437797456945865779592243663495539765576
col23:   761639433A5596264687736535736777B89886536646536578348767555457849556462365725863
col24:   847957424986379515473557956945675554575617D7467A7146534977A356388965581657373564
col25:   53147587572676584454778647B6698975979766A887995887859876B896766467473377844A9654
col26:   1789A36758A8657582598877569989663A5A7796986A675589A964988989B7B7666296598CA94866
col27:   84519655736984B635A6A7835747565A9566658994997568677A7856951958571863689789796654
col28:   677585347173A88649654796566B1556B9CAC598A87798867A879685698B7975BA7866444A786639
col29:   45465597648959B687A98969777965CA67A776A986A887ACB84982789B5879818785857897687756
col30:   853452576989859667956789756759A78A9558976C476AB9C977C5567937989587A8A8948A965796
col31:   97856545A5C8879877587765A87767A6A96898996A98887757854594786775668582658A87655886
col32:   68A8C556A779B77548784589979996A788295666A9AA885D97A77A47A7B9A8957987469887566B97
col33:   7996A797766887159B7AA6A6757A89989B56763799A8948A979487E557A89548B494A8B85B56C769
col34:   686B9B78A77677A7778A97669A9B88598886899B758A9866688BA789AAB8A59585758899868BB764
col35:   464967866A895987A479669788B79A9788B889857CB668766A949774AACBA68868776966979787A7
col36:   696A9858C6996558857A7A78AA4887971EB956968878868B87C995755A8459A78587877798869676
col37:   88978668A987B98A9686C87CA789B7C9B8B88866D9888669A866887888859D68B6A677B88A87765A
col38:   669AB4C958989AA986787A866B77AA67797BB8B9B79BAB5BB779E77877BB97A79A667D859989B796
col39:   A9288987545679CA69A878B779B47997A5A877987678875B8C8669A66B37B6B3C97779A757974A82
col40:   7535969AA7567A66AB29999AA7DA977887BAA68AAA789B88788AAA98669979889CB6C698AA978874
col41:   6858867B69767886A489B7A9759A85539787678A897787995ABC19697B8877998974877888B89A7A
col42:   787697477CA985689468A8A98A997A7899C69A96EA86A7965AD978A8B7B88A88977AB767798A87A7
col43:   B3878968A8BB8787A93B9786ABBA9899998BACA8BABC7899B8BD6A97AA98A8C9A673A8598BA87999
col44:   76A777995968A8789A86876957588D949896978A96D8A7AC3A984A56BAA77765C8A577A977778A88
col45:   7788589356578A4A9AA9D5B6A6AA94BA79588DD98775998668CAB748A8BB755735A95B7A6899BA87
col46:   6764CA5996A6678B8CA5D969A59AB78BAA85954487497A665848C87A8887CB5B9688A4976499A576
col47:   A41798B779968AC8689979B878968A9B8AD977AAA99B8878A698748AA678796947B7A4B697857795
col48:   855979A7758488885889C8A8B989B88AA98B987676776B9B879986875A7A7CB963898499ACB47994
col49:   5188B8B9A57698AAC5A6C99A99A988BBA8A89BDBB9AAD8B58977CD77A7A769A867CB9C9969A58AA3
col50:   9776698967C967879A66A87876AA979A969A8A9897B9C9A53EA669498786A8878A9B788AA7A763BA
col51:   9576857867266858625488676655878687778A9779789346479898745858896A7888763A66A782A5
ROC:     BPix_BpO_SEC3_LYR3_LDR7F_MOD4_ROC2
col00:   3784738754755817384DB5BA71A5475678771176446653597A338686663662335235725565145433
col01:   638897A988976BB4586AA96955954BA87B3C8B6E9A79D8186B7A96A565888478B8558848C14A1488
col02:   69AA8B257558895B86965C968BA86AB426A5884975B76B478687225B855577547658634875283459
col03:   895AA7C49A7C6689B589A8998B49978A4D7DA9C889AB8648AAB3B7737368656C7746659635385685
col04:   75B59886A6BDA8A4857686928A8B8B77666AA8C867B88B5579A96666B5558899759723795367AA73
col05:   569EC58A8395A57498AB77C87B67A8878B887B5699BB69AD63A5B95A98838C6763BBA6B425899456
col06:   97394D74499669B681574D49B7AA59876A786A8D75C79487D48877385C99AAB4B6B8A8996A777867
col07:   A7A79477689A9A9C898CB7ABAB7A7A789BBBCF9CA79DA88A59AA8C85B969C5CBC98669469A9D67A5
col08:   4BBB3953A866987A7A86B98878888BAA899848866D8A9997AA887A978895BA478A776767C8B66659
col09:   DA899977A697857CAA59EA47766B9BA89987AB89477B8BAA5AB8AA71A7B79A98A87BA86ABC96599A
col10:   597A5998A885A49A89599A9BCB9767BE88887B9E4999866B896AB597C9A966B757A8A9C92663979A
col11:   72979BB8669987AA8969B4786799CBABC8989ABB5A86999C659C186689AA66797A9C1489BB78956E
col12:   A8578BB78B5984A76AAAF88A97AB5B6AC79787BBAA892996B998AA8684E669A498DC6843B58C989B
col13:   92839BA6966ABA7866A8AC94DCAC8AFD467659A8A996CCBB987A888BF8BB858B98F7C89CBAA7C788
col14:   7974B9777A57787676A9989AA6AB89BB6CAD9977A97B97858598788A78AA497789DA998859BBBA68
col15:   858969488686AA9858A289599987A9784C8A99978987A9BA86A5B4858C6B6BBD98B85C99A8879794
col16:   455A799DA75B78A7AB8BA996D89DA8B87B7BCCC899C5A7A977B75AB89A8D8B9AA9B46A8B9C4A5DA7
col17:   675A68999897B54B768789BBAB7AA84ABA9579BBA9A9A8ADB695B96898E9AAA89BB88C362AE76C67
col18:   767965C8727876667279C9779A73A8AA6A8A78F87686A88C389BBAB45A9AB6B36795D7A86AA86576
col19:   86C7767B986B9C6ABA87BAC9CD978C6CA899B79CA8BC9AA96BCCE7B4BA69B8AB676C99CAA998A7BC
col20:   777456637B3B57A76977CBBD5976AEBB87CB89D79B676C778A8677ECAEBD87BB86B96B96BBC79878
col21:   7772AA88D57A9C878698965BBCBB996B89A7C99BA899CB8AA8BC6D6979BAAC46868469699B775B79
col22:   73694779543588A72BB8A669999B8DA6888BDA99ABC9977A99B5A997B3AA99AB67C8A88AB77A7857
col23:   B7345A5489847CA44BD98A8969BA8789BAA9947A974797BB89AB7667698A4A95BB9A9277877797B6
col24:   4666676A15534989B6A9A798AA6648BB699EB9B46C98899F696C695594E5A9A865769AA9866999AB
col25:   97655988CACD8D8A7CB69DBD896B69FB5799B7ABE7C7A8789A5A9765C69E7B9BBA87A7A58945CC87
col26:   AC6857A9AB7768B9589978BA7A99888A94CAEBAAC9BAB97BDB79B67EAD9ACBADCAC6BC8ECBDCDABB
col27:   A888C6AD5CB88E8B4A7BCA884BEAC6C7BCABBC9BA9CA89ACC8B7ACB65ACEDA6A7B8C6CA8879897BA
col28:   B468A9B89877A776AB5A88A8AFC79B88BAAD7A89DC89B8A8989BDA8DB89AA9C7768CA6C8979999C8
col29:   897D8ACA9549799ABCCCAAD9EF7AA999CDC9B4E9BDAACD9598985A8ABCBEBFA7C697B9CC8B86A7A8
col30:   84266868C69B7BDD7D68B887899ABDCCA598BDDA77CBBA7DF8DB8EBBCA7CC8D9A7AABA67C59AA8B9
col31:   D98AD79A9BCBACF8DBAAD9D99A878CADCD9BACECE6BCCCBDAC699DBEFB9B59BC9DAABAEA6D9A8DAA
col32:   466ADEB569A878DA8ACDDCBA9AAAAAEEDDACCEBEACAB78EDEEBDD9CBA8C8E8B9BBD8CDC9BEDFA8D6
col33:   95BC7BEAAE3C6B79BBBAC98E987C987AEAC99AD8DB9A89CCCEFB9BDAFBE8AAC7CC8BEBEA9CE87F6A
col34:   42D87987EC7D5B86CBDBC8799BB9AAB967888AD8DCDBB8C1EBBBDABB9ADAA4ADA88CB98C9CCBBFB9
col35:   9AB95A78B898B875FCBDCC8C8DCDBAEAA9AC9FAA7DF9D6DCBA9AC8AC7A95AFCB77ACBBEBB8CAF885
col36:   57457787B8C88DA95EBA7DAC9AD9CDA7CAEA7CA6D7CADD9B9E9BCB9CC9ED8CBAA99AA997BAA8D9EA
col37:   98AA97886BABB9F9FBBFD9D996E9E9ECDEBFBCABE9EDEEBFCDBDEDDCADEDCCA9778CDFEEECCA78EB
col38:   B67CDCC997C59CCDA56DBDA96DCE7B9DBFA8DCFDA9EBDC5CBB96FEDA8AC8B7BFE9DBDB698C6ABBA6
col39:   939899BBCB7A89BAA899BEBDDABEFDA6C8DAD8A7CFEBC7CBF9AACBFA9DC7D9ACAA5DC8EB9A9AEBC8
col40:   5C97AA9C88DBCDB8D76AAA8AB9CABAB4DAAEBDDECBE6AA89DDBED6AEB7BA9B79DA9BB9CA6AC8EEA7
col41:   875BDB9AA9B9CBDB739E98CBFEE9DEB9BE6ADADB97ACCD8C88FD7FED8BBAFB599981BCFC998B9BC8
col42:   8A9A88A99DAB788AD797B8CDE7CDBACCDD9AACB9A9EACABA63EC3A7AAACCA8C9CB7DEBA9DA8BBBED
col43:   95AADDFB9CBDD8BBCD9CDBECCEAC69AFFFDDEACC9BDECDDDCDDCEDBDEBDDCCEDBFA9B5BB7DF9AAC7
col44:   A97B6A8DBBA989F8F7BF8EBABDBC9DAE99EAACADEEFCBCFC6BBCBDA9C9ECDBCADA8EBAA99B7C866E
col45:   79BAB69D66787ABCDEF9CF8BCBBFBFFBAF8DCDEEC9BCCF9C7CCB8DDC7FC8F8BA8ABBBCD7B7ADB948
col46:   59C99C9C8DBCABA97DBBCBD4E8BBAC7FBFACFBAADBABADCCAAFCA9CDE7CB97DDDE98AB98EFBAA7AC
col47:   96C88C8EACDC9A8CFB9BCDBC7EEDCDECCADCBCFDA6EAC7DADBEB9DCCF8A9CADD699C79ADE9EADDAA
col48:   9AC86BEDB999ABB7DEAA9DABBB6DB9FB7D7DCD9AADB8CBEBB7CB8CA875D8CDE76BABA499CABBC9A8
col49:   D8B9BAC9A6EDACCCE88CCDDAC88ACACAADCDEBBC6BCAABACBDAEECACA9CDBBDFD5BCCAAC938B89A9
col50:   D6DED856ADABA8CADD9ACC9FDDDB8A9C8B98A7CBB96DBB9BCBCAEB8A68CCAD8ACCAC89ABFBBBA6BE
col51:   548CB8A9A6A7BA5BA95DDA6E78A6A99B8CA7C89C7CA9B7866BA79C4E988D9C9B98DDAC795D698A92
ROC:     BPix_BpO_SEC3_LYR3_LDR7F_MOD4_ROC3
col00:   577497586897779656452A49633472188762A4569777427658AC77969474597855789676249661A3
col01:   4B5A69776878B68769877878A6C79AA8AB876775979478A9596ABABB845775779866546A87A7B592
col02:   74B96578977577A56255B68B797962491A9599179D37A87839A667958677463856648A69967A6657
col03:   69668657CA6887867989A8979497B66577789879CAA6798766E49A789566A8664A588CA98C753979
col04:   5466767C5978A95A537369679387B6CAAA427B9488766B46585A398B896BA74C559B478986656665
col05:   52E9784773538A775868B878669A69968746675B78B98399C7A36945B6957A947AB39576B8687932
col06:   265384A4644857445554689887AAB577875BA75A866689A67794479C66868A83765364AA56568425
col07:   A6649727796986565968889A667BB974CAC75B9BA7B57755B97C6AA54957989559B8667788C98548
col08:   3466559B78765664B4888594887A79598584B797C785A966537D7AB56782546478799958487A8276
col09:   775884684C5658A6987998BB7496957355A888A99A56488637797A57AD97888A8577951858578AA4
col10:   966588726929685866545978697475D47B685BB77779A73A9879A6B76964899A696586545A956795
col11:   6971B2A885977866588576A449AB873897855CC7AB85558999888695596DB96A9CA67665A77385A2
col12:   64B768678538977459835875884579A3BBB4789876BB55BA7476575757778A8658669A7932628567
col13:   456A16A79448998AABA7667975685367969999A6886395A995AA98B9678767899959699A47927573
col14:   45635387655277653945648997C59BB8A6659CA9868C38867668A7869B9765598799879777A99787
col15:   84A6986675446637685AB5658587D55976B6996A7A5A5EAA77B8B7A584B9997A474A488B995847E7
col16:   A1786958C9756885658695A547B7998976799579A98B4A8768B7C796A68A5999758B897872774A69
col17:   515346895777676565A8958876985A97664B89968595B7998D766AB89576B9B77796B777A9449499
col18:   8A53866578585784A67A5BA6866989857836967A868B888A8767A8D57777C87A9687578698768485
col19:   5878577659899A67AA77656A788BA88B97A337A97B976A7979B89976697A467555B967979B396D98
col20:   859495647755857976679565A67659985A47DB85C76B66A9B6664888A677897B9596A7A297977B53
col21:   77594367767565866A68858776B7897985A87A86858A5955798967AC947A788968883647AC967676
col22:   648A494979655A9686A57576798A62C984B66359748887677A86A7D5569974759949A5B787877657
col23:   818588669665A956B834787665985B7787899689A976C9B67767855782A765789A997558797BB871
col24:   B686964966768A997888A592A7896BB7A694758679666667759592795755C99387885A898C597396
col25:   B475A98782AABAB758A374A77578B889A8A97CC7376A96BB4798B7C99C6AB9C888A67C47B87B986A
col26:   6759764887957777384A968C9A9A9AA6BA8BD9AAD99B9A699A98A38ACD78CBB797A7BB5C3786A69A
col27:   8A769AA878669B67576777B78A798AA9B48AD789DC8A999AA9888788C6FAD85A9B97B988A85A96B7
col28:   7488A7BC87855A5D596CB8A7AA98D9A7AC9B9A8999CA9897CD999AC99B7CA7AA87C48ABBAA698776
col29:   6677779997BCBABA89A99ABC6988C7BC8DD9DA49BA8BBAA8CC9C8CD49887897B8BB2899BA7C7A9E9
col30:   69768777B8579AA8866679C7C8AB97AAA5697599B996A999B9E99A7B78CAC9B6C98DADB99999BA99
col31:   9967685A66AB9BAAB79B79AA9DBDADAA9A9CD8BCCB8BBABAB9BC88BCB7ABA9BABBAAABBAEACBBCA9
col32:   8888CD976686A9A7A9BB878DAB8DCA969C98ABA78998AAA58A989BBBAC8E9BBBDFA8AB779BB8BAC9
col33:   6A8587A6A53B99BC8BA968D8AACDDABB7CA8DB65ABCD879BABEA9AA9BBAB97D8DC9AB46EAB7DA897
col34:   7A85B6956BDBAB79869EBB9AC8BB7C9876A78B8BBDEBECACDAADA7A99BBAC7A78BDCB9CA77C688BD
col35:   A88AB75776AA9AA6A9DBB8B9D789CB79AEBBCACCB7ADADB9B79DEBCCBB9BAABDCE8A8ABA5ABBBAB8
col36:   8965AA89899899BA999688A78AA6598AC9D99B978AAACCD9D999B8DBA9A7BAD8BA9AB5B6CABDB998
col37:   47BBF4A9CF89AEC98C5BDA9D97AACDDCB9BBC9AABB9D99A6BBAAA6AB5CD8A68CB8AFAAB7D98CAD88
col38:   A9998C8A8998CA99ADB8A7B99ACBA88ECABA9D9AC9B9BA8BAAA97ACA8BC2D9A87BBDEA99C7A7BD96
col39:   9A6889779AA6BAA8848A6CDBADDB9C89BCCDBAA9AE7CCBFC88BA9BCCBBB77BCCD6DB7CAB88C8A8C9
col40:   79A989A9989978B89D9BCC85DDEB98AEC98AAB88A9C9BDB8FCCADAAABC9AB98DBA98BAEC89ADA8A8
col41:   ADC89987997999C7ACACB8B9B9DDDCCDCBF7CAECD9DACAB9EDC99A99CCC9FDAB8DABABDBAA68CBDA
col42:   9A5A7ABA9A459BE9A789ABA99ADAEEE79BBBDCAB9CA9FADBACB9C3ACCC99CBAC9AB89BB9DDAB99B5
col43:   EADBAB7ECECDAB9AC9B99DCEEBB9BCECD8D9DC77EDEBDADCCAC8ABDDCFFCCA8ED9DBCABCA9B7BDDB
col44:   BC88AB9A86A99CB8B7BABB8AAD9DE7DC9C88D989CABDC8AC98DB88BCDDBBEDC99CCC9BB697EBED8A
col45:   B299BB8ABDBDEAA757CCEDDCABE98CFBF9ACECA5AE9ECCE8DC7CE9CCDBD9FB78B8CABDACB99CDB88
col46:   C89986A797BBA8DBE9D9BBDC99B998BA8FCCAB9FC9CCD8BB9ABABBBBABAAEE8EAB9BDB9CCA79FB8D
col47:   99BABB9CC9B9C9CCCAADBAAEACCDFCD9CDCDC9A9EC7AD9BA8ACDD9BCE9BCC9CBCB9FFC9BDC9EDABA
col48:   B899AB7BB7DC8DCA87ABDCD998CC998DE9AB99AA99BAF89BCEFBAC6D978BBFDCA7DB898EEB9C8AAC
col49:   CCA98C9BD89BAFADB8AE9ADFFADEDCD78CDFBBCC8FD8DEEB7CE99DABB7BABDCCCBE9DC9C9E8CFCBA
col50:   CAAA67A78CB8AD8AAE99E89CD78CCCCDBDEAAADFC8EACA9BBEBCDADBDFFCCEBCC8DADBFBDAECBBBB
col51:   8ADBCBAAA6879CC99A8BCAA979C9D98C9C97A75FBB99ADBBACE8DFB8AAAAA8B989D9D7C889B9ADB8
ROC:     BPix_BpO_SEC3_LYR3_LDR7F_MOD4_ROC4
col00:   48855711367941849695A4B86496765A5635278285A61955878885586846A574B7678745516737A1
col01:   655898A857276985546AB6879859543859A7676987897A7ABA9747C9DC9B958B86978668A95945B7
col02:   388AA76856968898476B47A79967769C57C95B899876C7B575A88789798467968965A65646795692
col03:   6544497ADA78567777937586B6A9A9B79688AA959A687578B4868A9777749779877796487A37B764
col04:   7845485675765A47487B9AC8D678D98BB7A97BAA7B58658AB4977B859199652777997BA799957B66
col05:   58676B6956696A475766A45AAA97887697748A8B89686A499B4BA776796A77767289776427584965
col06:   56667585A697688357A6769C78B9788846A89B38798B9678596CB866978847598CA39976A7895948
col07:   7789995672A8889987747958A58A9AA7779A8B976A4789AB899A7A97A865B8696A996987B97C3852
col08:   8794754848787979A98977877A5BA89967874AA576B977BBC89669B888B4987897A87886886A8254
col09:   7727586544A75A6A287C69897BA6976B98AAC7A85B6979779AA8876869684869936799A78B785B85
col10:   3A9A45878994B887876967699A5B9B7AA754ACA89A9B8B997CAAA8ABB676BB9B65D97C8978AA5786
col11:   6A955958A64A79477A9A8B487A8A86678AA6899C9B955678A8578EAB688579977A76797568567696
col12:   58483774B575A989B766B865777777A878BC87A9AC895AD6797B88329A75C76AA688B468779498D5
col13:   6667857A5664C7A94B99B6A67879BA96897ABA37BBBC89A8BBB676A87BC79884578C8BB7755378E6
col14:   6287647539798AB4937A8A888DB68B9A64788EB688B6A88A8A979899C7C9B9D9A84867A9982695A6
col15:   68B8469478469A8A48C9A98946A6859865CA3CA5695A868ACEC6B77CA997598B9955878665594859
col16:   7561967B534647AB8789987785888CA57BAD7AAA68DCA996B96A97BBC977AA79999B5988955789A9
col17:   6782862576A788BA475A8B775B65939CAB888AAA897AAC987D674896B7B786864B87855498659796
col18:   77684485478476767865768B9789EC78A758978D996889696549DAAA9AB796569865387A77A74782
col19:   67A99B94A4A7768AA7ABB9AABA49A5C7784698897795C697AB777797E67DA89CB7998A84A9558979
col20:   646569562A6858959795A79C7AC5BA6A9BAB7A7B68798A87AA87BAA786ACA69A16A789E78A7A8698
col21:   5A9677786AA9589A6DAAAC7B8D7997B9C988BA868677CA65F7B8C9C7AA9567B9B3B897496676A743
col22:   887675499688378A9999B899C897A67B9694889BAA98689CA9A8CA9978476BB966B2495D6B996458
col23:   76746AA597969885A57AA58697979DB97A8A8A9A998C82778698B9867946BA7469A7869B8597A7A6
col24:   75485967498939867983B626989CA95A7A9A5698B9B8ADB5A986AB58BA98A58AA98AA466779A9747
col25:   6576638B78876579788EB9ABB986A7BB87DABDCA889ACB8C88A778EB9CABDA97CC85C498D696A686
col26:   48A6B7A79888C87957AB9B88AB6B9CBAE699EC99A99A8CBAEB7FB76ABA86995CB688BA8A88A69893
col27:   858898A8CAA7976988BCA9A89AD9977BAB87BB966A78977EA979A98ABA9999A9A786997787AABA84
col28:   A79BBB87787C798BA857CBFC7A998DAC8B99C98BC698D7DABAD9A9A7AEA99FB89C9C7A86A9AA7497
col29:   96C8BA77567DDBB796A99B8666ABE8887AAA6C7CDACB9BABDD9AA7AD9CAD6A8BCC89B988B99CD88C
col30:   A6A85CAB7B878EA78ABC79BB578A98C79CB7F89A88DDACB8CBA68C78A69EA896868677A48B7DD698
col31:   88AC89B9A99A4A8FCD8BE9DBCAACCAE89E9A8AAADCA7B9DBB999BAABDDA898A7887DBC989A9D97A8
col32:   6958CAB79686A6ACB8AC938ACCCA8DBAEE9BCDC9AA9ACBBAEC8EBAAA9BCB8A66B9DDBDBC988B5A8B
col33:   885368BA9898BABB85C8AA8799BAD7BCACA8BACBBA75AB9CCA5C78AB89BC8AA9BA9FACAA979AAB98
col34:   C678B7A6596CA9EBBAA96C79E89C9E6F995C9BBCD6BCBCBAE8CC7BC7AD7EAD79CCFCCB6B99CB9CB9
col35:   999E86999998C9CD7AD7A9CBAB7ACCCACB7CC96978D7DBCD64BAA77898BABDC7ACC9CB8ACA78A87A
col36:   C9767AB79DA96B9A8AAD7AABB8DE9EB6C8AB8B9B9D8BBBEC9CAACE99BDA5BABCB59CACAEABBC9A8C
col37:   A97B99779BC8B7BABCCAF79B9C9BC8ACCBAEAE8C89E8989CDCC8CBAAC89BA59DA9CB9B7AC9DAC898
col38:   C5799997569868FCADB8E79BB9DDACC8D8BACDD9FBADAD976BACEBDBABAEBB9C7BBADC9AABA8986A
col39:   88ACA58AFA988D8ACCD9BDBCB6BCAA8BC87BCEABB958AECBA8B8C9897BABBC9C5B799CB978EBACC4
col40:   AAAAD89D9C8B8DAD8999A8D8A6C9AAACC9CED8ABCAABCBAAD9CADBFCB6A5BBD59ACDB8BAB9798F77
col41:   A7A98B8DB7699CA7DAAD779DCBE8D9AADFCADD9C5BFADBBDB9A8ACDCAEABBCBC9BDA8CB9AA8BABCA
col42:   9AB9BAB9AC94DBDB7A9B68ABCBBAABCCDED7BCACBB8BAD4BBAE7CA99AFC9BFBA78CDCAD5DCC599A9
col43:   869AA9899A77CDCCAB79BBBBC9BDAFCABFAACBBCFCEEACABBBEAACEFDCBDEACFCDBBABBB7DF984B8
col44:   BACBB6789A9C9D96CCEBA8AA9AB8AA9BCACC7FABDC78DB8ABB9AAD8A6DFBB9AFFCA9869B488B99C9
col45:   877989799998BDB9AD6BE99C8C8CAABADCCD9BDBB9ACBDBA79BAD9CABCD885C9D9C8B6B888BF97CA
col46:   6BEADA58BDCCBE9AAEA98CCA9EBB9ACF7CA9C9CDDCFCD99DCA8AAEAACBCAF7FCE7BDA9CACB98BBCB
col47:   BAD7CC87B88B8ACDDBCAAABDDD9ACACA9ACFBDB8AACBBBCCCEBDDFBAC8F7DCDFEACDE698A689AB8B
col48:   C9B6C8B6DAB9AB88BACDBAAAA89C8DA9CCBBA9DED98FCBDBBFB88DC5BCDABBB8CCBADE8CEA8FCBDB
col49:   AA688B87AABC8987E9F89BBBCCBD9C9ECFCAEAFFFEBEBCDDBBCD8BED8AC8BDDBFCA8A7AC97795CDC
col50:   679996A6A79A57799CBB8BB599ABECCCCAABABADCBEEEACCBABCACD9DFD89BD98BBBAC98B9A8A8C8
col51:   D69C8AC9C9865AAB896A8A87ACAB8CABBA6DA8BA8AADAA96CBD9BA88AA7B86A8B62B867A8A968986
ROC:     BPix_BpO_SEC3_LYR3_LDR7F_MOD4_ROC5
col00:   7456595566247A5599947889457A886A8454A868668898C6A8B79685877A7297A8679838B787547A
col01:   48A987AA6978676875A6897CB96826C87CCBA9A8AA892BAC9AC989A77D5876A96A9A9BB8A59998A9
col02:   5633B67972A663B73B9C68A968A9C787888A9547769787788DCC9B88B9E8B68888CA968D9BA57A65
col03:   7696AA455357B65B69773B85759B547A77A68AAC67BC7869CABA8A9A579D799A99A87AA978AC8A6B
col04:   59687786978888B98B698966769C87D9866AAB87998C8B6C5A88C88996D6DC7B5988AA9496994A84
col05:   588B4845329AACA9735AAA9A897D8669C6887D9CBB85BC99CFC9898D9DAAD98A89B7848957795A66
col06:   57945986B7443346681499799C866B79B87AB6958689B949788A98AC8A8C97CADAA96BA99B96FA98
col07:   6A9A766A76889565BBC666B7D679BEACAAC5897B45966CBA7997ACBBCAC6799AB9A7C89B7D679D74
col08:   8895961B6699786A877955A89B95CF457A797E78AB799D8DAB7C79BCABCA67989679AA5C78B58581
col09:   3B58CA457A99699A8768D7978D6D6B7989C898D577986689CD8C9CE79D9B96976ABA69AA9688887B
col10:   B686646665697C9476596CAA6BAA67A885598B89E8AA9ABBC98A8CDA9AB7ABBD995A3C66888B7595
col11:   763388497B36834785899497C9947AB8BAA9A59997A8B89EC899B8C7CCC89A88CBA68889888C3785
col12:   895965484876854995B5A3965579797CB968699AA89786AB899A3BA9DE967B5A7B5D976B77ACF878
col13:   998999A866A5A9B598EC887AA6A87A6AA9877CAADAC9B9BBA8CAB776BBA9686E7898A9C78B8659AA
col14:   77C85964577458939A8636A975ABCA397A99AA8A98AA9B97CEABB866AAB9D7CA5A9CBE5CA57B8764
col15:   4C8592AA559457788B275DBAA8598C45A8D766CA887D99A7B9867C589888C885A89C88B3E665796A
col16:   7587885A8626985938657A875956B866B9C6CB8ACCE699ABD88A9FBBA9B68CBAB69BB7A9E9AA7767
col17:   737875B58737755867834869C787AABBBABB5668B98BBA8A79BD8A69BB57CC8B8BA9778AB8961596
col18:   37473447565A8AA8B575C8656D9167AA6677BCD7A99988A878989F997AA99898697AEA662795AA9A
col19:   5717A78676757768BA89A6766A96988CA88768BCAA789ACBDA9B88CFB9687B8D9EAB869C687EA7AA
col20:   957487889D48876BA7589EBB4966B9A89A79BB59856D78688F3CCA6CAA4A7AC48A9B667B9A698B78
col21:   754A734965288D5B75926A75A97989AC67DB977A96777A57A8A88DCC7A9C96777BA87589559A9985
col22:   7479B8CB98927855848878A66879A98989852AA89A6E847C798DA87A9BB9D7B64AB9E94589A798A6
col23:   46B7A3A7654888784998A2C89A79859766B66A886CAC9AA7AA995C7A8B9C9A759795856879537486
col24:   3A796478553868968C8893C77CA5BEC8B599C99489D9FA8AC9BA86CD8AB5A797756BB86B6685B47A
col25:   7734658A78954DA7949A989A789A9D7669CBAACBAC7CBB8985B6E6ADBBEBCD9989999C4AD47B8786
col26:   8567ABAAB996899B8BA8AA69BABC69ABCAD6D7888B87ACCCDA99A99D9DAAC9596C89C86A758789B8
col27:   97A677666799998785677BA8CCC8AAAECB7BD7C78CD8C98DABDFB9CA9ACAABACAA99897AA6C98C9B
col28:   49687A9968798654C66768CADB8AA9988BED7AC99AB5DCB69C6EB98CABBCA8C7A898BAC8A67C9B9A
col29:   6B7ABA97BB899867867BD7AC677D988F9BBCA9CAD8AD9DECB9CA97EAADA9AABDA9D9AC93BCB98B9A
col30:   48629B887976AA9CBB77755A9658987C99DE8A99CCC7AC89BA88A88DB87F8FAA99DAB99C7E8A587C
col31:   A5537887AAA9BADD8C9B9BA779BA8A8ACAC8A9BCB8CDD9DDC69CDAB8F8AAFCEBC9DAF78C9D99C899
col32:   4A47A887B88C9CB9987B6A8B9B58AABBCB799CAED9ABD9CA8CAACA9BBFE879888BC9BDAB85CACB76
col33:   A8649574A88E7BAB7988AB96BBBA798A98ADB6BA6C6DF9DC9C7ABE9ACAC9BBBB9A7E9CBAE98F9A65
col34:   957876FCB499B8ABCBACB8897B9F8DACC7A9FCD759CCAAB9BBBACFCB9CBC9DBABAD8B997EAAA8A69
col35:   AA8C56298D9B9BA97889B9856C996BBD8ADCF9EEAA9DACEB9BABB9FDCAA977D87AB9A9EDA9E9D694
col36:   969696978BD8AC966A88C8B6B8BAAC6CECA9D6C8ABAA8DC8F7C7A9A9CB66B7AB77AAC7A9D79F8B76
col37:   A8A8C999A6B5FD969B8957BACBC9886EFC9BDB57A8CE9FBAACABADBBCCDBD5BDC7AA78AAAB66A9BA
col38:   75AB6C88879C7BA547BDA4987AD5C6ADA79CDDBADBC8BEBDCCCAB9B98CB9DB7D6BEBBDCFAA88DB8A
col39:   C5A6D7698A9A688A4A6D88BBA99ACBACCA7AD9ABCE89AFA999B79C8CB7C9CA3B97AAFAB7BB8C6D8C
col40:   8A79ABB8AB78BB789F8988CAAA7DCAEEBCBCCBBADFEDCDB8D9888C9D69B9DB896CB7B63ACA99BAA9
col41:   B5C9AAAA85689799CA9B999A8AADA5CACCA97DA969E9CD9DB8ADCB8BCBEBBEAA8FDBCE8BFBDB9AC7
col42:   A7B9DAB76AAAB8877C787AC8AAACA8BBC896AB8DCBDDBCECD8A98BABCDAD9DBB9ABDBBA7BA9B99C9
col43:   7A5B68876CCABCACDC9AA99EB4D9B9D88B8AADAB98DDABBDADC6BC9FCBCBCEBB8C9B6CC8CCABCA8C
col44:   47FADBBB98A8BA9B9A8A8DCEA7DCD8CBBD788E9AAB9ABDAAECC8FEAC7DAEA99CAD8BCBBABC797886
col45:   557596A669B86EE6699B89DA9CC979CF69CBBFACDCBAAAE9BCDB9A7AEB7EA7399B9EBD9CA7BD9A89
col46:   286AA8A8CDBAAAB8AAA8BA89AB779AAEABBA97BBC8C8A9ABBBB8D987DB9B7B8E7A4CC77B7CDA8BA6
col47:   A9CA87AA68C8CBCD9BBF7AA9AC55DA9B8D8BDCAABBCD8A889BA9C7BCACBAEBB89AD77BE87CC9CD68
col48:   486ADCC7BEBAC899D5E4AA6D59A9BEC6ABB7BA97DF3BADDADDCC8DCC9B7C97DBD9CBCB9BDAC8DBBC
col49:   9B8E5A6596E97B87B97ABEDAC9B9BDA98A88CFDCBFAA6AB9DEABFB9AB8CB9CFCBC7C9A58956A8798
col50:   95B97ABB986A8AEBA9E996A8B7A7E9BCDCAED7A9BCD7BA4AAFD78999BEB89CB9A97987AC9D576898
col51:   756867576996A7B969879AA59AA6789C9C9B9A6E7A9D5B78C99BBBDA7C888878A7698AD89AA78885
ROC:     BPix_BpO_SEC3_LYR3_LDR7F_MOD4_ROC6
col00:   268546387566752685335665971858878596887973877656796C7776999AA6585A78AB9A65A77665
col01:   76B92677748ACA8785553596594778876998A799C59768A9A8BAA89A9CA9BA98A5A97A78AB4A7A66
col02:   64B837798672B796678A686487B9498787588898877666677A69889987AD887AA7968576DD779868
col03:   9765546657443457A6A95866695678446AA9798787986599B68B878B58B88BCA8477BC9488A79A8A
col04:   496676226483C96A5867BA86B76879A77CB7998A9A96B5ABC9AAACC57B8B7B8998BC87989987A898
col05:   5277762555737267898597699A775456A6976B8C6A89798777769C6DBD7A9997AA77969A5859CAA8
col06:   46579A77879A6999B68985A9979784A899A7A69B9679BAB97998879B959C8C977C99D7A8B896B888
col07:   A487668B999686AC73959987AA6888A9B9A5ACDA8B9AA8B4B7D88C89B96AACBA889CA968CAB9CBA6
col08:   7929788868477B58786687757985AB35CAAA98AB99B898BAD8BB9899B9CAA7B76969BA3A8AB96C67
col09:   575969674776A85A9656674BA6588BB6C78AC98A9A69AABEA9CAAB79B95A9DA698A7496BB69797B9
col10:   785A8B5289B88778867896997A8A399BA85A689A957A7A78BB9B9498BCA978BB9896AADB7A6AC989
col11:   466658376756686877667577A57BC387A5694CA9BA8897A87A7DA7AA9AA7B89A8DBC996B588A69AA
col12:   3875686937757661A7977C777877793A6988DB797B6C8A9AA8989BA98AB97B8D9A8AAB89D687C899
col13:   56857459A9678687AC6878799886C699B7AAABC479899899B97669AB9EBB9D9B8C5C87EBB87AFAAA
col14:   8737587688A677CC775748A6896AA58877ABBC799685C979A9D98CC899A7A7B899ABAD87ACAAB698
col15:   7646316478A98894955769688979A89A9889C7D78DBC997969BAC987ADBA9DAACA9B8AA9A8AB94B7
col16:   6537B53AA6A6797B489829A8748A89BB7C699C9B9A868966C8A98B8ABC7BA99BA9885AC97957CBAA
col17:   7766687B45583B488896799A88A4ACAB6C675659BB8A89A88A69A8799C9A9B9AC5A8CAB7AD7878C9
col18:   5747588669A497663B96A558A97939B579AA9889747C6B9B8B67C9698CAA88A9A788789B768A8AA7
col19:   6655776A968658A747877AA988A5A9AAA5BB96896BBB9B9B85897D7CAA89C6CB9798A69965BAA6DB
col20:   4459896898649579776A58C8C678928DCAA6BB5BAACB9A87DCCA8968CC9AABFA9A976D89A99A8A97
col21:   A97767254A9C87C877798668579788B9996B79A969AABB9999A9B86B8ABE9C8B7B8768A3799BAA7B
col22:   782AB9979986886457898BA7899C86A8786D8A6B788ABB8768DAB9A8BBB8CA87CB8CD8AA6FAAAAA9
col23:   5956679A663743863687AA78AA7766869BA9B898A89B7CA999AB9AA99BBCC9B9B89AAA78C959AB7D
col24:   6587786766575A7A1B6B8A8A7FB8B5858DACA98B9A89A9A69AC9BD8777A9A9CCABA9B7AA8BB999A9
col25:   58A8948667B8A999A78658CAB8A8ABA88957AEBBA879CC9BC9999A9AAB67C6B8AABC599D699A9888
col26:   758B568678A79898CCB9AA9CCB8B68768CBAABCABBAADF7ACCBBECA8C9C87BEDCCAADBABB9C9B9A9
col27:   A879287C7896AC94B46B6A968A9876CACAE99ACCA97DCDAAABA9B9C9A9BD6AABDCB899EBCA9C9ABA
col28:   A89A77469787A9B96CB84798A7CDBD8C99BAAB8CC6BAABDA9BC8B9AFBFCAADDDD9BBACCBDDCBCA9B
col29:   772B98597876BABA9A47CD9A8BABCAAE99EBB8DCDCADDBF9BBBBAAAC89ABBDD7CCECAAAAACACBC79
col30:   78A6B78B874D6899BA988DB8A8ABA6BABCACBCAAAFAABB9CEABCBAA9FFD9DDBB8AB7FDAC99C97FAA
col31:   598777C97B99BCCB7C9D9A8D97BAB9ABCCAB89CB9DFBCC9BFDABADC8BBDCFAEBABAFBC7B87D98BDE
col32:   A999A9B9C6858A9ADABACAD7BD9DC8DBEDDBCABFA9C9EBCEDBCC9DADBDCBD9CE8ECABAECD9C9DC77
col33:   46A9B88A8C7BABC996BB7859CD99AAC9AB9BBABCBD599EDAAFACBCDDFFBB8BBBBDDCEC78CADBB9CD
col34:   3A88AABA988B8AA848BEA9CDCC9ACDDDCC9BDCADDEFCBCBDBBC9BDBCEFCAFBDCBEAFBBBBCBA89BD6
col35:   7A3899AB77699C968A7C8AADAADAB7E8BBCDAC9B9C9ADBEBFCAAACC8CDEDEBBCFBFCABBD9CDDBD7A
col36:   789B7F6A8B9C59AAAAA6BAC9BA7CB8BBDBBBDEB9CBDEFBEFDDDADECADCBFFBDBECFECFB9BCFBBF9E
col37:   9AA8B89BA69ABBB9DEAC8ABEC7D9ABFBCBDFEBBAA7EACFAEDDEEACBBDAFADE9BDD9AEDFCDB7DFCDD
col38:   C97C997CA9C9C8CD9A7ABBAACABBCB9DCDAADDBBBDDCECFEFBBEBCACEEFDFDCAED99DDACDECDABF9
col39:   986A6A7A6A9BACCAD8BC9DCBA7EBCCC8EADCBD9CDB9CEE8E9ADEBBEACCCCBDB9BCAADCC9ADDCBDCC
col40:   7A978C8CDCAC88C8B8AC9BBCC97BDDCBBCBCACBCCFDCED8D9CAECBFCDFA5DFA8EC9DCEEDCCEBBDEF
col41:   795CBCA8DAEDBC7D9CBDAAADCAFDECEDB99BC9DDDFC9EDCB9CDDBBEDBCDADBFEBAFAED7A9D99BDCC
col42:   A8ADB98ACBADDBB9CF8CABB9B7CBBDBAEDAFDEADADBCFBBFC9EBDDCCCCA9CCCEBBAFAB99DD9BBDCB
col43:   B8BAC98BA86BBADABADAADBACBC7BDDDCDEACD9EFDBCCDEC9EEBECDFCCCFFEDBEEDCBC8CBCDBCEFB
col44:   6886AA85B8EDBCCB8BBBDD9DD9CF8DE58ADDB9AAEDEFABCBFDEBFACFEDBEBECDFAB8BBBC9DCEBBFF
col45:   8BB87A6A6AC775B969B96BBBB9E9BADAECEDBABBDCDDBDDAD8CCEFBBDCFEFC8BCBB97CFCFCDEE899
col46:   BAD789AB8C997ACABCDCABBBCCAADDDBEC8CD9BDAEBECFBDDEEADABEADFAACCDFFFCCFCFCDFDDACD
col47:   BB7C998ABB89ABA8DAE9D9CBDAABABBECECCBBCFD8DDCCCFACBFEEFE9ECFEB9BCEAAACBB6DCEDBCB
col48:   9C6A6A9BCA78D8BCCA8EDAEA8BBBCDE9ADEFECBEBCDABCEBECFFFBBDBDDFBCCBBEDACFEDCBCEAC96
col49:   A7A9BAA9D88C8CBBBAEBDBBE8DA9CB8AA9BDADECFDC7ECEBBFCFEBE9ABDDACACB9CDADCCBBBEAABC
col50:   C9A78ABB7A89ABFE9DBADC99C87EDEEB8FDADACCFFDFACFFCBDDDEBBECFDDDFBBFFACDBAEBEBDDCA
col51:   8A98898A9678B6B8C99C78AE9E78AD6CADBB98B7C7A8CCBCA9CBADDAA8EBB59EBAAECD8DCCCAAC9A
ROC:     BPix_BpO_SEC3_LYR3_LDR7F_MOD4_ROC7
col00:   67856613676634215839461638769875A7B64755B57586649C884B5368968654AAA8443746854451
col01:   7966AAC657789797A943B77688488AA7AA6C7989AA4A86787759679B755A9889767C7AB999845423
col02:   656286518926ABAC8A44549595B559899BB89A9BBBBBB7BB8959589738977BCAA783962396815B65
col03:   53674464665839757762A9889277A9C485938AA76C578AFBB6984936769887259A82928357984633
col04:   C593673879665759797A8786A959878B7B974993CB98855A79B38CEA875BE57967869C96886B64A9
col05:   8946478989758494563878B5896996678999676D64567957B4C1486C653C74A87767968657872652
col06:   656B6559931997799A66895A6CDA89AD7D7F7AAA64A86A7899599876569789B46956777A8B5A4466
col07:   7A56A646755554898655978858A98D56E8A98C196AA99C99593B72793BA88AA674768A833A67A726
col08:   65B6667C53426B499B87985D95CA869DBA9B89AAB79A6BA8AB7A88D97DA84E674497497A14878834
col09:   5637698487878286BC96C95887697C46C87ABA6D878788C88B89AD4D796B9A683957891C456D5558
col10:   28851489697DC7887CC967C9EB6BA989B559BB9BCD7B8278A8A979D7378C8996666B97A495766734
col11:   779177497A646D59E5C6475AE8B7B89B7B86D4AA86B87ACF8588696788B3AB536669B737A323C353
col12:   3A799C746753388466873E7B99A75B9BAB6D67799BAAC7CB93A8957799B55955A325357578736726
col13:   64868A6B7637985B69877877AD7D99BDD7B5B89755974A6AA98D89165B848867A516746397352275
col14:   4A769D65BA9E9A99297AABC75468CAE97A8984D8A897B9B69DAB5C9886997595877A458967663596
col15:   8A157D7BA57877987997B9A599939D9D695A8FBB5A599BE6896B8A78876B45756324245476438B45
col16:   89714A557D457ABAAA8BC8694A7BE59A56AA99D698777CB77A79B5B68962BA9CAA794A74725A3865
col17:   538A567777787A59A78967665C9484AA69C9AA687BB95A7468BA7732D698A88562E564A596454911
col18:   6C68847C57866CC69ACA9A5C96CA7B7AAABCC8DB9B78DC99E984A8858889986693B98565B4374363
col19:   86A7B9996897A59ABA3BB6A796BDFAB87D9ABA7B98A9859B8987B9199AE6D677AD92955436487371
col20:   932AB644956BAD9C97979469B6558ABCB6B6ACAB8F79A8A8D595D899A86EB9398597767487176551
col21:   6659B5998B8887A8A9ABB97897AB598B6A4A996E775978956677769849AB8446E598626677364441
col22:   C3593489683A72587797AABAD789CA798B9C998BA65BC1C787EC8778998899C3C78B2798557A4944
col23:   3477573958645BABBA9C388487798A689A8D837A5A4374A8989BAC9699A9C5A47685486886755562
col24:   8BC468A5A983577798778ADBAA6AABA7D6AC5AD37A8BCC799A6AB9AB6889ACA4B78698C432859554
col25:   7ACA9B3787767B986BA696D9BB55AE5B8C7B8A95B9AC6A85AE8B9688B5AACAA6988D967794767B96
col26:   97889A9ABCA54ACA8B957ABBE89B7BAAEE8EA9ACAA96FA6A9AADD79BC8D8A759BBBA878A77692C78
col27:   7CA7B5E7B6597C87477CB7CC8ABADC7BB9999CA976B8BEA7BA9AABDB7E578797C6BD95A67673D461
col28:   6C88AB78797457798BB7EC9A98BCAC98BACD8DBDCCC4BA987CBCCABCA9DAD8AD9D67C2ABA8B9A46A
col29:   8AE88D867858AAD8A887999969BCC8DDB98CAA99A97DEDCA875AC9C99BAC98D8C9FB8886AB8B6736
col30:   A9A93769854867A9C98B98AAA89DBABA5EBAA99BCAED9EFCD6BBDCF8EBDBA8BAA8D466A9AF7B7B55
col31:   7EAACB94A9EAA9A86CA7B89C689BEB2FAD8E78DDBCDCB89BBB6C896E9ADDFA6ACB8ADB994966A775
col32:   8997769BBBAC9CEDB9779E9DB4DCD6CB8BEDECBBAABD99AEBCC9EBD9E7FCDC8CB9AAAD6E888E698D
col33:   898896DA7A8548A6CE6ABC8DC7ABD9DEBDEBDACFDBDCCA9CB98D6AAE7996A88BC5A7B9BB567B8999
col34:   69A68D9B88AA9968C99A49EECFCDBE7DDCA889CCEB7CBD7D8C9DDECBFB8AB6BB9BABAA9CAA9B4AC6
col35:   A79797BBAB6D83DF9DC6AB865ACAEBED99AD6DE9BBBCCBB89ABABCE8E9A7C8B6B58BB8C949888286
col36:   9C869A7C8C768BDBAFCCCBAAFD9C9BEFFB5BCACDD7BACBA8DDAB6CABDA6DA85B8DAB889B68DBBA69
col37:   B74DBCB96A78BDF8CBCB9FD8EBF5A9B9BBF9FBCCAD9DABABCEACDAEDB98D6DBAAD9CD85B778A9785
col38:   BA7ABDAAB96BCB97ABFABD9BCDEDAB9CBCE7BEBBEBBACDBABCFECFB6DACF88BCC8A9AC899A996898
col39:   C8687AA9CA97CCCC499CD9D9CCFD9DFBB88BBCBB9DAA89FB9CD68BCAE9CAFCB9BD7652CBDA984764
col40:   9DDAA899CBBAA9BCDAAE8BFBDFCFBEEFFCECFCFCCDECFC9BBA9AFCDACA9AECBAE9EA9CD7875B55B5
col41:   BA8BE785ACB5796BB8CCB8D9DBBACDDFEBFBEFCCA9ADD9A9CBCAD9B8989DAA8BD7BB9E8B8A9477A8
col42:   A9A9C888757DCD78BCA9AFCBCBBA9AEACDDCD6DEDBDDDEFFCCCBABFAFBCDBDD4EC9E6B8B978A699E
col43:   BC7ABA79BC7EABBAFAFADA7EBBADFBCEBECFDDBA9E9DEBECD6DACAB9DDEC9ADC8B8B9A9B9AA72975
col44:   5BBDC7A98DA88E9BCEDFDBBDEECFCAC8D7ACCB97DCCA7E99CABE9AA7CB8AAABFCD9BBB8BA7A966A9
col45:   C8CB67BBA5C8E9AABBADAF9BDBB97A89AAAAAC8A9FBDCB9FDBCAAC7ADBB97BAC7BDEAD7AD787A7B7
col46:   B6A47A8C7B9958CABAB869BBE6DEB86BCCBAF9FACDDEDBECBBCBCDBC7BCCA9CBCAA9BD9A78BAB677
col47:   8DA7D98689BB7DD8D9A6C79BCBC8ADCDBCA9DBB6ABBDCAACEBBAEACE5D3BAA9798668A9EBA777B78
col48:   9BAC7AABA6AEAABEDC9CEBCBACA8DBCB9CFE8AAABADFCEBFEAFABBCAB7BC7AAA68D9C599A8A698B9
col49:   9A8CC8979A7ABACFCCC68CCC86FDFEFCA7CA9EF9B8ABF9E9FB9BDC9F8DFCBFABAD85B98B6B4D9962
col50:   CADB7BFCAD89A98ACBCB85FEC88DFCDBA8FBA99BCFABBB9FCADBFFE9D998BF9CBDBBDBAE786D98B6
col51:   7D69A97AA57AABC4A8B75A7AAB8B9CACE7ACCB68896BBB879ABC9C779AB64B765798A6676558B465
ROC:     BPix_BpO_SEC3_LYR3_LDR7F_MOD4_ROC8
col00:   AAA78A54BA9C98B68C9ABACA7BB67898B9ABBBCA68C99AE598867476BBA79877A4573B624B856474
col01:   A5A9AADACBA6AB89AB978BC59BA8CAB7BBABABD8ABA9B9B8BABB9897B9AA9AB77789679888A79B64
col02:   A9B9A896A9BABACDC9898CBBBDB8ACFABCB58BCBD5DADDDA9D8A5697ABD7CA7987AB65B543898765
col03:   6A69A779898B5B8DBD98AD6AAACA8986B8BFCC99A96BBA978976698B97597A6677A847196A8353B9
col04:   7A9E6EA5CACAB77A99DAA8D8D99FDB78CBBE9A4F9C7BC86D89B9AACB47D7AE5749C9359AA8638766
col05:   799CBD6BC495688ACCB8CC9CDE8CBCD7AD7986F57BC6757E98B75CC8989745648779657D75888559
col06:   B8AA9849979796BBC9C89BBEBC7CCB7689C78BBBC87A9ACFA999B94BAC8BB8A88784A796968A47A5
col07:   9C88A5A988889E988896BACDBDC7A9BBDDDFAACAA87FA897BC976A79C8986968678CB787274A8764
col08:   69A8DBA94B789BCABA99EBC7D7CCCDB9BC7CBCBC5BD99B8848BCA99A6C98ACDA89A988AB75B4B1B2
col09:   BC97A8C59A9CA9A78ABD8867999699B9CBC9879A66559776BBB7CA9BACA6C58A9748486954899445
col10:   5955AFBA6D89B9AA8B977DBA78A7BECC968BC77CBAAACBA9B99CAC8956CC7B2B8878785657777485
col11:   C9ACC896A9796B8BCAA9C77699B96AACE9D9D9A9889CAAA8B7675AB89937D8988585D59268962447
col12:   9A9ABE9AB5A7976C8AA8CBEABB77BC85BB9CC8666B79A8AA689AD8A9477B49794B7B879756266567
col13:   6CBBA94C5DB9C9D8797AFB8C7E597CCBDB99C9AAC7BBB354BD45995CB786B757C4C83C88A7247847
col14:   87BD99A67EBB7AA78BA6787C958CAC99A98AEB5B8978BBB7A9ABCF69CA9ABB78B6976A73396623A1
col15:   69B8BB4CAA7AB6CE75EAB9BAA8759C89CB8B9AC9A997CA8AAA98A9AB8C977885A69A555568266248
col16:   7EA78A4B58B7CA7B7DAABB7DB8A649A88ABCDCBCBC6AC98BBE997588C9ABA7988773655358A49445
col17:   87BCB82AEB85ABC7796BCBA9C18AAC9ADA98A96AB9B9A9C7BC888669676952878762A85546943313
col18:   9A7B999E7956A8B87C9DE8A8BB798D6A89A898BD9CA8898A5987899A9BBBA977873999B9C3859368
col19:   D9C59C8B95B97AAB8DBD95ABA8A9AA9978CB6B6D6B9A9979978B6A67C9557855BAB5A98585471641
col20:   CA5E49A7CD67DAA9B5889AB9E9AA9D79C8986997C5977CAAD98AAA98AB8B98836A5A865565498737
col21:   9BDAABAA69BAAF9BD6A3D6CA9458CAC7C9C989777565CB8A999678B8AD88BC456A36657356476465
col22:   C9BAA757B69A895949BA8A8C5D6BB9BC9CB9AB977A96997AA4A8CE9659D9C95C7858568985535642
col23:   A6795BBA9678BAAE7B76BA9CA879A7ADB78CE99BACAA67B8577787999A9656556349455796381665
col24:   A979CA8A9C99B88878A99BBAB8997BB9D8AACA6D878AC96784889686C49A786698787735C8765815
col25:   A8869299DB88CDD8A7A77AABA89A998ACA8578EF97FA5887936897CAB48B7B69879A67A4354275A7
col26:   9A9CDEBB989CACBBBC987C7AD4CB9C99BCCBCAA9D77CCA779AB8999B89EB8F779CA9BBA663A75892
col27:   AA97B7A7699C7E7AA668AEC4A97A9B9BEDBAAECC9B9BABBC9978B829AC8BCC66A56675A596B67668
col28:   AA8F97BD9B95CBD999CAA9C999DBCCC7ACAD7B9CEABAC8F9B9EE998AABAAE9768AA557C677824775
col29:   CBCBABBA798CC88BA76B97A9CFA98FBAF59959C999C699C5788988978689BA5AB778787151647554
col30:   9C87AC97A6BEAABAC9CC8CBCBA98BBBD9D66BADCDC9B958BB89AB7BD8AB69A8BB78A897655877277
col31:   EBAAFCAB9C9BAC7CDABC8CF9C7AFACBA86AAAAA78CD97CB6B4A7C974C37C9ABAC89859A598879445
col32:   CAEAC9CACACCABC9AA6C7DB8B9B8A8A68AFA9A6D997CB89BAFBAB8BBB9AF777779DBC589681869DA
col33:   7CBD89A999DA8B9CEAD8CB9CCDBACCCA6C9ABCA7CBCADBB8E5DC496E88A7A7C6B49A9A8476567973
col34:   B979CEACBAD9C89CB6AADEBDE7BCAABABDCCECDACABDCAAA8AAA9AABBABADAA886D87854588B5747
col35:   AB7A987B7CCCAC5DD8ABBB8A7B8B7B9CB88BAF9B7FABCBA9BA9C9CB78CEBB9B865525C4986545713
col36:   ECCC9B9B89797D8CBC9B896B9BCBA98ACBBEECDDCCCAC8CB9B9AFA2ADC9878C7C787C637687CAB66
col37:   BD98DB96BAABAAA95BA7AC9A8CA86AAF8C6EB8ACABC6B9B79CA6B96BB98AA96CB68856486A886872
col38:   D99ECB9CA9B9ED9BADABC8CCBCCB8EBEEDC8BFC9CE8CCBEAAFE87F7BB97A9D6A8949C876B9979A34
col39:   CDC9DABA8BCBAD7EBA8ADABBB6DB8DCB9BBB5A7CBB879BA5BDA75A9EABF9CC757666BA3538894438
col40:   89CECECAAB898C7DFAFB8FEDCDFEBD88BCD97CEACA5ABFC8DEBBA9CBA86D784A559667BB87676897
col41:   D9ADAA9D8AA9CDCA9FDAAAAABA9CE8CFDF9BAD9ACADBDCC8C8BAC8AA9E678C9AA8A8B87698846796
col42:   C9C8CAC9CAC7DBE9CA9ABABAB9D99A88DBD989BB98BB66CA5AAA78AEC7A99BE99877995A898B66E7
col43:   9A6ECBA7CCE96CBFCBCCB67BE8ACADF9CD7DCBBCC9DC9CDD79BBABBC79DA8B9398586AA8755B5598
col44:   A66AECBBB6AD9A9CDCABADEB9DAAE57BBAEDCDD9B97A7B8DD989BCC9799AC9C8A99F9B99DA879B76
col45:   D8F8A5CCDA8ED6B8BB9BCAB7AE8BFCA7CFA88CEB87AABA7BA8A79976ABB75A5B6A98D5984789468D
col46:   9DADB98BEDDFB9A8DE8DECDBB9CED8ED99CF8ABDCBAC9ACEBBB9979CAB9C577989998B657B7A9984
col47:   DE7EDA9EDE98BBCBDBA8C8CBCEBDC9ECFDB9DA5CAAB9BABC7AEC779BBAB88A568C58B6A454846885
col48:   97C5F9DC9C8C8EDFADD7BFCAFBCBDEE9EA8CBCA89E77B9ABB8FCD89B88CB83BAC7B8E96A5759A654
col49:   ABCC8EBC69CDEAED8EC96E99DCDAB7C9D9FB8EB978E988CBB9889879B889DB5B6B74847377363755
col50:   EDBD87ED7ABB9A9E9BBC9DBACC7BB8BE99BDC999AE97A9CE6DCB798956FB58786967698B76764A34
col51:   AB87E785A8FB8986BB798A7957889A8DACAB954B76889498561697764C9566785442653486719334
ROC:     BPix_BpO_SEC3_LYR3_LDR7F_MOD4_ROC9
col00:   255434474642764493565885965637972989666637986459866898566679689A77A6A5A8A8A559A8
col01:   7685265B327676A8765647966651577879877B778A6AA98A89A8A796B6B99AAB87CB7A89A966ABC8
col02:   96485577568795648B97577BA665852966AA8A99BB5887A77A995B9889B78B9A687C7998AE6BA9AA
col03:   6875447A99946398A71A64A79775B976B77A47669B9978A789AA69D7AA769ABA87BB9D9A88C86899
col04:   852676844467898584488957968D9777A767898D8984CBA889B7889AA9BA7898A97ABC9998BB9A8B
col05:   758575575767566757388686A7479A3897BB7985B8885B879888958A9A8B9A97DBA676A9967BABB8
col06:   646638684786566699756B6B755999A886A798A89957ACA887A5BB8A899ABAC87C999AB96B9DAE97
col07:   79685259955853AA997AAB98978B786AAA98999886C9DCA99CDA696C8B9A98AA8CD7BBAD69DC9CAA
col08:   75866A5684615767764678A968748997AABB9A68B89AB789A8AC887A897BBBC96CA98B49AB9BBC7B
col09:   386869A7575746A6658867A76B79396888599787B988C588988B89B88BCBAB69AB9C7BAC87C9CCC8
col10:   447481675765785969889AA699A8978B986978888ACC997ABB856A78AC7C8A8AA8D798B99999C8B7
col11:   676466757455B956647666A856778998B8A899AAA9A9AA9789977BB8498CE9DC9A6CAA77989BA897
col12:   38496475975589796687777786AB7779797877A5A9876C9ABB6989AAB9A8A979B9AAB9B97A65A79A
col13:   4757778867777788868979B598BA6699A7CC98A688A8999C84A7A8CBB79BDD8B98AAD8869BB99B8A
col14:   65958885565879A599697688677979CB7B69A9C7AC9658AB7ACD8ADB8ABABE98AA9B698EBBAE8AA7
col15:   76A678647348966C68267877A88978767567B8D768A98B99979967C99BCCCCADBAC878CA8E9B9979
col16:   6687738787768879589B9CB5AB77C8A9BAA7B6A798B9989A9A7889C57BC9BBC9DB8BBAAAADB87988
col17:   865536666889587779C776995B7B78A8969879BA89B7B867988DCA88CB997BBC8A9CA88799A7BB88
col18:   545645665897553767686A8999668A78DA69997A989898AA9A9889AAB9BCAAA7A8AAD95CAEBABC9A
col19:   8955566948774666A67797A87A948B96B75986A879B7A6E4D9BEAB98CAECD97A9B8879AB9D8C879A
col20:   76576766867AA957757B66A7B975975B8966667858B98859C978ABA8888B9B8AA9DAB8B988AB9878
col21:   A64386566558795927788A7AABC6AB679A9974B7688AA4B7A69BBB8599CAB79969BA78CD88987B78
col22:   5847947365A778288998977787AAB77C79BBCC8A8978AC8BAAA989BB97ABA97A998AAA6AB98B8ACB
col23:   5455966696A795976685777B9A87698A99C89BBA8B68898C998BB8789BBBB9B97799A9AB78798BB8
col24:   A535585676C867798A979955BB8AA96B8989A9AAC8A9AA68B897859ADA9A9A95AABE9A989999CB89
col25:   664A4656A64796778AA99A98BA98AA7996B8AAB9A778A9B8BCAACA87DACBCCC8B98B9BCBBBAA9C9A
col26:   598665A78895866685BB9B899D8BAB897BB8BBB888AACA9ABADE79ABDCAB9BCB9CDB9B9CABC9BACB
col27:   7966585866667C75CC7BDB767E8B7677B9C8A7C8B889B96DCC8A6A9ACBBCACBA6AAAAAA9AAACDBBA
col28:   75A8659A8B7A67D87AAB97A6BEACA8ABC8ACBDBCD8CBAECE98CCADBCFADDACCCD9C9DBCBBACBBBCC
col29:   39A788A969A568C99ABABA9D9877B9C9CB99D8D9D99BACACDCA9DEC9CC8DD7C9A9ECCFAABCDCACEC
col30:   698B6ABA9797879B7988AAA68B778AA9BAADBBA9C9A69C9CA9BAC9AADBBCDFC6B9EFCCBBABBBBBAD
col31:   A799787BA998B9AA8B8C9A9BACB699DBB9F97AA9AACA9AA9BCBAFCDADB8CDCCBCCB9BACBAA88A9F9
col32:   8795CA696A78968BCB9BC9AA889BCCBDCACADE9DB9ADBBCADC9B8BCDECFBBDCE7CDDAD99ABDEDFAB
col33:   77994A78A7B26A8AB88B7AC98CAADABB8E9AAC9CBCACDDDCCCC99BA5DEDACCCDF9EDDBDA9CBAC9BD
col34:   7579568A8AA9AA89A8AACBC99DDEDBA9ECADCCAD9BAD7DA9CCCF6CBCFB9B9EDC8BCCBEDBECADDCBB
col35:   8A999A79A979C8C9CCBB96ABBA6C87A8B8C8AC9CBBC9EBECCB8AA8DCAC8CACBCDFCADB8DACD9CDC9
col36:   7966A9A799AA7AB7898BBB98C8ABC9AACBCCBCFBCBA7B99ECBD9BDBDEEE9DBDCBBCCDEBCBF9CDED9
col37:   6887889B999C9B98A96DABCC9CC9DDCBE9B8D89BC7DBAB8CD9CDBBCCBC9BCADCACAAE8BECDBBBFBB
col38:   8B77A8C9887977B5789BB899ABBBBBA7BBDCCED8CFEBCBEDCCCDDD9DEBDDABECFBECBEFDACBDDDAB
col39:   98759A468B98999AC8AA899C99CFB6BAA9DCCCDD9EE9EBEBC9AEDDEECA8BBBBEBCDDBAFDEDBEDCDA
col40:   7A877ABAB68C88E98C99DBCB9E89A7BBBF9BC9BCCDBABDBE9BBDDFDCBABDFCEDBCCBF8CC9CABDBCF
col41:   98A9B9B87BCAB8D9B9BCBDADCA999ECDEEDEDCB8BAABACFAACBEACBBDCBBEADBCCBB96FEDBDBEAAB
col42:   7A879BA8BC9A9997A97BA8BCABCADDD9FCABCCECADBBADDABDDEBECBDDAECFFDDEBECDBF9CBCCEDD
col43:   97BA9C8AB8AB98C9AAADCCDABCCDD9CDCAABCBABBCCCBBBCCDFCEBBFDDECDFBDEE9EBC8BDAFCCABB
col44:   B7DA8B9B8D89A989BA9CBB9ABBBDCAACBCCCDBCDEAEFEBDCBDCDDCCDCDCCE6CBCCCEEDBDDDB9CCCA
col45:   688C8BAA9856BB8CC88A9B9BC8CDABADBEEBCCFCCDC9CCCACDCAEF9CDBECCBCBBFEDABDBCCEBEDF9
col46:   A586B7AA7B98BA7CBB9A7BBECDDCBDAEBDDBFCFFBCAACDC9CEDECDCDCBFBDDC9ECDBFEDBDBEDAEBC
col47:   ACB78ABABBB7AAAA989ABACC8CF9CECADCDDBDCCDDF8EDCBCFFCCFBECDECCDBCCCBDEADADCBABFCC
col48:   7AAA9B9D99BB9B99BC8E9CA98AC89ADCBCB9C8DADBC8DCCCDEDBCCBEFDFBDDCEBDBDCDDDFFBEFDDA
col49:   77B8B89AA8CAA98BCABBC8ABBC9FC8CBABC69DEB9B9CDDCFCCAE9CDECDCABA9DFDDCCCDCDFDCAEBB
col50:   C8B887A7967BAC88A9AAB9B8DDBFC6DEBDBCDBCCCCDBCEC9AFCCEBBCEECDDCBFBDDDDAECEDBBBCCE
col51:   866C89B88979AAA999A9BFCACA99AAAAACAB7AABA99AACDADA9DECC7CAB9DBEADADE7E9DCCBCDBBD
ROC:     BPix_BpO_SEC3_LYR3_LDR7F_MOD4_ROC10
col00:   861565A46846456298844B7B76C7759D987C689B2E66A7C5789FBA868B78DA756C58567587796565
col01:   795665A658699698887AB75E5788758899DB88B66B4BA859AA7B8A8ADBEA8B888AAC85A4A8964BA6
col02:   649A8885A8795B863869669998889BBA9A9499B59CC88D6D8C86EC89DC1B2A9B69C8967BC784BA68
col03:   858956B798899A69ACC7838CA797BD8D88C98AAB84CF699C7D7B96B7A75A7E9CF48AF4CBAB8A9378
col04:   49A7874934B966983C76789B769C68ACA69C9C8C83A6AC65BBCC6798FB9A99657988C8A9CA6B78A7
col05:   79C777A9C9C9B595AF4A8889C75C84B98EF87B99A9B98ABACA569A886B9B8A66C7AAA86B8556A45B
col06:   78A377567C76A88A8798896BEB5699B9ABCB879C8ACA66999B7877AAABC78665BA4CAA7D97969896
col07:   6846682D68A93B78ACCB9E9AC8CB6BA6EB76ADCA3BBEA7E978C8BBBAE889BD78D78E4798A96A87BB
col08:   5988777AA68A7497B8B875CAB88C99AAA8CA9CB8AA7B87A959B89DA898998DAA7A6BC498897C7678
col09:   B87AABA68697A5589EABB8AA996A4DA8B8A9AC97CBABB998764BD68AA65B7A38B76A99573B65A159
col10:   7548AC8739B85857A3438A69AACAAC8A69AB7C5A8B9989697A78CD6D78886777A99B895A8B885897
col11:   274A8756659726AA7BAA99ADBDACA8964789B67AADCA86CB9D8AAF5A86BA7EA7EC7AA868A98688B5
col12:   68B85387666A487787879ECB7A88AA87B9AB6AD28E8AE86DB6797A9DA76C878969888ACAEDA5A9B9
col13:   8775C999AC9B9AAC8BFBBA6AB8998A9AEA8CB9CBBB7D89ADBE88A8AB9899C786A6796B76AA666D5A
col14:   96585954A997697899A6ABD7988CA859DBB5B7CADC7B69F8E9D8AC69992BDA994A8CC98B7A4396BB
col15:   C876C6574A8A88968A5A8A8AD76678FB99B96A95A9BDBA87979B699CE79A89998A9771B757699889
col16:   B8978AB4958A7964AA97747796CB94A56AD5B8CCB9EDBACAAB76DB6B9B87A884CDD67DA927629599
col17:   579A79769658A889A96A77C79AAACACBB99AAACA69CB88CA969ABB69799996BBB3BCC98A99487796
col18:   9644969B85BC47979867BA87CAD8B9ACCB9AACBB967AB9CCBDC6CC7997A9697673996A8996A86585
col19:   5C9A677A87AA85A6AB8B6A965A98C7BACCB8A8ACBB89C9BAABBCE8BDBA8B6ABCC795B87B78B77367
col20:   752679796D6A57C7784898687B76AA9ADC77BD8BAAB896797999CC8BABD9779B836868A9964A8795
col21:   A5C587738B999C7777877887A5A7AC9ABACBBA9CAB7AA5B569AEDB99CD6D9B84ADBAC88AB968D477
col22:   8872D874A8695C2887886745C896B7B7BBA89BA9A9BAB9988B799B799BFBBAA998CB7788988B5A66
col23:   978676876768CA63886AC997AC66A7A79886DA7C8BDDA7B6ABABB799D6F8835DB77778B979C59A9B
col24:   5A8AB77A99A989993469D5A699978B897C5CC96ABAAB99CCBE8DB8A87778DB7D898BA86B8B5C86B6
col25:   9B87B9CE667B8A799B98B97B98BACA9A7ACCABD9BDAD8EABCD6D7C9B9D8FA968B77BAA49BA9A8C65
col26:   BA6A6A7896B79A69BAA98E96AADB8EB97DAAABCC6ABBBCCFBA97EABEA8C89D8EAEABBAA9A7CABA8E
col27:   83AB398579759797A93BAAD997C8AA8BB9B89ACCADAECEDDF4AABBEECEAA799B7B6A8977D79ADDB7
col28:   9DACC98AA89CEB8D8AEB7A978CC7BD9DCCAEDE6CDECEAC996AD8DACBBB8DACBAA979D9CABC3BDCBB
col29:   BAB78BAD9B79AAAA69B999A89EA8AFDA7ABDEB9DBB97BAE4DC67DBFACA9B7ABA98CBA9C9C9898AAA
col30:   7BB99DBCC987CBD88D76BAD98DA97BB9B8E9FECBA98CBC8CECB9A9EFC88BC99E9CC668EB789689A9
col31:   6BAC79978F4AA89B8C69A8AAA99FC9CE9B8C9CBDDDEAFFDB9EDAD6ACCDBCE88B67ADBCAE9CCCEA98
col32:   ACBB58ACC89C8AAABAACBD9BFAD5CAAA8E6DBDDABBBC7ACBB8D9AACBFBECCA7F6AAD8FAAEAA8AB87
col33:   C889ABC9A9D8B9A8A89EBBA96AC9DCDABD8CBDBA95EBBCCDBCDC7BABFBBBCD9C7BCAAD8D7B96B5A5
col34:   AAEBD88CC6DBDB6AAAAA97DBFACABABDB9BFDBCBEF9CB9CCCAAA7DBBDBACCFCACB8D973C67877978
col35:   52ACC999AABDB977EACC9CA9ACFBBCC9C97AEECCBBEAC78BBCBDBC8FCAC9AD8CCEABC9BC9EB7A9D5
col36:   BDAE6AA9BCBDC97AEAAB989BCBBD9CABBFDCCAEACFB8CE7ACBCCEBB9DADFE9BBAC7C7B8C8776EB98
col37:   5BCCCDC8BADC79A999AB5DBCEAD8AAAF9DA99BDACCBACDCD99CA9BF9CDFCBFBC8BABBBCBAA77DA86
col38:   B9AA99B7CAB8DA8D8BE9CBAA7E9EFB9AFEC99DADBC97BBDBCBCDBCDDFDB8CACCCAFE9AE8DC6A8BA6
col39:   B7FDA988BAA75BA9A9ACB898CAA6BCCABCACDCEFBD9D78CBCFA9AEF9B9EAAACDA8CA57ABF6BAC598
col40:   E9A6AFADBADD79C79BDBBDCAE9CAB9BDCCAB9DCAADABACCDCCEC9CCBADFA8CDCE7AB8B9AAB6AB997
col41:   ABCCB789BAC8CC99AEB8FBFEABACCBFDC8AACEACDFADCCDB7CECCFBF8DABCBB87C9CDC6AAB7BA9A8
col42:   AEE7AC9C6A9ADDCC8AC8E8F6BACACEDA9AACCEDABD9DAACC7DB9B9DB797FAB9C98C7BB799969CAA4
col43:   AACCA6EFE9CCAFFFD7BEFBCCDBCABED9F9DCEFDABECBDCBFDFCD99B7BADCFCDBBCDBCCCC7BACCB9A
col44:   A7DCBBDBCE9BECCCFCABCE9BFEA69EACBAAAEBAD8EBCDFCBC979AA9FDABDAECA9DAC6CCC9A8D9C59
col45:   68BBEBAABBDC5C6B8F8BBBECAB9B9B8AD9CFBDCEBDBABCF9D7FDBCEDAEBDBAD99CC9D5E5ABACBF88
col46:   DDD78A99C9C8ACFBAA9DD8EFBBD78CBC9CA9AEBB9CC9ACCB7EC9DEFFADDB8BCC8CAA7878BD8EAA9D
col47:   C9ACACAA889BDCA8DABACFC9AEB8DFADCCCAA9AB9ECFA8EBADA876FFB7B8AACBEBA8DC9EADA679B7
col48:   BA9ACABA9AAABADAAFACCDB9DCAECFABBBBB9EECFB9BCCEBCDDAADFCBE8CCBD8CCAE89AA99878CBB
col49:   C9ABD97EBD798CA9E8E8DCBAC9EFDCEAD9BBB9ECCDECBDAAEECBBFDCDFBA9D997B79A8AA7C8959D9
col50:   99ACC6D78EBC9BCBABCFDB98EAEBCAB8DECFDE899BEDADBC9C7DDADADDBCB98A7ABC7AB9B4976E86
col51:   BCA9A78AA99869F89DB9BAB97B8AABB88A6BDFBBCBFD8B6EAAACB9999E7839AA664659D6C5DC7886
ROC:     BPix_BpO_SEC3_LYR3_LDR7F_MOD4_ROC11
col00:   113A246553634912483662327673775498A9729489AAB7879AC9887BA7B992385479A736885B6866
col01:   393239972698187A5AA63798798B67689888898B6869B5998989A6CF8887879794657AAA6778B898
col02:   154923E382519278B8739AB87B7C767C879B298A579A5BA965495949ABA7DBAA7A77A6BB4AA85D98
col03:   2468357776397749A668976497A889898866B9B767AB977B758BA69859CAABCB786B725858A8692A
col04:   89B694887887669A38B5549857975485F89BBA65D69A98A88774DD9D9FB4A7B96D79749AB8677AA4
col05:   65616494611A58674896769B548CC4A6996835A976C859B72443A8B7AB879979B7985458AB744765
col06:   5846963374C5554648499377B58A58656897487CA6D6BAAA6AAC88BB76BA79CB6769E756A5869798
col07:   7564568669673A78998A796588BB96878BC7A8C4ABC6B6B997D76C9ACB86657AB79BC9A58742CB63
col08:   894596525633767778666D42A3697127CA8365A28698CB99D987C68A79C5D7798F65B7DB89877669
col09:   3717777A8556A6473669DA6A7A349B48B9ACA9684667D895F7998796B47C799DC6AA99A557CB7788
col10:   16C6752348895578A5B59945427995CA99A8673AA76B6B8AA87997668AB9C886BA9B84B5E9989936
col11:   338388562848375742B5C645747A8CD37DA77A76A7B898B86CAE856A9B6EBB7B57BAB59999B37855
col12:   566252473A6163895A7559788BB8B899E79BA48C8998A78A69D87A67BC9DB8A7ABBCB8597876B9B4
col13:   494A72457995796C8B9BCA487379749AB778CA4BB87AB9A9499B978E89AC6799894A6D786B82A5AA
col14:   96428B5377284491B9B2977BA9ABBBA6AA7367AA8977AC9EA8899AB9679A9AAAC977857C9A69CAA9
col15:   5679874589D975582746565839C42C5A5996C8BD48774A7A8BB677B9DA8CA7A58A679B97ADB4C827
col16:   7976549798915844636846A69BA85C895A6849EA9AC8B6487CB9D38D9F3C8B7877A958875D98B7A8
col17:   675793778983A632A3D38AA9737A6C7568987B58BA69965A374A9A968C8BAAA9856B9B6987A55887
col18:   997948666553AA56766647B725876868B78587BA8A63EA69686894DC8BC7B9C98CBC7CBE5588B879
col19:   567757958897A8B7874AD867668AADC9DCB969EC4988776ADDD55C9BA9A877689E75AAA7A87B9979
col20:   74774826446533575B8A65967C4895ACAA975889176CCCAAAA9895B67A9A67A8A97B8BCA997A798B
col21:   44815135796646B5A774AD4578496CAD8A98BB9C9E943D7C6CAC877BB9B58A6BC78CAA858A6A8C64
col22:   52758658A7594788888A78826868997679B8ABAD5AA8E978856C7A7AA8C7A79A7B6986889879B7DA
col23:   3A34727B746A56257A337698E68784ADB9BA74A78C77BBA9B9D8791BB796DBA9CB699B886A3AC987
col24:   55895666638A473772A88AAAA9B889A9B989AC897B8A89987ADA9BB9AAAA99989A98AC98B9C6A7B9
col25:   A946476665994676893863A476B79DB75A6997676C898E97CAD9589BAA899A8ADA96999999428765
col26:   744764A95698679A49B6CBB55CADDA9B99A8CCC8CDC9D97BCDCAABC98AAC79DE77AAFBBB8997FAAD
col27:   A77999756A68B8CC6514877997BC9AA7E59DCA7B99AAA7D9C786898DC7B6A6EB6A7A9CABBFA7DCBA
col28:   596B8B6D7878B77888B99BCBCA5C87749C7A9CCCA8BA6BBA7A87D88D8EAAEFDCA899BB6DCEB49DB6
col29:   AA379797A7BB898C6488BA7786677DA6BADAAB99EACAE9CEABACAD8B4A6B9B7C89DC9D9B9CAA85A8
col30:   397888AB59C9889B9BCA6BEF6AA93BFBDDB7A9BABBA9BBDAC9A896DF9C9A8AAAA7FEAC995B8EECB8
col31:   D887A89878CA98ABA87EACAC78BCDCA6CBAABCBA69BBBABC779CB799EC5EBDCBAB6BDDFCEDFAAB87
col32:   B697A9BAAB6AC77C7D79CCA5BA99CB9EECBDBAAA9FBCA9BEAB9CFCD89CDEFECC9CCBA8CDA9BCB9BF
col33:   9576ABCCAA2AEBB899BB8E47859BA9DCDD595CE9CC9AA9BEB6EC9AEEBA89F888A7B9C8C79CAAB6C4
col34:   89D8BB48BBBA9754DC8ABCEDABAABEBDCBAABEEADCA9AAD8ADAB99BCFDABF9C9C7DED5FCAC6B9EA6
col35:   3D88A56A698DAE5898DA8C27BAB7CD7ABCB9B5CEBDBDAB8AEDF9A9BCDDAE8DBDACACCB7ADBDB6AA6
col36:   A9BBABAB87BB89B97BBC9A68B9BDBBABCBEDF9FF8A9ACDAAB976CBFDBC9CAB6ABB7ABC8A98BA9C98
col37:   978E5A8BB9AAAD9995DBBAABCAADC7AAB9DABBADC5CCBBDCEAEDDDCBDDCBDEBE9A9BBA8889E9CC77
col38:   9A89D7989EABB899ECAF9BABAA9C7BADBE9D7BBD9DCFFFE8EC9FDEDDEC9FFCBCDFBB9FC8A7B78C88
col39:   97989BBCADA68B4DA8449DCEAA8B66CBCB6D87CDB9CCBFEEBB9CBCEDCDDFD9AFDCA9D8A9CD76B6CC
col40:   AC7789B88BBB8CA7CDEBB99D7ABD97A9DBAD6FF8BBD8BAAFEDCCDDBAAACABBAEABEAAACF96AC88DA
col41:   699CBBA9BFC8AA9AC7CCB8BCBCC5A988AB9EBBCBC87F7D9CAFBFCDFCFF9BBEE6CB8AAD87A979CDD6
col42:   97AA9ABB99689BD9B5DA99A5CFCCBACB9E6AAAC9E9ABF7B9EABBDBACBCAAFBFBA7DDA9BDF6ABB8CE
col43:   88C9999B99C9BCB9ABBD9FBA35FEDEDDCDDBEEEAD9EECCBAEBDC9BDBFED6FCABFBDEEEAE68A9CAB9
col44:   7BB9788D7B89E8A9EA5CDAAF8CEDDCA9CDCBAEBCDEFBAEAFA7FACC9E99CCBBCACBBEBCCE7A9D9BC8
col45:   89867B7AA88AC6DBAA99DBCB99CBD979A7C8ABFCCABE9BD6BDB9ADEACBDAACBFBC8BBACDB8AC9DA8
col46:   E6C9CF26B9BAA98ACCCC8A9BBA7BCFBFFFDBACBAEFDCCAABDCCCDEBDCAFCBAFADEC88DCDCBCACBAD
col47:   BC989A98C6B9B7B97AACF87EBECCF9EBD94BFDF9DDC88BABBECCCDFEDFFCAA9FCCCA8DFA78AAB9C6
col48:   ABDA8B9B8B7C7AEDD98B8BFBA8CCABBCDFFBAC7FF8CBDDFBEDBBFCBDCC99D9ACCDBCABCEEDCC9ECA
col49:   48D7C79AB98CACDBE8AD8F9BDBADBD9CCCACEADAEBBFFB9BD59C8EB5FDBBCCFFCF9DEC5FCB8BC5B8
col50:   A88BEBBA9E9AA8AD9A49A7BDA6ADCEE9B8BE99DADADA5EACBCAD98E79EFEEEBACEBB789BAFBE9CAF
col51:   C9AB897C59B87984B8AC8D56AB6985A969DACBCC8B8BBA6CED7B8BAC86DDB7C9B75A7A29BAA86AB8
ROC:     BPix_BpO_SEC3_LYR3_LDR7F_MOD4_ROC12
col00:   25843286536415397237225618578735697878758874567555858559A539773787895767867896A4
col01:   596836B76685239565587455787997A89A7687877985A95BD876777A68877A9986CB797786896A83
col02:   7667779765586754344777A597BA68695869A55474688A8799CA883686B6AA69979578B767485647
col03:   57452668798586778648A7589B647A676BA65767775899785897459CA79898896CABB669A587B898
col04:   138747A6546397A476778697957937B978567995945B48BC8969B8798A86AB88AB76846B8698BBA4
col05:   77945646865599655585A76875675A8B7B6CA98A78AA5A979886797699C3CB77765796886B6C86A8
col06:   53547755275886787379678767A679A6A8B989658969887A988988679C65689796A8D95789869878
col07:   783A5875774A977767467787A7A7B66CAA96A6A78665AA9B9769A789994A57CAAC89A657A8CB9B65
col08:   3679A788867275987A789A886A7958975A8B799956769645B978889BAB88985799B889986BD676A6
col09:   77985B66746679666998678998828987687887C999A7976A97997B976766558B876C96859756A9C2
col10:   864659878988368446866686C87778A69A6875577B79888375AA8B55876BB67697AC7D9A9888C797
col11:   9387667326578769879765799998B9A878C8659B987898B857C888879867CB89589A7996736B9A78
col12:   5754739547482578799B37AA878857967A87A8BA859BA998A9597587A7AB9988A57AABA99989865A
col13:   7762599775A4B52456746F6A9C6B689966867C89AB68A87CAC89896989D676797C8BA899A66E9B49
col14:   899974636A4447944A768677A69687A87BBB7A8AA947C98956AA69A8CCCE6A7B8656D5A6895C58A6
col15:   549357539767AA87A9679CA68979A7888799A9B779886A8B996A9976C578ABB6799B879C7A9979A7
col16:   586A77A95489A776795738A69B9B578B998A8B6C6959AA79CA9777C6BC574A7DDA989B689929B699
col17:   76845627878797568A686878469B9779B8968978DBA8A8A88688A9A7867D8697699968B997688999
col18:   7754967686577B59BA599598867789AA788888CA8A6985AAAB897B99A7B68B18C469985779A9A875
col19:   B46793677875896B879CB88BA897989A678977AC899ABA98C5C589B56B8AA8ABAA88BB7AAA799796
col20:   55C6846A37976697635A76678AB7CA99BA9ABA8799976A89B87AC769999ABAA89A86A8A6984B8978
col21:   6978778958599789459A9A87A9879B96887B9A58798A7B887A9669BB89AB7986896B99C9898985B5
col22:   674857856888A97B77559AAAA66898D8978899A68BBA7997B7DA879899BAC7AA89A6A7B9C7589676
col23:   757879686477997786AA83887A788B796B89A9C989B4A666CB8B46879BA799E8A997879A697C5989
col24:   757889A2474C66D689698BA8799DB9979B9989A78A6798AA6A8A8989B69A8BC8B8AB5A78B9B6B896
col25:   47A7A8754667B9A9A8687AB78BC995A9AA8BABC7BAAF99CD78B98A999CBC8998AB89896BBAAAB97D
col26:   C9987899C64778996BA596A988ABDC9A99B8699E9B8A8BC8B9BADC8CCBBB8CB8A778B8BBAA8BB8A6
col27:   9958765A856964C8A8584BCB897BB98AB99CB75BCA9A99CBAD979A9ACCCC9B9A989AA7AACC9D7CAA
col28:   89B88AB69A89BAB8ABBB78B899BB7AACCD9C9BCC99A9AAA97AA9EAABC9DEB9ABAAEBBA58BBBC98A9
col29:   B8898AB8A87879A8BC6ADBC9AA5BADA98BA9DBCBBABBD9BC9AAA9DAADB9CBBCACA99A9DB7BA9A8CB
col30:   9A8A8777B967AB98CA87A8A98BBAD97BEC8C8AABBCA9ACBD8AC9ACACADDBACBCDA9AAAEACAABC9AA
col31:   989997B9AAB8C89A999CECA77B9E8AAAB9A8B9BB6ACBBDA9BADCDECFEAA9CCAAA8BBA9E899DACDB7
col32:   B97A9C67A98999AC78DA995CAB99A8BAAB96CBBBBAB9AEDBDBCC8B7ECDBBBBBCB9D9FDCCFAFBBB89
col33:   8777B9B8A89A6AA97BB8B89B987D99AB78CB7ACCA8FBCBB9CDEBCDCBC9CDABA9C8CCFAAACDA89CA6
col34:   9ABC5A7A7B978899A99BCBB9A9ADDB8EA7AABBC9ABCBADBCE9BD6F9DBBCBCB9FDEBA7CCA9BAAACEC
col35:   9999A96899A9A88C8BCAACB8DECDAB79DDA9CEB6DAEADA8C7CDBCAADBBA6DAEDCBBDAAD9BABCD7FA
col36:   A87B9ADA69BDE997BC7AABBBA6BC99DB9CA9C9CBCCEAAAACD88ECBCCADCD7B89AACAC9BAD9ACDBB9
col37:   9BCBDC9BB6BB7B9BDBAACE8DACB6BABBDCCACBCCEBDAADAEECDCDBDECDEB9EC9EBBC9EBC9EDDEDAD
col38:   A9988AB89CB8A97AACCFDDADBE8CEBAB9B8DBCBABCF7EB9EAECCCDCEBDBECCDCFDC8C9BEEDEEBDED
col39:   B79CA8CE989ABCB76A8BDDDC9CCADCB9CAABCDCCACDC9AABBDDDEDB7FBBFDFAEDBBBBCBAACCCBFBD
col40:   DAA7899BC9C988C7C9A97ADACBDBDDCCDCCBABE9CDDFCAECFACBBDECBEBECCECEBAEDABB8DDB9DAC
col41:   B68ABA89CD9AEAB9BBAAAC8BAAAD9F7BABCB9DDBCBDACCAEDAEC9CE5CAECBBCFFBDEAEBCE7EA8D8A
col42:   78AA9BA47BDA8AB8BEB9BBC8DBCBAE89EDBBA9BACA7CAFEAAEEDDCFBCCBDDBCBDCE86FFFEBBFA8CA
col43:   97DCC7AAEB79CCDFBBBB9ACDCCBDCDCBFEB9CDCDBCCDEFE89DAECBEFCFCADACDCBEDFBCEDCDCEE8B
col44:   BA96B7BBCBD9BADCDD9DDCEAAD9CCDBBCAEBBACBCACEEDFCEECCACDCD9EBCCDDDDBCDD98FDF9CDCA
col45:   AAAC7CDBBFBB9BEBA8B9ED9EDABBCCCBEECCDBBEB99DAAECEDDBBEFBDFCACC9CADEBFDDDEEBCB9E8
col46:   9BBA79DE99FBA99DAB8BBD8DBCDCCD9BDBCDBACCABCACADCFBCEBDDBEEEFEEE9DECC9ADCDDBEBBB9
col47:   CBC9ADCBB8ACD9CBDCBCACCCABE9BBBBCDBDEEBB8CDCEEAAACBDEBFCAEFFCFFBECBDCBBCCFBADD8F
col48:   79BAC7D8EA7EBBADF99AECAADAACEC9ACCBDCEBCFFCDCBFBCBFBCFDDDDEBFDCDDBDECBECFABC9BCC
col49:   FDBABBAEB8DDCA9BC98C9AAEBE7CCDABCDFBDCDCCDAEC8FCDDFCAB9CCBDABBCAE9BDFCADDCCEBDCC
col50:   CAAEFBA9D8CDACB9DEC9DBBCCD9CCDECCDDAFDCDBDFEDECCDEDEEBFCEEEEEDFEFBDBEACBCCFDDBFE
col51:   9A8CABB8AACCDC9CAACAAAA6A9BBCADACD9897DCFAABBCAADCADEDCFDECADCDACBCCCEBDDCECDBAA
ROC:     BPix_BpO_SEC3_LYR3_LDR7F_MOD4_ROC13
col00:   4886A58875A98C977946A89DBB79ADAFB57AACBADBDCAAEFEDDD9FBCECB9B979D5759E87DCAACACE
col01:   4888C7948784AFB988A8989DBACBBAAD59BACCBCBF7FAEC9CF9FDFFCEC8999FDCDCD9EDECF9BDECC
col02:   8A9AAA888AC8A64B69B78C788E7BA97CF9AACCE9C9AAF99DFCFAFAB9AE7DFAE9F9CCAE87BBE9AAFC
col03:   469387BA7544973378D8697AC79D98A89D8AA9AD996CBCAA9DC679BBDEBCA9EE9BBAB8ADBBA6BAD6
col04:   8AB89AA765889559DAC9A79998BAA5AFAABDEDB7D9ABBD9B9AA8EEDEFD9CECDCE9CD9CCE9BDFCCB9
col05:   785499AAAAC58A5A9B6EAB9EBBAB79D67CBACDD99A8AD6C9DBA9CEDAAABDBCAF9ADBCFA8D7BAA88B
col06:   778898AB79778E9AA7BD68AA978FC9E6DBD79CECD6BCDBF9BF88FADDAAC98DAC879FCADABBCCBE9C
col07:   95688A657789869C89699E8B8EAAB8AA9CFB9F7BA7BCAFBAC8CDCBACDCEDCBCADAEB8BABDF7AEAFB
col08:   677295963938A6C6ACAC89A6B9A9BA997DF8CAC8BDFABEAECA99BCB9AE98ABD95BA8A898B8DFBCDB
col09:   96997A477A9BAD9AB9AA9AD75999BBA9998A9C7D7BDFCBC8DCACBC5CCCDFEDD8EBACFBB9DECACDDA
col10:   568878657A869796CA85AB76CB9D6986B88B99ABCBBD4CD99E4BAEC9BBCB5ACBAB93CCCFB8DCEBA7
col11:   56A79767B967859679BAAA8CAEA9D8758D7C68ABAC9BDA9C9C7DA8DDDC9BBC9EBCBAA93CECCAAEB9
col12:   65665C67759789878BA89857A7A889948CBA8ABA7D87EDCD7A9DA89B8D7ABCA6CBCDBC9B9B98CCDA
col13:   4389898BB9577875B4457979A98C9BB7B9E6AB9B38ADBDBA7CA9B9D8CF8E9CD9A7CDC9BDCBAACAA5
col14:   4854572A375A6579C75C58AB6C8E988899A9CA8A96AB899FABABECC66CABBA8F9A7E98ADBCBCCADA
col15:   43B665365353388A7787795388668D8899AAABCA777BCB79CC9A899BBA7576CBFD9DBDACC6EBBBAB
col16:   5674C3678574486A87DA4987BBCA8E78789849697A874A9679DF6EC8BAC882CD85A9E8DBCFB9D7AE
col17:   A2795766647D76B9A57547689C59C68DBA87B878A956C4A978A8DD78A9CBDDA99B48999AAB9896DA
col18:   65474598A744A7A7986398BA7586B9C66899D9887CB6DB6EAB98BAAAC687BFAA859FEACAADDF8ABE
col19:   921468598637C8B8A874568A99AEAB8A9949586676A89985BA9B8B98AC9BCC9A9CA9CBDADBF7AAA8
col20:   57596B8AA467685462A64B99939BB89B4AB997869866CB89C6C968BCBD9B9A88A8898797CDA8AB6B
col21:   658898486489A7877994999CAA686959A59A67898A7B79C9C8B78A5D4A6B8998BDACA9CBEED6B9CA
col22:   6416958A644578754697A9B54746B598A7A56A9857978C879ADBACAB8978B87DCA95BBBE9C79C8AB
col23:   7477553A66188674B824387B995558B64A7E86874AA588A86C9AB88A8AB9776B4ACABD889A7BBBB5
col24:   56557377257487755489A49798A98947888A8C699A9998AA5B9C8B97AA7CA96ABA59F8A67AC97BB9
col25:   7776736279935368858436556B789788774A55B65BC6BC82A97BAB89BFB8ECCC8B99C85B7A3AE9CA
col26:   74A678297935C68AA88987AA7B46A9888C8C97A7A98A9BCD999A75AAAC88BBBBB85B9AFDEB99EADA
col27:   75759B77833743A47758939E879F87A48A5AA59797AA9BAB9A8989BD68FABEB997CDAAC99ABF5A89
col28:   9667969872898CA8587989D97D66BAC989C7BB9BA79C97ABAAAD9DF96CDBA9A9B89BE9F4CCBBEE9B
col29:   2787B7666627A465A68A389A7B6A9AC898D688B76C9DBABBA78CA7BD69B8BDDD96AA988997F8FDC6
col30:   4659A97A68766C886696839BB9B4B99DC9AC69CB887B86BA7AA849BF9BACE8AA99AB5ABCBBBED8CB
col31:   68476939769295575B8E98689AAAB7D8B99999994AACA6B7AC9C77C7CCC6BBB455AAD89D57AAC7D8
col32:   15A389556554C957779C7A97948AF6B988DC998A98BBBD9866A698786AB9CA7EAAD6CBDABA9CB9EC
col33:   75865289863696979996B59978875A99DB66B98C9BAA7F9ABA8B7D9CDAAE9B9B7CE9ABBA9CAFC5D7
col34:   469AC6B826738F89AA9A98A9BC64BBD69B98BDCA88C8BCD8BA9B89B89EB87AE9E8FA6EA6887EBAE8
col35:   634A899886785A9B38848947BDC88B799A9BAB87BADE9859BCC794C6BC86C9D8D99B6CBDBA5B99A8
col36:   7A889A39868457696688A9A8548AA889B678B8CBA86789BFADBAACAAABB8CDF9C979BABBAEEBB689
col37:   45948568896B9B77959776C86A99D8B9A798C899FCAECB87CC899FB7AA9ABF9999FA689CB99CBAFB
col38:   A96886A8A999A66499A9AB9DAB7C6959CC635FB87D5BCBC779A9B5CD9CADB77BE9ABB97BBA8ACBB9
col39:   534973AA69586897C875AA8789A8A99996BA7BB788DCBA69ECBBB9AA9BACBAEBD9A8CB9B98D7C7CC
col40:   A7A677868848B98965885A69BB749D89CA689A81C7949BF4AB7D5ABBEE6B8EBCB99DC9DABDBCDBCB
col41:   5844479596B8AC49B485AC958CA86DB677B5AA7C69BBBDE98B77DD9688BB9A97AB98D7ABC8A7AC97
col42:   629688876898869C76894D858A3B689B8E6AB79D7DB4C939B5CAA99CC8A788C89DEB7DE997A9BE99
col43:   46646758626C8886698879B89587A9B9779AB75698BBB6A9A889A8AAA6E96B87C38AAADAABACA6B8
col44:   758375AA569A786977C699A78489C68778699FB9BB98DA9ABCCFEEA95EC8BBEBC79B8BF6C8DD85C9
col45:   351174717AD3968C8939578656659667CC99799A85B7C799BBA8D98B977DC6B9A79DD577C9CA98AA
col46:   15879756943669C68B6565B858889B86C576CAC89AA59879A9A695799D9C9BAAC99AB6ED7BE8799A
col47:   646965856565A94B94887A499797A6DA76AB97B7AD8A69CC5989DA898B99C7BA777FB696DCC996B4
col48:   742617178765926B825569786A95787974A66AD87AAB959B569D9B99B9B8E78A9F6738CB78DBB9AA
col49:   3561863454737893578A76EAB95A6697978766A5D649B878A999B6C96BB89A78AAAE7BA99F8BC9E9
col50:   445561564469849898795456A8376C88968849C7ABAB85CB8598D9B88CCD7857999CD1A9AC87CB84
col51:   15134654312535623485664657427565898437487596966B488A6728E79A7C9B6877A98627764A96
ROC:     BPix_BpO_SEC3_LYR3_LDR7F_MOD4_ROC14
col00:   26135345572243731464555645684763778685749457584735656574668457843445556624423552
col01:   6562336625766654375798754569946668676645595486567572A576697689766926654454846955
col02:   344582232445549611377857655566465678767886654588596867786A7635663758453948A66155
col03:   668459676545663775666657878555856A59855A678B897656669478786875788767457973759574
col04:   55585444669686466657775768858585664677535658887897574876775987395556498746774345
col05:   43145264A84396666638795753497575366747776669767755947658986777455485845C86945365
col06:   6424772646997937346557367796A477866835B796866688846676496A4679876687669662577867
col07:   23586375578564559668867476677679574964699859557675885556576876648786777677637561
col08:   335667286575675A6386A786855A878479564655A645885765758867588567775665566779988737
col09:   752365549986666487885988A7759797B938666A74A6569A6678445878585A934968A68647965676
col10:   4575565678A777678378754885676AA85C756678A97978A975869577748667866672579755676683
col11:   65636346547658A5669763A558778179B69966787559B69699767555959564354686768897878672
col12:   546816465787555967356754985865927556797776796858A5766A666675964957A7767656663555
col13:   7467287777646557253755B684A787769A87A8768487B6656666A956A57777452A48767764685677
col14:   647365757698755283998869A668987665668978776888766535757A75889756A697877686876464
col15:   4466675547363738299899788467652689667869946554667A887A6B5737967788975694A8964655
col16:   6276848969865847666776648766778676659A585696A85A75884956A967766585A7756779956749
col17:   78575556695464888787565765597948599858899769878757478886777446796774566744456975
col18:   585665646A99565475576757989765385766796886B8659A95775A489B4889A5A659678A65655867
col19:   674395698649967875397A5378545998A56688A886A3569885795699A78775588A6A86A866688787
col20:   1598773984777578537A4687776A65A966895785B6777959569A4677773495879667878586476656
col21:   977796696994888B58A56385658869699767978588586697977787875568A879897674559346A764
col22:   5676765457778476468A94865966A8786A97978993A5A679685967758797B79A9758558485648688
col23:   76458577A78A85688575689A78957746568697699A68A7978767AA7798AA366888766A6A66A6B796
col24:   4774676967A5865488868666877AA7999A875979686A8977696848858658988774777665A7785685
col25:   A447646786B88B778776789877A88977588897886975756788866668A7788497877A697768775795
col26:   875748798A877B67659897B99B79B999D987989779B9A68AAB88A8A9AA4A38628A8789789796D795
col27:   6789677868998968C994B7897997AAAA896AA979798AA7B795B7B8587797789788757B9888977A86
col28:   896A897A69A89898B69A77879A997A8AAB87979976998795A67AC8A88AC99669AA9788AA779A7978
col29:   887889989778779A6687988A9686B96789AC96B8B79998886799A8B88AB694AA8898B8A98768999A
col30:   78958A9AB698A96B88B87989BB4C98C8A5978A88786AA7A9896988AAA9CC8868685BAA8A86989589
col31:   5789BABA78A9899B889A9AA6988A968988789C7A8AA8A7776A7AA8799799A998895599769B787577
col32:   7A9BA7899AA8997799A9AC6A88B8AAB7BA99ABA787B78A8AD8AA99B9AAAAB7988AA787B9AC988A9A
col33:   97A889B687997B99AA9898BBAC9A698C9D9AA9C8988998896768AB87ACAB88AAAB978B699A6999C6
col34:   A86A8A776CEBAB99CBB5C99B9A98CABAAAC99879779BA78AAADA8AA97BB98A9886AAA979999A89B9
col35:   98968AA988C9999EB987B89AB5A998CAC69A68D975B7A7BAAA9BA6B88A98BB8AB89799A97BA79779
col36:   73A8D9899B9A8A99999AB999B9B8C899989C987BA9A8BB99989D8AA9A777998B9899BAAA89998897
col37:   9896B799C979B9C9997A9AAA95A7AAAC79ACB999B9B5A89CB6BC9989CCB8977AA8C987D7A88698BB
col38:   7A88A7B97B8C9C89999C7ABBAA899BC9999BD698A78B9BAA78A6AA8AAA799C99CC9A9AABB99998D8
col39:   9BB9898ACCB698A99A88ABA9CCAA97BBCA997ABBAAA78598DA8ACB9BA9869979AA878AA98D88999A
col40:   98989C8BA997BBA9B7999BBCCBADAEACBCDAB79A9E9BCB8C8AB899C8AB9B99AB9A9B888A9B97B998
col41:   89677AC8ABB99B8AA57AA99A99BBC879AA98A8AA88B9997BC658ABAAA9B8B9B89975AB98969A7969
col42:   B9ABB8C999ABCABABAAAABBB889B9DAC8DACAAC79CA8CBAD99C8ACBCC699CA9788999B7BAAA97CC9
col43:   87BBAAD97CB9CBDBA9998D8DACEC8BE9ACAABC9A9AAC9A8BBA8A9ABB9AB7DA9B8997AA7C7ABCABB9
col44:   A798BD799C9ABABAB989A998EB89AADCB7EBACABBA8DDA9E77C9BBB9DABAA8CBCC7B9E7AA99A8AC9
col45:   AABAA9AAB6BA96C8D899A8AC9BD9BAB98CAB9AAA98887CBD87C98A9AABCCBB89A9BCDCAA9ABBAA8A
col46:   B88B9988B9C9A9CBBB97BCAA9EDCCAC9DAAB8CB87B9888AAACBACADBBBBDCC98B7AEB9B98DCBBA77
col47:   AA77C799B8AB9BAA98BBBAAD9A9CAABABB8AE78ABAAA89B9ACB8B9ABCDA7B9AD8C9C8B9A9B899A97
col48:   BB9AAA9BAB9899CB9BB89BB9BABCDABBACABBDACADBADAB8BBBDAD9A9CB9979A89C7899ACA97CDCB
col49:   BAC5BEDA9ABAC7879A89BBB9BBABBEBBA9BBCCC9B8AC8BACC89BABC9BDAA89BA96D9A9B99ABC98B9
col50:   8CD7CBA88C9ACBABAAB9C8BB99BCD89FCD8DF89998CBCDBA9BDD8A8998A9B8B9A99D8ABABBAD89A9
col51:   A8A8A9898989898B7A98B7999ABC9C996A997B9AA9A8A798A8BB878BABBA68A8A7C889797AA969B9
ROC:     BPix_BpO_SEC3_LYR3_LDR7F_MOD4_ROC15
col00:   38962344876649657637976796A9A7B77799ACBBA68899B7996D689AA9D9999C9C9AB76B7DDBC989
col01:   89986656499578BA865B6BA6689BA757699AA876B889899EC96ACA8AC9969899CF9DEC4BB7A9F9BC
col02:   5446287B7B3B746A37598A96887757957BD99CB8A9AEAAC7CCB9AA8C9C9A6CAC9BCABB9FDFB8D98B
col03:   6867162848A476687A87A887B8C9A8ADAC97AAA9B78DD99B899CC76C8B99CB6ACB9CBC9CCDFBCBCA
col04:   76516497C868A8AB677878A777CB79678EC96C68BBB6B86FBADFB9BBAC88EAE998B8AA9C8C8CEDBA
col05:   72177835873795798B956574CB8AA78699BBC7B7EA9B99EB7B7A88C99BA6AA7AEACBABC999CCAAAD
col06:   7429879689537A9957888768B59C88BAD87ACB79BD9C88BDAA9CA6ACB8AADBCCFA8DFAB8DAAAA9AA
col07:   57618675548588585AA7A9A8AC87A9AA87AAA589797AD96AC8BBAA9ECAA9B8BAEDDCDA99ADDACCA9
col08:   36847618468B7A3556A8875BA49B68A9A6A89877B78CC8868CAA5AC5AC9C9B996AA7BDABE9DAC99E
col09:   634186876B97526A8879ACAC986A88C6C99AC8BDDDAB978CACB29ABDA7CBBBBBC97E98ACFEDDEAB7
col10:   988496969986385695AB96379785A985A87BBBD6BAA9ACBC8BCDB79EB7DA8ACCCCAA6CB6DDB8C7CB
col11:   617434835725596A87871585A6577C8A96877B9BAC98AAC9DBB8AA8AB9AB9CA5DBCAD9B8CA9EA99A
col12:   675966745674866778388795A9C77A84B998997AA99AA8CA9999CA9BAE9BA9ABDBCD9DC68C9A9ABD
col13:   38555A2637355D2985A798AA9A87499957AEACB958C9B57AC9B9BDAC8CCAAB7CCCC7B9CBBAD9BCEC
col14:   2446712766764688559658999AAEAB898AABB4ABCB9AA88AAB9A7B9AAABEB8CB99C9A8CBAB9ED8C9
col15:   234527738384585969C779B88588767768A97788AADC87D7CAAA9BD89AD8A9DEAD9AD8AA9BDA9DF9
col16:   951667678496565786A97989AA89CB94D9C6B88987ABDC99E89AA9BBABC6BDC9FBDCDBBABEBCAD9B
col17:   323548636429B79647982C96A94684686569A79A7769B99CC6D79AAB79BCDACEABABC89AB7B9BAC9
col18:   32446654678478654957A59578682BA86986AAB8C9C9B9EC8AAAB979AABE996AEC98CA9CDDBA9AAB
col19:   25529C526874AA47869DA5C5565ABC5AA79A8A99BD8BAB78B69B898BCE9ADA9C7AAB9EAB7DCECABC
col20:   5779A6454778875B898AB68A6677A59B678A96B77666BB9BB9BAA9ACBDAAA9A5AADA6B6BBADDFDAB
col21:   754657367399764A4667778898BA79B5779779B87898B89AA8E8BB8ABA88AADCB9ADC77BDAADD9CA
col22:   436467958847865544569588A87748955AB89A988A78997AA8579B8CBA967A9CA9EBAB99DA89BB99
col23:   5278754743566576885883897B497598B89A7C889898C576E7B997776AAABECC8C6CAA8BADC99DB9
col24:   24685884675789A6896A8938ABB6699A98F888A987BA99A997DACB9CB9AD8AC9BACBEB9AAAADACB9
col25:   1A45B4782858455586A766788C64797DC9A8979ACBAC98A98A9C8999C8BA9C999AA98ABEBAACBBBA
col26:   78B4B37A488AC998C99B77597B76A689AD9A989BA8AAA99BDBABDBB9ACDBBAD9ACC9A8ABAEEFBDDB
col27:   4A957392A639AA757A9A78BB88BBBE88BB678DCA8A8AABBA79BBCECECBACBFD97989D9ACAEAF8AD9
col28:   3967589883AB587B9775859B7A9CA7C5789CB78B8BA8BD98A8CCD9DAD7BBE85BBC9B9DF9BA89BCEC
col29:   68546487555A7A7986A98A9BAA9D9BB9899ECBBBB5A9CD69EABA8D9BCBB8DBDCBF98BAEC8EEECEAB
col30:   74434B99465A5989976569A7E9CC6DE9BD9AAB98B996AA9BB69998CA9BBBDACABDBCC7D8ECF9CBCE
col31:   434847796876AAA748C89BB797B4D7DBA9BDB888CBEABB89DAED78DAB9FAC8FAACA9DABDBFACFCDA
col32:   777B8759669A678A7A9688BBAAA96A99DBABC6CAC9FADCCFEAAB8CCBBBCFECCBECDFEEBECFDFF9EA
col33:   6487794A8A799C7B779C59B8C99AD6C9AABABDACBACBBA9BEDDBB8DBABBDBABACCCCACDDFDCBCB9B
col34:   7539B9AA9655898987CBAB68C97AACDC9A9A7CCE8FC9D879DBAAAD9CF8AABEDCE9BDCBBAFDACB9CD
col35:   577857494974A996D6D5BADAAAB9A889ABA97B6C9B8AB7B8EA9CDF8AAAEABDEEBABABAEDCFFACBA7
col36:   7798798D78D7699A95A8896D8BDA79A5AAB9C7B6C6BBBE6ABBECCACBA9CCBADDDB7BDE9FFEBE7DDE
col37:   65556B5674776BD673AB5E7C9BAC999A8CBABB8AB7B9EE8B8CBCBE9CCFCAAB9DE89CAFB7B99BEACE
col38:   826677A67778AC9468A6B786BABAB688AAC7AA6AABC99EEBEDEAC9EDAE7ADBBDACBFB8DBBDEDEDBA
col39:   566768367731B96899B8CB78AC98E675BBABD9B7AA7BB9C9AFDBEA9BE9DAACDBC998D9ABCFBEAADA
col40:   78A9DB68365982A6B68AAAC889BA9BB6EAABBDB99B9D7CC9BC8B9EB8AB8CDBCAFCCFACCADDDBBDDD
col41:   6A86988C96B9997959978896BC5B779ACA99ABC8A798AB7CBECC98EA9ABBBACF9BAEEECBCBCDAFFA
col42:   6866993B896789B979BA5987ACACCB788CB9AACC8E8ABBCBDDD8ADAFBA8AFEDC7DDEDBFCD9BFDDBF
col43:   8998988979A9788B7676ACBC969A98AAADABC782CC9CCBBDCDDDA9EAFAADABBBBDAAAFB8EEBDB8CB
col44:   655B4886999B5895C9678ECC9A9BCBFAAAA7A89ACB89ABBBE8EB6DFF9DA9ED9BAFECFCCECEFECBEC
col45:   76579749C8B768B67ABB7B58AE8B86789ACAA8BBDBCAAABAC7A8A79BB9BBCEDEB9BEBD9ABBBEFBBC
col46:   6884657777EC98D9AB8B8889B78B98BBAE89CBC9A99AE9BABBCBBBDBCDCC9AABBCCEBAFBECCCDDCB
col47:   5AA68766899B7794889B878ACA98A99D7CCBA8BCB4EFECCACCBAD9C99AC99D9CFBCAEDC9BBDECBCD
col48:   A6A6A8868B587A7AB7B5899A7A9AC99BA997D9A89ACCCBBBABADAB989BCEC9A999CCCACABBCBEEFA
col49:   87566976A38AB3767BB8A83A797CA97B9A997DBEA69ACABAE8B9A9DA9C9D9AB59B7BBBEAEABFD9DC
col50:   888777787ABCAABBBA5A7AB9A89BAD8697BA98B8AABBB98BDA99888AFCD99FC8DFBDDA9BD9CD7FDC
col51:   656126477884487585687799AA857C8D9568957578AA965769799CCADC8AABA86CB888BABBBB9AA7
