ROC:     BPix_BpI_SEC6_LYR3_LDR17F_MOD4_ROC0
col00:   566436644767619677A5679A9374787973A76B569866B6B83676553796688C66474B6B88C5765666
col01:   57897549595676678ACA7A67A6AB89A994D7E6C79BB789A9C99959966ADC8D77B9A8BC78B99799B8
col02:   639A63B659478DAE8996976BC9B99898BDCCC8B5A9BB9A9886A56A9AB9A897B9C98399A8A9789995
col03:   4A66B79A858694A3993B99AAAB48899B79B967DC95BCB788999BA96AAACAA9AAE78DCB98AAB9AA8B
col04:   93A676633773A7985894A86A69888A9AD867C999A8ACC9ABB7C98A9998CBC76A87E38AA89A778788
col05:   6C848B4B29656A49BB9989A759ADA8D8D785A5686D888B886A8DA688759AA6888869ABBA998C9976
col06:   5A629754995489778378D5A88A5956C6B67D98946C9A98AC8766B777B6D779A7A2A5A58B653A7888
col07:   6C387898797A8889697788D897B8B8A9B9A9AABA88D7699BA99CB7C8797ACC99B959B98DA6CC9B9A
col08:   67758797A18836B5B6C849A98797CB77B688A9BABB99BA4967BA37ADAA9BAB7BACBAAC9AC795A968
col09:   5695977467857773A7989AA9AA939A9899979ACAC9AB98AAAACDBC979B679838B6999886A577AA97
col10:   8868746379A8BA76B96588C889BBBA659788D9AACAA7C7A8998AAC88B8B5B778C678A6C497AA7AAB
col11:   65975964ABB9D7A8D999AB6868A8686A898B798CA897BA7B975AA9789A9A7ACD8C8768CBA9965A88
col12:   672447A66974A4B787B587977A75BA88DB57567C99999BA999547988BBABE9D8AE73A996B7B7BE8B
col13:   6954858678A577AC9B8CB6486969CBBC9B7ACD7A5778C69ACBAACBAB75BADCDB9B8A79B89BD8DBEC
col14:   675645846877A6A87A89D8897B9AD99ACCB8A5CD6A9ACAA94BBB799C3CA989888979877A6A9AACD7
col15:   3776985844C59A674A999C7786C98979AA98BC889B98CB7887BA9CC6B99D799A9B9DAAAA7A5DB987
col16:   3875A79746496966B968BB89B7A9994DB8698B989BB79BBB576B97ACCCE76DDACD9574289498B9A2
col17:   6659946A45C636697A49ABAA899EB477AD8ED7C898D7A9F68A9C67A9FA9769AA8ADABBB973B9AD66
col18:   53666869A7567537A6586A98776B96A9C89887A7948995D86C788A566AA6898656C7DA8669B68AB4
col19:   649477877A78BD8C47C9978B47B9AC8B8BBABBADC9A8AAA8BF9D9EABB8DBBAB9BEBA8CA8C9DD9AB9
col20:   857B8178695565555599C68ABB7BBA78AB99A9CAA96BB87B97965BDA9AE97D78D84BAA86A9B87A75
col21:   6696642588A67955786A879A88DAC89C7798A98BB578DDD9E87ACBC6AA9E73C96DBB8968788BA75B
col22:   98A555563868A8B97691AA9988C996757AA8C89799B9B6A896B8B679A99ABAB98ACA89E99889C588
col23:   7434547759967766784568979A87BB99BA9B9B9C37B987B7BA5998C9BB5AAEB8B6B686AA6C97C9B8
col24:   4A777461AC64797588BA85C57798789CAD7655D9CCC7A973B898AD6A86A9ECD9977899885A8AB8B6
col25:   757677A97676D669D8B6B9B7987BC8988BA96BBBAD99CA9957C798BDE4BABBDCCADCDA78A8BC5B86
col26:   A7A373A699CB8DA898967AB8ACBC9ADD987AAE7BDABBAB79AEACC8A9AEACAABEAB9CBA89B8EBA787
col27:   659587A9559946D98B7637868EC9DBAAD7BBCB98AC7BC766BB99ACA89AC886FCCBACBFBC9A999DAB
col28:   959368B98875A679B96CE96D885BB999C96CC9ACCE6AD5AB78699ACFEBADDB8ECBD8C87CAEF8EAC8
col29:   597588AA6BABA6A7A779CA988B8988CBBC7B9A8C9ACDFDFCAC7DACEBA9AECAAE8B89DA6ABAED8BAA
col30:   18777276887B879DA588987869B9D9EAA79E8C9BA988ABCC7AE79BA9A9DCD7BDCCB799A9ADD8DBC9
col31:   7565C97AA788AAA97CCACBBCCDAD776ADDAB8C6BFCBD8AECD7DCA9CCFDACA7AEEBFAA9CD8FDADAAD
col32:   8699958866A946894BDDBD68885BBB6FDAA8A94E7BFDD6BC8AFC9D8F8BECAA9D9DBACBCCCD9A9BDC
col33:   5698661A6778A8DA9A6CA56EAC8A88BBBD88C88CB96B8EDBAAAAEDEAF88FAADECB9A98D9CEB78BBD
col34:   A97A477A99BB9AB99A97B9ABDCA7CE8BC8BABEBBD8CB7989BB9AECECBACCDBEECDDCDB78BDEAA8AA
col35:   83469998C9A9BAAAA6977BBB8ABACD8CDAC8B9ABA87DDBCAACC7CBB9C8CDBAACCADBBAA9D999BBA6
col36:   B7797A7566A9888886897B89CC89589BCBBCC899A8D56CBCA8999B66DAECA968B5ABACC9B977BBA7
col37:   8926799A8A99B88BB7A77C9A9AB6998A98C6EADCCCBAEDCBF8CBFBBBDE99EABDFD7DCDFBAE99BEA9
col38:   A75689759895887ACAA7AD8D6A79BCB8E69AC9DABF9DBCBABCBADB96BBACB7C998DCACFAACACFE79
col39:   A53A5767B678787F7CD6ABC8AA988999B9AA5DFB79CA8A6BBCAC9B98CDBA8CBECCBBC8C8BBDAC8A6
col40:   764979775599C796A9BBEB78C9897EB9989CA88ACAD9CEA9BCEA7CCCACDABCFEEA9CE9AAADBDECD8
col41:   8A6497587978998897CAC9ABB7C99CBDCBAB8BB7AB9CAEABAAE8DCBCFECBDBCBDBBBAE89C8ADAAFC
col42:   A686A497876A677A9B69A87B8C9EA98B5B8B7A8B9CD9AADAEEDB6DCCBB9CAFDCB9DBE7BBECCDFDB5
col43:   459AB977BAB79999A5A66479ABD99BAAABB97CA99C9BDAD7BCFEBDDBEF99DCDDDC9DCCD9AB8BDBF9
col44:   547787B696A799979B48DD9A98BAD8DDDD99CAD7DB7ADCCC9FEADBBCECCA8DCBF998D7FA9D9ACBD8
col45:   78527887B778B88BBBCB88D99ABD87B69C6AA98AA5D6BBB9BDA7CCEE7B8BCCD9D9CC7DBDCABCDBCC
col46:   63773FA76B78969DA8BCA4DD9CCBBC967DADEBBBA9ACB8C98DCABCABBABCAEE9AC8DFAECADCDCD9D
col47:   78959588958A8CA5BB87C7EDCAB9CC98DBC9CB99E7C9E99C9CEC8CE6AAEDBCDC9BAD989ECAADDCB9
col48:   545AA7688B68D96999A8CBBAC8C978F9EABABA9CDCA8C79DBC9BEEDC9AA8AAADAAAB899A6BCCA9D4
col49:   5417A67BAC9AC869A57CA889BEAB9B9CDABA8A8DE9EBF6CCBA96DBCCF9CB9FF8BABCEEBDECB9ADD9
col50:   858B78C7AA9389ACAA7989A89A97CA57ED6BB8AD999BBBD9BCA9CAEF89B9E7C88BBFEDB7BACACBC9
col51:   837689767865598867A79A585B6A5DC98CB89BBD6988A69788896AB98897BC9BB89AB88794A9AC7A
ROC:     BPix_BpI_SEC6_LYR3_LDR17F_MOD4_ROC1
col00:   95446A668A796659BA7C749266669A6895A69897689AB79666566186224976B7989788495767969A
col01:   753B7754B7BA67C67C578A9856878A9598B877668599A879BB67599A6B6CB9A7A767A78A77668F69
col02:   69985356B8BC78976ADA8997B77979887975885AAA877A5555A6C68998C9677968677B9B994C7956
col03:   B6986659A99398B97576AC6A887969B7BA9789A8757CB8EA96776CBE797987A874C7A7BB73C65A96
col04:   6A64C998B85564B8A699A579798B8BA67B6A87979A97B8A759C8289A5597AAC3C7779B87838999A5
col05:   7778859875976A5857965C9B7A87594877AAA98B8AABBCA5ADA6AB64858777A9973B79CD6687C567
col06:   6639C8C18ABC88CBBCC95BC48AB9DAA7CDC5C9948A9779B6B8995B65C378874897A97986B7845995
col07:   99B9748BB68699875887648BCD5C98CBA8B9C6BC8789F9A98A8D7AA99A9773A6568997A7B7A96A77
col08:   B7BA5B7B749778588D8CC887C679C86789ACA988A7B989AC96A586877AB988376889B858766BA6B7
col09:   5C86D76AC67759874CA975AD98B9A8879BBBC663898BBF8DA7AB99AA729984749888C4B7876877A3
col10:   599738976BA36894B7A88B8BACB7998C94AC686B9B7CD26983D87A6CA9876788BA7C9AB7B9A6BB7B
col11:   84BD95895C6B8987B797876A99C967BA9988C56B796A396B995BAC5688A894A687A87ABB9B77B9B6
col12:   95578767799843B59734BCAC9888AA77AA99978968C66B987B98BCAAC77B9D8A68A7A969B76EAA89
col13:   55885775A935987786AACAA8CC9999967999E88AD8A9B868A79AB879A8E99A889AA6C9A67856C5C9
col14:   6B79A397887956DAA7B9ACC6C8B9B58B4C88A8A8A87AA8B79AF88891696B77D8BCB87B798B78AC89
col15:   5796B786899BA99C47893AA7A8C9BB678958AB6AC96FB778CCC9AA8989C9AA887143A6977786D9B6
col16:   B687A5B4DA95996A8A7C6BBA7699B9A99BA8B7B774A85EDA7A6ACD68B699758A9798BAC7CB9A8869
col17:   776558659A79AB3A6997B99686B9799BB86B7BA6D98B9A7B7AA79BEA9788B5AC98A799696A59AAC5
col18:   9789877BAAB8A67AAC5C99E78994D7B7678756C79CE79AA9BAB88A87978D8877688AC4B7C768CBAB
col19:   6567846699B9BCB8CAB5B78A8989AC8C49CB5AB9DB9C999CBE9ABB6BA88BABCA75B5BA5C8B8777B4
col20:   D65987787A8EBB9ABD4B87B798A7998A4AD86BEAB8999BC86B8AEAA99BBD98A68D898BA5D9BA5ABA
col21:   8779A5758898D6A5C9B99988CEC7B88AC7FC99B6A587796CBA8BB8696B8A777B4CC3A8768AA96CB8
col22:   9A7A8688767686EDCA9CDA6BC65A9CB8AC89DC9AA99E7889C9C9B89AC927E88B76E6D7AA83AB9B86
col23:   69859876AE895C9B88AC6AAAA59E9BA569AB9D9B7C84CABBAACBAC888958E9A48688E65A9A7769C6
col24:   77D9A6B8578CBBB95277989A99997BBA7868CC7A8776D9BB58B667B856A78C94C289A7AA7C89D689
col25:   A8A9A99B5CB7477C89CBA9E87A8AABB99A89AA9BABA77C87B998D8B69596E985889B99A48FABC9B7
col26:   88B8D9B997FAD9C68ABBB9AFAABDCB99DBAADA3AEBACA79AEBEA6DBA96FABAB786C9D889889AAC77
col27:   B88A8C89A9998A88CB95ACB49CA698ACBBCAA8B99BBABBABB9BCBBAD69A9C7AAC7F696C8AC777DB7
col28:   989A7C9ABB9D7B8777AADC9A9BACCDACAABACFABAECDAEDAB8AAEDCDD88B8C8A89ABBB8EA89A97B7
col29:   7B967A9BA5BBB8A9CBA6AAB9DBBBEC9CAD9C6C9A87BAEA967BDBEBCC699B799BC89BA69A7E899BD2
col30:   977596B7AF68CEECC98CABACAABDCCCADBAA997BEBAACCCCAB7A999DADC9A9D9BBA877D866C4A8D9
col31:   998986B99D76CBA9DECB8BAAEEF5FBDAF9DCECBE9EEBBCBABBAAEEE9CBBA99BCDA9B8CEDECAC8BB9
col32:   E57C9A7AA8799E9BCA899CECEBBBC9BCABBCCBD9CCA9BFE79C7A9DD8EDFFB978A7DA9BF8C87DABEC
col33:   699AABCC96A8996CA69EAADBDABCB8FF9B9ABB8BBBDFB9DADECBCED6A7BABEB9EA7ABBBB7ABC7E9B
col34:   EFB99CA9B6CCB9ADFB89CBB9ECCA8DC9CDBDA9B9AC8D99CFECCEB8E8CBF9FBE6EABCA8C9B9ABDECB
col35:   AB5CD5889DCBB9B7BCBBC88BCADCBFADBF4CADB98EABEB7C8ABABA799CBBCD9DDAACBCDA8CAABBB6
col36:   CC9899AD9ABAEAACBCCE8A9BBAC89B7ABFEEBBAACFDADCDABACC9ADA78AFBCAB9AA9BBABD76ACAA9
col37:   8C5AD9D78DA9ACD9B9CBDDDFBBDBAAEFCAFDCACCBCDDE9DDA9ACEAFDCA97D9AA89F8CBBB6DBDC9D5
col38:   BCB8BBB7DD6EFDDBD6D9AFEBAEADFBCABECCBF7AC8EEBBABEDDB9BDEBBAECCACAA9EACEAE9C8EBCA
col39:   A9C9AD8ACECBADCCAADADCD98CAD7B89E9BECBDCEECDBDDBAB99DBC94AC9DBAD8DE95B96AB7A9C7D
col40:   BC7A9CAA7D8BCCBF9BAACCDB8B7BDBDABD9AFFBBDDFBE6CC9ADC78EBDC89CEDCAD8BCCBBCFCDC9CA
col41:   8BCB9CDF7DCD7CAB9EBFADFCDAEDEEEBBFBDBCFCCBBCDEFCCDCDCBFB9CBB97A89BCADB8C97BC9EA9
col42:   A7B76CE9AC9AFAB89BBBBEAFCCBDFB8FEAACBFC9DED6C999A9CEBBB9CAC9BCCAAB9DBB8BA9CCB9BA
col43:   88AC8CBACBA9DBDCB9CD9CA8FACEADABDDCABAEFFCEAEEEBABBDBBFBBCBBBCACBBBACBDFCB9DFDAA
col44:   8BC9A5CF7B8ABEACDADBCFBCDBCBABF98FBCFCFE9DBDCAFEA7FFBC9FB6CBFBAE8D9BEEC8FEABFB9B
col45:   8B7AC6DABC9BAADECAABCBACD8FDCAEEC8BCD9C77BCDDCDCBDCB6ABCB9AEBCCC9D8F9C9CCB5BB8DC
col46:   B94EBC68BC6A7AB8B79BBCE8CCC89CCEBAE7CBCCEAACBCBFD8CC99BEDBEABB7CDBEE6ABDAAE99EBB
col47:   CABDA8ACAC9BBCA8EDFB8DC8FBED9EBACFFFCCABCFACECACCC7AC8ACDAACDCBBBC6C9A8AB8DAB8B6
col48:   E8CF8C88BAAB78AAFFAEDDCE9EEABCEBBCD9EDACCDF9BDF99ACCEBCC9CACDBC7ACF7DCAEADB858A8
col49:   BEDEB6C7CBEBABDCABBDFCCCBBFBACDDBACCB7DC8AB8BEBA9C9BDCAB9EB7CFADDE8BCAD88DAE9BEA
col50:   6996B98BAA9BCAAB9AF8BCB9DFCBCEBCE9B4AA8AB8F89AEEABBAACBFDDC8EB9DD7BFECA8C9BB89C4
col51:   A58C7797A779A9ACC9887B79BCF8DD7867CCED89C69CB59ABA88A5AA69CA7B9A8AC8EB799DF8B6B8
ROC:     BPix_BpI_SEC6_LYR3_LDR17F_MOD4_ROC2
col00:   756456A9147465574A759B788B5696864739666A6946876C5558595C1816669B24566586A9968B52
col01:   8B2267975A97D1846598AAD789988946295B7967759597B4674A74976D96896AB998ADB86CA16997
col02:   4B386586764594696588B587B9BEB9486986B8BA5E9635926CEAD96ACAAA666787A4C7A957717478
col03:   68A37953B4575758AC8BB442756AA56B9BBA8C66384A86AA9A759574684B87A9678995983AA66697
col04:   36689999944848679A9A846AA7573B77AD697679CDA9889867AF559AC688756762AB7999B6556286
col05:   9A1186538F2619678B9ABEBCC7579AA74979676D758A75ABB6BA759A647B59789CD296952B85A6C2
col06:   4573999868625DAB9869EA97B68867C875C697CC796BBD86AB8A8898A97989858865C9C69297BD76
col07:   7A5A836A9858A9999AC8499778CBBA8FBA98C5ACD7996A17EABEC7B988B6465AD5DC3B8A59743745
col08:   857665B9639484EB4598B7797BB6CCA869AAD8B98965298A5CA9A5679B299C88878783C623784898
col09:   7917666A58885C88776B9777DB8F6AE845466A7B8B9A69B5976B96A8588458A47488B49876868675
col10:   7886758651777894C79871A1AC654465BAA7A598DD6A8D6C3595889B89E885E87579655B68E6C788
col11:   32757B678815748B542657A2587B8C639B856499469AB7B9BA973A7A5888A57677A9A6769A9AAC87
col12:   42755881A86C8571898D45855A8B7B7D77AB88ABA978D59767A59A9787C9BD97977E7A8C5845A8A5
col13:   13789772A2A6788669868A87ABB879A7D679CA698BF88788D9499755BD385864A839DA752766B8AA
col14:   345B2754AF774B5738B7A8657E9BAD69D696E779798996B7B67DB9799B48A6B88A8782678C74C937
col15:   7876739A564379654796A4DA979785AA9756496945A66788BA98A99AE9C875B674CE359791869897
col16:   55B86787798B4889AB87698BC89A8B68B767AAA748989B47882975C7A27AECB962A7B7B53862BAA8
col17:   6379958295C278964E78666879A73796796A7867C995D5A6B9C9869BA5826AB4776B637687796984
col18:   41196A355876BA686B67978988CD8175B9D7987983BA99A86889B8D96986A5A5D46769E9756AB8B6
col19:   6548863449859EAA9AD668A887CAB9897BBB68A9F7C95874BDB9B9C9A7A686B8699E7F9A9A9B76B5
col20:   94967C5A678AA9988CA96957A9BC9AA78A979C6A9CA9A97A796A78938993A878496BA8AC7ADB86A9
col21:   419B2A588567477968876A897CA8FA5AB886AB9CB8E3876977B5B89B57AAE8B6A67B749A65797378
col22:   97779895BAA2529677A36CC994BC78C9AB99A78AB9A6A97C8AB776D7E8948696B7A53AB889989894
col23:   5C55888678646A8AB979B57898B9A888B797D98558A8484AA894BC89931BD8849A9D469745A85A75
col24:   995BC776B574967CBE5A7A686AA9BA436CAAB3CA9BC3F999A6BB8BAB7B9995A87BA6A7A269329A74
col25:   A965DBB9B7ABA797B47AB39AB87B99AAA89D999D9C889CCABAAC6CBC6C858BE7AAB9D76B7A84AAC5
col26:   67758769D99678C9AED7C8B5BCB79A77ABCCA9B8D7DCA6A727B84BB8B799BB889B96C6A499B98BA9
col27:   B8798DE9745AA71E79AB858B5E6D75D8A86BC87BBAB76BB577B9E89A8CB9FA7CB4758A9F8B989396
col28:   BC68769B57A9B89BC4BBF8BA9B976A9D9F986CAB59ADBCE6CC8DCAEA988AAABA8C9ABC9A8AE89969
col29:   7857A6979957599AC89B8B9969A7FD8DACCBB6C8E9EDBCD989A69ACAB89C8A8B986AB89D4B86889B
col30:   2788A88CB98A97FC7CAA95F49AB7E989A7DABE999B85C998AABEB9F7EDA7989AA97EDABBB7D5BCC5
col31:   7AB6D9AB8A9BBADD7BBB67BEABADC7DC8FAA5A9A698AADC7DA7789BA9A86D7BC8B9CEF8ACEDCB9CA
col32:   5BE8C4B8B9A8CCDADA988A878C897C7BAC9D86A99FBCCBAEFDAB8A9BAD67ADB39CEDBBCF887A8677
col33:   76AC9ABC98B6677D99CAA7E997AB85ABA7AACA95DD878C99BCAAA8B8D8AB9BCAE8E79CFC89AAB866
col34:   89588688B9D8CC887CF95C899CACACAF5CCC7D8BCBCA9BA68AB99D8DFAB2BDCA7A7BEBE7699CBA8D
col35:   7A857BA8AC7CBBAA978BAAEB77BC99BDEBA7BE8CCCC6CED9ABFF97B86C889BEDB7AC78C89DCB9AC3
col36:   145D78B7A977BB797869B99C6E7DCBB98C9BA9C9E786A6B5EAACBC9A92E6E89DC789AD9D8A978898
col37:   CB9C8BA9AEAAA85B77FDCDFAA96F9DC7D89CEBB7BF9BD6BCDDBEFADBA96BB9EC89D8ABA9CA967969
col38:   9BB94C9BE9CF769A6C8B6E9BC77B9CBD8B69987BD9CBCBD5BCE89AB9CB9D8DBEFBCC9AF8BA988C76
col39:   7AA9AC9AC976DAB96699B9A999AEE9CAC777A67ABB98B9A68DAAA8D8A9B968DF8958E99EBB98EBD4
col40:   9F9B8FABDB7BA9AFACB799AAB7BAAB8F79A7C99D967CABC9CAFAB8BCE9DEAEAA9697DA9FEFE9AA9D
col41:   CB9989AAF876A8FAE6BCA8DAA9FEE9CBBFDADB8E7AEBFBCADB8EBCEADAC9AAD7A9AB89DAB9DD7BD5
col42:   8BB7AACA579899BDFBBCFBCA979AC7BBBCED9C6B7CBAD7F8B6C85D9B9ADAAADE8C99CBC6EBBDAABD
col43:   AAADAD8D8BA8BFDB9597ADDBCE8D78AB979AFDCCEB79EB7BBCDCFBBAFA9CFACDDFB69A98CCA9CE99
col44:   C9ABD8DC4BE7D7EDCBC9E769979BCBADCDDFDEEDCAF9BECB95DE6F8CD9DCCABFADBEBBE9DB9C6FE6
col45:   75D3898BBC8A898AEAB7D85A987BCAB8ACC989BABEC8A9895A6ACA88AA78B99A5967CB7D48CCB998
col46:   7BBA86A5CC5BCABCAE8AF9D9DA47CFAA8AA9CCABA8ACABBEB9CDCEADCAE9AECE6DF88D86888BE9AB
col47:   B77B78B9B95879CBECBAD4C99A88ADF8B9CA7DAA9BDBA8B89BDF9BD8B7AAF9AAE78ECEBAA99CF777
col48:   BAAB588678EDBDB899BFBB8CBDAB6CB75A9DBDAFB8CBAB9DBEACBBAD95D9F9EDCBFABA79C5BC96BA
col49:   E7CF8AAB9657CBACE89D95FBDAAD8ADA5D7BFDDE99A9C5ECEFA9B79FCBDC7B599DCFB8B9A5B8D8B8
col50:   9AB8C98BBACA9A8A8895ACADA8A9B9DD8C7CAD4BADB7FEBAA9DCBADFDC89CD8ACCBB9BD9B6B99AA6
col51:   B873BAB357655955869A889679A78999A995F8A9AB9A388AABA56D39B9C9CBB7B9DAAACA78B547A8
ROC:     BPix_BpI_SEC6_LYR3_LDR17F_MOD4_ROC3
col00:   746365297174769B86736584754948965764A6A689C83624798668AC4637D691896679767A178351
col01:   2793846746AC489499384789568D77577578B7A7336F66A9A897BC82735C6798557766848B99A6A2
col02:   B9566A8547689757BB5738AA87996C747447ACA712A3D577A74A655C69A8597747774766CD7BB814
col03:   564CA485B5BA97A9C986C6B6A5857796A86AA8B8C788669C889B788489A987B79A876AB7588687CA
col04:   5956566A87B75496B7C58A6BA78744A36AA5C98955B5B9A7AAAC85AB987647787748869546448B3A
col05:   6858676A3686943A9648B77B1A999B6889598797579DB8389796817B299B9687275A4C32B8EAACD5
col06:   477A8737875599B653759677696B66574486AB3DA889BA6699A8A77ABA6A8AAB956578D688A5B9B1
col07:   877718937555598659A79956489577987C7A987A86876ADA9CD9E796E6A76B89A788986A6A7CDCB5
col08:   77A62776A79686584E6EBA9576766C4A87669ACAA289B9AB97775B8BA6D87498966AA99A7879AA96
col09:   867817A798298E7A95B498988BAA7997C8BAAA97D98C8BCAB5C869B888A85BAA6B943984A7888A46
col10:   8A588658A7978657BA66BB7A787A76FAE69EAB888C878ABA6BCB96C576999B576C8AEB6777A8B9A9
col11:   A63538957866547769969B97558D9C559977598C7BA9A8C48773C7D648A7BB986747987A79F9C9A3
col12:   67A957876777B678BD9A76779AABD79ACB9997B938CBA6BB57699C668C77C75889CA88745679B857
col13:   75B57574745B76A7856C9A5ABBB85478A6BC8A4B99C93CC8C788A8699A7589C664B6469B46618786
col14:   A458B77948A698669A577989B69B998C79AF9AA7A847784677979BA7ABE37668BAA578BE2879C965
col15:   7376294642542A569BCB8C9D5AB6786C78788B77A7A576887689C878765C8798A876874746B74839
col16:   877AC994A8963BA6AB59737BB79C76A5B79A999D6A857885AA8ED4B8B864AB58A7587B8661B77C73
col17:   8A8774837669A754828749BA2688485A47BC5577C95ABAB8AA6AB976868BA79A89497B589897B978
col18:   6C797C488879696A77766968887A8CD6A965AA73A5958A8899969BC8997987B6A8A55897C9B3A986
col19:   487877AA3A665A684B76C48846DA8D67989ABB8CBAD7B98A96BAABCB9B996EB89A673B81D4B757A7
col20:   595633465898795BC99896AC4385B679898898AA889A68AB759E7877A7A5677898B5585B588B5377
col21:   4A768665875778BAAAA79A77A7AACA88A8986B66ABE48876999AB786A78C279A9647586B5578AA74
col22:   737CA5C8A6944899594689A8779A858ACAA98AD7EAAC799698A4968AB77D7849C9AA876879A99795
col23:   66776B6665778C89B8A6AF85B9CA57756674598789AE8785B6795A7A89767DC6B78579B459A77852
col24:   B3586B477598889B647A587987B75AC98B8BBDAA73859A8B86A9886778AA278C45856BA98879685A
col25:   38A89A84C866948795AB89999B7A9CCDBD95EA6CC9AA98AB9A9AB6DA5E46756AA8D999589883B9A3
col26:   AA679A7967ABA826DBD567879AA7ABC988B9BCBAB7B678DA9B6876F7CAEC7B5A6665B9B555985C7A
col27:   676988987637A77B8B94988A97D9AAAB7CBBA8C7A884ACAB9AAFA9A8989D7995B7B7D6D89DB77AB9
col28:   778568A98777DDCA859AEB888B9C8695DBAF9BBA899CAC78BA496C6B9CA889AAA7D86AA88BB76976
col29:   A828CA7A598A8A884DAE83987A6BAAAD88B7AFB7C6AC9ABAEB9A9AABBCBA659EC6DB948A999CC886
col30:   67A57548C9F6CA69C9A997A98E9CFC9AD98AC9D6BAC9ACED9BCBD4A9ABCB9799CFB6BBA3CA997596
col31:   BC5998BAAB67CC8B6CCA99ACAA9A98ABEABBBBCDBC9697BCCDC97A9EAAB89DA78A8D7BEB8ABD9B97
col32:   AAA99A9B8AE8C8AA8ABAADACA8AAB8DEBB6BC6D9C8C9F87B9B9AE9DC83AC9EBC7AD6C8C9D6BCAA98
col33:   978A78B9AEACCAAAA4BCCBDACAC9CBA8DA788DBAAC8A899CABD86BCCCCFCBACA96AAE96BCABBA699
col34:   9BB8779C8AE7AC8BA8B9AABCCCDBA8BAEC99ACBDCE9BACC77ADABAA97B7BEA7B9B99D9CE9A9AC6C7
col35:   99AC8795F6987B84FDBBB9BBABAA8ABCCE8C87AA9CD98BB6CE6CEADC9CBC9BA9CC7A7D9B5DDAB9A9
col36:   5787A88BAC498BC68DAC8D9A79B7ACA9C597A7D8AAB9B59889B8A998D8EB9A98DCEE8BAEAB9CC879
col37:   C59B67DABBA788DBA8EADB59DCBA8AEAE8CCABABC9C9AED99DB8BAAFDBD9CC5BABDAC9CC8ACAA7ED
col38:   D9B59AE9E959BCDBDCB797C88CADBEAD9EBCDACAAEB9BD99ECBA8DCA4E9CAFBB79F96AACBFDFAEE7
col39:   858B477887D5CBBBCD868ACB9999CCABDB98BABDDC8CBEC96B8CDDEB89DCCBA7F8A8AACAA5CD679B
col40:   88CB6BBDC5B9A9ED8BDCBB9AB88CBC8F99BAAEEA96CEED9DAFDCAAD9DDBBCBDB9FDBBEE98B887BE9
col41:   CBA8ABC99AB9BCDCE88BD9DC9D9CBC9DAA8CDDBEABAC6997BACC9FC4DFC9CC8D9BEA7BBB8FB9CCBC
col42:   ACBD97AC6689CB9C8879BAC8BBBFCBC8B9BCF9DD9ECBA96CABB9B6DA8A7B7CA94CADC766CC8A9BDD
col43:   BAE9C8AE9D98C66AB9B7EBCBFFB9CACEDBDBADC8BF6BCBCCED8BA8EFBB8DF69B9A8AA8BBAECCBCBC
col44:   7B766AADCBE97978CC999D7EFD9ACABC9ABAFCEAEBABB8BC8CCF9CDCBEC8EBBA989FCBAAB68FCEDA
col45:   98A9967BDC88BD9DFA9CB6AABBFDA6DECCF9E76AC9DBCC99FFC9BCCDABFB889C9ACCDCB6B7DEFD68
col46:   9BBCCBD89ADB8DAB9BEAFB8BBFE8C8DAACADCDEB8DBB698FCBAACBCCC8C8DBA5AB9BBDCB9BBAE7BA
col47:   B8ABB57AB7AE7BFA6BDCB798BDAAEB7BACDBEA69A9B9BAC9CBA9B8CBB67B9BABCBAB9ACE99C7A9C8
col48:   89998ABBCDB78AC8DBCABCAAC9DA98BADB99CA8C99DEFB6D9DC9BFFAAEBBCACA9CB999B9A8ABBBFF
col49:   7A8878789BACD99B7AC99DBEBCCDAADCCBBFFACBAF8CCCA7EEEBADBBC9C8EE8AABB7FBBAA799CECC
col50:   6B64BD69A8ABCAFB93EAAABCDEDDC8BBDBCEEC66DFC99EFDD9EE8E7EABCCCCA9CD7BBBBBCCBCA9EC
col51:   67888D834DBC6684686BA89A7E8AB9B7DCAA96B6AD98AAA77B9C979D4A5A79E9ABA7C6A8B9C8A8BA
ROC:     BPix_BpI_SEC6_LYR3_LDR17F_MOD4_ROC4
col00:   7829794699A5B7A64865745588739A48784C6996B83756743A9C778844494738A9138677A684A775
col01:   67579485974B9978A558C5A869A77B6379CB988898B6AC7B7748899758A999A4D6ABA89A76998A68
col02:   9278755A5677AD8678B598C96BB775F375A693866A9A9956ACAA7BA555877875888789587889A697
col03:   1816886679966857988899B57547AB9297BAA7DEA787C7798978E986997787A72AB88A85AA6AFCC7
col04:   8486677A8845689883659AB8A8A89C788AD88AAA678A8568C9C7B8555B7AADA4C7AB78A977A4C659
col05:   179579C37AB959764B73188AC7A57B85996578CCA8D86A28797A865BB85898B8B8AB9685B888A657
col06:   547597C97348386728B487F8767487B5D9BC9CAF7759A659AB98AA8CC84788D5EAC288F589759A86
col07:   99968846869675B569556CA497FB998B7B7BD68BDA4CBA8D99C988D87797795D8BDBB9998A7D7876
col08:   55556882347895557A7998798AC58899A89AB99587AA5788667DA64AAA8AAA8A8C8A7896E8989B57
col09:   A689B8325A8865769A76B47988959A8796B78B9C9959A79AA383A86A8CA8C9989859A8B77A29988B
col10:   3678BA736859A768568547894988A9398C997589A6876A8C9B758A98A969869999C658B588B68677
col11:   7669757949A3347795B7A9986648858A748A98B78A799889B76B888896D6BA7B85AA99B699BA89B6
col12:   774B8564999537928274ABCA877C7789469B797A6B8CC697A79CC58A6CA8DCB58E96967899BAA9BB
col13:   79443771766A988C98859688867BB6D89979A95AD88ABD85C55A8A99C9BA46ACB5BD7AA788BA9999
col14:   A9A9788615969873B87766995A89C7A87AAAA8998A8BB78A5ACB639B888939755AB848A977B389AA
col15:   6554656478737B4878B88796858A7869B457896A96AB73A67C588795558DC896B8875C789759A7B7
col16:   86229475979D857B68A81A89A8866B9B97E7B89CC73C8899ABB68BB998A98A78BB6CB678A669CAE8
col17:   469165544966BA93B935B565A52DF87B7B969AAB34B89AC838A64C9769A75A97379958B78C776569
col18:   468666866696BAC79985898867935A89A9BACB995679AA69899CADB6979AABD1798353A77A8C6E69
col19:   45619657C957962A98ACAD7685BA988E48EB76854B954CBBA8E979C7BD5878A538698A8A8CC99A96
col20:   662622865575167B9BA895B76597697B875C6847CB6C8C5B889BDBAB8BC77A59895ACA8A9C9A767B
col21:   784966744B938766A575795845C9CDAB9BAA6764A6A98ABA88A8D7A39985A4A979A7D978A6A99CDC
col22:   74844975287876A5799C66CA97868C68A65497C69D88A695AB7484E868988B58669969879B7AA66A
col23:   2879317788368683597D66B9857897A956979758B76858A7A89987976C968794569998789A9A9B66
col24:   7278F5763A49857786893874AB6A9B988A9BDC9B4B8855DB977ABD765986983797EB98B778A6C662
col25:   86661A58788666AA968778C897C954A999AB8879C8CA9ACAAA7B8979B5E7AB967AA86D788487A88A
col26:   6572B5A8BB66A7B7FAA7B88A68AAAB584AACA6DCC7DC9BCA7CA9F6B84A78AB99BADA96A5A3BAAAC8
col27:   36569599677786DAFA7C69E69768AB6AB99CC79896986CBD68A9B8A9BADCB8A8A6B6C97864B899F3
col28:   6478A8A473795AEC9B6CC6A98DBBC9E99EC77C98A69AA99A9A6BAA89A8EAA99BFC899DB9CD8CAB99
col29:   8897AC66B37B9B8994395BBAC9999BCBA7FCB38B8A9B4CAAAACDA6B8ACDA6799B8BA8799EBA5AC76
col30:   6B87669A88587D888A7888B9A97AEB788BC8EB8ACC86B4EDCAC5CD9CAD9B96AD99BA6ADBA7B8BAD7
col31:   B8A6C39B7AAB97A8A9C7C47C97AAB57B7BC9DC69AA7E9BD9F899A67EB9DFAC88CBCEBCDAC9ABA788
col32:   5B43765A99A8A59AC9BA7ECC8B6BBBABCAAFCAB88998D9CADBEA8AC7ADB8B7DA8DFF899AB9ADD8B7
col33:   3766A889997398D7B6B968A9AAD9999D9EA8F75A75C9AAC67B8BDB9CEBB8DABBA778CBDA9DCBB8B5
col34:   7899B67CBC9A987CBBBBCA989C9987E9A9DA9AABC7AA94B8BDABF89ACC7B9ABEDBD9C9BDAAC9DCDE
col35:   69CC5A78ACABA695CAD7DBD987D9B9B9BA8AF6BBEACCCCB7A999CB8AB9CCCBCABFDA8ADAFE8A9CAA
col36:   C99A37A9969CB89B58BC6A899A7E86B7DBBACCCDC7BBC96BD86C88EF7C97BBD95B98AA999ABBBBAC
col37:   958AA98AC7697B7C9DAAC9CA87BCCCBCDB659E6D68DBAA79B76A8E8C9BD9BAACBEC9CDAFCB9BDEFB
col38:   A8A5C6C88CD79ABAA7EAAA6A998FCADABCEADDDDCABCDCCE98D8ABB9C9CAA9A9F9CED99F9AB6A9D7
col39:   A88565C897A7B9CC68B4A68ED8ABBEC6BB7A868ADC77C797C6BCD98D8CBDA9A9CA76AAC9B9B9A8C9
col40:   B7AB8CFDBB9AAAB9BC7A996A9A98DA9E7896AC6ABCA8CBB9B6A9CD9DB8AC9ACDCAA7AACCFDAAADAD
col41:   579A95ABABD7BAB8C8FB6D8DB7D9BDF98DAAD9B7DA9CC9C67BBE8BABDBAC9ACCCACCA6FBC7DB9999
col42:   69C8C555878A8C8ADA7EAE9C9C7CBDFC7C78CABABAAB899ACAAEDBE99A488DDBD779A6B9A8E8ABBA
col43:   ABA49967D48A99C8B96DA76CBCC988CCD7BE9BDD9B9DF9CBADDCDAC7C9BDAFA9FA8DCA8BAAA8BAB8
col44:   9472A9A879B8AB8D8ABDE8BE99AB5C97BBEAEAE9CEA9C7B9A58BAAEF79CEFCAAD79CA7C8AB7AABA9
col45:   6644CD78677DCA87ABBFEAC7968ACB88B79BABAABB6BBCCEAABCBAFBAC8CD8CCB8BACFA999ABB9BA
col46:   DBBC9988BE5C59A97BB8ABA9D6BB8AFC9CB6BC97AD8B9DBBEBAB5DB9B89ABBE8A9ABADA9BBA4CECE
col47:   676AAAF9987A7E9BBCBBBB89E9AD8DBA9FFDAF8BDCAAB9ABDDDCA8AAAECEECD7EBDEBBAFD88EBCC9
col48:   A87F6858DEA97D8596C99C8BE9BAC9BA9A9ADAC9BB6DEA9BE7EBCD8EB9BC9DEBB8C8C6BACA9B97ED
col49:   89896BEDC9ABDD5BCD88AAFC9DD79989DFBD9CBBCBEDBCABBACC8DDAE5BCB8695DBD87E999BABDDB
col50:   6E599D7A9B8BBD8ADE8DCC7E4E9BA8C9CCDBA8EFAB7BD97CBEDC8ACD8CB8F8BDCB7BCBBAD899BAAB
col51:   769A67A9798658C6A67A687AC589963BDCABD8D7C68C9D9B88987946AD5EC7AA68AA9AC8889966A8
ROC:     BPix_BpI_SEC6_LYR3_LDR17F_MOD4_ROC5
col00:   A2757889A85A65AA661B73989849576554A57789D8237A78AB646A774A5C7C53869574676949A374
col01:   8C5766A966A8997C9B783ABB79AD98B8EB6878C8BBA78BAFA697AAA7B8588939898C78AAAA37A717
col02:   86A793B38A7A8B3897878873A7A39C78A8BBBC8689AA796ABF7A8A89767A9968A798B7BD668AAA16
col03:   9B779BB9B6877C897ABA89785967B65798D7ACA78865BBA7B59ABAC69BCB8A788B9A8A786A88B9A4
col04:   69864B6388773989655BCCA6A997D7CBA88DBB99977696A976597B87788ABBCBA9597BAA4B888957
col05:   8788B76C67577CE6897A878A88D7AAB889359AB784687B38C676495A68C78A68A79A2A86B7589B91
col06:   E74794796B79774AA8B8789BA7A895B89A6D8C8B59C9A88B988BC899BBC6A696C67AAA74B756C8E3
col07:   A99C93BA8A74A88867B3ABA8B8BA7BA8A777AA7C9CAA88E9B87A9BA799AB9689687AA8B7878A8992
col08:   596867774A9AA698A4C9BC9DACA9C8B848A98683B6AAC69BDBC8789EA9C5A63DA9EABB55547769A6
col09:   567A5764889BA978A899A8BAC86987A8D6BAA899899DACBD7D69A9A43DC87C987968D87A68788B89
col10:   A967868975A496488B3BB9B8EAAAA9975C986A6BDAA4CEB2CBB9589C75BC67799A2B7897D7FCB7CB
col11:   813A5877A67784996797A685A6599CECAC96A97A7DDA78997D4978D9966864884BE8AB45688BA6B3
col12:   66B967B6B8A757B8A985ECA3779DD6567876B7D86AABB8BA9A78B79AB8A996698A68B796899BB785
col13:   662853C99DB6455787BA9ACCB7C84ADABCD6C968A5776A988D8E77BBB8C8B9ADB59A79AACA7B69A9
col14:   785C97CA6BBA7A466A9BBA8779A9A75BC696CD656BABC469BADA6ADBF95A56A8CF7CDA84ABE99AB8
col15:   9B86E8B586A866AB9888889839A758B6A98BC6A9A899CC98A59BAD859796975ACCC9C6B84BABB9B8
col16:   293464ABC7A49DAD897AEA76D7AA9986CC99A37977A9BC8AC874CEB9E59986CA9B87BDC9AAA68A77
col17:   93889A6574A78A6A88AA897BB9964C779786A98A7B9897BA59E2AC99CFDCE999B7999A98A984CDBB
col18:   6886769841758A76776BA9AFB67AF7CC9949AA99CDB9C6B86AAC78984AF6B97C75A99BB7A88795C1
col19:   79685B7BBB7977B7788CA6887999D768CD88AA9B5AA68BA7B777A6B9D757CB7A9B699AA7BAC9ABB3
col20:   2795AA9B585BBC8C6959E97BC899876B64897BA8CDB56A58DAE8AAEA75C8CFC978CA9AA76BA799C8
col21:   868C3B7C69669A9879A599A15ABB8BA5B7888CCA689CBBA7C68B88B9BB98CBACB97D6E9E984586BB
col22:   866A7594A37B98B896B58A7AA9BBB5C748B7EC95899C8BAAC8AAAD789CE779AA8DFB8946B9396994
col23:   86473867959B159857675B868CDB6D946B57B978ABC9A78AEB7AABA9ADBA685B69A87A97A88C9686
col24:   7546885A3B69273B989796A8A5BABDA688C9BEC9CC696C8C6677986AB8B5A9B6AD7C996C878896D4
col25:   4B9AAC7BE68C8B7BAABB8DC9C39996BCF89BB8CEE8CAA8BDC698AB7DB5BC49AB88CCBEC99EC98BD9
col26:   4A9B9686DED7BC8697CBCA88AAD96BAFA8CAAB4A9EB8A976ACACADB8ADB6DDCA989D76CABB8CDB9C
col27:   55788946A9987A5BA7799AF97B9CA79BC9B48DA9ADCBA8BC9CCBB6A85BF9ACABDCBC9B87CC5AA9D6
col28:   6D4A46C9A79796A78A7DCACEAC8DC899BB8BCAFAAB9ADBBE77DDDB9A97CDACBBF7CE9787B9AA56DA
col29:   558899957739D8A6D7C88C67DAEC8B79ACA9CB9C8DFACF79ECB6E9A7C95A7A87CC8B7ED6AA7AA7AC
col30:   5A9654B9C8BA969ACAB7CDCA96E8BAD8DA4E8BED6A9AAAC67B91FAB9DEBB6BDEF76A98CB4D5FA8D6
col31:   998E865798979E7DB897996B97B9ACEBB8DFBCDEBCBABBDB6CB7CACBAA8BCDC8CDACCCA7EA9DCB76
col32:   A5887AAB9987876D9A4BBAAB8687CAE9BC8A7B67DABDAC8C9B9E8DD5D6FCBACBDCED77FDCAEAAC85
col33:   7A98B666CCEB788898AF87D88D9E76B9C9CA7E8EBFDCB89CB6BECEDDA9A78BD7B999CCAEC89A4CC9
col34:   5B7759EC95B8E75D7DAEDC996AADADB6B9CCDC77BCF8CBCCBDB79C9DFCADE598DB96AC5CABDCCA7A
col35:   4BD9976A8C9868C9D879CAF8BADFA88B96D899B88AEA9B96BAD8AA85BADAFBDCAB899ACA79CAC7C8
col36:   86489985A9BACA8C9867887EA9BABC97DDFBABB7ABCCABD79EFB999D79DAFCB9ACE68D746AABDBC6
col37:   CBAA7B5AAEACCB68B8C989DC5E88ADF9ABE9B9D7A8BDFDCDBB89CEC6CDAB95CFCA7ADEB9BAA6E997
col38:   8999ACDCD8A79FACDBAFBCEABA95DBACB5ACBAB79BCCEB9F9BA8E6CB8D9D4DFEAADCA788AAEB8CA5
col39:   8667974768C58D98878AC8EBB9DF6999C5DA69CFC66A876C7A8B9BC6B68B9BEBB86DEBABC9BBB78A
col40:   B6A78B88BA9B8DDA98ABAABC49989A99AAABEDE9ADABA698CBBEBCBEAB9D8A7AB9FC8BD9AEE7DBA8
col41:   7AA875C4B998C7C898AD9AB98A8E9BCEFFFCD8DD99AABDBECB9DB8DACD99A8FFDFE789CEACE8F7BC
col42:   5898D979CC66DAF78AD89BBAF9A9BD8F9FDAAAEFFDACA679A97E9BCDCCFAFB73BCB78DC99E8BB6A6
col43:   3A8D6A7AC9A99FBB9B8E8BABDDD899CB8AB8ECCDAAAAFA7ED9A98DBF8FCBFBDAC77BAECDFCBE79E5
col44:   64B8B8B5B4B6D89AEA9EDAA8C9BBCC9F78BFBADDCCBDCDE8B7EA988BCCBCBC9ADE8EC7B8AD89FFB7
col45:   7C8D6A399BCB95A78AC6A79C7FA5C97D7DCACBADEBA7DAEB9AFAFDFABBCBBD6CDCCEBE8B8B9BE9A8
col46:   7A696BBBB8A776EBCDAA9ABCAFBEECBADDBBB9C9DDAA9DA4EDCCAC9ABBDA5BAC9BBBECEFE5BABD9B
col47:   6868AD8ACA679DCAEDCAE7CB7EE9FBCCCABB6B89DCA9FD9CECE89CBBDBB9ED9C97E79AACD9AEBED8
col48:   8AAC68C97F8AC67BA6AE8AF698EAA58ADBDA6AA9BADACFAAEFBCEABDB9EAB889DBBDCDB8DFB8DBFC
col49:   A9A5ABA7685B4BDB99C6A8BF95A7AD7E9C9C8EBCFF9BCDCCC8FA8D8ACAABDAEFB6AEDADFD9BDCDCB
col50:   898ABF95AB8CB7BC96769EDCBCBDEEFCDEAD9BBCBAF6896DCA8AAAB9BCF9AF887CCC9CDB7F79D99C
col51:   77C9665699B865569864B69B9946B6B5CC958B9F4C78A886AB6B8AE8A996FAA7BFC8CA6C975BAC7A
ROC:     BPix_BpI_SEC6_LYR3_LDR17F_MOD4_ROC6
col00:   6454561962931787746918865869A74C89688995D696677768466876B47599A7778667A687555947
col01:   526894879A96BC78A89C747CA99B69889849CA45CA8A9498AC858778AC8A684A6578C5999778974A
col02:   67639A4A844968849485A9579AB76C695985765EA71587945B9BA8916C6392894C89654B29945793
col03:   7A297698882E6588B1A2957CA6CBA9ABA9D7B6FD9989D67D7CA8B99BF87A89B89B8847E768459966
col04:   1773751B579444ABA77879CA7B78A98B7BA98AAA688CAAB36688C48F9A779C98984967A544648696
col05:   A44766878D88A6B6A9588D6978399B765BB6C6AAEA898C88C5AA947A5C8587448BC9743878678584
col06:   876445B9557228A974566599575959A77589C996B9C898D9C66AB79AB6AA89EF68C7697935B78355
col07:   5657A87799A54839AC49C978B9ACBA765989D8CB8DCD9E96BC789A9C888338A99DC49A5AC9587B59
col08:   71C65D46789B936A657877A97846C6B8D8D843AB37A59A87D7C9E771A58898A868B6A96A97569957
col09:   459766762B578A9BDC68A6A948888A7B6DBE8999BA3975445A9557CB8AA98A679555BC59B89C7DA9
col10:   767C9577BAA5C7799F96885AB734B97669D9FCD7AAA779A5B57697D6D9A538A96765E6D5B4449965
col11:   8595785929AD6966A66B58ABA7CAB48B6E99BB986878B79DA6AAB9B95A2359952B7B97785F886544
col12:   6BA465677AA89565776BD875696496A78789ED9687C74C697996885966893957C856478A87873558
col13:   D53765B8699C77776956B98847B6A5ABBF9ACDB9C77A936C4AA877798ED96A87E5F9A99FB788A458
col14:   82646618A9B489874779854D8BC78A78CAA76EA6A6B689AE9B8C69969AC69AA68896C28C5C6BA957
col15:   7A4655A995C4AB556B8B77BA698CC85B68A79B7C67CBBB9AA878A47B9A5A897692A7153A85C87886
col16:   866985685566C97A799DCA8BA769869796975C99977AA676AAA98A7646C9A8C377578AA69469CDB7
col17:   45764C691A62AE567EA5A9767AA6B777E75B8657375A9CC66CB7C8856B7BBA59B8928A77A6AB6588
col18:   4298766A9389877144682A97A76DB5997B799B979BC8A9747A76B97976B6A8878776424947666DA6
col19:   469CC624693AC8CCBC63A336A99A9B988A48DB587988679DE7DC65D98B8C98AB87675BDB6B663597
col20:   975269683A796668A4684685259D9C678AA5BA997ACB674AB789697A99A96988797598669794666B
col21:   5195989A6642A37556788C88C69AD967C8CA9A7B5B7587AB6777758A4A98A96B898DCEC5A4577597
col22:   679A8A67767945A3AD9976A98A87CD65CADA898179A959AB5489B777B498B6677898872757789A45
col23:   5618395CB7A99B666CA67AA7775B89898DC7538259BC97788945C996B7A446358CB6278B8955C9D2
col24:   63A3AEB66975B88449678A967BCDFB895DB6DA4676A656688B467A6A8BD64985A988A66C86A48569
col25:   C945B84D96BA8A97A477A9ABBA9BBA987AD88A958CDAAB9A77CC8FB6B99DD5A7F655A7487A57BB98
col26:   8587B7A97AFABC7C9AC7A89C9CB89C9BBAC8BBCA999C98BADA5B789B73AAB86BA88ABCE8AB69C9AA
col27:   8A67B9DC979FA43687BA9BC75DAE8AB9BCD679AABBB683A9BBDD9DBADDD977DB9C79EB9CA9375979
col28:   A599785679799A7DCB9A899CA7EFECB9BEB95B9BACABDA9D9ADC9CBBB5BBC967B976BC9FA8CB6DAB
col29:   865D73BCBC6AABF73ABCBDD8DAA9CC8CACDFCE97DDBA9AC9AC67EAD9DAB88BC9D8BA86996F66989B
col30:   958CBBC999B958B7566E9DB6B9E9F75DAB8B887D79BADAFFF8FC9ACC9797DAAAC9AB7AB73CA87B8A
col31:   BAB8DC9B9B9ABC7C8CBBBCBBABCEB63AEDE88CCBA6E7AA6EABB7BBB4CBB8B9ABBA8F9AB99ABACCC6
col32:   9ACB5AA76A769BC8CD8ABB7789AADDFAC797CB8ACF99E7AB88EEBCFACDAB5B9ABEFDDBACDCDDAA7B
col33:   D97959BA9999CCA68989AC9953CBCCEBBCE8A8B6DABDECCE9ACDAFACDC88DFDCA86ABADA7A6A9AF7
col34:   8C97AC8889BED96DC6BDB8799ADCCCFE6ADAC7DDB99CFBCB78C9E97CCAAD998ADBACBCACC9C6CB8A
col35:   BB8AB1ADBD19DA9A6CACEAAB8BBCCDBDBABEBDBFC8CB9BA8BFDFCE6DABE7AA8B8CA7B98B6B9C9D99
col36:   83A6A9BC794A8EA4AB5B8A4C796FB8CADABBBDFDBBFCC9DE8EB7BD9DC6ABF9C9D6CCDFA8C6E779CA
col37:   BC8ADBDBC6B965C99B8C97E68ACC9DDBE79D9AFFAACCEBECCD6AECA6BCAAA8ADB8CAB9A99E98CBC9
col38:   AB6AA88AD4F99D78BADBBCEBC9DBFFD7CABDBDEB8C99CADABDACBDAA9BADCCCB9FEFEFACAA7CAECB
col39:   6ACC6AB578D9ABBB7C5C4AAD7F99DAFBE69BDACBABA9DD9A8CEBBBBA9CA9DECBBBBBAAADADAAAB8B
col40:   8CBBA67FABB5C9BEEABB9D98BD9AA9BBCBCCAEFB9BCADEC6BBBF7C79ACBBFAACCBF8A9C8B8A9DAA8
col41:   989BA8CB7A9DCD8F8C8D9BFDCDFDEDCBE8EEF69ABCCBDBF786BC7AB3DEBC9EEF5C7D99A97B5B9ACB
col42:   AA78BB8BF6B9BACDB4BC8AD98DBCCED8CBA7AE6CBBBA5FD9ABBAAB9ECBBBEA9C9BCA7DEEDABC88B7
col43:   B68C7CBD899BDD9CB7BB79DEF7EDEB5FFBB8CFCBCD7E9CE7DBDCCD9FCCE8FDBEC9D6ADADCBB8EABB
col44:   BCD98787EDD77A49BBA9998F9DF9AFFCF4C89BF6EEDBAC66CA89BB6AAD9ABC9CCEBFFFBCDBBAA996
col45:   AD548CA6CDBE68A988AB8EBAA998ACE8CB9DBE9DADDB8CE8AEBBFFBFC9DFFA9F8FBB897FDEFC99CE
col46:   D4AE689A69DB975AA6B9BDBBAD8CB7C9CBBFABCDBC9B9FBA8CDADD9AAE9BE88E8ECBCCBBE99A7AAA
col47:   B89A9A99DADEFB79979BDA8CDBAD99BC6ACFBDBCCAAC9DABEBAE8CFD88AB99FBAEFCD9A9FCDABB99
col48:   C9AC98CC879CAB86AB6CBBBAF8D8ECF9AE8CA8AEC69CCD76EBAF7FCEFFB8EC9DEB9CDD9F7BA7BCCB
col49:   C68B8C8CAB5A9EDA9BEDF88CDBD88BCBA9BAA9FEC6EAD8AA9BBF9FAC9CFBEABCC6DB7ABAEACFFC9B
col50:   497CE9B58FCCAC9ED988DDBD9AABCDBDCDB9D8CBABAACFB5F8DBCCFDAAB9EDEBACBCCEDABDACDBD8
col51:   B291D6B4A486B87A8998A7857947A79B9C8AADA894969DA8CA89C6A88CEA8ADA9DAD97BF97B6E6B8
ROC:     BPix_BpI_SEC6_LYR3_LDR17F_MOD4_ROC7
col00:   41672464474193467643A7453554559396975B75875675775539533644577389668328A834929BA8
col01:   57A8677666766564A677C965A6897497C66699B855AA7786693889667A777B69C497A67C89C5A979
col02:   63968618585481169693867578689A876875964689B67624A7A687C4A3BAA78689A959998895B7B4
col03:   8598675958B7A54756868C6888BA9B599996646689A4B8277877B88947584998C79A964656946685
col04:   33729877466586567446A847A476D4999A9677989A47A7765988A9A77C859996997B766795985876
col05:   7594375A797576867488796259A9897A76791956B99A9877C96998AA9A88A6A9988A86775D899795
col06:   54537286A6859578A5797A6746994B696666C75889658BAB4AB6A4A8896936977A76666678AC397A
col07:   6BA978968496859796689874886AC886A976B89B88758AF66477987CAA988A98C59869989ABB9A77
col08:   648598766764698D892585898678B62489E988B9B6687489997C5877A6498A74B4C77A7C83A988C4
col09:   A58575638A988578768676A458DABBAAC97887488889A6887F65B76A866B876659A9BC988A97EAB6
col10:   464384878787897676675786A97A85C78A89AB755A8A6975A6A85698B7987977A6A668B86668BB94
col11:   6588856854A98396878B47886A59D98898A98A859B6967739C989A7979897BC4CAAAAC77AA898899
col12:   7449B5397756A67A8B65A96AA998855B898595896D97877899A999BD757A8B9BA6767867D94A9986
col13:   3944588996A6595A6B9A89839AB987ABAAB999B797AA97BDBA6A48686779A9BC7A88CBA9A786BAC6
col14:   377365372775999398A89A4989B87789847988C9B9798579C4B878667A599878ACCA79895A6D8B66
col15:   6366677B46B18A8926997C869A8A8A9AD9B7AB999BCA776CBBC6A56A86A6B78889A958B7849BBBD9
col16:   65B743958685874886C5C9A88AA68BB6DC55CB97B7884D89FA5577A989AC98A9A99595D875B99797
col17:   58758975995668672A899476BACAABB4A969CB6C89D7B85A599597BAE59A7778A4E7B889A56BB872
col18:   4588A393A6477BB967666974A74985A69899D966898A985989A9CC87774BA8C7796465A7B7A78C7B
col19:   5759A47998778A8887576773DB79898C98869A69ABB9BB8699DABCDBB9ABAB87CB9A89AAC8B8CC6A
col20:   46A167587677967558A697A53C8A998C6C77C6989A7796E9AC9799A8A9AA8776A59869B5698A798C
col21:   675A7A778B77C94A8A66A7976AABBD697669598989C7A6AA9B8A898D6CAB7897CA857569A88B99B6
col22:   9686559769B7775979896C8A9A8A69BADD9979A895AD695AC7C9A769C8D9B9ACA78AB8675787C8B9
col23:   8774668683789BAB7C798887C9AB888A88A7C8B88AA97A5A896A7A88BAC9A5A59C888B7889794CA9
col24:   6A945636857765B77666968597BAD8948DD877DBA69CC989ADC98D8A7A6B98B4BA98BA94A5C77A74
col25:   64575A857953668957E979BA8BB8C8A78A87BA87B99F8BB8A8CBACBB67CADDC7AB87D89AC7888969
col26:   699A66948B7A77D9DA7B88BCAD987AB98A7B8AAB89CBADB788DACE98C8C98A8BBFBDA98AC9A78C98
col27:   5713787743988ABA9D7C97ADAB9B78DA877CC8EAEAA987AAC6CAD979BCCDAB9BBA87C8BA9DB88A79
col28:   58A788797C65BA7AE779A89ADDA7BCF8EA89AAAA9896CAABCB8CBBDEBACAFAB8AA9BBDC4DDD78DE8
col29:   79AB8B68A96B6958BB9A99B8AB8DBB9DBADEDAEEBDDECCABD8FB8EA97A88E9CCBC9FCBD9B9DCABB8
col30:   976A6C6BA986C5BC4E897C6B878ACCEADA8CBC99AAAC99BA9B9E9AAB8CDBBBD989BECA8799B58D89
col31:   9C91C789A78A999BABADFBDBAAAACBC9DDA9AD8E9DDCFEDD8BA9CCAB9BBE7DACFFA8ABED8DADE99D
col32:   D8A9AC7AEA4A989A548C8CEABC9C7BADCDCDE997BCE9DB6AACB7FCAABDDDDBFBBA8ACC8ABBCBDCA7
col33:   9556C8ACAAC7BACBA99AA7C87C96B9ACAE9EB8B9CBFABD8AD89DDBDBA9EDFD7BBCBABADAAAABAE9C
col34:   9DA8898A7A8D98DBDDABB9ACABA9B9D7CDEE88BCAFCFCA8C9DC9FCCBABB9C89E6E79CADCEDBED8FA
col35:   BC78B7A5F98BB9CCCA4ADAACDBBACB66EAEEC9BBBCDABCEBFC7CBBA89EFF8DDDBFAABE89DFDC8B9B
col36:   B8A997B4A998A75CAFA7ADB8BDCDCDBDA99CBBE6BF87E99A8BCBA9ACC9DEDB7BADD7AC5ABDABCCA8
col37:   ACA8E9BB98BB8B9CB8ABBADC978FEBADBCACDBFDEDCEDBC9CFBCDEEBA8DDAAF9BAB97D7D9CC5DBFB
col38:   95AB9BD98AD8B99ABDCDCCCCBBCC9ADECEBE9ABFADC8BBCA9BA7DCF9BAACFACAFD9BCDC9CEF8ACAB
col39:   BAA89BAD79BD98C7ACAA7B765ACAAFDEA9EBA86FEAFCDD87BDBE8EB96EBDAABF9CBCCF8BCCBBCDCA
col40:   D987DBBA96ABCA8BADBBDAFCBABDE8FCCF9BACBAD6A9CCEBCBFCCCCDADCAEFDCBCDAECCBFEDD9C8B
col41:   488B9A8B9FE9AB798CFDBCECCCFBBDCADDECEBAEBCBAFDDCB9F9DBBFBBDDFFEEDBAFCEBCDCDECBB9
col42:   A6A9A6BBCA99AEEB9DCBBDAACECC9DCDCCCABCFBFBACDCEDCEBCEABDEEEABDCDAA9BCAEA99C9B7BC
col43:   BB699CCAA99BBACACEFBEA95CBB9BCDCFBD9BCBED7FDCCBABEADEBFBE7EC8EEBDCDF997ACEFDADBB
col44:   7BD9989A9CABCAEACACBF88DAEDCCEDA8DBCCFECDEDADACFABCDBCCAEBFDCECDFE9DCCDDFDAFCA9B
col45:   ACBAD888BB99CD8CCFDEADC97BCECECAEFAACDAB8BCCCC9BDABD9BBCD9EAD8ABCD8FCCEFFA6DEAA6
col46:   CC74BCBCAC9C9BEDAADBAD8EAEAEBC8FBEDF8BA99CDCBECB9ACEDBFFB9CBABE9DEFBEDDBDDDBCAEC
col47:   9AA9D89ABCD68AC99DAC9CAADBCBCBCEF9BDDA9BDDDDFE8DDCCAAEDECCBCDECEEDEF98BCAFCFCF99
col48:   B79BBB87897D6BBDDB98BDDDFCACCADEBEFAECCACEACBB7BBFA8FCBABD88BAAADCBFC87DACDADCEC
col49:   B8BBAAB9CC998DAAC9EAACCBCCCFFDCCFFBDCE9F9EADFCAADCFCDCADDFFBFBAFDCEDCCCCC9DE9AEA
col50:   9DB89996AAE7B9B79ABBEACCFFBB9ABDAEBC99D9DDCCDE7BDFFEDEA8C7CCABCDECBDFBBADDCC8ACA
col51:   746A9A7747A96DB6C6EB77A6B9BBC9B8AC99958A9DA7C9A6BBCCBDDCDFDF7CBCBABCECBB8A99ABA9
ROC:     BPix_BpI_SEC6_LYR3_LDR17F_MOD4_ROC8
col00:   882B458473167469573394C77346463871B89B55A46A536A9A68747B845476718B7A574176587637
col01:   975787989759546796977BA9AD7769D78676795B6CBA63AFC9D76DA4B6977BBB964767377A476B62
col02:   64B356798595256573979A895D7665977DA458969258479A6A7A2A67667686797826966785789471
col03:   785897898815287A7C734586966883B89BB486BA7ABBA69789AAA7A7DCF8969B68A67475745CA488
col04:   45715A4E8B998A989C653737C854B856EB78D66A5A4937A72B79937A8789B9D493589C8977748587
col05:   567798716776715662A4A569C74798D9995B96769B388799B57D87B54DAC7B85E3466A6245C95272
col06:   5438A7A86A91B742548471998B48DAD996DA987948A9A67CE9DFAC59C7A466C6683A4AB758A425A1
col07:   599979C918877B7A7C85698A7CAD78A999D88AA989AFBDA9B9AC798A789BA879C8BB29788977A321
col08:   8295995A7567968B56466889A7C2DA6B6BBA996966869B8AD5485C8DDA6BAAB55889316A3DA84A36
col09:   4678696A888C5686A99A788BEA98698AAAA7BB87A92BAAA97EAA9B64F57B72C669786487896746A8
col10:   C94845B39157863A687518979A779789B6AA8B787989F36859A68661BB99A778989756446A578A56
col11:   8A27937568734426689CB778776B49A979C5B9AEA7B874C769B98B299CBA9A56AC6778DAA958389A
col12:   5816719264954A55B69887A8D87C8A6AA8676E6477DF975BF69689BA79D896754A66366447994351
col13:   5A45466686587779526BD86398A7867B8995BB6AE66867D792E9876B7A5A5AAB8A78763786358843
col14:   8B46575A297748667AC8899A887A8A768BB54664FBBB6D9A6B98C4A6A9B77AB599666747D8AA88A5
col15:   45D5A568953D473CCAD967D1A9B7D68A78B798D819B678C97EA7299BA5A998B67CBA5BA9C3974675
col16:   2626566576723865A58B349869A76AABA995A77A87A59682FB84685C62C8B737E6135549B8467B55
col17:   7A784477A67887769CC73AAC689F7A6D5894B89845786C8F556CA9C8BA866946A8C2141932899587
col18:   1B56B95647B75364A3A65A847584B9A8898855AC5A79E8AA7B69BA77A88AAA5479D4743698557846
col19:   667BA9C86296D6C6799E47BAAC7C6A99884B6BAC76B99D989D767AD4C75799ACB794A66A53958A61
col20:   652546953688674646677D585BB79A2DC776AAF8A4748B77599ACBE65788A768C74687967678B754
col21:   664927474B8BB84858AA69C7CAB59C8887DC9A8B6C777F9C5B265C5A69B9A7669577864594773A93
col22:   A856ABA578584559F76476A9EA888598797A78A9795CA18778668C866A96453A59AB6577777A8A98
col23:   8775659666AA55776B788A78A4765673A9C8ABBB5786BD9A5CA675ACAAB595767873664975878488
col24:   7B47588A7214967545B73848A7A85B4CB9784E8D6668867AA9AD6B9AB7A38A777C6575A45B486536
col25:   7A526A856139899A786876C68BBC99897B96AC7BBAC8CABBB9A9CC839FE87BD5CDA7593786634971
col26:   7AA7B6D89979999945F88AB6779981C7CC798DBCB98FD96BC87DB8CA8BD777C88AB6A87987856969
col27:   A39A7D96488A4A99E58BD99CD84BA9EF96AD7B9767A85D9ECBAB6BFB87F99C5B8BB87D537B955953
col28:   BDD759A6BEC9BBBA788AB859DBBA9F89CDD9BCD7AAABADC89A3CF99D88EACB7377BA8D876EAC3A93
col29:   E78939BABC6BA8EC9AA7BCD9A9FD6BAA8DA5A9BBEFBC9CAFC8978C689DE79D5AAD58B68387888549
col30:   8488543867589BBA4B2EBD988675A98C6AC949AB9D9A96D89A8A9EEACDFCD7668A79C4B6AC766C67
col31:   B5B989A886A8A98FA9D98C88DFFAABDE9F8A8DDBBBECCAD89E8BDBBCFAE9E5AE88897B491C98C9B3
col32:   59948B8339455A88847B9B57CADCAA87A89ED7BC668EAA7ADDFEBF9AB59A7B8756BB99596652A586
col33:   99D79975BB55C856D87C696A5CBCF9BDECDAAA6AEACBB9CAABF6EBCBAEFB9999ECABB5CC4B7B9568
col34:   4DD89AD996BABD7A9BD7BD88BA7C5968CDDFBE8BDBDCFB6BC2A7DCCDCB99C98C895668AAA7D85A95
col35:   9A796EA8B9B9CACDAA769ADD799CEFBCBBDBDCDCBD99ADA5B7AAD7DBAABC4C8DBB3CB3846BA83C97
col36:   6D296E96BBA557D88C9BA9BDCACA5A5EFEFAC8599BDDCEACBFAD49DADB9989597AD98A8D5A5B88AA
col37:   BE96ADC4B5ADC9BBF9C99DCA6CDC9CF978ACFCDBEDEDDAECCDCECDECC99A9ACDADB6AE9DE9477885
col38:   99B77B9BAB7B688A9BCA77B6F7DBBACBBDED998BAFCBF96CAAFC7AA9BFBCDB99AD9D6B67DB8A8CB8
col39:   8BB969DB865D9CD59A9CAACDB8EEE7A6FDBA9D9D9CE8ABACC9A88789ACCD7B99EA884B643987A677
col40:   5B858D7B7D77DCCC6E99ABEB79DBCD8AFBFFCACABF9A48DAABAAA5DDCF9FA697976857969AAB63C9
col41:   8A69BBBBC9C8BA96AC9BE8DEC5B9DD8BE89FBC8A9CDEBEDDAB77F9A5BC8BFCCA9FA8DCB9BA89BAC9
col42:   A76AB9ABBA8D86A9589DBFD97A9EBB9DFD8DDA9BFA97BF7B99D9F8CFABCBB69C99898BD98BA897B7
col43:   8AEEB99ACFC998AF984BDDE7AABFBDDCE8A9EEA7ECBDAFD9BBB5ADCB9BCBAFB7EDDDADDA658BAD56
col44:   D6BFAA5CBA867AB8B98A6ED977CE889AC86B9AB7DBB9CFBF98EA9BB57FBAAA9D9E8C5AE978AAD637
col45:   6A9B8B8CC99DBB9BD9C6779B79CACEAABCDEF6CDADD8C9BCBA8F8CD8BDBB9DC8CBB9575BB78FEBAA
col46:   A9B6CB89873FA997CBC9EABABF7C59C9DC9DBEA7DBCEA989EA8EB6AB6A7E5DBABBB9EAB69C9A6B76
col47:   ADBAD8A69E996F9BBC9BADAFF7FFFDBAF8A6D89BCEC9AD9ACB599CB76A7CC8B8B6BD2EE588BBE899
col48:   B9AFD9569379A7BABDBC9ABBBFB37CAECCDA8DADFBCECD89C7EF8A97995DA77684BD899B999A8984
col49:   FC9C6A586B895AFA5DBBB9F9D99EDDAADEFCDCDBBB7D7ADDD8C6ACBCADD8ABA9AA9C988B7D7BBAB6
col50:   9CD9E9CDE695C49BB6B8D88CAEF6AACC9C9CA76CFFAFCCCBADAFABBAF9BAEC9B96ED69AB979D6AB6
col51:   9B7456BB8BA8B84887CC7A88DB96669B9AA8879FA4C778A9A9AC9D8728DA9B66D6658B7A9A686924
ROC:     BPix_BpI_SEC6_LYR3_LDR17F_MOD4_ROC9
col00:   A6612985748868A5B575573784798B77845A47B477978579A8A8899A69E89AA78A8A9D889A8B9995
col01:   6964D97DA7777A54789BB499C8E6A68DC7C79659BEA95A9A9C89AE69B79BC8EAC6CCC886D999AA5B
col02:   67A75854A8EB76596A7974A988689AA1ACCB7BBCAA8AB86E79A7788998ACC846CC6EBA4936BB7A26
col03:   34BABE879684A887CAA3868C98BB99CAE9986A99BC89785B6E79AA95A68BC788AD5CB9C76786C7A9
col04:   5899687694B872996A6889BD74BCCA85B7A8A38D7B7C898B8BBBEB589AB9B6AABBBFD59AB5BA89A6
col05:   7927766873A79A879487AC6A9676778DCAA6CAAB4B9672CA9D98A9C3AB68FA6B59A679AB7771BA9B
col06:   6A77EC946B8587CC5B999BC8A9BA99A99AD582B96DCC68EB8C7A795A7AD79ECBC9DC77DADB66B889
col07:   515965659A9878D669A9A6867BB99B6C6BB8B95AC7AADA7765DACA7A99D8797C9CBAE78A678C96B7
col08:   267764783A86A855A7B89B89BC98FD894864997A98CBA787C889BBD365AAA8A199A6A7787948B9A6
col09:   31858998698857C8867D887B6B9AAAC8987AC987C9BBBA8B9AEC98B8EBF9BAC89697AB5A8AD8DC88
col10:   9AA36586979BAAB755A79A5788B8797A8D6989ABAAE5FC9979DDB4B44637DEA7CFBAAC8399DDCAB5
col11:   6837962976D7258B877AA9764B8597C97A76B6F8898BB9689CABC9B9B5B9896B58C53B96C76AA845
col12:   658648857495686977789A876A8999AACA79CB3AC85AA86A9DF5778999B64BD98FD36787B6B85999
col13:   823A64574A33589A98D4DA28C598A95B7DAB8BAACBC9D98964DAA896B5DCBA8E2BAABC869A686793
col14:   695A76799C746676589DA7B6A886BC9A69F9AB587BB9B4F3886B8A8799666966D967A87A78C8AA95
col15:   53776A8A872667897ABB9A683A6C6875C9AA75D8DED87ACA97CBAA7C9DA9A6CB7E6A6A5B99AC9C96
col16:   39A8788169A958BC9579AC87C99B99A9A6D8DAC9D7747698DEBA9AAAC85ABCABD7BCD8B583AC9978
col17:   6267857568A863B9A5AA76987969C87BBAB969A9579A89AA5B6D7A86DC59AFF8B7A59AD1789C75AA
col18:   7158C776658824CAB7C8578A6BCA558D899AA96998A8F6A6C36ABCA996D89ABA99B7C9A59CC8A6C3
col19:   796AA459859C636BE79129B87679A7AD9E9DCA9957BA677A5A96CA7A489888A7A9A8A8E93A89AB98
col20:   6646568859873883274A259799BA7CA586B9ADBAB98BC879ABBCA6AAAD5898C8686AA7888A648CA5
col21:   E5664554967784498AA6C71E99988B9A97C5767EB78AB7AB6BB66BBA9C4976A99B9A98477C19C779
col22:   6683971DA8646576799568AAB897CDB9BCDBA778E7598897977AA7ABA54A8A86879867689B994E89
col23:   273374A894984959A745A7B856B9A9BA958BAA798EA698C5D9AAA8A7B5D787C9BAB68A799C686856
col24:   834992596D79795AC977D569DC9B6856CB8966798BC58A97A889895B9CA4868995A76C659B89ABE4
col25:   978164748166D88797979B89A499ACCA9CD758C897A547CA59B57BCA4CA9A98989A748A9C9BF69A9
col26:   8C5967946948A9B6BBACEBB89A3AACB9A995EB86A8D8B9BB5C9BAC8ACAAAEC7C778D96A7BFBA9AA5
col27:   663889889B89C99DC898DEA8AADBBDA8A7B85A7A6B7BA7878BA8B97779BABA7C5D8A98C9B99986B7
col28:   6B48AAA888D659B8A8A9BC9B9E7CDBCBA8BBEAA9C98A6ACABC6AD89CBBB3FA79AB8A7D987CBAB7D7
col29:   898748AC9578558867958598EAC799AE99C69ACBBCB8889BFBD997C986D8DCCA8996BBBC8A7B6AE8
col30:   98975A79AA9A8B9F89D9C5D9D9D9BDD8ADCCBA9ABAE87AEBDAAB87ADC749CC796B9CABCD8987A9F9
col31:   89A85AA978688BB989DC988A8ABC6EDABCAD988BEBBD89B9BCEBD88BAAEA9DA9B5ABBCD7B7BBB5CB
col32:   7A8C8AABE6D1CE89CADBEBBB7ADCC9DAC8DDEBBBBBBCD8BADB79B8ECCDCAACBCC9CCCAE99EC9D899
col33:   57A78BC9C6CBA826EDC9DBFE7FCBD5C9CEA8ABABCDDBDC9BFB7F9AA89A8EC7FBAD88AC6BC99ABBD7
col34:   4994DA798587DBB98BDC8FC9BA98AACE9DCFBCEBBA9CEB57CADCA5CD8CBC9EB9C99E98CDBEABCBEB
col35:   6A8C6F9B688DB9AFD7DB8CBBCCCFBDA9DFBCB8AAFBDFD9EBEBCFDEAABA8DB98BACADBDAC9B967BCE
col36:   58777A889ECA7B9B78CCA9C9CC9AA9AB98FEA9D77C9BDCCECBFCACCAADF87ACEBBACF9DBCBB96AD8
col37:   77A99488A6A5899CA8AD999D6BBCCF8FADCEDADDDAABEE9D8CADABBDF88ED9AB99C9C8CCBABAC9BA
col38:   D9796B589CBAB8ACB6DCDBB6ACBBBADCEBAD9CDADDADABBB7B6BFEDFFEEC9FBBEAACECA5BC89C9CB
col39:   8796999AA77ADB9E7D9B8B987BCCC8AAACAFDC8CAACA9ADB996CCBE9EBAADFF8DABB79BB89C8C997
col40:   BC7A97ADA99BDADF7DDB89DC8CA9CFFCB89BCFCC9FDA9D7BDD9ACCCBACAE8AAE797AEBA896BAF77A
col41:   74D9A6975BCAAB698BDCAA6CB6DD6CEADACFAE9B8E9AABAC96CD9AA8D88CAB84CB898AD9D9E9AD6C
col42:   4597C9AB885BF8D9BBAAABDCBAAAF9CBAD7CFB79AABCCAEAAED8BEDBA7CF69E8DEB5DC98EEABD8C8
col43:   58868EBB9A6BBDADDCB8B989CCEB9CE5E5E7DD7DDDBAFBCA6C7EC9DA8C9AFAAFEBA8ABFCACCBB78A
col44:   9576BCDB9B8BBB99B99F8ABAB6D3DCEEEEAACBEEBBFDFDA7B9EB9B67DCD6DB6BCBA7C875FF998CA5
col45:   A9588DDBDA9BAB7888BAB94AFA7AC69AACAB6A9AAACC9E9BBA99D79AB9C99ADCFACDBCCBCBE8CB9B
col46:   AD7A85B6888C8FC678D6EB8AF5F8BA9EFBA9F9B8CADD598BCBDBB8E5ACBBAB8AAABCCDCB98ABBB9D
col47:   86669A88CFB69859BDB6AD9ECB9DAECBBDBDCB99FD8AB8EECA8DC8E8EBEEC7AEF68A8BCBB888D8AC
col48:   9CB7C66A4CDEACACC75C89ACADF7C89DAF9ACEB9989CC9ADECCBFB78BC7AABC8AB99C89BBB6BC6CB
col49:   7DBB6A989D4685AD4BC5D8CAAA7CCBBDCAEA89EDD7DFD9BAC7DAACBDB9AAB58ECA66BD7ED888AA9B
col50:   BC1BCAA9C8BA9A296867E728BBDBBA5BE8ECFDEDB6DAEA7AFBAA8AACA9C8BCDA5CD6C9BB6D99BACA
col51:   97225662A984869B87A6ABAB656C749A7787999954C86C6C63A986C98AAB586487446E79CD97A87A
ROC:     BPix_BpI_SEC6_LYR3_LDR17F_MOD4_ROC10
col00:   87A3C45578BA76A7697BCD95747BC35667D99252B4AD667A7A87A93CC9BB8499AD4C96527A499499
col01:   6559B7CDA9999319B94A6A856DCA9D5F98A8EA88B99BB6DBA539A97D86644947A8BBE7857ACC7389
col02:   D99AEA366C7836C92A158AA67988BCA82D6A79CBC8759745A7B89BD8B54F7567BC886A454AFA7898
col03:   6658728F7974C6878ADB9FEECAABACBA6C93884897698A64C87AE8A857A6766969748D6A6699B8D3
col04:   264A757C7C67A97975BA5CA6C99BC6BB9B76E9B8D9BDB8C9DAAAF578D3AAA546BBBADCE58AA5A685
col05:   4816C4C8949A95DB98B78A999998A7579C8C6DC9F977976CA8A44D4A7A3BA7A8D78B7D6A5599899B
col06:   58896B7885A78A1CC9BAAA9E76A9A897CAB7B69C9A789AB86B68EECE6999B8AC449889B5ACF69497
col07:   56344CA7666878AA58BB77B6C2964777C8EFAAB8C999A9BBE9C56B9B6B89D79D9897B6D56E669989
col08:   3865B98A968A9547995A4A89DF7E94CB9C7B787DB187A95AD89B35B3BBA688868A3A756CCB887B94
col09:   4965797C87AF7B985DBF4DD7DBB8888D87A9AB5C9AFB6A99BBCDF7FAB996986868CF997BB969A686
col10:   76A689999CAC9CD6C78BAA98A9A4BAAE6BB9987BBF85A9CEB7B9CD8CBC8BA887A8BA88B89C127886
col11:   296B3A786977BB578D9685A86925A9857B65A8BCBB789776AA88BFBC99678895788F8A63C657A9C9
col12:   5A76B786A9CB8A9C6B789776BB4A9889F7DABC8CC79AC79899A9BAB5CBBC9968B78D79CAB9776996
col13:   89A6C7C845CC8567C683898849B35AA7DC6BC8EC7778B7887A6AE8A5C879AD88585AD969A6999BBB
col14:   9A1568989889652B66DAB9CCA99A7BF898A99D9779C99979C3275968BB89D556999CA3697C59B35C
col15:   89126278D666C984F86887A899AB9D8C6B7389AADABBC57DC9798A69A6A74B455A9CA796556978E7
col16:   B958787699D6BBF868B7B9CA2468BA9DCED7B9B9B99CAE899DA99ACDEA99ABC98954958CB7889892
col17:   63495B7B5BB47D97B5929CB76C85A9998B9CC689BCAA89CB96598AA985C9A7975A6C787353B7893D
col18:   828C5B5458E274669958CB956CB9B8B6BF9793765D64B47BBBAA888B497C8F766CB99898B8DCAC68
col19:   47528AA18588BA66A4AA78897CE7928BBFD788BCADB8A7687E979B98ACBD86A398A3847CCB9C9954
col20:   D64885F993B89995939BE498788A76B91BA89A6888B2B6CA97B9664C7D9C9C48C6A68E8976C43964
col21:   4AB964E889AD796278599B8A5A66ABAA99C4768ACE9EA9A89AAC8C77BA8E887A1B77963BB67995A4
col22:   4576968646287788959788C87A79BF9DA8CCB9A7D9579AD793B7AB3A5547677E8629869A687C9691
col23:   299B548477A7777A1577558B647A966897887766A48FA686B94C649769994A87855667375B9B686A
col24:   55A77276456739949B7A53A3538B7885988AA9899B998AA9A877CD9AB777A9A9BA46858885975A66
col25:   6969725E888877897686A983A788AE97999B7B9778ABB588A8A98ACAA76799779985D763C53C5569
col26:   DA85B78359E788EC9C9BBA9899BBA7B3BAA55B9AF78996EA9C99B9A3969A66DECBAAAC25E8B98CB6
col27:   3759A698886B9CA7AB578BA6BD69BD6D9E87D89FA9ACDC8C9BDAE978DADBB5A96A5E98A97768BB68
col28:   BC6CE67BA6A6C97BB98AD5CC969B9A8DC878B6AACBCD9BBD6B9D8FAEB7AC87BA8BAC9C5BA7FBB798
col29:   BAD58AB94874A8A87D7C8E998AADF887B8B9BADAD9A9A6AAF5F8557A69BAA6BD7BB9AEB657D659A7
col30:   789987AB5C69E98AAC9AB87FB7AD6A6ACAD869DBB88988A4A8ACBFA9D8AB7CE8C79A6497C2AA6A86
col31:   546C73988C86BBB6EEA958CDEB89CBA89DDDC9E996CCACAF8C89CF4BDA88BA4789566759AFA8A948
col32:   855A6D74B9F59BA69CCEBB8A89DBA7C9BDFA6ACE84DCB8AAD59AB75AE878E7ABABC76A8CBA9BCD2E
col33:   B6AA87B76BC997B4D3F7C78ADB9CABCDBB84CBABD97ADDBAE6ECAABBCB8A98E68B9BB6966CC87895
col34:   4889D3EA9A43EA76A4BE6B8676AABDC68BAC99BF77DCCEAABA99C9A5B7DB7FCC99ABAAAA5C86DCA6
col35:   765887B7A4967BC8ADCCAB8AA9FD4BB77E9BBB7DE9ACAD5EBC9A7BA7A96CAEE9AEC799D56AEB6686
col36:   B7BB8477E7896A49B4CCE8DDDBAFBBB7D9ECA86B9BA9D9EC8AACA997CB976A7BD88D589ABBCA8998
col37:   658BAAC8899BCC87A9689FABABCA9ABCD9CC5B49CCD3C9799A5FC699A5AEABB7CBB86B6CAA9789B9
col38:   37B6E95CCDEAA749ADBD9ACCCAEABB9BACDAB8DEEADBBB9E2B99FFB9A7ABBB85B6B7B8D8E9BFB984
col39:   8856656A9AFAD55AAAC9AB98DBCB6EBBDCFB5B9C8C7AA8BDAB9B98AC7B787989CCBAA9B9DC99D99B
col40:   9CA8CB5AE9587DA9ABCEADC9AC78C87D9FE99ADDDDCCDCDCECBCFC977EA9BBAAA8D668B98AAD8DAC
col41:   B3AADAB9C59B9DB9297CCA9B979BA9BCF9FBF95BED89FB89EA99AD9ABB8FFEFAACFADA9DCCD7BFE6
col42:   C7799BC7A688BCE8A9B9C8DAFBD9BBDADCCFFBCB7DCDDECD96A9BB7BEB9DC6EF8A77F9D98459BCB9
col43:   DC8DD84866BAF89BA7EA8B9DA9D8ACCA8A38E8EAFD5DBBC8B7B8ABCE69DD8BC98A8B88D4AC66DFDA
col44:   A84AD69899A9B65ABC49F8CC6A39AAA8CBCDF9BBE6E8BA9F8DDBD7ABFBD8CBAFDB99DAC9CB2BBA89
col45:   C9698BE6BDBDDA7979C78897D99A5B86A5DB8FCC9AAADD6ABB9D7AABBE6D7BBC69CA368868CD999D
col46:   5B9879AB7CB7B886BEDF9E9DB9BE98E999769D7896BD9BCC7DCBEB96988767D8FB7A7A9A8ED9A6AE
col47:   B449958C69998A75B8AD78BA9FBDF8ADD4C8DC6C4CA998A776FA769BAA9CCD8DA8B857CB98A65BA8
col48:   CBC6949768ABBB975B985797A8EB6B97AAA9DCBDDAA59AD8AAB9AC94E8FA8DAC6ABAADA8DD7C55F7
col49:   358BAC57C667CAE859E887598B7CA9D969AAED6A9B7A98C9668BBABA98E45BA969D6A985C7BDAB96
col50:   758C88EDF6A9A6B7B6B68AB8BA6A647EA7F67F9BACA85DBAADFEEA9BC9DDB6BCE79EE959C9BA68BB
col51:   A2437668866544587167265744B337A87673A9679858B725B94886785898E69456888B5555736896
ROC:     BPix_BpI_SEC6_LYR3_LDR17F_MOD4_ROC11
col00:   54721855283963457866B773854559449B35B8A27962968669B76BA84B69699657A489387675BA82
col01:   52C47786793648778A9BAAB575CA9A75E988BB6739669E99FC9699A7D6666A85AA89C7944D9577A7
col02:   5466B98B8987A968958A84794B57C8B9B77ABB689A68D9B8A89E64BCB7877888B6767743BB79589C
col03:   747462766358A547754498889B88596A888A7B88A64A9987AAACAB79C9989DAAB7BC488583979BC5
col04:   C88C885448863685958998B5858EB87877B947AEAAB7BC8E6999DC97B86ED47794D8C2B6B796A959
col05:   44A3985799B86477656BAB7B59AA99A6CBAAE69C77ACAAA8B7A5B57BAB998B8DB458BCB298A799F5
col06:   77686878948993788858976A568B9CAB979974A797DAC7778AD78A95AAE8E7D778A69ACA9B846C7B
col07:   77992773772596B277B9878A19A69C9D9897EA79B77DDAAB8CC8EA8AC9B9A77B78C94BA5C798B877
col08:   5244761396724A747A6A9AB8869C7B98C99A8AAEA59A8A485A988B99A7C58BBB8A7CA684C7E97976
col09:   43568949B375986A489448A9656B5858A89565B9A98B9CCB5B8CA5C485886AA9AADBB7879989B987
col10:   7766857A8693754695963A973958DBDD76F9AA9AA6CAB8AD9848756A98A999AA77898A9B9968CC92
col11:   1555B96B79585A698949799AA669B97BF987C7999CB82879C99A8898C88B889B6C589A4B9A655586
col12:   877B6768816593556899A88D979BA9567399C5A7CBACB89A77C6B9D97984B8DB878B6C7CCC9B8797
col13:   1A73686778768A5D6967A7BAE9578567D9DA59BB499B8D9F95AAC87D8A7DA8BAA76AB7879B8A8999
col14:   387365527A642A88B76669C9DAAD8878F4B999ADFA5A989B7B88A7798CC687898AB87997897A9979
col15:   5388844468268754866637A6989964669A666776AAC8BBC8B67A9ACDAF78DA89A879A4A967CAB77B
col16:   592656A4697637D7B8B5B7798A87977789B7C75B6D98B9AB87E9CABCC7A5C79999A7779687CA7A7A
col17:   59257656B582A9985786B8C588B6989B936D77898C9969598B97A39ACB7B8A666766A6568D788A13
col18:   6334456754466747454649CA698678B7A53A795BD8CC95578AAA9C88A7799A88656B6487A895AAA3
col19:   B21789645747779787564A9B9B9BA7899EBA84AAD84C4969A88CE78A9998849A5C6684BAA876A698
col20:   627996846696964666B55C3B9AAA87775CB6AE9AB9E7DC57B94BB98CABBF88B7DA666BC79DB798B9
col21:   485665636B467648647A55A4A7AB7C579EA8C768A8ABB898A78BB7897BE887A97AB985B99A75AB79
col22:   4627A347586774758D136543A5C989AA9789B5AC77B98A9C9C62998BDACA99999995487576C89BBB
col23:   762415549A77568A479798868668957B676B486648B7B7A77C976DED7BA8798876771AA68AA9AD78
col24:   8674747244775559585796966966A66497CA78529CE9ABB9B978A277B76AAE87799398B89A757AC8
col25:   964C5374776AB8AA9BA48A78C79847B49B77659CCBA59AA8FBBAA6AA965DA88887A988799A888899
col26:   9286795578437A89C7998DA97D88A7BCBA9B9BD8B978AB97E9A8C57CAA6BC858C5BABA9CA9A996BD
col27:   237636578614B529892A5875DA969896C468DAC9E9AFD67ADA8DC9BBF7EDC89D988CBADD947B97AC
col28:   6555885A78677C7988797AABCB8BAAE78BAA98BAB69788ADDCD9CBC7DB998BD7A76996DF8A9AABB8
col29:   85A36866998AA7B97B9C67B6BDD7ACDC896BB9A9B99BE75BE959EC9B77CB8EABC5DCC9A9A7ACB685
col30:   845477498AABBBA9959E7A5AAA879A9B59879A68D8C999D6DC7CBCFEDDBEACAEA898B7A6A4DD56E9
col31:   57A96775646798958D869AB77A998BBE9C8EC7CAA8D5ACB99F79799A98A8AABCACC7C7787C8ACAB7
col32:   658B96B4986998BA9B9ABAD9C9DD98E6A8EACC9DB8ACD979A987DCCA7BBAB8B6C7E2CCBCB874B799
col33:   C749887B88DEBAA7C5668C87885A998BEF7D99BC696899CCA9CE4DC698B6BB79D5CAC9C7B99C79B7
col34:   48A789784997769BC596D986BCA78CB9ABC5A9BDCDABCBBBAEBFCD69BA9FD7EA7CECAADA7DADEBCA
col35:   937AC4858BA89858B8F6798B38AC6A6A89DB9B68CCABF7EAAC9FC9B9C7ACB8B8AAEA9ECC7FD8C96B
col36:   B1858B67766EB9864BA9AB9A978B5897ACBB8775A8CD8BAB69AECBACADABB8C768BC7CBDBCE9AA68
col37:   659585886B84748ABC9C2B97A866C9CBCB9DCACDBFCEDEEDCDDBDACBE9AAACAC9BA8C9A9C6CAD7DA
col38:   BBA17A48CBAB696C6DB896DBBAA7AA6AC7AAE9C87CCDC6ACE8EC7D8FB9E6DFCBAAF8CC79DCAED9BA
col39:   54717A88549566DB7BB898CAB99CA48BD8BCB9C677B99ABA7CD98ACA7864A7E7B8A8C9C9C88DBBC7
col40:   799A7A98946CA86C9A8D6A8998CCBA686BD8A6C9FEABDD8CF6FDDBFFC8AADABDEBB98AEB7DEEB8C8
col41:   B77658C89859969ECD8CCBC9E6AA89C8BBBABA8DADBABACA6EDECDFB7E998B8EEACAABDC88E7EFE7
col42:   3578B98A68B8B8A999C978AA88AB6CCA99689B8DE998BC4BCBBAAEABCA9EA69ABFCB788BA99999CA
col43:   46597987AAB96B9BB9CA896C6BF8CBC8DAA6A7BB9BEBF6BC9C8ACECBDCDAF9AACABDCDCA9CAAC8B9
col44:   61A9878887A9B7BC9B78CABEAAA5ABCDAA9FB8FBB9FFA8B7898BECBEDABEFC9CECBBBBCCB9DBC7BA
col45:   A476769467895686AA885D92CAEACAC869AC9E97AAA9BF8D68B6AABBCCD869DA9F9A99BBBBC8BC74
col46:   A52CBA7E8AA568BA9EA8C7A999DBCBCE7AD8BCEA96BA9CC7BBFD8DA997DBB6CFACCCA8DB9D8CCEEA
col47:   77A659787BA7E6AF7A398A76A99BEABB58BACB9BAFC9B99FDDCBBDBDB9DEA9BC9F89ABBD796BEDFC
col48:   75A6A9AC5BEBB9CAB879999A87BA88BDC9CBABC8DBBD98DDD8DAAC8B99BDD683BDF7CBB9ABDCDCAC
col49:   A879A75CC5787978C8BA9BB9DCB89B84B9BBBEBBABD79DB9EBEDD7BBDC9AF7CED9AFC9EACC9DCC77
col50:   9BA3989796876B6869A7A7BDE79BBC9BDB7CBDA96AB7ADEB8BF7A99CCFDCFEFDDDC8EEABBAECFCEC
col51:   6958886456469A7AA8B65257B97893AAA29B8AA89B668AA6A9949B9B9E8BBCB946B789D4A5A9D1DA
ROC:     BPix_BpI_SEC6_LYR3_LDR17F_MOD4_ROC12
col00:   436B43479572A79744A6678288555498847546576648353A55D2B56954D771713328689B467A6431
col01:   7A54977CA96655C399ABD9A7747963594676B91558646A38B877E6967A64B9B3797544A3398561A6
col02:   7563819BA8995568C35BC795479859BA8AB7478699795B97798889C7969A4354479338956A575B5A
col03:   465B6C7869B79A5661B6986A898B9A85B4AAAA9887198AA64B77846988722C767878796531976655
col04:   4553597B9747575B6758B9A9AAB27C8A495AA7697367DB6A936CA6A3788AAA98399954496849B986
col05:   58855C67A55667789958BC989AD58BD8AAA998A89976A5A7A8A667AB8666B679776A6664B5639588
col06:   8749C87769C9CCA79B76795985A9C9E776D7BD9995D889489C86579AA7A5667977A5844795353445
col07:   48865A889A9AAA9D88DBA6A9958BB8BC8788CD9B8BE8B8CAB698A9989988CA439A83677897C76676
col08:   C7C779499BCBBDB9C78BA689A989A9789E6999CCA9BB47A69AB6A78676784497674CB895347974A7
col09:   89799977A8978B7B969F977B69BBB47777A9496B69A8799AA85DB9B677FB98B765694CB6C6777AB1
col10:   76E889B7677478D7A587A784BAD9D6A5ABB5A8CFD4AA97D59AA986652B594A68C65348B5D85556C6
col11:   57C9B8497AA6695975D67CE665EBBA6D9C97DCDAA7BAC585967A88976AA653985CC6675825469926
col12:   C4695898B7778C87A9A8B79EB9BCBACDDBCEBADADCDC9AD77AB59B83B86D53667775569A557698A3
col13:   8785AAABA7C9B9B45DCA8AC69C8A9C774AAC89CAA97AACCD9A8A9B458897BB774A7857A347538656
col14:   7BB8AC77BA95878967588DA9AAC9CBB9979BABA9BA9AA489A695C87726A89679877588B7AA727451
col15:   57985949556B96B9984797B9767BD979C99A88299A8CAAA9C67599557792CC617695559479A69586
col16:   968C8498EA78B99C98C9ACA6C669A7AAD6C6B87A7A7A579CA78599B57ABCA8B75975585C5A967B64
col17:   67397B8959AA48B6BBE958B882BAF688ABB9CC956D99D78A8B5A267A667C4577B5C8664668A57254
col18:   569816694797847879B74AA888E7B699C6B8C9A8868A777B65C77A7995AA9B8866848592216B9A83
col19:   96B7B9D8866C895E5874D986D4DB3B48C9C976A659ABA7DD976ADAD9B7CC978A84A7879199379786
col20:   C7B698B4877A9843C77A97976A5957ACA3A78AB874A6B8B29AAAD9987A77B8884586988865D744A1
col21:   38D765ABB876C6D7A8B975696879CAA84C9697499B779EDAA6A9A589B674AB748783C94367688964
col22:   778989958963778389EB8889A5DB56C79FAB59DCCA9CB88B4D8BBAD8744CDCB9864A377847748589
col23:   A779A669989586BC978CA96B87A68B9CD997D9A7B77688B5CC9884A9C9A695A8A65A74AA9C65A666
col24:   6897C475A586BCA876B8A5CB9AAD688A556CCBA69A68B766B8B7BB89818BBB8BA75B3B62A5A81645
col25:   B96B5B8B6A474A88ECDC9DACADC889D897A7ADA7DBB79BA956BD9CA9ACA69BD8C79899C9B5968857
col26:   7959EC68C9E9A6A89AAACAFC977DCEBFB9AED9BA9C7ABC8BCCBBB9AA8C9BFA888889BA9867ECFFAA
col27:   595A8FAE858A48AD6B8D9BD9EBDBD8BBA7C969BBC7BB9F5B9BDB769ADBCAA8B9ABBD829866E16BA5
col28:   898AC7DBACAAD6B7CBAA8DBEB96CDBB8FE9DD9EDF9CDBBA9898BCFB79CFBEB6D699988BA995889B5
col29:   B87DF8B8B899FACECCEAFAEDE7CBAA9ADDBCEBD9CAA8AE9BB77AACF97AFCDAADD8C6DF9D18AC9676
col30:   9DA978B5639BAAFAA7AA8ACDBBCDBECABDBCBC9E9798B476A9AD8BBB8A7AC798946697C57BBA6599
col31:   8684C79896AC9ABD8BBAE9CDBAC7BD8CB9FDACB9BA9CC8CDF8C9CDBAD9DABB999CABA4983884A996
col32:   CAA7ADC9AA6ACC64CCEDBBADBE9CEE8D8FEC9CA9B9F9BC795BAC899BCBED9BB5C8AB9A6AAB9B9AB6
col33:   9C5B69A698B885EBBA5CCEA7A9BEFAB9EF99BBBADCC6A6AA699DCADD7AB8BCC6DB7888AB89789A7B
col34:   8396A8789B6BD667DBEBBC7ABECBD7FAECACFBE998A96AA6BABFE99DB99CB6A78989B76DB7A8D7A7
col35:   BC8888A9AC91968EA9CBBAE9EEFB9BCDEBDA9AB7988ECBDDCF88EECACDCFCDBBC9B8ABC9BA9BAC9B
col36:   A968DAB79C796D8D9A87BACEBAAADDA8BD9ACBCCB8DBB89CCBBEDAAED77AAB8AAEAAFC89BBC5A588
col37:   9A98B99A9C89BBAEAAB9F9EBABAFBBBBCAEC7B8E88E89A8CA9B7D9BCB78B8BCED788ECAC91659BA7
col38:   6AA6C46B7949DEA99CEDDABCBDDCBDCAA8ACBCBCD9FBBA9CBDBBDBE9B8F8BB86C9A9AACC7ACFBD7B
col39:   4589DD79AC76699897AE7B8B7CDC8BE9AAAECDB48CCC9AB68DCEDFADEBA6BB79A9A88C97977BD887
col40:   DB7DB97A6596998B5A8F9ECFECA9A9CB9E999BBAABC8EBAABCCBDEB7DECCFCCFEBA99AC7988A7947
col41:   BD97B978C74AD7DFB8ABB9CABA8CA996AF9CF88EB8ECDAD9AEFBBEAFAF9BC98AA98AD79C88AC9BE9
col42:   B9986895B96CCFA8ABC9A9BFAABB677E578ABCADACFA898EBCD8DCC6B9DE9DACC89A69BE989CFA6A
col43:   DAAE9CC9AB8677CAA9FA79AC8FAACBF4BCDDDDCDDAC86FFFBEBBDEBBCECBA9B799BAAAB8BC98B6AA
col44:   8BC7B69E8A9A696C9BABF5A7BA7D7DAA9BFBABCF7BDDBFFCA9ABDF8CABCCF69AACD5BC8AB9AABEAE
col45:   49CCCA897EEABFCCB9ABB8D89D99FABC86D98DB9FAED88FCCAA8C8CC9ABFC7A6EBE359BD88A98EDA
col46:   A87C6BBCD7FA89AF58D8D9B77D8BBE7BCEFBC7AABD8D9B9FCA9999EC7AC99C68DBB7ACFABF99CB87
col47:   AD9C6BF9CBA99CAAC99EBBFE886D9ADCCED99BBCBBBC998EACCBCCABBAC7D9897BBC8B98ADB9DEA9
col48:   B6CCCCB7D99D898BB9D99DA9BADA9E98B98CD8CDAB79BCA7A9AFEDAD89CCCA799B7E899A395FA98B
col49:   C8ABEA7AFCA78BB7ACFFBEFDBBCCBEBFDA9BCCBEECFF88CEDFACBCD8ADECB98CFB99CB689A9FCD79
col50:   B9DCDD8BBADBDCCCBB6AD9DAC9ABCB96ABBD7FDBCAABDAA9D8DADA6BCDDB7B9ACCBF99E99CD3FCAA
col51:   897CB9AA9779CA7999569C99BA67C5CA8AA57B9CC799BD89A788DB4A7B8799F9A794A6C889A37BA9
ROC:     BPix_BpI_SEC6_LYR3_LDR17F_MOD4_ROC13
col00:   535874878586854379A8867A677666578BA7A587377554B683765985992B35545464794942357497
col01:   779777671885CC675927B9779996AC839A91496699978D7AC79978A563B85AA79977BC87679CB3CA
col02:   796AB7647AC57756A9D975A95866B86859755878C9455BA86785B75776B7578C76BBBA6AB3B4A698
col03:   949667C7B8C67888B984965A2E97A7957AAA748889B889A38A989896C96568A687A76C78C695CBC4
col04:   87A55B549555C8B7589672A9A4AC879978789A487898A76878896AA9AC8A84787A537946D773A583
col05:   8589A798AA698B8769969A978989998A97A85C6A86C779AC6688B578598689A756776585B99787B2
col06:   56658B987776638A697767993A695896B791678B69ABC2979AAC67B4569AB696589B79717B8A5888
col07:   558557A69856D687B6AC8688999B2766857979469C5985888898A78A88C889A86A997AC796A9B767
col08:   675976D8B75B4B9498A8E14956D876AA9B5C796A87996C978869CA5C55A6C49559887855933A6A54
col09:   5468B48689A74799B99D78A999AFAC99AAE58BEAAAB989948EA88975999967C87A98C8A72666C9B8
col10:   8998655AA7635666989B489776A9C778D46B8B8BB6799CC9D97C58BABA47B67AB792A9986249B679
col11:   9B97A685AA67A97BB7B96879C6CD76AB8C476CA4889D6D69965CA98598A7595549C69BAC79668B76
col12:   6B658A5887A8A6998499898A47D98AA46E4956B7BDC8A9797A977A5888AAA8739C885879A7755464
col13:   6745989789B9AA7B8DC6D796A8B888C9C9A9AAC9F79579CDA8B6BAAA7AB989ADABA8A6565B8CABB8
col14:   8737A6789C72B9A7ABC8BACB94C7968688BBAB59ACC898E8969EAA7798A7B867C97996C656968D66
col15:   A566989956B8B5975969DAC598A47C9A8744C68A3989BABDA799D895A9C6BC8655C97767643AA7A7
col16:   35C79BB4368A48597DAB97DAA7CB87989BEA8BA7ABF8DC8A8C9986E7BA45A8B869994CA79978B286
col17:   5555769B8B773B967478B696B7C9878A6C758B8EAB9A9999AAAA8B3A9B46AB98A978BAA689A88555
col18:   71388477678B89A694866BB596A9A9C9F96686D59689B7999A95A67787B8A78CC9481A7AA73859A8
col19:   68B889C269B199C9B34CCF896B88677EC9AAB8D996A88578C9AAA9A8C9B696A3BB5C6BC897B9694A
col20:   937A87A6968A9357797A977589D689F7899AB598B8AB76E87B75E6B85B9674567988A9BD81C58554
col21:   7788A778BB985B5967A948A79B9B683997A9D79A6ABBCC98998E9CB89AD9B7AC7C38ACA98A587557
col22:   A74A736977B894A8B879778688A3BB97AA7A88AAA6B9AA869489AB971B9EAABD9A86A68C96A74CA5
col23:   7467A7A8A4B8BB66A87B8759AAAC68D6D68CBAB9BE4BAA97D8599D5A36B983A6B7C9897566785A56
col24:   A9287A7C8738848988E64C6A9867C497875A7698CA9D9C979B7B6B8C44599CB5778B78B977AB7275
col25:   58A593A997A9C9D97942788A8B97B8B799D794B7ABBA9BB7A7A9A56AB9A3786CB7B997C7789BA878
col26:   689AC87CC9ABA9CBB9CBBD5DBABD8EBCC9CBFA9EAE9DF88798C8CDB6DEAA9BBDB9B6FBABA7BA93A7
col27:   796397889B7BFD8B9A8A7EAA96A9B9DA8FACEDCF7A98B6EB78B7C86825BA8B6C9B6B9EDA8A889A87
col28:   A87AC77DC97677A79AD7BADF89BACA7AB7475AECDCA97ACBC7FABCDABCDBB99AACCA75ABE9897988
col29:   8C268BA7AA69AA65AA8A6898CA8ADCBB9AC8CC7DBBAA6ACBADF9AEDB9C79DB48ADDD8EA95958BBC8
col30:   4756AB88997A4A67CAAECC8ABFD99C67B9AB8BADD788CCABCAB8BC87C58C9AFB9BAB59A798B86787
col31:   7E7B5AA8CFFBEAAB9BBBACDFDED9FB9AD9FCEEC9CFA85B9CBAA68FA9C98DBCAABBAA798BBA8B89A9
col32:   89ABCCB89B88CCAADACCEABACDAAECAACAA9CEC8AC9FEEDDFCCEC6968DCC7CCB9AC9967BE9E9BD9A
col33:   598A9A89C6ACCCABA9EBAB8C8B8FCADDAFCCF9DACA9BEABABEDDC798B9CC8BBADDC8DA997BCBEA89
col34:   CB9879BAEA7DCCC888DBCBBB59BACBBDEC8BEDABCBBCEDBC8DBBCFECABBCA8BCCCBCB889CCB5BA97
col35:   9C85A95C9BD7BCBAD9FCCAB89DBFCBBA8DA9E9EEEACDAECDBBEAF7B8BA89CB89A97CB9ABB6D99DBC
col36:   B797978ABCBABBB9DDCA86BF9DDBBCE7ACB9EE9DBAE97CBBA69ABC8ACAAEACD5ADBD7A89DDD6D9AA
col37:   4DA7ACEAB7A698EBDBF9BBCBB8AC7BCECCAA9ACAAAD9CCADDBCBBDDBA9C9C97AA9E88ACECB9A9FBA
col38:   EB9ADEEF9A9CAEABC997E9FE89DDAFEBDCCBBDC9BBED79ECACD9BBCA7FCCDADCEBCBCE9998CAA9CA
col39:   9AD6CC679EB69CC8A9CAADC9A7DBFCCABF998C6AF7A9CBBB8CEDAA9EC7DACCB999BAABCB89BACDB1
col40:   AA889B99ACAD77DE8B89ADABF99CADC9B9BABFC9AADD9DC8B9ECCF8EBDBCB8EABAB9BDB8999DCA98
col41:   668C9ECCA9EFF9B8B8AABAF9DBCFBECDABFA7EFEDBAFBEBEDCAAF8BB9DDB9DAE8A97CD8C98B9DC87
col42:   84BABDA98B9BB66E8ACDAC98AB86EBAACEBDCBA9F7BA9AEABDDBB88ADB6DCEBCC78CEAACA77EBFAD
col43:   5ADACCC9CDDEDBACACEACBEDE9DDCCCCFAFDCCCFDBFAEBBDBEDEC98B9DCEDB8CE7A68BBAABFC79CF
col44:   A8B89BEDC9AEEBCE9AFBBEDE9ECCFCBABBBCEB8BA8C9DBDEFADCCDF8BAFE9DBBCBBDAD9BBACF6ADA
col45:   5A87CBBC9B9AB97BC8CAD8CCACCBCE8ADFEDB7AC88ECDCABABC97BB99DBDCBACF9D8B9BCB7BD7CB7
col46:   DC88DAA9C9EABCEDCF8CBDEDCBCBBA9BFDFD9D98CC3EDFCCBEFAFCDA9FD76EB9F9ACC7D95CCCF978
col47:   9AA976EBAEBDBABBC9ECFFBB9CFDFAFEBAEC88CCFCACC8CFDFBFDEDBBD65ABEFDFD99DAB8F7BFEC8
col48:   DCCDBE99EB9DBEDCFE9B8ADBB9FCCC9AB9D89BCFFCBDCC9DE9FCEC8796BBDAD96FCABD8B8FCBCB96
col49:   D6C8AABFEBCA87599AACBCABFC9F9B9CDCCCCCCAC9CDFCCADD8DFCDFD698DBDCBFF8CBA89FB9B8BB
col50:   797CC8DD6D88CBBDAEEDABCDDBEEDDEBBACDB7BFED8ABAFEA8FCEEFFBEDDC6AFBB8AEEAEB978E689
col51:   C6CA97AE5788AC9DAB75A8D9A8B9CCA57986C9BB68D7DB97887AACCDA99A9AC6A7AADC88BB5868EB
ROC:     BPix_BpI_SEC6_LYR3_LDR17F_MOD4_ROC14
col00:   678855567A53B9A45377848AA6697364AD86747476886678678666648896894715B5A8984664A74B
col01:   583BC8469F7C7A5D9D5FA799A9679A97ACA96A7CB873BB75C998ADD6A8CB888577E679685A677A66
col02:   A8B7978B34BB69867B79D77789B979BB6A89AA698699CE7776869993CA5D897AAB69B7C88766A675
col03:   524676877898742B6796797B54C6A95B9B9994E8B888999C58B8C9CB545AC988755BB38779B98687
col04:   8698A17965693A9B98AAA988A7A87A87C999988B8A9C8C7869A59ABCA9A69A885979A588A679995C
col05:   4767657149A899845B8DB7A786B69F9B8BB89E95C646AB68C9ABB88577A78775CB54B79756559695
col06:   83896658796B79388BAB878AA7BAABCACB898A78B8BBA4A96A968689A7D6A869CB85B68D6C696486
col07:   4568977A99B779C9BBD6CADB9993BC27776B8398B699B67B89BBA87C9C7B959B9BDBBB43CE67B8A6
col08:   A83798B968BA796A7A9A869A7B7B695DA979A7556688A5679C88BA8987979CA7B9D777C76AA9A457
col09:   A89967597C999679C579B6E75A699889B9DA6956AB8AD8E5BADB976CDA65A6876789678A983B6977
col10:   6586B7769AA48A55C9E4BDAAB8F8599BC89B889779CAC666BA6B7F96AB7A9399CB75A88595B97997
col11:   469755A8AA97947C6B5A7A995868B37B9ACB88A586A7AA999BCB8697887A789654897549668778BA
col12:   736787866B787A8C879A968888869B6697BAA4688E599D585C8D99659AA57789A6685A7544591AB7
col13:   94679A856A678778F9AA886A8C8BCDA7B9B78C896E87A8BCBD89AB9E5A6AE799A9B8A8D6889A8CB7
col14:   7347A4A65C876C85A78A799AE6C98B88999BD88889CCABA8AAA9A7BA8AA89A75586797A8534667AA
col15:   6877A754586AA5868B87767569AA9DBC566B99B99BB77DA6AC668973AB6785C9A6883BA6B8B48896
col16:   579578936599B56977BD6AD7A859AEC777A6CB9AA9FBB4ABB89D997CBCB987A8553A78B7A886BA97
col17:   7937968A583238888687997A4A95B7B96776BA9788DC7997996CC7747B8A87A53977847A86965876
col18:   63D56687586599D87A49867A997B8649AA89A87A88A96B8945A986859B875982A376F9B9B1699645
col19:   6BCA7556A94DA6BCB7E8AAC8B997AB9CA47CB8998BBA7878A8D796B8399858BAA9AB949A69C4A6B9
col20:   66652A83893748B8B779CBCBABC7E988BB59886A8B9A7978879BB9AAA85E7989D9875C7577589848
col21:   A47799C6A756745A776A69688E897AA8589BA7A7BABAAA96CB7877A47995AA467A8C9B7BBAD69979
col22:   747615471867E8A8C9888B586D7C878DBB5D9B9A788F7A6B858865AC76B747B9BB967A4756879976
col23:   8629929A686A7588689A7888CA89A7B898C6ADA8A7789867B7A95657C7A7B9D8A6766C76BAB94A88
col24:   B55A4675877B9A5658C767B6B6866679CAA7DACA67599AB785957A88A789EE8896989783BA4C4977
col25:   95868555989A87896ABA7CCBCCA7677CBB846BAAADAABAD59985C67BB8DD7AA8AC97D6BBA6BADD66
col26:   6579A6928899847CDAACD8C6ABCCAFC587AADE8BD999969A6879B87AAA9AABB7BDC5889888777758
col27:   9769819A891A9B7EBAA78BB9F98A9BAADBAB79B999ACDAA56A9B9A998C9897CADAAFE8A4B6ACCF89
col28:   574498D8ABA599BB78E9A9BBBBB78CDC7CDCBBFEA9DBA9C9DD8C8D99CDA9CFDA769B7BB8AAD986A6
col29:   19D78868868869AA9B9BCC97ABBBBBC4FBAADEBD9AABA7C8DDBB6BBAAB68CC9AD53CAB9A9A88BB97
col30:   7685A98A7B879787995F66A997DCB889C95CB9DB8DAA8C6D8DCA6DAA9AADC99BBDBB9A986997AD67
col31:   874AC97AA8CB48ACAEB9BA88ABC6C89ADBDBBCCDFFDDABDB8A6EBDABBCB99CCAAB6EBCA6AA9B6C97
col32:   ABB9869C6999ADBCA89BAEB9A8BCAA89CA9DB89CB99FBCAAA7FBCDABDCC9FAC86B8ABB5DB6C6DA9D
col33:   9998877B5B8889BC99E579ACADCDCE7BAACCCCB8FB9AFBBADA9BEBBFBFFFEAA9DADB9A8EC9AED9A9
col34:   AAD97BAAAE778A99959CACA6B8FACBA9CE9BBBAAB9AAB9ACCC787BD9AEEAC8DDAACB7CCBAA9CDBA8
col35:   AA84BAF9AC7557CCCDCBD99EC8BBB9D9DEBBCBC8CAFA7CEEA9EEBA7C9BEE79BF68BE9C8DAA6A88CC
col36:   4869948866859A8DA68AAEADAEADADB987BDCD8EEC97B6B79F9CDC6AD9BBA8A98BABACADBA9C7B7A
col37:   35668A86ECACB9C7A98FCAABBB9896DB859DA8A9BAD8C99D9D9CEFCE9BD9CECAD9BBBA9AADB9B69C
col38:   ABA95C8AA8B9966DBD9BAC98AABAFFDB9ECDEC7ECCBCCACEBDC6CDBEDCCAEEBCCCADAF798C5ADCB8
col39:   5658A9CBDAACBC97D977CBBADCBCDC9CEDBAC9C9CBECFACDDA9CBDAEEDCF8C9CDCBACAF69FAA8E7D
col40:   8B7985DAB9E9AB8CC89AABBCF9CBA99CCBDDA9F9CACBCB9DDDBABEE9FCEBBECADFE978FBA8AACD79
col41:   69767BC99789DABABF7F8DC9EBBCCCDDADEABB9DABBACCDBDAECAFCAECFBBCCBCBCABADCBB98DEB6
col42:   8789B987B59899ADCDB99B9AFCB8BAFB89CAED8DC9CF8BDF7AE3CBBF9BCCCBADE7BAB9B9D99FBFFB
col43:   86998CDA7BC88EB9BDF99CCD6E9F8AFDCEBFDBBBCBCACDBAAFBEBCB8CB7BCAC8BBE9A9DB8ADEFABB
col44:   D8BC7CA9AAAB889B8AA98CB8EDDF8DF8CCF8D9DCBDC9E99BADDDBFCAACF8A7DEFCAECDE9F7FAB7BD
col45:   A6BCB8C7BA9AEA59AEADCB9ADA9EBBC9ACCEFF9AC9DDFEAFACBADFD8AAEABCD7BDDACDAABECCB99A
col46:   B8EBA69DA889ACC8EBCCA4EC9BFBD9EACEDFDBDDB9ECDADBECEF8EF9F7CF89DD7BFDBEFCADAEDDDD
col47:   8BA58CACCBB9DBEB8AAFAAC5A9C6CCCCBDCBEDE9EACCDBBCACDBCCBFFDE78CEDEFFBEAB8DCFADBBA
col48:   7997DA6ABACB88BBB8D7CACDCADCEDCDDACC7D9AEFFCDEBBA8BADFA9ACACBBADFACEAE7BDD99AEA9
col49:   C7A779C8C6C9C96B9D87BE9ABACCBDCBBAC7E9CECDEBFF89BCDC9BCBC8FBBCCDDCDACFEDAECCAA9B
col50:   C889A998759C8886BB79BB9BBB8BDAC9BFFAADFBBAFEBABACDAABD99BCDEE9DCCC9DCCCB8ACADDCD
col51:   769645869575A437AA87A6A79CCA8897B88AB94CC9D4CAB7999A8AC7C76A7BD498BBBACAA7CBCCAC
ROC:     BPix_BpI_SEC6_LYR3_LDR17F_MOD4_ROC15
col00:   44563A5456641913768754556952A764A978845859C78A6968B95874398755669E78381756775665
col01:   58486C2A797659A778A654A6B7746565CB899D998779ACAA9AC7AC7B8A777BA5A57AB89A798B7848
col02:   A581296565796A8A676868648B5549A79975BA86B87A89DBD64759779D7887725B89C8AABB579626
col03:   B76686C89BA7AC6A869876377AAB787AF897B9AAAEEC58CABA66B8D9C7899BBA898CB7665A75A646
col04:   479356397788382366596958686BA7AA8DBA797A678988596A7BBA87B7878968868B98A99755BB76
col05:   56517A966A78747697179988B5ACCA58A87988ADACA997BAD7ABA7DA897BB5488898876C7A39A8B9
col06:   4B656553665A6799598B978BAB9868759A89B56979A8796C6A588BB79CB74B9EB7A66B9585739888
col07:   5456A95A946B7C3A778A49787A989AD66A8FACFC6698BB5B98D8BE6B5B979BABD676AA7A7A97AAA9
col08:   937688843496A859A7A96859569AB8BAAA5AB8B8B8BACAC977A7B8E99EC866678C55B986855676D9
col09:   645652898369A87958973975686887B796B9AE5DB6BA78A9899BAB8AD6686AA779B5CA8BCA878944
col10:   67455A8B88887855A78973769B56498A687AAABA7B9A6779AABCA67AAA8AC74C684ADCCA99886795
col11:   78A997B7785A6C885B74686585D78868BA9AADB8896A999B8AC888B87BB9BB66A6A76CC5989778BA
col12:   64354B55A867646A5448A68BA9A79676998D57BAA9AADA9887A79A9A777AB8967A7A8B7B68895684
col13:   A68677895686797B57A686ABAB789B6AE8CADA8CBCAC8EB79C9A978BBB9B8798AAB79698A8689714
col14:   9579A5685777764948A98766786685B9BD6A686CABAA88BAA9945BAC8A88BF54A8AA9879587797A7
col15:   166676954868687B99649CB7999CA88B8B697BAC9D87697A9848AB6ED8789AC5A688596AACA85865
col16:   784397D7A644466B9A66D8EAEAA8DABB9BAA8B8AA97B99848A5B896A9879968C9A5777AAAA5A3996
col17:   A9BB48884878A6A99A85B776CB859CD6B8BBCEAAC87868FDAA79ABACCA878C9AA76658999B699789
col18:   439687868B47764BA786AABA98C686BB96769A76ABBA898987A9AA6BB596B9976B84778896959988
col19:   58A6896596686AAB9AB9A779AB688F98638BA9B9DA6BB8C89C6AB659CBBC9558B3BA76B9B7BC9AB5
col20:   8768883662767A75789BA489A677BCBB8688A4ABABAC8AD86E8AA9779ACD87B9A9779998A78DDB78
col21:   95667B687CB797A87BACA688AB8885678BDB89BFCBADAAADB9BCB7AA69EB77799A69C7A68A7985AB
col22:   95848656A771BB96896C8C9D67A75CA98DE9CA9B85CCCC87A9B8C9987999B88A82965B7886588548
col23:   8B7899886794AA997BAB9A897B98AA88ADBCA9C6D87AB7A98AB88988B5B898A69A46C967A958B658
col24:   759B897678B93B9D9969C7AABBD6BA9AA8DCE6A99BA8D9BAFAAB976ADB5772A968969A4676584872
col25:   A8684377999C5D77B958677B8A9BC6E8C6BAA7AEDBDA8DB6D8EBACD7BB97ABA6999ED68ACA8A7AB2
col26:   88576697E7A779BA98CA8E77B7ABEA5ACAE687ABCC88BD88B88B9CDCACDBDAB6ABBAB99ABBCBBB99
col27:   398B787A89AAB7876AACC78ABAA9C8DDCBCB6B99AACCBACEA979BAFCB7F7BD8B7C9A9A59B6C9B958
col28:   7BB9678A5C9797C8AB7889AC9B8ADBE8BCAD9BDE9D9D9BCEBF4AADDECBAF9A99E7BACC8DCA88677C
col29:   BA69A6B89A8B8A9AB66CF9BA79BB7B77ABA89CCBB9A7AB4CBCABEFCCBA78BBECAAD8A99D6AC39B65
col30:   4478B87B5AA6694C9D9EBC8BCCB988C89CB9EA5C6DA9B99CA8EEE89D9EBCCE87CD8975898A867DAA
col31:   C9ADC9A9876CABA9BB9A95BBBACDCBB7DBDAF8DEAEDB9DABAAD6BDDBFCBDBA97CE89D9BD9BBD4796
col32:   57988A9B5F89D8A7D7ABA9AAC97CACC9CA99DDABCD9E9CEEACABFDC79A9A79665DC5ABB99A8BBAA8
col33:   7779AAB9A998AC7B8A9BC7AAC8AA9CBCDAABCD9CC599DBADBCABA9ABAAEDAAF9CB9BB9D788AB6999
col34:   6A4866AAA99B7E99A7AC6ADBAA6ABABA7B9CCFC9A849CBBCABBEBEBCCEDBECBBA7B8B78DAB9668C9
col35:   ABB5ABCE98AC69BCCDE9BBC9A89CCCAB68EB7CD7DCDBCAFCEADCCDA9A898BBFCABCBCB86AAB8BD68
col36:   798989C5AEC8BC7C7CC8AACADC9BA89AEE89989DD9DEBD79CCCBCCFEBBBAEADCAA7AADB99AA59889
col37:   6598B8A8A97CD79BBCCABB99ACA6BCADDBABD89AECEAAEBCF9BCD9CDBCBEDDA9CAAABA7AAAB9ABA5
col38:   788B8BCAB96D8AB88ABB8999C8B9A9A6CDFEDCECCD9C8DEAEBEB9ADBDDCBC9CAEB8CDA7A5C9BFB97
col39:   65898C789A6B7AA79DEA699BB999CA9BBAC99B9BCD6C6D9FEAEDDADADD79CEDCDA86DA86B9A85B76
col40:   B5BA8E9C6A699C577BD9D7997C8AC8CDADCBDABCB9DDFCDDCC8BADEBEB88ECB59BB8AC8CBB6A6D87
col41:   9D9E8A7D9AC897E88EAABADA9DFADF99ECCDDAB99BEDC9AABEBCABBBFEFECACBBA8CB9BAACB69C78
col42:   CB9D89D89BAAC68ABA7BC8ABDEB8CDC9A7E7A89AACD78FFBCDDBCCDBDCECC9ABA9EA8C78B7B869A6
col43:   B9BA9A8DBCBA85A9DBCCF8DFAA79B9BEBACEDDF98C9FBEDD6ADFCCCB9EAAE9AB8ADC7C7B999DCBB8
col44:   9BB979DBB5AC96989CAA8D9FC7EACDB8AE9CCCCACECDBDBEFDD9BDECDFAAECCDED89EE7E98B69987
col45:   95BC879BAC996BBA99AB7FBBACABCCEA8BBCCCCA8DFEBCABBCBEDA8BCDBDDBBBBAC8BC7D9CBA6EAA
col46:   CC9987DCA989DADC9B78C9CE8AC9CCBDDA9CC8EAD9BB8ECACDDBDBAACDBACFACACBCBAADACCCEB97
col47:   9D99AEBBADBA87CA78DA8C9DBFAAAAD8CDBFFDFCEBDDEEC7DEEEEE8E8DBCBADCDEDACBA9CB9DB7F7
col48:   3A2BA98CBC88E6B9DCBAC9CCE9E9979AB89B878FBC9ACBADECAEDCECEBCD9BBEBD88ACCC798EB59B
col49:   BE9DABBDAB8B79B7CAA9C8ACFECABBD8EA99BAABCCC9DDFDCBECAACCBFAC8DEFB9CD9AEDACDBEAB5
col50:   9AFCA7BBE87CAC98999D7BAABECBCFAB8ED9BAC97BEEB8EE7DCEBCBCBBC8EDD9CDDCCABBEAD8AA84
col51:   A4B7B87988BB98B975A88CBC978977FBC7CEA9998BA9C99D6BD78B8ABF9C8BB7CCBAA79AA8898877
