ROC:           BPix_BpI_SEC1_LYR1_LDR1H_MOD3_ROC4
par0vd: 9.610000
par1vd: 64.400000
par0va: 10.300000
par1va: 65.200000
par0rbia: 14.900000
par1rbia: 1.080000
par0tbia: 4.400000
par1tbia: 0.262000
par2tbia: -0.000166
par0ia: -3.582000
par1ia: 4.023000
par2ia: 0.013410
ROC:           BPix_BpI_SEC1_LYR1_LDR1H_MOD3_ROC5
par0vd: 1.940000
par1vd: 67.600000
par0va: 6.180000
par1va: 67.000000
par0rbia: 10.000000
par1rbia: 1.090000
par0tbia: 4.120000
par1tbia: 0.218000
par2tbia: -0.000075
par0ia: -9.139000
par1ia: 4.785000
par2ia: 0.012000
ROC:           BPix_BpI_SEC1_LYR1_LDR1H_MOD3_ROC6
par0vd: -1.190000
par1vd: 66.400000
par0va: 5.070000
par1va: 65.600000
par0rbia: 9.660000
par1rbia: 1.040000
par0tbia: 4.390000
par1tbia: 0.272000
par2tbia: -0.000166
par0ia: -2.819000
par1ia: 3.321000
par2ia: 0.017920
ROC:           BPix_BpI_SEC1_LYR1_LDR1H_MOD3_ROC7
par0vd: -2.760000
par1vd: 65.100000
par0va: 3.930000
par1va: 63.500000
par0rbia: 12.500000
par1rbia: 1.110000
par0tbia: 4.400000
par1tbia: 0.294000
par2tbia: -0.000194
par0ia: -5.005000
par1ia: 3.702000
par2ia: 0.010730
ROC:           BPix_BpI_SEC1_LYR1_LDR1H_MOD3_ROC8
par0vd: 2.620000
par1vd: 61.500000
par0va: 11.600000
par1va: 57.900000
par0rbia: 13.400000
par1rbia: 1.090000
par0tbia: 4.390000
par1tbia: 0.272000
par2tbia: -0.000166
par0ia: -4.254000
par1ia: 3.882000
par2ia: 0.012060
ROC:           BPix_BpI_SEC1_LYR1_LDR1H_MOD3_ROC9
par0vd: -1.220000
par1vd: 68.600000
par0va: 5.510000
par1va: 66.900000
par0rbia: 14.300000
par1rbia: 1.100000
par0tbia: 4.390000
par1tbia: 0.272000
par2tbia: -0.000166
par0ia: -6.832000
par1ia: 4.225000
par2ia: 0.007635
ROC:           BPix_BpI_SEC1_LYR1_LDR1H_MOD3_ROC10
par0vd: -0.432000
par1vd: 61.700000
par0va: 2.710000
par1va: 61.900000
par0rbia: 16.400000
par1rbia: 1.090000
par0tbia: 4.310000
par1tbia: 0.276000
par2tbia: -0.000171
par0ia: -4.258000
par1ia: 4.158000
par2ia: 0.006964
ROC:           BPix_BpI_SEC1_LYR1_LDR1H_MOD3_ROC11
par0vd: 7.720000
par1vd: 66.400000
par0va: 12.000000
par1va: 65.300000
par0rbia: 16.500000
par1rbia: 1.090000
par0tbia: 3.950000
par1tbia: 0.303000
par2tbia: -0.000252
par0ia: 2.210000
par1ia: 3.407000
par2ia: 0.015260
