ROC:           BPix_BmI_SEC3_LYR4_LDR10F_MOD3_ROC0
par0vd: -0.869000
par1vd: 65.000000
par0va: -1.660000
par1va: 65.200000
par0rbia: 14.200000
par1rbia: 1.070000
par0tbia: 4.160000
par1tbia: 0.265000
par2tbia: -0.000257
par0ia: 1.090000
par1ia: 3.391000
par2ia: 0.031620
ROC:           BPix_BmI_SEC3_LYR4_LDR10F_MOD3_ROC1
par0vd: 3.550000
par1vd: 63.400000
par0va: -2.140000
par1va: 65.000000
par0rbia: 12.200000
par1rbia: 1.080000
par0tbia: 4.160000
par1tbia: 0.264000
par2tbia: -0.000247
par0ia: -0.655000
par1ia: 3.402000
par2ia: 0.031170
ROC:           BPix_BmI_SEC3_LYR4_LDR10F_MOD3_ROC2
par0vd: 7.970000
par1vd: 58.800000
par0va: 1.150000
par1va: 60.800000
par0rbia: 16.300000
par1rbia: 1.090000
par0tbia: 3.950000
par1tbia: 0.288000
par2tbia: -0.000276
par0ia: 1.260000
par1ia: 3.511000
par2ia: 0.021250
ROC:           BPix_BmI_SEC3_LYR4_LDR10F_MOD3_ROC3
par0vd: -2.810000
par1vd: 65.500000
par0va: -5.480000
par1va: 67.000000
par0rbia: 12.700000
par1rbia: 1.050000
par0tbia: 3.760000
par1tbia: 0.262000
par2tbia: -0.000252
par0ia: 3.520000
par1ia: 3.141000
par2ia: 0.035960
ROC:           BPix_BmI_SEC3_LYR4_LDR10F_MOD3_ROC4
par0vd: -5.200000
par1vd: 62.200000
par0va: -4.550000
par1va: 61.600000
par0rbia: 11.100000
par1rbia: 1.040000
par0tbia: 3.860000
par1tbia: 0.246000
par2tbia: -0.000223
par0ia: -0.282500
par1ia: 3.453000
par2ia: 0.035450
ROC:           BPix_BmI_SEC3_LYR4_LDR10F_MOD3_ROC5
par0vd: -5.350000
par1vd: 61.500000
par0va: -5.470000
par1va: 61.800000
par0rbia: 12.200000
par1rbia: 1.020000
par0tbia: 4.050000
par1tbia: 0.248000
par2tbia: -0.000213
par0ia: -0.233600
par1ia: 3.446000
par2ia: 0.030420
ROC:           BPix_BmI_SEC3_LYR4_LDR10F_MOD3_ROC6
par0vd: -7.940000
par1vd: 64.300000
par0va: -1.200000
par1va: 60.700000
par0rbia: 10.800000
par1rbia: 1.040000
par0tbia: 4.020000
par1tbia: 0.240000
par2tbia: -0.000204
par0ia: -2.452000
par1ia: 3.639000
par2ia: 0.032240
ROC:           BPix_BmI_SEC3_LYR4_LDR10F_MOD3_ROC7
par0vd: -8.290000
par1vd: 66.500000
par0va: -5.300000
par1va: 64.800000
par0rbia: 9.190000
par1rbia: 1.080000
par0tbia: 3.750000
par1tbia: 0.264000
par2tbia: -0.000244
par0ia: -1.101000
par1ia: 3.311000
par2ia: 0.032530
ROC:           BPix_BmI_SEC3_LYR4_LDR10F_MOD3_ROC8
par0vd: -1.580000
par1vd: 66.500000
par0va: -2.590000
par1va: 67.300000
par0rbia: 12.000000
par1rbia: 1.040000
par0tbia: 4.150000
par1tbia: 0.232000
par2tbia: -0.000182
par0ia: -2.744000
par1ia: 3.850000
par2ia: 0.030830
ROC:           BPix_BmI_SEC3_LYR4_LDR10F_MOD3_ROC9
par0vd: -0.856000
par1vd: 62.100000
par0va: -3.200000
par1va: 63.400000
par0rbia: 13.000000
par1rbia: 1.080000
par0tbia: 4.100000
par1tbia: 0.259000
par2tbia: -0.000223
par0ia: -0.411900
par1ia: 3.552000
par2ia: 0.028000
ROC:           BPix_BmI_SEC3_LYR4_LDR10F_MOD3_ROC10
par0vd: -5.270000
par1vd: 62.700000
par0va: -0.282000
par1va: 60.000000
par0rbia: 13.800000
par1rbia: 1.060000
par0tbia: 4.250000
par1tbia: 0.260000
par2tbia: -0.000238
par0ia: 0.991900
par1ia: 3.359000
par2ia: 0.031130
ROC:           BPix_BmI_SEC3_LYR4_LDR10F_MOD3_ROC11
par0vd: -4.830000
par1vd: 66.600000
par0va: -0.454000
par1va: 64.400000
par0rbia: 10.400000
par1rbia: 1.040000
par0tbia: 4.160000
par1tbia: 0.265000
par2tbia: -0.000242
par0ia: -0.949500
par1ia: 3.183000
par2ia: 0.030620
ROC:           BPix_BmI_SEC3_LYR4_LDR10F_MOD3_ROC12
par0vd: -0.248000
par1vd: 64.100000
par0va: 2.080000
par1va: 62.800000
par0rbia: 12.300000
par1rbia: 1.020000
par0tbia: 4.230000
par1tbia: 0.263000
par2tbia: -0.000265
par0ia: 2.456000
par1ia: 2.913000
par2ia: 0.037330
ROC:           BPix_BmI_SEC3_LYR4_LDR10F_MOD3_ROC13
par0vd: -1.300000
par1vd: 64.800000
par0va: -2.180000
par1va: 65.000000
par0rbia: 9.670000
par1rbia: 1.050000
par0tbia: 4.000000
par1tbia: 0.238000
par2tbia: -0.000189
par0ia: -2.764000
par1ia: 3.645000
par2ia: 0.032640
ROC:           BPix_BmI_SEC3_LYR4_LDR10F_MOD3_ROC14
par0vd: 5.370000
par1vd: 61.700000
par0va: 5.000000
par1va: 61.100000
par0rbia: 14.800000
par1rbia: 1.080000
par0tbia: 4.340000
par1tbia: 0.259000
par2tbia: -0.000208
par0ia: -1.367000
par1ia: 3.763000
par2ia: 0.022710
ROC:           BPix_BmI_SEC3_LYR4_LDR10F_MOD3_ROC15
par0vd: 3.390000
par1vd: 66.500000
par0va: -1.820000
par1va: 69.000000
par0rbia: 12.300000
par1rbia: 1.090000
par0tbia: 4.010000
par1tbia: 0.242000
par2tbia: -0.000184
par0ia: -2.878000
par1ia: 3.995000
par2ia: 0.026090
