ROC:           BPix_BmI_SEC5_LYR2_LDR8F_MOD2_ROC0
par0vd: -0.649000
par1vd: 58.800000
par0va: -0.386000
par1va: 57.300000
par0rbia: 11.200000
par1rbia: 1.020000
par0tbia: 4.410000
par1tbia: 0.254000
par2tbia: -0.000208
par0ia: -2.157000
par1ia: 3.377000
par2ia: 0.027280
ROC:           BPix_BmI_SEC5_LYR2_LDR8F_MOD2_ROC1
par0vd: -1.820000
par1vd: 62.200000
par0va: -4.470000
par1va: 62.900000
par0rbia: 10.500000
par1rbia: 1.080000
par0tbia: 4.390000
par1tbia: 0.267000
par2tbia: -0.000234
par0ia: -2.956000
par1ia: 3.393000
par2ia: 0.028300
ROC:           BPix_BmI_SEC5_LYR2_LDR8F_MOD2_ROC2
par0vd: 0.448000
par1vd: 62.300000
par0va: 1.770000
par1va: 61.100000
par0rbia: 13.100000
par1rbia: 1.070000
par0tbia: 4.700000
par1tbia: 0.257000
par2tbia: -0.000225
par0ia: -1.086000
par1ia: 3.384000
par2ia: 0.031290
ROC:           BPix_BmI_SEC5_LYR2_LDR8F_MOD2_ROC3
par0vd: 3.900000
par1vd: 62.400000
par0va: -4.280000
par1va: 65.100000
par0rbia: 8.840000
par1rbia: 1.050000
par0tbia: 4.460000
par1tbia: 0.255000
par2tbia: -0.000216
par0ia: -3.813000
par1ia: 3.317000
par2ia: 0.030890
ROC:           BPix_BmI_SEC5_LYR2_LDR8F_MOD2_ROC4
par0vd: 3.300000
par1vd: 61.000000
par0va: -0.705000
par1va: 62.400000
par0rbia: 10.300000
par1rbia: 1.050000
par0tbia: 4.870000
par1tbia: 0.244000
par2tbia: -0.000179
par0ia: -6.150000
par1ia: 3.657000
par2ia: 0.026190
ROC:           BPix_BmI_SEC5_LYR2_LDR8F_MOD2_ROC5
par0vd: 0.474000
par1vd: 68.900000
par0va: -0.315000
par1va: 68.300000
par0rbia: 19.300000
par1rbia: 1.120000
par0tbia: 4.890000
par1tbia: 0.265000
par2tbia: -0.000234
par0ia: -8.346000
par1ia: 4.584000
par2ia: 0.011210
ROC:           BPix_BmI_SEC5_LYR2_LDR8F_MOD2_ROC6
par0vd: 2.300000
par1vd: 64.100000
par0va: -4.610000
par1va: 66.300000
par0rbia: 13.100000
par1rbia: 1.080000
par0tbia: 4.260000
par1tbia: 0.248000
par2tbia: -0.000208
par0ia: -3.951000
par1ia: 3.969000
par2ia: 0.026060
ROC:           BPix_BmI_SEC5_LYR2_LDR8F_MOD2_ROC7
par0vd: -4.750000
par1vd: 61.700000
par0va: -5.040000
par1va: 60.400000
par0rbia: 9.770000
par1rbia: 1.080000
par0tbia: 4.600000
par1tbia: 0.298000
par2tbia: -0.000321
par0ia: -1.568000
par1ia: 2.829000
par2ia: 0.031710
ROC:           BPix_BmI_SEC5_LYR2_LDR8F_MOD2_ROC8
par0vd: -0.261000
par1vd: 62.400000
par0va: -1.240000
par1va: 61.700000
par0rbia: 10.200000
par1rbia: 1.080000
par0tbia: 4.230000
par1tbia: 0.284000
par2tbia: -0.000287
par0ia: -1.064000
par1ia: 3.046000
par2ia: 0.031120
ROC:           BPix_BmI_SEC5_LYR2_LDR8F_MOD2_ROC9
par0vd: -1.880000
par1vd: 64.800000
par0va: 0.383000
par1va: 62.500000
par0rbia: 11.700000
par1rbia: 1.050000
par0tbia: 5.090000
par1tbia: 0.239000
par2tbia: -0.000170
par0ia: -6.255000
par1ia: 3.762000
par2ia: 0.025920
ROC:           BPix_BmI_SEC5_LYR2_LDR8F_MOD2_ROC10
par0vd: -1.460000
par1vd: 61.700000
par0va: -1.140000
par1va: 61.000000
par0rbia: 13.400000
par1rbia: 1.040000
par0tbia: 4.860000
par1tbia: 0.256000
par2tbia: -0.000221
par0ia: -1.132000
par1ia: 3.309000
par2ia: 0.029430
ROC:           BPix_BmI_SEC5_LYR2_LDR8F_MOD2_ROC11
par0vd: -1.740000
par1vd: 66.500000
par0va: -0.051700
par1va: 65.000000
par0rbia: 11.200000
par1rbia: 1.010000
par0tbia: 4.510000
par1tbia: 0.260000
par2tbia: -0.000250
par0ia: -0.240100
par1ia: 2.999000
par2ia: 0.034540
ROC:           BPix_BmI_SEC5_LYR2_LDR8F_MOD2_ROC12
par0vd: -3.100000
par1vd: 65.400000
par0va: 0.016200
par1va: 63.100000
par0rbia: 17.400000
par1rbia: 1.120000
par0tbia: 5.040000
par1tbia: 0.272000
par2tbia: -0.000234
par0ia: -9.463000
par1ia: 4.393000
par2ia: 0.011540
ROC:           BPix_BmI_SEC5_LYR2_LDR8F_MOD2_ROC13
par0vd: -1.450000
par1vd: 63.400000
par0va: -3.260000
par1va: 63.700000
par0rbia: 10.200000
par1rbia: 1.080000
par0tbia: 4.310000
par1tbia: 0.247000
par2tbia: -0.000199
par0ia: -4.046000
par1ia: 3.683000
par2ia: 0.029680
ROC:           BPix_BmI_SEC5_LYR2_LDR8F_MOD2_ROC14
par0vd: -8.000000
par1vd: 66.500000
par0va: -0.147000
par1va: 62.800000
par0rbia: 13.900000
par1rbia: 1.070000
par0tbia: 4.240000
par1tbia: 0.273000
par2tbia: -0.000258
par0ia: -0.651600
par1ia: 3.453000
par2ia: 0.026140
ROC:           BPix_BmI_SEC5_LYR2_LDR8F_MOD2_ROC15
par0vd: 1.980000
par1vd: 60.000000
par0va: -2.810000
par1va: 61.500000
par0rbia: 11.800000
par1rbia: 1.100000
par0tbia: 4.600000
par1tbia: 0.280000
par2tbia: -0.000268
par0ia: -4.444000
par1ia: 3.470000
par2ia: 0.025010
