ROC:           BPix_BmO_SEC4_LYR2_LDR6F_MOD2_ROC0
par0vd: 8.370000
par1vd: 60.100000
par0va: -0.442000
par1va: 62.600000
par0rbia: 13.100000
par1rbia: 1.030000
par0tbia: 4.620000
par1tbia: 0.223000
par2tbia: -0.000143
par0ia: -4.166000
par1ia: 4.006000
par2ia: 0.025700
ROC:           BPix_BmO_SEC4_LYR2_LDR6F_MOD2_ROC1
par0vd: -2.040000
par1vd: 64.400000
par0va: 2.390000
par1va: 60.600000
par0rbia: 12.800000
par1rbia: 1.070000
par0tbia: 4.110000
par1tbia: 0.273000
par2tbia: -0.000278
par0ia: 1.505000
par1ia: 3.140000
par2ia: 0.033670
ROC:           BPix_BmO_SEC4_LYR2_LDR6F_MOD2_ROC2
par0vd: 0.563000
par1vd: 62.100000
par0va: -6.720000
par1va: 64.900000
par0rbia: 9.070000
par1rbia: 1.060000
par0tbia: 4.650000
par1tbia: 0.253000
par2tbia: -0.000213
par0ia: -4.669000
par1ia: 3.395000
par2ia: 0.031480
ROC:           BPix_BmO_SEC4_LYR2_LDR6F_MOD2_ROC3
par0vd: -4.870000
par1vd: 65.000000
par0va: -0.669000
par1va: 62.000000
par0rbia: 9.390000
par1rbia: 1.070000
par0tbia: 4.380000
par1tbia: 0.259000
par2tbia: -0.000219
par0ia: -2.578000
par1ia: 3.299000
par2ia: 0.031130
ROC:           BPix_BmO_SEC4_LYR2_LDR6F_MOD2_ROC4
par0vd: -2.750000
par1vd: 63.200000
par0va: -1.440000
par1va: 61.900000
par0rbia: 13.000000
par1rbia: 1.080000
par0tbia: 4.670000
par1tbia: 0.263000
par2tbia: -0.000229
par0ia: -3.102000
par1ia: 3.549000
par2ia: 0.026200
ROC:           BPix_BmO_SEC4_LYR2_LDR6F_MOD2_ROC5
par0vd: -10.000000
par1vd: 64.800000
par0va: 0.546000
par1va: 59.300000
par0rbia: 10.900000
par1rbia: 1.090000
par0tbia: 4.110000
par1tbia: 0.262000
par2tbia: -0.000224
par0ia: -2.808000
par1ia: 3.578000
par2ia: 0.027230
ROC:           BPix_BmO_SEC4_LYR2_LDR6F_MOD2_ROC6
par0vd: 1.140000
par1vd: 62.100000
par0va: 0.044100
par1va: 62.200000
par0rbia: 12.000000
par1rbia: 1.030000
par0tbia: 3.830000
par1tbia: 0.257000
par2tbia: -0.000213
par0ia: 1.414000
par1ia: 3.321000
par2ia: 0.028780
ROC:           BPix_BmO_SEC4_LYR2_LDR6F_MOD2_ROC7
par0vd: 7.840000
par1vd: 65.900000
par0va: -0.307000
par1va: 68.800000
par0rbia: 14.600000
par1rbia: 1.090000
par0tbia: 4.050000
par1tbia: 0.267000
par2tbia: -0.000244
par0ia: -0.762400
par1ia: 3.696000
par2ia: 0.024840
ROC:           BPix_BmO_SEC4_LYR2_LDR6F_MOD2_ROC8
par0vd: -10.900000
par1vd: 67.700000
par0va: -6.130000
par1va: 65.500000
par0rbia: 11.800000
par1rbia: 1.090000
par0tbia: 3.850000
par1tbia: 0.253000
par2tbia: -0.000213
par0ia: -4.026000
par1ia: 3.993000
par2ia: 0.024060
ROC:           BPix_BmO_SEC4_LYR2_LDR6F_MOD2_ROC9
par0vd: -9.500000
par1vd: 68.700000
par0va: -6.490000
par1va: 67.600000
par0rbia: 15.200000
par1rbia: 1.100000
par0tbia: 3.820000
par1tbia: 0.257000
par2tbia: -0.000223
par0ia: -3.962000
par1ia: 4.311000
par2ia: 0.018160
ROC:           BPix_BmO_SEC4_LYR2_LDR6F_MOD2_ROC10
par0vd: -3.150000
par1vd: 65.200000
par0va: 0.446000
par1va: 62.800000
par0rbia: 13.400000
par1rbia: 1.080000
par0tbia: 4.020000
par1tbia: 0.241000
par2tbia: -0.000177
par0ia: -3.147000
par1ia: 4.137000
par2ia: 0.022910
ROC:           BPix_BmO_SEC4_LYR2_LDR6F_MOD2_ROC11
par0vd: -6.710000
par1vd: 68.100000
par0va: -0.785000
par1va: 64.600000
par0rbia: 10.100000
par1rbia: 1.090000
par0tbia: 3.920000
par1tbia: 0.251000
par2tbia: -0.000208
par0ia: -4.223000
par1ia: 3.836000
par2ia: 0.027220
ROC:           BPix_BmO_SEC4_LYR2_LDR6F_MOD2_ROC12
par0vd: -6.160000
par1vd: 66.500000
par0va: -2.530000
par1va: 64.800000
par0rbia: 11.000000
par1rbia: 1.050000
par0tbia: 3.950000
par1tbia: 0.248000
par2tbia: -0.000221
par0ia: -1.412000
par1ia: 3.520000
par2ia: 0.032380
ROC:           BPix_BmO_SEC4_LYR2_LDR6F_MOD2_ROC13
par0vd: -3.010000
par1vd: 65.400000
par0va: -3.940000
par1va: 65.900000
par0rbia: 13.900000
par1rbia: 1.090000
par0tbia: 3.900000
par1tbia: 0.249000
par2tbia: -0.000194
par0ia: -3.116000
par1ia: 4.161000
par2ia: 0.020600
ROC:           BPix_BmO_SEC4_LYR2_LDR6F_MOD2_ROC14
par0vd: -1.740000
par1vd: 68.000000
par0va: -3.990000
par1va: 68.800000
par0rbia: 18.000000
par1rbia: 1.120000
par0tbia: 4.100000
par1tbia: 0.300000
par2tbia: -0.000320
par0ia: -2.819000
par1ia: 3.892000
par2ia: 0.016140
ROC:           BPix_BmO_SEC4_LYR2_LDR6F_MOD2_ROC15
par0vd: -2.600000
par1vd: 64.600000
par0va: -0.334000
par1va: 62.900000
par0rbia: 12.000000
par1rbia: 1.050000
par0tbia: 4.620000
par1tbia: 0.223000
par2tbia: -0.000143
par0ia: -5.061000
par1ia: 4.033000
par2ia: 0.027270
