ROC:           BPix_BmO_SEC7_LYR4_LDR26F_MOD1_ROC0
par0vd: -5.260000
par1vd: 62.400000
par0va: -1.760000
par1va: 60.900000
par0rbia: 14.300000
par1rbia: 1.060000
par0tbia: 4.780000
par1tbia: 0.251000
par2tbia: -0.000215
par0ia: -2.658000
par1ia: 3.654000
par2ia: 0.028110
ROC:           BPix_BmO_SEC7_LYR4_LDR26F_MOD1_ROC1
par0vd: -6.050000
par1vd: 61.700000
par0va: -4.240000
par1va: 61.600000
par0rbia: 10.700000
par1rbia: 1.050000
par0tbia: 4.840000
par1tbia: 0.240000
par2tbia: -0.000161
par0ia: -6.281000
par1ia: 3.783000
par2ia: 0.023860
ROC:           BPix_BmO_SEC7_LYR4_LDR26F_MOD1_ROC2
par0vd: -2.890000
par1vd: 60.500000
par0va: -9.490000
par1va: 64.900000
par0rbia: 11.800000
par1rbia: 1.070000
par0tbia: 4.550000
par1tbia: 0.237000
par2tbia: -0.000162
par0ia: -4.775000
par1ia: 3.930000
par2ia: 0.025370
ROC:           BPix_BmO_SEC7_LYR4_LDR26F_MOD1_ROC3
par0vd: -9.510000
par1vd: 64.500000
par0va: -3.150000
par1va: 63.100000
par0rbia: 10.900000
par1rbia: 1.060000
par0tbia: 4.160000
par1tbia: 0.273000
par2tbia: -0.000263
par0ia: 0.513800
par1ia: 3.054000
par2ia: 0.032490
ROC:           BPix_BmO_SEC7_LYR4_LDR26F_MOD1_ROC4
par0vd: -7.640000
par1vd: 63.900000
par0va: -2.570000
par1va: 62.300000
par0rbia: 8.220000
par1rbia: 1.020000
par0tbia: 4.400000
par1tbia: 0.247000
par2tbia: -0.000200
par0ia: -4.943000
par1ia: 3.415000
par2ia: 0.029600
ROC:           BPix_BmO_SEC7_LYR4_LDR26F_MOD1_ROC5
par0vd: -3.090000
par1vd: 59.900000
par0va: -8.680000
par1va: 63.200000
par0rbia: 9.070000
par1rbia: 1.030000
par0tbia: 4.790000
par1tbia: 0.255000
par2tbia: -0.000210
par0ia: -5.855000
par1ia: 3.391000
par2ia: 0.027080
ROC:           BPix_BmO_SEC7_LYR4_LDR26F_MOD1_ROC6
par0vd: -10.700000
par1vd: 63.900000
par0va: -5.040000
par1va: 62.100000
par0rbia: 12.500000
par1rbia: 1.050000
par0tbia: 4.570000
par1tbia: 0.264000
par2tbia: -0.000239
par0ia: -2.087000
par1ia: 3.370000
par2ia: 0.027980
ROC:           BPix_BmO_SEC7_LYR4_LDR26F_MOD1_ROC7
par0vd: -4.690000
par1vd: 62.200000
par0va: -5.750000
par1va: 63.000000
par0rbia: 10.600000
par1rbia: 1.070000
par0tbia: 4.140000
par1tbia: 0.263000
par2tbia: -0.000234
par0ia: -1.600000
par1ia: 3.356000
par2ia: 0.029900
ROC:           BPix_BmO_SEC7_LYR4_LDR26F_MOD1_ROC8
par0vd: -4.740000
par1vd: 63.400000
par0va: 0.709000
par1va: 61.200000
par0rbia: 19.500000
par1rbia: 1.120000
par0tbia: 5.180000
par1tbia: 0.304000
par2tbia: -0.000299
par0ia: -7.899000
par1ia: 4.095000
par2ia: 0.010050
ROC:           BPix_BmO_SEC7_LYR4_LDR26F_MOD1_ROC9
par0vd: -9.730000
par1vd: 62.100000
par0va: -6.890000
par1va: 61.900000
par0rbia: 11.400000
par1rbia: 1.050000
par0tbia: 4.260000
par1tbia: 0.257000
par2tbia: -0.000234
par0ia: -1.149000
par1ia: 3.337000
par2ia: 0.032010
ROC:           BPix_BmO_SEC7_LYR4_LDR26F_MOD1_ROC10
par0vd: -10.600000
par1vd: 63.300000
par0va: -9.460000
par1va: 63.900000
par0rbia: 8.660000
par1rbia: 1.050000
par0tbia: 4.230000
par1tbia: 0.259000
par2tbia: -0.000219
par0ia: -3.029000
par1ia: 3.290000
par2ia: 0.030010
ROC:           BPix_BmO_SEC7_LYR4_LDR26F_MOD1_ROC11
par0vd: -7.940000
par1vd: 63.900000
par0va: -2.940000
par1va: 63.100000
par0rbia: 14.500000
par1rbia: 1.080000
par0tbia: 4.610000
par1tbia: 0.260000
par2tbia: -0.000219
par0ia: -3.958000
par1ia: 3.843000
par2ia: 0.022310
ROC:           BPix_BmO_SEC7_LYR4_LDR26F_MOD1_ROC12
par0vd: -8.870000
par1vd: 61.900000
par0va: -3.370000
par1va: 60.000000
par0rbia: 12.000000
par1rbia: 1.070000
par0tbia: 4.640000
par1tbia: 0.296000
par2tbia: -0.000322
par0ia: -0.162400
par1ia: 2.859000
par2ia: 0.031050
ROC:           BPix_BmO_SEC7_LYR4_LDR26F_MOD1_ROC13
par0vd: -5.170000
par1vd: 61.700000
par0va: -2.680000
par1va: 62.100000
par0rbia: 17.300000
par1rbia: 1.080000
par0tbia: 4.430000
par1tbia: 0.296000
par2tbia: -0.000317
par0ia: 0.941300
par1ia: 3.339000
par2ia: 0.023780
ROC:           BPix_BmO_SEC7_LYR4_LDR26F_MOD1_ROC14
par0vd: -6.670000
par1vd: 64.100000
par0va: -4.250000
par1va: 64.200000
par0rbia: 13.400000
par1rbia: 1.080000
par0tbia: 4.440000
par1tbia: 0.278000
par2tbia: -0.000263
par0ia: -1.498000
par1ia: 3.395000
par2ia: 0.025760
ROC:           BPix_BmO_SEC7_LYR4_LDR26F_MOD1_ROC15
par0vd: -10.300000
par1vd: 65.400000
par0va: -5.840000
par1va: 65.300000
par0rbia: 8.560000
par1rbia: 0.992000
par0tbia: 4.290000
par1tbia: 0.263000
par2tbia: -0.000239
par0ia: -1.678000
par1ia: 2.947000
par2ia: 0.030980
