ROC:           BPix_BpI_SEC4_LYR4_LDR14F_MOD1_ROC0
par0vd: 1.270000
par1vd: 63.100000
par0va: -4.060000
par1va: 64.800000
par0rbia: 9.490000
par1rbia: 1.060000
par0tbia: 4.610000
par1tbia: 0.201000
par2tbia: -0.000111
par0ia: -11.310000
par1ia: 4.722000
par2ia: 0.026290
ROC:           BPix_BpI_SEC4_LYR4_LDR14F_MOD1_ROC1
par0vd: 1.300000
par1vd: 64.100000
par0va: 2.090000
par1va: 63.000000
par0rbia: 12.600000
par1rbia: 1.070000
par0tbia: 4.370000
par1tbia: 0.229000
par2tbia: -0.000165
par0ia: -3.695000
par1ia: 4.028000
par2ia: 0.028820
ROC:           BPix_BpI_SEC4_LYR4_LDR14F_MOD1_ROC2
par0vd: -0.539000
par1vd: 64.100000
par0va: -2.380000
par1va: 65.000000
par0rbia: 14.700000
par1rbia: 1.090000
par0tbia: 4.560000
par1tbia: 0.255000
par2tbia: -0.000196
par0ia: -4.781000
par1ia: 4.053000
par2ia: 0.018970
ROC:           BPix_BpI_SEC4_LYR4_LDR14F_MOD1_ROC3
par0vd: -7.270000
par1vd: 63.700000
par0va: -5.420000
par1va: 63.000000
par0rbia: 12.700000
par1rbia: 1.080000
par0tbia: 4.900000
par1tbia: 0.265000
par2tbia: -0.000230
par0ia: -4.987000
par1ia: 3.606000
par2ia: 0.024610
ROC:           BPix_BpI_SEC4_LYR4_LDR14F_MOD1_ROC4
par0vd: 0.853000
par1vd: 60.600000
par0va: -1.620000
par1va: 61.000000
par0rbia: 10.300000
par1rbia: 1.070000
par0tbia: 4.450000
par1tbia: 0.273000
par2tbia: -0.000274
par0ia: -2.465000
par1ia: 3.161000
par2ia: 0.032720
ROC:           BPix_BpI_SEC4_LYR4_LDR14F_MOD1_ROC5
par0vd: -10.400000
par1vd: 66.700000
par0va: -7.270000
par1va: 65.600000
par0rbia: 9.940000
par1rbia: 1.070000
par0tbia: 4.470000
par1tbia: 0.260000
par2tbia: -0.000216
par0ia: -3.719000
par1ia: 3.425000
par2ia: 0.028110
ROC:           BPix_BpI_SEC4_LYR4_LDR14F_MOD1_ROC6
par0vd: -3.680000
par1vd: 62.400000
par0va: -7.160000
par1va: 63.700000
par0rbia: 14.500000
par1rbia: 1.100000
par0tbia: 4.490000
par1tbia: 0.281000
par2tbia: -0.000279
par0ia: -4.868000
par1ia: 3.771000
par2ia: 0.021240
ROC:           BPix_BpI_SEC4_LYR4_LDR14F_MOD1_ROC7
par0vd: -2.670000
par1vd: 62.600000
par0va: -5.850000
par1va: 63.900000
par0rbia: 11.800000
par1rbia: 1.060000
par0tbia: 4.410000
par1tbia: 0.249000
par2tbia: -0.000196
par0ia: -2.935000
par1ia: 3.639000
par2ia: 0.027550
ROC:           BPix_BpI_SEC4_LYR4_LDR14F_MOD1_ROC8
par0vd: -15.400000
par1vd: 70.000000
par0va: 0.004490
par1va: 62.800000
par0rbia: 10.200000
par1rbia: 1.090000
par0tbia: 4.480000
par1tbia: 0.210000
par2tbia: -0.000116
par0ia: -9.889000
par1ia: 4.686000
par2ia: 0.024230
ROC:           BPix_BpI_SEC4_LYR4_LDR14F_MOD1_ROC9
par0vd: -6.860000
par1vd: 66.700000
par0va: -4.520000
par1va: 65.900000
par0rbia: 13.200000
par1rbia: 1.100000
par0tbia: 4.280000
par1tbia: 0.214000
par2tbia: -0.000164
par0ia: -9.776000
par1ia: 4.978000
par2ia: 0.024740
ROC:           BPix_BpI_SEC4_LYR4_LDR14F_MOD1_ROC10
par0vd: -1.770000
par1vd: 64.500000
par0va: -5.050000
par1va: 66.200000
par0rbia: 12.800000
par1rbia: 1.080000
par0tbia: 4.570000
par1tbia: 0.243000
par2tbia: -0.000209
par0ia: -5.297000
par1ia: 3.944000
par2ia: 0.028710
ROC:           BPix_BpI_SEC4_LYR4_LDR14F_MOD1_ROC11
par0vd: -5.830000
par1vd: 59.500000
par0va: -12.200000
par1va: 63.500000
par0rbia: 13.100000
par1rbia: 1.070000
par0tbia: 4.410000
par1tbia: 0.249000
par2tbia: -0.000196
par0ia: -3.966000
par1ia: 3.900000
par2ia: 0.024110
ROC:           BPix_BpI_SEC4_LYR4_LDR14F_MOD1_ROC12
par0vd: -3.870000
par1vd: 63.500000
par0va: -0.786000
par1va: 62.500000
par0rbia: 15.800000
par1rbia: 1.070000
par0tbia: 4.460000
par1tbia: 0.235000
par2tbia: -0.000165
par0ia: -2.054000
par1ia: 4.098000
par2ia: 0.023410
ROC:           BPix_BpI_SEC4_LYR4_LDR14F_MOD1_ROC13
par0vd: 1.100000
par1vd: 63.000000
par0va: -0.139000
par1va: 63.500000
par0rbia: 15.500000
par1rbia: 1.090000
par0tbia: 4.560000
par1tbia: 0.262000
par2tbia: -0.000225
par0ia: -4.890000
par1ia: 4.048000
par2ia: 0.019570
ROC:           BPix_BpI_SEC4_LYR4_LDR14F_MOD1_ROC14
par0vd: -0.120000
par1vd: 64.100000
par0va: -0.360000
par1va: 64.100000
par0rbia: 10.900000
par1rbia: 1.060000
par0tbia: 4.580000
par1tbia: 0.242000
par2tbia: -0.000199
par0ia: -4.107000
par1ia: 3.629000
par2ia: 0.031810
ROC:           BPix_BpI_SEC4_LYR4_LDR14F_MOD1_ROC15
par0vd: -2.780000
par1vd: 65.900000
par0va: -1.300000
par1va: 65.200000
par0rbia: 10.500000
par1rbia: 1.060000
par0tbia: 4.320000
par1tbia: 0.222000
par2tbia: -0.000160
par0ia: -5.800000
par1ia: 4.089000
par2ia: 0.030880
