ROC:           BPix_BpO_SEC3_LYR3_LDR7F_MOD2_ROC0
par0vd: -8.830000
par1vd: 66.600000
par0va: -3.990000
par1va: 64.800000
par0rbia: 12.500000
par1rbia: 1.070000
par0tbia: 5.140000
par1tbia: 0.284000
par2tbia: -0.000278
par0ia: -1.496000
par1ia: 3.003000
par2ia: 0.029600
ROC:           BPix_BpO_SEC3_LYR3_LDR7F_MOD2_ROC1
par0vd: -13.000000
par1vd: 66.500000
par0va: -5.450000
par1va: 63.900000
par0rbia: 9.890000
par1rbia: 1.080000
par0tbia: 5.200000
par1tbia: 0.265000
par2tbia: -0.000234
par0ia: -5.155000
par1ia: 3.254000
par2ia: 0.030880
ROC:           BPix_BpO_SEC3_LYR3_LDR7F_MOD2_ROC2
par0vd: -2.840000
par1vd: 59.300000
par0va: -10.300000
par1va: 63.400000
par0rbia: 13.000000
par1rbia: 1.090000
par0tbia: 5.140000
par1tbia: 0.278000
par2tbia: -0.000263
par0ia: -5.661000
par1ia: 3.500000
par2ia: 0.024360
ROC:           BPix_BpO_SEC3_LYR3_LDR7F_MOD2_ROC3
par0vd: -4.840000
par1vd: 63.900000
par0va: -5.260000
par1va: 64.500000
par0rbia: 11.700000
par1rbia: 1.050000
par0tbia: 5.010000
par1tbia: 0.240000
par2tbia: -0.000199
par0ia: -3.336000
par1ia: 3.437000
par2ia: 0.034400
ROC:           BPix_BpO_SEC3_LYR3_LDR7F_MOD2_ROC4
par0vd: -8.030000
par1vd: 66.500000
par0va: 0.599000
par1va: 62.200000
par0rbia: 10.500000
par1rbia: 1.080000
par0tbia: 5.250000
par1tbia: 0.232000
par2tbia: -0.000158
par0ia: -9.580000
par1ia: 4.028000
par2ia: 0.026160
ROC:           BPix_BpO_SEC3_LYR3_LDR7F_MOD2_ROC5
par0vd: 1.650000
par1vd: 61.500000
par0va: -3.240000
par1va: 63.700000
par0rbia: 15.700000
par1rbia: 1.090000
par0tbia: 5.040000
par1tbia: 0.294000
par2tbia: -0.000321
par0ia: -0.691400
par1ia: 3.142000
par2ia: 0.028040
ROC:           BPix_BpO_SEC3_LYR3_LDR7F_MOD2_ROC6
par0vd: -13.000000
par1vd: 67.200000
par0va: -3.520000
par1va: 63.200000
par0rbia: 12.400000
par1rbia: 1.080000
par0tbia: 4.970000
par1tbia: 0.244000
par2tbia: -0.000201
par0ia: -6.057000
par1ia: 3.810000
par2ia: 0.028540
ROC:           BPix_BpO_SEC3_LYR3_LDR7F_MOD2_ROC7
par0vd: -7.250000
par1vd: 64.100000
par0va: -7.280000
par1va: 64.800000
par0rbia: 12.000000
par1rbia: 1.090000
par0tbia: 5.190000
par1tbia: 0.280000
par2tbia: -0.000258
par0ia: -5.102000
par1ia: 3.339000
par2ia: 0.025170
ROC:           BPix_BpO_SEC3_LYR3_LDR7F_MOD2_ROC8
par0vd: -5.830000
par1vd: 62.500000
par0va: -8.690000
par1va: 64.800000
par0rbia: 13.000000
par1rbia: 1.030000
par0tbia: 4.980000
par1tbia: 0.277000
par2tbia: -0.000248
par0ia: -0.780100
par1ia: 3.043000
par2ia: 0.025970
ROC:           BPix_BpO_SEC3_LYR3_LDR7F_MOD2_ROC9
par0vd: -10.000000
par1vd: 63.400000
par0va: -6.810000
par1va: 62.800000
par0rbia: 16.100000
par1rbia: 1.090000
par0tbia: 4.990000
par1tbia: 0.289000
par2tbia: -0.000278
par0ia: -3.813000
par1ia: 3.584000
par2ia: 0.019790
ROC:           BPix_BpO_SEC3_LYR3_LDR7F_MOD2_ROC10
par0vd: -11.500000
par1vd: 67.200000
par0va: -9.470000
par1va: 67.800000
par0rbia: 9.050000
par1rbia: 1.060000
par0tbia: 4.910000
par1tbia: 0.256000
par2tbia: -0.000219
par0ia: -4.928000
par1ia: 3.282000
par2ia: 0.031660
ROC:           BPix_BpO_SEC3_LYR3_LDR7F_MOD2_ROC11
par0vd: -4.650000
par1vd: 62.800000
par0va: -4.310000
par1va: 63.000000
par0rbia: 11.400000
par1rbia: 1.090000
par0tbia: 5.240000
par1tbia: 0.274000
par2tbia: -0.000263
par0ia: -5.724000
par1ia: 3.334000
par2ia: 0.028630
ROC:           BPix_BpO_SEC3_LYR3_LDR7F_MOD2_ROC12
par0vd: -12.900000
par1vd: 64.700000
par0va: -6.290000
par1va: 62.200000
par0rbia: 12.100000
par1rbia: 1.080000
par0tbia: 5.090000
par1tbia: 0.260000
par2tbia: -0.000234
par0ia: -5.545000
par1ia: 3.538000
par2ia: 0.028330
ROC:           BPix_BpO_SEC3_LYR3_LDR7F_MOD2_ROC13
par0vd: -9.670000
par1vd: 65.600000
par0va: -8.430000
par1va: 66.700000
par0rbia: 12.300000
par1rbia: 1.100000
par0tbia: 4.990000
par1tbia: 0.264000
par2tbia: -0.000248
par0ia: -7.617000
par1ia: 3.771000
par2ia: 0.025560
ROC:           BPix_BpO_SEC3_LYR3_LDR7F_MOD2_ROC14
par0vd: -15.000000
par1vd: 66.200000
par0va: -1.650000
par1va: 61.000000
par0rbia: 13.900000
par1rbia: 1.090000
par0tbia: 5.020000
par1tbia: 0.226000
par2tbia: -0.000126
par0ia: -10.960000
par1ia: 4.728000
par2ia: 0.013930
ROC:           BPix_BpO_SEC3_LYR3_LDR7F_MOD2_ROC15
par0vd: -7.910000
par1vd: 64.400000
par0va: -9.340000
par1va: 66.300000
par0rbia: 10.500000
par1rbia: 1.080000
par0tbia: 5.250000
par1tbia: 0.260000
par2tbia: -0.000229
par0ia: -4.425000
par1ia: 3.238000
par2ia: 0.032320
