ROC:           BPix_BmI_SEC7_LYR4_LDR25F_MOD3_ROC0
par0vd: -13.700000
par1vd: 67.100000
par0va: -4.950000
par1va: 64.700000
par0rbia: 12.100000
par1rbia: 1.080000
par0tbia: 4.010000
par1tbia: 0.225000
par2tbia: -0.000148
par0ia: -4.581000
par1ia: 4.344000
par2ia: 0.024850
ROC:           BPix_BmI_SEC7_LYR4_LDR25F_MOD3_ROC1
par0vd: -6.990000
par1vd: 61.000000
par0va: -6.570000
par1va: 61.900000
par0rbia: 12.100000
par1rbia: 1.060000
par0tbia: 4.000000
par1tbia: 0.251000
par2tbia: -0.000206
par0ia: 0.271400
par1ia: 3.499000
par2ia: 0.030360
ROC:           BPix_BmI_SEC7_LYR4_LDR25F_MOD3_ROC2
par0vd: -7.540000
par1vd: 62.600000
par0va: -2.460000
par1va: 61.900000
par0rbia: 14.100000
par1rbia: 1.060000
par0tbia: 3.760000
par1tbia: 0.252000
par2tbia: -0.000201
par0ia: 2.979000
par1ia: 3.523000
par2ia: 0.029020
ROC:           BPix_BmI_SEC7_LYR4_LDR25F_MOD3_ROC3
par0vd: -7.840000
par1vd: 60.800000
par0va: -5.140000
par1va: 61.000000
par0rbia: 12.600000
par1rbia: 1.090000
par0tbia: 3.970000
par1tbia: 0.276000
par2tbia: -0.000258
par0ia: -1.357000
par1ia: 3.512000
par2ia: 0.025160
ROC:           BPix_BmI_SEC7_LYR4_LDR25F_MOD3_ROC4
par0vd: -2.290000
par1vd: 63.500000
par0va: -5.610000
par1va: 66.100000
par0rbia: 13.200000
par1rbia: 1.100000
par0tbia: 4.080000
par1tbia: 0.247000
par2tbia: -0.000196
par0ia: -5.363000
par1ia: 4.281000
par2ia: 0.020940
ROC:           BPix_BmI_SEC7_LYR4_LDR25F_MOD3_ROC5
par0vd: -4.970000
par1vd: 63.900000
par0va: -6.410000
par1va: 65.900000
par0rbia: 11.200000
par1rbia: 1.080000
par0tbia: 3.820000
par1tbia: 0.251000
par2tbia: -0.000221
par0ia: -0.735700
par1ia: 3.575000
par2ia: 0.032560
ROC:           BPix_BmI_SEC7_LYR4_LDR25F_MOD3_ROC6
par0vd: -7.150000
par1vd: 60.000000
par0va: -2.550000
par1va: 58.400000
par0rbia: 12.600000
par1rbia: 1.100000
par0tbia: 4.110000
par1tbia: 0.281000
par2tbia: -0.000248
par0ia: -3.068000
par1ia: 3.644000
par2ia: 0.020600
ROC:           BPix_BmI_SEC7_LYR4_LDR25F_MOD3_ROC7
par0vd: -8.670000
par1vd: 65.600000
par0va: -6.440000
par1va: 66.500000
par0rbia: 15.000000
par1rbia: 1.070000
par0tbia: 3.920000
par1tbia: 0.241000
par2tbia: -0.000177
par0ia: -0.365700
par1ia: 4.041000
par2ia: 0.023770
ROC:           BPix_BmI_SEC7_LYR4_LDR25F_MOD3_ROC8
par0vd: -10.900000
par1vd: 64.300000
par0va: -1.860000
par1va: 61.300000
par0rbia: 9.600000
par1rbia: 1.060000
par0tbia: 3.760000
par1tbia: 0.242000
par2tbia: -0.000196
par0ia: -2.580000
par1ia: 3.697000
par2ia: 0.030660
ROC:           BPix_BmI_SEC7_LYR4_LDR25F_MOD3_ROC9
par0vd: -8.110000
par1vd: 62.800000
par0va: -6.920000
par1va: 63.400000
par0rbia: 11.400000
par1rbia: 1.090000
par0tbia: 4.110000
par1tbia: 0.265000
par2tbia: -0.000228
par0ia: -3.614000
par1ia: 3.699000
par2ia: 0.024510
ROC:           BPix_BmI_SEC7_LYR4_LDR25F_MOD3_ROC10
par0vd: -6.030000
par1vd: 61.900000
par0va: -3.470000
par1va: 62.300000
par0rbia: 15.100000
par1rbia: 1.070000
par0tbia: 3.720000
par1tbia: 0.223000
par2tbia: -0.000143
par0ia: -1.420000
par1ia: 4.479000
par2ia: 0.021770
ROC:           BPix_BmI_SEC7_LYR4_LDR25F_MOD3_ROC11
par0vd: -2.520000
par1vd: 62.400000
par0va: -3.040000
par1va: 63.900000
par0rbia: 11.700000
par1rbia: 1.060000
par0tbia: 3.650000
par1tbia: 0.225000
par2tbia: -0.000148
par0ia: -2.542000
par1ia: 4.232000
par2ia: 0.025560
ROC:           BPix_BmI_SEC7_LYR4_LDR25F_MOD3_ROC12
par0vd: -14.400000
par1vd: 68.900000
par0va: -2.380000
par1va: 65.000000
par0rbia: 9.810000
par1rbia: 1.080000
par0tbia: 3.650000
par1tbia: 0.235000
par2tbia: -0.000162
par0ia: -2.702000
par1ia: 3.964000
par2ia: 0.027770
ROC:           BPix_BmI_SEC7_LYR4_LDR25F_MOD3_ROC13
par0vd: -14.300000
par1vd: 65.700000
par0va: -6.770000
par1va: 64.800000
par0rbia: 12.400000
par1rbia: 1.070000
par0tbia: 3.710000
par1tbia: 0.259000
par2tbia: -0.000216
par0ia: 0.598100
par1ia: 3.560000
par2ia: 0.027080
ROC:           BPix_BmI_SEC7_LYR4_LDR25F_MOD3_ROC14
par0vd: -5.410000
par1vd: 64.100000
par0va: -8.800000
par1va: 67.900000
par0rbia: 14.200000
par1rbia: 1.100000
par0tbia: 4.510000
par1tbia: 0.252000
par2tbia: -0.000175
par0ia: -7.085000
par1ia: 4.325000
par2ia: 0.014160
ROC:           BPix_BmI_SEC7_LYR4_LDR25F_MOD3_ROC15
par0vd: -0.953000
par1vd: 58.500000
par0va: -4.830000
par1va: 61.200000
par0rbia: 14.400000
par1rbia: 1.080000
par0tbia: 3.650000
par1tbia: 0.235000
par2tbia: -0.000162
par0ia: -2.406000
par1ia: 4.417000
par2ia: 0.019260
