ROC:           BPix_BpO_SEC6_LYR3_LDR17F_MOD1_ROC0
par0vd: -6.330000
par1vd: 67.400000
par0va: -3.780000
par1va: 65.700000
par0rbia: 8.630000
par1rbia: 1.100000
par0tbia: 4.050000
par1tbia: 0.259000
par2tbia: -0.000242
par0ia: -6.064000
par1ia: 3.711000
par2ia: 0.030030
ROC:           BPix_BpO_SEC6_LYR3_LDR17F_MOD1_ROC1
par0vd: -5.640000
par1vd: 61.500000
par0va: -2.110000
par1va: 60.300000
par0rbia: 12.400000
par1rbia: 1.030000
par0tbia: 4.240000
par1tbia: 0.255000
par2tbia: -0.000204
par0ia: -0.390700
par1ia: 3.408000
par2ia: 0.026770
ROC:           BPix_BpO_SEC6_LYR3_LDR17F_MOD1_ROC2
par0vd: -5.270000
par1vd: 65.200000
par0va: -1.280000
par1va: 63.700000
par0rbia: 10.400000
par1rbia: 1.050000
par0tbia: 4.640000
par1tbia: 0.241000
par2tbia: -0.000184
par0ia: -4.679000
par1ia: 3.641000
par2ia: 0.029330
ROC:           BPix_BpO_SEC6_LYR3_LDR17F_MOD1_ROC3
par0vd: -4.290000
par1vd: 61.900000
par0va: -6.380000
par1va: 63.900000
par0rbia: 11.900000
par1rbia: 1.060000
par0tbia: 4.610000
par1tbia: 0.254000
par2tbia: -0.000199
par0ia: -2.106000
par1ia: 3.449000
par2ia: 0.027470
ROC:           BPix_BpO_SEC6_LYR3_LDR17F_MOD1_ROC4
par0vd: -4.790000
par1vd: 64.100000
par0va: -1.380000
par1va: 63.300000
par0rbia: 12.200000
par1rbia: 1.020000
par0tbia: 4.370000
par1tbia: 0.264000
par2tbia: -0.000240
par0ia: 0.516000
par1ia: 3.119000
par2ia: 0.030560
ROC:           BPix_BpO_SEC6_LYR3_LDR17F_MOD1_ROC5
par0vd: -7.490000
par1vd: 62.800000
par0va: -2.990000
par1va: 61.300000
par0rbia: 13.000000
par1rbia: 1.070000
par0tbia: 4.010000
par1tbia: 0.257000
par2tbia: -0.000228
par0ia: -0.130800
par1ia: 3.545000
par2ia: 0.029690
ROC:           BPix_BpO_SEC6_LYR3_LDR17F_MOD1_ROC6
par0vd: -8.580000
par1vd: 61.900000
par0va: -5.260000
par1va: 61.000000
par0rbia: 11.000000
par1rbia: 1.080000
par0tbia: 4.200000
par1tbia: 0.270000
par2tbia: -0.000259
par0ia: -1.577000
par1ia: 3.301000
par2ia: 0.031270
ROC:           BPix_BpO_SEC6_LYR3_LDR17F_MOD1_ROC7
par0vd: -9.250000
par1vd: 61.000000
par0va: -3.890000
par1va: 58.900000
par0rbia: 10.600000
par1rbia: 0.995000
par0tbia: 4.310000
par1tbia: 0.264000
par2tbia: -0.000247
par0ia: -0.337900
par1ia: 2.996000
par2ia: 0.031050
ROC:           BPix_BpO_SEC6_LYR3_LDR17F_MOD1_ROC8
par0vd: -11.800000
par1vd: 62.500000
par0va: -4.650000
par1va: 60.600000
par0rbia: 11.800000
par1rbia: 1.040000
par0tbia: 4.500000
par1tbia: 0.256000
par2tbia: -0.000223
par0ia: -0.282200
par1ia: 3.214000
par2ia: 0.032440
ROC:           BPix_BpO_SEC6_LYR3_LDR17F_MOD1_ROC9
par0vd: -7.070000
par1vd: 64.300000
par0va: -3.580000
par1va: 63.700000
par0rbia: 10.500000
par1rbia: 1.020000
par0tbia: 4.210000
par1tbia: 0.248000
par2tbia: -0.000208
par0ia: -2.121000
par1ia: 3.406000
par2ia: 0.030250
ROC:           BPix_BpO_SEC6_LYR3_LDR17F_MOD1_ROC10
par0vd: -10.600000
par1vd: 62.100000
par0va: -6.330000
par1va: 61.200000
par0rbia: 11.900000
par1rbia: 1.080000
par0tbia: 4.420000
par1tbia: 0.259000
par2tbia: -0.000218
par0ia: -2.792000
par1ia: 3.573000
par2ia: 0.027160
ROC:           BPix_BpO_SEC6_LYR3_LDR17F_MOD1_ROC11
par0vd: -8.950000
par1vd: 63.700000
par0va: -8.920000
par1va: 65.000000
par0rbia: 13.200000
par1rbia: 1.090000
par0tbia: 4.200000
par1tbia: 0.259000
par2tbia: -0.000238
par0ia: -3.413000
par1ia: 3.817000
par2ia: 0.026600
ROC:           BPix_BpO_SEC6_LYR3_LDR17F_MOD1_ROC12
par0vd: -5.130000
par1vd: 63.900000
par0va: -4.310000
par1va: 63.900000
par0rbia: 10.400000
par1rbia: 1.060000
par0tbia: 4.240000
par1tbia: 0.236000
par2tbia: -0.000202
par0ia: -3.417000
par1ia: 3.657000
par2ia: 0.035490
ROC:           BPix_BpO_SEC6_LYR3_LDR17F_MOD1_ROC13
par0vd: -9.510000
par1vd: 67.600000
par0va: -3.810000
par1va: 66.500000
par0rbia: 10.300000
par1rbia: 1.080000
par0tbia: 4.440000
par1tbia: 0.257000
par2tbia: -0.000204
par0ia: -3.751000
par1ia: 3.544000
par2ia: 0.027240
ROC:           BPix_BpO_SEC6_LYR3_LDR17F_MOD1_ROC14
par0vd: -6.260000
par1vd: 65.400000
par0va: -4.500000
par1va: 66.100000
par0rbia: 15.200000
par1rbia: 1.100000
par0tbia: 4.550000
par1tbia: 0.269000
par2tbia: -0.000215
par0ia: -7.173000
par1ia: 4.225000
par2ia: 0.012610
ROC:           BPix_BpO_SEC6_LYR3_LDR17F_MOD1_ROC15
par0vd: -5.730000
par1vd: 61.500000
par0va: -2.360000
par1va: 60.600000
par0rbia: 10.800000
par1rbia: 1.070000
par0tbia: 4.330000
par1tbia: 0.264000
par2tbia: -0.000238
par0ia: -2.296000
par1ia: 3.373000
par2ia: 0.029880
