ROC:           BPix_BpO_SEC7_LYR1_LDR5H_MOD1_ROC4
par0vd: -2.570000
par1vd: 65.400000
par0va: 5.850000
par1va: 64.100000
par0rbia: 10.700000
par1rbia: 1.090000
par0tbia: 4.470000
par1tbia: 0.277000
par2tbia: -0.000195
par0ia: -4.016000
par1ia: 3.515000
par2ia: 0.018490
ROC:           BPix_BpO_SEC7_LYR1_LDR5H_MOD1_ROC5
par0vd: -1.150000
par1vd: 70.200000
par0va: 10.200000
par1va: 67.900000
par0rbia: 13.500000
par1rbia: 1.090000
par0tbia: 4.740000
par1tbia: 0.287000
par2tbia: -0.000234
par0ia: -4.252000
par1ia: 3.575000
par2ia: 0.017100
ROC:           BPix_BpO_SEC7_LYR1_LDR5H_MOD1_ROC6
par0vd: -3.430000
par1vd: 65.200000
par0va: 9.120000
par1va: 62.000000
par0rbia: 15.500000
par1rbia: 1.090000
par0tbia: 4.760000
par1tbia: 0.288000
par2tbia: -0.000210
par0ia: -2.804000
par1ia: 3.635000
par2ia: 0.013400
ROC:           BPix_BpO_SEC7_LYR1_LDR5H_MOD1_ROC7
par0vd: 4.610000
par1vd: 62.800000
par0va: 3.680000
par1va: 66.300000
par0rbia: 12.000000
par1rbia: 1.070000
par0tbia: 4.880000
par1tbia: 0.281000
par2tbia: -0.000195
par0ia: -1.900000
par1ia: 3.258000
par2ia: 0.019820
ROC:           BPix_BpO_SEC7_LYR1_LDR5H_MOD1_ROC8
par0vd: 3.860000
par1vd: 62.400000
par0va: 5.770000
par1va: 63.800000
par0rbia: 12.800000
par1rbia: 1.090000
par0tbia: 5.300000
par1tbia: 0.246000
par2tbia: -0.000131
par0ia: -12.200000
par1ia: 4.446000
par2ia: 0.010070
ROC:           BPix_BpO_SEC7_LYR1_LDR5H_MOD1_ROC9
par0vd: -2.720000
par1vd: 63.200000
par0va: 9.850000
par1va: 59.800000
par0rbia: 8.360000
par1rbia: 1.060000
par0tbia: 5.040000
par1tbia: 0.302000
par2tbia: -0.000239
par0ia: -3.478000
par1ia: 2.855000
par2ia: 0.020890
ROC:           BPix_BpO_SEC7_LYR1_LDR5H_MOD1_ROC10
par0vd: 0.582000
par1vd: 65.100000
par0va: 9.300000
par1va: 64.100000
par0rbia: 13.600000
par1rbia: 1.050000
par0tbia: 4.650000
par1tbia: 0.258000
par2tbia: -0.000155
par0ia: -0.234300
par1ia: 3.465000
par2ia: 0.020210
ROC:           BPix_BpO_SEC7_LYR1_LDR5H_MOD1_ROC11
par0vd: 0.397000
par1vd: 62.900000
par0va: 7.110000
par1va: 62.200000
par0rbia: 13.100000
par1rbia: 1.090000
par0tbia: 4.480000
par1tbia: 0.275000
par2tbia: -0.000198
par0ia: -3.942000
par1ia: 3.724000
par2ia: 0.015960
