ROC:           BPix_BpO_SEC7_LYR4_LDR26F_MOD2_ROC0
par0vd: -3.230000
par1vd: 64.300000
par0va: 3.660000
par1va: 62.600000
par0rbia: 16.700000
par1rbia: 1.100000
par0tbia: 4.850000
par1tbia: 0.263000
par2tbia: -0.000201
par0ia: -7.003000
par1ia: 4.282000
par2ia: 0.012420
ROC:           BPix_BpO_SEC7_LYR4_LDR26F_MOD2_ROC1
par0vd: -5.890000
par1vd: 66.700000
par0va: 1.470000
par1va: 65.400000
par0rbia: 12.800000
par1rbia: 1.070000
par0tbia: 4.500000
par1tbia: 0.251000
par2tbia: -0.000184
par0ia: -3.393000
par1ia: 3.789000
par2ia: 0.023130
ROC:           BPix_BpO_SEC7_LYR4_LDR26F_MOD2_ROC2
par0vd: -2.330000
par1vd: 62.800000
par0va: 4.530000
par1va: 61.500000
par0rbia: 15.100000
par1rbia: 1.040000
par0tbia: 4.310000
par1tbia: 0.249000
par2tbia: -0.000184
par0ia: -0.067300
par1ia: 3.710000
par2ia: 0.022850
ROC:           BPix_BpO_SEC7_LYR4_LDR26F_MOD2_ROC3
par0vd: -4.120000
par1vd: 65.600000
par0va: 2.980000
par1va: 64.600000
par0rbia: 12.600000
par1rbia: 1.080000
par0tbia: 4.390000
par1tbia: 0.227000
par2tbia: -0.000154
par0ia: -7.165000
par1ia: 4.457000
par2ia: 0.022240
ROC:           BPix_BpO_SEC7_LYR4_LDR26F_MOD2_ROC4
par0vd: -6.010000
par1vd: 63.800000
par0va: -2.310000
par1va: 63.900000
par0rbia: 14.300000
par1rbia: 1.110000
par0tbia: 4.290000
par1tbia: 0.273000
par2tbia: -0.000262
par0ia: -7.019000
par1ia: 4.134000
par2ia: 0.017980
ROC:           BPix_BpO_SEC7_LYR4_LDR26F_MOD2_ROC5
par0vd: 1.440000
par1vd: 61.200000
par0va: -0.070600
par1va: 63.500000
par0rbia: 16.900000
par1rbia: 1.080000
par0tbia: 4.260000
par1tbia: 0.264000
par2tbia: -0.000218
par0ia: -1.150000
par1ia: 3.927000
par2ia: 0.019130
ROC:           BPix_BpO_SEC7_LYR4_LDR26F_MOD2_ROC6
par0vd: -1.770000
par1vd: 63.000000
par0va: 1.840000
par1va: 63.100000
par0rbia: 13.700000
par1rbia: 1.070000
par0tbia: 4.210000
par1tbia: 0.271000
par2tbia: -0.000252
par0ia: -0.239700
par1ia: 3.430000
par2ia: 0.027070
ROC:           BPix_BpO_SEC7_LYR4_LDR26F_MOD2_ROC7
par0vd: -4.840000
par1vd: 59.900000
par0va: -2.870000
par1va: 60.900000
par0rbia: 11.300000
par1rbia: 1.060000
par0tbia: 4.060000
par1tbia: 0.263000
par2tbia: -0.000228
par0ia: -1.295000
par1ia: 3.425000
par2ia: 0.027790
ROC:           BPix_BpO_SEC7_LYR4_LDR26F_MOD2_ROC8
par0vd: -8.210000
par1vd: 63.200000
par0va: -1.910000
par1va: 62.200000
par0rbia: 11.200000
par1rbia: 1.050000
par0tbia: 4.040000
par1tbia: 0.253000
par2tbia: -0.000223
par0ia: -1.882000
par1ia: 3.522000
par2ia: 0.029880
ROC:           BPix_BpO_SEC7_LYR4_LDR26F_MOD2_ROC9
par0vd: -6.750000
par1vd: 61.700000
par0va: -7.740000
par1va: 65.000000
par0rbia: 8.020000
par1rbia: 1.050000
par0tbia: 4.440000
par1tbia: 0.258000
par2tbia: -0.000199
par0ia: -4.995000
par1ia: 3.388000
par2ia: 0.026240
ROC:           BPix_BpO_SEC7_LYR4_LDR26F_MOD2_ROC10
par0vd: -6.790000
par1vd: 61.100000
par0va: -0.926000
par1va: 60.400000
par0rbia: 11.700000
par1rbia: 1.010000
par0tbia: 3.990000
par1tbia: 0.223000
par2tbia: -0.000144
par0ia: -2.790000
par1ia: 3.968000
par2ia: 0.025530
ROC:           BPix_BpO_SEC7_LYR4_LDR26F_MOD2_ROC11
par0vd: -10.500000
par1vd: 68.000000
par0va: 1.390000
par1va: 64.500000
par0rbia: 10.500000
par1rbia: 1.090000
par0tbia: 4.030000
par1tbia: 0.288000
par2tbia: -0.000273
par0ia: -0.996300
par1ia: 3.173000
par2ia: 0.026650
ROC:           BPix_BpO_SEC7_LYR4_LDR26F_MOD2_ROC12
par0vd: -7.090000
par1vd: 64.100000
par0va: -2.700000
par1va: 64.300000
par0rbia: 9.570000
par1rbia: 1.080000
par0tbia: 4.650000
par1tbia: 0.253000
par2tbia: -0.000189
par0ia: -5.995000
par1ia: 3.657000
par2ia: 0.025410
ROC:           BPix_BpO_SEC7_LYR4_LDR26F_MOD2_ROC13
par0vd: -9.730000
par1vd: 67.700000
par0va: 0.459000
par1va: 65.200000
par0rbia: 9.230000
par1rbia: 1.080000
par0tbia: 4.350000
par1tbia: 0.260000
par2tbia: -0.000238
par0ia: -3.239000
par1ia: 3.320000
par2ia: 0.033020
ROC:           BPix_BpO_SEC7_LYR4_LDR26F_MOD2_ROC14
par0vd: -6.770000
par1vd: 64.500000
par0va: -0.695000
par1va: 64.300000
par0rbia: 10.900000
par1rbia: 1.060000
par0tbia: 4.050000
par1tbia: 0.252000
par2tbia: -0.000208
par0ia: -2.480000
par1ia: 3.607000
par2ia: 0.027840
ROC:           BPix_BpO_SEC7_LYR4_LDR26F_MOD2_ROC15
par0vd: -12.400000
par1vd: 66.800000
par0va: -6.510000
par1va: 67.400000
par0rbia: 8.030000
par1rbia: 1.040000
par0tbia: 4.740000
par1tbia: 0.221000
par2tbia: -0.000149
par0ia: -9.410000
par1ia: 3.998000
par2ia: 0.028770
