ROC:           BPix_BmO_SEC1_LYR4_LDR3F_MOD1_ROC0
par0vd: 2.650000
par1vd: 59.900000
par0va: -7.330000
par1va: 65.700000
par0rbia: 12.500000
par1rbia: 1.020000
par0tbia: 3.850000
par1tbia: 0.253000
par2tbia: -0.000213
par0ia: 1.611000
par1ia: 3.338000
par2ia: 0.029390
ROC:           BPix_BmO_SEC1_LYR4_LDR3F_MOD1_ROC1
par0vd: -7.770000
par1vd: 61.500000
par0va: -11.400000
par1va: 63.500000
par0rbia: 8.490000
par1rbia: 1.090000
par0tbia: 3.920000
par1tbia: 0.251000
par2tbia: -0.000208
par0ia: -3.901000
par1ia: 3.633000
par2ia: 0.030600
ROC:           BPix_BmO_SEC1_LYR4_LDR3F_MOD1_ROC2
par0vd: -9.160000
par1vd: 63.400000
par0va: -10.500000
par1va: 65.600000
par0rbia: 13.700000
par1rbia: 1.080000
par0tbia: 4.330000
par1tbia: 0.277000
par2tbia: -0.000267
par0ia: -0.571700
par1ia: 3.375000
par2ia: 0.027120
ROC:           BPix_BmO_SEC1_LYR4_LDR3F_MOD1_ROC3
par0vd: -20.300000
par1vd: 66.100000
par0va: -9.320000
par1va: 62.200000
par0rbia: 7.690000
par1rbia: 1.060000
par0tbia: 3.850000
par1tbia: 0.253000
par2tbia: -0.000213
par0ia: -3.135000
par1ia: 3.418000
par2ia: 0.031580
ROC:           BPix_BmO_SEC1_LYR4_LDR3F_MOD1_ROC4
par0vd: -13.800000
par1vd: 65.900000
par0va: -4.270000
par1va: 62.200000
par0rbia: 15.100000
par1rbia: 1.090000
par0tbia: 4.060000
par1tbia: 0.268000
par2tbia: -0.000219
par0ia: -3.623000
par1ia: 4.074000
par2ia: 0.015910
ROC:           BPix_BmO_SEC1_LYR4_LDR3F_MOD1_ROC5
par0vd: -12.400000
par1vd: 65.000000
par0va: -8.750000
par1va: 64.100000
par0rbia: 9.820000
par1rbia: 1.090000
par0tbia: 3.960000
par1tbia: 0.259000
par2tbia: -0.000210
par0ia: -4.373000
par1ia: 3.752000
par2ia: 0.024750
ROC:           BPix_BmO_SEC1_LYR4_LDR3F_MOD1_ROC6
par0vd: -12.800000
par1vd: 63.000000
par0va: -8.390000
par1va: 62.000000
par0rbia: 15.000000
par1rbia: 1.100000
par0tbia: 4.270000
par1tbia: 0.277000
par2tbia: -0.000247
par0ia: -3.434000
par1ia: 3.850000
par2ia: 0.018350
ROC:           BPix_BmO_SEC1_LYR4_LDR3F_MOD1_ROC7
par0vd: -11.000000
par1vd: 63.800000
par0va: -5.590000
par1va: 62.200000
par0rbia: 9.980000
par1rbia: 1.060000
par0tbia: 3.890000
par1tbia: 0.249000
par2tbia: -0.000179
par0ia: -2.284000
par1ia: 3.632000
par2ia: 0.025190
ROC:           BPix_BmO_SEC1_LYR4_LDR3F_MOD1_ROC8
par0vd: -0.675000
par1vd: 61.400000
par0va: -2.840000
par1va: 62.400000
par0rbia: 12.500000
par1rbia: 1.050000
par0tbia: 4.080000
par1tbia: 0.229000
par2tbia: -0.000158
par0ia: -2.812000
par1ia: 4.041000
par2ia: 0.026490
ROC:           BPix_BmO_SEC1_LYR4_LDR3F_MOD1_ROC9
par0vd: -8.670000
par1vd: 62.600000
par0va: -7.780000
par1va: 62.900000
par0rbia: 10.800000
par1rbia: 1.050000
par0tbia: 3.960000
par1tbia: 0.247000
par2tbia: -0.000189
par0ia: -2.431000
par1ia: 3.683000
par2ia: 0.026260
ROC:           BPix_BmO_SEC1_LYR4_LDR3F_MOD1_ROC10
par0vd: -10.400000
par1vd: 64.300000
par0va: -13.000000
par1va: 67.400000
par0rbia: 10.700000
par1rbia: 1.080000
par0tbia: 3.850000
par1tbia: 0.253000
par2tbia: -0.000213
par0ia: -1.496000
par1ia: 3.591000
par2ia: 0.030030
ROC:           BPix_BmO_SEC1_LYR4_LDR3F_MOD1_ROC11
par0vd: -5.720000
par1vd: 63.900000
par0va: -8.530000
par1va: 66.500000
par0rbia: 13.700000
par1rbia: 1.080000
par0tbia: 3.830000
par1tbia: 0.257000
par2tbia: -0.000213
par0ia: -1.409000
par1ia: 3.877000
par2ia: 0.023350
ROC:           BPix_BmO_SEC1_LYR4_LDR3F_MOD1_ROC12
par0vd: -15.400000
par1vd: 65.400000
par0va: -5.070000
par1va: 62.400000
par0rbia: 12.400000
par1rbia: 1.080000
par0tbia: 3.960000
par1tbia: 0.259000
par2tbia: -0.000210
par0ia: -2.228000
par1ia: 3.780000
par2ia: 0.023600
ROC:           BPix_BmO_SEC1_LYR4_LDR3F_MOD1_ROC13
par0vd: -11.900000
par1vd: 63.000000
par0va: -9.040000
par1va: 63.200000
par0rbia: 10.600000
par1rbia: 1.030000
par0tbia: 3.850000
par1tbia: 0.253000
par2tbia: -0.000213
par0ia: -0.654100
par1ia: 3.408000
par2ia: 0.029440
ROC:           BPix_BmO_SEC1_LYR4_LDR3F_MOD1_ROC14
par0vd: -8.830000
par1vd: 65.000000
par0va: -8.900000
par1va: 66.500000
par0rbia: 10.300000
par1rbia: 1.090000
par0tbia: 4.060000
par1tbia: 0.269000
par2tbia: -0.000229
par0ia: -2.704000
par1ia: 3.499000
par2ia: 0.025950
ROC:           BPix_BmO_SEC1_LYR4_LDR3F_MOD1_ROC15
par0vd: -6.640000
par1vd: 60.900000
par0va: -5.480000
par1va: 61.300000
par0rbia: 11.600000
par1rbia: 1.080000
par0tbia: 4.320000
par1tbia: 0.271000
par2tbia: -0.000239
par0ia: -2.136000
par1ia: 3.421000
par2ia: 0.026250
