ROC:           BPix_BpO_SEC8_LYR3_LDR22F_MOD3_ROC0
par0vd: -7.400000
par1vd: 67.900000
par0va: 0.664000
par1va: 65.600000
par0rbia: 15.100000
par1rbia: 1.100000
par0tbia: 4.620000
par1tbia: 0.263000
par2tbia: -0.000229
par0ia: -5.010000
par1ia: 3.987000
par2ia: 0.020290
ROC:           BPix_BpO_SEC8_LYR3_LDR22F_MOD3_ROC1
par0vd: -4.960000
par1vd: 64.100000
par0va: -0.232000
par1va: 63.200000
par0rbia: 14.800000
par1rbia: 1.080000
par0tbia: 4.600000
par1tbia: 0.253000
par2tbia: -0.000213
par0ia: -3.563000
par1ia: 3.889000
par2ia: 0.024110
ROC:           BPix_BpO_SEC8_LYR3_LDR22F_MOD3_ROC2
par0vd: -3.870000
par1vd: 64.900000
par0va: -1.930000
par1va: 65.600000
par0rbia: 12.600000
par1rbia: 1.090000
par0tbia: 4.600000
par1tbia: 0.278000
par2tbia: -0.000287
par0ia: -2.404000
par1ia: 3.292000
par2ia: 0.030300
ROC:           BPix_BpO_SEC8_LYR3_LDR22F_MOD3_ROC3
par0vd: -6.880000
par1vd: 66.500000
par0va: -3.320000
par1va: 66.800000
par0rbia: 11.500000
par1rbia: 1.090000
par0tbia: 4.550000
par1tbia: 0.254000
par2tbia: -0.000199
par0ia: -6.669000
par1ia: 3.943000
par2ia: 0.022040
ROC:           BPix_BpO_SEC8_LYR3_LDR22F_MOD3_ROC4
par0vd: -8.430000
par1vd: 63.100000
par0va: -1.760000
par1va: 61.400000
par0rbia: 9.560000
par1rbia: 1.030000
par0tbia: 4.810000
par1tbia: 0.232000
par2tbia: -0.000153
par0ia: -7.121000
par1ia: 3.805000
par2ia: 0.025910
ROC:           BPix_BpO_SEC8_LYR3_LDR22F_MOD3_ROC5
par0vd: -7.140000
par1vd: 62.700000
par0va: 0.667000
par1va: 60.400000
par0rbia: 12.400000
par1rbia: 1.060000
par0tbia: 4.440000
par1tbia: 0.264000
par2tbia: -0.000238
par0ia: -0.087690
par1ia: 3.246000
par2ia: 0.030890
ROC:           BPix_BpO_SEC8_LYR3_LDR22F_MOD3_ROC6
par0vd: -12.600000
par1vd: 65.800000
par0va: 1.230000
par1va: 61.300000
par0rbia: 12.500000
par1rbia: 1.050000
par0tbia: 4.620000
par1tbia: 0.227000
par2tbia: -0.000162
par0ia: -3.254000
par1ia: 3.849000
par2ia: 0.031570
ROC:           BPix_BpO_SEC8_LYR3_LDR22F_MOD3_ROC7
par0vd: -12.900000
par1vd: 63.800000
par0va: -2.110000
par1va: 60.300000
par0rbia: 9.900000
par1rbia: 1.050000
par0tbia: 4.450000
par1tbia: 0.253000
par2tbia: -0.000208
par0ia: -2.815000
par1ia: 3.352000
par2ia: 0.030390
ROC:           BPix_BpO_SEC8_LYR3_LDR22F_MOD3_ROC8
par0vd: -12.500000
par1vd: 62.400000
par0va: -4.040000
par1va: 60.400000
par0rbia: 9.810000
par1rbia: 1.060000
par0tbia: 4.670000
par1tbia: 0.251000
par2tbia: -0.000208
par0ia: -5.048000
par1ia: 3.520000
par2ia: 0.029870
ROC:           BPix_BpO_SEC8_LYR3_LDR22F_MOD3_ROC9
par0vd: -12.400000
par1vd: 65.500000
par0va: 2.790000
par1va: 59.900000
par0rbia: 11.100000
par1rbia: 1.050000
par0tbia: 4.530000
par1tbia: 0.255000
par2tbia: -0.000218
par0ia: -2.608000
par1ia: 3.386000
par2ia: 0.029810
ROC:           BPix_BpO_SEC8_LYR3_LDR22F_MOD3_ROC10
par0vd: -12.700000
par1vd: 66.500000
par0va: -4.230000
par1va: 64.800000
par0rbia: 11.800000
par1rbia: 1.060000
par0tbia: 4.640000
par1tbia: 0.249000
par2tbia: -0.000179
par0ia: -3.215000
par1ia: 3.617000
par2ia: 0.025430
ROC:           BPix_BpO_SEC8_LYR3_LDR22F_MOD3_ROC11
par0vd: -14.200000
par1vd: 67.400000
par0va: -1.370000
par1va: 63.500000
par0rbia: 12.000000
par1rbia: 1.080000
par0tbia: 4.860000
par1tbia: 0.242000
par2tbia: -0.000172
par0ia: -7.509000
par1ia: 4.058000
par2ia: 0.022280
ROC:           BPix_BpO_SEC8_LYR3_LDR22F_MOD3_ROC12
par0vd: -4.480000
par1vd: 62.000000
par0va: -5.990000
par1va: 64.300000
par0rbia: 8.490000
par1rbia: 1.050000
par0tbia: 4.460000
par1tbia: 0.228000
par2tbia: -0.000172
par0ia: -7.426000
par1ia: 3.903000
par2ia: 0.031720
ROC:           BPix_BpO_SEC8_LYR3_LDR22F_MOD3_ROC13
par0vd: -9.130000
par1vd: 65.800000
par0va: -2.030000
par1va: 65.000000
par0rbia: 10.700000
par1rbia: 1.070000
par0tbia: 4.500000
par1tbia: 0.264000
par2tbia: -0.000257
par0ia: -0.852400
par1ia: 3.108000
par2ia: 0.036870
ROC:           BPix_BpO_SEC8_LYR3_LDR22F_MOD3_ROC14
par0vd: -8.180000
par1vd: 61.900000
par0va: -5.940000
par1va: 63.000000
par0rbia: 6.900000
par1rbia: 1.030000
par0tbia: 4.580000
par1tbia: 0.218000
par2tbia: -0.000133
par0ia: -9.531000
par1ia: 4.006000
par2ia: 0.027450
ROC:           BPix_BpO_SEC8_LYR3_LDR22F_MOD3_ROC15
par0vd: -10.900000
par1vd: 69.000000
par0va: 6.110000
par1va: 63.300000
par0rbia: 14.400000
par1rbia: 1.040000
par0tbia: 4.520000
par1tbia: 0.228000
par2tbia: -0.000192
par0ia: -1.158000
par1ia: 3.753000
par2ia: 0.036440
