ROC:           BPix_BmO_SEC8_LYR4_LDR32F_MOD2_ROC0
par0vd: -2.230000
par1vd: 64.300000
par0va: 0.287000
par1va: 62.000000
par0rbia: 15.700000
par1rbia: 1.090000
par0tbia: 4.410000
par1tbia: 0.255000
par2tbia: -0.000208
par0ia: -3.301000
par1ia: 4.061000
par2ia: 0.020180
ROC:           BPix_BmO_SEC8_LYR4_LDR32F_MOD2_ROC1
par0vd: -1.770000
par1vd: 64.500000
par0va: 1.530000
par1va: 60.700000
par0rbia: 8.000000
par1rbia: 1.090000
par0tbia: 4.410000
par1tbia: 0.248000
par2tbia: -0.000199
par0ia: -6.295000
par1ia: 3.661000
par2ia: 0.030310
ROC:           BPix_BmO_SEC8_LYR4_LDR32F_MOD2_ROC2
par0vd: -3.480000
par1vd: 61.500000
par0va: -2.340000
par1va: 60.100000
par0rbia: 13.200000
par1rbia: 1.070000
par0tbia: 4.240000
par1tbia: 0.263000
par2tbia: -0.000199
par0ia: -1.332000
par1ia: 3.625000
par2ia: 0.021740
ROC:           BPix_BmO_SEC8_LYR4_LDR32F_MOD2_ROC3
par0vd: -1.300000
par1vd: 66.300000
par0va: -7.430000
par1va: 68.100000
par0rbia: 8.750000
par1rbia: 1.080000
par0tbia: 4.190000
par1tbia: 0.232000
par2tbia: -0.000154
par0ia: -6.555000
par1ia: 4.037000
par2ia: 0.026390
ROC:           BPix_BmO_SEC8_LYR4_LDR32F_MOD2_ROC4
par0vd: -8.030000
par1vd: 68.000000
par0va: -1.300000
par1va: 64.200000
par0rbia: 12.600000
par1rbia: 1.090000
par0tbia: 4.490000
par1tbia: 0.256000
par2tbia: -0.000233
par0ia: -4.648000
par1ia: 3.786000
par2ia: 0.027580
ROC:           BPix_BmO_SEC8_LYR4_LDR32F_MOD2_ROC5
par0vd: 0.373000
par1vd: 60.100000
par0va: -4.680000
par1va: 61.500000
par0rbia: 11.000000
par1rbia: 1.050000
par0tbia: 4.520000
par1tbia: 0.237000
par2tbia: -0.000183
par0ia: -5.390000
par1ia: 3.840000
par2ia: 0.027940
ROC:           BPix_BmO_SEC8_LYR4_LDR32F_MOD2_ROC6
par0vd: -9.190000
par1vd: 67.000000
par0va: -0.908000
par1va: 61.600000
par0rbia: 9.560000
par1rbia: 1.060000
par0tbia: 4.670000
par1tbia: 0.237000
par2tbia: -0.000188
par0ia: -6.224000
par1ia: 3.722000
par2ia: 0.031750
ROC:           BPix_BmO_SEC8_LYR4_LDR32F_MOD2_ROC7
par0vd: -2.670000
par1vd: 64.100000
par0va: -0.713000
par1va: 62.000000
par0rbia: 12.100000
par1rbia: 1.050000
par0tbia: 4.110000
par1tbia: 0.269000
par2tbia: -0.000257
par0ia: 0.480000
par1ia: 3.198000
par2ia: 0.030560
ROC:           BPix_BmO_SEC8_LYR4_LDR32F_MOD2_ROC8
par0vd: 0.069200
par1vd: 59.900000
par0va: -5.490000
par1va: 61.500000
par0rbia: 12.800000
par1rbia: 1.080000
par0tbia: 4.320000
par1tbia: 0.259000
par2tbia: -0.000218
par0ia: -4.051000
par1ia: 3.829000
par2ia: 0.023160
ROC:           BPix_BmO_SEC8_LYR4_LDR32F_MOD2_ROC9
par0vd: -10.800000
par1vd: 68.400000
par0va: -3.670000
par1va: 64.800000
par0rbia: 11.100000
par1rbia: 1.080000
par0tbia: 4.140000
par1tbia: 0.247000
par2tbia: -0.000202
par0ia: -3.402000
par1ia: 3.776000
par2ia: 0.028850
ROC:           BPix_BmO_SEC8_LYR4_LDR32F_MOD2_ROC10
par0vd: -5.360000
par1vd: 64.300000
par0va: -1.840000
par1va: 62.400000
par0rbia: 12.300000
par1rbia: 1.060000
par0tbia: 4.290000
par1tbia: 0.264000
par2tbia: -0.000238
par0ia: -0.167000
par1ia: 3.288000
par2ia: 0.029980
ROC:           BPix_BmO_SEC8_LYR4_LDR32F_MOD2_ROC11
par0vd: -4.970000
par1vd: 65.400000
par0va: -5.260000
par1va: 64.800000
par0rbia: 14.300000
par1rbia: 1.090000
par0tbia: 4.520000
par1tbia: 0.237000
par2tbia: -0.000183
par0ia: -8.141000
par1ia: 4.535000
par2ia: 0.019150
ROC:           BPix_BmO_SEC8_LYR4_LDR32F_MOD2_ROC12
par0vd: 3.230000
par1vd: 64.500000
par0va: 2.130000
par1va: 63.900000
par0rbia: 19.400000
par1rbia: 1.100000
par0tbia: 4.590000
par1tbia: 0.275000
par2tbia: -0.000242
par0ia: -3.927000
par1ia: 4.192000
par2ia: 0.013020
ROC:           BPix_BmO_SEC8_LYR4_LDR32F_MOD2_ROC13
par0vd: -1.120000
par1vd: 61.000000
par0va: -1.210000
par1va: 60.200000
par0rbia: 10.500000
par1rbia: 1.020000
par0tbia: 4.270000
par1tbia: 0.274000
par2tbia: -0.000267
par0ia: -0.457800
par1ia: 2.988000
par2ia: 0.030490
ROC:           BPix_BmO_SEC8_LYR4_LDR32F_MOD2_ROC14
par0vd: -2.400000
par1vd: 62.700000
par0va: 0.714000
par1va: 60.600000
par0rbia: 14.200000
par1rbia: 1.080000
par0tbia: 4.260000
par1tbia: 0.266000
par2tbia: -0.000223
par0ia: -2.325000
par1ia: 3.756000
par2ia: 0.020980
ROC:           BPix_BmO_SEC8_LYR4_LDR32F_MOD2_ROC15
par0vd: -4.060000
par1vd: 63.000000
par0va: -5.430000
par1va: 63.500000
par0rbia: 11.500000
par1rbia: 1.060000
par0tbia: 3.950000
par1tbia: 0.292000
par2tbia: -0.000313
par0ia: 3.278000
par1ia: 2.737000
par2ia: 0.033620
