ROC:           BPix_BpO_SEC3_LYR4_LDR12F_MOD3_ROC0
par0vd: -9.760000
par1vd: 65.700000
par0va: -8.960000
par1va: 64.500000
par0rbia: 11.400000
par1rbia: 1.080000
par0tbia: 4.760000
par1tbia: 0.239000
par2tbia: -0.000170
par0ia: -8.210000
par1ia: 4.137000
par2ia: 0.022590
ROC:           BPix_BpO_SEC3_LYR4_LDR12F_MOD3_ROC1
par0vd: 2.590000
par1vd: 59.500000
par0va: -2.510000
par1va: 59.700000
par0rbia: 14.000000
par1rbia: 1.070000
par0tbia: 5.250000
par1tbia: 0.283000
par2tbia: -0.000273
par0ia: -1.239000
par1ia: 3.083000
par2ia: 0.027860
ROC:           BPix_BpO_SEC3_LYR4_LDR12F_MOD3_ROC2
par0vd: 4.450000
par1vd: 63.900000
par0va: 0.377000
par1va: 64.100000
par0rbia: 16.500000
par1rbia: 1.090000
par0tbia: 5.050000
par1tbia: 0.261000
par2tbia: -0.000230
par0ia: -5.935000
par1ia: 4.020000
par2ia: 0.020510
ROC:           BPix_BpO_SEC3_LYR4_LDR12F_MOD3_ROC3
par0vd: -2.650000
par1vd: 59.700000
par0va: -5.100000
par1va: 59.700000
par0rbia: 12.700000
par1rbia: 1.080000
par0tbia: 5.080000
par1tbia: 0.273000
par2tbia: -0.000234
par0ia: -5.453000
par1ia: 3.546000
par2ia: 0.022420
ROC:           BPix_BpO_SEC3_LYR4_LDR12F_MOD3_ROC4
par0vd: -1.970000
par1vd: 62.900000
par0va: -2.180000
par1va: 62.100000
par0rbia: 14.600000
par1rbia: 1.080000
par0tbia: 5.080000
par1tbia: 0.257000
par2tbia: -0.000221
par0ia: -4.658000
par1ia: 3.742000
par2ia: 0.024970
ROC:           BPix_BpO_SEC3_LYR4_LDR12F_MOD3_ROC5
par0vd: -10.600000
par1vd: 66.900000
par0va: -5.210000
par1va: 64.200000
par0rbia: 13.400000
par1rbia: 1.040000
par0tbia: 5.050000
par1tbia: 0.261000
par2tbia: -0.000240
par0ia: -0.976700
par1ia: 3.167000
par2ia: 0.031810
ROC:           BPix_BpO_SEC3_LYR4_LDR12F_MOD3_ROC6
par0vd: -7.490000
par1vd: 63.400000
par0va: -4.500000
par1va: 61.100000
par0rbia: 9.550000
par1rbia: 1.000000
par0tbia: 4.900000
par1tbia: 0.251000
par2tbia: -0.000199
par0ia: -4.517000
par1ia: 3.259000
par2ia: 0.027880
ROC:           BPix_BpO_SEC3_LYR4_LDR12F_MOD3_ROC7
par0vd: 1.070000
par1vd: 63.000000
par0va: -5.240000
par1va: 64.300000
par0rbia: 12.700000
par1rbia: 1.090000
par0tbia: 4.810000
par1tbia: 0.263000
par2tbia: -0.000245
par0ia: -4.062000
par1ia: 3.548000
par2ia: 0.028780
ROC:           BPix_BpO_SEC3_LYR4_LDR12F_MOD3_ROC8
par0vd: 1.340000
par1vd: 60.100000
par0va: -4.860000
par1va: 61.300000
par0rbia: 9.390000
par1rbia: 1.040000
par0tbia: 5.210000
par1tbia: 0.248000
par2tbia: -0.000189
par0ia: -9.273000
par1ia: 3.681000
par2ia: 0.024130
ROC:           BPix_BpO_SEC3_LYR4_LDR12F_MOD3_ROC9
par0vd: -3.810000
par1vd: 65.500000
par0va: -6.820000
par1va: 66.300000
par0rbia: 11.600000
par1rbia: 1.080000
par0tbia: 4.950000
par1tbia: 0.265000
par2tbia: -0.000255
par0ia: -3.900000
par1ia: 3.332000
par2ia: 0.032110
ROC:           BPix_BpO_SEC3_LYR4_LDR12F_MOD3_ROC10
par0vd: -4.360000
par1vd: 65.900000
par0va: -1.030000
par1va: 62.800000
par0rbia: 11.000000
par1rbia: 1.060000
par0tbia: 4.660000
par1tbia: 0.252000
par2tbia: -0.000223
par0ia: -3.906000
par1ia: 3.473000
par2ia: 0.031420
ROC:           BPix_BpO_SEC3_LYR4_LDR12F_MOD3_ROC11
par0vd: -6.230000
par1vd: 65.500000
par0va: -4.260000
par1va: 63.900000
par0rbia: 14.000000
par1rbia: 1.080000
par0tbia: 5.140000
par1tbia: 0.274000
par2tbia: -0.000263
par0ia: -2.808000
par1ia: 3.328000
par2ia: 0.028200
ROC:           BPix_BpO_SEC3_LYR4_LDR12F_MOD3_ROC12
par0vd: 0.549000
par1vd: 60.400000
par0va: -4.170000
par1va: 61.700000
par0rbia: 13.200000
par1rbia: 1.060000
par0tbia: 4.900000
par1tbia: 0.251000
par2tbia: -0.000199
par0ia: -3.821000
par1ia: 3.647000
par2ia: 0.025940
ROC:           BPix_BpO_SEC3_LYR4_LDR12F_MOD3_ROC13
par0vd: -0.389000
par1vd: 60.800000
par0va: -4.380000
par1va: 61.900000
par0rbia: 7.780000
par1rbia: 1.020000
par0tbia: 5.070000
par1tbia: 0.235000
par2tbia: -0.000160
par0ia: -9.152000
par1ia: 3.659000
par2ia: 0.025800
ROC:           BPix_BpO_SEC3_LYR4_LDR12F_MOD3_ROC14
par0vd: -1.790000
par1vd: 62.600000
par0va: -6.980000
par1va: 64.400000
par0rbia: 10.200000
par1rbia: 1.080000
par0tbia: 4.850000
par1tbia: 0.247000
par2tbia: -0.000204
par0ia: -7.160000
par1ia: 3.749000
par2ia: 0.028710
ROC:           BPix_BpO_SEC3_LYR4_LDR12F_MOD3_ROC15
par0vd: -3.670000
par1vd: 64.100000
par0va: -4.360000
par1va: 63.500000
par0rbia: 9.530000
par1rbia: 1.080000
par0tbia: 4.600000
par1tbia: 0.233000
par2tbia: -0.000155
par0ia: -8.372000
par1ia: 4.108000
par2ia: 0.024630
