ROC:           BPix_BmI_SEC1_LYR2_LDR2F_MOD2_ROC0
par0vd: -0.071800
par1vd: 61.300000
par0va: -2.800000
par1va: 61.500000
par0rbia: 15.700000
par1rbia: 1.090000
par0tbia: 4.070000
par1tbia: 0.270000
par2tbia: -0.000262
par0ia: -1.320000
par1ia: 3.803000
par2ia: 0.023880
ROC:           BPix_BmI_SEC1_LYR2_LDR2F_MOD2_ROC1
par0vd: -0.755000
par1vd: 63.200000
par0va: -6.010000
par1va: 64.700000
par0rbia: 13.200000
par1rbia: 1.110000
par0tbia: 4.850000
par1tbia: 0.261000
par2tbia: -0.000218
par0ia: -8.613000
par1ia: 4.108000
par2ia: 0.018830
ROC:           BPix_BmI_SEC1_LYR2_LDR2F_MOD2_ROC2
par0vd: 1.870000
par1vd: 65.400000
par0va: -6.950000
par1va: 69.600000
par0rbia: 12.400000
par1rbia: 1.080000
par0tbia: 4.230000
par1tbia: 0.276000
par2tbia: -0.000276
par0ia: -0.900600
par1ia: 3.306000
par2ia: 0.030210
ROC:           BPix_BmI_SEC1_LYR2_LDR2F_MOD2_ROC3
par0vd: -3.500000
par1vd: 61.700000
par0va: -2.550000
par1va: 61.200000
par0rbia: 11.600000
par1rbia: 1.030000
par0tbia: 3.830000
par1tbia: 0.232000
par2tbia: -0.000167
par0ia: -1.737000
par1ia: 3.849000
par2ia: 0.027060
ROC:           BPix_BmI_SEC1_LYR2_LDR2F_MOD2_ROC4
par0vd: 1.990000
par1vd: 61.200000
par0va: 1.270000
par1va: 60.600000
par0rbia: 13.100000
par1rbia: 1.070000
par0tbia: 3.590000
par1tbia: 0.252000
par2tbia: -0.000247
par0ia: 3.022000
par1ia: 3.377000
par2ia: 0.038710
ROC:           BPix_BmI_SEC1_LYR2_LDR2F_MOD2_ROC5
par0vd: -3.540000
par1vd: 65.000000
par0va: -1.990000
par1va: 63.700000
par0rbia: 11.700000
par1rbia: 1.080000
par0tbia: 3.700000
par1tbia: 0.240000
par2tbia: -0.000162
par0ia: -2.455000
par1ia: 4.073000
par2ia: 0.022620
ROC:           BPix_BmI_SEC1_LYR2_LDR2F_MOD2_ROC6
par0vd: -6.020000
par1vd: 66.700000
par0va: -5.170000
par1va: 65.900000
par0rbia: 14.900000
par1rbia: 1.100000
par0tbia: 3.760000
par1tbia: 0.229000
par2tbia: -0.000182
par0ia: -4.415000
par1ia: 4.690000
par2ia: 0.022480
ROC:           BPix_BmI_SEC1_LYR2_LDR2F_MOD2_ROC7
par0vd: -5.270000
par1vd: 65.200000
par0va: 0.238000
par1va: 61.400000
par0rbia: 12.400000
par1rbia: 1.070000
par0tbia: 3.620000
par1tbia: 0.241000
par2tbia: -0.000196
par0ia: 0.650100
par1ia: 3.753000
par2ia: 0.031460
ROC:           BPix_BmI_SEC1_LYR2_LDR2F_MOD2_ROC8
par0vd: -6.570000
par1vd: 66.700000
par0va: -3.200000
par1va: 64.500000
par0rbia: 9.930000
par1rbia: 1.060000
par0tbia: 3.860000
par1tbia: 0.235000
par2tbia: -0.000182
par0ia: -3.307000
par1ia: 3.838000
par2ia: 0.030460
ROC:           BPix_BmI_SEC1_LYR2_LDR2F_MOD2_ROC9
par0vd: -1.610000
par1vd: 64.900000
par0va: -4.780000
par1va: 66.300000
par0rbia: 11.600000
par1rbia: 1.030000
par0tbia: 4.000000
par1tbia: 0.244000
par2tbia: -0.000208
par0ia: -1.137000
par1ia: 3.547000
par2ia: 0.031240
ROC:           BPix_BmI_SEC1_LYR2_LDR2F_MOD2_ROC10
par0vd: -0.530000
par1vd: 65.300000
par0va: -7.270000
par1va: 68.500000
par0rbia: 12.200000
par1rbia: 1.070000
par0tbia: 4.130000
par1tbia: 0.229000
par2tbia: -0.000158
par0ia: -2.796000
par1ia: 4.030000
par2ia: 0.028450
ROC:           BPix_BmI_SEC1_LYR2_LDR2F_MOD2_ROC11
par0vd: -3.190000
par1vd: 66.100000
par0va: -1.970000
par1va: 64.900000
par0rbia: 11.800000
par1rbia: 1.100000
par0tbia: 3.890000
par1tbia: 0.255000
par2tbia: -0.000205
par0ia: -3.703000
par1ia: 3.959000
par2ia: 0.022550
ROC:           BPix_BmI_SEC1_LYR2_LDR2F_MOD2_ROC12
par0vd: -5.980000
par1vd: 63.700000
par0va: -8.950000
par1va: 65.800000
par0rbia: 12.000000
par1rbia: 1.090000
par0tbia: 3.760000
par1tbia: 0.234000
par2tbia: -0.000155
par0ia: -3.582000
par1ia: 4.277000
par2ia: 0.022170
ROC:           BPix_BmI_SEC1_LYR2_LDR2F_MOD2_ROC13
par0vd: -0.134000
par1vd: 63.900000
par0va: -2.030000
par1va: 64.400000
par0rbia: 13.100000
par1rbia: 1.100000
par0tbia: 4.180000
par1tbia: 0.298000
par2tbia: -0.000297
par0ia: -1.812000
par1ia: 3.357000
par2ia: 0.022110
ROC:           BPix_BmI_SEC1_LYR2_LDR2F_MOD2_ROC14
par0vd: -0.147000
par1vd: 63.700000
par0va: -0.131000
par1va: 63.000000
par0rbia: 12.300000
par1rbia: 1.080000
par0tbia: 4.830000
par1tbia: 0.244000
par2tbia: -0.000193
par0ia: -7.214000
par1ia: 4.011000
par2ia: 0.024740
ROC:           BPix_BmI_SEC1_LYR2_LDR2F_MOD2_ROC15
par0vd: -6.690000
par1vd: 63.700000
par0va: -4.780000
par1va: 62.500000
par0rbia: 7.680000
par1rbia: 1.070000
par0tbia: 3.940000
par1tbia: 0.244000
par2tbia: -0.000189
par0ia: -4.604000
par1ia: 3.657000
par2ia: 0.030130
