ROC:           BPix_BpI_SEC7_LYR1_LDR6H_MOD4_ROC4
par0vd: 5.370000
par1vd: 61.200000
par0va: 10.000000
par1va: 61.500000
par0rbia: 12.500000
par1rbia: 1.070000
par0tbia: 4.750000
par1tbia: 0.262000
par2tbia: -0.000161
par0ia: -3.869000
par1ia: 3.669000
par2ia: 0.017350
ROC:           BPix_BpI_SEC7_LYR1_LDR6H_MOD4_ROC5
par0vd: 6.090000
par1vd: 62.100000
par0va: 7.630000
par1va: 64.000000
par0rbia: 14.600000
par1rbia: 1.100000
par0tbia: 4.540000
par1tbia: 0.262000
par2tbia: -0.000161
par0ia: -6.253000
par1ia: 4.218000
par2ia: 0.010480
ROC:           BPix_BpI_SEC7_LYR1_LDR6H_MOD4_ROC6
par0vd: 0.335000
par1vd: 62.600000
par0va: 7.330000
par1va: 62.600000
par0rbia: 12.000000
par1rbia: 1.020000
par0tbia: 4.590000
par1tbia: 0.281000
par2tbia: -0.000224
par0ia: 0.417200
par1ia: 2.991000
par2ia: 0.022900
ROC:           BPix_BpI_SEC7_LYR1_LDR6H_MOD4_ROC7
par0vd: -2.160000
par1vd: 62.500000
par0va: 7.000000
par1va: 61.100000
par0rbia: 10.900000
par1rbia: 1.060000
par0tbia: 4.800000
par1tbia: 0.268000
par2tbia: -0.000176
par0ia: -3.398000
par1ia: 3.395000
par2ia: 0.020300
ROC:           BPix_BpI_SEC7_LYR1_LDR6H_MOD4_ROC8
par0vd: -2.560000
par1vd: 67.200000
par0va: 7.510000
par1va: 65.500000
par0rbia: 9.160000
par1rbia: 1.060000
par0tbia: 4.600000
par1tbia: 0.232000
par2tbia: -0.000090
par0ia: -5.836000
par1ia: 3.907000
par2ia: 0.018760
ROC:           BPix_BpI_SEC7_LYR1_LDR6H_MOD4_ROC9
par0vd: 10.900000
par1vd: 60.600000
par0va: 9.770000
par1va: 63.300000
par0rbia: 15.200000
par1rbia: 1.060000
par0tbia: 4.670000
par1tbia: 0.289000
par2tbia: -0.000229
par0ia: 2.606000
par1ia: 3.092000
par2ia: 0.021430
ROC:           BPix_BpI_SEC7_LYR1_LDR6H_MOD4_ROC10
par0vd: 3.570000
par1vd: 65.200000
par0va: 8.310000
par1va: 66.100000
par0rbia: 12.800000
par1rbia: 1.040000
par0tbia: 4.860000
par1tbia: 0.248000
par2tbia: -0.000143
par0ia: -2.004000
par1ia: 3.537000
par2ia: 0.021370
ROC:           BPix_BpI_SEC7_LYR1_LDR6H_MOD4_ROC11
par0vd: 0.027800
par1vd: 64.700000
par0va: 11.500000
par1va: 61.900000
par0rbia: 14.200000
par1rbia: 1.090000
par0tbia: 5.240000
par1tbia: 0.280000
par2tbia: -0.000190
par0ia: -5.609000
par1ia: 3.676000
par2ia: 0.013770
