ROC:           BPix_BpO_SEC7_LYR3_LDR18F_MOD1_ROC0
par0vd: -12.000000
par1vd: 61.100000
par0va: -7.500000
par1va: 59.300000
par0rbia: 8.140000
par1rbia: 1.030000
par0tbia: 4.720000
par1tbia: 0.235000
par2tbia: -0.000162
par0ia: -7.106000
par1ia: 3.645000
par2ia: 0.027400
ROC:           BPix_BpO_SEC7_LYR3_LDR18F_MOD1_ROC1
par0vd: -7.680000
par1vd: 62.400000
par0va: -6.160000
par1va: 61.900000
par0rbia: 8.860000
par1rbia: 1.000000
par0tbia: 3.930000
par1tbia: 0.233000
par2tbia: -0.000187
par0ia: -0.981400
par1ia: 3.329000
par2ia: 0.036620
ROC:           BPix_BpO_SEC7_LYR3_LDR18F_MOD1_ROC2
par0vd: -2.060000
par1vd: 66.100000
par0va: 3.790000
par1va: 63.100000
par0rbia: 14.300000
par1rbia: 1.080000
par0tbia: 4.070000
par1tbia: 0.231000
par2tbia: -0.000172
par0ia: -2.956000
par1ia: 4.270000
par2ia: 0.025620
ROC:           BPix_BpO_SEC7_LYR3_LDR18F_MOD1_ROC3
par0vd: -8.340000
par1vd: 63.200000
par0va: -1.530000
par1va: 60.200000
par0rbia: 14.900000
par1rbia: 1.090000
par0tbia: 4.100000
par1tbia: 0.261000
par2tbia: -0.000242
par0ia: -1.419000
par1ia: 3.801000
par2ia: 0.025860
ROC:           BPix_BpO_SEC7_LYR3_LDR18F_MOD1_ROC4
par0vd: -10.200000
par1vd: 61.400000
par0va: -5.650000
par1va: 60.000000
par0rbia: 11.400000
par1rbia: 1.000000
par0tbia: 3.960000
par1tbia: 0.248000
par2tbia: -0.000240
par0ia: 1.286000
par1ia: 3.124000
par2ia: 0.038360
ROC:           BPix_BpO_SEC7_LYR3_LDR18F_MOD1_ROC5
par0vd: -7.710000
par1vd: 60.800000
par0va: -1.060000
par1va: 57.800000
par0rbia: 10.200000
par1rbia: 1.030000
par0tbia: 4.100000
par1tbia: 0.261000
par2tbia: -0.000242
par0ia: 0.735200
par1ia: 3.008000
par2ia: 0.034720
ROC:           BPix_BpO_SEC7_LYR3_LDR18F_MOD1_ROC6
par0vd: -5.270000
par1vd: 63.300000
par0va: -4.390000
par1va: 63.000000
par0rbia: 12.000000
par1rbia: 1.070000
par0tbia: 4.300000
par1tbia: 0.253000
par2tbia: -0.000235
par0ia: -0.244000
par1ia: 3.344000
par2ia: 0.036500
ROC:           BPix_BpO_SEC7_LYR3_LDR18F_MOD1_ROC7
par0vd: -7.660000
par1vd: 62.200000
par0va: -5.310000
par1va: 61.500000
par0rbia: 8.680000
par1rbia: 1.000000
par0tbia: 3.910000
par1tbia: 0.270000
par2tbia: -0.000252
par0ia: 1.914000
par1ia: 2.713000
par2ia: 0.034660
ROC:           BPix_BpO_SEC7_LYR3_LDR18F_MOD1_ROC8
par0vd: -6.820000
par1vd: 62.200000
par0va: -5.750000
par1va: 62.400000
par0rbia: 11.200000
par1rbia: 1.030000
par0tbia: 4.070000
par1tbia: 0.231000
par2tbia: -0.000172
par0ia: -1.305000
par1ia: 3.650000
par2ia: 0.032170
ROC:           BPix_BpO_SEC7_LYR3_LDR18F_MOD1_ROC9
par0vd: -7.090000
par1vd: 59.900000
par0va: -10.200000
par1va: 61.900000
par0rbia: 10.800000
par1rbia: 1.050000
par0tbia: 3.810000
par1tbia: 0.242000
par2tbia: -0.000187
par0ia: -1.002000
par1ia: 3.652000
par2ia: 0.030040
ROC:           BPix_BpO_SEC7_LYR3_LDR18F_MOD1_ROC10
par0vd: -14.200000
par1vd: 64.800000
par0va: -5.590000
par1va: 61.600000
par0rbia: 9.910000
par1rbia: 1.040000
par0tbia: 3.810000
par1tbia: 0.246000
par2tbia: -0.000211
par0ia: 0.441500
par1ia: 3.305000
par2ia: 0.036210
ROC:           BPix_BpO_SEC7_LYR3_LDR18F_MOD1_ROC11
par0vd: -8.740000
par1vd: 60.400000
par0va: -7.210000
par1va: 60.200000
par0rbia: 10.700000
par1rbia: 1.040000
par0tbia: 4.350000
par1tbia: 0.241000
par2tbia: -0.000177
par0ia: -2.753000
par1ia: 3.601000
par2ia: 0.028840
ROC:           BPix_BpO_SEC7_LYR3_LDR18F_MOD1_ROC12
par0vd: -2.820000
par1vd: 62.200000
par0va: -8.340000
par1va: 65.200000
par0rbia: 10.200000
par1rbia: 1.090000
par0tbia: 3.870000
par1tbia: 0.229000
par2tbia: -0.000162
par0ia: -4.808000
par1ia: 4.193000
par2ia: 0.028110
ROC:           BPix_BpO_SEC7_LYR3_LDR18F_MOD1_ROC13
par0vd: -16.000000
par1vd: 65.600000
par0va: -7.710000
par1va: 63.000000
par0rbia: 10.200000
par1rbia: 1.030000
par0tbia: 4.070000
par1tbia: 0.231000
par2tbia: -0.000172
par0ia: -3.285000
par1ia: 3.758000
par2ia: 0.030270
ROC:           BPix_BpO_SEC7_LYR3_LDR18F_MOD1_ROC14
par0vd: -7.580000
par1vd: 62.900000
par0va: -5.280000
par1va: 62.800000
par0rbia: 12.600000
par1rbia: 1.080000
par0tbia: 4.060000
par1tbia: 0.273000
par2tbia: -0.000248
par0ia: -0.284400
par1ia: 3.401000
par2ia: 0.026980
ROC:           BPix_BpO_SEC7_LYR3_LDR18F_MOD1_ROC15
par0vd: -6.260000
par1vd: 63.900000
par0va: -4.900000
par1va: 64.300000
par0rbia: 13.200000
par1rbia: 1.070000
par0tbia: 4.070000
par1tbia: 0.231000
par2tbia: -0.000172
par0ia: -0.829400
par1ia: 3.896000
par2ia: 0.031130
