ROC:           BPix_BmO_SEC8_LYR2_LDR13F_MOD1_ROC0
par0vd: -4.970000
par1vd: 64.400000
par0va: -2.380000
par1va: 62.900000
par0rbia: 13.900000
par1rbia: 1.070000
par0tbia: 4.090000
par1tbia: 0.260000
par2tbia: -0.000233
par0ia: 0.366600
par1ia: 3.534000
par2ia: 0.029010
ROC:           BPix_BmO_SEC8_LYR2_LDR13F_MOD1_ROC1
par0vd: -2.920000
par1vd: 68.200000
par0va: 1.390000
par1va: 65.300000
par0rbia: 14.000000
par1rbia: 1.080000
par0tbia: 4.790000
par1tbia: 0.253000
par2tbia: -0.000223
par0ia: -3.772000
par1ia: 3.726000
par2ia: 0.028180
ROC:           BPix_BmO_SEC8_LYR2_LDR13F_MOD1_ROC2
par0vd: -7.610000
par1vd: 62.900000
par0va: -4.470000
par1va: 60.700000
par0rbia: 8.050000
par1rbia: 1.030000
par0tbia: 4.590000
par1tbia: 0.235000
par2tbia: -0.000178
par0ia: -6.678000
par1ia: 3.612000
par2ia: 0.030430
ROC:           BPix_BmO_SEC8_LYR2_LDR13F_MOD1_ROC3
par0vd: -3.660000
par1vd: 64.500000
par0va: -5.860000
par1va: 65.000000
par0rbia: 11.500000
par1rbia: 1.080000
par0tbia: 4.800000
par1tbia: 0.216000
par2tbia: -0.000122
par0ia: -9.664000
par1ia: 4.542000
par2ia: 0.022250
ROC:           BPix_BmO_SEC8_LYR2_LDR13F_MOD1_ROC4
par0vd: -3.480000
par1vd: 65.800000
par0va: -2.740000
par1va: 64.600000
par0rbia: 12.900000
par1rbia: 1.080000
par0tbia: 4.370000
par1tbia: 0.253000
par2tbia: -0.000223
par0ia: -3.990000
par1ia: 3.828000
par2ia: 0.026920
ROC:           BPix_BmO_SEC8_LYR2_LDR13F_MOD1_ROC5
par0vd: -4.400000
par1vd: 66.200000
par0va: 1.450000
par1va: 62.800000
par0rbia: 11.600000
par1rbia: 1.060000
par0tbia: 4.250000
par1tbia: 0.261000
par2tbia: -0.000223
par0ia: -0.783400
par1ia: 3.348000
par2ia: 0.028820
ROC:           BPix_BmO_SEC8_LYR2_LDR13F_MOD1_ROC6
par0vd: -4.210000
par1vd: 63.700000
par0va: -6.780000
par1va: 64.600000
par0rbia: 12.700000
par1rbia: 1.100000
par0tbia: 4.300000
par1tbia: 0.260000
par2tbia: -0.000238
par0ia: -4.708000
par1ia: 3.869000
par2ia: 0.025370
ROC:           BPix_BmO_SEC8_LYR2_LDR13F_MOD1_ROC7
par0vd: -0.804000
par1vd: 64.900000
par0va: -1.500000
par1va: 64.400000
par0rbia: 12.900000
par1rbia: 1.050000
par0tbia: 4.200000
par1tbia: 0.255000
par2tbia: -0.000236
par0ia: 1.870000
par1ia: 3.222000
par2ia: 0.036000
ROC:           BPix_BmO_SEC8_LYR2_LDR13F_MOD1_ROC8
par0vd: -7.880000
par1vd: 65.200000
par0va: -1.000000
par1va: 61.100000
par0rbia: 10.200000
par1rbia: 1.040000
par0tbia: 4.330000
par1tbia: 0.257000
par2tbia: -0.000242
par0ia: -1.664000
par1ia: 3.206000
par2ia: 0.034330
ROC:           BPix_BmO_SEC8_LYR2_LDR13F_MOD1_ROC9
par0vd: -6.790000
par1vd: 65.400000
par0va: 0.642000
par1va: 61.500000
par0rbia: 12.200000
par1rbia: 1.090000
par0tbia: 4.410000
par1tbia: 0.248000
par2tbia: -0.000199
par0ia: -5.257000
par1ia: 3.966000
par2ia: 0.024640
ROC:           BPix_BmO_SEC8_LYR2_LDR13F_MOD1_ROC10
par0vd: -1.760000
par1vd: 62.400000
par0va: -8.240000
par1va: 65.700000
par0rbia: 12.200000
par1rbia: 1.060000
par0tbia: 4.740000
par1tbia: 0.242000
par2tbia: -0.000175
par0ia: -4.171000
par1ia: 3.758000
par2ia: 0.026370
ROC:           BPix_BmO_SEC8_LYR2_LDR13F_MOD1_ROC11
par0vd: -8.590000
par1vd: 68.100000
par0va: -3.250000
par1va: 65.900000
par0rbia: 15.400000
par1rbia: 1.090000
par0tbia: 4.090000
par1tbia: 0.273000
par2tbia: -0.000257
par0ia: -1.210000
par1ia: 3.737000
par2ia: 0.022610
ROC:           BPix_BmO_SEC8_LYR2_LDR13F_MOD1_ROC12
par0vd: -4.710000
par1vd: 65.800000
par0va: -4.060000
par1va: 65.200000
par0rbia: 11.700000
par1rbia: 1.090000
par0tbia: 4.310000
par1tbia: 0.284000
par2tbia: -0.000281
par0ia: -1.581000
par1ia: 3.251000
par2ia: 0.028010
ROC:           BPix_BmO_SEC8_LYR2_LDR13F_MOD1_ROC13
par0vd: -0.215000
par1vd: 67.500000
par0va: -3.620000
par1va: 69.300000
par0rbia: 15.500000
par1rbia: 1.090000
par0tbia: 4.830000
par1tbia: 0.230000
par2tbia: -0.000164
par0ia: -9.731000
par1ia: 4.760000
par2ia: 0.016100
ROC:           BPix_BmO_SEC8_LYR2_LDR13F_MOD1_ROC14
par0vd: 3.520000
par1vd: 61.500000
par0va: -1.480000
par1va: 63.600000
par0rbia: 15.100000
par1rbia: 1.050000
par0tbia: 4.910000
par1tbia: 0.248000
par2tbia: -0.000208
par0ia: -1.599000
par1ia: 3.591000
par2ia: 0.029380
ROC:           BPix_BmO_SEC8_LYR2_LDR13F_MOD1_ROC15
par0vd: -7.370000
par1vd: 63.400000
par0va: -0.370000
par1va: 60.000000
par0rbia: 10.200000
par1rbia: 1.000000
par0tbia: 4.590000
par1tbia: 0.235000
par2tbia: -0.000178
par0ia: -2.953000
par1ia: 3.402000
par2ia: 0.032000
