ROC:           BPix_BpI_SEC2_LYR1_LDR2F_MOD4_ROC0
par0vd: 5.650000
par1vd: 67.100000
par0va: 5.880000
par1va: 67.000000
par0rbia: 12.900000
par1rbia: 1.090000
par0tbia: 4.540000
par1tbia: 0.304000
par2tbia: -0.000273
par0ia: -0.932400
par1ia: 3.149000
par2ia: 0.020220
ROC:           BPix_BpI_SEC2_LYR1_LDR2F_MOD4_ROC1
par0vd: 1.160000
par1vd: 66.000000
par0va: 5.580000
par1va: 64.000000
par0rbia: 12.400000
par1rbia: 1.080000
par0tbia: 4.440000
par1tbia: 0.280000
par2tbia: -0.000190
par0ia: -2.031000
par1ia: 3.466000
par2ia: 0.017000
ROC:           BPix_BpI_SEC2_LYR1_LDR2F_MOD4_ROC2
par0vd: 4.860000
par1vd: 65.700000
par0va: 3.800000
par1va: 66.400000
par0rbia: 8.440000
par1rbia: 1.040000
par0tbia: 4.530000
par1tbia: 0.264000
par2tbia: -0.000142
par0ia: -4.624000
par1ia: 3.403000
par2ia: 0.017280
ROC:           BPix_BpI_SEC2_LYR1_LDR2F_MOD4_ROC3
par0vd: 4.640000
par1vd: 62.800000
par0va: 2.810000
par1va: 63.900000
par0rbia: 8.790000
par1rbia: 1.080000
par0tbia: 4.890000
par1tbia: 0.269000
par2tbia: -0.000127
par0ia: -5.908000
par1ia: 3.507000
par2ia: 0.015450
ROC:           BPix_BpI_SEC2_LYR1_LDR2F_MOD4_ROC12
par0vd: 3.600000
par1vd: 67.000000
par0va: 11.700000
par1va: 63.100000
par0rbia: 16.700000
par1rbia: 1.100000
par0tbia: 4.030000
par1tbia: 0.284000
par2tbia: -0.000200
par0ia: -1.947000
par1ia: 3.988000
par2ia: 0.009766
ROC:           BPix_BpI_SEC2_LYR1_LDR2F_MOD4_ROC13
par0vd: 3.990000
par1vd: 62.600000
par0va: 6.520000
par1va: 61.300000
par0rbia: 10.400000
par1rbia: 1.070000
par0tbia: 4.510000
par1tbia: 0.280000
par2tbia: -0.000181
par0ia: -2.604000
par1ia: 3.324000
par2ia: 0.018130
ROC:           BPix_BpI_SEC2_LYR1_LDR2F_MOD4_ROC14
par0vd: 4.030000
par1vd: 64.400000
par0va: 4.150000
par1va: 64.800000
par0rbia: 12.200000
par1rbia: 1.090000
par0tbia: 4.370000
par1tbia: 0.283000
par2tbia: -0.000205
par0ia: -3.265000
par1ia: 3.559000
par2ia: 0.016290
ROC:           BPix_BpI_SEC2_LYR1_LDR2F_MOD4_ROC15
par0vd: 3.670000
par1vd: 62.600000
par0va: 7.480000
par1va: 60.700000
par0rbia: 14.900000
par1rbia: 1.100000
par0tbia: 4.220000
par1tbia: 0.300000
par2tbia: -0.000220
par0ia: -3.096000
par1ia: 3.720000
par2ia: 0.009883
