ROC:           BPix_BpO_SEC2_LYR4_LDR8F_MOD1_ROC0
par0vd: -2.820000
par1vd: 62.800000
par0va: -4.590000
par1va: 64.300000
par0rbia: 12.300000
par1rbia: 1.060000
par0tbia: 4.060000
par1tbia: 0.231000
par2tbia: -0.000148
par0ia: -2.730000
par1ia: 4.041000
par2ia: 0.024210
ROC:           BPix_BpO_SEC2_LYR4_LDR8F_MOD1_ROC1
par0vd: -0.058700
par1vd: 63.000000
par0va: -6.250000
par1va: 66.300000
par0rbia: 12.700000
par1rbia: 1.080000
par0tbia: 4.680000
par1tbia: 0.245000
par2tbia: -0.000160
par0ia: -7.194000
par1ia: 4.176000
par2ia: 0.017360
ROC:           BPix_BpO_SEC2_LYR4_LDR8F_MOD1_ROC2
par0vd: -7.020000
par1vd: 62.100000
par0va: -2.890000
par1va: 60.800000
par0rbia: 11.000000
par1rbia: 1.070000
par0tbia: 4.780000
par1tbia: 0.239000
par2tbia: -0.000153
par0ia: -6.232000
par1ia: 3.905000
par2ia: 0.023060
ROC:           BPix_BpO_SEC2_LYR4_LDR8F_MOD1_ROC3
par0vd: -6.060000
par1vd: 63.000000
par0va: -1.190000
par1va: 61.700000
par0rbia: 15.400000
par1rbia: 1.080000
par0tbia: 4.400000
par1tbia: 0.275000
par2tbia: -0.000244
par0ia: -1.100000
par1ia: 3.609000
par2ia: 0.021560
ROC:           BPix_BpO_SEC2_LYR4_LDR8F_MOD1_ROC4
par0vd: -3.160000
par1vd: 66.500000
par0va: -4.200000
par1va: 67.400000
par0rbia: 9.140000
par1rbia: 1.070000
par0tbia: 4.120000
par1tbia: 0.229000
par2tbia: -0.000167
par0ia: -5.637000
par1ia: 3.997000
par2ia: 0.030790
ROC:           BPix_BpO_SEC2_LYR4_LDR8F_MOD1_ROC5
par0vd: -9.120000
par1vd: 62.000000
par0va: -8.780000
par1va: 62.900000
par0rbia: 9.370000
par1rbia: 1.050000
par0tbia: 4.650000
par1tbia: 0.224000
par2tbia: -0.000114
par0ia: -8.232000
par1ia: 4.139000
par2ia: 0.020940
ROC:           BPix_BpO_SEC2_LYR4_LDR8F_MOD1_ROC6
par0vd: -3.650000
par1vd: 61.300000
par0va: -6.610000
par1va: 63.600000
par0rbia: 17.900000
par1rbia: 1.110000
par0tbia: 4.500000
par1tbia: 0.272000
par2tbia: -0.000239
par0ia: -6.925000
par1ia: 4.437000
par2ia: 0.010920
ROC:           BPix_BpO_SEC2_LYR4_LDR8F_MOD1_ROC7
par0vd: -7.580000
par1vd: 57.300000
par0va: -4.900000
par1va: 56.900000
par0rbia: 11.600000
par1rbia: 1.020000
par0tbia: 4.580000
par1tbia: 0.262000
par2tbia: -0.000210
par0ia: -2.337000
par1ia: 3.338000
par2ia: 0.024230
ROC:           BPix_BpO_SEC2_LYR4_LDR8F_MOD1_ROC8
par0vd: -11.500000
par1vd: 64.900000
par0va: -3.590000
par1va: 62.200000
par0rbia: 10.400000
par1rbia: 1.070000
par0tbia: 4.190000
par1tbia: 0.242000
par2tbia: -0.000187
par0ia: -3.528000
par1ia: 3.734000
par2ia: 0.029300
ROC:           BPix_BpO_SEC2_LYR4_LDR8F_MOD1_ROC9
par0vd: -8.650000
par1vd: 62.800000
par0va: -3.150000
par1va: 61.800000
par0rbia: 13.700000
par1rbia: 1.070000
par0tbia: 4.600000
par1tbia: 0.253000
par2tbia: -0.000213
par0ia: -1.502000
par1ia: 3.557000
par2ia: 0.028920
ROC:           BPix_BpO_SEC2_LYR4_LDR8F_MOD1_ROC10
par0vd: -11.800000
par1vd: 62.100000
par0va: -2.850000
par1va: 59.100000
par0rbia: 12.500000
par1rbia: 1.040000
par0tbia: 4.470000
par1tbia: 0.232000
par2tbia: -0.000148
par0ia: -3.785000
par1ia: 3.943000
par2ia: 0.023420
ROC:           BPix_BpO_SEC2_LYR4_LDR8F_MOD1_ROC11
par0vd: -15.700000
par1vd: 62.800000
par0va: -5.420000
par1va: 59.500000
par0rbia: 12.300000
par1rbia: 1.040000
par0tbia: 4.630000
par1tbia: 0.226000
par2tbia: -0.000128
par0ia: -6.904000
par1ia: 4.246000
par2ia: 0.018920
ROC:           BPix_BpO_SEC2_LYR4_LDR8F_MOD1_ROC12
par0vd: -10.400000
par1vd: 64.100000
par0va: -5.120000
par1va: 63.000000
par0rbia: 15.300000
par1rbia: 1.090000
par0tbia: 4.610000
par1tbia: 0.246000
par2tbia: -0.000179
par0ia: -6.521000
par1ia: 4.356000
par2ia: 0.016600
ROC:           BPix_BpO_SEC2_LYR4_LDR8F_MOD1_ROC13
par0vd: -12.600000
par1vd: 63.300000
par0va: -8.510000
par1va: 63.400000
par0rbia: 10.700000
par1rbia: 1.060000
par0tbia: 4.280000
par1tbia: 0.237000
par2tbia: -0.000167
par0ia: -2.967000
par1ia: 3.732000
par2ia: 0.028750
ROC:           BPix_BpO_SEC2_LYR4_LDR8F_MOD1_ROC14
par0vd: -13.000000
par1vd: 65.700000
par0va: -4.440000
par1va: 63.600000
par0rbia: 11.600000
par1rbia: 1.070000
par0tbia: 4.070000
par1tbia: 0.248000
par2tbia: -0.000187
par0ia: -2.163000
par1ia: 3.746000
par2ia: 0.026040
ROC:           BPix_BpO_SEC2_LYR4_LDR8F_MOD1_ROC15
par0vd: -9.300000
par1vd: 64.800000
par0va: -2.590000
par1va: 63.300000
par0rbia: 11.400000
par1rbia: 1.040000
par0tbia: 4.320000
par1tbia: 0.240000
par2tbia: -0.000158
par0ia: -3.878000
par1ia: 3.815000
par2ia: 0.022190
