ROC:           BPix_BmO_SEC1_LYR2_LDR2F_MOD2_ROC0
par0vd: -7.640000
par1vd: 63.300000
par0va: -3.950000
par1va: 62.600000
par0rbia: 9.740000
par1rbia: 1.040000
par0tbia: 4.110000
par1tbia: 0.252000
par2tbia: -0.000228
par0ia: -1.181000
par1ia: 3.244000
par2ia: 0.035100
ROC:           BPix_BmO_SEC1_LYR2_LDR2F_MOD2_ROC1
par0vd: 2.060000
par1vd: 63.000000
par0va: -3.680000
par1va: 66.600000
par0rbia: 10.900000
par1rbia: 1.070000
par0tbia: 4.610000
par1tbia: 0.243000
par2tbia: -0.000189
par0ia: -4.044000
par1ia: 3.656000
par2ia: 0.030660
ROC:           BPix_BmO_SEC1_LYR2_LDR2F_MOD2_ROC2
par0vd: -0.466000
par1vd: 62.300000
par0va: -3.100000
par1va: 65.000000
par0rbia: 13.500000
par1rbia: 1.090000
par0tbia: 4.030000
par1tbia: 0.256000
par2tbia: -0.000208
par0ia: -2.413000
par1ia: 3.900000
par2ia: 0.022990
ROC:           BPix_BmO_SEC1_LYR2_LDR2F_MOD2_ROC3
par0vd: -2.490000
par1vd: 62.400000
par0va: -0.231000
par1va: 62.200000
par0rbia: 11.200000
par1rbia: 1.070000
par0tbia: 4.780000
par1tbia: 0.223000
par2tbia: -0.000154
par0ia: -6.972000
par1ia: 4.094000
par2ia: 0.029530
ROC:           BPix_BmO_SEC1_LYR2_LDR2F_MOD2_ROC4
par0vd: -4.600000
par1vd: 67.700000
par0va: -3.030000
par1va: 68.800000
par0rbia: 13.700000
par1rbia: 1.080000
par0tbia: 4.190000
par1tbia: 0.236000
par2tbia: -0.000173
par0ia: -4.495000
par1ia: 4.271000
par2ia: 0.022710
ROC:           BPix_BmO_SEC1_LYR2_LDR2F_MOD2_ROC5
par0vd: -5.590000
par1vd: 62.200000
par0va: -4.230000
par1va: 62.800000
par0rbia: 12.800000
par1rbia: 1.070000
par0tbia: 5.040000
par1tbia: 0.268000
par2tbia: -0.000219
par0ia: -3.189000
par1ia: 3.399000
par2ia: 0.025010
ROC:           BPix_BmO_SEC1_LYR2_LDR2F_MOD2_ROC6
par0vd: -6.650000
par1vd: 67.300000
par0va: -4.330000
par1va: 68.500000
par0rbia: 14.500000
par1rbia: 1.080000
par0tbia: 4.900000
par1tbia: 0.254000
par2tbia: -0.000204
par0ia: -5.367000
par1ia: 3.932000
par2ia: 0.022080
ROC:           BPix_BmO_SEC1_LYR2_LDR2F_MOD2_ROC7
par0vd: -1.990000
par1vd: 63.700000
par0va: 0.168000
par1va: 63.500000
par0rbia: 12.500000
par1rbia: 1.050000
par0tbia: 4.850000
par1tbia: 0.241000
par2tbia: -0.000184
par0ia: -4.354000
par1ia: 3.708000
par2ia: 0.027550
ROC:           BPix_BmO_SEC1_LYR2_LDR2F_MOD2_ROC8
par0vd: -10.400000
par1vd: 62.300000
par0va: -3.880000
par1va: 61.300000
par0rbia: 15.800000
par1rbia: 1.080000
par0tbia: 4.360000
par1tbia: 0.248000
par2tbia: -0.000199
par0ia: -2.855000
par1ia: 4.084000
par2ia: 0.021820
ROC:           BPix_BmO_SEC1_LYR2_LDR2F_MOD2_ROC9
par0vd: -13.500000
par1vd: 66.400000
par0va: -2.070000
par1va: 63.000000
par0rbia: 13.300000
par1rbia: 1.060000
par0tbia: 4.290000
par1tbia: 0.268000
par2tbia: -0.000257
par0ia: 1.557000
par1ia: 3.170000
par2ia: 0.032760
ROC:           BPix_BmO_SEC1_LYR2_LDR2F_MOD2_ROC10
par0vd: -4.420000
par1vd: 60.800000
par0va: 3.170000
par1va: 57.800000
par0rbia: 13.600000
par1rbia: 1.070000
par0tbia: 4.350000
par1tbia: 0.249000
par2tbia: -0.000213
par0ia: -1.034000
par1ia: 3.635000
par2ia: 0.030250
ROC:           BPix_BmO_SEC1_LYR2_LDR2F_MOD2_ROC11
par0vd: -5.690000
par1vd: 64.500000
par0va: 1.320000
par1va: 62.100000
par0rbia: 9.930000
par1rbia: 1.080000
par0tbia: 4.350000
par1tbia: 0.260000
par2tbia: -0.000238
par0ia: -3.486000
par1ia: 3.415000
par2ia: 0.031510
ROC:           BPix_BmO_SEC1_LYR2_LDR2F_MOD2_ROC12
par0vd: -2.180000
par1vd: 60.400000
par0va: -3.200000
par1va: 63.000000
par0rbia: 13.500000
par1rbia: 1.070000
par0tbia: 4.710000
par1tbia: 0.263000
par2tbia: -0.000223
par0ia: -2.138000
par1ia: 3.489000
par2ia: 0.026040
ROC:           BPix_BmO_SEC1_LYR2_LDR2F_MOD2_ROC13
par0vd: -8.820000
par1vd: 65.000000
par0va: 0.083900
par1va: 62.800000
par0rbia: 15.500000
par1rbia: 1.090000
par0tbia: 4.350000
par1tbia: 0.259000
par2tbia: -0.000228
par0ia: -3.121000
par1ia: 3.959000
par2ia: 0.022150
ROC:           BPix_BmO_SEC1_LYR2_LDR2F_MOD2_ROC14
par0vd: -1.490000
par1vd: 65.100000
par0va: -2.720000
par1va: 67.700000
par0rbia: 10.700000
par1rbia: 1.050000
par0tbia: 4.300000
par1tbia: 0.236000
par2tbia: -0.000178
par0ia: -4.138000
par1ia: 3.805000
par2ia: 0.028960
ROC:           BPix_BmO_SEC1_LYR2_LDR2F_MOD2_ROC15
par0vd: -5.350000
par1vd: 64.400000
par0va: -2.300000
par1va: 64.800000
par0rbia: 13.500000
par1rbia: 1.090000
par0tbia: 4.690000
par1tbia: 0.263000
par2tbia: -0.000233
par0ia: -5.960000
par1ia: 3.885000
par2ia: 0.022500
