ROC:           BPix_BpO_SEC1_LYR1_LDR1F_MOD4_ROC0
par0vd: 3.530000
par1vd: 65.400000
par0va: 10.900000
par1va: 63.500000
par0rbia: 15.000000
par1rbia: 1.090000
par0tbia: 4.860000
par1tbia: 0.256000
par2tbia: -0.000137
par0ia: -6.896000
par1ia: 4.241000
par2ia: 0.009439
ROC:           BPix_BpO_SEC1_LYR1_LDR1F_MOD4_ROC1
par0vd: 3.400000
par1vd: 64.500000
par0va: 6.430000
par1va: 65.300000
par0rbia: 14.300000
par1rbia: 1.080000
par0tbia: 5.120000
par1tbia: 0.244000
par2tbia: -0.000103
par0ia: -7.854000
par1ia: 4.288000
par2ia: 0.009789
ROC:           BPix_BpO_SEC1_LYR1_LDR1F_MOD4_ROC2
par0vd: -3.460000
par1vd: 66.800000
par0va: 3.430000
par1va: 66.400000
par0rbia: 10.100000
par1rbia: 1.060000
par0tbia: 4.610000
par1tbia: 0.271000
par2tbia: -0.000181
par0ia: -2.288000
par1ia: 3.255000
par2ia: 0.021310
ROC:           BPix_BpO_SEC1_LYR1_LDR1F_MOD4_ROC3
par0vd: 8.160000
par1vd: 65.600000
par0va: 13.400000
par1va: 64.300000
par0rbia: 10.600000
par1rbia: 1.070000
par0tbia: 4.560000
par1tbia: 0.249000
par2tbia: -0.000147
par0ia: -3.978000
par1ia: 3.696000
par2ia: 0.021530
ROC:           BPix_BpO_SEC1_LYR1_LDR1F_MOD4_ROC12
par0vd: 7.890000
par1vd: 64.800000
par0va: 12.100000
par1va: 64.400000
par0rbia: 13.600000
par1rbia: 1.080000
par0tbia: 4.650000
par1tbia: 0.274000
par2tbia: -0.000195
par0ia: -3.165000
par1ia: 3.638000
par2ia: 0.017140
ROC:           BPix_BpO_SEC1_LYR1_LDR1F_MOD4_ROC13
par0vd: 5.370000
par1vd: 66.300000
par0va: 6.840000
par1va: 68.100000
par0rbia: 14.300000
par1rbia: 1.100000
par0tbia: 4.500000
par1tbia: 0.255000
par2tbia: -0.000142
par0ia: -7.971000
par1ia: 4.458000
par2ia: 0.008056
ROC:           BPix_BpO_SEC1_LYR1_LDR1F_MOD4_ROC14
par0vd: -3.810000
par1vd: 70.200000
par0va: 8.670000
par1va: 66.800000
par0rbia: 16.600000
par1rbia: 1.110000
par0tbia: 4.490000
par1tbia: 0.286000
par2tbia: -0.000205
par0ia: -5.427000
par1ia: 4.109000
par2ia: 0.007680
ROC:           BPix_BpO_SEC1_LYR1_LDR1F_MOD4_ROC15
par0vd: 2.940000
par1vd: 66.300000
par0va: 12.700000
par1va: 63.700000
par0rbia: 13.600000
par1rbia: 1.030000
par0tbia: 5.240000
par1tbia: 0.257000
par2tbia: -0.000147
par0ia: -2.584000
par1ia: 3.456000
par2ia: 0.018480
