ROC:           BPix_BpO_SEC8_LYR3_LDR21F_MOD2_ROC0
par0vd: -7.490000
par1vd: 62.800000
par0va: -4.020000
par1va: 63.000000
par0rbia: 15.600000
par1rbia: 1.080000
par0tbia: 5.100000
par1tbia: 0.266000
par2tbia: -0.000245
par0ia: -3.264000
par1ia: 3.589000
par2ia: 0.025440
ROC:           BPix_BpO_SEC8_LYR3_LDR21F_MOD2_ROC1
par0vd: -7.310000
par1vd: 61.500000
par0va: -8.660000
par1va: 63.500000
par0rbia: 7.420000
par1rbia: 1.050000
par0tbia: 4.860000
par1tbia: 0.255000
par2tbia: -0.000233
par0ia: -6.906000
par1ia: 3.290000
par2ia: 0.033420
ROC:           BPix_BpO_SEC8_LYR3_LDR21F_MOD2_ROC2
par0vd: -14.200000
par1vd: 66.100000
par0va: -4.630000
par1va: 63.900000
par0rbia: 10.400000
par1rbia: 1.070000
par0tbia: 4.900000
par1tbia: 0.258000
par2tbia: -0.000225
par0ia: -6.088000
par1ia: 3.512000
par2ia: 0.028110
ROC:           BPix_BpO_SEC8_LYR3_LDR21F_MOD2_ROC3
par0vd: -13.400000
par1vd: 65.600000
par0va: -9.120000
par1va: 66.300000
par0rbia: 8.990000
par1rbia: 1.040000
par0tbia: 4.690000
par1tbia: 0.239000
par2tbia: -0.000189
par0ia: -6.271000
par1ia: 3.605000
par2ia: 0.030590
ROC:           BPix_BpO_SEC8_LYR3_LDR21F_MOD2_ROC4
par0vd: -10.200000
par1vd: 60.200000
par0va: -5.610000
par1va: 59.900000
par0rbia: 14.700000
par1rbia: 1.080000
par0tbia: 5.100000
par1tbia: 0.276000
par2tbia: -0.000258
par0ia: -4.430000
par1ia: 3.557000
par2ia: 0.023090
ROC:           BPix_BpO_SEC8_LYR3_LDR21F_MOD2_ROC5
par0vd: -12.100000
par1vd: 62.800000
par0va: -7.410000
par1va: 62.600000
par0rbia: 14.200000
par1rbia: 1.090000
par0tbia: 4.990000
par1tbia: 0.273000
par2tbia: -0.000258
par0ia: -4.977000
par1ia: 3.629000
par2ia: 0.023780
ROC:           BPix_BpO_SEC8_LYR3_LDR21F_MOD2_ROC6
par0vd: -7.450000
par1vd: 61.900000
par0va: -13.000000
par1va: 67.000000
par0rbia: 10.600000
par1rbia: 1.060000
par0tbia: 4.610000
par1tbia: 0.236000
par2tbia: -0.000198
par0ia: -5.392000
par1ia: 3.751000
par2ia: 0.033500
ROC:           BPix_BpO_SEC8_LYR3_LDR21F_MOD2_ROC7
par0vd: -1.920000
par1vd: 61.700000
par0va: -5.790000
par1va: 65.000000
par0rbia: 11.600000
par1rbia: 1.080000
par0tbia: 4.700000
par1tbia: 0.251000
par2tbia: -0.000218
par0ia: -4.327000
par1ia: 3.613000
par2ia: 0.030410
ROC:           BPix_BpO_SEC8_LYR3_LDR21F_MOD2_ROC8
par0vd: -9.160000
par1vd: 61.000000
par0va: -0.056600
par1va: 58.600000
par0rbia: 12.900000
par1rbia: 1.060000
par0tbia: 5.160000
par1tbia: 0.294000
par2tbia: -0.000292
par0ia: 0.502600
par1ia: 2.794000
par2ia: 0.029160
ROC:           BPix_BpO_SEC8_LYR3_LDR21F_MOD2_ROC9
par0vd: -13.000000
par1vd: 61.500000
par0va: -6.330000
par1va: 60.800000
par0rbia: 10.700000
par1rbia: 1.070000
par0tbia: 4.820000
par1tbia: 0.245000
par2tbia: -0.000189
par0ia: -6.046000
par1ia: 3.736000
par2ia: 0.027830
ROC:           BPix_BpO_SEC8_LYR3_LDR21F_MOD2_ROC10
par0vd: -13.100000
par1vd: 65.200000
par0va: -6.580000
par1va: 64.800000
par0rbia: 9.810000
par1rbia: 1.040000
par0tbia: 4.850000
par1tbia: 0.247000
par2tbia: -0.000204
par0ia: -4.208000
par1ia: 3.350000
par2ia: 0.032180
ROC:           BPix_BpO_SEC8_LYR3_LDR21F_MOD2_ROC11
par0vd: -17.000000
par1vd: 68.500000
par0va: -2.140000
par1va: 64.100000
par0rbia: 12.400000
par1rbia: 1.060000
par0tbia: 4.630000
par1tbia: 0.236000
par2tbia: -0.000179
par0ia: -2.281000
par1ia: 3.645000
par2ia: 0.031930
ROC:           BPix_BpO_SEC8_LYR3_LDR21F_MOD2_ROC12
par0vd: -12.800000
par1vd: 61.100000
par0va: -6.520000
par1va: 60.200000
par0rbia: 9.940000
par1rbia: 1.060000
par0tbia: 4.900000
par1tbia: 0.246000
par2tbia: -0.000189
par0ia: -5.702000
par1ia: 3.555000
par2ia: 0.028650
ROC:           BPix_BpO_SEC8_LYR3_LDR21F_MOD2_ROC13
par0vd: -13.500000
par1vd: 64.700000
par0va: 0.259000
par1va: 60.800000
par0rbia: 11.900000
par1rbia: 1.050000
par0tbia: 5.150000
par1tbia: 0.261000
par2tbia: -0.000211
par0ia: -4.644000
par1ia: 3.429000
par2ia: 0.025170
ROC:           BPix_BpO_SEC8_LYR3_LDR21F_MOD2_ROC14
par0vd: -11.500000
par1vd: 64.100000
par0va: -0.653000
par1va: 61.000000
par0rbia: 10.900000
par1rbia: 1.010000
par0tbia: 4.840000
par1tbia: 0.248000
par2tbia: -0.000218
par0ia: -3.120000
par1ia: 3.255000
par2ia: 0.032620
ROC:           BPix_BpO_SEC8_LYR3_LDR21F_MOD2_ROC15
par0vd: -10.200000
par1vd: 61.000000
par0va: -1.450000
par1va: 58.800000
par0rbia: 9.880000
par1rbia: 1.040000
par0tbia: 5.060000
par1tbia: 0.260000
par2tbia: -0.000216
par0ia: -3.991000
par1ia: 3.180000
par2ia: 0.029520
