ROC:           BPix_BmO_SEC7_LYR3_LDR19F_MOD2_ROC0
par0vd: 2.410000
par1vd: 61.700000
par0va: -6.620000
par1va: 64.200000
par0rbia: 11.200000
par1rbia: 1.020000
par0tbia: 4.120000
par1tbia: 0.231000
par2tbia: -0.000172
par0ia: -2.249000
par1ia: 3.711000
par2ia: 0.030260
ROC:           BPix_BmO_SEC7_LYR3_LDR19F_MOD2_ROC1
par0vd: -3.610000
par1vd: 67.600000
par0va: -6.630000
par1va: 67.700000
par0rbia: 14.700000
par1rbia: 1.090000
par0tbia: 4.360000
par1tbia: 0.278000
par2tbia: -0.000242
par0ia: -1.413000
par1ia: 3.588000
par2ia: 0.020930
ROC:           BPix_BmO_SEC7_LYR3_LDR19F_MOD2_ROC2
par0vd: -7.270000
par1vd: 64.800000
par0va: -1.710000
par1va: 61.400000
par0rbia: 12.800000
par1rbia: 1.070000
par0tbia: 4.340000
par1tbia: 0.276000
par2tbia: -0.000228
par0ia: -0.356200
par1ia: 3.328000
par2ia: 0.023540
ROC:           BPix_BmO_SEC7_LYR3_LDR19F_MOD2_ROC3
par0vd: -2.170000
par1vd: 63.200000
par0va: -3.310000
par1va: 62.600000
par0rbia: 13.100000
par1rbia: 1.070000
par0tbia: 3.740000
par1tbia: 0.261000
par2tbia: -0.000210
par0ia: 1.764000
par1ia: 3.503000
par2ia: 0.026460
ROC:           BPix_BmO_SEC7_LYR3_LDR19F_MOD2_ROC4
par0vd: -3.110000
par1vd: 65.200000
par0va: -4.650000
par1va: 64.600000
par0rbia: 13.500000
par1rbia: 1.090000
par0tbia: 4.060000
par1tbia: 0.231000
par2tbia: -0.000143
par0ia: -6.138000
par1ia: 4.611000
par2ia: 0.016640
ROC:           BPix_BmO_SEC7_LYR3_LDR19F_MOD2_ROC5
par0vd: 5.810000
par1vd: 63.000000
par0va: -5.650000
par1va: 66.800000
par0rbia: 12.700000
par1rbia: 1.030000
par0tbia: 4.280000
par1tbia: 0.219000
par2tbia: -0.000128
par0ia: -3.742000
par1ia: 4.160000
par2ia: 0.024070
ROC:           BPix_BmO_SEC7_LYR3_LDR19F_MOD2_ROC6
par0vd: -10.300000
par1vd: 63.500000
par0va: -8.720000
par1va: 61.500000
par0rbia: 16.100000
par1rbia: 1.080000
par0tbia: 4.150000
par1tbia: 0.296000
par2tbia: -0.000301
par0ia: 0.172300
par1ia: 3.433000
par2ia: 0.021090
ROC:           BPix_BmO_SEC7_LYR3_LDR19F_MOD2_ROC7
par0vd: -2.160000
par1vd: 63.400000
par0va: -5.710000
par1va: 63.700000
par0rbia: 13.600000
par1rbia: 1.060000
par0tbia: 4.070000
par1tbia: 0.276000
par2tbia: -0.000258
par0ia: 2.857000
par1ia: 3.121000
par2ia: 0.029790
ROC:           BPix_BmO_SEC7_LYR3_LDR19F_MOD2_ROC8
par0vd: -1.500000
par1vd: 63.200000
par0va: -9.370000
par1va: 65.700000
par0rbia: 9.340000
par1rbia: 1.030000
par0tbia: 4.060000
par1tbia: 0.232000
par2tbia: -0.000153
par0ia: -4.511000
par1ia: 3.835000
par2ia: 0.025490
ROC:           BPix_BmO_SEC7_LYR3_LDR19F_MOD2_ROC9
par0vd: -8.640000
par1vd: 66.100000
par0va: -13.200000
par1va: 67.000000
par0rbia: 7.450000
par1rbia: 1.070000
par0tbia: 3.830000
par1tbia: 0.257000
par2tbia: -0.000213
par0ia: -4.279000
par1ia: 3.513000
par2ia: 0.028600
ROC:           BPix_BmO_SEC7_LYR3_LDR19F_MOD2_ROC10
par0vd: -5.530000
par1vd: 64.300000
par0va: -7.100000
par1va: 63.900000
par0rbia: 11.600000
par1rbia: 1.070000
par0tbia: 4.180000
par1tbia: 0.260000
par2tbia: -0.000219
par0ia: -0.259600
par1ia: 3.366000
par2ia: 0.030300
ROC:           BPix_BmO_SEC7_LYR3_LDR19F_MOD2_ROC11
par0vd: -8.080000
par1vd: 69.900000
par0va: -4.560000
par1va: 67.400000
par0rbia: 12.000000
par1rbia: 1.070000
par0tbia: 4.050000
par1tbia: 0.243000
par2tbia: -0.000192
par0ia: -0.688800
par1ia: 3.643000
par2ia: 0.030770
ROC:           BPix_BmO_SEC7_LYR3_LDR19F_MOD2_ROC12
par0vd: 3.250000
par1vd: 61.700000
par0va: -6.150000
par1va: 64.500000
par0rbia: 11.500000
par1rbia: 1.040000
par0tbia: 3.930000
par1tbia: 0.239000
par2tbia: -0.000182
par0ia: -0.210000
par1ia: 3.579000
par2ia: 0.030600
ROC:           BPix_BmO_SEC7_LYR3_LDR19F_MOD2_ROC13
par0vd: -1.960000
par1vd: 68.100000
par0va: -4.400000
par1va: 67.700000
par0rbia: 10.700000
par1rbia: 1.090000
par0tbia: 4.080000
par1tbia: 0.240000
par2tbia: -0.000187
par0ia: -4.082000
par1ia: 3.926000
par2ia: 0.029030
ROC:           BPix_BmO_SEC7_LYR3_LDR19F_MOD2_ROC14
par0vd: -4.100000
par1vd: 68.500000
par0va: -7.390000
par1va: 69.200000
par0rbia: 14.600000
par1rbia: 1.100000
par0tbia: 3.750000
par1tbia: 0.258000
par2tbia: -0.000218
par0ia: -4.507000
par1ia: 4.347000
par2ia: 0.016630
ROC:           BPix_BmO_SEC7_LYR3_LDR19F_MOD2_ROC15
par0vd: -12.700000
par1vd: 69.600000
par0va: -7.280000
par1va: 66.200000
par0rbia: 12.100000
par1rbia: 1.110000
par0tbia: 4.010000
par1tbia: 0.242000
par2tbia: -0.000192
par0ia: -8.757000
par1ia: 4.612000
par2ia: 0.018370
