ROC:           BPix_BpI_SEC7_LYR1_LDR5F_MOD2_ROC0
par0vd: 6.160000
par1vd: 66.000000
par0va: 4.280000
par1va: 67.600000
par0rbia: 10.300000
par1rbia: 1.070000
par0tbia: 4.650000
par1tbia: 0.264000
par2tbia: -0.000165
par0ia: -3.041000
par1ia: 3.419000
par2ia: 0.021150
ROC:           BPix_BpI_SEC7_LYR1_LDR5F_MOD2_ROC1
par0vd: 12.100000
par1vd: 62.200000
par0va: 5.230000
par1va: 65.900000
par0rbia: 11.900000
par1rbia: 1.020000
par0tbia: 4.800000
par1tbia: 0.247000
par2tbia: -0.000126
par0ia: -4.286000
par1ia: 3.673000
par2ia: 0.016400
ROC:           BPix_BpI_SEC7_LYR1_LDR5F_MOD2_ROC2
par0vd: 7.860000
par1vd: 66.200000
par0va: 3.390000
par1va: 69.200000
par0rbia: 13.100000
par1rbia: 1.090000
par0tbia: 4.180000
par1tbia: 0.305000
par2tbia: -0.000248
par0ia: -0.261900
par1ia: 3.269000
par2ia: 0.017040
ROC:           BPix_BpI_SEC7_LYR1_LDR5F_MOD2_ROC3
par0vd: 4.920000
par1vd: 63.000000
par0va: 5.180000
par1va: 62.600000
par0rbia: 8.900000
par1rbia: 1.070000
par0tbia: 4.530000
par1tbia: 0.260000
par2tbia: -0.000150
par0ia: -3.837000
par1ia: 3.445000
par2ia: 0.020870
ROC:           BPix_BpI_SEC7_LYR1_LDR5F_MOD2_ROC12
par0vd: 5.600000
par1vd: 67.000000
par0va: 9.860000
par1va: 65.000000
par0rbia: 10.600000
par1rbia: 1.090000
par0tbia: 4.890000
par1tbia: 0.303000
par2tbia: -0.000224
par0ia: -4.809000
par1ia: 3.262000
par2ia: 0.015420
ROC:           BPix_BpI_SEC7_LYR1_LDR5F_MOD2_ROC13
par0vd: 8.710000
par1vd: 60.900000
par0va: 5.580000
par1va: 62.400000
par0rbia: 9.210000
par1rbia: 1.040000
par0tbia: 4.120000
par1tbia: 0.301000
par2tbia: -0.000229
par0ia: -0.210400
par1ia: 2.887000
par2ia: 0.019510
ROC:           BPix_BpI_SEC7_LYR1_LDR5F_MOD2_ROC14
par0vd: 4.150000
par1vd: 64.700000
par0va: 5.690000
par1va: 63.900000
par0rbia: 10.500000
par1rbia: 1.070000
par0tbia: 4.620000
par1tbia: 0.293000
par2tbia: -0.000229
par0ia: -2.492000
par1ia: 3.144000
par2ia: 0.019940
ROC:           BPix_BpI_SEC7_LYR1_LDR5F_MOD2_ROC15
par0vd: 13.500000
par1vd: 59.800000
par0va: 10.700000
par1va: 60.400000
par0rbia: 12.400000
par1rbia: 1.060000
par0tbia: 4.730000
par1tbia: 0.284000
par2tbia: -0.000210
par0ia: -0.043100
par1ia: 3.119000
par2ia: 0.021260
