ROC:           BPix_BmO_SEC7_LYR4_LDR27F_MOD4_ROC0
par0vd: -7.600000
par1vd: 66.100000
par0va: -2.020000
par1va: 65.200000
par0rbia: 11.600000
par1rbia: 1.090000
par0tbia: 4.920000
par1tbia: 0.251000
par2tbia: -0.000189
par0ia: -8.477000
par1ia: 4.002000
par2ia: 0.021140
ROC:           BPix_BmO_SEC7_LYR4_LDR27F_MOD4_ROC1
par0vd: -6.300000
par1vd: 63.300000
par0va: 4.350000
par1va: 59.500000
par0rbia: 11.200000
par1rbia: 1.060000
par0tbia: 4.580000
par1tbia: 0.247000
par2tbia: -0.000170
par0ia: -4.579000
par1ia: 3.748000
par2ia: 0.023690
ROC:           BPix_BmO_SEC7_LYR4_LDR27F_MOD4_ROC2
par0vd: -7.270000
par1vd: 62.100000
par0va: 3.200000
par1va: 59.100000
par0rbia: 10.900000
par1rbia: 1.040000
par0tbia: 4.940000
par1tbia: 0.288000
par2tbia: -0.000292
par0ia: -1.631000
par1ia: 2.850000
par2ia: 0.030000
ROC:           BPix_BmO_SEC7_LYR4_LDR27F_MOD4_ROC3
par0vd: -10.100000
par1vd: 63.300000
par0va: 1.910000
par1va: 59.300000
par0rbia: 10.500000
par1rbia: 1.070000
par0tbia: 4.880000
par1tbia: 0.295000
par2tbia: -0.000302
par0ia: -0.780800
par1ia: 2.760000
par2ia: 0.031020
ROC:           BPix_BmO_SEC7_LYR4_LDR27F_MOD4_ROC4
par0vd: -5.340000
par1vd: 65.700000
par0va: -0.530000
par1va: 65.900000
par0rbia: 13.000000
par1rbia: 1.070000
par0tbia: 4.990000
par1tbia: 0.273000
par2tbia: -0.000258
par0ia: -3.451000
par1ia: 3.349000
par2ia: 0.027080
ROC:           BPix_BmO_SEC7_LYR4_LDR27F_MOD4_ROC5
par0vd: -8.580000
par1vd: 61.900000
par0va: -8.270000
par1va: 64.300000
par0rbia: 7.520000
par1rbia: 1.040000
par0tbia: 4.350000
par1tbia: 0.255000
par2tbia: -0.000194
par0ia: -4.223000
par1ia: 3.297000
par2ia: 0.028080
ROC:           BPix_BmO_SEC7_LYR4_LDR27F_MOD4_ROC6
par0vd: -6.530000
par1vd: 64.300000
par0va: -1.510000
par1va: 63.900000
par0rbia: 13.900000
par1rbia: 1.100000
par0tbia: 4.950000
par1tbia: 0.265000
par2tbia: -0.000255
par0ia: -7.163000
par1ia: 3.883000
par2ia: 0.024120
ROC:           BPix_BmO_SEC7_LYR4_LDR27F_MOD4_ROC7
par0vd: -3.040000
par1vd: 61.300000
par0va: -2.750000
par1va: 63.000000
par0rbia: 12.400000
par1rbia: 1.080000
par0tbia: 5.150000
par1tbia: 0.260000
par2tbia: -0.000200
par0ia: -6.752000
par1ia: 3.736000
par2ia: 0.021380
ROC:           BPix_BmO_SEC7_LYR4_LDR27F_MOD4_ROC8
par0vd: -10.400000
par1vd: 63.700000
par0va: -6.660000
par1va: 64.200000
par0rbia: 7.680000
par1rbia: 1.040000
par0tbia: 4.880000
par1tbia: 0.243000
par2tbia: -0.000184
par0ia: -7.846000
par1ia: 3.540000
par2ia: 0.028650
ROC:           BPix_BmO_SEC7_LYR4_LDR27F_MOD4_ROC9
par0vd: -9.740000
par1vd: 65.000000
par0va: -0.466000
par1va: 62.900000
par0rbia: 14.900000
par1rbia: 1.100000
par0tbia: 5.000000
par1tbia: 0.281000
par2tbia: -0.000263
par0ia: -6.240000
par1ia: 3.777000
par2ia: 0.019210
ROC:           BPix_BmO_SEC7_LYR4_LDR27F_MOD4_ROC10
par0vd: -12.100000
par1vd: 65.300000
par0va: -1.830000
par1va: 63.500000
par0rbia: 16.200000
par1rbia: 1.100000
par0tbia: 4.700000
par1tbia: 0.252000
par2tbia: -0.000179
par0ia: -8.399000
par1ia: 4.547000
par2ia: 0.011140
ROC:           BPix_BmO_SEC7_LYR4_LDR27F_MOD4_ROC11
par0vd: -4.810000
par1vd: 59.300000
par0va: -2.370000
par1va: 60.000000
par0rbia: 9.910000
par1rbia: 1.080000
par0tbia: 5.030000
par1tbia: 0.268000
par2tbia: -0.000200
par0ia: -6.993000
par1ia: 3.541000
par2ia: 0.021450
ROC:           BPix_BmO_SEC7_LYR4_LDR27F_MOD4_ROC12
par0vd: 0.615000
par1vd: 59.900000
par0va: -2.150000
par1va: 63.500000
par0rbia: 11.200000
par1rbia: 1.060000
par0tbia: 4.720000
par1tbia: 0.260000
par2tbia: -0.000238
par0ia: -3.421000
par1ia: 3.350000
par2ia: 0.030350
ROC:           BPix_BmO_SEC7_LYR4_LDR27F_MOD4_ROC13
par0vd: -7.190000
par1vd: 63.000000
par0va: -2.940000
par1va: 63.700000
par0rbia: 11.400000
par1rbia: 1.060000
par0tbia: 4.790000
par1tbia: 0.235000
par2tbia: -0.000160
par0ia: -6.944000
par1ia: 3.992000
par2ia: 0.024030
ROC:           BPix_BmO_SEC7_LYR4_LDR27F_MOD4_ROC14
par0vd: -3.430000
par1vd: 63.300000
par0va: 0.857000
par1va: 63.900000
par0rbia: 17.400000
par1rbia: 1.090000
par0tbia: 4.800000
par1tbia: 0.269000
par2tbia: -0.000240
par0ia: -5.151000
par1ia: 4.080000
par2ia: 0.016790
ROC:           BPix_BmO_SEC7_LYR4_LDR27F_MOD4_ROC15
par0vd: -9.870000
par1vd: 64.400000
par0va: 1.170000
par1va: 61.800000
par0rbia: 18.600000
par1rbia: 1.110000
par0tbia: 4.900000
par1tbia: 0.263000
par2tbia: -0.000230
par0ia: -8.340000
par1ia: 4.524000
par2ia: 0.012140
