ROC:           BPix_BmO_SEC7_LYR4_LDR28F_MOD2_ROC0
par0vd: 1.520000
par1vd: 64.600000
par0va: -5.840000
par1va: 68.100000
par0rbia: 16.300000
par1rbia: 1.090000
par0tbia: 4.420000
par1tbia: 0.259000
par2tbia: -0.000218
par0ia: -3.250000
par1ia: 4.052000
par2ia: 0.019460
ROC:           BPix_BmO_SEC7_LYR4_LDR28F_MOD2_ROC1
par0vd: -2.840000
par1vd: 63.900000
par0va: -5.530000
par1va: 64.800000
par0rbia: 18.400000
par1rbia: 1.100000
par0tbia: 4.310000
par1tbia: 0.264000
par2tbia: -0.000221
par0ia: -4.498000
par1ia: 4.391000
par2ia: 0.012390
ROC:           BPix_BmO_SEC7_LYR4_LDR28F_MOD2_ROC2
par0vd: -2.030000
par1vd: 63.400000
par0va: -3.950000
par1va: 63.200000
par0rbia: 9.110000
par1rbia: 1.080000
par0tbia: 3.950000
par1tbia: 0.240000
par2tbia: -0.000184
par0ia: -5.555000
par1ia: 3.973000
par2ia: 0.027940
ROC:           BPix_BmO_SEC7_LYR4_LDR28F_MOD2_ROC3
par0vd: -2.310000
par1vd: 63.000000
par0va: -6.060000
par1va: 64.600000
par0rbia: 8.030000
par1rbia: 1.030000
par0tbia: 4.260000
par1tbia: 0.246000
par2tbia: -0.000189
par0ia: -4.763000
par1ia: 3.470000
par2ia: 0.028300
ROC:           BPix_BmO_SEC7_LYR4_LDR28F_MOD2_ROC4
par0vd: -8.160000
par1vd: 63.400000
par0va: -8.150000
par1va: 63.500000
par0rbia: 11.200000
par1rbia: 1.090000
par0tbia: 4.190000
par1tbia: 0.272000
par2tbia: -0.000234
par0ia: -2.669000
par1ia: 3.492000
par2ia: 0.024770
ROC:           BPix_BmO_SEC7_LYR4_LDR28F_MOD2_ROC5
par0vd: -7.890000
par1vd: 66.700000
par0va: -5.290000
par1va: 65.200000
par0rbia: 16.000000
par1rbia: 1.100000
par0tbia: 4.120000
par1tbia: 0.252000
par2tbia: -0.000199
par0ia: -7.640000
par1ia: 4.725000
par2ia: 0.010670
ROC:           BPix_BmO_SEC7_LYR4_LDR28F_MOD2_ROC6
par0vd: -3.130000
par1vd: 61.400000
par0va: -5.800000
par1va: 61.900000
par0rbia: 11.300000
par1rbia: 1.080000
par0tbia: 4.060000
par1tbia: 0.260000
par2tbia: -0.000223
par0ia: -1.860000
par1ia: 3.546000
par2ia: 0.027730
ROC:           BPix_BmO_SEC7_LYR4_LDR28F_MOD2_ROC7
par0vd: -3.750000
par1vd: 66.300000
par0va: -5.600000
par1va: 66.800000
par0rbia: 11.500000
par1rbia: 1.060000
par0tbia: 4.040000
par1tbia: 0.235000
par2tbia: -0.000183
par0ia: -2.526000
par1ia: 3.847000
par2ia: 0.030520
ROC:           BPix_BmO_SEC7_LYR4_LDR28F_MOD2_ROC8
par0vd: -9.360000
par1vd: 65.900000
par0va: -3.350000
par1va: 62.600000
par0rbia: 11.000000
par1rbia: 1.080000
par0tbia: 4.210000
par1tbia: 0.246000
par2tbia: -0.000170
par0ia: -4.780000
par1ia: 3.941000
par2ia: 0.022170
ROC:           BPix_BmO_SEC7_LYR4_LDR28F_MOD2_ROC9
par0vd: -8.230000
par1vd: 67.000000
par0va: -8.520000
par1va: 67.500000
par0rbia: 14.900000
par1rbia: 1.100000
par0tbia: 4.300000
par1tbia: 0.265000
par2tbia: -0.000235
par0ia: -5.529000
par1ia: 4.129000
par2ia: 0.018190
ROC:           BPix_BmO_SEC7_LYR4_LDR28F_MOD2_ROC10
par0vd: -2.450000
par1vd: 65.000000
par0va: -2.780000
par1va: 64.600000
par0rbia: 11.200000
par1rbia: 1.040000
par0tbia: 4.210000
par1tbia: 0.240000
par2tbia: -0.000212
par0ia: -3.041000
par1ia: 3.633000
par2ia: 0.032900
ROC:           BPix_BmO_SEC7_LYR4_LDR28F_MOD2_ROC11
par0vd: -1.220000
par1vd: 64.500000
par0va: -7.720000
par1va: 67.700000
par0rbia: 12.100000
par1rbia: 1.050000
par0tbia: 4.300000
par1tbia: 0.266000
par2tbia: -0.000245
par0ia: -0.865300
par1ia: 3.297000
par2ia: 0.029290
ROC:           BPix_BmO_SEC7_LYR4_LDR28F_MOD2_ROC12
par0vd: -8.210000
par1vd: 64.100000
par0va: -4.940000
par1va: 63.100000
par0rbia: 15.600000
par1rbia: 1.080000
par0tbia: 4.110000
par1tbia: 0.263000
par2tbia: -0.000228
par0ia: -0.739200
par1ia: 3.808000
par2ia: 0.022330
ROC:           BPix_BmO_SEC7_LYR4_LDR28F_MOD2_ROC13
par0vd: -6.260000
par1vd: 65.400000
par0va: -1.480000
par1va: 63.000000
par0rbia: 12.700000
par1rbia: 1.080000
par0tbia: 4.140000
par1tbia: 0.285000
par2tbia: -0.000258
par0ia: -0.145000
par1ia: 3.301000
par2ia: 0.024320
ROC:           BPix_BmO_SEC7_LYR4_LDR28F_MOD2_ROC14
par0vd: -4.360000
par1vd: 61.300000
par0va: -4.800000
par1va: 61.300000
par0rbia: 11.400000
par1rbia: 1.020000
par0tbia: 4.170000
par1tbia: 0.239000
par2tbia: -0.000179
par0ia: -3.095000
par1ia: 3.734000
par2ia: 0.026180
ROC:           BPix_BmO_SEC7_LYR4_LDR28F_MOD2_ROC15
par0vd: -3.070000
par1vd: 61.300000
par0va: -2.240000
par1va: 60.600000
par0rbia: 11.400000
par1rbia: 1.020000
par0tbia: 4.290000
par1tbia: 0.268000
par2tbia: -0.000219
par0ia: -0.454800
par1ia: 3.176000
par2ia: 0.024920
