ROC:           BPix_BpI_SEC7_LYR3_LDR18F_MOD3_ROC0
par0vd: -14.500000
par1vd: 62.600000
par0va: -8.100000
par1va: 62.100000
par0rbia: 9.330000
par1rbia: 1.040000
par0tbia: 4.800000
par1tbia: 0.248000
par2tbia: -0.000213
par0ia: -4.306000
par1ia: 3.306000
par2ia: 0.033800
ROC:           BPix_BpI_SEC7_LYR3_LDR18F_MOD3_ROC1
par0vd: -11.600000
par1vd: 62.000000
par0va: -7.200000
par1va: 62.300000
par0rbia: 5.790000
par1rbia: 0.960000
par0tbia: 4.510000
par1tbia: 0.228000
par2tbia: -0.000172
par0ia: -6.685000
par1ia: 3.326000
par2ia: 0.033180
ROC:           BPix_BpI_SEC7_LYR3_LDR18F_MOD3_ROC2
par0vd: -14.100000
par1vd: 67.600000
par0va: -4.230000
par1va: 66.200000
par0rbia: 11.400000
par1rbia: 1.070000
par0tbia: 4.440000
par1tbia: 0.242000
par2tbia: -0.000208
par0ia: -2.033000
par1ia: 3.532000
par2ia: 0.036300
ROC:           BPix_BpI_SEC7_LYR3_LDR18F_MOD3_ROC3
par0vd: -9.430000
par1vd: 66.700000
par0va: -2.490000
par1va: 66.300000
par0rbia: 15.000000
par1rbia: 1.080000
par0tbia: 4.610000
par1tbia: 0.225000
par2tbia: -0.000167
par0ia: -5.808000
par1ia: 4.423000
par2ia: 0.025540
ROC:           BPix_BpI_SEC7_LYR3_LDR18F_MOD3_ROC4
par0vd: -10.300000
par1vd: 61.300000
par0va: 1.200000
par1va: 57.700000
par0rbia: 11.800000
par1rbia: 1.050000
par0tbia: 4.410000
par1tbia: 0.244000
par2tbia: -0.000194
par0ia: -1.621000
par1ia: 3.529000
par2ia: 0.031460
ROC:           BPix_BpI_SEC7_LYR3_LDR18F_MOD3_ROC5
par0vd: -12.900000
par1vd: 65.500000
par0va: -7.770000
par1va: 65.900000
par0rbia: 16.200000
par1rbia: 1.110000
par0tbia: 4.610000
par1tbia: 0.224000
par2tbia: -0.000158
par0ia: -11.520000
par1ia: 5.230000
par2ia: 0.012480
ROC:           BPix_BpI_SEC7_LYR3_LDR18F_MOD3_ROC6
par0vd: -20.000000
par1vd: 68.400000
par0va: -3.270000
par1va: 63.300000
par0rbia: 10.300000
par1rbia: 1.050000
par0tbia: 4.580000
par1tbia: 0.232000
par2tbia: -0.000167
par0ia: -5.506000
par1ia: 3.826000
par2ia: 0.029130
ROC:           BPix_BpI_SEC7_LYR3_LDR18F_MOD3_ROC7
par0vd: -17.900000
par1vd: 66.600000
par0va: -8.050000
par1va: 65.400000
par0rbia: 12.800000
par1rbia: 1.060000
par0tbia: 4.440000
par1tbia: 0.241000
par2tbia: -0.000199
par0ia: -2.395000
par1ia: 3.702000
par2ia: 0.030690
ROC:           BPix_BpI_SEC7_LYR3_LDR18F_MOD3_ROC8
par0vd: -12.500000
par1vd: 65.800000
par0va: -7.620000
par1va: 66.600000
par0rbia: 10.400000
par1rbia: 1.080000
par0tbia: 3.900000
par1tbia: 0.254000
par2tbia: -0.000247
par0ia: -1.016000
par1ia: 3.409000
par2ia: 0.037970
ROC:           BPix_BpI_SEC7_LYR3_LDR18F_MOD3_ROC9
par0vd: -8.470000
par1vd: 63.200000
par0va: -5.170000
par1va: 63.700000
par0rbia: 9.640000
par1rbia: 1.080000
par0tbia: 4.790000
par1tbia: 0.245000
par2tbia: -0.000179
par0ia: -6.694000
par1ia: 3.732000
par2ia: 0.026860
ROC:           BPix_BpI_SEC7_LYR3_LDR18F_MOD3_ROC10
par0vd: -15.100000
par1vd: 64.700000
par0va: -5.130000
par1va: 63.000000
par0rbia: 10.200000
par1rbia: 1.030000
par0tbia: 4.750000
par1tbia: 0.244000
par2tbia: -0.000208
par0ia: -2.849000
par1ia: 3.274000
par2ia: 0.035780
ROC:           BPix_BpI_SEC7_LYR3_LDR18F_MOD3_ROC11
par0vd: -13.000000
par1vd: 64.900000
par0va: -4.890000
par1va: 64.100000
par0rbia: 10.200000
par1rbia: 1.010000
par0tbia: 4.560000
par1tbia: 0.232000
par2tbia: -0.000177
par0ia: -2.768000
par1ia: 3.423000
par2ia: 0.033380
ROC:           BPix_BpI_SEC7_LYR3_LDR18F_MOD3_ROC12
par0vd: -15.300000
par1vd: 65.500000
par0va: -0.389000
par1va: 61.500000
par0rbia: 13.300000
par1rbia: 1.040000
par0tbia: 4.520000
par1tbia: 0.268000
par2tbia: -0.000247
par0ia: 1.230000
par1ia: 3.107000
par2ia: 0.031140
ROC:           BPix_BpI_SEC7_LYR3_LDR18F_MOD3_ROC13
par0vd: -8.810000
par1vd: 62.200000
par0va: -1.390000
par1va: 61.500000
par0rbia: 14.800000
par1rbia: 1.080000
par0tbia: 4.960000
par1tbia: 0.267000
par2tbia: -0.000238
par0ia: -4.105000
par1ia: 3.676000
par2ia: 0.023280
ROC:           BPix_BpI_SEC7_LYR3_LDR18F_MOD3_ROC14
par0vd: -11.300000
par1vd: 65.500000
par0va: -1.870000
par1va: 64.500000
par0rbia: 12.300000
par1rbia: 1.070000
par0tbia: 4.500000
par1tbia: 0.263000
par2tbia: -0.000234
par0ia: -0.841400
par1ia: 3.316000
par2ia: 0.030460
ROC:           BPix_BpI_SEC7_LYR3_LDR18F_MOD3_ROC15
par0vd: -8.170000
par1vd: 65.400000
par0va: -0.500000
par1va: 64.500000
par0rbia: 14.200000
par1rbia: 1.070000
par0tbia: 4.610000
par1tbia: 0.235000
par2tbia: -0.000182
par0ia: -3.722000
par1ia: 3.997000
par2ia: 0.027720
