ROC:           BPix_BpI_SEC5_LYR2_LDR8F_MOD4_ROC0
par0vd: -6.820000
par1vd: 62.800000
par0va: -1.320000
par1va: 60.600000
par0rbia: 8.960000
par1rbia: 0.997000
par0tbia: 4.250000
par1tbia: 0.227000
par2tbia: -0.000126
par0ia: -4.154000
par1ia: 3.697000
par2ia: 0.024250
ROC:           BPix_BpI_SEC5_LYR2_LDR8F_MOD4_ROC1
par0vd: -3.410000
par1vd: 63.100000
par0va: -6.930000
par1va: 65.600000
par0rbia: 7.880000
par1rbia: 1.030000
par0tbia: 4.150000
par1tbia: 0.246000
par2tbia: -0.000218
par0ia: -4.477000
par1ia: 3.415000
par2ia: 0.033560
ROC:           BPix_BpI_SEC5_LYR2_LDR8F_MOD4_ROC2
par0vd: -8.730000
par1vd: 66.700000
par0va: -4.450000
par1va: 65.600000
par0rbia: 11.700000
par1rbia: 1.070000
par0tbia: 4.660000
par1tbia: 0.251000
par2tbia: -0.000201
par0ia: -2.937000
par1ia: 3.532000
par2ia: 0.028740
ROC:           BPix_BpI_SEC5_LYR2_LDR8F_MOD4_ROC3
par0vd: -3.640000
par1vd: 61.500000
par0va: -2.250000
par1va: 61.200000
par0rbia: 11.100000
par1rbia: 1.050000
par0tbia: 4.600000
par1tbia: 0.262000
par2tbia: -0.000229
par0ia: -1.663000
par1ia: 3.223000
par2ia: 0.030640
ROC:           BPix_BpI_SEC5_LYR2_LDR8F_MOD4_ROC4
par0vd: -8.230000
par1vd: 68.500000
par0va: -0.979000
par1va: 66.100000
par0rbia: 11.600000
par1rbia: 1.030000
par0tbia: 4.840000
par1tbia: 0.219000
par2tbia: -0.000136
par0ia: -6.916000
par1ia: 4.104000
par2ia: 0.025670
ROC:           BPix_BpI_SEC5_LYR2_LDR8F_MOD4_ROC5
par0vd: -6.720000
par1vd: 62.300000
par0va: -3.250000
par1va: 61.200000
par0rbia: 11.400000
par1rbia: 1.050000
par0tbia: 4.070000
par1tbia: 0.282000
par2tbia: -0.000302
par0ia: 1.818000
par1ia: 2.867000
par2ia: 0.035000
ROC:           BPix_BpI_SEC5_LYR2_LDR8F_MOD4_ROC6
par0vd: -7.100000
par1vd: 65.400000
par0va: -5.230000
par1va: 65.600000
par0rbia: 10.200000
par1rbia: 1.040000
par0tbia: 4.030000
par1tbia: 0.268000
par2tbia: -0.000239
par0ia: 0.012820
par1ia: 3.134000
par2ia: 0.029870
ROC:           BPix_BpI_SEC5_LYR2_LDR8F_MOD4_ROC7
par0vd: -6.230000
par1vd: 61.200000
par0va: -7.070000
par1va: 62.100000
par0rbia: 9.230000
par1rbia: 1.040000
par0tbia: 4.780000
par1tbia: 0.276000
par2tbia: -0.000258
par0ia: -3.121000
par1ia: 2.975000
par2ia: 0.029290
ROC:           BPix_BpI_SEC5_LYR2_LDR8F_MOD4_ROC8
par0vd: -2.500000
par1vd: 62.600000
par0va: -0.371000
par1va: 61.900000
par0rbia: 12.600000
par1rbia: 1.070000
par0tbia: 4.170000
par1tbia: 0.264000
par2tbia: -0.000229
par0ia: 1.247000
par1ia: 3.278000
par2ia: 0.030000
ROC:           BPix_BpI_SEC5_LYR2_LDR8F_MOD4_ROC9
par0vd: -10.200000
par1vd: 65.700000
par0va: -6.200000
par1va: 64.500000
par0rbia: 10.400000
par1rbia: 1.080000
par0tbia: 5.000000
par1tbia: 0.250000
par2tbia: -0.000211
par0ia: -5.084000
par1ia: 3.475000
par2ia: 0.031960
ROC:           BPix_BpI_SEC5_LYR2_LDR8F_MOD4_ROC10
par0vd: -5.550000
par1vd: 65.400000
par0va: 0.064300
par1va: 63.200000
par0rbia: 10.200000
par1rbia: 1.050000
par0tbia: 3.680000
par1tbia: 0.272000
par2tbia: -0.000258
par0ia: 1.569000
par1ia: 3.050000
par2ia: 0.031990
ROC:           BPix_BpI_SEC5_LYR2_LDR8F_MOD4_ROC11
par0vd: -7.480000
par1vd: 61.500000
par0va: -4.370000
par1va: 61.100000
par0rbia: 9.030000
par1rbia: 1.040000
par0tbia: 4.320000
par1tbia: 0.290000
par2tbia: -0.000287
par0ia: 0.954300
par1ia: 2.637000
par2ia: 0.031810
ROC:           BPix_BpI_SEC5_LYR2_LDR8F_MOD4_ROC12
par0vd: -6.070000
par1vd: 63.400000
par0va: 0.431000
par1va: 60.900000
par0rbia: 10.800000
par1rbia: 1.050000
par0tbia: 4.140000
par1tbia: 0.257000
par2tbia: -0.000216
par0ia: -0.020730
par1ia: 3.265000
par2ia: 0.031180
ROC:           BPix_BpI_SEC5_LYR2_LDR8F_MOD4_ROC13
par0vd: -10.200000
par1vd: 64.400000
par0va: -0.349000
par1va: 60.800000
par0rbia: 9.670000
par1rbia: 1.060000
par0tbia: 3.730000
par1tbia: 0.289000
par2tbia: -0.000273
par0ia: 2.140000
par1ia: 2.858000
par2ia: 0.029840
ROC:           BPix_BpI_SEC5_LYR2_LDR8F_MOD4_ROC14
par0vd: -9.440000
par1vd: 63.700000
par0va: -3.830000
par1va: 62.400000
par0rbia: 10.600000
par1rbia: 1.060000
par0tbia: 4.710000
par1tbia: 0.272000
par2tbia: -0.000248
par0ia: -2.276000
par1ia: 3.132000
par2ia: 0.029570
ROC:           BPix_BpI_SEC5_LYR2_LDR8F_MOD4_ROC15
par0vd: -4.920000
par1vd: 64.700000
par0va: -0.951000
par1va: 63.600000
par0rbia: 10.000000
par1rbia: 1.030000
par0tbia: 4.560000
par1tbia: 0.268000
par2tbia: -0.000244
par0ia: -1.247000
par1ia: 3.013000
par2ia: 0.031090
