ROC:           BPix_BpI_SEC3_LYR2_LDR5F_MOD2_ROC0
par0vd: 3.850000
par1vd: 62.800000
par0va: -1.960000
par1va: 64.200000
par0rbia: 11.300000
par1rbia: 1.090000
par0tbia: 3.980000
par1tbia: 0.248000
par2tbia: -0.000207
par0ia: -3.426000
par1ia: 3.854000
par2ia: 0.028260
ROC:           BPix_BpI_SEC3_LYR2_LDR5F_MOD2_ROC1
par0vd: 3.520000
par1vd: 64.400000
par0va: 0.983000
par1va: 64.600000
par0rbia: 13.800000
par1rbia: 1.090000
par0tbia: 4.410000
par1tbia: 0.241000
par2tbia: -0.000170
par0ia: -6.599000
par1ia: 4.369000
par2ia: 0.017660
ROC:           BPix_BpI_SEC3_LYR2_LDR5F_MOD2_ROC2
par0vd: 5.470000
par1vd: 60.700000
par0va: -1.550000
par1va: 63.400000
par0rbia: 12.000000
par1rbia: 1.020000
par0tbia: 4.090000
par1tbia: 0.243000
par2tbia: -0.000207
par0ia: 0.033040
par1ia: 3.408000
par2ia: 0.032680
ROC:           BPix_BpI_SEC3_LYR2_LDR5F_MOD2_ROC3
par0vd: 0.276000
par1vd: 63.900000
par0va: -2.330000
par1va: 65.000000
par0rbia: 12.300000
par1rbia: 1.080000
par0tbia: 4.250000
par1tbia: 0.256000
par2tbia: -0.000233
par0ia: -1.828000
par1ia: 3.559000
par2ia: 0.031300
ROC:           BPix_BpI_SEC3_LYR2_LDR5F_MOD2_ROC4
par0vd: 5.690000
par1vd: 61.100000
par0va: -1.900000
par1va: 63.900000
par0rbia: 12.500000
par1rbia: 1.080000
par0tbia: 4.080000
par1tbia: 0.237000
par2tbia: -0.000193
par0ia: -2.894000
par1ia: 3.976000
par2ia: 0.029810
ROC:           BPix_BpI_SEC3_LYR2_LDR5F_MOD2_ROC5
par0vd: -3.800000
par1vd: 66.000000
par0va: 2.380000
par1va: 62.800000
par0rbia: 18.400000
par1rbia: 1.070000
par0tbia: 4.050000
par1tbia: 0.252000
par2tbia: -0.000232
par0ia: -0.252800
par1ia: 4.106000
par2ia: 0.022870
ROC:           BPix_BpI_SEC3_LYR2_LDR5F_MOD2_ROC6
par0vd: -3.100000
par1vd: 64.400000
par0va: -0.895000
par1va: 62.500000
par0rbia: 12.500000
par1rbia: 1.070000
par0tbia: 4.050000
par1tbia: 0.277000
par2tbia: -0.000291
par0ia: 0.575000
par1ia: 3.182000
par2ia: 0.033010
ROC:           BPix_BpI_SEC3_LYR2_LDR5F_MOD2_ROC7
par0vd: -3.470000
par1vd: 61.500000
par0va: 1.650000
par1va: 58.400000
par0rbia: 16.000000
par1rbia: 1.090000
par0tbia: 4.050000
par1tbia: 0.252000
par2tbia: -0.000232
par0ia: -2.389000
par1ia: 4.125000
par2ia: 0.024060
ROC:           BPix_BpI_SEC3_LYR2_LDR5F_MOD2_ROC8
par0vd: -4.570000
par1vd: 66.100000
par0va: -1.990000
par1va: 64.300000
par0rbia: 10.700000
par1rbia: 1.060000
par0tbia: 4.690000
par1tbia: 0.223000
par2tbia: -0.000125
par0ia: -7.988000
par1ia: 4.230000
par2ia: 0.021880
ROC:           BPix_BpI_SEC3_LYR2_LDR5F_MOD2_ROC9
par0vd: -2.750000
par1vd: 67.000000
par0va: 0.061700
par1va: 65.400000
par0rbia: 20.600000
par1rbia: 1.200000
par0tbia: 4.090000
par1tbia: 0.272000
par2tbia: -0.000247
par0ia: -6.643000
par1ia: 5.322000
par2ia: -0.002429
ROC:           BPix_BpI_SEC3_LYR2_LDR5F_MOD2_ROC10
par0vd: -1.930000
par1vd: 62.700000
par0va: -0.421000
par1va: 62.400000
par0rbia: 15.100000
par1rbia: 1.070000
par0tbia: 4.250000
par1tbia: 0.261000
par2tbia: -0.000223
par0ia: -0.059030
par1ia: 3.646000
par2ia: 0.024860
ROC:           BPix_BpI_SEC3_LYR2_LDR5F_MOD2_ROC11
par0vd: 0.105000
par1vd: 60.400000
par0va: -0.479000
par1va: 59.700000
par0rbia: 12.700000
par1rbia: 1.070000
par0tbia: 4.000000
par1tbia: 0.288000
par2tbia: -0.000291
par0ia: 2.230000
par1ia: 3.017000
par2ia: 0.030050
ROC:           BPix_BpI_SEC3_LYR2_LDR5F_MOD2_ROC12
par0vd: -0.827000
par1vd: 65.900000
par0va: -2.500000
par1va: 66.700000
par0rbia: 12.500000
par1rbia: 1.020000
par0tbia: 4.320000
par1tbia: 0.249000
par2tbia: -0.000204
par0ia: -0.754000
par1ia: 3.440000
par2ia: 0.028280
ROC:           BPix_BpI_SEC3_LYR2_LDR5F_MOD2_ROC13
par0vd: 1.480000
par1vd: 61.500000
par0va: -0.414000
par1va: 61.800000
par0rbia: 9.880000
par1rbia: 1.010000
par0tbia: 4.080000
par1tbia: 0.237000
par2tbia: -0.000183
par0ia: -2.695000
par1ia: 3.555000
par2ia: 0.030190
ROC:           BPix_BpI_SEC3_LYR2_LDR5F_MOD2_ROC14
par0vd: -1.060000
par1vd: 62.100000
par0va: 3.830000
par1va: 58.500000
par0rbia: 9.920000
par1rbia: 1.030000
par0tbia: 4.140000
par1tbia: 0.261000
par2tbia: -0.000247
par0ia: -0.899200
par1ia: 3.117000
par2ia: 0.033500
ROC:           BPix_BpI_SEC3_LYR2_LDR5F_MOD2_ROC15
par0vd: 2.480000
par1vd: 63.100000
par0va: -3.260000
par1va: 65.700000
par0rbia: 12.300000
par1rbia: 1.070000
par0tbia: 4.180000
par1tbia: 0.244000
par2tbia: -0.000193
par0ia: -1.809000
par1ia: 3.738000
par2ia: 0.029250
