ROC:           BPix_BpO_SEC1_LYR4_LDR4F_MOD3_ROC0
par0vd: -9.980000
par1vd: 68.800000
par0va: -7.080000
par1va: 67.000000
par0rbia: 15.700000
par1rbia: 1.100000
par0tbia: 4.940000
par1tbia: 0.259000
par2tbia: -0.000223
par0ia: -9.932000
par1ia: 4.413000
par2ia: 0.014770
ROC:           BPix_BpO_SEC1_LYR4_LDR4F_MOD3_ROC1
par0vd: -2.640000
par1vd: 67.200000
par0va: -5.340000
par1va: 66.900000
par0rbia: 12.400000
par1rbia: 1.080000
par0tbia: 4.650000
par1tbia: 0.238000
par2tbia: -0.000141
par0ia: -7.711000
par1ia: 4.288000
par2ia: 0.016680
ROC:           BPix_BpO_SEC1_LYR4_LDR4F_MOD3_ROC2
par0vd: -7.170000
par1vd: 67.500000
par0va: -4.260000
par1va: 65.400000
par0rbia: 12.700000
par1rbia: 1.070000
par0tbia: 4.050000
par1tbia: 0.277000
par2tbia: -0.000272
par0ia: 2.864000
par1ia: 3.026000
par2ia: 0.032860
ROC:           BPix_BpO_SEC1_LYR4_LDR4F_MOD3_ROC3
par0vd: -6.940000
par1vd: 65.300000
par0va: -6.310000
par1va: 63.700000
par0rbia: 8.000000
par1rbia: 1.020000
par0tbia: 4.740000
par1tbia: 0.227000
par2tbia: -0.000188
par0ia: -7.957000
par1ia: 3.674000
par2ia: 0.035290
ROC:           BPix_BpO_SEC1_LYR4_LDR4F_MOD3_ROC4
par0vd: -2.930000
par1vd: 62.800000
par0va: -5.670000
par1va: 63.100000
par0rbia: 15.400000
par1rbia: 1.090000
par0tbia: 4.000000
par1tbia: 0.263000
par2tbia: -0.000208
par0ia: -0.996800
par1ia: 3.908000
par2ia: 0.019300
ROC:           BPix_BpO_SEC1_LYR4_LDR4F_MOD3_ROC5
par0vd: -7.420000
par1vd: 68.400000
par0va: -6.760000
par1va: 67.700000
par0rbia: 16.200000
par1rbia: 1.100000
par0tbia: 4.560000
par1tbia: 0.267000
par2tbia: -0.000223
par0ia: -6.293000
par1ia: 4.233000
par2ia: 0.014240
ROC:           BPix_BpO_SEC1_LYR4_LDR4F_MOD3_ROC6
par0vd: -5.560000
par1vd: 65.600000
par0va: -6.550000
par1va: 65.000000
par0rbia: 14.900000
par1rbia: 1.070000
par0tbia: 4.400000
par1tbia: 0.256000
par2tbia: -0.000218
par0ia: -1.823000
par1ia: 3.777000
par2ia: 0.024790
ROC:           BPix_BpO_SEC1_LYR4_LDR4F_MOD3_ROC7
par0vd: -0.597000
par1vd: 62.100000
par0va: -6.900000
par1va: 63.700000
par0rbia: 16.200000
par1rbia: 1.080000
par0tbia: 4.850000
par1tbia: 0.242000
par2tbia: -0.000145
par0ia: -7.209000
par1ia: 4.483000
par2ia: 0.011860
ROC:           BPix_BpO_SEC1_LYR4_LDR4F_MOD3_ROC8
par0vd: -9.210000
par1vd: 64.900000
par0va: -11.600000
par1va: 65.300000
par0rbia: 8.100000
par1rbia: 1.000000
par0tbia: 4.890000
par1tbia: 0.254000
par2tbia: -0.000189
par0ia: -6.368000
par1ia: 3.301000
par2ia: 0.024430
ROC:           BPix_BpO_SEC1_LYR4_LDR4F_MOD3_ROC9
par0vd: -6.270000
par1vd: 61.900000
par0va: -4.720000
par1va: 60.400000
par0rbia: 14.000000
par1rbia: 1.080000
par0tbia: 4.410000
par1tbia: 0.288000
par2tbia: -0.000278
par0ia: -0.498500
par1ia: 3.284000
par2ia: 0.023950
ROC:           BPix_BpO_SEC1_LYR4_LDR4F_MOD3_ROC10
par0vd: -0.634000
par1vd: 64.800000
par0va: -6.680000
par1va: 66.600000
par0rbia: 9.850000
par1rbia: 1.020000
par0tbia: 4.110000
par1tbia: 0.205000
par2tbia: -0.000137
par0ia: -5.784000
par1ia: 4.240000
par2ia: 0.034000
ROC:           BPix_BpO_SEC1_LYR4_LDR4F_MOD3_ROC11
par0vd: -4.870000
par1vd: 64.600000
par0va: -8.700000
par1va: 66.300000
par0rbia: 13.900000
par1rbia: 1.030000
par0tbia: 4.230000
par1tbia: 0.268000
par2tbia: -0.000238
par0ia: 0.334800
par1ia: 3.334000
par2ia: 0.024620
ROC:           BPix_BpO_SEC1_LYR4_LDR4F_MOD3_ROC12
par0vd: -4.000000
par1vd: 63.300000
par0va: -5.380000
par1va: 63.500000
par0rbia: 15.000000
par1rbia: 1.090000
par0tbia: 4.210000
par1tbia: 0.271000
par2tbia: -0.000252
par0ia: -3.028000
par1ia: 3.863000
par2ia: 0.021320
ROC:           BPix_BpO_SEC1_LYR4_LDR4F_MOD3_ROC13
par0vd: -4.680000
par1vd: 61.600000
par0va: -4.290000
par1va: 60.600000
par0rbia: 11.400000
par1rbia: 1.040000
par0tbia: 4.710000
par1tbia: 0.268000
par2tbia: -0.000228
par0ia: -2.198000
par1ia: 3.229000
par2ia: 0.026730
ROC:           BPix_BpO_SEC1_LYR4_LDR4F_MOD3_ROC14
par0vd: -3.090000
par1vd: 68.200000
par0va: -7.420000
par1va: 69.700000
par0rbia: 13.400000
par1rbia: 1.100000
par0tbia: 4.530000
par1tbia: 0.247000
par2tbia: -0.000179
par0ia: -8.543000
par1ia: 4.416000
par2ia: 0.015770
ROC:           BPix_BpO_SEC1_LYR4_LDR4F_MOD3_ROC15
par0vd: -1.730000
par1vd: 65.200000
par0va: -4.090000
par1va: 65.500000
par0rbia: 13.700000
par1rbia: 1.080000
par0tbia: 4.540000
par1tbia: 0.245000
par2tbia: -0.000194
par0ia: -3.864000
par1ia: 3.930000
par2ia: 0.025870
