ROC:           BPix_BpO_SEC8_LYR2_LDR13F_MOD3_ROC0
par0vd: -0.200000
par1vd: 64.400000
par0va: -0.338000
par1va: 63.500000
par0rbia: 12.100000
par1rbia: 1.070000
par0tbia: 4.560000
par1tbia: 0.252000
par2tbia: -0.000194
par0ia: -3.595000
par1ia: 3.678000
par2ia: 0.025560
ROC:           BPix_BpO_SEC8_LYR2_LDR13F_MOD3_ROC1
par0vd: 7.100000
par1vd: 63.000000
par0va: 1.810000
par1va: 63.900000
par0rbia: 14.300000
par1rbia: 1.080000
par0tbia: 4.410000
par1tbia: 0.238000
par2tbia: -0.000172
par0ia: -5.901000
par1ia: 4.357000
par2ia: 0.019530
ROC:           BPix_BpO_SEC8_LYR2_LDR13F_MOD3_ROC2
par0vd: -1.250000
par1vd: 62.600000
par0va: -8.180000
par1va: 65.500000
par0rbia: 8.590000
par1rbia: 1.040000
par0tbia: 4.260000
par1tbia: 0.252000
par2tbia: -0.000221
par0ia: -4.221000
par1ia: 3.405000
par2ia: 0.031450
ROC:           BPix_BpO_SEC8_LYR2_LDR13F_MOD3_ROC3
par0vd: 128.000000
par1vd: 54.100000
par0va: 128.000000
par1va: 85.900000
par0rbia: 128.000000
par1rbia: 255.000000
par0tbia: 4.110000
par1tbia: 0.219000
par2tbia: -0.000143
par0ia: 255.200000
par1ia: -0.054520
par2ia: 0.001211
ROC:           BPix_BpO_SEC8_LYR2_LDR13F_MOD3_ROC4
par0vd: 0.003010
par1vd: 63.500000
par0va: -2.190000
par1va: 63.900000
par0rbia: 13.000000
par1rbia: 1.080000
par0tbia: 4.050000
par1tbia: 0.272000
par2tbia: -0.000272
par0ia: 0.790400
par1ia: 3.274000
par2ia: 0.031570
ROC:           BPix_BpO_SEC8_LYR2_LDR13F_MOD3_ROC5
par0vd: 5.880000
par1vd: 63.500000
par0va: -2.090000
par1va: 66.100000
par0rbia: 14.800000
par1rbia: 1.090000
par0tbia: 4.170000
par1tbia: 0.255000
par2tbia: -0.000201
par0ia: -3.184000
par1ia: 4.076000
par2ia: 0.019800
ROC:           BPix_BpO_SEC8_LYR2_LDR13F_MOD3_ROC6
par0vd: -2.340000
par1vd: 65.700000
par0va: -5.400000
par1va: 66.600000
par0rbia: 10.200000
par1rbia: 1.070000
par0tbia: 4.010000
par1tbia: 0.234000
par2tbia: -0.000187
par0ia: -3.327000
par1ia: 3.830000
par2ia: 0.032700
ROC:           BPix_BpO_SEC8_LYR2_LDR13F_MOD3_ROC7
par0vd: 128.000000
par1vd: 54.100000
par0va: 128.000000
par1va: 85.900000
par0rbia: 128.000000
par1rbia: 255.000000
par0tbia: 4.010000
par1tbia: 0.243000
par2tbia: -0.000211
par0ia: 255.300000
par1ia: -0.099220
par2ia: 0.002122
ROC:           BPix_BpO_SEC8_LYR2_LDR13F_MOD3_ROC8
par0vd: -0.019000
par1vd: 62.100000
par0va: -3.150000
par1va: 62.800000
par0rbia: 14.600000
par1rbia: 1.090000
par0tbia: 4.400000
par1tbia: 0.258000
par2tbia: -0.000213
par0ia: -4.353000
par1ia: 4.017000
par2ia: 0.020140
ROC:           BPix_BpO_SEC8_LYR2_LDR13F_MOD3_ROC9
par0vd: -4.240000
par1vd: 63.700000
par0va: -3.350000
par1va: 62.600000
par0rbia: 12.400000
par1rbia: 1.070000
par0tbia: 4.100000
par1tbia: 0.252000
par2tbia: -0.000216
par0ia: -0.698100
par1ia: 3.573000
par2ia: 0.030680
ROC:           BPix_BpO_SEC8_LYR2_LDR13F_MOD3_ROC10
par0vd: -3.090000
par1vd: 62.600000
par0va: -1.850000
par1va: 61.400000
par0rbia: 10.300000
par1rbia: 1.010000
par0tbia: 4.480000
par1tbia: 0.232000
par2tbia: -0.000167
par0ia: -3.015000
par1ia: 3.517000
par2ia: 0.030790
ROC:           BPix_BpO_SEC8_LYR2_LDR13F_MOD3_ROC11
par0vd: 128.000000
par1vd: 54.100000
par0va: 128.000000
par1va: 85.900000
par0rbia: 128.000000
par1rbia: 255.000000
par0tbia: 4.260000
par1tbia: 0.244000
par2tbia: -0.000182
par0ia: 255.000000
par1ia: 0.000000
par2ia: 0.000000
ROC:           BPix_BpO_SEC8_LYR2_LDR13F_MOD3_ROC12
par0vd: 2.880000
par1vd: 61.000000
par0va: -4.910000
par1va: 63.900000
par0rbia: 11.500000
par1rbia: 1.050000
par0tbia: 3.800000
par1tbia: 0.252000
par2tbia: -0.000240
par0ia: 0.539600
par1ia: 3.364000
par2ia: 0.035640
ROC:           BPix_BpO_SEC8_LYR2_LDR13F_MOD3_ROC13
par0vd: 4.930000
par1vd: 64.300000
par0va: -3.120000
par1va: 67.600000
par0rbia: 10.400000
par1rbia: 1.040000
par0tbia: 4.010000
par1tbia: 0.232000
par2tbia: -0.000187
par0ia: -2.880000
par1ia: 3.746000
par2ia: 0.033340
ROC:           BPix_BpO_SEC8_LYR2_LDR13F_MOD3_ROC14
par0vd: -5.160000
par1vd: 64.400000
par0va: -0.749000
par1va: 62.400000
par0rbia: 12.100000
par1rbia: 1.070000
par0tbia: 4.390000
par1tbia: 0.264000
par2tbia: -0.000238
par0ia: -1.002000
par1ia: 3.337000
par2ia: 0.029940
ROC:           BPix_BpO_SEC8_LYR2_LDR13F_MOD3_ROC15
par0vd: 128.000000
par1vd: 54.100000
par0va: 128.000000
par1va: 85.900000
par0rbia: 128.000000
par1rbia: 255.000000
par0tbia: 4.560000
par1tbia: 0.252000
par2tbia: -0.000211
par0ia: 255.000000
par1ia: 0.000000
par2ia: 0.000000
