ROC:           BPix_BpO_SEC3_LYR1_LDR2H_MOD2_ROC4
par0vd: -6.400000
par1vd: 67.300000
par0va: 6.580000
par1va: 64.600000
par0rbia: 10.500000
par1rbia: 1.070000
par0tbia: 5.840000
par1tbia: 0.243000
par2tbia: -0.000108
par0ia: -10.550000
par1ia: 3.890000
par2ia: 0.016110
ROC:           BPix_BpO_SEC3_LYR1_LDR2H_MOD2_ROC5
par0vd: -0.242000
par1vd: 63.700000
par0va: 6.730000
par1va: 63.300000
par0rbia: 11.800000
par1rbia: 1.080000
par0tbia: 5.470000
par1tbia: 0.302000
par2tbia: -0.000249
par0ia: -4.752000
par1ia: 3.137000
par2ia: 0.018760
ROC:           BPix_BpO_SEC3_LYR1_LDR2H_MOD2_ROC6
par0vd: 5.220000
par1vd: 63.800000
par0va: 7.240000
par1va: 66.000000
par0rbia: 12.500000
par1rbia: 1.050000
par0tbia: 5.570000
par1tbia: 0.259000
par2tbia: -0.000171
par0ia: -5.073000
par1ia: 3.442000
par2ia: 0.020870
ROC:           BPix_BpO_SEC3_LYR1_LDR2H_MOD2_ROC7
par0vd: 0.154000
par1vd: 65.700000
par0va: 12.800000
par1va: 62.200000
par0rbia: 11.600000
par1rbia: 1.070000
par0tbia: 4.800000
par1tbia: 0.259000
par2tbia: -0.000152
par0ia: -4.022000
par1ia: 3.620000
par2ia: 0.018610
ROC:           BPix_BpO_SEC3_LYR1_LDR2H_MOD2_ROC8
par0vd: 2.460000
par1vd: 60.200000
par0va: 4.490000
par1va: 61.800000
par0rbia: 12.400000
par1rbia: 1.040000
par0tbia: 5.300000
par1tbia: 0.280000
par2tbia: -0.000210
par0ia: -2.592000
par1ia: 3.134000
par2ia: 0.020810
ROC:           BPix_BpO_SEC3_LYR1_LDR2H_MOD2_ROC9
par0vd: 3.020000
par1vd: 62.600000
par0va: 10.900000
par1va: 61.300000
par0rbia: 12.800000
par1rbia: 1.100000
par0tbia: 5.340000
par1tbia: 0.326000
par2tbia: -0.000272
par0ia: -3.761000
par1ia: 3.064000
par2ia: 0.014970
ROC:           BPix_BpO_SEC3_LYR1_LDR2H_MOD2_ROC10
par0vd: 6.540000
par1vd: 63.300000
par0va: 3.760000
par1va: 67.900000
par0rbia: 13.400000
par1rbia: 1.070000
par0tbia: 5.450000
par1tbia: 0.273000
par2tbia: -0.000185
par0ia: -4.581000
par1ia: 3.477000
par2ia: 0.018080
ROC:           BPix_BpO_SEC3_LYR1_LDR2H_MOD2_ROC11
par0vd: 1.370000
par1vd: 62.100000
par0va: 8.220000
par1va: 61.200000
par0rbia: 10.100000
par1rbia: 1.050000
par0tbia: 5.670000
par1tbia: 0.286000
par2tbia: -0.000196
par0ia: -4.769000
par1ia: 3.030000
par2ia: 0.019440
