ROC:           BPix_BpI_SEC1_LYR4_LDR4F_MOD1_ROC0
par0vd: -0.923000
par1vd: 63.300000
par0va: -0.107000
par1va: 63.500000
par0rbia: 13.000000
par1rbia: 1.060000
par0tbia: 4.440000
par1tbia: 0.197000
par2tbia: -0.000077
par0ia: -7.442000
par1ia: 4.903000
par2ia: 0.020090
ROC:           BPix_BpI_SEC1_LYR4_LDR4F_MOD1_ROC1
par0vd: 3.970000
par1vd: 62.700000
par0va: 3.980000
par1va: 62.400000
par0rbia: 14.700000
par1rbia: 1.070000
par0tbia: 4.000000
par1tbia: 0.244000
par2tbia: -0.000213
par0ia: -0.777400
par1ia: 3.899000
par2ia: 0.028960
ROC:           BPix_BpI_SEC1_LYR4_LDR4F_MOD1_ROC2
par0vd: 1.380000
par1vd: 60.400000
par0va: -0.159000
par1va: 61.300000
par0rbia: 10.300000
par1rbia: 1.090000
par0tbia: 3.920000
par1tbia: 0.242000
par2tbia: -0.000179
par0ia: -4.096000
par1ia: 3.966000
par2ia: 0.026000
ROC:           BPix_BpI_SEC1_LYR4_LDR4F_MOD1_ROC3
par0vd: -1.430000
par1vd: 61.100000
par0va: 1.740000
par1va: 59.700000
par0rbia: 11.900000
par1rbia: 1.080000
par0tbia: 4.240000
par1tbia: 0.217000
par2tbia: -0.000112
par0ia: -7.269000
par1ia: 4.630000
par2ia: 0.018570
ROC:           BPix_BpI_SEC1_LYR4_LDR4F_MOD1_ROC4
par0vd: -1.420000
par1vd: 59.500000
par0va: 0.630000
par1va: 58.300000
par0rbia: 11.200000
par1rbia: 1.070000
par0tbia: 4.050000
par1tbia: 0.215000
par2tbia: -0.000131
par0ia: -6.810000
par1ia: 4.555000
par2ia: 0.023200
ROC:           BPix_BpI_SEC1_LYR4_LDR4F_MOD1_ROC5
par0vd: 3.970000
par1vd: 59.300000
par0va: 0.395000
par1va: 60.600000
par0rbia: 10.600000
par1rbia: 1.030000
par0tbia: 3.980000
par1tbia: 0.209000
par2tbia: -0.000130
par0ia: -5.583000
par1ia: 4.380000
par2ia: 0.027470
ROC:           BPix_BpI_SEC1_LYR4_LDR4F_MOD1_ROC6
par0vd: 0.872000
par1vd: 61.100000
par0va: -0.697000
par1va: 61.200000
par0rbia: 8.120000
par1rbia: 1.040000
par0tbia: 3.850000
par1tbia: 0.210000
par2tbia: -0.000121
par0ia: -6.907000
par1ia: 4.361000
par2ia: 0.027000
ROC:           BPix_BpI_SEC1_LYR4_LDR4F_MOD1_ROC7
par0vd: -2.300000
par1vd: 62.000000
par0va: -4.690000
par1va: 64.000000
par0rbia: 12.900000
par1rbia: 1.080000
par0tbia: 4.870000
par1tbia: 0.202000
par2tbia: -0.000078
par0ia: -12.420000
par1ia: 5.159000
par2ia: 0.013080
ROC:           BPix_BpI_SEC1_LYR4_LDR4F_MOD1_ROC8
par0vd: -3.990000
par1vd: 63.500000
par0va: -2.350000
par1va: 63.100000
par0rbia: 11.500000
par1rbia: 1.080000
par0tbia: 3.980000
par1tbia: 0.213000
par2tbia: -0.000121
par0ia: -8.116000
par1ia: 4.872000
par2ia: 0.019190
ROC:           BPix_BpI_SEC1_LYR4_LDR4F_MOD1_ROC9
par0vd: -3.780000
par1vd: 67.000000
par0va: 2.620000
par1va: 64.600000
par0rbia: 15.100000
par1rbia: 1.080000
par0tbia: 4.320000
par1tbia: 0.214000
par2tbia: -0.000116
par0ia: -7.513000
par1ia: 4.968000
par2ia: 0.014780
ROC:           BPix_BpI_SEC1_LYR4_LDR4F_MOD1_ROC10
par0vd: -3.560000
par1vd: 61.800000
par0va: -3.040000
par1va: 62.100000
par0rbia: 14.800000
par1rbia: 1.090000
par0tbia: 4.230000
par1tbia: 0.256000
par2tbia: -0.000210
par0ia: -4.505000
par1ia: 4.157000
par2ia: 0.018900
ROC:           BPix_BpI_SEC1_LYR4_LDR4F_MOD1_ROC11
par0vd: 0.485000
par1vd: 61.300000
par0va: -1.750000
par1va: 63.000000
par0rbia: 11.600000
par1rbia: 1.040000
par0tbia: 3.860000
par1tbia: 0.245000
par2tbia: -0.000184
par0ia: -1.368000
par1ia: 3.704000
par2ia: 0.025960
ROC:           BPix_BpI_SEC1_LYR4_LDR4F_MOD1_ROC12
par0vd: -2.930000
par1vd: 64.800000
par0va: -4.440000
par1va: 65.900000
par0rbia: 12.600000
par1rbia: 1.100000
par0tbia: 3.820000
par1tbia: 0.234000
par2tbia: -0.000184
par0ia: -6.302000
par1ia: 4.560000
par2ia: 0.021860
ROC:           BPix_BpI_SEC1_LYR4_LDR4F_MOD1_ROC13
par0vd: 1.580000
par1vd: 59.500000
par0va: 0.869000
par1va: 60.400000
par0rbia: 14.400000
par1rbia: 1.070000
par0tbia: 4.140000
par1tbia: 0.236000
par2tbia: -0.000175
par0ia: -3.026000
par1ia: 4.190000
par2ia: 0.023650
ROC:           BPix_BpI_SEC1_LYR4_LDR4F_MOD1_ROC14
par0vd: -13.900000
par1vd: 68.900000
par0va: 1.810000
par1va: 62.800000
par0rbia: 13.100000
par1rbia: 1.090000
par0tbia: 4.150000
par1tbia: 0.236000
par2tbia: -0.000150
par0ia: -5.763000
par1ia: 4.431000
par2ia: 0.017600
ROC:           BPix_BpI_SEC1_LYR4_LDR4F_MOD1_ROC15
par0vd: -3.690000
par1vd: 62.200000
par0va: 2.830000
par1va: 59.800000
par0rbia: 12.100000
par1rbia: 1.050000
par0tbia: 3.690000
par1tbia: 0.237000
par2tbia: -0.000179
par0ia: -0.512000
par1ia: 3.846000
par2ia: 0.028200
