ROC:           BPix_BmO_SEC2_LYR4_LDR7F_MOD3_ROC0
par0vd: -4.770000
par1vd: 67.600000
par0va: -6.320000
par1va: 67.900000
par0rbia: 15.500000
par1rbia: 1.110000
par0tbia: 4.640000
par1tbia: 0.264000
par2tbia: -0.000242
par0ia: -9.210000
par1ia: 4.411000
par2ia: 0.015670
ROC:           BPix_BmO_SEC2_LYR4_LDR7F_MOD3_ROC1
par0vd: 6.290000
par1vd: 59.300000
par0va: -4.740000
par1va: 64.000000
par0rbia: 19.900000
par1rbia: 1.100000
par0tbia: 4.360000
par1tbia: 0.256000
par2tbia: -0.000184
par0ia: -6.985000
par1ia: 4.896000
par2ia: 0.004495
ROC:           BPix_BmO_SEC2_LYR4_LDR7F_MOD3_ROC2
par0vd: -5.360000
par1vd: 61.300000
par0va: -4.790000
par1va: 60.900000
par0rbia: 10.300000
par1rbia: 1.060000
par0tbia: 4.250000
par1tbia: 0.241000
par2tbia: -0.000188
par0ia: -2.021000
par1ia: 3.534000
par2ia: 0.032620
ROC:           BPix_BmO_SEC2_LYR4_LDR7F_MOD3_ROC3
par0vd: -2.070000
par1vd: 61.300000
par0va: -6.300000
par1va: 63.000000
par0rbia: 14.100000
par1rbia: 1.080000
par0tbia: 4.560000
par1tbia: 0.215000
par2tbia: -0.000104
par0ia: -8.171000
par1ia: 4.816000
par2ia: 0.014980
ROC:           BPix_BmO_SEC2_LYR4_LDR7F_MOD3_ROC4
par0vd: -7.390000
par1vd: 65.400000
par0va: -5.780000
par1va: 64.900000
par0rbia: 10.700000
par1rbia: 1.080000
par0tbia: 4.080000
par1tbia: 0.249000
par2tbia: -0.000232
par0ia: -2.810000
par1ia: 3.614000
par2ia: 0.034350
ROC:           BPix_BmO_SEC2_LYR4_LDR7F_MOD3_ROC5
par0vd: -9.200000
par1vd: 64.900000
par0va: -10.900000
par1va: 66.400000
par0rbia: 9.890000
par1rbia: 1.060000
par0tbia: 4.100000
par1tbia: 0.248000
par2tbia: -0.000194
par0ia: -3.290000
par1ia: 3.634000
par2ia: 0.028290
ROC:           BPix_BmO_SEC2_LYR4_LDR7F_MOD3_ROC6
par0vd: -12.400000
par1vd: 64.300000
par0va: -12.800000
par1va: 65.800000
par0rbia: 10.500000
par1rbia: 1.060000
par0tbia: 4.100000
par1tbia: 0.236000
par2tbia: -0.000173
par0ia: -3.623000
par1ia: 3.829000
par2ia: 0.028210
ROC:           BPix_BmO_SEC2_LYR4_LDR7F_MOD3_ROC7
par0vd: -4.610000
par1vd: 60.300000
par0va: -4.850000
par1va: 59.700000
par0rbia: 11.000000
par1rbia: 1.080000
par0tbia: 4.120000
par1tbia: 0.268000
par2tbia: -0.000238
par0ia: -1.491000
par1ia: 3.378000
par2ia: 0.028070
ROC:           BPix_BmO_SEC2_LYR4_LDR7F_MOD3_ROC8
par0vd: -12.800000
par1vd: 66.800000
par0va: -2.520000
par1va: 62.400000
par0rbia: 14.100000
par1rbia: 1.080000
par0tbia: 4.210000
par1tbia: 0.275000
par2tbia: -0.000247
par0ia: -1.132000
par1ia: 3.549000
par2ia: 0.023000
ROC:           BPix_BmO_SEC2_LYR4_LDR7F_MOD3_ROC9
par0vd: -3.800000
par1vd: 63.000000
par0va: -4.810000
par1va: 63.200000
par0rbia: 10.700000
par1rbia: 1.060000
par0tbia: 4.140000
par1tbia: 0.272000
par2tbia: -0.000272
par0ia: -0.529800
par1ia: 3.123000
par2ia: 0.033300
ROC:           BPix_BmO_SEC2_LYR4_LDR7F_MOD3_ROC10
par0vd: -2.530000
par1vd: 62.200000
par0va: 1.250000
par1va: 59.300000
par0rbia: 13.200000
par1rbia: 1.080000
par0tbia: 4.850000
par1tbia: 0.247000
par2tbia: -0.000155
par0ia: -6.316000
par1ia: 4.033000
par2ia: 0.017580
ROC:           BPix_BmO_SEC2_LYR4_LDR7F_MOD3_ROC11
par0vd: 1.700000
par1vd: 60.200000
par0va: -4.040000
par1va: 62.600000
par0rbia: 15.500000
par1rbia: 1.080000
par0tbia: 4.120000
par1tbia: 0.280000
par2tbia: -0.000276
par0ia: 0.261500
par1ia: 3.508000
par2ia: 0.024430
ROC:           BPix_BmO_SEC2_LYR4_LDR7F_MOD3_ROC12
par0vd: -7.510000
par1vd: 63.000000
par0va: -9.740000
par1va: 64.600000
par0rbia: 11.000000
par1rbia: 1.050000
par0tbia: 4.120000
par1tbia: 0.280000
par2tbia: -0.000276
par0ia: 0.002491
par1ia: 3.049000
par2ia: 0.029790
ROC:           BPix_BmO_SEC2_LYR4_LDR7F_MOD3_ROC13
par0vd: -0.248000
par1vd: 64.100000
par0va: -3.920000
par1va: 65.800000
par0rbia: 12.600000
par1rbia: 1.080000
par0tbia: 3.940000
par1tbia: 0.257000
par2tbia: -0.000261
par0ia: -0.521800
par1ia: 3.497000
par2ia: 0.035420
ROC:           BPix_BmO_SEC2_LYR4_LDR7F_MOD3_ROC14
par0vd: -7.830000
par1vd: 65.600000
par0va: -6.980000
par1va: 65.700000
par0rbia: 15.200000
par1rbia: 1.100000
par0tbia: 3.840000
par1tbia: 0.259000
par2tbia: -0.000233
par0ia: -3.419000
par1ia: 4.208000
par2ia: 0.020020
ROC:           BPix_BmO_SEC2_LYR4_LDR7F_MOD3_ROC15
par0vd: -2.750000
par1vd: 63.200000
par0va: -1.950000
par1va: 62.600000
par0rbia: 13.000000
par1rbia: 1.070000
par0tbia: 4.360000
par1tbia: 0.259000
par2tbia: -0.000247
par0ia: -1.228000
par1ia: 3.461000
par2ia: 0.032290
