ROC:           BPix_BpO_SEC5_LYR1_LDR4F_MOD3_ROC0
par0vd: 6.910000
par1vd: 60.800000
par0va: 9.790000
par1va: 61.100000
par0rbia: 10.600000
par1rbia: 1.060000
par0tbia: 4.200000
par1tbia: 0.251000
par2tbia: -0.000160
par0ia: -2.715000
par1ia: 3.652000
par2ia: 0.022110
ROC:           BPix_BpO_SEC5_LYR1_LDR4F_MOD3_ROC1
par0vd: -3.810000
par1vd: 66.700000
par0va: 4.410000
par1va: 66.300000
par0rbia: 10.000000
par1rbia: 1.050000
par0tbia: 4.220000
par1tbia: 0.259000
par2tbia: -0.000165
par0ia: -2.795000
par1ia: 3.523000
par2ia: 0.020610
ROC:           BPix_BpO_SEC5_LYR1_LDR4F_MOD3_ROC2
par0vd: 0.113000
par1vd: 60.300000
par0va: -1.330000
par1va: 64.600000
par0rbia: 14.500000
par1rbia: 1.100000
par0tbia: 4.570000
par1tbia: 0.291000
par2tbia: -0.000156
par0ia: -5.408000
par1ia: 3.893000
par2ia: 0.005859
ROC:           BPix_BpO_SEC5_LYR1_LDR4F_MOD3_ROC3
par0vd: -7.210000
par1vd: 68.900000
par0va: 4.440000
par1va: 67.400000
par0rbia: 12.100000
par1rbia: 1.090000
par0tbia: 4.390000
par1tbia: 0.268000
par2tbia: -0.000189
par0ia: -4.075000
par1ia: 3.729000
par2ia: 0.017870
ROC:           BPix_BpO_SEC5_LYR1_LDR4F_MOD3_ROC12
par0vd: 4.860000
par1vd: 63.300000
par0va: -1.230000
par1va: 70.100000
par0rbia: 10.300000
par1rbia: 1.090000
par0tbia: 4.030000
par1tbia: 0.304000
par2tbia: -0.000234
par0ia: -2.024000
par1ia: 3.251000
par2ia: 0.016690
ROC:           BPix_BpO_SEC5_LYR1_LDR4F_MOD3_ROC13
par0vd: 0.915000
par1vd: 64.600000
par0va: 3.830000
par1va: 66.500000
par0rbia: 10.400000
par1rbia: 1.070000
par0tbia: 4.630000
par1tbia: 0.267000
par2tbia: -0.000159
par0ia: -3.090000
par1ia: 3.440000
par2ia: 0.019380
ROC:           BPix_BpO_SEC5_LYR1_LDR4F_MOD3_ROC14
par0vd: -3.390000
par1vd: 67.600000
par0va: 6.190000
par1va: 66.500000
par0rbia: 13.400000
par1rbia: 1.110000
par0tbia: 4.580000
par1tbia: 0.283000
par2tbia: -0.000195
par0ia: -9.052000
par1ia: 4.154000
par2ia: 0.007776
ROC:           BPix_BpO_SEC5_LYR1_LDR4F_MOD3_ROC15
par0vd: -2.820000
par1vd: 68.300000
par0va: 6.050000
par1va: 68.300000
par0rbia: 11.800000
par1rbia: 1.070000
par0tbia: 4.500000
par1tbia: 0.264000
par2tbia: -0.000160
par0ia: -2.405000
par1ia: 3.566000
par2ia: 0.018740
