ROC:           BPix_BpI_SEC6_LYR1_LDR4F_MOD1_ROC0
par0vd: 1.890000
par1vd: 63.000000
par0va: 7.480000
par1va: 62.000000
par0rbia: 11.700000
par1rbia: 1.040000
par0tbia: 4.690000
par1tbia: 0.260000
par2tbia: -0.000142
par0ia: -2.382000
par1ia: 3.466000
par2ia: 0.017700
ROC:           BPix_BpI_SEC6_LYR1_LDR4F_MOD1_ROC1
par0vd: 1.640000
par1vd: 66.100000
par0va: 6.490000
par1va: 65.100000
par0rbia: 19.700000
par1rbia: 1.100000
par0tbia: 4.930000
par1tbia: 0.303000
par2tbia: -0.000244
par0ia: -4.794000
par1ia: 3.983000
par2ia: 0.006890
ROC:           BPix_BpI_SEC6_LYR1_LDR4F_MOD1_ROC2
par0vd: 3.810000
par1vd: 63.700000
par0va: 10.400000
par1va: 61.900000
par0rbia: 13.300000
par1rbia: 1.070000
par0tbia: 4.440000
par1tbia: 0.256000
par2tbia: -0.000144
par0ia: -2.205000
par1ia: 3.778000
par2ia: 0.016740
ROC:           BPix_BpI_SEC6_LYR1_LDR4F_MOD1_ROC3
par0vd: 8.530000
par1vd: 65.000000
par0va: 10.900000
par1va: 64.800000
par0rbia: 13.500000
par1rbia: 1.090000
par0tbia: 4.750000
par1tbia: 0.259000
par2tbia: -0.000152
par0ia: -5.193000
par1ia: 3.946000
par2ia: 0.014510
ROC:           BPix_BpI_SEC6_LYR1_LDR4F_MOD1_ROC12
par0vd: 0.671000
par1vd: 66.100000
par0va: 6.080000
par1va: 65.000000
par0rbia: 8.130000
par1rbia: 1.050000
par0tbia: 4.840000
par1tbia: 0.248000
par2tbia: -0.000120
par0ia: -6.807000
par1ia: 3.623000
par2ia: 0.018690
ROC:           BPix_BpI_SEC6_LYR1_LDR4F_MOD1_ROC13
par0vd: 9.790000
par1vd: 61.500000
par0va: 8.510000
par1va: 63.500000
par0rbia: 13.400000
par1rbia: 1.040000
par0tbia: 4.200000
par1tbia: 0.271000
par2tbia: -0.000200
par0ia: 2.902000
par1ia: 3.148000
par2ia: 0.023830
ROC:           BPix_BpI_SEC6_LYR1_LDR4F_MOD1_ROC14
par0vd: -1.960000
par1vd: 68.400000
par0va: 5.740000
par1va: 66.600000
par0rbia: 13.600000
par1rbia: 1.100000
par0tbia: 4.470000
par1tbia: 0.281000
par2tbia: -0.000210
par0ia: -4.567000
par1ia: 3.793000
par2ia: 0.014720
ROC:           BPix_BpI_SEC6_LYR1_LDR4F_MOD1_ROC15
par0vd: 9.730000
par1vd: 60.200000
par0va: 5.570000
par1va: 63.900000
par0rbia: 16.000000
par1rbia: 1.090000
par0tbia: 4.300000
par1tbia: 0.291000
par2tbia: -0.000205
par0ia: -2.525000
par1ia: 3.817000
par2ia: 0.009885
