ROC:           BPix_BpO_SEC8_LYR3_LDR22F_MOD1_ROC0
par0vd: -8.100000
par1vd: 63.500000
par0va: -9.050000
par1va: 64.900000
par0rbia: 11.000000
par1rbia: 1.070000
par0tbia: 4.960000
par1tbia: 0.248000
par2tbia: -0.000208
par0ia: -4.901000
par1ia: 3.525000
par2ia: 0.031990
ROC:           BPix_BpO_SEC8_LYR3_LDR22F_MOD1_ROC1
par0vd: -8.140000
par1vd: 63.200000
par0va: -8.250000
par1va: 64.100000
par0rbia: 8.930000
par1rbia: 1.040000
par0tbia: 4.690000
par1tbia: 0.263000
par2tbia: -0.000233
par0ia: -2.374000
par1ia: 3.028000
par2ia: 0.033110
ROC:           BPix_BpO_SEC8_LYR3_LDR22F_MOD1_ROC2
par0vd: -11.900000
par1vd: 66.400000
par0va: -7.100000
par1va: 65.400000
par0rbia: 12.700000
par1rbia: 1.080000
par0tbia: 4.880000
par1tbia: 0.274000
par2tbia: -0.000239
par0ia: -2.582000
par1ia: 3.333000
par2ia: 0.025720
ROC:           BPix_BpO_SEC8_LYR3_LDR22F_MOD1_ROC3
par0vd: -12.700000
par1vd: 65.200000
par0va: -6.810000
par1va: 62.800000
par0rbia: 11.200000
par1rbia: 1.080000
par0tbia: 4.850000
par1tbia: 0.264000
par2tbia: -0.000247
par0ia: -3.372000
par1ia: 3.304000
par2ia: 0.032420
ROC:           BPix_BpO_SEC8_LYR3_LDR22F_MOD1_ROC4
par0vd: -8.780000
par1vd: 65.400000
par0va: -4.780000
par1va: 64.600000
par0rbia: 11.200000
par1rbia: 1.020000
par0tbia: 4.920000
par1tbia: 0.240000
par2tbia: -0.000189
par0ia: -5.504000
par1ia: 3.610000
par2ia: 0.028260
ROC:           BPix_BpO_SEC8_LYR3_LDR22F_MOD1_ROC5
par0vd: -11.400000
par1vd: 63.900000
par0va: -4.460000
par1va: 61.300000
par0rbia: 12.700000
par1rbia: 1.050000
par0tbia: 4.750000
par1tbia: 0.245000
par2tbia: -0.000199
par0ia: -2.941000
par1ia: 3.591000
par2ia: 0.029570
ROC:           BPix_BpO_SEC8_LYR3_LDR22F_MOD1_ROC6
par0vd: -14.500000
par1vd: 68.300000
par0va: -7.020000
par1va: 66.100000
par0rbia: 12.700000
par1rbia: 0.990000
par0tbia: 4.900000
par1tbia: 0.264000
par2tbia: -0.000267
par0ia: 1.168000
par1ia: 2.789000
par2ia: 0.036060
ROC:           BPix_BpO_SEC8_LYR3_LDR22F_MOD1_ROC7
par0vd: -7.270000
par1vd: 65.200000
par0va: -6.580000
par1va: 65.400000
par0rbia: 10.600000
par1rbia: 1.020000
par0tbia: 4.910000
par1tbia: 0.251000
par2tbia: -0.000218
par0ia: -3.080000
par1ia: 3.208000
par2ia: 0.032670
ROC:           BPix_BpO_SEC8_LYR3_LDR22F_MOD1_ROC8
par0vd: -13.300000
par1vd: 64.200000
par0va: -4.320000
par1va: 60.400000
par0rbia: 11.100000
par1rbia: 1.090000
par0tbia: 4.790000
par1tbia: 0.265000
par2tbia: -0.000233
par0ia: -5.368000
par1ia: 3.541000
par2ia: 0.026640
ROC:           BPix_BpO_SEC8_LYR3_LDR22F_MOD1_ROC9
par0vd: -14.200000
par1vd: 65.300000
par0va: -6.120000
par1va: 62.000000
par0rbia: 9.510000
par1rbia: 1.050000
par0tbia: 4.690000
par1tbia: 0.263000
par2tbia: -0.000233
par0ia: -3.005000
par1ia: 3.154000
par2ia: 0.031560
ROC:           BPix_BpO_SEC8_LYR3_LDR22F_MOD1_ROC10
par0vd: -19.100000
par1vd: 69.700000
par0va: -5.770000
par1va: 64.800000
par0rbia: 10.800000
par1rbia: 1.020000
par0tbia: 4.890000
par1tbia: 0.241000
par2tbia: -0.000207
par0ia: -3.646000
par1ia: 3.350000
par2ia: 0.034690
ROC:           BPix_BpO_SEC8_LYR3_LDR22F_MOD1_ROC11
par0vd: -8.630000
par1vd: 64.200000
par0va: -1.660000
par1va: 60.900000
par0rbia: 16.200000
par1rbia: 1.080000
par0tbia: 4.900000
par1tbia: 0.253000
par2tbia: -0.000194
par0ia: -6.210000
par1ia: 4.194000
par2ia: 0.017000
ROC:           BPix_BpO_SEC8_LYR3_LDR22F_MOD1_ROC12
par0vd: -9.320000
par1vd: 65.600000
par0va: -6.600000
par1va: 65.700000
par0rbia: 10.100000
par1rbia: 1.050000
par0tbia: 4.950000
par1tbia: 0.269000
par2tbia: -0.000250
par0ia: -2.747000
par1ia: 3.027000
par2ia: 0.031720
ROC:           BPix_BpO_SEC8_LYR3_LDR22F_MOD1_ROC13
par0vd: -11.400000
par1vd: 66.700000
par0va: -10.500000
par1va: 67.400000
par0rbia: 10.300000
par1rbia: 1.090000
par0tbia: 4.900000
par1tbia: 0.263000
par2tbia: -0.000257
par0ia: -5.851000
par1ia: 3.420000
par2ia: 0.032840
ROC:           BPix_BpO_SEC8_LYR3_LDR22F_MOD1_ROC14
par0vd: -9.250000
par1vd: 63.000000
par0va: -2.290000
par1va: 60.900000
par0rbia: 13.100000
par1rbia: 1.030000
par0tbia: 4.700000
par1tbia: 0.262000
par2tbia: -0.000247
par0ia: 0.826500
par1ia: 3.055000
par2ia: 0.033360
ROC:           BPix_BpO_SEC8_LYR3_LDR22F_MOD1_ROC15
par0vd: -15.100000
par1vd: 65.500000
par0va: -8.020000
par1va: 63.000000
par0rbia: 8.230000
par1rbia: 1.040000
par0tbia: 5.060000
par1tbia: 0.242000
par2tbia: -0.000170
par0ia: -9.023000
par1ia: 3.678000
par2ia: 0.024980
