ROC:           BPix_BpI_SEC8_LYR2_LDR13F_MOD4_ROC0
par0vd: -4.570000
par1vd: 64.100000
par0va: -3.400000
par1va: 62.700000
par0rbia: 15.000000
par1rbia: 1.110000
par0tbia: 4.750000
par1tbia: 0.263000
par2tbia: -0.000225
par0ia: -8.767000
par1ia: 4.309000
par2ia: 0.015830
ROC:           BPix_BpI_SEC8_LYR2_LDR13F_MOD4_ROC1
par0vd: 2.140000
par1vd: 56.300000
par0va: -1.480000
par1va: 56.700000
par0rbia: 11.600000
par1rbia: 1.010000
par0tbia: 4.990000
par1tbia: 0.273000
par2tbia: -0.000258
par0ia: -1.180000
par1ia: 2.906000
par2ia: 0.029530
ROC:           BPix_BpI_SEC8_LYR2_LDR13F_MOD4_ROC2
par0vd: 1.760000
par1vd: 63.500000
par0va: -5.180000
par1va: 65.700000
par0rbia: 10.100000
par1rbia: 1.080000
par0tbia: 4.810000
par1tbia: 0.256000
par2tbia: -0.000218
par0ia: -6.689000
par1ia: 3.635000
par2ia: 0.027920
ROC:           BPix_BpI_SEC8_LYR2_LDR13F_MOD4_ROC3
par0vd: -3.980000
par1vd: 66.000000
par0va: -3.410000
par1va: 65.600000
par0rbia: 12.100000
par1rbia: 1.060000
par0tbia: 4.910000
par1tbia: 0.274000
par2tbia: -0.000268
par0ia: -0.472800
par1ia: 2.968000
par2ia: 0.033140
ROC:           BPix_BpI_SEC8_LYR2_LDR13F_MOD4_ROC4
par0vd: -5.370000
par1vd: 64.100000
par0va: -5.040000
par1va: 63.400000
par0rbia: 9.040000
par1rbia: 1.040000
par0tbia: 4.950000
par1tbia: 0.271000
par2tbia: -0.000244
par0ia: -2.854000
par1ia: 2.944000
par2ia: 0.031360
ROC:           BPix_BpI_SEC8_LYR2_LDR13F_MOD4_ROC5
par0vd: -10.100000
par1vd: 67.000000
par0va: -2.860000
par1va: 63.200000
par0rbia: 12.100000
par1rbia: 1.060000
par0tbia: 4.990000
par1tbia: 0.273000
par2tbia: -0.000258
par0ia: -0.732700
par1ia: 3.005000
par2ia: 0.032110
ROC:           BPix_BpI_SEC8_LYR2_LDR13F_MOD4_ROC6
par0vd: -9.960000
par1vd: 67.700000
par0va: -4.890000
par1va: 64.100000
par0rbia: 11.500000
par1rbia: 1.100000
par0tbia: 4.800000
par1tbia: 0.258000
par2tbia: -0.000216
par0ia: -7.424000
par1ia: 3.867000
par2ia: 0.023680
ROC:           BPix_BpI_SEC8_LYR2_LDR13F_MOD4_ROC7
par0vd: 0.308000
par1vd: 64.900000
par0va: -1.760000
par1va: 64.500000
par0rbia: 11.200000
par1rbia: 1.070000
par0tbia: 5.150000
par1tbia: 0.260000
par2tbia: -0.000200
par0ia: -4.328000
par1ia: 3.386000
par2ia: 0.026330
ROC:           BPix_BpI_SEC8_LYR2_LDR13F_MOD4_ROC8
par0vd: -0.949000
par1vd: 62.200000
par0va: -10.100000
par1va: 65.600000
par0rbia: 8.750000
par1rbia: 1.050000
par0tbia: 4.810000
par1tbia: 0.256000
par2tbia: -0.000218
par0ia: -4.437000
par1ia: 3.224000
par2ia: 0.031820
ROC:           BPix_BpI_SEC8_LYR2_LDR13F_MOD4_ROC9
par0vd: -4.130000
par1vd: 64.100000
par0va: -5.990000
par1va: 64.300000
par0rbia: 13.500000
par1rbia: 1.080000
par0tbia: 4.850000
par1tbia: 0.247000
par2tbia: -0.000204
par0ia: -4.482000
par1ia: 3.805000
par2ia: 0.027570
ROC:           BPix_BpI_SEC8_LYR2_LDR13F_MOD4_ROC10
par0vd: -0.145000
par1vd: 64.600000
par0va: -4.050000
par1va: 65.400000
par0rbia: 14.300000
par1rbia: 1.080000
par0tbia: 4.940000
par1tbia: 0.249000
par2tbia: -0.000204
par0ia: -5.378000
par1ia: 3.916000
par2ia: 0.024550
ROC:           BPix_BpI_SEC8_LYR2_LDR13F_MOD4_ROC11
par0vd: -1.980000
par1vd: 62.300000
par0va: -4.630000
par1va: 62.600000
par0rbia: 9.750000
par1rbia: 1.020000
par0tbia: 5.020000
par1tbia: 0.263000
par2tbia: -0.000250
par0ia: -3.040000
par1ia: 2.960000
par2ia: 0.033240
ROC:           BPix_BpI_SEC8_LYR2_LDR13F_MOD4_ROC12
par0vd: -8.610000
par1vd: 65.500000
par0va: -6.500000
par1va: 63.700000
par0rbia: 9.530000
par1rbia: 1.090000
par0tbia: 4.990000
par1tbia: 0.273000
par2tbia: -0.000258
par0ia: -3.495000
par1ia: 3.063000
par2ia: 0.032810
ROC:           BPix_BpI_SEC8_LYR2_LDR13F_MOD4_ROC13
par0vd: -0.402000
par1vd: 64.000000
par0va: 0.799000
par1va: 62.300000
par0rbia: 12.000000
par1rbia: 1.020000
par0tbia: 5.030000
par1tbia: 0.269000
par2tbia: -0.000239
par0ia: -1.654000
par1ia: 3.056000
par2ia: 0.027940
ROC:           BPix_BpI_SEC8_LYR2_LDR13F_MOD4_ROC14
par0vd: -7.080000
par1vd: 62.600000
par0va: -3.310000
par1va: 60.100000
par0rbia: 10.400000
par1rbia: 1.060000
par0tbia: 4.910000
par1tbia: 0.285000
par2tbia: -0.000278
par0ia: -1.972000
par1ia: 2.906000
par2ia: 0.029840
ROC:           BPix_BpI_SEC8_LYR2_LDR13F_MOD4_ROC15
par0vd: -1.480000
par1vd: 59.700000
par0va: 4.070000
par1va: 55.800000
par0rbia: 11.400000
par1rbia: 1.060000
par0tbia: 4.730000
par1tbia: 0.270000
par2tbia: -0.000234
par0ia: -1.791000
par1ia: 3.192000
par2ia: 0.028260
