ROC:           BPix_BpO_SEC1_LYR3_LDR2F_MOD3_ROC0
par0vd: 2.770000
par1vd: 64.300000
par0va: -4.650000
par1va: 66.300000
par0rbia: 14.500000
par1rbia: 1.070000
par0tbia: 4.930000
par1tbia: 0.244000
par2tbia: -0.000193
par0ia: -4.429000
par1ia: 3.895000
par2ia: 0.025930
ROC:           BPix_BpO_SEC1_LYR3_LDR2F_MOD3_ROC1
par0vd: 1.320000
par1vd: 62.900000
par0va: -3.550000
par1va: 63.300000
par0rbia: 12.500000
par1rbia: 1.100000
par0tbia: 4.670000
par1tbia: 0.223000
par2tbia: -0.000143
par0ia: -11.370000
par1ia: 4.828000
par2ia: 0.017670
ROC:           BPix_BpO_SEC1_LYR3_LDR2F_MOD3_ROC2
par0vd: -0.301000
par1vd: 63.300000
par0va: -1.710000
par1va: 63.000000
par0rbia: 13.000000
par1rbia: 1.060000
par0tbia: 4.930000
par1tbia: 0.244000
par2tbia: -0.000193
par0ia: -2.612000
par1ia: 3.558000
par2ia: 0.031230
ROC:           BPix_BpO_SEC1_LYR3_LDR2F_MOD3_ROC3
par0vd: -4.170000
par1vd: 63.800000
par0va: 0.387000
par1va: 60.200000
par0rbia: 16.400000
par1rbia: 1.080000
par0tbia: 4.700000
par1tbia: 0.292000
par2tbia: -0.000313
par0ia: -0.346300
par1ia: 3.299000
par2ia: 0.025540
ROC:           BPix_BpO_SEC1_LYR3_LDR2F_MOD3_ROC4
par0vd: 2.500000
par1vd: 64.700000
par0va: -8.120000
par1va: 68.100000
par0rbia: 13.200000
par1rbia: 1.090000
par0tbia: 4.910000
par1tbia: 0.266000
par2tbia: -0.000242
par0ia: -5.339000
par1ia: 3.665000
par2ia: 0.024960
ROC:           BPix_BpO_SEC1_LYR3_LDR2F_MOD3_ROC5
par0vd: -0.741000
par1vd: 63.400000
par0va: -8.220000
par1va: 65.400000
par0rbia: 15.700000
par1rbia: 1.100000
par0tbia: 4.960000
par1tbia: 0.276000
par2tbia: -0.000257
par0ia: -7.323000
par1ia: 3.997000
par2ia: 0.017440
ROC:           BPix_BpO_SEC1_LYR3_LDR2F_MOD3_ROC6
par0vd: -11.500000
par1vd: 66.500000
par0va: -8.820000
par1va: 64.400000
par0rbia: 8.250000
par1rbia: 1.030000
par0tbia: 4.950000
par1tbia: 0.241000
par2tbia: -0.000198
par0ia: -7.103000
par1ia: 3.449000
par2ia: 0.032040
ROC:           BPix_BpO_SEC1_LYR3_LDR2F_MOD3_ROC7
par0vd: -3.130000
par1vd: 63.900000
par0va: -6.460000
par1va: 63.900000
par0rbia: 11.600000
par1rbia: 1.080000
par0tbia: 5.000000
par1tbia: 0.261000
par2tbia: -0.000223
par0ia: -5.417000
par1ia: 3.552000
par2ia: 0.026830
ROC:           BPix_BpO_SEC1_LYR3_LDR2F_MOD3_ROC8
par0vd: -4.250000
par1vd: 61.000000
par0va: -3.440000
par1va: 59.200000
par0rbia: 10.900000
par1rbia: 1.050000
par0tbia: 5.070000
par1tbia: 0.259000
par2tbia: -0.000218
par0ia: -3.822000
par1ia: 3.270000
par2ia: 0.029110
ROC:           BPix_BpO_SEC1_LYR3_LDR2F_MOD3_ROC9
par0vd: -8.820000
par1vd: 67.400000
par0va: -6.160000
par1va: 65.300000
par0rbia: 16.800000
par1rbia: 1.090000
par0tbia: 4.780000
par1tbia: 0.243000
par2tbia: -0.000188
par0ia: -7.160000
par1ia: 4.495000
par2ia: 0.016720
ROC:           BPix_BpO_SEC1_LYR3_LDR2F_MOD3_ROC10
par0vd: -10.400000
par1vd: 67.000000
par0va: -4.280000
par1va: 62.800000
par0rbia: 12.600000
par1rbia: 1.070000
par0tbia: 5.000000
par1tbia: 0.261000
par2tbia: -0.000223
par0ia: -3.432000
par1ia: 3.435000
par2ia: 0.027920
ROC:           BPix_BpO_SEC1_LYR3_LDR2F_MOD3_ROC11
par0vd: -0.477000
par1vd: 66.100000
par0va: -3.490000
par1va: 66.500000
par0rbia: 11.800000
par1rbia: 1.080000
par0tbia: 5.060000
par1tbia: 0.271000
par2tbia: -0.000257
par0ia: -4.939000
par1ia: 3.371000
par2ia: 0.028320
ROC:           BPix_BpO_SEC1_LYR3_LDR2F_MOD3_ROC12
par0vd: -2.490000
par1vd: 62.800000
par0va: -10.200000
par1va: 65.300000
par0rbia: 8.350000
par1rbia: 1.080000
par0tbia: 4.850000
par1tbia: 0.271000
par2tbia: -0.000233
par0ia: -5.254000
par1ia: 3.217000
par2ia: 0.028200
ROC:           BPix_BpO_SEC1_LYR3_LDR2F_MOD3_ROC13
par0vd: -5.700000
par1vd: 69.200000
par0va: -5.510000
par1va: 68.500000
par0rbia: 13.500000
par1rbia: 1.100000
par0tbia: 5.250000
par1tbia: 0.252000
par2tbia: -0.000194
par0ia: -10.780000
par1ia: 4.273000
par2ia: 0.017350
ROC:           BPix_BpO_SEC1_LYR3_LDR2F_MOD3_ROC14
par0vd: -3.040000
par1vd: 64.400000
par0va: -2.800000
par1va: 63.000000
par0rbia: 12.800000
par1rbia: 1.080000
par0tbia: 4.730000
par1tbia: 0.254000
par2tbia: -0.000227
par0ia: -3.127000
par1ia: 3.556000
par2ia: 0.031040
ROC:           BPix_BpO_SEC1_LYR3_LDR2F_MOD3_ROC15
par0vd: -5.210000
par1vd: 65.700000
par0va: -2.200000
par1va: 63.400000
par0rbia: 17.300000
par1rbia: 1.110000
par0tbia: 5.000000
par1tbia: 0.261000
par2tbia: -0.000223
par0ia: -7.635000
par1ia: 4.313000
par2ia: 0.015620
