ROC:           BPix_BmI_SEC7_LYR4_LDR25F_MOD4_ROC0
par0vd: -18.400000
par1vd: 72.500000
par0va: 0.594000
par1va: 65.500000
par0rbia: 12.600000
par1rbia: 1.090000
par0tbia: 4.510000
par1tbia: 0.228000
par2tbia: -0.000158
par0ia: -8.302000
par1ia: 4.501000
par2ia: 0.021490
ROC:           BPix_BmI_SEC7_LYR4_LDR25F_MOD4_ROC1
par0vd: -9.480000
par1vd: 68.400000
par0va: -3.230000
par1va: 67.300000
par0rbia: 14.300000
par1rbia: 1.090000
par0tbia: 4.610000
par1tbia: 0.229000
par2tbia: -0.000133
par0ia: -9.365000
par1ia: 4.777000
par2ia: 0.013010
ROC:           BPix_BmI_SEC7_LYR4_LDR25F_MOD4_ROC2
par0vd: -0.097700
par1vd: 61.200000
par0va: -0.797000
par1va: 63.000000
par0rbia: 13.700000
par1rbia: 1.070000
par0tbia: 4.450000
par1tbia: 0.275000
par2tbia: -0.000262
par0ia: -0.454400
par1ia: 3.322000
par2ia: 0.027850
ROC:           BPix_BmI_SEC7_LYR4_LDR25F_MOD4_ROC3
par0vd: -8.460000
par1vd: 64.600000
par0va: -3.620000
par1va: 64.200000
par0rbia: 11.400000
par1rbia: 1.080000
par0tbia: 4.910000
par1tbia: 0.264000
par2tbia: -0.000218
par0ia: -4.333000
par1ia: 3.450000
par2ia: 0.026200
ROC:           BPix_BmI_SEC7_LYR4_LDR25F_MOD4_ROC4
par0vd: -13.200000
par1vd: 68.600000
par0va: -4.400000
par1va: 66.600000
par0rbia: 10.400000
par1rbia: 1.070000
par0tbia: 4.610000
par1tbia: 0.234000
par2tbia: -0.000172
par0ia: -7.335000
par1ia: 4.017000
par2ia: 0.027040
ROC:           BPix_BmI_SEC7_LYR4_LDR25F_MOD4_ROC5
par0vd: -11.700000
par1vd: 66.700000
par0va: -7.240000
par1va: 66.800000
par0rbia: 10.700000
par1rbia: 1.060000
par0tbia: 4.660000
par1tbia: 0.241000
par2tbia: -0.000175
par0ia: -5.821000
par1ia: 3.815000
par2ia: 0.025930
ROC:           BPix_BmI_SEC7_LYR4_LDR25F_MOD4_ROC6
par0vd: -15.500000
par1vd: 67.100000
par0va: -7.340000
par1va: 65.200000
par0rbia: 8.590000
par1rbia: 1.070000
par0tbia: 3.910000
par1tbia: 0.253000
par2tbia: -0.000233
par0ia: -2.736000
par1ia: 3.421000
par2ia: 0.035310
ROC:           BPix_BmI_SEC7_LYR4_LDR25F_MOD4_ROC7
par0vd: -10.100000
par1vd: 64.100000
par0va: -3.350000
par1va: 62.600000
par0rbia: 10.900000
par1rbia: 1.020000
par0tbia: 4.120000
par1tbia: 0.231000
par2tbia: -0.000172
par0ia: -2.283000
par1ia: 3.670000
par2ia: 0.030530
ROC:           BPix_BmI_SEC7_LYR4_LDR25F_MOD4_ROC8
par0vd: -10.700000
par1vd: 64.500000
par0va: -4.110000
par1va: 63.500000
par0rbia: 13.400000
par1rbia: 1.080000
par0tbia: 4.140000
par1tbia: 0.267000
par2tbia: -0.000267
par0ia: 0.168500
par1ia: 3.376000
par2ia: 0.032120
ROC:           BPix_BmI_SEC7_LYR4_LDR25F_MOD4_ROC9
par0vd: -19.200000
par1vd: 67.400000
par0va: -8.490000
par1va: 65.500000
par0rbia: 11.800000
par1rbia: 1.080000
par0tbia: 4.660000
par1tbia: 0.263000
par2tbia: -0.000239
par0ia: -3.248000
par1ia: 3.435000
par2ia: 0.029370
ROC:           BPix_BmI_SEC7_LYR4_LDR25F_MOD4_ROC10
par0vd: -9.130000
par1vd: 63.000000
par0va: -5.710000
par1va: 64.100000
par0rbia: 10.900000
par1rbia: 1.010000
par0tbia: 4.010000
par1tbia: 0.242000
par2tbia: -0.000192
par0ia: -0.780300
par1ia: 3.437000
par2ia: 0.030370
ROC:           BPix_BmI_SEC7_LYR4_LDR25F_MOD4_ROC11
par0vd: -16.300000
par1vd: 65.200000
par0va: -8.980000
par1va: 64.800000
par0rbia: 11.100000
par1rbia: 1.050000
par0tbia: 4.510000
par1tbia: 0.239000
par2tbia: -0.000182
par0ia: -3.951000
par1ia: 3.705000
par2ia: 0.028950
ROC:           BPix_BmI_SEC7_LYR4_LDR25F_MOD4_ROC12
par0vd: -11.000000
par1vd: 68.000000
par0va: -1.690000
par1va: 65.700000
par0rbia: 9.740000
par1rbia: 1.070000
par0tbia: 3.950000
par1tbia: 0.273000
par2tbia: -0.000258
par0ia: 0.690800
par1ia: 3.035000
par2ia: 0.033580
ROC:           BPix_BmI_SEC7_LYR4_LDR25F_MOD4_ROC13
par0vd: -9.510000
par1vd: 63.400000
par0va: -5.660000
par1va: 64.200000
par0rbia: 10.800000
par1rbia: 1.050000
par0tbia: 4.710000
par1tbia: 0.218000
par2tbia: -0.000114
par0ia: -7.857000
par1ia: 4.280000
par2ia: 0.022660
ROC:           BPix_BmI_SEC7_LYR4_LDR25F_MOD4_ROC14
par0vd: -12.000000
par1vd: 66.300000
par0va: -2.140000
par1va: 64.400000
par0rbia: 12.400000
par1rbia: 1.070000
par0tbia: 4.220000
par1tbia: 0.247000
par2tbia: -0.000199
par0ia: -1.132000
par1ia: 3.618000
par2ia: 0.029740
ROC:           BPix_BmI_SEC7_LYR4_LDR25F_MOD4_ROC15
par0vd: -10.500000
par1vd: 67.600000
par0va: 1.940000
par1va: 64.000000
par0rbia: 16.300000
par1rbia: 1.100000
par0tbia: 4.330000
par1tbia: 0.277000
par2tbia: -0.000267
par0ia: -3.556000
par1ia: 3.948000
par2ia: 0.019430
