ROC:           BPix_BmO_SEC2_LYR3_LDR4F_MOD2_ROC0
par0vd: -2.250000
par1vd: 61.000000
par0va: -2.050000
par1va: 60.800000
par0rbia: 11.300000
par1rbia: 1.050000
par0tbia: 4.350000
par1tbia: 0.245000
par2tbia: -0.000184
par0ia: -1.934000
par1ia: 3.544000
par2ia: 0.028660
ROC:           BPix_BmO_SEC2_LYR3_LDR4F_MOD2_ROC1
par0vd: -4.170000
par1vd: 63.200000
par0va: -3.540000
par1va: 63.000000
par0rbia: 10.400000
par1rbia: 1.070000
par0tbia: 4.850000
par1tbia: 0.266000
par2tbia: -0.000252
par0ia: -2.689000
par1ia: 3.129000
par2ia: 0.034030
ROC:           BPix_BmO_SEC2_LYR3_LDR4F_MOD2_ROC2
par0vd: -9.200000
par1vd: 61.900000
par0va: -4.120000
par1va: 60.200000
par0rbia: 14.900000
par1rbia: 1.080000
par0tbia: 4.730000
par1tbia: 0.225000
par2tbia: -0.000143
par0ia: -8.707000
par1ia: 4.695000
par2ia: 0.016170
ROC:           BPix_BmO_SEC2_LYR3_LDR4F_MOD2_ROC3
par0vd: -10.100000
par1vd: 65.400000
par0va: -8.430000
par1va: 65.200000
par0rbia: 9.170000
par1rbia: 1.070000
par0tbia: 4.750000
par1tbia: 0.249000
par2tbia: -0.000213
par0ia: -5.458000
par1ia: 3.466000
par2ia: 0.033110
ROC:           BPix_BmO_SEC2_LYR3_LDR4F_MOD2_ROC4
par0vd: -13.500000
par1vd: 61.300000
par0va: -9.650000
par1va: 60.600000
par0rbia: 9.500000
par1rbia: 1.030000
par0tbia: 4.640000
par1tbia: 0.254000
par2tbia: -0.000228
par0ia: -4.083000
par1ia: 3.271000
par2ia: 0.031780
ROC:           BPix_BmO_SEC2_LYR3_LDR4F_MOD2_ROC5
par0vd: -10.900000
par1vd: 65.500000
par0va: -8.040000
par1va: 65.600000
par0rbia: 13.600000
par1rbia: 1.080000
par0tbia: 4.660000
par1tbia: 0.241000
par2tbia: -0.000175
par0ia: -4.136000
par1ia: 3.957000
par2ia: 0.024410
ROC:           BPix_BmO_SEC2_LYR3_LDR4F_MOD2_ROC6
par0vd: -11.200000
par1vd: 64.600000
par0va: -9.520000
par1va: 64.800000
par0rbia: 9.660000
par1rbia: 1.020000
par0tbia: 4.570000
par1tbia: 0.231000
par2tbia: -0.000182
par0ia: -5.577000
par1ia: 3.673000
par2ia: 0.031460
ROC:           BPix_BmO_SEC2_LYR3_LDR4F_MOD2_ROC7
par0vd: -7.600000
par1vd: 66.700000
par0va: -6.290000
par1va: 66.500000
par0rbia: 16.700000
par1rbia: 1.110000
par0tbia: 4.690000
par1tbia: 0.244000
par2tbia: -0.000189
par0ia: -10.190000
par1ia: 4.849000
par2ia: 0.011870
ROC:           BPix_BmO_SEC2_LYR3_LDR4F_MOD2_ROC8
par0vd: -13.200000
par1vd: 67.800000
par0va: -2.100000
par1va: 63.700000
par0rbia: 9.720000
par1rbia: 1.030000
par0tbia: 4.660000
par1tbia: 0.241000
par2tbia: -0.000175
par0ia: -4.390000
par1ia: 3.511000
par2ia: 0.028460
ROC:           BPix_BmO_SEC2_LYR3_LDR4F_MOD2_ROC9
par0vd: -15.300000
par1vd: 66.300000
par0va: -6.760000
par1va: 63.800000
par0rbia: 10.900000
par1rbia: 1.060000
par0tbia: 4.150000
par1tbia: 0.264000
par2tbia: -0.000239
par0ia: -0.207600
par1ia: 3.207000
par2ia: 0.031490
ROC:           BPix_BmO_SEC2_LYR3_LDR4F_MOD2_ROC10
par0vd: -8.830000
par1vd: 64.100000
par0va: -6.280000
par1va: 63.700000
par0rbia: 16.900000
par1rbia: 1.110000
par0tbia: 4.900000
par1tbia: 0.301000
par2tbia: -0.000321
par0ia: -5.528000
par1ia: 3.730000
par2ia: 0.017980
ROC:           BPix_BmO_SEC2_LYR3_LDR4F_MOD2_ROC11
par0vd: -13.700000
par1vd: 64.100000
par0va: -2.280000
par1va: 59.900000
par0rbia: 12.500000
par1rbia: 1.060000
par0tbia: 4.450000
par1tbia: 0.239000
par2tbia: -0.000175
par0ia: -2.724000
par1ia: 3.789000
par2ia: 0.027670
ROC:           BPix_BmO_SEC2_LYR3_LDR4F_MOD2_ROC12
par0vd: -3.840000
par1vd: 65.400000
par0va: -1.660000
par1va: 65.000000
par0rbia: 15.400000
par1rbia: 1.080000
par0tbia: 4.790000
par1tbia: 0.240000
par2tbia: -0.000175
par0ia: -7.179000
par1ia: 4.399000
par2ia: 0.017940
ROC:           BPix_BmO_SEC2_LYR3_LDR4F_MOD2_ROC13
par0vd: -11.500000
par1vd: 66.500000
par0va: -4.210000
par1va: 64.400000
par0rbia: 15.000000
par1rbia: 1.090000
par0tbia: 5.010000
par1tbia: 0.260000
par2tbia: -0.000204
par0ia: -4.996000
par1ia: 3.868000
par2ia: 0.020140
ROC:           BPix_BmO_SEC2_LYR3_LDR4F_MOD2_ROC14
par0vd: -3.600000
par1vd: 61.500000
par0va: -8.740000
par1va: 65.000000
par0rbia: 10.100000
par1rbia: 1.040000
par0tbia: 4.590000
par1tbia: 0.215000
par2tbia: -0.000138
par0ia: -7.547000
par1ia: 4.188000
par2ia: 0.029130
ROC:           BPix_BmO_SEC2_LYR3_LDR4F_MOD2_ROC15
par0vd: -11.100000
par1vd: 64.300000
par0va: -6.050000
par1va: 63.000000
par0rbia: 8.570000
par1rbia: 1.030000
par0tbia: 4.960000
par1tbia: 0.255000
par2tbia: -0.000199
par0ia: -5.737000
par1ia: 3.298000
par2ia: 0.027380
