ROC:           BPix_BpI_SEC2_LYR1_LDR2F_MOD3_ROC0
par0vd: 7.780000
par1vd: 62.800000
par0va: 7.330000
par1va: 64.000000
par0rbia: 10.600000
par1rbia: 1.070000
par0tbia: 4.240000
par1tbia: 0.289000
par2tbia: -0.000204
par0ia: -0.366300
par1ia: 3.142000
par2ia: 0.019560
ROC:           BPix_BpI_SEC2_LYR1_LDR2F_MOD3_ROC1
par0vd: 3.750000
par1vd: 61.700000
par0va: 11.300000
par1va: 59.100000
par0rbia: 12.800000
par1rbia: 1.060000
par0tbia: 4.390000
par1tbia: 0.297000
par2tbia: -0.000228
par0ia: 2.269000
par1ia: 2.957000
par2ia: 0.020420
ROC:           BPix_BpI_SEC2_LYR1_LDR2F_MOD3_ROC2
par0vd: 4.520000
par1vd: 63.900000
par0va: 4.870000
par1va: 65.700000
par0rbia: 12.100000
par1rbia: 1.070000
par0tbia: 4.210000
par1tbia: 0.252000
par2tbia: -0.000137
par0ia: -2.527000
par1ia: 3.836000
par2ia: 0.017270
ROC:           BPix_BpI_SEC2_LYR1_LDR2F_MOD3_ROC3
par0vd: 3.510000
par1vd: 65.000000
par0va: 2.130000
par1va: 68.100000
par0rbia: 10.900000
par1rbia: 1.100000
par0tbia: 4.460000
par1tbia: 0.260000
par2tbia: -0.000161
par0ia: -8.745000
par1ia: 4.169000
par2ia: 0.012900
ROC:           BPix_BpI_SEC2_LYR1_LDR2F_MOD3_ROC12
par0vd: 12.100000
par1vd: 60.000000
par0va: 7.130000
par1va: 64.500000
par0rbia: 13.000000
par1rbia: 1.080000
par0tbia: 4.400000
par1tbia: 0.247000
par2tbia: -0.000118
par0ia: -5.747000
par1ia: 4.236000
par2ia: 0.011370
ROC:           BPix_BpI_SEC2_LYR1_LDR2F_MOD3_ROC13
par0vd: 3.260000
par1vd: 62.600000
par0va: 5.180000
par1va: 63.900000
par0rbia: 12.200000
par1rbia: 1.070000
par0tbia: 4.500000
par1tbia: 0.256000
par2tbia: -0.000127
par0ia: -3.967000
par1ia: 3.843000
par2ia: 0.014410
ROC:           BPix_BpI_SEC2_LYR1_LDR2F_MOD3_ROC14
par0vd: 6.530000
par1vd: 63.200000
par0va: 6.670000
par1va: 65.700000
par0rbia: 12.400000
par1rbia: 1.050000
par0tbia: 4.610000
par1tbia: 0.237000
par2tbia: -0.000108
par0ia: -3.526000
par1ia: 3.903000
par2ia: 0.017830
ROC:           BPix_BpI_SEC2_LYR1_LDR2F_MOD3_ROC15
par0vd: 2.170000
par1vd: 63.700000
par0va: 5.180000
par1va: 65.000000
par0rbia: 13.800000
par1rbia: 1.080000
par0tbia: 4.160000
par1tbia: 0.248000
par2tbia: -0.000142
par0ia: -2.910000
par1ia: 4.082000
par2ia: 0.015490
