ROC:           BPix_BpO_SEC3_LYR4_LDR9F_MOD1_ROC0
par0vd: -6.160000
par1vd: 63.400000
par0va: -0.820000
par1va: 62.600000
par0rbia: 11.700000
par1rbia: 1.090000
par0tbia: 4.840000
par1tbia: 0.253000
par2tbia: -0.000170
par0ia: -7.946000
par1ia: 4.017000
par2ia: 0.017690
ROC:           BPix_BpO_SEC3_LYR4_LDR9F_MOD1_ROC1
par0vd: -7.970000
par1vd: 63.900000
par0va: 2.680000
par1va: 61.000000
par0rbia: 10.000000
par1rbia: 1.050000
par0tbia: 4.210000
par1tbia: 0.261000
par2tbia: -0.000194
par0ia: -2.396000
par1ia: 3.406000
par2ia: 0.023900
ROC:           BPix_BpO_SEC3_LYR4_LDR9F_MOD1_ROC2
par0vd: -5.600000
par1vd: 64.600000
par0va: 3.020000
par1va: 62.300000
par0rbia: 11.000000
par1rbia: 1.050000
par0tbia: 5.000000
par1tbia: 0.243000
par2tbia: -0.000165
par0ia: -6.399000
par1ia: 3.730000
par2ia: 0.023260
ROC:           BPix_BpO_SEC3_LYR4_LDR9F_MOD1_ROC3
par0vd: -6.520000
par1vd: 65.500000
par0va: -2.420000
par1va: 65.700000
par0rbia: 8.240000
par1rbia: 1.050000
par0tbia: 4.750000
par1tbia: 0.221000
par2tbia: -0.000120
par0ia: -10.520000
par1ia: 4.219000
par2ia: 0.021760
ROC:           BPix_BpO_SEC3_LYR4_LDR9F_MOD1_ROC4
par0vd: -2.790000
par1vd: 64.100000
par0va: 0.662000
par1va: 64.500000
par0rbia: 11.600000
par1rbia: 1.100000
par0tbia: 4.000000
par1tbia: 0.252000
par2tbia: -0.000208
par0ia: -5.244000
par1ia: 4.062000
par2ia: 0.023200
ROC:           BPix_BpO_SEC3_LYR4_LDR9F_MOD1_ROC5
par0vd: -8.790000
par1vd: 64.100000
par0va: -1.210000
par1va: 62.200000
par0rbia: 8.800000
par1rbia: 1.090000
par0tbia: 4.690000
par1tbia: 0.223000
par2tbia: -0.000125
par0ia: -11.150000
par1ia: 4.429000
par2ia: 0.021080
ROC:           BPix_BpO_SEC3_LYR4_LDR9F_MOD1_ROC6
par0vd: -6.270000
par1vd: 64.300000
par0va: 4.020000
par1va: 61.700000
par0rbia: 20.800000
par1rbia: 1.100000
par0tbia: 4.910000
par1tbia: 0.246000
par2tbia: -0.000170
par0ia: -9.143000
par1ia: 5.031000
par2ia: 0.004364
ROC:           BPix_BpO_SEC3_LYR4_LDR9F_MOD1_ROC7
par0vd: -14.600000
par1vd: 65.400000
par0va: -5.880000
par1va: 64.200000
par0rbia: 11.100000
par1rbia: 1.100000
par0tbia: 4.490000
par1tbia: 0.246000
par2tbia: -0.000165
par0ia: -9.294000
par1ia: 4.322000
par2ia: 0.016090
ROC:           BPix_BpO_SEC3_LYR4_LDR9F_MOD1_ROC8
par0vd: -3.250000
par1vd: 62.000000
par0va: -3.180000
par1va: 64.600000
par0rbia: 11.200000
par1rbia: 1.080000
par0tbia: 4.250000
par1tbia: 0.286000
par2tbia: -0.000286
par0ia: -0.314600
par1ia: 3.061000
par2ia: 0.029590
ROC:           BPix_BpO_SEC3_LYR4_LDR9F_MOD1_ROC9
par0vd: -6.100000
par1vd: 62.400000
par0va: 0.951000
par1va: 61.200000
par0rbia: 9.810000
par1rbia: 1.070000
par0tbia: 4.660000
par1tbia: 0.255000
par2tbia: -0.000184
par0ia: -6.098000
par1ia: 3.662000
par2ia: 0.022650
ROC:           BPix_BpO_SEC3_LYR4_LDR9F_MOD1_ROC10
par0vd: -7.530000
par1vd: 62.800000
par0va: -0.059500
par1va: 61.100000
par0rbia: 9.930000
par1rbia: 1.090000
par0tbia: 4.650000
par1tbia: 0.257000
par2tbia: -0.000208
par0ia: -6.859000
par1ia: 3.726000
par2ia: 0.025080
ROC:           BPix_BpO_SEC3_LYR4_LDR9F_MOD1_ROC11
par0vd: -8.250000
par1vd: 67.200000
par0va: 4.780000
par1va: 63.400000
par0rbia: 14.600000
par1rbia: 1.070000
par0tbia: 4.360000
par1tbia: 0.259000
par2tbia: -0.000247
par0ia: 0.103000
par1ia: 3.479000
par2ia: 0.031690
ROC:           BPix_BpO_SEC3_LYR4_LDR9F_MOD1_ROC12
par0vd: -3.640000
par1vd: 63.600000
par0va: 1.860000
par1va: 62.900000
par0rbia: 15.600000
par1rbia: 1.080000
par0tbia: 4.760000
par1tbia: 0.252000
par2tbia: -0.000179
par0ia: -5.776000
par1ia: 4.184000
par2ia: 0.015350
ROC:           BPix_BpO_SEC3_LYR4_LDR9F_MOD1_ROC13
par0vd: -1.610000
par1vd: 64.000000
par0va: 1.420000
par1va: 64.800000
par0rbia: 10.900000
par1rbia: 1.050000
par0tbia: 4.280000
par1tbia: 0.240000
par2tbia: -0.000178
par0ia: -2.602000
par1ia: 3.637000
par2ia: 0.029280
ROC:           BPix_BpO_SEC3_LYR4_LDR9F_MOD1_ROC14
par0vd: -8.090000
par1vd: 66.000000
par0va: 2.720000
par1va: 62.900000
par0rbia: 11.300000
par1rbia: 1.090000
par0tbia: 4.500000
par1tbia: 0.252000
par2tbia: -0.000194
par0ia: -5.719000
par1ia: 3.868000
par2ia: 0.023600
ROC:           BPix_BpO_SEC3_LYR4_LDR9F_MOD1_ROC15
par0vd: -1.630000
par1vd: 60.100000
par0va: 3.060000
par1va: 60.000000
par0rbia: 13.900000
par1rbia: 1.070000
par0tbia: 4.710000
par1tbia: 0.267000
par2tbia: -0.000228
par0ia: -1.474000
par1ia: 3.440000
par2ia: 0.025400
