ROC:           BPix_BmI_SEC8_LYR4_LDR29F_MOD4_ROC0
par0vd: 4.390000
par1vd: 55.700000
par0va: 0.008620
par1va: 55.800000
par0rbia: 12.300000
par1rbia: 1.040000
par0tbia: 4.690000
par1tbia: 0.253000
par2tbia: -0.000175
par0ia: -2.946000
par1ia: 3.559000
par2ia: 0.022170
ROC:           BPix_BmI_SEC8_LYR4_LDR29F_MOD4_ROC1
par0vd: -6.940000
par1vd: 70.400000
par0va: -0.299000
par1va: 65.900000
par0rbia: 11.700000
par1rbia: 1.090000
par0tbia: 4.090000
par1tbia: 0.283000
par2tbia: -0.000272
par0ia: -0.855500
par1ia: 3.273000
par2ia: 0.027060
ROC:           BPix_BmI_SEC8_LYR4_LDR29F_MOD4_ROC2
par0vd: -9.060000
par1vd: 67.600000
par0va: -1.550000
par1va: 63.300000
par0rbia: 13.500000
par1rbia: 1.090000
par0tbia: 4.340000
par1tbia: 0.249000
par2tbia: -0.000194
par0ia: -5.199000
par1ia: 4.121000
par2ia: 0.021020
ROC:           BPix_BmI_SEC8_LYR4_LDR29F_MOD4_ROC3
par0vd: -0.993000
par1vd: 65.600000
par0va: 0.805000
par1va: 63.400000
par0rbia: 19.300000
par1rbia: 1.120000
par0tbia: 4.560000
par1tbia: 0.272000
par2tbia: -0.000228
par0ia: -8.257000
par1ia: 4.672000
par2ia: 0.006353
ROC:           BPix_BmI_SEC8_LYR4_LDR29F_MOD4_ROC4
par0vd: 5.740000
par1vd: 59.300000
par0va: -2.270000
par1va: 61.600000
par0rbia: 13.800000
par1rbia: 1.070000
par0tbia: 4.630000
par1tbia: 0.294000
par2tbia: -0.000287
par0ia: -0.327500
par1ia: 3.131000
par2ia: 0.024780
ROC:           BPix_BmI_SEC8_LYR4_LDR29F_MOD4_ROC5
par0vd: -4.930000
par1vd: 64.500000
par0va: 0.969000
par1va: 60.300000
par0rbia: 15.000000
par1rbia: 1.070000
par0tbia: 4.590000
par1tbia: 0.265000
par2tbia: -0.000228
par0ia: -2.408000
par1ia: 3.692000
par2ia: 0.022670
ROC:           BPix_BmI_SEC8_LYR4_LDR29F_MOD4_ROC6
par0vd: -6.380000
par1vd: 65.700000
par0va: -6.780000
par1va: 65.000000
par0rbia: 15.600000
par1rbia: 1.090000
par0tbia: 3.850000
par1tbia: 0.258000
par2tbia: -0.000223
par0ia: -1.890000
par1ia: 4.104000
par2ia: 0.020660
ROC:           BPix_BmI_SEC8_LYR4_LDR29F_MOD4_ROC7
par0vd: -5.610000
par1vd: 63.400000
par0va: -3.120000
par1va: 61.300000
par0rbia: 14.800000
par1rbia: 1.070000
par0tbia: 3.910000
par1tbia: 0.257000
par2tbia: -0.000228
par0ia: 0.518700
par1ia: 3.707000
par2ia: 0.026850
ROC:           BPix_BmI_SEC8_LYR4_LDR29F_MOD4_ROC8
par0vd: -6.050000
par1vd: 61.700000
par0va: -1.210000
par1va: 58.000000
par0rbia: 11.600000
par1rbia: 1.060000
par0tbia: 4.520000
par1tbia: 0.236000
par2tbia: -0.000173
par0ia: -4.651000
par1ia: 3.859000
par2ia: 0.027350
ROC:           BPix_BmI_SEC8_LYR4_LDR29F_MOD4_ROC9
par0vd: -0.935000
par1vd: 65.500000
par0va: -9.800000
par1va: 68.700000
par0rbia: 15.700000
par1rbia: 1.120000
par0tbia: 4.090000
par1tbia: 0.272000
par2tbia: -0.000247
par0ia: -7.623000
par1ia: 4.459000
par2ia: 0.012400
ROC:           BPix_BmI_SEC8_LYR4_LDR29F_MOD4_ROC10
par0vd: -5.490000
par1vd: 63.400000
par0va: -7.260000
par1va: 63.700000
par0rbia: 14.000000
par1rbia: 1.110000
par0tbia: 4.000000
par1tbia: 0.252000
par2tbia: -0.000208
par0ia: -5.262000
par1ia: 4.319000
par2ia: 0.019410
ROC:           BPix_BmI_SEC8_LYR4_LDR29F_MOD4_ROC11
par0vd: -2.520000
par1vd: 62.400000
par0va: -3.390000
par1va: 62.000000
par0rbia: 12.400000
par1rbia: 1.080000
par0tbia: 4.850000
par1tbia: 0.281000
par2tbia: -0.000258
par0ia: -3.058000
par1ia: 3.301000
par2ia: 0.025230
ROC:           BPix_BmI_SEC8_LYR4_LDR29F_MOD4_ROC12
par0vd: -7.230000
par1vd: 63.900000
par0va: -6.980000
par1va: 63.100000
par0rbia: 10.300000
par1rbia: 1.030000
par0tbia: 4.240000
par1tbia: 0.277000
par2tbia: -0.000262
par0ia: -1.532000
par1ia: 3.095000
par2ia: 0.027460
ROC:           BPix_BmI_SEC8_LYR4_LDR29F_MOD4_ROC13
par0vd: -4.580000
par1vd: 61.900000
par0va: -11.600000
par1va: 65.300000
par0rbia: 9.440000
par1rbia: 1.080000
par0tbia: 4.760000
par1tbia: 0.252000
par2tbia: -0.000179
par0ia: -6.893000
par1ia: 3.715000
par2ia: 0.023630
ROC:           BPix_BmI_SEC8_LYR4_LDR29F_MOD4_ROC14
par0vd: -1.200000
par1vd: 65.900000
par0va: -2.480000
par1va: 66.400000
par0rbia: 15.300000
par1rbia: 1.090000
par0tbia: 4.630000
par1tbia: 0.239000
par2tbia: -0.000173
par0ia: -7.231000
par1ia: 4.485000
par2ia: 0.017760
ROC:           BPix_BmI_SEC8_LYR4_LDR29F_MOD4_ROC15
par0vd: -4.630000
par1vd: 66.300000
par0va: -5.170000
par1va: 66.500000
par0rbia: 18.000000
par1rbia: 1.120000
par0tbia: 4.090000
par1tbia: 0.283000
par2tbia: -0.000272
par0ia: -4.811000
par1ia: 4.286000
par2ia: 0.012440
