ROC:           BPix_BpI_SEC6_LYR4_LDR23F_MOD3_ROC0
par0vd: -3.360000
par1vd: 64.300000
par0va: -0.942000
par1va: 63.700000
par0rbia: 14.900000
par1rbia: 1.070000
par0tbia: 4.950000
par1tbia: 0.228000
par2tbia: -0.000160
par0ia: -6.043000
par1ia: 4.257000
par2ia: 0.024420
ROC:           BPix_BpI_SEC6_LYR4_LDR23F_MOD3_ROC1
par0vd: 0.752000
par1vd: 61.000000
par0va: -0.247000
par1va: 61.700000
par0rbia: 17.400000
par1rbia: 1.100000
par0tbia: 4.300000
par1tbia: 0.266000
par2tbia: -0.000240
par0ia: -3.382000
par1ia: 4.149000
par2ia: 0.017690
ROC:           BPix_BpI_SEC6_LYR4_LDR23F_MOD3_ROC2
par0vd: -1.940000
par1vd: 62.800000
par0va: -5.100000
par1va: 65.400000
par0rbia: 15.000000
par1rbia: 1.070000
par0tbia: 4.700000
par1tbia: 0.270000
par2tbia: -0.000253
par0ia: -1.076000
par1ia: 3.441000
par2ia: 0.026830
ROC:           BPix_BpI_SEC6_LYR4_LDR23F_MOD3_ROC3
par0vd: -8.200000
par1vd: 64.900000
par0va: -5.490000
par1va: 65.600000
par0rbia: 17.800000
par1rbia: 1.100000
par0tbia: 4.130000
par1tbia: 0.288000
par2tbia: -0.000302
par0ia: -0.760000
par1ia: 3.736000
par2ia: 0.020690
ROC:           BPix_BpI_SEC6_LYR4_LDR23F_MOD3_ROC4
par0vd: -6.740000
par1vd: 61.900000
par0va: -3.350000
par1va: 61.200000
par0rbia: 14.500000
par1rbia: 1.090000
par0tbia: 4.490000
par1tbia: 0.269000
par2tbia: -0.000234
par0ia: -2.328000
par1ia: 3.668000
par2ia: 0.022790
ROC:           BPix_BpI_SEC6_LYR4_LDR23F_MOD3_ROC5
par0vd: -5.050000
par1vd: 66.300000
par0va: -5.850000
par1va: 67.200000
par0rbia: 13.500000
par1rbia: 1.080000
par0tbia: 4.510000
par1tbia: 0.265000
par2tbia: -0.000255
par0ia: -1.128000
par1ia: 3.403000
par2ia: 0.030970
ROC:           BPix_BpI_SEC6_LYR4_LDR23F_MOD3_ROC6
par0vd: -6.820000
par1vd: 64.300000
par0va: -7.230000
par1va: 65.700000
par0rbia: 15.200000
par1rbia: 1.090000
par0tbia: 4.400000
par1tbia: 0.273000
par2tbia: -0.000248
par0ia: -3.686000
par1ia: 3.852000
par2ia: 0.019630
ROC:           BPix_BpI_SEC6_LYR4_LDR23F_MOD3_ROC7
par0vd: -7.840000
par1vd: 63.900000
par0va: -4.020000
par1va: 63.000000
par0rbia: 14.100000
par1rbia: 1.090000
par0tbia: 4.500000
par1tbia: 0.284000
par2tbia: -0.000282
par0ia: -2.399000
par1ia: 3.469000
par2ia: 0.024340
ROC:           BPix_BpI_SEC6_LYR4_LDR23F_MOD3_ROC8
par0vd: -3.430000
par1vd: 66.300000
par0va: -2.510000
par1va: 66.700000
par0rbia: 18.700000
par1rbia: 1.100000
par0tbia: 4.380000
par1tbia: 0.268000
par2tbia: -0.000248
par0ia: -3.128000
par1ia: 4.180000
par2ia: 0.017340
ROC:           BPix_BpI_SEC6_LYR4_LDR23F_MOD3_ROC9
par0vd: -20.700000
par1vd: 69.400000
par0va: -7.990000
par1va: 65.400000
par0rbia: 8.340000
par1rbia: 1.090000
par0tbia: 4.400000
par1tbia: 0.272000
par2tbia: -0.000239
par0ia: -5.135000
par1ia: 3.384000
par2ia: 0.027430
ROC:           BPix_BpI_SEC6_LYR4_LDR23F_MOD3_ROC10
par0vd: -12.100000
par1vd: 66.800000
par0va: -7.630000
par1va: 66.500000
par0rbia: 10.200000
par1rbia: 1.080000
par0tbia: 4.430000
par1tbia: 0.264000
par2tbia: -0.000229
par0ia: -2.651000
par1ia: 3.340000
par2ia: 0.029850
ROC:           BPix_BpI_SEC6_LYR4_LDR23F_MOD3_ROC11
par0vd: -13.500000
par1vd: 67.400000
par0va: -6.220000
par1va: 65.900000
par0rbia: 14.000000
par1rbia: 1.080000
par0tbia: 4.360000
par1tbia: 0.265000
par2tbia: -0.000259
par0ia: -1.542000
par1ia: 3.540000
par2ia: 0.029180
ROC:           BPix_BpI_SEC6_LYR4_LDR23F_MOD3_ROC12
par0vd: -16.800000
par1vd: 65.900000
par0va: -4.770000
par1va: 61.500000
par0rbia: 11.600000
par1rbia: 1.020000
par0tbia: 4.860000
par1tbia: 0.257000
par2tbia: -0.000230
par0ia: -2.535000
par1ia: 3.215000
par2ia: 0.030600
ROC:           BPix_BpI_SEC6_LYR4_LDR23F_MOD3_ROC13
par0vd: -5.860000
par1vd: 65.600000
par0va: -2.690000
par1va: 65.400000
par0rbia: 14.300000
par1rbia: 1.070000
par0tbia: 4.660000
par1tbia: 0.219000
par2tbia: -0.000139
par0ia: -6.812000
par1ia: 4.519000
par2ia: 0.022080
ROC:           BPix_BpI_SEC6_LYR4_LDR23F_MOD3_ROC14
par0vd: -9.230000
par1vd: 67.400000
par0va: -2.060000
par1va: 65.400000
par0rbia: 12.600000
par1rbia: 1.070000
par0tbia: 4.250000
par1tbia: 0.236000
par2tbia: -0.000155
par0ia: -3.368000
par1ia: 4.018000
par2ia: 0.023220
ROC:           BPix_BpI_SEC6_LYR4_LDR23F_MOD3_ROC15
par0vd: -1.910000
par1vd: 62.800000
par0va: -0.623000
par1va: 63.400000
par0rbia: 13.900000
par1rbia: 1.080000
par0tbia: 4.140000
par1tbia: 0.277000
par2tbia: -0.000273
par0ia: 1.214000
par1ia: 3.274000
par2ia: 0.029160
