ROC:           BPix_BmI_SEC7_LYR4_LDR28F_MOD1_ROC0
par0vd: -2.800000
par1vd: 63.900000
par0va: -0.733000
par1va: 63.500000
par0rbia: 16.500000
par1rbia: 1.100000
par0tbia: 4.160000
par1tbia: 0.263000
par2tbia: -0.000206
par0ia: -4.594000
par1ia: 4.316000
par2ia: 0.012820
ROC:           BPix_BmI_SEC7_LYR4_LDR28F_MOD1_ROC1
par0vd: -2.810000
par1vd: 64.300000
par0va: 3.340000
par1va: 61.500000
par0rbia: 12.800000
par1rbia: 1.050000
par0tbia: 3.900000
par1tbia: 0.221000
par2tbia: -0.000141
par0ia: -2.258000
par1ia: 4.208000
par2ia: 0.025880
ROC:           BPix_BmI_SEC7_LYR4_LDR28F_MOD1_ROC2
par0vd: -13.900000
par1vd: 66.200000
par0va: 3.090000
par1va: 59.100000
par0rbia: 14.800000
par1rbia: 1.090000
par0tbia: 3.390000
par1tbia: 0.266000
par2tbia: -0.000269
par0ia: 0.533400
par1ia: 3.820000
par2ia: 0.027070
ROC:           BPix_BmI_SEC7_LYR4_LDR28F_MOD1_ROC3
par0vd: -11.600000
par1vd: 65.500000
par0va: 3.020000
par1va: 59.300000
par0rbia: 12.800000
par1rbia: 1.100000
par0tbia: 3.600000
par1tbia: 0.255000
par2tbia: -0.000192
par0ia: -2.881000
par1ia: 4.123000
par2ia: 0.018720
ROC:           BPix_BmI_SEC7_LYR4_LDR28F_MOD1_ROC4
par0vd: -0.497000
par1vd: 65.600000
par0va: 3.420000
par1va: 64.200000
par0rbia: 14.200000
par1rbia: 1.060000
par0tbia: 3.630000
par1tbia: 0.203000
par2tbia: -0.000087
par0ia: -1.712000
par1ia: 4.780000
par2ia: 0.020610
ROC:           BPix_BmI_SEC7_LYR4_LDR28F_MOD1_ROC5
par0vd: -4.010000
par1vd: 61.800000
par0va: 0.579000
par1va: 60.000000
par0rbia: 11.600000
par1rbia: 1.080000
par0tbia: 3.460000
par1tbia: 0.258000
par2tbia: -0.000216
par0ia: 0.021870
par1ia: 3.675000
par2ia: 0.027110
ROC:           BPix_BmI_SEC7_LYR4_LDR28F_MOD1_ROC6
par0vd: -5.440000
par1vd: 61.400000
par0va: -5.390000
par1va: 63.000000
par0rbia: 13.900000
par1rbia: 1.080000
par0tbia: 3.490000
par1tbia: 0.255000
par2tbia: -0.000216
par0ia: 0.003276
par1ia: 3.927000
par2ia: 0.024310
ROC:           BPix_BmI_SEC7_LYR4_LDR28F_MOD1_ROC7
par0vd: -5.560000
par1vd: 65.900000
par0va: -0.337000
par1va: 63.900000
par0rbia: 17.800000
par1rbia: 1.110000
par0tbia: 3.600000
par1tbia: 0.225000
par2tbia: -0.000150
par0ia: -5.537000
par1ia: 5.352000
par2ia: 0.008576
ROC:           BPix_BmI_SEC7_LYR4_LDR28F_MOD1_ROC8
par0vd: -1.320000
par1vd: 59.900000
par0va: -3.490000
par1va: 61.300000
par0rbia: 11.200000
par1rbia: 1.080000
par0tbia: 3.600000
par1tbia: 0.249000
par2tbia: -0.000177
par0ia: -1.204000
par1ia: 3.839000
par2ia: 0.023840
ROC:           BPix_BmI_SEC7_LYR4_LDR28F_MOD1_ROC9
par0vd: -12.900000
par1vd: 66.400000
par0va: -5.690000
par1va: 64.800000
par0rbia: 11.100000
par1rbia: 1.080000
par0tbia: 3.470000
par1tbia: 0.225000
par2tbia: -0.000165
par0ia: -1.831000
par1ia: 4.165000
par2ia: 0.030990
ROC:           BPix_BmI_SEC7_LYR4_LDR28F_MOD1_ROC10
par0vd: -1.950000
par1vd: 62.400000
par0va: -3.550000
par1va: 64.100000
par0rbia: 13.500000
par1rbia: 1.070000
par0tbia: 3.790000
par1tbia: 0.240000
par2tbia: -0.000195
par0ia: -0.776600
par1ia: 3.950000
par2ia: 0.028360
ROC:           BPix_BmI_SEC7_LYR4_LDR28F_MOD1_ROC11
par0vd: -7.380000
par1vd: 63.000000
par0va: 4.260000
par1va: 57.700000
par0rbia: 14.000000
par1rbia: 1.100000
par0tbia: 3.590000
par1tbia: 0.251000
par2tbia: -0.000201
par0ia: -4.188000
par1ia: 4.416000
par2ia: 0.017150
ROC:           BPix_BmI_SEC7_LYR4_LDR28F_MOD1_ROC12
par0vd: -6.200000
par1vd: 64.100000
par0va: 0.731000
par1va: 61.300000
par0rbia: 17.900000
par1rbia: 1.110000
par0tbia: 3.770000
par1tbia: 0.244000
par2tbia: -0.000195
par0ia: -5.145000
par1ia: 4.945000
par2ia: 0.011510
ROC:           BPix_BmI_SEC7_LYR4_LDR28F_MOD1_ROC13
par0vd: -10.000000
par1vd: 66.600000
par0va: -1.460000
par1va: 64.300000
par0rbia: 9.790000
par1rbia: 1.080000
par0tbia: 3.670000
par1tbia: 0.217000
par2tbia: -0.000155
par0ia: -4.066000
par1ia: 4.264000
par2ia: 0.033320
ROC:           BPix_BmI_SEC7_LYR4_LDR28F_MOD1_ROC14
par0vd: -8.640000
par1vd: 65.800000
par0va: -1.890000
par1va: 64.000000
par0rbia: 14.100000
par1rbia: 1.100000
par0tbia: 3.350000
par1tbia: 0.229000
par2tbia: -0.000165
par0ia: -3.822000
par1ia: 4.789000
par2ia: 0.017940
ROC:           BPix_BmI_SEC7_LYR4_LDR28F_MOD1_ROC15
par0vd: -4.790000
par1vd: 62.100000
par0va: -0.840000
par1va: 61.000000
par0rbia: 13.700000
par1rbia: 1.090000
par0tbia: 4.250000
par1tbia: 0.235000
par2tbia: -0.000162
par0ia: -6.218000
par1ia: 4.464000
par2ia: 0.018860
