ROC:           BPix_BmO_SEC8_LYR4_LDR31F_MOD3_ROC0
par0vd: 3.020000
par1vd: 63.700000
par0va: -0.650000
par1va: 66.800000
par0rbia: 18.600000
par1rbia: 1.120000
par0tbia: 4.560000
par1tbia: 0.250000
par2tbia: -0.000199
par0ia: -11.250000
par1ia: 5.152000
par2ia: 0.005539
ROC:           BPix_BmO_SEC8_LYR4_LDR31F_MOD3_ROC1
par0vd: 0.508000
par1vd: 61.500000
par0va: 5.440000
par1va: 60.700000
par0rbia: 12.400000
par1rbia: 1.030000
par0tbia: 4.710000
par1tbia: 0.237000
par2tbia: -0.000158
par0ia: -3.236000
par1ia: 3.707000
par2ia: 0.025540
ROC:           BPix_BmO_SEC8_LYR4_LDR31F_MOD3_ROC2
par0vd: -6.400000
par1vd: 68.100000
par0va: -1.060000
par1va: 68.600000
par0rbia: 12.200000
par1rbia: 1.090000
par0tbia: 4.600000
par1tbia: 0.253000
par2tbia: -0.000213
par0ia: -5.158000
par1ia: 3.805000
par2ia: 0.026320
ROC:           BPix_BmO_SEC8_LYR4_LDR31F_MOD3_ROC3
par0vd: -8.050000
par1vd: 64.500000
par0va: -4.580000
par1va: 65.400000
par0rbia: 8.570000
par1rbia: 1.040000
par0tbia: 4.540000
par1tbia: 0.253000
par2tbia: -0.000194
par0ia: -5.671000
par1ia: 3.480000
par2ia: 0.025480
ROC:           BPix_BmO_SEC8_LYR4_LDR31F_MOD3_ROC4
par0vd: -12.500000
par1vd: 65.900000
par0va: -3.660000
par1va: 64.200000
par0rbia: 9.440000
par1rbia: 1.080000
par0tbia: 4.440000
par1tbia: 0.265000
par2tbia: -0.000247
par0ia: -3.294000
par1ia: 3.271000
par2ia: 0.032520
ROC:           BPix_BmO_SEC8_LYR4_LDR31F_MOD3_ROC5
par0vd: -15.300000
par1vd: 67.700000
par0va: -4.180000
par1va: 65.500000
par0rbia: 9.980000
par1rbia: 1.020000
par0tbia: 4.460000
par1tbia: 0.233000
par2tbia: -0.000162
par0ia: -4.069000
par1ia: 3.639000
par2ia: 0.028560
ROC:           BPix_BmO_SEC8_LYR4_LDR31F_MOD3_ROC6
par0vd: -5.720000
par1vd: 65.000000
par0va: -2.130000
par1va: 65.500000
par0rbia: 14.100000
par1rbia: 1.080000
par0tbia: 4.530000
par1tbia: 0.255000
par2tbia: -0.000218
par0ia: -3.848000
par1ia: 3.853000
par2ia: 0.024090
ROC:           BPix_BmO_SEC8_LYR4_LDR31F_MOD3_ROC7
par0vd: -6.500000
par1vd: 62.800000
par0va: -4.660000
par1va: 64.200000
par0rbia: 9.750000
par1rbia: 1.010000
par0tbia: 4.760000
par1tbia: 0.235000
par2tbia: -0.000162
par0ia: -5.427000
par1ia: 3.584000
par2ia: 0.026990
ROC:           BPix_BmO_SEC8_LYR4_LDR31F_MOD3_ROC8
par0vd: -7.300000
par1vd: 60.400000
par0va: -8.140000
par1va: 63.300000
par0rbia: 9.610000
par1rbia: 1.070000
par0tbia: 4.650000
par1tbia: 0.249000
par2tbia: -0.000194
par0ia: -6.083000
par1ia: 3.660000
par2ia: 0.027050
ROC:           BPix_BmO_SEC8_LYR4_LDR31F_MOD3_ROC9
par0vd: -3.480000
par1vd: 64.400000
par0va: -1.850000
par1va: 65.900000
par0rbia: 13.700000
par1rbia: 1.090000
par0tbia: 4.560000
par1tbia: 0.259000
par2tbia: -0.000205
par0ia: -5.169000
par1ia: 3.965000
par2ia: 0.020050
ROC:           BPix_BmO_SEC8_LYR4_LDR31F_MOD3_ROC10
par0vd: -10.600000
par1vd: 68.700000
par0va: -4.880000
par1va: 68.500000
par0rbia: 9.080000
par1rbia: 1.120000
par0tbia: 4.440000
par1tbia: 0.265000
par2tbia: -0.000247
par0ia: -9.097000
par1ia: 3.865000
par2ia: 0.025500
ROC:           BPix_BmO_SEC8_LYR4_LDR31F_MOD3_ROC11
par0vd: -4.360000
par1vd: 62.100000
par0va: 3.180000
par1va: 59.900000
par0rbia: 14.400000
par1rbia: 1.090000
par0tbia: 4.770000
par1tbia: 0.241000
par2tbia: -0.000177
par0ia: -9.546000
par1ia: 4.543000
par2ia: 0.016010
ROC:           BPix_BmO_SEC8_LYR4_LDR31F_MOD3_ROC12
par0vd: -5.580000
par1vd: 63.300000
par0va: -2.200000
par1va: 63.400000
par0rbia: 11.800000
par1rbia: 1.100000
par0tbia: 4.520000
par1tbia: 0.256000
par2tbia: -0.000190
par0ia: -7.585000
par1ia: 4.089000
par2ia: 0.018260
ROC:           BPix_BmO_SEC8_LYR4_LDR31F_MOD3_ROC13
par0vd: -4.780000
par1vd: 61.300000
par0va: -1.240000
par1va: 61.700000
par0rbia: 11.800000
par1rbia: 1.060000
par0tbia: 4.600000
par1tbia: 0.253000
par2tbia: -0.000213
par0ia: -4.404000
par1ia: 3.644000
par2ia: 0.026930
ROC:           BPix_BmO_SEC8_LYR4_LDR31F_MOD3_ROC14
par0vd: -10.700000
par1vd: 64.200000
par0va: 0.080000
par1va: 61.700000
par0rbia: 11.300000
par1rbia: 1.070000
par0tbia: 4.440000
par1tbia: 0.259000
par2tbia: -0.000228
par0ia: -2.238000
par1ia: 3.407000
par2ia: 0.030250
ROC:           BPix_BmO_SEC8_LYR4_LDR31F_MOD3_ROC15
par0vd: -3.740000
par1vd: 63.700000
par0va: -2.140000
par1va: 65.000000
par0rbia: 10.600000
par1rbia: 1.090000
par0tbia: 4.710000
par1tbia: 0.237000
par2tbia: -0.000158
par0ia: -9.428000
par1ia: 4.262000
par2ia: 0.021050
