ROC:           BPix_BpO_SEC6_LYR3_LDR15F_MOD3_ROC0
par0vd: -8.570000
par1vd: 63.700000
par0va: -1.320000
par1va: 60.500000
par0rbia: 19.200000
par1rbia: 1.110000
par0tbia: 4.910000
par1tbia: 0.276000
par2tbia: -0.000236
par0ia: -7.833000
par1ia: 4.424000
par2ia: 0.009004
ROC:           BPix_BpO_SEC6_LYR3_LDR15F_MOD3_ROC1
par0vd: -3.600000
par1vd: 61.500000
par0va: -2.680000
par1va: 61.100000
par0rbia: 10.100000
par1rbia: 1.070000
par0tbia: 4.780000
par1tbia: 0.267000
par2tbia: -0.000238
par0ia: -2.362000
par1ia: 3.128000
par2ia: 0.031800
ROC:           BPix_BpO_SEC6_LYR3_LDR15F_MOD3_ROC2
par0vd: -4.170000
par1vd: 63.200000
par0va: -1.160000
par1va: 62.400000
par0rbia: 12.900000
par1rbia: 1.080000
par0tbia: 5.160000
par1tbia: 0.256000
par2tbia: -0.000184
par0ia: -7.625000
par1ia: 3.916000
par2ia: 0.018990
ROC:           BPix_BpO_SEC6_LYR3_LDR15F_MOD3_ROC3
par0vd: -3.860000
par1vd: 65.600000
par0va: -1.430000
par1va: 65.200000
par0rbia: 18.700000
par1rbia: 1.090000
par0tbia: 5.500000
par1tbia: 0.269000
par2tbia: -0.000240
par0ia: -7.775000
par1ia: 4.148000
par2ia: 0.015260
ROC:           BPix_BpO_SEC6_LYR3_LDR15F_MOD3_ROC4
par0vd: -14.200000
par1vd: 61.900000
par0va: -10.100000
par1va: 60.900000
par0rbia: 10.400000
par1rbia: 1.080000
par0tbia: 4.930000
par1tbia: 0.280000
par2tbia: -0.000239
par0ia: -5.580000
par1ia: 3.361000
par2ia: 0.022950
ROC:           BPix_BpO_SEC6_LYR3_LDR15F_MOD3_ROC5
par0vd: -8.290000
par1vd: 61.900000
par0va: 0.467000
par1va: 58.000000
par0rbia: 13.900000
par1rbia: 1.020000
par0tbia: 4.910000
par1tbia: 0.248000
par2tbia: -0.000208
par0ia: -1.967000
par1ia: 3.446000
par2ia: 0.028990
ROC:           BPix_BpO_SEC6_LYR3_LDR15F_MOD3_ROC6
par0vd: -6.730000
par1vd: 62.100000
par0va: -9.900000
par1va: 64.800000
par0rbia: 11.700000
par1rbia: 1.050000
par0tbia: 4.900000
par1tbia: 0.248000
par2tbia: -0.000194
par0ia: -4.884000
par1ia: 3.616000
par2ia: 0.026900
ROC:           BPix_BpO_SEC6_LYR3_LDR15F_MOD3_ROC7
par0vd: -9.590000
par1vd: 63.300000
par0va: -5.880000
par1va: 61.700000
par0rbia: 12.000000
par1rbia: 1.070000
par0tbia: 5.060000
par1tbia: 0.259000
par2tbia: -0.000199
par0ia: -4.737000
par1ia: 3.540000
par2ia: 0.024360
ROC:           BPix_BpO_SEC6_LYR3_LDR15F_MOD3_ROC8
par0vd: -15.200000
par1vd: 66.100000
par0va: -12.300000
par1va: 66.800000
par0rbia: 10.400000
par1rbia: 1.030000
par0tbia: 5.050000
par1tbia: 0.261000
par2tbia: -0.000223
par0ia: -4.004000
par1ia: 3.193000
par2ia: 0.028460
ROC:           BPix_BpO_SEC6_LYR3_LDR15F_MOD3_ROC9
par0vd: -10.300000
par1vd: 66.500000
par0va: -2.110000
par1va: 63.500000
par0rbia: 14.900000
par1rbia: 1.080000
par0tbia: 4.820000
par1tbia: 0.251000
par2tbia: -0.000189
par0ia: -5.540000
par1ia: 4.061000
par2ia: 0.019440
ROC:           BPix_BpO_SEC6_LYR3_LDR15F_MOD3_ROC10
par0vd: -5.360000
par1vd: 64.300000
par0va: -6.220000
par1va: 65.400000
par0rbia: 10.400000
par1rbia: 1.080000
par0tbia: 5.620000
par1tbia: 0.239000
par2tbia: -0.000150
par0ia: -9.794000
par1ia: 3.854000
par2ia: 0.023700
ROC:           BPix_BpO_SEC6_LYR3_LDR15F_MOD3_ROC11
par0vd: -10.700000
par1vd: 66.800000
par0va: -6.690000
par1va: 65.700000
par0rbia: 14.500000
par1rbia: 1.100000
par0tbia: 4.810000
par1tbia: 0.264000
par2tbia: -0.000238
par0ia: -7.466000
par1ia: 4.075000
par2ia: 0.019700
ROC:           BPix_BpO_SEC6_LYR3_LDR15F_MOD3_ROC12
par0vd: -14.300000
par1vd: 66.500000
par0va: -5.780000
par1va: 62.900000
par0rbia: 7.690000
par1rbia: 1.090000
par0tbia: 4.980000
par1tbia: 0.233000
par2tbia: -0.000168
par0ia: -11.570000
par1ia: 4.061000
par2ia: 0.028110
ROC:           BPix_BpO_SEC6_LYR3_LDR15F_MOD3_ROC13
par0vd: -8.790000
par1vd: 66.200000
par0va: -4.770000
par1va: 65.500000
par0rbia: 12.700000
par1rbia: 1.090000
par0tbia: 5.540000
par1tbia: 0.265000
par2tbia: -0.000233
par0ia: -8.152000
par1ia: 3.661000
par2ia: 0.024220
ROC:           BPix_BpO_SEC6_LYR3_LDR15F_MOD3_ROC14
par0vd: -2.170000
par1vd: 60.200000
par0va: -2.240000
par1va: 60.600000
par0rbia: 11.800000
par1rbia: 1.070000
par0tbia: 4.890000
par1tbia: 0.273000
par2tbia: -0.000257
par0ia: -2.409000
par1ia: 3.181000
par2ia: 0.030070
ROC:           BPix_BpO_SEC6_LYR3_LDR15F_MOD3_ROC15
par0vd: -5.500000
par1vd: 67.200000
par0va: -3.370000
par1va: 66.800000
par0rbia: 15.000000
par1rbia: 1.090000
par0tbia: 4.880000
par1tbia: 0.216000
par2tbia: -0.000127
par0ia: -12.040000
par1ia: 5.131000
par2ia: 0.013670
