ROC:           BPix_BmI_SEC7_LYR2_LDR11F_MOD3_ROC0
par0vd: 2.030000
par1vd: 62.400000
par0va: -2.080000
par1va: 62.600000
par0rbia: 8.840000
par1rbia: 1.020000
par0tbia: 4.410000
par1tbia: 0.244000
par2tbia: -0.000194
par0ia: -3.878000
par1ia: 3.389000
par2ia: 0.030920
ROC:           BPix_BmI_SEC7_LYR2_LDR11F_MOD3_ROC1
par0vd: -1.070000
par1vd: 61.300000
par0va: -1.080000
par1va: 59.800000
par0rbia: 11.000000
par1rbia: 1.060000
par0tbia: 4.550000
par1tbia: 0.236000
par2tbia: -0.000177
par0ia: -5.535000
par1ia: 3.885000
par2ia: 0.027960
ROC:           BPix_BmI_SEC7_LYR2_LDR11F_MOD3_ROC2
par0vd: 1.740000
par1vd: 60.800000
par0va: -1.090000
par1va: 60.400000
par0rbia: 9.260000
par1rbia: 1.070000
par0tbia: 3.910000
par1tbia: 0.241000
par2tbia: -0.000201
par0ia: -3.242000
par1ia: 3.692000
par2ia: 0.033740
ROC:           BPix_BmI_SEC7_LYR2_LDR11F_MOD3_ROC3
par0vd: 0.170000
par1vd: 61.000000
par0va: -0.713000
par1va: 60.300000
par0rbia: 9.650000
par1rbia: 0.998000
par0tbia: 4.410000
par1tbia: 0.209000
par2tbia: -0.000148
par0ia: -6.190000
par1ia: 3.984000
par2ia: 0.034580
ROC:           BPix_BmI_SEC7_LYR2_LDR11F_MOD3_ROC4
par0vd: 0.077900
par1vd: 62.600000
par0va: -3.510000
par1va: 63.900000
par0rbia: 9.860000
par1rbia: 1.040000
par0tbia: 4.260000
par1tbia: 0.279000
par2tbia: -0.000272
par0ia: 0.098830
par1ia: 2.890000
par2ia: 0.032160
ROC:           BPix_BmI_SEC7_LYR2_LDR11F_MOD3_ROC5
par0vd: -5.170000
par1vd: 64.800000
par0va: -4.820000
par1va: 63.900000
par0rbia: 11.500000
par1rbia: 1.080000
par0tbia: 4.250000
par1tbia: 0.250000
par2tbia: -0.000189
par0ia: -5.082000
par1ia: 3.947000
par2ia: 0.022680
ROC:           BPix_BmI_SEC7_LYR2_LDR11F_MOD3_ROC6
par0vd: -0.539000
par1vd: 61.000000
par0va: -1.610000
par1va: 60.600000
par0rbia: 15.800000
par1rbia: 1.080000
par0tbia: 4.350000
par1tbia: 0.245000
par2tbia: -0.000184
par0ia: -3.165000
par1ia: 4.174000
par2ia: 0.020530
ROC:           BPix_BmI_SEC7_LYR2_LDR11F_MOD3_ROC7
par0vd: -2.210000
par1vd: 61.700000
par0va: -3.960000
par1va: 61.100000
par0rbia: 9.080000
par1rbia: 1.050000
par0tbia: 4.230000
par1tbia: 0.234000
par2tbia: -0.000172
par0ia: -5.127000
par1ia: 3.784000
par2ia: 0.029280
ROC:           BPix_BmI_SEC7_LYR2_LDR11F_MOD3_ROC8
par0vd: -2.050000
par1vd: 64.800000
par0va: -3.290000
par1va: 64.000000
par0rbia: 10.700000
par1rbia: 1.100000
par0tbia: 4.450000
par1tbia: 0.240000
par2tbia: -0.000184
par0ia: -8.966000
par1ia: 4.262000
par2ia: 0.022750
ROC:           BPix_BmI_SEC7_LYR2_LDR11F_MOD3_ROC9
par0vd: -6.260000
par1vd: 60.800000
par0va: -6.550000
par1va: 61.100000
par0rbia: 10.200000
par1rbia: 1.020000
par0tbia: 4.560000
par1tbia: 0.264000
par2tbia: -0.000213
par0ia: -2.892000
par1ia: 3.229000
par2ia: 0.025110
ROC:           BPix_BmI_SEC7_LYR2_LDR11F_MOD3_ROC10
par0vd: -3.600000
par1vd: 64.600000
par0va: -6.410000
par1va: 65.500000
par0rbia: 10.600000
par1rbia: 1.070000
par0tbia: 4.350000
par1tbia: 0.245000
par2tbia: -0.000184
par0ia: -4.527000
par1ia: 3.782000
par2ia: 0.026880
ROC:           BPix_BmI_SEC7_LYR2_LDR11F_MOD3_ROC11
par0vd: 2.560000
par1vd: 63.100000
par0va: -1.880000
par1va: 64.000000
par0rbia: 10.300000
par1rbia: 1.040000
par0tbia: 4.010000
par1tbia: 0.237000
par2tbia: -0.000187
par0ia: -1.747000
par1ia: 3.584000
par2ia: 0.032950
ROC:           BPix_BmI_SEC7_LYR2_LDR11F_MOD3_ROC12
par0vd: 0.928000
par1vd: 64.300000
par0va: -2.250000
par1va: 65.300000
par0rbia: 13.800000
par1rbia: 1.080000
par0tbia: 4.610000
par1tbia: 0.264000
par2tbia: -0.000219
par0ia: -4.025000
par1ia: 3.769000
par2ia: 0.021400
ROC:           BPix_BmI_SEC7_LYR2_LDR11F_MOD3_ROC13
par0vd: 10.200000
par1vd: 59.700000
par0va: -4.320000
par1va: 66.200000
par0rbia: 12.600000
par1rbia: 1.030000
par0tbia: 4.790000
par1tbia: 0.283000
par2tbia: -0.000272
par0ia: 0.129200
par1ia: 2.925000
par2ia: 0.028110
ROC:           BPix_BmI_SEC7_LYR2_LDR11F_MOD3_ROC14
par0vd: 5.140000
par1vd: 62.100000
par0va: 1.300000
par1va: 63.500000
par0rbia: 15.700000
par1rbia: 1.020000
par0tbia: 4.010000
par1tbia: 0.272000
par2tbia: -0.000273
par0ia: 5.932000
par1ia: 2.935000
par2ia: 0.032670
ROC:           BPix_BmI_SEC7_LYR2_LDR11F_MOD3_ROC15
par0vd: 1.030000
par1vd: 60.800000
par0va: 2.260000
par1va: 58.900000
par0rbia: 12.600000
par1rbia: 1.070000
par0tbia: 4.380000
par1tbia: 0.249000
par2tbia: -0.000189
par0ia: -1.847000
par1ia: 3.659000
par2ia: 0.026800
