ROC:           BPix_BmO_SEC6_LYR4_LDR23F_MOD3_ROC0
par0vd: -5.940000
par1vd: 64.300000
par0va: -4.090000
par1va: 62.400000
par0rbia: 10.400000
par1rbia: 1.080000
par0tbia: 4.790000
par1tbia: 0.224000
par2tbia: -0.000124
par0ia: -10.050000
par1ia: 4.420000
par2ia: 0.020250
ROC:           BPix_BmO_SEC6_LYR4_LDR23F_MOD3_ROC1
par0vd: -3.640000
par1vd: 64.500000
par0va: -9.010000
par1va: 66.300000
par0rbia: 8.240000
par1rbia: 1.040000
par0tbia: 4.610000
par1tbia: 0.242000
par2tbia: -0.000187
par0ia: -7.209000
par1ia: 3.657000
par2ia: 0.028370
ROC:           BPix_BmO_SEC6_LYR4_LDR23F_MOD3_ROC2
par0vd: -2.420000
par1vd: 69.600000
par0va: -0.870000
par1va: 68.000000
par0rbia: 14.000000
par1rbia: 1.100000
par0tbia: 4.760000
par1tbia: 0.242000
par2tbia: -0.000192
par0ia: -9.896000
par1ia: 4.524000
par2ia: 0.018700
ROC:           BPix_BmO_SEC6_LYR4_LDR23F_MOD3_ROC3
par0vd: -3.620000
par1vd: 62.800000
par0va: -4.090000
par1va: 62.400000
par0rbia: 14.000000
par1rbia: 1.090000
par0tbia: 4.540000
par1tbia: 0.261000
par2tbia: -0.000233
par0ia: -5.503000
par1ia: 3.955000
par2ia: 0.022010
ROC:           BPix_BmO_SEC6_LYR4_LDR23F_MOD3_ROC4
par0vd: -8.260000
par1vd: 64.500000
par0va: -4.280000
par1va: 62.300000
par0rbia: 10.300000
par1rbia: 1.080000
par0tbia: 4.810000
par1tbia: 0.232000
par2tbia: -0.000153
par0ia: -7.623000
par1ia: 4.024000
par2ia: 0.026030
ROC:           BPix_BmO_SEC6_LYR4_LDR23F_MOD3_ROC5
par0vd: -2.980000
par1vd: 63.700000
par0va: 1.680000
par1va: 60.400000
par0rbia: 15.800000
par1rbia: 1.080000
par0tbia: 4.500000
par1tbia: 0.272000
par2tbia: -0.000239
par0ia: -3.092000
par1ia: 3.831000
par2ia: 0.018900
ROC:           BPix_BmO_SEC6_LYR4_LDR23F_MOD3_ROC6
par0vd: -7.780000
par1vd: 64.300000
par0va: -8.470000
par1va: 64.800000
par0rbia: 11.900000
par1rbia: 1.090000
par0tbia: 4.750000
par1tbia: 0.261000
par2tbia: -0.000215
par0ia: -6.568000
par1ia: 3.816000
par2ia: 0.022290
ROC:           BPix_BmO_SEC6_LYR4_LDR23F_MOD3_ROC7
par0vd: -3.560000
par1vd: 59.600000
par0va: -8.320000
par1va: 61.000000
par0rbia: 10.600000
par1rbia: 1.080000
par0tbia: 4.610000
par1tbia: 0.266000
par2tbia: -0.000215
par0ia: -4.151000
par1ia: 3.473000
par2ia: 0.024690
ROC:           BPix_BmO_SEC6_LYR4_LDR23F_MOD3_ROC8
par0vd: -4.550000
par1vd: 63.900000
par0va: -7.220000
par1va: 65.300000
par0rbia: 15.900000
par1rbia: 1.090000
par0tbia: 4.590000
par1tbia: 0.265000
par2tbia: -0.000252
par0ia: -3.174000
par1ia: 3.822000
par2ia: 0.024080
ROC:           BPix_BmO_SEC6_LYR4_LDR23F_MOD3_ROC9
par0vd: -7.340000
par1vd: 67.800000
par0va: -7.870000
par1va: 67.400000
par0rbia: 9.030000
par1rbia: 1.100000
par0tbia: 4.460000
par1tbia: 0.227000
par2tbia: -0.000143
par0ia: -10.360000
par1ia: 4.424000
par2ia: 0.021970
ROC:           BPix_BmO_SEC6_LYR4_LDR23F_MOD3_ROC10
par0vd: -11.500000
par1vd: 67.400000
par0va: -8.370000
par1va: 65.800000
par0rbia: 10.100000
par1rbia: 1.090000
par0tbia: 4.830000
par1tbia: 0.240000
par2tbia: -0.000187
par0ia: -7.633000
par1ia: 3.892000
par2ia: 0.029260
ROC:           BPix_BmO_SEC6_LYR4_LDR23F_MOD3_ROC11
par0vd: -3.010000
par1vd: 63.800000
par0va: 3.080000
par1va: 59.700000
par0rbia: 13.700000
par1rbia: 1.050000
par0tbia: 4.560000
par1tbia: 0.250000
par2tbia: -0.000199
par0ia: -0.947200
par1ia: 3.549000
par2ia: 0.027780
ROC:           BPix_BmO_SEC6_LYR4_LDR23F_MOD3_ROC12
par0vd: -5.960000
par1vd: 59.500000
par0va: -7.760000
par1va: 60.500000
par0rbia: 10.000000
par1rbia: 1.050000
par0tbia: 4.580000
par1tbia: 0.257000
par2tbia: -0.000213
par0ia: -4.427000
par1ia: 3.442000
par2ia: 0.027590
ROC:           BPix_BmO_SEC6_LYR4_LDR23F_MOD3_ROC13
par0vd: -3.950000
par1vd: 59.100000
par0va: -8.220000
par1va: 60.800000
par0rbia: 7.920000
par1rbia: 1.030000
par0tbia: 4.650000
par1tbia: 0.249000
par2tbia: -0.000194
par0ia: -6.667000
par1ia: 3.480000
par2ia: 0.027080
ROC:           BPix_BmO_SEC6_LYR4_LDR23F_MOD3_ROC14
par0vd: -8.440000
par1vd: 63.700000
par0va: -0.376000
par1va: 58.800000
par0rbia: 11.900000
par1rbia: 1.050000
par0tbia: 4.670000
par1tbia: 0.226000
par2tbia: -0.000158
par0ia: -5.938000
par1ia: 4.036000
par2ia: 0.027290
ROC:           BPix_BmO_SEC6_LYR4_LDR23F_MOD3_ROC15
par0vd: -10.700000
par1vd: 65.900000
par0va: -3.510000
par1va: 62.800000
par0rbia: 12.700000
par1rbia: 1.100000
par0tbia: 4.440000
par1tbia: 0.265000
par2tbia: -0.000247
par0ia: -4.800000
par1ia: 3.768000
par2ia: 0.025600
