ROC:           BPix_BmI_SEC8_LYR1_LDR6F_MOD1_ROC0
par0vd: 5.550000
par1vd: 61.300000
par0va: 6.230000
par1va: 63.800000
par0rbia: 9.520000
par1rbia: 1.030000
par0tbia: 4.510000
par1tbia: 0.277000
par2tbia: -0.000190
par0ia: -1.883000
par1ia: 3.102000
par2ia: 0.020700
ROC:           BPix_BmI_SEC8_LYR1_LDR6F_MOD1_ROC1
par0vd: -1.640000
par1vd: 64.400000
par0va: 6.260000
par1va: 64.000000
par0rbia: 14.100000
par1rbia: 1.090000
par0tbia: 4.810000
par1tbia: 0.306000
par2tbia: -0.000244
par0ia: -1.757000
par1ia: 3.261000
par2ia: 0.015660
ROC:           BPix_BmI_SEC8_LYR1_LDR6F_MOD1_ROC2
par0vd: 2.450000
par1vd: 62.200000
par0va: 7.280000
par1va: 62.600000
par0rbia: 10.000000
par1rbia: 1.030000
par0tbia: 4.760000
par1tbia: 0.278000
par2tbia: -0.000189
par0ia: -2.004000
par1ia: 3.071000
par2ia: 0.020290
ROC:           BPix_BmI_SEC8_LYR1_LDR6F_MOD1_ROC3
par0vd: -1.590000
par1vd: 64.400000
par0va: 2.790000
par1va: 65.900000
par0rbia: 8.250000
par1rbia: 1.030000
par0tbia: 4.790000
par1tbia: 0.292000
par2tbia: -0.000227
par0ia: -2.711000
par1ia: 2.841000
par2ia: 0.021590
ROC:           BPix_BmI_SEC8_LYR1_LDR6F_MOD1_ROC12
par0vd: 1.800000
par1vd: 62.000000
par0va: 7.360000
par1va: 62.200000
par0rbia: 8.990000
par1rbia: 1.030000
par0tbia: 4.660000
par1tbia: 0.282000
par2tbia: -0.000204
par0ia: -2.249000
par1ia: 2.991000
par2ia: 0.021370
ROC:           BPix_BmI_SEC8_LYR1_LDR6F_MOD1_ROC13
par0vd: 6.040000
par1vd: 62.400000
par0va: 7.210000
par1va: 65.200000
par0rbia: 13.200000
par1rbia: 1.090000
par0tbia: 4.670000
par1tbia: 0.247000
par2tbia: -0.000127
par0ia: -7.984000
par1ia: 4.358000
par2ia: 0.010760
ROC:           BPix_BmI_SEC8_LYR1_LDR6F_MOD1_ROC14
par0vd: 0.478000
par1vd: 65.700000
par0va: 8.740000
par1va: 64.800000
par0rbia: 14.200000
par1rbia: 1.100000
par0tbia: 4.550000
par1tbia: 0.266000
par2tbia: -0.000195
par0ia: -7.160000
par1ia: 4.194000
par2ia: 0.012630
ROC:           BPix_BmI_SEC8_LYR1_LDR6F_MOD1_ROC15
par0vd: -7.540000
par1vd: 69.400000
par0va: 7.000000
par1va: 66.200000
par0rbia: 8.810000
par1rbia: 1.040000
par0tbia: 4.560000
par1tbia: 0.252000
par2tbia: -0.000156
par0ia: -3.839000
par1ia: 3.395000
par2ia: 0.023400
