ROC:           BPix_BpO_SEC1_LYR4_LDR1F_MOD4_ROC0
par0vd: -1.160000
par1vd: 61.900000
par0va: -2.860000
par1va: 63.300000
par0rbia: 14.800000
par1rbia: 1.080000
par0tbia: 4.510000
par1tbia: 0.238000
par2tbia: -0.000178
par0ia: -4.664000
par1ia: 4.219000
par2ia: 0.022160
ROC:           BPix_BpO_SEC1_LYR4_LDR1F_MOD4_ROC1
par0vd: -6.510000
par1vd: 64.500000
par0va: -4.870000
par1va: 64.500000
par0rbia: 11.800000
par1rbia: 1.040000
par0tbia: 4.610000
par1tbia: 0.237000
par2tbia: -0.000198
par0ia: -3.466000
par1ia: 3.630000
par2ia: 0.032560
ROC:           BPix_BpO_SEC1_LYR4_LDR1F_MOD4_ROC2
par0vd: -8.840000
par1vd: 62.300000
par0va: -6.190000
par1va: 62.200000
par0rbia: 10.500000
par1rbia: 1.080000
par0tbia: 4.260000
par1tbia: 0.266000
par2tbia: -0.000218
par0ia: -2.896000
par1ia: 3.478000
par2ia: 0.025720
ROC:           BPix_BpO_SEC1_LYR4_LDR1F_MOD4_ROC3
par0vd: -4.650000
par1vd: 61.300000
par0va: -7.700000
par1va: 63.500000
par0rbia: 9.530000
par1rbia: 1.090000
par0tbia: 4.700000
par1tbia: 0.262000
par2tbia: -0.000199
par0ia: -5.370000
par1ia: 3.518000
par2ia: 0.024630
ROC:           BPix_BpO_SEC1_LYR4_LDR1F_MOD4_ROC4
par0vd: -1.200000
par1vd: 61.900000
par0va: -9.130000
par1va: 66.600000
par0rbia: 10.800000
par1rbia: 1.100000
par0tbia: 4.570000
par1tbia: 0.260000
par2tbia: -0.000208
par0ia: -8.390000
par1ia: 3.992000
par2ia: 0.020220
ROC:           BPix_BpO_SEC1_LYR4_LDR1F_MOD4_ROC5
par0vd: -10.500000
par1vd: 61.200000
par0va: -3.860000
par1va: 59.300000
par0rbia: 12.700000
par1rbia: 1.050000
par0tbia: 4.440000
par1tbia: 0.240000
par2tbia: -0.000183
par0ia: -2.607000
par1ia: 3.748000
par2ia: 0.027710
ROC:           BPix_BpO_SEC1_LYR4_LDR1F_MOD4_ROC6
par0vd: -10.200000
par1vd: 64.600000
par0va: -8.610000
par1va: 65.300000
par0rbia: 11.300000
par1rbia: 1.080000
par0tbia: 4.010000
par1tbia: 0.265000
par2tbia: -0.000252
par0ia: -0.596800
par1ia: 3.358000
par2ia: 0.032640
ROC:           BPix_BpO_SEC1_LYR4_LDR1F_MOD4_ROC7
par0vd: -10.900000
par1vd: 64.300000
par0va: -4.010000
par1va: 61.700000
par0rbia: 9.340000
par1rbia: 1.070000
par0tbia: 4.100000
par1tbia: 0.236000
par2tbia: -0.000155
par0ia: -5.150000
par1ia: 3.944000
par2ia: 0.024930
ROC:           BPix_BpO_SEC1_LYR4_LDR1F_MOD4_ROC8
par0vd: -2.550000
par1vd: 62.300000
par0va: -8.310000
par1va: 66.000000
par0rbia: 11.400000
par1rbia: 1.050000
par0tbia: 4.380000
par1tbia: 0.248000
par2tbia: -0.000202
par0ia: -2.375000
par1ia: 3.539000
par2ia: 0.029940
ROC:           BPix_BpO_SEC1_LYR4_LDR1F_MOD4_ROC9
par0vd: -11.500000
par1vd: 61.700000
par0va: -5.020000
par1va: 59.500000
par0rbia: 9.670000
par1rbia: 1.020000
par0tbia: 4.440000
par1tbia: 0.236000
par2tbia: -0.000160
par0ia: -5.806000
par1ia: 3.783000
par2ia: 0.024460
ROC:           BPix_BpO_SEC1_LYR4_LDR1F_MOD4_ROC10
par0vd: -14.900000
par1vd: 68.800000
par0va: -6.520000
par1va: 66.400000
par0rbia: 8.740000
par1rbia: 1.070000
par0tbia: 4.010000
par1tbia: 0.265000
par2tbia: -0.000252
par0ia: -1.491000
par1ia: 3.174000
par2ia: 0.034940
ROC:           BPix_BpO_SEC1_LYR4_LDR1F_MOD4_ROC11
par0vd: -11.800000
par1vd: 63.500000
par0va: -11.500000
par1va: 65.000000
par0rbia: 8.130000
par1rbia: 1.060000
par0tbia: 4.800000
par1tbia: 0.247000
par2tbia: -0.000155
par0ia: -8.238000
par1ia: 3.722000
par2ia: 0.021310
ROC:           BPix_BpO_SEC1_LYR4_LDR1F_MOD4_ROC12
par0vd: -1.170000
par1vd: 61.700000
par0va: -5.180000
par1va: 64.400000
par0rbia: 10.000000
par1rbia: 1.050000
par0tbia: 4.670000
par1tbia: 0.261000
par2tbia: -0.000204
par0ia: -5.002000
par1ia: 3.472000
par2ia: 0.023560
ROC:           BPix_BpO_SEC1_LYR4_LDR1F_MOD4_ROC13
par0vd: -9.020000
par1vd: 62.100000
par0va: -3.370000
par1va: 60.600000
par0rbia: 11.100000
par1rbia: 1.030000
par0tbia: 4.060000
par1tbia: 0.276000
par2tbia: -0.000238
par0ia: 0.150700
par1ia: 3.110000
par2ia: 0.024870
ROC:           BPix_BpO_SEC1_LYR4_LDR1F_MOD4_ROC14
par0vd: -11.600000
par1vd: 64.800000
par0va: -4.790000
par1va: 63.500000
par0rbia: 10.500000
par1rbia: 1.030000
par0tbia: 4.550000
par1tbia: 0.264000
par2tbia: -0.000194
par0ia: -3.023000
par1ia: 3.339000
par2ia: 0.022320
ROC:           BPix_BpO_SEC1_LYR4_LDR1F_MOD4_ROC15
par0vd: -5.530000
par1vd: 62.800000
par0va: 0.634000
par1va: 61.000000
par0rbia: 15.100000
par1rbia: 1.060000
par0tbia: 4.690000
par1tbia: 0.265000
par2tbia: -0.000233
par0ia: -0.194300
par1ia: 3.429000
par2ia: 0.026790
