ROC:           BPix_BpI_SEC5_LYR1_LDR4H_MOD4_ROC4
par0vd: 6.050000
par1vd: 60.400000
par0va: 6.860000
par1va: 61.200000
par0rbia: 11.600000
par1rbia: 1.080000
par0tbia: 4.720000
par1tbia: 0.304000
par2tbia: -0.000215
par0ia: -2.426000
par1ia: 3.180000
par2ia: 0.015040
ROC:           BPix_BpI_SEC5_LYR1_LDR4H_MOD4_ROC5
par0vd: 1.400000
par1vd: 65.900000
par0va: 6.870000
par1va: 64.600000
par0rbia: 11.200000
par1rbia: 1.060000
par0tbia: 4.820000
par1tbia: 0.264000
par2tbia: -0.000165
par0ia: -3.718000
par1ia: 3.475000
par2ia: 0.019330
ROC:           BPix_BpI_SEC5_LYR1_LDR4H_MOD4_ROC6
par0vd: 2.840000
par1vd: 63.200000
par0va: 0.740000
par1va: 65.700000
par0rbia: 7.740000
par1rbia: 1.060000
par0tbia: 4.750000
par1tbia: 0.271000
par2tbia: -0.000178
par0ia: -6.527000
par1ia: 3.374000
par2ia: 0.019150
ROC:           BPix_BpI_SEC5_LYR1_LDR4H_MOD4_ROC7
par0vd: 2.950000
par1vd: 61.300000
par0va: 4.470000
par1va: 62.400000
par0rbia: 11.700000
par1rbia: 1.070000
par0tbia: 4.630000
par1tbia: 0.285000
par2tbia: -0.000193
par0ia: -1.107000
par1ia: 3.216000
par2ia: 0.018720
ROC:           BPix_BpI_SEC5_LYR1_LDR4H_MOD4_ROC8
par0vd: 5.880000
par1vd: 65.300000
par0va: 4.630000
par1va: 67.900000
par0rbia: 14.700000
par1rbia: 1.080000
par0tbia: 4.140000
par1tbia: 0.280000
par2tbia: -0.000173
par0ia: -1.325000
par1ia: 3.742000
par2ia: 0.011710
ROC:           BPix_BpI_SEC5_LYR1_LDR4H_MOD4_ROC9
par0vd: 3.230000
par1vd: 61.500000
par0va: 6.110000
par1va: 61.100000
par0rbia: 15.800000
par1rbia: 1.100000
par0tbia: 3.980000
par1tbia: 0.293000
par2tbia: -0.000217
par0ia: -1.088000
par1ia: 3.758000
par2ia: 0.011390
ROC:           BPix_BpI_SEC5_LYR1_LDR4H_MOD4_ROC10
par0vd: -5.470000
par1vd: 65.500000
par0va: 2.480000
par1va: 63.400000
par0rbia: 7.780000
par1rbia: 1.020000
par0tbia: 4.420000
par1tbia: 0.263000
par2tbia: -0.000166
par0ia: -3.772000
par1ia: 3.246000
par2ia: 0.021470
ROC:           BPix_BpI_SEC5_LYR1_LDR4H_MOD4_ROC11
par0vd: 6.720000
par1vd: 62.200000
par0va: 8.210000
par1va: 62.300000
par0rbia: 12.600000
par1rbia: 1.080000
par0tbia: 4.510000
par1tbia: 0.259000
par2tbia: -0.000132
par0ia: -5.251000
par1ia: 3.976000
par2ia: 0.011910
