ROC:           BPix_BpI_SEC1_LYR4_LDR1F_MOD4_ROC0
par0vd: -2.210000
par1vd: 64.100000
par0va: -2.800000
par1va: 63.700000
par0rbia: 10.700000
par1rbia: 1.070000
par0tbia: 3.720000
par1tbia: 0.224000
par2tbia: -0.000154
par0ia: -3.397000
par1ia: 4.195000
par2ia: 0.028770
ROC:           BPix_BpI_SEC1_LYR4_LDR1F_MOD4_ROC1
par0vd: -7.500000
par1vd: 67.200000
par0va: -1.920000
par1va: 64.200000
par0rbia: 13.100000
par1rbia: 1.100000
par0tbia: 3.760000
par1tbia: 0.227000
par2tbia: -0.000168
par0ia: -7.970000
par1ia: 4.937000
par2ia: 0.017710
ROC:           BPix_BpI_SEC1_LYR4_LDR1F_MOD4_ROC2
par0vd: 3.030000
par1vd: 62.400000
par0va: -5.060000
par1va: 65.900000
par0rbia: 11.600000
par1rbia: 1.080000
par0tbia: 3.910000
par1tbia: 0.240000
par2tbia: -0.000167
par0ia: -3.215000
par1ia: 4.026000
par2ia: 0.024140
ROC:           BPix_BpI_SEC1_LYR4_LDR1F_MOD4_ROC3
par0vd: 0.598000
par1vd: 60.600000
par0va: -2.910000
par1va: 62.200000
par0rbia: 11.500000
par1rbia: 1.020000
par0tbia: 3.860000
par1tbia: 0.223000
par2tbia: -0.000149
par0ia: -2.841000
par1ia: 4.034000
par2ia: 0.025870
ROC:           BPix_BpI_SEC1_LYR4_LDR1F_MOD4_ROC4
par0vd: 1.670000
par1vd: 62.800000
par0va: -1.220000
par1va: 62.800000
par0rbia: 7.510000
par1rbia: 1.040000
par0tbia: 3.680000
par1tbia: 0.207000
par2tbia: -0.000135
par0ia: -5.985000
par1ia: 4.276000
par2ia: 0.033590
ROC:           BPix_BpI_SEC1_LYR4_LDR1F_MOD4_ROC5
par0vd: -2.560000
par1vd: 64.800000
par0va: -0.131000
par1va: 63.000000
par0rbia: 11.000000
par1rbia: 1.050000
par0tbia: 3.760000
par1tbia: 0.227000
par2tbia: -0.000168
par0ia: -2.967000
par1ia: 4.028000
par2ia: 0.029500
ROC:           BPix_BpI_SEC1_LYR4_LDR1F_MOD4_ROC6
par0vd: -0.266000
par1vd: 66.400000
par0va: -2.800000
par1va: 66.700000
par0rbia: 15.300000
par1rbia: 1.110000
par0tbia: 4.130000
par1tbia: 0.227000
par2tbia: -0.000153
par0ia: -9.296000
par1ia: 5.150000
par2ia: 0.011050
ROC:           BPix_BpI_SEC1_LYR4_LDR1F_MOD4_ROC7
par0vd: -0.653000
par1vd: 64.300000
par0va: -2.030000
par1va: 64.400000
par0rbia: 11.200000
par1rbia: 1.080000
par0tbia: 3.710000
par1tbia: 0.216000
par2tbia: -0.000139
par0ia: -5.187000
par1ia: 4.584000
par2ia: 0.025420
ROC:           BPix_BpI_SEC1_LYR4_LDR1F_MOD4_ROC8
par0vd: -4.050000
par1vd: 67.800000
par0va: -2.530000
par1va: 67.000000
par0rbia: 12.500000
par1rbia: 1.090000
par0tbia: 3.680000
par1tbia: 0.217000
par2tbia: -0.000149
par0ia: -5.256000
par1ia: 4.738000
par2ia: 0.023560
ROC:           BPix_BpI_SEC1_LYR4_LDR1F_MOD4_ROC9
par0vd: -10.800000
par1vd: 64.500000
par0va: -4.220000
par1va: 62.000000
par0rbia: 10.100000
par1rbia: 1.060000
par0tbia: 3.610000
par1tbia: 0.219000
par2tbia: -0.000154
par0ia: -3.717000
par1ia: 4.226000
par2ia: 0.029990
ROC:           BPix_BpI_SEC1_LYR4_LDR1F_MOD4_ROC10
par0vd: -4.810000
par1vd: 63.900000
par0va: -4.660000
par1va: 63.500000
par0rbia: 12.100000
par1rbia: 1.090000
par0tbia: 3.860000
par1tbia: 0.222000
par2tbia: -0.000139
par0ia: -7.465000
par1ia: 4.798000
par2ia: 0.017890
ROC:           BPix_BpI_SEC1_LYR4_LDR1F_MOD4_ROC11
par0vd: 3.810000
par1vd: 64.600000
par0va: -2.050000
par1va: 67.600000
par0rbia: 15.900000
par1rbia: 1.080000
par0tbia: 3.470000
par1tbia: 0.248000
par2tbia: -0.000216
par0ia: 1.804000
par1ia: 3.988000
par2ia: 0.026640
ROC:           BPix_BpI_SEC1_LYR4_LDR1F_MOD4_ROC12
par0vd: -3.240000
par1vd: 63.700000
par0va: -0.733000
par1va: 62.800000
par0rbia: 10.500000
par1rbia: 1.010000
par0tbia: 3.760000
par1tbia: 0.227000
par2tbia: -0.000168
par0ia: -2.156000
par1ia: 3.794000
par2ia: 0.030020
ROC:           BPix_BpI_SEC1_LYR4_LDR1F_MOD4_ROC13
par0vd: -2.680000
par1vd: 65.400000
par0va: 4.350000
par1va: 61.400000
par0rbia: 8.660000
par1rbia: 1.040000
par0tbia: 3.620000
par1tbia: 0.208000
par2tbia: -0.000115
par0ia: -5.460000
par1ia: 4.419000
par2ia: 0.026830
ROC:           BPix_BpI_SEC1_LYR4_LDR1F_MOD4_ROC14
par0vd: -8.120000
par1vd: 69.300000
par0va: 3.720000
par1va: 63.700000
par0rbia: 12.700000
par1rbia: 1.070000
par0tbia: 3.530000
par1tbia: 0.215000
par2tbia: -0.000159
par0ia: -1.460000
par1ia: 4.365000
par2ia: 0.033250
ROC:           BPix_BpI_SEC1_LYR4_LDR1F_MOD4_ROC15
par0vd: -4.620000
par1vd: 65.900000
par0va: -2.230000
par1va: 64.800000
par0rbia: 10.500000
par1rbia: 1.090000
par0tbia: 3.560000
par1tbia: 0.226000
par2tbia: -0.000149
par0ia: -4.442000
par1ia: 4.400000
par2ia: 0.024640
