ROC:           BPix_BmO_SEC8_LYR4_LDR31F_MOD1_ROC0
par0vd: -13.700000
par1vd: 64.100000
par0va: -10.400000
par1va: 62.600000
par0rbia: 10.600000
par1rbia: 1.050000
par0tbia: 5.040000
par1tbia: 0.244000
par2tbia: -0.000175
par0ia: -6.641000
par1ia: 3.685000
par2ia: 0.025540
ROC:           BPix_BmO_SEC8_LYR4_LDR31F_MOD1_ROC1
par0vd: -8.420000
par1vd: 65.400000
par0va: -3.110000
par1va: 61.800000
par0rbia: 14.400000
par1rbia: 1.100000
par0tbia: 4.750000
par1tbia: 0.251000
par2tbia: -0.000194
par0ia: -10.190000
par1ia: 4.520000
par2ia: 0.014000
ROC:           BPix_BmO_SEC8_LYR4_LDR31F_MOD1_ROC2
par0vd: -8.460000
par1vd: 63.200000
par0va: -5.880000
par1va: 61.300000
par0rbia: 11.100000
par1rbia: 1.070000
par0tbia: 4.800000
par1tbia: 0.269000
par2tbia: -0.000269
par0ia: -3.996000
par1ia: 3.273000
par2ia: 0.031810
ROC:           BPix_BmO_SEC8_LYR4_LDR31F_MOD1_ROC3
par0vd: -4.350000
par1vd: 64.500000
par0va: -5.110000
par1va: 64.100000
par0rbia: 11.700000
par1rbia: 1.080000
par0tbia: 4.800000
par1tbia: 0.258000
par2tbia: -0.000216
par0ia: -5.785000
par1ia: 3.698000
par2ia: 0.025210
ROC:           BPix_BmO_SEC8_LYR4_LDR31F_MOD1_ROC4
par0vd: 1.160000
par1vd: 62.300000
par0va: -7.640000
par1va: 66.200000
par0rbia: 13.400000
par1rbia: 1.080000
par0tbia: 5.010000
par1tbia: 0.248000
par2tbia: -0.000208
par0ia: -6.053000
par1ia: 3.874000
par2ia: 0.026800
ROC:           BPix_BmO_SEC8_LYR4_LDR31F_MOD1_ROC5
par0vd: -11.200000
par1vd: 67.400000
par0va: -11.200000
par1va: 67.900000
par0rbia: 16.900000
par1rbia: 1.100000
par0tbia: 4.840000
par1tbia: 0.270000
par2tbia: -0.000244
par0ia: -6.836000
par1ia: 4.158000
par2ia: 0.015680
ROC:           BPix_BmO_SEC8_LYR4_LDR31F_MOD1_ROC6
par0vd: -0.556000
par1vd: 63.300000
par0va: -5.140000
par1va: 64.400000
par0rbia: 9.910000
par1rbia: 1.080000
par0tbia: 4.600000
par1tbia: 0.281000
par2tbia: -0.000253
par0ia: -4.004000
par1ia: 3.263000
par2ia: 0.025690
ROC:           BPix_BmO_SEC8_LYR4_LDR31F_MOD1_ROC7
par0vd: -1.020000
par1vd: 60.600000
par0va: -13.000000
par1va: 65.500000
par0rbia: 7.670000
par1rbia: 1.020000
par0tbia: 4.660000
par1tbia: 0.243000
par2tbia: -0.000189
par0ia: -7.499000
par1ia: 3.539000
par2ia: 0.027600
ROC:           BPix_BmO_SEC8_LYR4_LDR31F_MOD1_ROC8
par0vd: -7.610000
par1vd: 63.400000
par0va: -7.040000
par1va: 62.600000
par0rbia: 14.500000
par1rbia: 1.090000
par0tbia: 4.900000
par1tbia: 0.252000
par2tbia: -0.000208
par0ia: -6.897000
par1ia: 4.079000
par2ia: 0.021350
ROC:           BPix_BmO_SEC8_LYR4_LDR31F_MOD1_ROC9
par0vd: -6.120000
par1vd: 65.000000
par0va: -2.510000
par1va: 62.800000
par0rbia: 14.000000
par1rbia: 1.070000
par0tbia: 4.840000
par1tbia: 0.259000
par2tbia: -0.000206
par0ia: -3.669000
par1ia: 3.696000
par2ia: 0.023140
ROC:           BPix_BmO_SEC8_LYR4_LDR31F_MOD1_ROC10
par0vd: -5.570000
par1vd: 62.100000
par0va: -9.940000
par1va: 63.700000
par0rbia: 10.300000
par1rbia: 1.040000
par0tbia: 4.900000
par1tbia: 0.263000
par2tbia: -0.000230
par0ia: -3.957000
par1ia: 3.228000
par2ia: 0.028880
ROC:           BPix_BmO_SEC8_LYR4_LDR31F_MOD1_ROC11
par0vd: -6.340000
par1vd: 63.200000
par0va: -5.350000
par1va: 62.000000
par0rbia: 11.200000
par1rbia: 1.090000
par0tbia: 5.000000
par1tbia: 0.248000
par2tbia: -0.000194
par0ia: -7.012000
par1ia: 3.799000
par2ia: 0.026430
ROC:           BPix_BmO_SEC8_LYR4_LDR31F_MOD1_ROC12
par0vd: -8.840000
par1vd: 65.400000
par0va: -8.250000
par1va: 65.300000
par0rbia: 11.300000
par1rbia: 1.090000
par0tbia: 4.780000
par1tbia: 0.272000
par2tbia: -0.000264
par0ia: -4.586000
par1ia: 3.399000
par2ia: 0.029310
ROC:           BPix_BmO_SEC8_LYR4_LDR31F_MOD1_ROC13
par0vd: -8.400000
par1vd: 63.700000
par0va: -5.520000
par1va: 62.400000
par0rbia: 11.100000
par1rbia: 1.060000
par0tbia: 4.750000
par1tbia: 0.263000
par2tbia: -0.000225
par0ia: -3.177000
par1ia: 3.331000
par2ia: 0.028320
ROC:           BPix_BmO_SEC8_LYR4_LDR31F_MOD1_ROC14
par0vd: 4.640000
par1vd: 62.800000
par0va: -5.370000
par1va: 66.800000
par0rbia: 12.400000
par1rbia: 1.080000
par0tbia: 5.040000
par1tbia: 0.266000
par2tbia: -0.000224
par0ia: -5.147000
par1ia: 3.555000
par2ia: 0.024240
ROC:           BPix_BmO_SEC8_LYR4_LDR31F_MOD1_ROC15
par0vd: -6.900000
par1vd: 64.600000
par0va: -5.570000
par1va: 64.200000
par0rbia: 9.070000
par1rbia: 1.050000
par0tbia: 4.900000
par1tbia: 0.246000
par2tbia: -0.000189
par0ia: -6.424000
par1ia: 3.531000
par2ia: 0.028600
