ROC:           BPix_BmO_SEC7_LYR3_LDR20F_MOD3_ROC0
par0vd: -7.120000
par1vd: 63.000000
par0va: -4.270000
par1va: 62.200000
par0rbia: 13.500000
par1rbia: 1.090000
par0tbia: 4.400000
par1tbia: 0.277000
par2tbia: -0.000268
par0ia: -0.598100
par1ia: 3.344000
par2ia: 0.028200
ROC:           BPix_BmO_SEC7_LYR3_LDR20F_MOD3_ROC1
par0vd: -11.400000
par1vd: 64.100000
par0va: -1.570000
par1va: 59.600000
par0rbia: 11.800000
par1rbia: 1.070000
par0tbia: 4.560000
par1tbia: 0.234000
par2tbia: -0.000172
par0ia: -4.044000
par1ia: 3.841000
par2ia: 0.029700
ROC:           BPix_BmO_SEC7_LYR3_LDR20F_MOD3_ROC2
par0vd: -5.720000
par1vd: 63.300000
par0va: 0.674000
par1va: 60.000000
par0rbia: 13.700000
par1rbia: 1.090000
par0tbia: 4.050000
par1tbia: 0.262000
par2tbia: -0.000228
par0ia: -1.873000
par1ia: 3.776000
par2ia: 0.024000
ROC:           BPix_BmO_SEC7_LYR3_LDR20F_MOD3_ROC3
par0vd: -7.590000
par1vd: 61.200000
par0va: -4.990000
par1va: 60.900000
par0rbia: 10.700000
par1rbia: 1.030000
par0tbia: 4.410000
par1tbia: 0.239000
par2tbia: -0.000172
par0ia: -2.724000
par1ia: 3.562000
par2ia: 0.029100
ROC:           BPix_BmO_SEC7_LYR3_LDR20F_MOD3_ROC4
par0vd: -6.930000
par1vd: 62.700000
par0va: -4.010000
par1va: 61.700000
par0rbia: 14.700000
par1rbia: 1.040000
par0tbia: 4.510000
par1tbia: 0.245000
par2tbia: -0.000201
par0ia: -0.530600
par1ia: 3.610000
par2ia: 0.028470
ROC:           BPix_BmO_SEC7_LYR3_LDR20F_MOD3_ROC5
par0vd: -14.200000
par1vd: 64.500000
par0va: -5.360000
par1va: 60.400000
par0rbia: 10.200000
par1rbia: 1.070000
par0tbia: 4.070000
par1tbia: 0.265000
par2tbia: -0.000252
par0ia: -1.570000
par1ia: 3.292000
par2ia: 0.031970
ROC:           BPix_BmO_SEC7_LYR3_LDR20F_MOD3_ROC6
par0vd: -12.900000
par1vd: 66.000000
par0va: -3.830000
par1va: 61.800000
par0rbia: 9.820000
par1rbia: 1.040000
par0tbia: 4.570000
par1tbia: 0.223000
par2tbia: -0.000143
par0ia: -5.578000
par1ia: 3.883000
par2ia: 0.029810
ROC:           BPix_BmO_SEC7_LYR3_LDR20F_MOD3_ROC7
par0vd: -11.100000
par1vd: 63.000000
par0va: -4.490000
par1va: 60.400000
par0rbia: 11.400000
par1rbia: 1.060000
par0tbia: 4.600000
par1tbia: 0.253000
par2tbia: -0.000213
par0ia: -3.598000
par1ia: 3.537000
par2ia: 0.029080
ROC:           BPix_BmO_SEC7_LYR3_LDR20F_MOD3_ROC8
par0vd: -20.200000
par1vd: 67.100000
par0va: -8.780000
par1va: 62.900000
par0rbia: 10.400000
par1rbia: 1.070000
par0tbia: 4.420000
par1tbia: 0.215000
par2tbia: -0.000119
par0ia: -7.239000
par1ia: 4.359000
par2ia: 0.025310
ROC:           BPix_BmO_SEC7_LYR3_LDR20F_MOD3_ROC9
par0vd: -19.100000
par1vd: 67.800000
par0va: -8.900000
par1va: 64.300000
par0rbia: 10.500000
par1rbia: 1.040000
par0tbia: 4.080000
par1tbia: 0.229000
par2tbia: -0.000187
par0ia: -2.279000
par1ia: 3.668000
par2ia: 0.036660
ROC:           BPix_BmO_SEC7_LYR3_LDR20F_MOD3_ROC10
par0vd: -8.260000
par1vd: 63.900000
par0va: -6.020000
par1va: 64.100000
par0rbia: 13.400000
par1rbia: 1.050000
par0tbia: 3.880000
par1tbia: 0.240000
par2tbia: -0.000192
par0ia: 1.070000
par1ia: 3.670000
par2ia: 0.031300
ROC:           BPix_BmO_SEC7_LYR3_LDR20F_MOD3_ROC11
par0vd: -14.400000
par1vd: 63.100000
par0va: -2.620000
par1va: 58.000000
par0rbia: 10.200000
par1rbia: 1.080000
par0tbia: 4.150000
par1tbia: 0.257000
par2tbia: -0.000223
par0ia: -2.178000
par1ia: 3.457000
par2ia: 0.031070
ROC:           BPix_BmO_SEC7_LYR3_LDR20F_MOD3_ROC12
par0vd: -7.160000
par1vd: 63.400000
par0va: -9.850000
par1va: 65.900000
par0rbia: 11.000000
par1rbia: 1.060000
par0tbia: 4.910000
par1tbia: 0.228000
par2tbia: -0.000138
par0ia: -8.954000
par1ia: 4.202000
par2ia: 0.021810
ROC:           BPix_BmO_SEC7_LYR3_LDR20F_MOD3_ROC13
par0vd: -10.000000
par1vd: 64.100000
par0va: -1.230000
par1va: 61.100000
par0rbia: 13.800000
par1rbia: 1.080000
par0tbia: 4.080000
par1tbia: 0.230000
par2tbia: -0.000177
par0ia: -2.833000
par1ia: 4.194000
par2ia: 0.028040
ROC:           BPix_BmO_SEC7_LYR3_LDR20F_MOD3_ROC14
par0vd: -12.500000
par1vd: 68.200000
par0va: -4.890000
par1va: 65.300000
par0rbia: 9.370000
par1rbia: 1.040000
par0tbia: 4.030000
par1tbia: 0.224000
par2tbia: -0.000182
par0ia: -4.193000
par1ia: 3.834000
par2ia: 0.036930
ROC:           BPix_BmO_SEC7_LYR3_LDR20F_MOD3_ROC15
par0vd: -9.620000
par1vd: 63.600000
par0va: -4.270000
par1va: 62.600000
par0rbia: 13.900000
par1rbia: 1.010000
par0tbia: 4.050000
par1tbia: 0.262000
par2tbia: -0.000228
par0ia: 2.022000
par1ia: 3.253000
par2ia: 0.026610
