ROC:           BPix_BmO_SEC8_LYR2_LDR13F_MOD3_ROC0
par0vd: -4.290000
par1vd: 66.500000
par0va: 3.740000
par1va: 63.400000
par0rbia: 18.300000
par1rbia: 1.100000
par0tbia: 4.650000
par1tbia: 0.255000
par2tbia: -0.000208
par0ia: -6.660000
par1ia: 4.527000
par2ia: 0.012990
ROC:           BPix_BmO_SEC8_LYR2_LDR13F_MOD3_ROC1
par0vd: 5.760000
par1vd: 61.600000
par0va: 1.750000
par1va: 63.600000
par0rbia: 12.800000
par1rbia: 1.060000
par0tbia: 4.700000
par1tbia: 0.227000
par2tbia: -0.000148
par0ia: -5.753000
par1ia: 4.139000
par2ia: 0.024580
ROC:           BPix_BmO_SEC8_LYR2_LDR13F_MOD3_ROC2
par0vd: -9.210000
par1vd: 66.300000
par0va: -0.156000
par1va: 63.200000
par0rbia: 12.300000
par1rbia: 1.090000
par0tbia: 4.810000
par1tbia: 0.268000
par2tbia: -0.000219
par0ia: -5.541000
par1ia: 3.685000
par2ia: 0.021690
ROC:           BPix_BmO_SEC8_LYR2_LDR13F_MOD3_ROC3
par0vd: -8.800000
par1vd: 69.100000
par0va: -0.543000
par1va: 67.400000
par0rbia: 13.400000
par1rbia: 1.050000
par0tbia: 4.700000
par1tbia: 0.249000
par2tbia: -0.000213
par0ia: -1.495000
par1ia: 3.489000
par2ia: 0.031530
ROC:           BPix_BmO_SEC8_LYR2_LDR13F_MOD3_ROC4
par0vd: 0.122000
par1vd: 60.800000
par0va: -4.170000
par1va: 63.700000
par0rbia: 11.600000
par1rbia: 1.100000
par0tbia: 4.570000
par1tbia: 0.212000
par2tbia: -0.000119
par0ia: -12.700000
par1ia: 5.078000
par2ia: 0.016630
ROC:           BPix_BmO_SEC8_LYR2_LDR13F_MOD3_ROC5
par0vd: -4.070000
par1vd: 63.400000
par0va: -2.800000
par1va: 63.700000
par0rbia: 10.100000
par1rbia: 1.050000
par0tbia: 4.800000
par1tbia: 0.243000
par2tbia: -0.000182
par0ia: -5.750000
par1ia: 3.647000
par2ia: 0.028080
ROC:           BPix_BmO_SEC8_LYR2_LDR13F_MOD3_ROC6
par0vd: -5.540000
par1vd: 62.600000
par0va: -7.190000
par1va: 64.700000
par0rbia: 7.880000
par1rbia: 1.030000
par0tbia: 4.580000
par1tbia: 0.267000
par2tbia: -0.000248
par0ia: -3.492000
par1ia: 2.999000
par2ia: 0.032130
ROC:           BPix_BmO_SEC8_LYR2_LDR13F_MOD3_ROC7
par0vd: -14.200000
par1vd: 68.700000
par0va: -6.420000
par1va: 67.000000
par0rbia: 12.000000
par1rbia: 1.080000
par0tbia: 4.500000
par1tbia: 0.269000
par2tbia: -0.000262
par0ia: -2.562000
par1ia: 3.378000
par2ia: 0.030440
ROC:           BPix_BmO_SEC8_LYR2_LDR13F_MOD3_ROC8
par0vd: -7.150000
par1vd: 65.200000
par0va: -2.450000
par1va: 64.800000
par0rbia: 9.850000
par1rbia: 1.060000
par0tbia: 4.810000
par1tbia: 0.232000
par2tbia: -0.000153
par0ia: -7.927000
par1ia: 3.974000
par2ia: 0.025450
ROC:           BPix_BmO_SEC8_LYR2_LDR13F_MOD3_ROC9
par0vd: -14.400000
par1vd: 68.900000
par0va: -1.630000
par1va: 65.000000
par0rbia: 10.600000
par1rbia: 1.060000
par0tbia: 4.690000
par1tbia: 0.254000
par2tbia: -0.000208
par0ia: -4.542000
par1ia: 3.520000
par2ia: 0.028020
ROC:           BPix_BmO_SEC8_LYR2_LDR13F_MOD3_ROC10
par0vd: -2.970000
par1vd: 67.000000
par0va: -2.780000
par1va: 68.700000
par0rbia: 13.300000
par1rbia: 1.070000
par0tbia: 4.700000
par1tbia: 0.249000
par2tbia: -0.000199
par0ia: -4.067000
par1ia: 3.795000
par2ia: 0.025630
ROC:           BPix_BmO_SEC8_LYR2_LDR13F_MOD3_ROC11
par0vd: 4.520000
par1vd: 61.500000
par0va: 2.470000
par1va: 63.200000
par0rbia: 14.000000
par1rbia: 1.080000
par0tbia: 4.440000
par1tbia: 0.265000
par2tbia: -0.000247
par0ia: -0.869400
par1ia: 3.477000
par2ia: 0.028890
ROC:           BPix_BmO_SEC8_LYR2_LDR13F_MOD3_ROC12
par0vd: -9.610000
par1vd: 64.900000
par0va: 2.330000
par1va: 61.100000
par0rbia: 15.800000
par1rbia: 1.070000
par0tbia: 4.610000
par1tbia: 0.277000
par2tbia: -0.000239
par0ia: 0.119100
par1ia: 3.427000
par2ia: 0.022130
ROC:           BPix_BmO_SEC8_LYR2_LDR13F_MOD3_ROC13
par0vd: -8.190000
par1vd: 67.600000
par0va: 0.179000
par1va: 64.800000
par0rbia: 8.400000
par1rbia: 1.060000
par0tbia: 4.590000
par1tbia: 0.265000
par2tbia: -0.000252
par0ia: -3.232000
par1ia: 3.073000
par2ia: 0.035210
ROC:           BPix_BmO_SEC8_LYR2_LDR13F_MOD3_ROC14
par0vd: -8.980000
par1vd: 65.200000
par0va: 0.629000
par1va: 61.900000
par0rbia: 12.100000
par1rbia: 1.080000
par0tbia: 4.420000
par1tbia: 0.228000
par2tbia: -0.000143
par0ia: -7.889000
par1ia: 4.474000
par2ia: 0.019610
ROC:           BPix_BmO_SEC8_LYR2_LDR13F_MOD3_ROC15
par0vd: -4.370000
par1vd: 63.200000
par0va: -4.610000
par1va: 64.500000
par0rbia: 7.410000
par1rbia: 1.060000
par0tbia: 4.370000
par1tbia: 0.231000
par2tbia: -0.000153
par0ia: -7.298000
par1ia: 3.871000
par2ia: 0.028390
