ROC:           BPix_BpO_SEC5_LYR4_LDR19F_MOD1_ROC0
par0vd: -14.900000
par1vd: 66.100000
par0va: -10.200000
par1va: 64.800000
par0rbia: 13.700000
par1rbia: 1.090000
par0tbia: 4.780000
par1tbia: 0.243000
par2tbia: -0.000188
par0ia: -7.226000
par1ia: 4.199000
par2ia: 0.021610
ROC:           BPix_BpO_SEC5_LYR4_LDR19F_MOD1_ROC1
par0vd: -7.710000
par1vd: 60.400000
par0va: -9.880000
par1va: 61.700000
par0rbia: 10.700000
par1rbia: 1.040000
par0tbia: 4.510000
par1tbia: 0.256000
par2tbia: -0.000213
par0ia: -3.317000
par1ia: 3.411000
par2ia: 0.027670
ROC:           BPix_BpO_SEC5_LYR4_LDR19F_MOD1_ROC2
par0vd: -9.050000
par1vd: 65.700000
par0va: -9.370000
par1va: 66.100000
par0rbia: 14.200000
par1rbia: 1.090000
par0tbia: 4.130000
par1tbia: 0.228000
par2tbia: -0.000148
par0ia: -7.699000
par1ia: 4.827000
par2ia: 0.014760
ROC:           BPix_BpO_SEC5_LYR4_LDR19F_MOD1_ROC3
par0vd: -8.360000
par1vd: 64.300000
par0va: -7.940000
par1va: 64.800000
par0rbia: 16.800000
par1rbia: 1.100000
par0tbia: 4.160000
par1tbia: 0.265000
par2tbia: -0.000242
par0ia: -3.722000
par1ia: 4.181000
par2ia: 0.017590
ROC:           BPix_BpO_SEC5_LYR4_LDR19F_MOD1_ROC4
par0vd: -2.450000
par1vd: 60.400000
par0va: -11.500000
par1va: 65.000000
par0rbia: 9.950000
par1rbia: 1.080000
par0tbia: 4.150000
par1tbia: 0.256000
par2tbia: -0.000189
par0ia: -3.050000
par1ia: 3.587000
par2ia: 0.025190
ROC:           BPix_BpO_SEC5_LYR4_LDR19F_MOD1_ROC5
par0vd: -9.770000
par1vd: 63.000000
par0va: -9.550000
par1va: 63.300000
par0rbia: 10.000000
par1rbia: 1.070000
par0tbia: 4.800000
par1tbia: 0.248000
par2tbia: -0.000165
par0ia: -6.554000
par1ia: 3.752000
par2ia: 0.022620
ROC:           BPix_BpO_SEC5_LYR4_LDR19F_MOD1_ROC6
par0vd: -10.200000
par1vd: 65.800000
par0va: -9.850000
par1va: 65.900000
par0rbia: 10.300000
par1rbia: 1.070000
par0tbia: 4.310000
par1tbia: 0.256000
par2tbia: -0.000184
par0ia: -3.528000
par1ia: 3.600000
par2ia: 0.023920
ROC:           BPix_BpO_SEC5_LYR4_LDR19F_MOD1_ROC7
par0vd: -14.800000
par1vd: 66.000000
par0va: -10.200000
par1va: 64.800000
par0rbia: 12.300000
par1rbia: 1.060000
par0tbia: 4.040000
par1tbia: 0.284000
par2tbia: -0.000286
par0ia: 1.688000
par1ia: 3.025000
par2ia: 0.030550
ROC:           BPix_BpO_SEC5_LYR4_LDR19F_MOD1_ROC8
par0vd: -12.100000
par1vd: 63.000000
par0va: -8.310000
par1va: 61.500000
par0rbia: 10.600000
par1rbia: 1.050000
par0tbia: 3.970000
par1tbia: 0.253000
par2tbia: -0.000223
par0ia: -1.193000
par1ia: 3.429000
par2ia: 0.032140
ROC:           BPix_BpO_SEC5_LYR4_LDR19F_MOD1_ROC9
par0vd: -9.290000
par1vd: 66.500000
par0va: -9.490000
par1va: 67.200000
par0rbia: 10.100000
par1rbia: 1.070000
par0tbia: 4.570000
par1tbia: 0.260000
par2tbia: -0.000208
par0ia: -4.816000
par1ia: 3.535000
par2ia: 0.025650
ROC:           BPix_BpO_SEC5_LYR4_LDR19F_MOD1_ROC10
par0vd: -7.420000
par1vd: 62.300000
par0va: -9.630000
par1va: 63.700000
par0rbia: 14.200000
par1rbia: 1.080000
par0tbia: 4.430000
par1tbia: 0.241000
par2tbia: -0.000168
par0ia: -4.426000
par1ia: 4.175000
par2ia: 0.020700
ROC:           BPix_BpO_SEC5_LYR4_LDR19F_MOD1_ROC11
par0vd: -14.500000
par1vd: 64.800000
par0va: -9.430000
par1va: 63.500000
par0rbia: 12.700000
par1rbia: 1.080000
par0tbia: 4.340000
par1tbia: 0.245000
par2tbia: -0.000188
par0ia: -5.332000
par1ia: 4.079000
par2ia: 0.022450
ROC:           BPix_BpO_SEC5_LYR4_LDR19F_MOD1_ROC12
par0vd: -17.000000
par1vd: 66.300000
par0va: -11.200000
par1va: 65.000000
par0rbia: 10.100000
par1rbia: 1.090000
par0tbia: 4.750000
par1tbia: 0.245000
par2tbia: -0.000179
par0ia: -8.296000
par1ia: 3.975000
par2ia: 0.023440
ROC:           BPix_BpO_SEC5_LYR4_LDR19F_MOD1_ROC13
par0vd: -7.070000
par1vd: 61.300000
par0va: -8.390000
par1va: 62.000000
par0rbia: 9.500000
par1rbia: 1.070000
par0tbia: 4.000000
par1tbia: 0.249000
par2tbia: -0.000199
par0ia: -3.871000
par1ia: 3.691000
par2ia: 0.027910
ROC:           BPix_BpO_SEC5_LYR4_LDR19F_MOD1_ROC14
par0vd: -7.260000
par1vd: 60.800000
par0va: -10.000000
par1va: 62.800000
par0rbia: 10.000000
par1rbia: 1.040000
par0tbia: 4.310000
par1tbia: 0.256000
par2tbia: -0.000194
par0ia: -2.585000
par1ia: 3.395000
par2ia: 0.025550
ROC:           BPix_BpO_SEC5_LYR4_LDR19F_MOD1_ROC15
par0vd: -13.700000
par1vd: 65.200000
par0va: -11.100000
par1va: 65.000000
par0rbia: 10.200000
par1rbia: 1.080000
par0tbia: 3.890000
par1tbia: 0.254000
par2tbia: -0.000228
par0ia: -2.462000
par1ia: 3.582000
par2ia: 0.031640
