ROC:           BPix_BpI_SEC3_LYR3_LDR8F_MOD3_ROC0
par0vd: -0.605000
par1vd: 66.100000
par0va: 1.530000
par1va: 64.200000
par0rbia: 12.300000
par1rbia: 1.060000
par0tbia: 4.740000
par1tbia: 0.257000
par2tbia: -0.000261
par0ia: -0.016110
par1ia: 3.070000
par2ia: 0.040370
ROC:           BPix_BpI_SEC3_LYR3_LDR8F_MOD3_ROC1
par0vd: -2.790000
par1vd: 67.300000
par0va: -4.180000
par1va: 67.800000
par0rbia: 20.700000
par1rbia: 1.120000
par0tbia: 4.710000
par1tbia: 0.257000
par2tbia: -0.000228
par0ia: -10.800000
par1ia: 5.115000
par2ia: 0.006012
ROC:           BPix_BpI_SEC3_LYR3_LDR8F_MOD3_ROC2
par0vd: -0.225000
par1vd: 63.000000
par0va: -1.500000
par1va: 63.600000
par0rbia: 16.300000
par1rbia: 1.090000
par0tbia: 4.900000
par1tbia: 0.248000
par2tbia: -0.000194
par0ia: -7.862000
par1ia: 4.406000
par2ia: 0.016020
ROC:           BPix_BpI_SEC3_LYR3_LDR8F_MOD3_ROC3
par0vd: -3.770000
par1vd: 65.700000
par0va: 0.465000
par1va: 63.700000
par0rbia: 12.200000
par1rbia: 1.070000
par0tbia: 4.740000
par1tbia: 0.235000
par2tbia: -0.000183
par0ia: -4.762000
par1ia: 3.854000
par2ia: 0.030880
ROC:           BPix_BpI_SEC3_LYR3_LDR8F_MOD3_ROC4
par0vd: 0.687000
par1vd: 60.000000
par0va: -6.090000
par1va: 63.000000
par0rbia: 13.200000
par1rbia: 1.050000
par0tbia: 5.010000
par1tbia: 0.264000
par2tbia: -0.000247
par0ia: -0.994900
par1ia: 3.145000
par2ia: 0.031840
ROC:           BPix_BpI_SEC3_LYR3_LDR8F_MOD3_ROC5
par0vd: -5.190000
par1vd: 67.200000
par0va: -6.790000
par1va: 68.100000
par0rbia: 11.100000
par1rbia: 1.070000
par0tbia: 4.940000
par1tbia: 0.236000
par2tbia: -0.000173
par0ia: -5.931000
par1ia: 3.795000
par2ia: 0.029770
ROC:           BPix_BpI_SEC3_LYR3_LDR8F_MOD3_ROC6
par0vd: -1.150000
par1vd: 64.400000
par0va: -0.105000
par1va: 62.800000
par0rbia: 13.100000
par1rbia: 1.070000
par0tbia: 4.760000
par1tbia: 0.244000
par2tbia: -0.000202
par0ia: -2.227000
par1ia: 3.574000
par2ia: 0.032100
ROC:           BPix_BpI_SEC3_LYR3_LDR8F_MOD3_ROC7
par0vd: -7.380000
par1vd: 65.500000
par0va: -4.650000
par1va: 64.300000
par0rbia: 12.900000
par1rbia: 1.080000
par0tbia: 4.950000
par1tbia: 0.260000
par2tbia: -0.000233
par0ia: -5.100000
par1ia: 3.641000
par2ia: 0.026920
ROC:           BPix_BpI_SEC3_LYR3_LDR8F_MOD3_ROC8
par0vd: -5.590000
par1vd: 66.400000
par0va: 2.710000
par1va: 62.200000
par0rbia: 14.800000
par1rbia: 1.030000
par0tbia: 5.050000
par1tbia: 0.231000
par2tbia: -0.000173
par0ia: -3.572000
par1ia: 3.814000
par2ia: 0.027880
ROC:           BPix_BpI_SEC3_LYR3_LDR8F_MOD3_ROC9
par0vd: -7.900000
par1vd: 65.400000
par0va: -4.850000
par1va: 63.900000
par0rbia: 13.300000
par1rbia: 1.080000
par0tbia: 4.850000
par1tbia: 0.283000
par2tbia: -0.000284
par0ia: -0.917100
par1ia: 3.115000
par2ia: 0.029630
ROC:           BPix_BpI_SEC3_LYR3_LDR8F_MOD3_ROC10
par0vd: -6.400000
par1vd: 63.400000
par0va: -2.860000
par1va: 61.300000
par0rbia: 14.000000
par1rbia: 1.080000
par0tbia: 4.990000
par1tbia: 0.280000
par2tbia: -0.000258
par0ia: -3.892000
par1ia: 3.471000
par2ia: 0.022860
ROC:           BPix_BpI_SEC3_LYR3_LDR8F_MOD3_ROC11
par0vd: -1.460000
par1vd: 62.800000
par0va: -3.520000
par1va: 63.200000
par0rbia: 11.900000
par1rbia: 1.080000
par0tbia: 4.980000
par1tbia: 0.233000
par2tbia: -0.000168
par0ia: -7.752000
par1ia: 4.065000
par2ia: 0.026480
ROC:           BPix_BpI_SEC3_LYR3_LDR8F_MOD3_ROC12
par0vd: -4.640000
par1vd: 61.400000
par0va: -1.930000
par1va: 60.200000
par0rbia: 11.100000
par1rbia: 1.030000
par0tbia: 4.810000
par1tbia: 0.241000
par2tbia: -0.000175
par0ia: -4.855000
par1ia: 3.634000
par2ia: 0.026340
ROC:           BPix_BpI_SEC3_LYR3_LDR8F_MOD3_ROC13
par0vd: -8.050000
par1vd: 63.700000
par0va: -4.580000
par1va: 62.900000
par0rbia: 15.600000
par1rbia: 1.030000
par0tbia: 4.860000
par1tbia: 0.252000
par2tbia: -0.000228
par0ia: -0.915500
par1ia: 3.482000
par2ia: 0.029280
ROC:           BPix_BpI_SEC3_LYR3_LDR8F_MOD3_ROC14
par0vd: -3.350000
par1vd: 66.800000
par0va: -5.100000
par1va: 67.900000
par0rbia: 14.600000
par1rbia: 1.090000
par0tbia: 4.960000
par1tbia: 0.271000
par2tbia: -0.000252
par0ia: -5.568000
par1ia: 3.755000
par2ia: 0.022330
ROC:           BPix_BpI_SEC3_LYR3_LDR8F_MOD3_ROC15
par0vd: -7.880000
par1vd: 66.500000
par0va: 1.800000
par1va: 63.000000
par0rbia: 14.500000
par1rbia: 1.060000
par0tbia: 5.000000
par1tbia: 0.243000
par2tbia: -0.000165
par0ia: -3.692000
par1ia: 3.840000
par2ia: 0.022780
