ROC:           BPix_BpI_SEC1_LYR2_LDR1F_MOD3_ROC0
Vdd:           6
Vana:          77
Vsh:           30
Vcomp:         12
VwllPr:        150
VwllSh:        150
VHldDel:       250
Vtrim:         103
VcThr:         30
VIbias_bus:    30
PHOffset:      160
Vcomp_ADC:     50
PHScale:       86
VIColOr:       100
Vcal:          200
CalDel:        90
TempRange:     0
WBC:           94
ChipContReg:   0
Readback:      1
ROC:           BPix_BpI_SEC1_LYR2_LDR1F_MOD3_ROC1
Vdd:           6
Vana:          77
Vsh:           30
Vcomp:         12
VwllPr:        150
VwllSh:        150
VHldDel:       250
Vtrim:         100
VcThr:         80
VIbias_bus:    30
PHOffset:      173
Vcomp_ADC:     50
PHScale:       74
VIColOr:       100
Vcal:          200
CalDel:        125
TempRange:     0
WBC:           94
ChipContReg:   0
Readback:      1
ROC:           BPix_BpI_SEC1_LYR2_LDR1F_MOD3_ROC2
Vdd:           6
Vana:          84
Vsh:           30
Vcomp:         12
VwllPr:        150
VwllSh:        150
VHldDel:       250
Vtrim:         165
VcThr:         70
VIbias_bus:    30
PHOffset:      167
Vcomp_ADC:     50
PHScale:       86
VIColOr:       100
Vcal:          200
CalDel:        135
TempRange:     0
WBC:           94
ChipContReg:   0
Readback:      1
ROC:           BPix_BpI_SEC1_LYR2_LDR1F_MOD3_ROC3
Vdd:           6
Vana:          77
Vsh:           30
Vcomp:         12
VwllPr:        150
VwllSh:        150
VHldDel:       250
Vtrim:         100
VcThr:         40
VIbias_bus:    30
PHOffset:      163
Vcomp_ADC:     50
PHScale:       80
VIColOr:       100
Vcal:          200
CalDel:        120
TempRange:     0
WBC:           94
ChipContReg:   0
Readback:      1
ROC:           BPix_BpI_SEC1_LYR2_LDR1F_MOD3_ROC4
Vdd:           6
Vana:          79
Vsh:           30
Vcomp:         12
VwllPr:        150
VwllSh:        150
VHldDel:       250
Vtrim:         101
VcThr:         80
VIbias_bus:    30
PHOffset:      176
Vcomp_ADC:     50
PHScale:       83
VIColOr:       100
Vcal:          200
CalDel:        125
TempRange:     0
WBC:           94
ChipContReg:   0
Readback:      1
ROC:           BPix_BpI_SEC1_LYR2_LDR1F_MOD3_ROC5
Vdd:           6
Vana:          87
Vsh:           30
Vcomp:         12
VwllPr:        150
VwllSh:        150
VHldDel:       250
Vtrim:         90
VcThr:         90
VIbias_bus:    30
PHOffset:      156
Vcomp_ADC:     50
PHScale:       90
VIColOr:       100
Vcal:          200
CalDel:        135
TempRange:     0
WBC:           94
ChipContReg:   0
Readback:      1
ROC:           BPix_BpI_SEC1_LYR2_LDR1F_MOD3_ROC6
Vdd:           6
Vana:          82
Vsh:           30
Vcomp:         12
VwllPr:        150
VwllSh:        150
VHldDel:       250
Vtrim:         107
VcThr:         70
VIbias_bus:    30
PHOffset:      160
Vcomp_ADC:     50
PHScale:       81
VIColOr:       100
Vcal:          200
CalDel:        135
TempRange:     0
WBC:           94
ChipContReg:   0
Readback:      1
ROC:           BPix_BpI_SEC1_LYR2_LDR1F_MOD3_ROC7
Vdd:           6
Vana:          77
Vsh:           30
Vcomp:         12
VwllPr:        150
VwllSh:        150
VHldDel:       250
Vtrim:         106
VcThr:         50
VIbias_bus:    30
PHOffset:      155
Vcomp_ADC:     50
PHScale:       82
VIColOr:       100
Vcal:          200
CalDel:        135
TempRange:     0
WBC:           94
ChipContReg:   0
Readback:      1
ROC:           BPix_BpI_SEC1_LYR2_LDR1F_MOD3_ROC8
Vdd:           6
Vana:          83
Vsh:           30
Vcomp:         12
VwllPr:        150
VwllSh:        150
VHldDel:       250
Vtrim:         84
VcThr:         60
VIbias_bus:    30
PHOffset:      156
Vcomp_ADC:     50
PHScale:       82
VIColOr:       100
Vcal:          200
CalDel:        145
TempRange:     0
WBC:           94
ChipContReg:   0
Readback:      1
ROC:           BPix_BpI_SEC1_LYR2_LDR1F_MOD3_ROC9
Vdd:           6
Vana:          83
Vsh:           30
Vcomp:         12
VwllPr:        150
VwllSh:        150
VHldDel:       250
Vtrim:         85
VcThr:         80
VIbias_bus:    30
PHOffset:      151
Vcomp_ADC:     50
PHScale:       91
VIColOr:       100
Vcal:          200
CalDel:        145
TempRange:     0
WBC:           94
ChipContReg:   0
Readback:      1
ROC:           BPix_BpI_SEC1_LYR2_LDR1F_MOD3_ROC10
Vdd:           6
Vana:          77
Vsh:           30
Vcomp:         12
VwllPr:        150
VwllSh:        150
VHldDel:       250
Vtrim:         87
VcThr:         40
VIbias_bus:    30
PHOffset:      176
Vcomp_ADC:     50
PHScale:       79
VIColOr:       100
Vcal:          200
CalDel:        135
TempRange:     0
WBC:           94
ChipContReg:   0
Readback:      1
ROC:           BPix_BpI_SEC1_LYR2_LDR1F_MOD3_ROC11
Vdd:           6
Vana:          69
Vsh:           30
Vcomp:         12
VwllPr:        150
VwllSh:        150
VHldDel:       250
Vtrim:         86
VcThr:         50
VIbias_bus:    30
PHOffset:      167
Vcomp_ADC:     50
PHScale:       80
VIColOr:       100
Vcal:          200
CalDel:        145
TempRange:     0
WBC:           94
ChipContReg:   0
Readback:      1
ROC:           BPix_BpI_SEC1_LYR2_LDR1F_MOD3_ROC12
Vdd:           6
Vana:          83
Vsh:           30
Vcomp:         12
VwllPr:        150
VwllSh:        150
VHldDel:       250
Vtrim:         85
VcThr:         100
VIbias_bus:    30
PHOffset:      164
Vcomp_ADC:     50
PHScale:       82
VIColOr:       100
Vcal:          200
CalDel:        125
TempRange:     0
WBC:           94
ChipContReg:   0
Readback:      1
ROC:           BPix_BpI_SEC1_LYR2_LDR1F_MOD3_ROC13
Vdd:           6
Vana:          73
Vsh:           30
Vcomp:         12
VwllPr:        150
VwllSh:        150
VHldDel:       250
Vtrim:         90
VcThr:         70
VIbias_bus:    30
PHOffset:      170
Vcomp_ADC:     50
PHScale:       78
VIColOr:       100
Vcal:          200
CalDel:        145
TempRange:     0
WBC:           94
ChipContReg:   0
Readback:      1
ROC:           BPix_BpI_SEC1_LYR2_LDR1F_MOD3_ROC14
Vdd:           6
Vana:          77
Vsh:           30
Vcomp:         12
VwllPr:        150
VwllSh:        150
VHldDel:       250
Vtrim:         105
VcThr:         50
VIbias_bus:    30
PHOffset:      165
Vcomp_ADC:     50
PHScale:       81
VIColOr:       100
Vcal:          200
CalDel:        75
TempRange:     0
WBC:           94
ChipContReg:   0
Readback:      1
ROC:           BPix_BpI_SEC1_LYR2_LDR1F_MOD3_ROC15
Vdd:           6
Vana:          69
Vsh:           30
Vcomp:         12
VwllPr:        150
VwllSh:        150
VHldDel:       250
Vtrim:         92
VcThr:         60
VIbias_bus:    30
PHOffset:      144
Vcomp_ADC:     50
PHScale:       84
VIColOr:       100
Vcal:          200
CalDel:        85
TempRange:     0
WBC:           94
ChipContReg:   0
Readback:      1
