ROC:    BPix_BmO_SEC6_LYR4_LDR21F_MOD1_ROC0
col00:  11111111111111111111111111111111111111111111111111111111111111111111111111111111
col01:  11111111111111111111111111111111111111111111111111111111111111111111111111111111
col02:  11111111111111111111111111111111111111111111111111111111111111111111111111111111
col03:  11111111111111111111111111111111111111111111111111111111111111111111111111111111
col04:  11111111111111111111111111111111111111111111111111111111111111111111111111111111
col05:  11111111111111111111111111111111111111111111111111111111111111111111111111111111
col06:  11111111111111111111111111111111111111111111111111111111111111111111111111111111
col07:  11111111111111111111111111111111111111111111111111111111111111111111111111111111
col08:  11111111111111111111111111111111111111111111111111111111111111111111111111111111
col09:  11111111111111111111111111111111111111111111111111111111111111111111111111111111
col10:  11111111111111111111111111111111111111111111111111111111111111111111111111111111
col11:  11111111111111111111111111111111111111111111111111111111111111111111111111111111
col12:  11111111111111111111111111111111111111111111111111111111111111111111111111111111
col13:  11111111111111111111111111111111111111111111111111111111111111111111111111111111
col14:  11111111111111111111111111111111111111111111111111111111111111111111111111111111
col15:  11111111111111111111111111111111111111111111111111111111111111111111111111111111
col16:  11111111111111111111111111111111111111111111111111111111111111111111111111111111
col17:  11111111111111111111111111111111111111111111111111111111111111111111111111111111
col18:  11111111111111111111111111111111111111111111111111111111111111111111111111111111
col19:  11111111111111111111111111111111111111111111111111111111111111111111111111111111
col20:  11111111111111111111111111111111111111111111111111111111111111111111111111111111
col21:  11111111111111111111111111111111111111111111111111111111111111111111111111111111
col22:  11111111111111111111111111111111111111111111111111111111111111111111111111111111
col23:  11111111111111111111111111111111111111111111111111111111111111111111111111111111
col24:  11111111111111111111111111111111111111111111111111111111111111111111111111111111
col25:  11111111111111111111111111111111111111111111111111111111111111111111111111111111
col26:  11111111111111111111111111111111111111111111111111111111111111111111111111111111
col27:  11111111111111111111111111111111111111111111111111111111111111111111111111111111
col28:  11111111111111111111111111111111111111111111111111111111111111111111111111111111
col29:  11111111111111111111111111111111111111111111111111111111111111111111111111111111
col30:  11111111111111111111111111111111111111111111111111111111111111111111111111111111
col31:  11111111111111111111111111111111111111111111111111111111111111111111111111111111
col32:  11111111111111111111111111111111111111111111111111111111111111111111111111111111
col33:  11111111111111111111111111111111111111111111111111111111111111111111111111111111
col34:  11111111111111111111111111111111111111111111111111111111111111111111111111111111
col35:  11111111111111111111111111111111111111111111111111111111111111111111111111111111
col36:  11111111111111111111111111111111111111111111111111111111111111111111111111111111
col37:  11111111111111111111111111111111111111111111111111111111111111111111111111111111
col38:  11111111111111111111111111111111111111111111111111111111111111111111111111111111
col39:  11111111111111111111111111111111111111111111111111111111111111111111111111111111
col40:  11111111111111111111111111111111111111111111111111111111111111111111111111111111
col41:  11111111111111111111111111111111111111111111111111111111111111111111111111111111
col42:  11111111111111111111111111111111111111111111111111111111111111111111111111111111
col43:  11111111111111111111111111111111111111111111111111111111111111111111111111111111
col44:  11111111111111111111111111111111111111111111111111111111111111111111111111111111
col45:  11111111111111111111111111111111111111111111111111111111111111111111111111111111
col46:  11111111111111111111111111111111111111111111111111111111111111111111111111111111
col47:  11111111111111111111111111111111111111111111111111111111111111111111111111111111
col48:  11111111111111111111111111111111111111111111111111111111111111111111111111111111
col49:  11111111111111111111111111111111111111111111111111111111111111111111111111111111
col50:  11111111111111111111111111111111111111111111111111111111111111111111111111111111
col51:  11111111111111111111111111111111111111111111111111111111111111111111111111111111
ROC:    BPix_BmO_SEC6_LYR4_LDR21F_MOD1_ROC1
col00:  11111111111111111111111111111111111111111111111111111111111111111111111111111111
col01:  11111111111111111111111111111111111111111111111111111111111111111111111111111111
col02:  11111111111111111111111111111111111111111111111111111111111111111111111111111111
col03:  11111111111111111111111111111111111111111111111111111111111111111111111111111111
col04:  11111111111111111111111111111111111111111111111111111111111111111111111111111111
col05:  11111111111111111111111111111111111111111111111111111111111111111111111111111111
col06:  11111111111111111111111111111111111111111111111111111111111111111111111111111111
col07:  11111111111111111111111111111111111111111111111111111111111111111111111111111111
col08:  11111111111111111111111111111111111111111111111111111111111111111111111111111111
col09:  11111111111111111111111111111111111111111111111111111111111111111111111111111111
col10:  11111111111111111111111111111111111111111111111111111111111111111111111111111111
col11:  11111111111111111111111111111111111111111111111111111111111111111111111111111111
col12:  11111111111111111111111111111111111111111111111111111111111111111111111111111111
col13:  11111111111111111111111111111111111111111111111111111111111111111111111111111111
col14:  11111111111111111111111111111111111111111111111111111111111111111111111111111111
col15:  11111111111111111111111111111111111111111111111111111111111111111111111111111111
col16:  11111111111111111111111111111111111111111111111111111111111111111111111111111111
col17:  11111111111111111111111111111111111111111111111111111111111111111111111111111111
col18:  11111111111111111111111111111111111111111111111111111111111111111111111111111111
col19:  11111111111111111111111111111111111111111111111111111111111111111111111111111111
col20:  11111111111111111111111111111111111111111111111111111111111111111111111111111111
col21:  11111111111111111111111111111111111111111111111111111111111111111111111111111111
col22:  11111111111111111111111111111111111111111111111111111111111111111111111111111111
col23:  11111111111111111111111111111111111111111111111111111111111111111111111111111111
col24:  11111111111111111111111111111111111111111111111111111111111111111111111111111111
col25:  11111111111111111111111111111111111111111111111111111111111111111111111111111111
col26:  11111111111111111111111111111111111111111111111111111111111111111111111111111111
col27:  11111111111111111111111111111111111111111111111111111111111111111111111111111111
col28:  11111111111111111111111111111111111111111111111111111111111111111111111111111111
col29:  11111111111111111111111111111111111111111111111111111111111111111111111111111111
col30:  11111111111111111111111111111111111111111111111111111111111111111111111111111111
col31:  11111111111111111111111111111111111111111111111111111111111111111111111111111111
col32:  11111111111111111111111111111111111111111111111111111111111111111111111111111111
col33:  11111111111111111111111111111111111111111111111111111111111111111111111111111111
col34:  11111111111111111111111111111111111111111111111111111111111111111111111111111111
col35:  11111111111111111111111111111111111111111111111111111111111111111111111111111111
col36:  11111111111111111111111111111111111111111111111111111111111111111111111111111111
col37:  11111111111111111111111111111111111111111111111111111111111111111111111111111111
col38:  11111111111111111111111111111111111111111111111111111111111111111111111111111111
col39:  11111111111111111111111111111111111111111111111111111111111111111111111111111111
col40:  11111111111111111111111111111111111111111111111111111111111111111111111111111111
col41:  11111111111111111111111111111111111111111111111111111111111111111111111111111111
col42:  11111111111111111111111111111111111111111111111111111111111111111111111111111111
col43:  11111111111111111111111111111111111111111111111111111111111111111111111111111111
col44:  11111111111111111111111111111111111111111111111111111111111111111111111111111111
col45:  11111111111111111111111111111111111111111111111111111111111111111111111111111111
col46:  11111111111111111111111111111111111111111111111111111111111111111111111111111111
col47:  11111111111111111111111111111111111111111111111111111111111111111111111111111111
col48:  11111111111111111111111111111111111111111111111111111111111111111111111111111111
col49:  11111111111111111111111111111111111111111111111111111111111111111111111111111111
col50:  11111111111111111111111111111111111111111111111111111111111111111111111111111111
col51:  11111111111111111111111111111111111111111111111111111111111111111111111111111111
ROC:    BPix_BmO_SEC6_LYR4_LDR21F_MOD1_ROC2
col00:  11111111111111111111111111111111111111111111111111111111111111111111111111111111
col01:  11111111111111111111111111111111111111111111111111111111111111111111111111111111
col02:  11111111111111111111111111111111111111111111111111111111111111111111111111111111
col03:  11111111111111111111111111111111111111111111111111111111111111111111111111111111
col04:  11111111111111111111111111111111111111111111111111111111111111111111111111111111
col05:  11111111111111111111111111111111111111111111111111111111111111111111111111111111
col06:  11111111111111111111111111111111111111111111111111111111111111111111111111111111
col07:  11111111111111111111111111111111111111111111111111111111111111111111111111111111
col08:  11111111111111111111111111111111111111111111111111111111111111111111111111111111
col09:  11111111111111111111111111111111111111111111111111111111111111111111111111111111
col10:  11111111111111111111111111111111111111111111111111111111111111111111111111111111
col11:  11111111111111111111111111111111111111111111111111111111111111111111111111111111
col12:  11111111111111111111111111111111111111111111111111111111111111111111111111111111
col13:  11111111111111111111111111111111111111111111111111111111111111111111111111111111
col14:  11111111111111111111111111111111111111111111111111111111111111111111111111111111
col15:  11111111111111111111111111111111111111111111111111111111111111111111111111111111
col16:  11111111111111111111111111111111111111111111111111111111111111111111111111111111
col17:  11111111111111111111111111111111111111111111111111111111111111111111111111111111
col18:  11111111111111111111111111111111111111111111111111111111111111111111111111111111
col19:  11111111111111111111111111111111111111111111111111111111111111111111111111111111
col20:  11111111111111111111111111111111111111111111111111111111111111111111111111111111
col21:  11111111111111111111111111111111111111111111111111111111111111111111111111111111
col22:  11111111111111111111111111111111111111111111111111111111111111111111111111111111
col23:  11111111111111111111111111111111111111111111111111111111111111111111111111111111
col24:  11111111111111111111111111111111111111111111111111111111111111111111111111111111
col25:  11111111111111111111111111111111111111111111111111111111111111111111111111111111
col26:  11111111111111111111111111111111111111111111111111111111111111111111111111111111
col27:  11111111111111111111111111111111111111111111111111111111111111111111111111111111
col28:  11111111111111111111111111111111111111111111111111111111111111111111111111111111
col29:  11111111111111111111111111111111111111111111111111111111111111111111111111111111
col30:  11111111111111111111111111111111111111111111111111111111111111111111111111111111
col31:  11111111111111111111111111111111111111111111111111111111111111111111111111111111
col32:  11111111111111111111111111111111111111111111111111111111111111111111111111111111
col33:  11111111111111111111111111111111111111111111111111111111111111111111111111111111
col34:  11111111111111111111111111111111111111111111111111111111111111111111111111111111
col35:  11111111111111111111111111111111111111111111111111111111111111111111111111111111
col36:  11111111111111111111111111111111111111111111111111111111111111111111111111111111
col37:  11111111111111111111111111111111111111111111111111111111111111111111111111111111
col38:  11111111111111111111111111111111111111111111111111111111111111111111111111111111
col39:  11111111111111111111111111111111111111111111111111111111111111111111111111111111
col40:  11111111111111111111111111111111111111111111111111111111111111111111111111111111
col41:  11111111111111111111111111111111111111111111111111111111111111111111111111111111
col42:  11111111111111111111111111111111111111111111111111111111111111111111111111111111
col43:  11111111111111111111111111111111111111111111111111111111111111111111111111111111
col44:  11111111111111111111111111111111111111111111111111111111111111111111111111111111
col45:  11111111111111111111111111111111111111111111111111111111111111111111111111111111
col46:  11111111111111111111111111111111111111111111111111111111111111111111111111111111
col47:  11111111111111111111111111111111111111111111111111111111111111111111111111111111
col48:  11111111111111111111111111111111111111111111111111111111111111111111111111111111
col49:  11111111111111111111111111111111111111111111111111111111111111111111111111111111
col50:  11111111111111111111111111111111111111111111111111111111111111111111111111111111
col51:  11111111111111111111111111111111111111111111111111111111111111111111111111111111
ROC:    BPix_BmO_SEC6_LYR4_LDR21F_MOD1_ROC3
col00:  11111111111111111111111111111111111111111111111111111111111111111111111111111111
col01:  11111111111111111111111111111111111111111111111111111111111111111111111111111111
col02:  11111111111111111111111111111111111111111111111111111111111111111111111111111111
col03:  11111111111111111111111111111111111111111111111111111111111111111111111111111111
col04:  11111111111111111111111111111111111111111111111111111111111111111111111111111111
col05:  11111111111111111111111111111111111111111111111111111111111111111111111111111111
col06:  11111111111111111111111111111111111111111111111111111111111111111111111111111111
col07:  11111111111111111111111111111111111111111111111111111111111111111111111111111111
col08:  11111111111111111111111111111111111111111111111111111111111111111111111111111111
col09:  11111111111111111111111111111111111111111111111111111111111111111111111111111111
col10:  11111111111111111111111111111111111111111111111111111111111111111111111111111111
col11:  11111111111111111111111111111111111111111111111111111111111111111111111111111111
col12:  11111111111111111111111111111111111111111111111111111111111111111111111111111111
col13:  11111111111111111111111111111111111111111111111111111111111111111111111111111111
col14:  11111111111111111111111111111111111111111111111111111111111111111111111111111111
col15:  11111111111111111111111111111111111111111111111111111111111111111111111111111111
col16:  11111111111111111111111111111111111111111111111111111111111111111111111111111111
col17:  11111111111111111111111111111111111111111111111111111111111111111111111111111111
col18:  11111111111111111111111111111111111111111111111111111111111111111111111111111111
col19:  11111111111111111111111111111111111111111111111111111111111111111111111111111111
col20:  11111111111111111111111111111111111111111111111111111111111111111111111111111111
col21:  11111111111111111111111111111111111111111111111111111111111111111111111111111111
col22:  11111111111111111111111111111111111111111111111111111111111111111111111111111111
col23:  11111111111111111111111111111111111111111111111111111111111111111111111111111111
col24:  11111111111111111111111111111111111111111111111111111111111111111111111111111111
col25:  11111111111111111111111111111111111111111111111111111111111111111111111111111111
col26:  11111111111111111111111111111111111111111111111111111111111111111111111111111111
col27:  11111111111111111111111111111111111111111111111111111111111111111111111111111111
col28:  11111111111111111111111111111111111111111111111111111111111111111111111111111111
col29:  11111111111111111111111111111111111111111111111111111111111111111111111111111111
col30:  11111111111111111111111111111111111111111111111111111111111111111111111111111111
col31:  11111111111111111111111111111111111111111111111111111111111111111111111111111111
col32:  11111111111111111111111111111111111111111111111111111111111111111111111111111111
col33:  11111111111111111111111111111111111111111111111111111111111111111111111111111111
col34:  11111111111111111111111111111111111111111111111111111111111111111111111111111111
col35:  11111111111111111111111111111111111111111111111111111111111111111111111111111111
col36:  11111111111111111111111111111111111111111111111111111111111111111111111111111111
col37:  11111111111111111111111111111111111111111111111111111111111111111111111111111111
col38:  11111111111111111111111111111111111111111111111111111111111111111111111111111111
col39:  11111111111111111111111111111111111111111111111111111111111111111111111111111111
col40:  11111111111111111111111111111111111111111111111111111111111111111111111111111111
col41:  11111111111111111111111111111111111111111111111111111111111111111111111111111111
col42:  11111111111111111111111111111111111111111111111111111111111111111111111111111111
col43:  11111111111111111111111111111111111111111111111111111111111111111111111111111111
col44:  11111111111111111111111111111111111111111111111111111111111111111111111111111111
col45:  11111111111111111111111111111111111111111111111111111111111111111111111111111111
col46:  11111111111111111111111111111111111111111111111111111111111111111111111111111111
col47:  11111111111111111111111111111111111111111111111111111111111111111111111111111111
col48:  11111111111111111111111111111111111111111111111111111111111111111111111111111111
col49:  11111111111111111111111111111111111111111111111111111111111111111111111111111111
col50:  11111111111111111111111111111111111111111111111111111111111111111111111111111111
col51:  11111111111111111111111111111111111111111111111111111111111111111111111111111111
ROC:    BPix_BmO_SEC6_LYR4_LDR21F_MOD1_ROC4
col00:  11111111111111111111111111111111111111111111111111111111111111111111111111111111
col01:  11111111111111111111111111111111111111111111111111111111111111111111111111111111
col02:  11111111111111111111111111111111111111111111111111111111111111111111111111111111
col03:  11111111111111111111111111111111111111111111111111111111111111111111111111111111
col04:  11111111111111111111111111111111111111111111111111111111111111111111111111111111
col05:  11111111111111111111111111111111111111111111111111111111111111111111111111111111
col06:  11111111111111111111111111111111111111111111111111111111111111111111111111111111
col07:  11111111111111111111111111111111111111111111111111111111111111111111111111111111
col08:  11111111111111111111111111111111111111111111111111111111111111111111111111111111
col09:  11111111111111111111111111111111111111111111111111111111111111111111111111111111
col10:  11111111111111111111111111111111111111111111111111111111111111111111111111111111
col11:  11111111111111111111111111111111111111111111111111111111111111111111111111111111
col12:  11111111111111111111111111111111111111111111111111111111111111111111111111111111
col13:  11111111111111111111111111111111111111111111111111111111111111111111111111111111
col14:  11111111111111111111111111111111111111111111111111111111111111111111111111111111
col15:  11111111111111111111111111111111111111111111111111111111111111111111111111111111
col16:  11111111111111111111111111111111111111111111111111111111111111111111111111111111
col17:  11111111111111111111111111111111111111111111111111111111111111111111111111111111
col18:  11111111111111111111111111111111111111111111111111111111111111111111111111111111
col19:  11111111111111111111111111111111111111111111111111111111111111111111111111111111
col20:  11111111111111111111111111111111111111111111111111111111111111111111111111111111
col21:  11111111111111111111111111111111111111111111111111111111111111111111111111111111
col22:  11111111111111111111111111111111111111111111111111111111111111111111111111111111
col23:  11111111111111111111111111111111111111111111111111111111111111111111111111111111
col24:  11111111111111111111111111111111111111111111111111111111111111111111111111111111
col25:  11111111111111111111111111111111111111111111111111111111111111111111111111111111
col26:  11111111111111111111111111111111111111111111111111111111111111111111111111111111
col27:  11111111111111111111111111111111111111111111111111111111111111111111111111111111
col28:  11111111111111111111111111111111111111111111111111111111111111111111111111111111
col29:  11111111111111111111111111111111111111111111111111111111111111111111111111111111
col30:  11111111111111111111111111111111111111111111111111111111111111111111111111111111
col31:  11111111111111111111111111111111111111111111111111111111111111111111111111111111
col32:  11111111111111111111111111111111111111111111111111111111111111111111111111111111
col33:  11111111111111111111111111111111111111111111111111111111111111111111111111111111
col34:  11111111111111111111111111111111111111111111111111111111111111111111111111111111
col35:  11111111111111111111111111111111111111111111111111111111111111111111111111111111
col36:  11111111111111111111111111111111111111111111111111111111111111111111111111111111
col37:  11111111111111111111111111111111111111111111111111111111111111111111111111111111
col38:  11111111111111111111111111111111111111111111111111111111111111111111111111111111
col39:  11111111111111111111111111111111111111111111111111111111111111111111111111111111
col40:  11111111111111111111111111111111111111111111111111111111111111111111111111111111
col41:  11111111111111111111111111111111111111111111111111111111111111111111111111111111
col42:  11111111111111111111111111111111111111111111111111111111111111111111111111111111
col43:  11111111111111111111111111111111111111111111111111111111111111111111111111111111
col44:  11111111111111111111111111111111111111111111111111111111111111111111111111111111
col45:  11111111111111111111111111111111111111111111111111111111111111111111111111111111
col46:  11111111111111111111111111111111111111111111111111111111111111111111111111111111
col47:  11111111111111111111111111111111111111111111111111111111111111111111111111111111
col48:  11111111111111111111111111111111111111111111111111111111111111111111111111111111
col49:  11111111111111111111111111111111111111111111111111111111111111111111111111111111
col50:  11111111111111111111111111111111111111111111111111111111111111111111111111111111
col51:  11111111111111111111111111111111111111111111111111111111111111111111111111111111
ROC:    BPix_BmO_SEC6_LYR4_LDR21F_MOD1_ROC5
col00:  11111111111111111111111111111111111111111111111111111111111111111111111111111111
col01:  11111111111111111111111111111111111111111111111111111111111111111111111111111111
col02:  11111111111111111111111111111111111111111111111111111111111111111111111111111111
col03:  11111111111111111111111111111111111111111111111111111111111111111111111111111111
col04:  11111111111111111111111111111111111111111111111111111111111111111111111111111111
col05:  11111111111111111111111111111111111111111111111111111111111111111111111111111111
col06:  11111111111111111111111111111111111111111111111111111111111111111111111111111111
col07:  11111111111111111111111111111111111111111111111111111111111111111111111111111111
col08:  11111111111111111111111111111111111111111111111111111111111111111111111111111111
col09:  11111111111111111111111111111111111111111111111111111111111111111111111111111111
col10:  11111111111111111111111111111111111111111111111111111111111111111111111111111111
col11:  11111111111111111111111111111111111111111111111111111111111111111111111111111111
col12:  11111111111111111111111111111111111111111111111111111111111111111111111111111111
col13:  11111111111111111111111111111111111111111111111111111111111111111111111111111111
col14:  11111111111111111111111111111111111111111111111111111111111111111111111111111111
col15:  11111111111111111111111111111111111111111111111111111111111111111111111111111111
col16:  11111111111111111111111111111111111111111111111111111111111111111111111111111111
col17:  11111111111111111111111111111111111111111111111111111111111111111111111111111111
col18:  11111111111111111111111111111111111111111111111111111111111111111111111111111111
col19:  11111111111111111111111111111111111111111111111111111111111111111111111111111111
col20:  11111111111111111111111111111111111111111111111111111111111111111111111111111111
col21:  11111111111111111111111111111111111111111111111111111111111111111111111111111111
col22:  11111111111111111111111111111111111111111111111111111111111111111111111111111111
col23:  11111111111111111111111111111111111111111111111111111111111111111111111111111111
col24:  11111111111111111111111111111111111111111111111111111111111111111111111111111111
col25:  11111111111111111111111111111111111111111111111111111111111111111111111111111111
col26:  11111111111111111111111111111111111111111111111111111111111111111111111111111111
col27:  11111111111111111111111111111111111111111111111111111111111111111111111111111111
col28:  11111111111111111111111111111111111111111111111111111111111111111111111111111111
col29:  11111111111111111111111111111111111111111111111111111111111111111111111111111111
col30:  11111111111111111111111111111111111111111111111111111111111111111111111111111111
col31:  11111111111111111111111111111111111111111111111111111111111111111111111111111111
col32:  11111111111111111111111111111111111111111111111111111111111111111111111111111111
col33:  11111111111111111111111111111111111111111111111111111111111111111111111111111111
col34:  11111111111111111111111111111111111111111111111111111111111111111111111111111111
col35:  11111111111111111111111111111111111111111111111111111111111111111111111111111111
col36:  11111111111111111111111111111111111111111111111111111111111111111111111111111111
col37:  11111111111111111111111111111111111111111111111111111111111111111111111111111111
col38:  11111111111111111111111111111111111111111111111111111111111111111111111111111111
col39:  11111111111111111111111111111111111111111111111111111111111111111111111111111111
col40:  11111111111111111111111111111111111111111111111111111111111111111111111111111111
col41:  11111111111111111111111111111111111111111111111111111111111111111111111111111111
col42:  11111111111111111111111111111111111111111111111111111111111111111111111111111111
col43:  11111111111111111111111111111111111111111111111111111111111111111111111111111111
col44:  11111111111111111111111111111111111111111111111111111111111111111111111111111111
col45:  11111111111111111111111111111111111111111111111111111111111111111111111111111111
col46:  11111111111111111111111111111111111111111111111111111111111111111111111111111111
col47:  11111111111111111111111111111111111111111111111111111111111111111111111111111111
col48:  11111111111111111111111111111111111111111111111111111111111111111111111111111111
col49:  11111111111111111111111111111111111111111111111111111111111111111111111111111111
col50:  11111111111111111111111111111111111111111111111111111111111111111111111111111111
col51:  11111111111111111111111111111111111111111111111111111111111111111111111111111111
ROC:    BPix_BmO_SEC6_LYR4_LDR21F_MOD1_ROC6
col00:  11111111111111111111111111111111111111111111111111111111111111111111111111111111
col01:  11111111111111111111111111111111111111111111111111111111111111111111111111111111
col02:  11111111111111111111111111111111111111111111111111111111111111111111111111111111
col03:  11111111111111111111111111111111111111111111111111111111111111111111111111111111
col04:  11111111111111111111111111111111111111111111111111111111111111111111111111111111
col05:  11111111111111111111111111111111111111111111111111111111111111111111111111111111
col06:  11111111111111111111111111111111111111111111111111111111111111111111111111111111
col07:  11111111111111111111111111111111111111111111111111111111111111111111111111111111
col08:  11111111111111111111111111111111111111111111111111111111111111111111111111111111
col09:  11111111111111111111111111111111111111111111111111111111111111111111111111111111
col10:  11111111111111111111111111111111111111111111111111111111111111111111111111111111
col11:  11111111111111111111111111111111111111111111111111111111111111111111111111111111
col12:  11111111111111111111111111111111111111111111111111111111111111111111111111111111
col13:  11111111111111111111111111111111111111111111111111111111111111111111111111111111
col14:  11111111111111111111111111111111111111111111111111111111111111111111111111111111
col15:  11111111111111111111111111111111111111111111111111111111111111111111111111111111
col16:  11111111111111111111111111111111111111111111111111111111111111111111111111111111
col17:  11111111111111111111111111111111111111111111111111111111111111111111111111111111
col18:  11111111111111111111111111111111111111111111111111111111111111111111111111111111
col19:  11111111111111111111111111111111111111111111111111111111111111111111111111111111
col20:  11111111111111111111111111111111111111111111111111111111111111111111111111111111
col21:  11111111111111111111111111111111111111111111111111111111111111111111111111111111
col22:  11111111111111111111111111111111111111111111111111111111111111111111111111111111
col23:  11111111111111111111111111111111111111111111111111111111111111111111111111111111
col24:  11111111111111111111111111111111111111111111111111111111111111111111111111111111
col25:  11111111111111111111111111111111111111111111111111111111111111111111111111111111
col26:  11111111111111111111111111111111111111111111111111111111111111111111111111111111
col27:  11111111111111111111111111111111111111111111111111111111111111111111111111111111
col28:  11111111111111111111111111111111111111111111111111111111111111111111111111111111
col29:  11111111111111111111111111111111111111111111111111111111111111111111111111111111
col30:  11111111111111111111111111111111111111111111111111111111111111111111111111111111
col31:  11111111111111111111111111111111111111111111111111111111111111111111111111111111
col32:  11111111111111111111111111111111111111111111111111111111111111111111111111111111
col33:  11111111111111111111111111111111111111111111111111111111111111111111111111111111
col34:  11111111111111111111111111111111111111111111111111111111111111111111111111111111
col35:  11111111111111111111111111111111111111111111111111111111111111111111111111111111
col36:  11111111111111111111111111111111111111111111111111111111111111111111111111111111
col37:  11111111111111111111111111111111111111111111111111111111111111111111111111111111
col38:  11111111111111111111111111111111111111111111111111111111111111111111111111111111
col39:  11111111111111111111111111111111111111111111111111111111111111111111111111111111
col40:  11111111111111111111111111111111111111111111111111111111111111111111111111111111
col41:  11111111111111111111111111111111111111111111111111111111111111111111111111111111
col42:  11111111111111111111111111111111111111111111111111111111111111111111111111111111
col43:  11111111111111111111111111111111111111111111111111111111111111111111111111111111
col44:  11111111111111111111111111111111111111111111111111111111111111111111111111111111
col45:  11111111111111111111111111111111111111111111111111111111111111111111111111111111
col46:  11111111111111111111111111111111111111111111111111111111111111111111111111111111
col47:  11111111111111111111111111111111111111111111111111111111111111111111111111111111
col48:  11111111111111111111111111111111111111111111111111111111111111111111111111111111
col49:  11111111111111111111111111111111111111111111111111111111111111111111111111111111
col50:  11111111111111111111111111111111111111111111111111111111111111111111111111111111
col51:  11111111111111111111111111111111111111111111111111111111111111111111111111111111
ROC:    BPix_BmO_SEC6_LYR4_LDR21F_MOD1_ROC7
col00:  11111111111111111111111111111111111111111111111111111111111111111111111111111111
col01:  11111111111111111111111111111111111111111111111111111111111111111111111111111111
col02:  11111111111111111111111111111111111111111111111111111111111111111111111111111111
col03:  11111111111111111111111111111111111111111111111111111111111111111111111111111111
col04:  11111111111111111111111111111111111111111111111111111111111111111111111111111111
col05:  11111111111111111111111111111111111111111111111111111111111111111111111111111111
col06:  11111111111111111111111111111111111111111111111111111111111111111111111111111111
col07:  11111111111111111111111111111111111111111111111111111111111111111111111111111111
col08:  11111111111111111111111111111111111111111111111111111111111111111111111111111111
col09:  11111111111111111111111111111111111111111111111111111111111111111111111111111111
col10:  11111111111111111111111111111111111111111111111111111111111111111111111111111111
col11:  11111111111111111111111111111111111111111111111111111111111111111111111111111111
col12:  11111111111111111111111111111111111111111111111111111111111111111111111111111111
col13:  11111111111111111111111111111111111111111111111111111111111111111111111111111111
col14:  11111111111111111111111111111111111111111111111111111111111111111111111111111111
col15:  11111111111111111111111111111111111111111111111111111111111111111111111111111111
col16:  11111111111111111111111111111111111111111111111111111111111111111111111111111111
col17:  11111111111111111111111111111111111111111111111111111111111111111111111111111111
col18:  11111111111111111111111111111111111111111111111111111111111111111111111111111111
col19:  11111111111111111111111111111111111111111111111111111111111111111111111111111111
col20:  11111111111111111111111111111111111111111111111111111111111111111111111111111111
col21:  11111111111111111111111111111111111111111111111111111111111111111111111111111111
col22:  11111111111111111111111111111111111111111111111111111111111111111111111111111111
col23:  11111111111111111111111111111111111111111111111111111111111111111111111111111111
col24:  11111111111111111111111111111111111111111111111111111111111111111111111111111111
col25:  11111111111111111111111111111111111111111111111111111111111111111111111111111111
col26:  11111111111111111111111111111111111111111111111111111111111111111111111111111111
col27:  11111111111111111111111111111111111111111111111111111111111111111111111111111111
col28:  11111111111111111111111111111111111111111111111111111111111111111111111111111111
col29:  11111111111111111111111111111111111111111111111111111111111111111111111111111111
col30:  11111111111111111111111111111111111111111111111111111111111111111111111111111111
col31:  11111111111111111111111111111111111111111111111111111111111111111111111111111111
col32:  11111111111111111111111111111111111111111111111111111111111111111111111111111111
col33:  11111111111111111111111111111111111111111111111111111111111111111111111111111111
col34:  11111111111111111111111111111111111111111111111111111111111111111111111111111111
col35:  11111111111111111111111111111111111111111111111111111111111111111111111111111111
col36:  11111111111111111111111111111111111111111111111111111111111111111111111111111111
col37:  11111111111111111111111111111111111111111111111111111111111111111111111111111111
col38:  11111111111111111111111111111111111111111111111111111111111111111111111111111111
col39:  11111111111111111111111111111111111111111111111111111111111111111111111111111111
col40:  11111111111111111111111111111111111111111111111111111111111111111111111111111111
col41:  11111111111111111111111111111111111111111111111111111111111111111111111111111111
col42:  11111111111111111111111111111111111111111111111111111111111111111111111111111111
col43:  11111111111111111111111111111111111111111111111111111111111111111111111111111111
col44:  11111111111111111111111111111111111111111111111111111111111111111111111111111111
col45:  11111111111111111111111111111111111111111111111111111111111111111111111111111111
col46:  11111111111111111111111111111111111111111111111111111111111111111111111111111111
col47:  11111111111111111111111111111111111111111111111111111111111111111111111111111111
col48:  11111111111111111111111111111111111111111111111111111111111111111111111111111111
col49:  11111111111111111111111111111111111111111111111111111111111111111111111111111111
col50:  11111111111111111111111111111111111111111111111111111111111111111111111111111111
col51:  11111111111111111111111111111111111111111111111111111111111111111111111111111111
ROC:    BPix_BmO_SEC6_LYR4_LDR21F_MOD1_ROC8
col00:  11111111111111111111111111111111111111111111111111111111111111111111111111111111
col01:  11111111111111111111111111111111111111111111111111111111111111111111111111111111
col02:  11111111111111111111111111111111111111111111111111111111111111111111111111111111
col03:  11111111111111111111111111111111111111111111111111111111111111111111111111111111
col04:  11111111111111111111111111111111111111111111111111111111111111111111111111111111
col05:  11111111111111111111111111111111111111111111111111111111111111111111111111111111
col06:  11111111111111111111111111111111111111111111111111111111111111111111111111111111
col07:  11111111111111111111111111111111111111111111111111111111111111111111111111111111
col08:  11111111111111111111111111111111111111111111111111111111111111111111111111111111
col09:  11111111111111111111111111111111111111111111111111111111111111111111111111111111
col10:  11111111111111111111111111111111111111111111111111111111111111111111111111111111
col11:  11111111111111111111111111111111111111111111111111111111111111111111111111111111
col12:  11111111111111111111111111111111111111111111111111111111111111111111111111111111
col13:  11111111111111111111111111111111111111111111111111111111111111111111111111111111
col14:  11111111111111111111111111111111111111111111111111111111111111111111111111111111
col15:  11111111111111111111111111111111111111111111111111111111111111111111111111111111
col16:  11111111111111111111111111111111111111111111111111111111111111111111111111111111
col17:  11111111111111111111111111111111111111111111111111111111111111111111111111111111
col18:  11111111111111111111111111111111111111111111111111111111111111111111111111111111
col19:  11111111111111111111111111111111111111111111111111111111111111111111111111111111
col20:  11111111111111111111111111111111111111111111111111111111111111111111111111111111
col21:  11111111111111111111111111111111111111111111111111111111111111111111111111111111
col22:  11111111111111111111111111111111111111111111111111111111111111111111111111111111
col23:  11111111111111111111111111111111111111111111111111111111111111111111111111111111
col24:  11111111111111111111111111111111111111111111111111111111111111111111111111111111
col25:  11111111111111111111111111111111111111111111111111111111111111111111111111111111
col26:  11111111111111111111111111111111111111111111111111111111111111111111111111111111
col27:  11111111111111111111111111111111111111111111111111111111111111111111111111111111
col28:  11111111111111111111111111111111111111111111111111111111111111111111111111111111
col29:  11111111111111111111111111111111111111111111111111111111111111111111111111111111
col30:  11111111111111111111111111111111111111111111111111111111111111111111111111111111
col31:  11111111111111111111111111111111111111111111111111111111111111111111111111111111
col32:  11111111111111111111111111111111111111111111111111111111111111111111111111111111
col33:  11111111111111111111111111111111111111111111111111111111111111111111111111111111
col34:  11111111111111111111111111111111111111111111111111111111111111111111111111111111
col35:  11111111111111111111111111111111111111111111111111111111111111111111111111111111
col36:  11111111111111111111111111111111111111111111111111111111111111111111111111111111
col37:  11111111111111111111111111111111111111111111111111111111111111111111111111111111
col38:  11111111111111111111111111111111111111111111111111111111111111111111111111111111
col39:  11111111111111111111111111111111111111111111111111111111111111111111111111111111
col40:  11111111111111111111111111111111111111111111111111111111111111111111111111111111
col41:  11111111111111111111111111111111111111111111111111111111111111111111111111111111
col42:  11111111111111111111111111111111111111111111111111111111111111111111111111111111
col43:  11111111111111111111111111111111111111111111111111111111111111111111111111111111
col44:  11111111111111111111111111111111111111111111111111111111111111111111111111111111
col45:  11111111111111111111111111111111111111111111111111111111111111111111111111111111
col46:  11111111111111111111111111111111111111111111111111111111111111111111111111111111
col47:  11111111111111111111111111111111111111111111111111111111111111111111111111111111
col48:  11111111111111111111111111111111111111111111111111111111111111111111111111111111
col49:  11111111111111111111111111111111111111111111111111111111111111111111111111111111
col50:  11111111111111111111111111111111111111111111111111111111111111111111111111111111
col51:  11111111111111111111111111111111111111111111111111111111111111111111111111111111
ROC:    BPix_BmO_SEC6_LYR4_LDR21F_MOD1_ROC9
col00:  11111111111111111111111111111111111111111111111111111111111111111111111111111111
col01:  11111111111111111111111111111111111111111111111111111111111111111111111111111111
col02:  11111111111111111111111111111111111111111111111111111111111111111111111111111111
col03:  11111111111111111111111111111111111111111111111111111111111111111111111111111111
col04:  11111111111111111111111111111111111111111111111111111111111111111111111111111111
col05:  11111111111111111111111111111111111111111111111111111111111111111111111111111111
col06:  11111111111111111111111111111111111111111111111111111111111111111111111111111111
col07:  11111111111111111111111111111111111111111111111111111111111111111111111111111111
col08:  11111111111111111111111111111111111111111111111111111111111111111111111111111111
col09:  11111111111111111111111111111111111111111111111111111111111111111111111111111111
col10:  11111111111111111111111111111111111111111111111111111111111111111111111111111111
col11:  11111111111111111111111111111111111111111111111111111111111111111111111111111111
col12:  11111111111111111111111111111111111111111111111111111111111111111111111111111111
col13:  11111111111111111111111111111111111111111111111111111111111111111111111111111111
col14:  11111111111111111111111111111111111111111111111111111111111111111111111111111111
col15:  11111111111111111111111111111111111111111111111111111111111111111111111111111111
col16:  11111111111111111111111111111111111111111111111111111111111111111111111111111111
col17:  11111111111111111111111111111111111111111111111111111111111111111111111111111111
col18:  11111111111111111111111111111111111111111111111111111111111111111111111111111111
col19:  11111111111111111111111111111111111111111111111111111111111111111111111111111111
col20:  11111111111111111111111111111111111111111111111111111111111111111111111111111111
col21:  11111111111111111111111111111111111111111111111111111111111111111111111111111111
col22:  11111111111111111111111111111111111111111111111111111111111111111111111111111111
col23:  11111111111111111111111111111111111111111111111111111111111111111111111111111111
col24:  11111111111111111111111111111111111111111111111111111111111111111111111111111111
col25:  11111111111111111111111111111111111111111111111111111111111111111111111111111111
col26:  11111111111111111111111111111111111111111111111111111111111111111111111111111111
col27:  11111111111111111111111111111111111111111111111111111111111111111111111111111111
col28:  11111111111111111111111111111111111111111111111111111111111111111111111111111111
col29:  11111111111111111111111111111111111111111111111111111111111111111111111111111111
col30:  11111111111111111111111111111111111111111111111111111111111111111111111111111111
col31:  11111111111111111111111111111111111111111111111111111111111111111111111111111111
col32:  11111111111111111111111111111111111111111111111111111111111111111111111111111111
col33:  11111111111111111111111111111111111111111111111111111111111111111111111111111111
col34:  11111111111111111111111111111111111111111111111111111111111111111111111111111111
col35:  11111111111111111111111111111111111111111111111111111111111111111111111111111111
col36:  11111111111111111111111111111111111111111111111111111111111111111111111111111111
col37:  11111111111111111111111111111111111111111111111111111111111111111111111111111111
col38:  11111111111111111111111111111111111111111111111111111111111111111111111111111111
col39:  11111111111111111111111111111111111111111111111111111111111111111111111111111111
col40:  11111111111111111111111111111111111111111111111111111111111111111111111111111111
col41:  11111111111111111111111111111111111111111111111111111111111111111111111111111111
col42:  11111111111111111111111111111111111111111111111111111111111111111111111111111111
col43:  11111111111111111111111111111111111111111111111111111111111111111111111111111111
col44:  11111111111111111111111111111111111111111111111111111111111111111111111111111111
col45:  11111111111111111111111111111111111111111111111111111111111111111111111111111111
col46:  11111111111111111111111111111111111111111111111111111111111111111111111111111111
col47:  11111111111111111111111111111111111111111111111111111111111111111111111111111111
col48:  11111111111111111111111111111111111111111111111111111111111111111111111111111111
col49:  11111111111111111111111111111111111111111111111111111111111111111111111111111111
col50:  11111111111111111111111111111111111111111111111111111011111111111111111111111111
col51:  11111111111111111111111111111111111111111111111111111111111111111111111111111111
ROC:    BPix_BmO_SEC6_LYR4_LDR21F_MOD1_ROC10
col00:  11111111111111111111111111111111111111111111111111111111111111111111111111111111
col01:  11111111111111111111111111111111111111111111111111111111111111111111111111111111
col02:  11111111111111111111111111111111111111111111111111111111111111111111111111111111
col03:  11111111111111111111111111111111111111111111111111111111111111111111111111111111
col04:  11111111111111111111111111111111111111111111111111111111111111111111111111111111
col05:  11111111111111111111111111111111111111111111111111111111111111111111111111111111
col06:  11111111111111111111111111111111111111111111111111111111111111111111111111111111
col07:  11111111111111111111111111111111111111111111111111111111111111111111111111111111
col08:  11111111111111111111111111111111111111111111111111111111111111111111111111111111
col09:  11111111111111111111111111111111111111111111111111111111111111111111111111111111
col10:  11111111111111111111111111111111111111111111111111111111111111111111111111111111
col11:  11111111111111111111111111111111111111111111111111111111111111111111111111111111
col12:  11111111111111111111111111111111111111111111111111111111111111111111111111111111
col13:  11111111111111111111111111111111111111111111111111111111111111111111111111111111
col14:  11111111111111111111111111111111111111111111111111111111111111111111111111111111
col15:  11111111111111111111111111111111111111111111111111111111111111111111111111111111
col16:  11111111111111111111111111111111111111111111111111111111111111111111111111111111
col17:  11111111111111111111111111111111111111111111111111111111111111111111111111111111
col18:  11111111111111111111111111111111111111111111111111111111111111111111111111111111
col19:  11111111111111111111111111111111111111111111111111111111111111111111111111111111
col20:  11111111111111111111111111111111111111111111111111111111111111111111111111111111
col21:  11111111111111111111111111111111111111111111111111111111111111111111111111111111
col22:  11111111111111111111111111111111111111111111111111111111111111111111111111111111
col23:  11111111111111111111111111111111111111111111111111111111111111111111111111111111
col24:  11111111111111111111111111111111111111111111111111111111111111111111111111111111
col25:  11111111111111111111111111111111111111111111111111111111111111111111111111111111
col26:  11111111111111111111111111111111111111111111111111111111111111111111111111111111
col27:  11111111111111111111111111111111111111111111111111111111111111111111111111111111
col28:  11111111111111111111111111111111111111111111111111111111111111111111111111111111
col29:  11111111111111111111111111111111111111111111111111111111111111111111111111111111
col30:  11111111111111111111111111111111111111111111111111111111111111111111111111111111
col31:  11111111111111111111111111111111111111111111111111111111111111111111111111111111
col32:  11111111111111111111111111111111111111111111111111111111111111111111111111111111
col33:  11111111111111111111111111111111111111111111111111111111111111111111111111111111
col34:  11111111111111111111111111111111111111111111111111111111111111111111111111111111
col35:  11111111111111111111111111111111111111111111111111111111111111111111111111111111
col36:  11111111111111111111111111111111111111111111111111111111111111111111111111111111
col37:  11111111111111111111111111111111111111111111111111111111111111111111111111111111
col38:  11111111111111111111111111111111111111111111111111111111111111111111111111111111
col39:  11111111111111111111111111111111111111111111111111111111111111111111111111111111
col40:  11111111111111111111111111111111111111111111111111111111111111111111111111111111
col41:  11111111111111111111111111111111111111111111111111111111111111111111111111111111
col42:  11111111111111111111111111111111111111111111111111111111111111111111111111111111
col43:  11111111111111111111111111111111111111111111111111111111111111111111111111111111
col44:  11111111111111111111111111111111111111111111111111111111111111111111111111111111
col45:  11111111111111111111111111111111111111111111111111111111111111111111111111111111
col46:  11111111111111111111111111111111111111111111111111111111111111111111111111111111
col47:  11111111111111111111111111111111111111111111111111111111111111111111111111111111
col48:  11111111111111111111111111111111111111111111111111111111111111111111111111111111
col49:  11111111111111111111111111111111111111111111111111111111111111111111111111111111
col50:  11111111111111111111111111111111111111111111111111111111111111111111111111111111
col51:  11111111111111111111111111111111111111111111111111111111111111111111111111111111
ROC:    BPix_BmO_SEC6_LYR4_LDR21F_MOD1_ROC11
col00:  11111111111111111111111111111111111111111111111111111111111111111111111111111111
col01:  11111111111111111111111111111111111111111111111111111111111111111111111111111111
col02:  11111111111111111111111111111111111111111111111111111111111111111111111111111111
col03:  11111111111111111111111111111111111111111111111111111111111111111111111111111111
col04:  11111111111111111111111111111111111111111111111111111111111111111111111111111111
col05:  11111111111111111111111111111111111111111111111111111111111111111111111111111111
col06:  11111111111111111111111111111111111111111111111111111111111111111111111111111111
col07:  11111111111111111111111111111111111111111111111111111111111111111111111111111111
col08:  11111111111111111111111111111111111111111111111111111111111111111111111111111111
col09:  11111111111111111111111111111111111111111111111111111111111111111111111111111111
col10:  11111111111111111111111111111111111111111111111111111111111111111111111111111111
col11:  11111111111111111111111111111111111111111111111111111111111111111111111111111111
col12:  11111111111111111111111111111111111111111111111111111111111111111111111111111111
col13:  11111111111111111111111111111111111111111111111111111111111111111111111111111111
col14:  11111111111111111111111111111111111111111111111111111111111111111111111111111111
col15:  11111111111111111111111111111111111111111111111111111111111111111111111111111111
col16:  11111111111111111111111111111111111111111111111111111111111111111111111111111111
col17:  11111111111111111111111111111111111111111111111111111111111111111111111111111111
col18:  11111111111111111111111111111111111111111111111111111111111111111111111111111111
col19:  11111111111111111111111111111111111111111111111111111111111111111111111111111111
col20:  11111111111111111111111111111111111111111111111111111111111111111111111111111111
col21:  11111111111111111111111111111111111111111111111111111111111111111111111111111111
col22:  11111111111111111111111111111111111111111111111111111111111111111111111111111111
col23:  11111111111111111111111111111111111111111111111111111111111111111111111111111111
col24:  11111111111111111111111111111111111111111111111111111111111111111111111111111111
col25:  11111111111111111111111111111111111111111111111111111111111111111111111111111111
col26:  11111111111111111111111111111111111111111111111111111111111111111111111111111111
col27:  11111111111111111111111111111111111111111111111111111111111111111111111111111111
col28:  11111111111111111111111111111111111111111111111111111111111111111111111111111111
col29:  11111111111111111111111111111111111111111111111111111111111111111111111111111111
col30:  11111111111111111111111111111111111111111111111111111111111111111111111111111111
col31:  11111111111111111111111111111111111111111111111111111111111111111111111111111111
col32:  11111111111111111111111111111111111111111111111111111111111111111111111111111111
col33:  11111111111111111111111111111111111111111111111111111111111111111111111111111111
col34:  11111111111111111111111111111111111111111111111111111111111111111111111111111111
col35:  11111111111111111111111111111111111111111111111111111111111111111111111111111111
col36:  11111111111111111111111111111111111111111111111111111111111111111111111111111111
col37:  11111111111111111111111111111111111111111111111111111111111111111111111111111111
col38:  11111111111111111111111111111111111111111111111111111111111111111111111111111111
col39:  11111111111111111111111111111111111111111111111111111111111111111111111111111111
col40:  11111111111111111111111111111111111111111111111111111111111111111111111111111111
col41:  11111111111111111111111111111111111111111111111111111111111111111111111111111111
col42:  11111111111111111111111111111111111111111111111111111111111111111111111111111111
col43:  11111111111111111111111111111111111111111111111111111111111111111111111111111111
col44:  11111111111111111111111111111111111111111111111111111111111111111111111111111111
col45:  11111111111111111111111111111111111111111111111111111111111111111111111111111111
col46:  11111111111111111111111111111111111111111111111111111111111111111111111111111111
col47:  11111111111111111111111111111111111111111111111111111111111111111111111111111111
col48:  11111111111111111111111111111111111111111111111111111111111111111111111111111111
col49:  11111111111111111111111111111111111111111111111111111111111111111111111111111111
col50:  11111111111111111111111111111111111111111111111111111111111111111111111111111111
col51:  11111111111111111111111111111111111111111111111111111111111111111111111111111111
ROC:    BPix_BmO_SEC6_LYR4_LDR21F_MOD1_ROC12
col00:  11111111111111111111111111111111111111111111111111111111111111111111111111111111
col01:  11111111111111111111111111111111111111111111111111111111111111111111111111111111
col02:  11111111111111111111111111111111111111111111111111111111111111111111111111111111
col03:  11111111111111111111111111111111111111111111111111111111111111111111111111111111
col04:  11111111111111111111111111111111111111111111111111111111111111111111111111111111
col05:  11111111111111111111111111111111111111111111111111111111111111111111111111111111
col06:  11111111111111111111111111111111111111111111111111111111111111111111111111111111
col07:  11111111111111111111111111111111111111111111111111111111111111111111111111111111
col08:  11111111111111111111111111111111111111111111111111111111111111111111111111111111
col09:  11111111111111111111111111111111111111111111111111111111111111111111111111111111
col10:  11111111111111111111111111111111111111111111111111111111111111111111111111111111
col11:  11111111111111111111111111111111111111111111111111111111111111111111111111111111
col12:  11111111111111111111111111111111111111111111111111111111111111111111111111111111
col13:  11111111111111111111111111111111111111111111111111111111111111111111111111111111
col14:  11111111111111111111111111111111111111111111111111111111111111111111111111111111
col15:  11111111111111111111111111111111111111111111111111111111111111111111111111111111
col16:  11111111111111111111111111111111111111111111111111111111111111111111111111111111
col17:  11111111111111111111111111111111111111111111111111111111111111111111111111111111
col18:  11111111111111111111111111111111111111111111111111111111111111111111111111111111
col19:  11111111111111111111111111111111111111111111111111111111111111111111111111111111
col20:  11111111111111111111111111111111111111111111111111111111111111111111111111111111
col21:  11111111111111111111111111111111111111111111111111111111111111111111111111111111
col22:  11111111111111111111111111111111111111111111111111111111111111111111111111111111
col23:  11111111111111111111111111111111111111111111111111111111111111111111111111111111
col24:  11111111111111111111111111111111111111111111111111111111111111111111111111111111
col25:  11111111111111111111111111111111111111111111111111111111111111111111111111111111
col26:  11111111111111111111111111111111111111111111111111111111111111111111111111111111
col27:  11111111111111111111111111111111111111111111111111111111111111111111111111111111
col28:  11111111111111111111111111111111111111111111111111111111111111111111111111111111
col29:  11111111111111111111111111111111111111111111111111111111111111111111111111111111
col30:  11111111111111111111111111111111111111111111111111111111111111111111111111111111
col31:  11111111111111111111111111111111111111111111111111111111111111111111111111111111
col32:  11111111111111111111111111111111111111111111111111111111111111111111111111111111
col33:  11111111111111111111111111111111111111111111111111111111111111111111111111111111
col34:  11111111111111111111111111111111111111111111111111111111111111111111111111111111
col35:  11111111111111111111111111111111111111111111111111111111111111111111111111111111
col36:  11111111111111111111111111111111111111111111111111111111111111111111111111111111
col37:  11111111111111111111111111111111111111111111111111111111111111111111111111111111
col38:  11111111111111111111111111111111111111111111111111111111111111111111111111111111
col39:  11111111111111111111111111111111111111111111111111111111111111111111111111111111
col40:  11111111111111111111111111111111111111111111111111111111111111111111111111111111
col41:  11111111111111111111111111111111111111111111111111111111111111111111111111111111
col42:  11111111111111111111111111111111111111111111111111111111111111111111111111111111
col43:  11111111111111111111111111111111111111111111111111111111111111111111111111111111
col44:  11111111111111111111111111111111111111111111111111111111111111111111111111111111
col45:  11111111111111111111111111111111111111111111111111111111111111111111111111111111
col46:  11111111111111111111111111111111111111111111111111111111111111111111111111111111
col47:  11111111111111111111111111111111111111111111111111111111111111111111111111111111
col48:  11111111111111111111111111111111111111111111111111111111111111111111111111111111
col49:  11111111111111111111111111111111111111111111111111111111111111111111111111111111
col50:  11111111111111111111111111111111111111111111111111111111111111111111111111111111
col51:  11111111111111111111111111111111111111111111111111111111111111111111111111111111
ROC:    BPix_BmO_SEC6_LYR4_LDR21F_MOD1_ROC13
col00:  11111111111111111111111111111111111111111111111111111111111111111111111111111111
col01:  11111111111111111111111111111111111111111111111111111111111111111111111111111111
col02:  11111111111111111111111111111111111111111111111111111111111111111111111111111111
col03:  11111111111111111111111111111111111111111111111111111111111111111111111111111111
col04:  11111111111111111111111111111111111111111111111111111111111111111111111111111111
col05:  11111111111111111111111111111111111111111111111111111111111111111111111111111111
col06:  11111111111111111111111111111111111111111111111111111111111111111111111111111111
col07:  11111111111111111111111111111111111111111111111111111111111111111111111111111111
col08:  11111111111111111111111111111111111111111111111111111111111111111111111111111111
col09:  11111111111111111111111111111111111111111111111111111111111111111111111111111111
col10:  11111111111111111111111111111111111111111111111111111111111111111111111111111111
col11:  11111111111111111111111111111111111111111111111111111111111111111111111111111111
col12:  11111111111111111111111111111111111111111111111111111111111111111111111111111111
col13:  11111111111111111111111111111111111111111111111111111111111111111111111111111111
col14:  11111111111111111111111111111111111111111111111111111111111111111111111111111111
col15:  11111111111111111111111111111111111111111111111111111111111111111111111111111111
col16:  11111111111111111111111111111111111111111111111111111111111111111111111111111111
col17:  11111111111111111111111111111111111111111111111111111111111111111111111111111111
col18:  11111111111111111111111111111111111111111111111111111111111111111111111111111111
col19:  11111111111111111111111111111111111111111111111111111111111111111111111111111111
col20:  11111111111111111111111111111111111111111111111111111111111111111111111111111111
col21:  11111111111111111111111111111111111111111111111111111111111111111111111111111111
col22:  11111111111111111111111111111111111111111111111111111111111111111111111111111111
col23:  11111111111111111111111111111111111111111111111111111111111111111111111111111111
col24:  11111111111111111111111111111111111111111111111111111111111111111111111111111111
col25:  11111111111111111111111111111111111111111111111111111111111111111111111111111111
col26:  11111111111111111111111111111111111111111111111111111111111111111111111111111111
col27:  11111111111111111111111111111111111111111111111111111111111111111111111111111111
col28:  11111111111111111111111111111111111111111111111111111111111111111111111111111111
col29:  11111111111111111111111111111111111111111111111111111111111111111111111111111111
col30:  11111111111111111111111111111111111111111111111111111111111111111111111111111111
col31:  11111111111111111111111111111111111111111111111111111111111111111111111111111111
col32:  11111111111111111111111111111111111111111111111111111111111111111111111111111111
col33:  11111111111111111111111111111111111111111111111111111111111111111111111111111111
col34:  11111111111111111111111111111111111111111111111111111111111111111111111111111111
col35:  11111111111111111111111111111111111111111111111111111111111111111111111111111111
col36:  11111111111111111111111111111111111111111111111111111111111111111111111111111111
col37:  11111111111111111111111111111111111111111111111111111111111111111111111111111111
col38:  11111111111111111111111111111111111111111111111111111111111111111111111111111111
col39:  11111111111111111111111111111111111111111111111111111111111111111111111111111111
col40:  11111111111111111111111111111111111111111111111111111111111111111111111111111111
col41:  11111111111111111111111111111111111111111111111111111111111111111111111111111111
col42:  11111111111111111111111111111111111111111111111111111111111111111111111111111111
col43:  11111111111111111111111111111111111111111111111111111111111111111111111111111111
col44:  11111111111111111111111111111111111111111111111111111111111111111111111111111111
col45:  11111111111111111111111111111111111111111111111111111111111111111111111111111111
col46:  11111111111111111111111111111111111111111111111111111111111111111111111111111111
col47:  11111111111111111111111111111111111111111111111111111111111111111111111111111111
col48:  11111111111111111111111111111111111111111111111111111111111111111111111111111111
col49:  11111111111111111111111111111111111111111111111111111111111111111111111111111111
col50:  11111111111111111111111111111111111111111111111111111111111111111111111111111111
col51:  11111111111111111111111111111111111111111111111111111111111111111111111111111111
ROC:    BPix_BmO_SEC6_LYR4_LDR21F_MOD1_ROC14
col00:  11111111111111111111111111111111111111111111111111111111111111111111111111111111
col01:  11111111111111111111111111111111111111111111111111111111111111111111111111111111
col02:  11111111111111111111111111111111111111111111111111111111111111111111111111111111
col03:  11111111111111111111111111111111111111111111111111111111111111111111111111111111
col04:  11111111111111111111111111111111111111111111111111111111111111111111111111111111
col05:  11111111111111111111111111111111111111111111111111111111111111111111111111111111
col06:  11111111111111111111111111111111111111111111111111111111111111111111111111111111
col07:  11111111111111111111111111111111111111111111111111111111111111111111111111111111
col08:  11111111111111111111111111111111111111111111111111111111111111111111111111111111
col09:  11111111111111111111111111111111111111111111111111111111111111111111111111111111
col10:  11111111111111111111111111111111111111111111111111111111111111111111111111111111
col11:  11111111111111111111111111111111111111111111111111111111111111111111111111111111
col12:  11111111111111111111111111111111111111111111111111111111111111111111111111111111
col13:  11111111111111111111111111111111111111111111111111111111111111111111111111111111
col14:  11111111111111111111111111111111111111111111111111111111111111111111111111111111
col15:  11111111111111111111111111111111111111111111111111111111111111111111111111111111
col16:  11111111111111111111111111111111111111111111111111111111111111111111111111111111
col17:  11111111111111111111111111111111111111111111111111111111111111111111111111111111
col18:  11111111111111111111111111111111111111111111111111111111111111111111111111111111
col19:  11111111111111111111111111111111111111111111111111111111111111111111111111111111
col20:  11111111111111111111111111111111111111111111111111111111111111111111111111111111
col21:  11111111111111111111111111111111111111111111111111111111111111111111111111111111
col22:  11111111111111111111111111111111111111111111111111111111111111111111111111111111
col23:  11111111111111111111111111111111111111111111111111111111111111111111111111111111
col24:  11111111111111111111111111111111111111111111111111111111111111111111111111111111
col25:  11111111111111111111111111111111111111111111111111111111111111111111111111111111
col26:  11111111111111111111111111111111111111111111111111111111111111111111111111111111
col27:  11111111111111111111111111111111111111111111111111111111111111111111111111111111
col28:  11111111111111111111111111111111111111111111111111111111111111111111111111111111
col29:  11111111111111111111111111111111111111111111111111111111111111111111111111111111
col30:  11111111111111111111111111111111111111111111111111111111111111111111111111111111
col31:  11111111111111111111111111111111111111111111111111111111111111111111111111111111
col32:  11111111111111111111111111111111111111111111111111111111111111111111111111111111
col33:  11111111111111111111111111111111111111111111111111111111111111111111111111111111
col34:  11111111111111111111111111111111111111111111111111111111111111111111111111111111
col35:  11111111111111111111111111111111111111111111111111111111111111111111111111111111
col36:  11111111111111111111111111111111111111111111111111111111111111111111111111111111
col37:  11111111111111111111111111111111111111111111111111111111111111111111111111111111
col38:  11111111111111111111111111111111111111111111111111111111111111111111111111111111
col39:  11111111111111111111111111111111111111111111111111111111111111111111111111111111
col40:  11111111111111111111111111111111111111111111111111111111111111111111111111111111
col41:  11111111111111111111111111111111111111111111111111111111111111111111111111111111
col42:  11111111111111111111111111111111111111111111111111111111111111111111111111111111
col43:  11111111111111111111111111111111111111111111111111111111111111111111111111111111
col44:  11111111111111111111111111111111111111111111111111111111111111111111111111111111
col45:  11111111111111111111111111111111111111111111111111111111111111111111111111111111
col46:  11111111111111111111111111111111111111111111111111111111111111111111111111111111
col47:  11111111111111111111111111111111111111111111111111111111111111111111111111111111
col48:  11111111111111111111111111111111111111111111111111111111111111111111111111111111
col49:  11111111111111111111111111111111111111111111111111111111111111111111111111111111
col50:  11111111111111111111111111111111111111111111111111111111111111111111111111111111
col51:  11111111111111111111111111111111111111111111111111111111111111111111111111111111
ROC:    BPix_BmO_SEC6_LYR4_LDR21F_MOD1_ROC15
col00:  11111111111111111111111111111111111111111111111111111111111111111111111111111111
col01:  11111111111111111111111111111111111111111111111111111111111111111111111111111111
col02:  11111111111111111111111111111111111111111111111111111111111111111111111111111111
col03:  11111111111111111111111111111111111111111111111111111111111111111111111111111111
col04:  11111111111111111111111111111111111111111111111111111111111111111111111111111111
col05:  11111111111111111111111111111111111111111111111111111111111111111111111111111111
col06:  11111111111111111111111111111111111111111111111111111111111111111111111111111111
col07:  11111111111111111111111111111111111111111111111111111111111111111111111111111111
col08:  11111111111111111111111111111111111111111111111111111111111111111111111111111111
col09:  11111111111111111111111111111111111111111111111111111111111111111111111111111111
col10:  11111111111111111111111111111111111111111111111111111111111111111111111111111111
col11:  11111111111111111111111111111111111111111111111111111111111111111111111111111111
col12:  11111111111111111111111111111111111111111111111111111111111111111111111111111111
col13:  11111111111111111111111111111111111111111111111111111111111111111111111111111111
col14:  11111111111111111111111111111111111111111111111111111111111111111111111111111111
col15:  11111111111111111111111111111111111111111111111111111111111111111111111111111111
col16:  11111111111111111111111111111111111111111111111111111111111111111111111111111111
col17:  11111111111111111111111111111111111111111111111111111111111111111111111111111111
col18:  11111111111111111111111111111111111111111111111111111111111111111111111111111111
col19:  11111111111111111111111111111111111111111111111111111111111111111111111111111111
col20:  11111111111111111111111111111111111111111111111111111111111111111111111111111111
col21:  11111111111111111111111111111111111111111111111111111111111111111111111111111111
col22:  11111111111111111111111111111111111111111111111111111111111111111111111111111111
col23:  11111111111111111111111111111111111111111111111111111111111111111111111111111111
col24:  11111111111111111111111111111111111111111111111111111111111111111111111111111111
col25:  11111111111111111111111111111111111111111111111111111111111111111111111111111111
col26:  11111111111111111111111111111111111111111111111111111111111111111111111111111111
col27:  11111111111111111111111111111111111111111111111111111111111111111111111111111111
col28:  11111111111111111111111111111111111111111111111111111111111111111111111111111111
col29:  11111111111111111111111111111111111111111111111111111111111111111111111111111111
col30:  11111111111111111111111111111111111111111111111111111111111111111111111111111111
col31:  11111111111111111111111111111111111111111111111111111111111111111111111111111111
col32:  11111111111111111111111111111111111111111111111111111111111111111111111111111111
col33:  11111111111111111111111111111111111111111111111111111111111111111111111111111111
col34:  11111111111111111111111111111111111111111111111111111111111111111111111111111111
col35:  11111111111111111111111111111111111111111111111111111111111111111111111111111111
col36:  11111111111111111111111111111111111111111111111111111111111111111111111111111111
col37:  11111111111111111111111111111111111111111111111111111111111111111111111111111111
col38:  11111111111111111111111111111111111111111111111111111111111111111111111111111111
col39:  11111111111111111111111111111111111111111111111111111111111111111111111111111111
col40:  11111111111111111111111111111111111111111111111111111111111111111111111111111111
col41:  11111111111111111111111111111111111111111111111111111111111111111111111111111111
col42:  11111111111111111111111111111111111111111111111111111111111111111111111111111111
col43:  11111111111111111111111111111111111111111111111111111111111111111111111111111111
col44:  11111111111111111111111111111111111111111111111111111111111111111111111111111111
col45:  11111111111111111111111111111111111111111111111111111111111111111111111111111111
col46:  11111111111111111111111111111111111111111111111111111111111111111111111111111111
col47:  11111111111111111111111111111111111111111111111111111111111111111111111111111111
col48:  11111111111111111111111111111111111111111111111111111111111111111111111111111111
col49:  11111111111111111111111111111111111111111111111111111111111111111111111111111111
col50:  11111111111111111111111111111111111111111111111111111111111111111111111111111111
col51:  11111111111111111111111111111111111111111111111111111111111111111111111111111111
