ROC:	 BPix_BpI_SEC6_LYR1_LDR5H_MOD3_ROC4
col00:   34151441482647c65466843789d7795ad743b769a658686338a54585475b556938bb678669367443
col01:   6793446a8c1554766c3a62497dc62955ae7664a8b9aa76bba75a7779ebbbbe86799776887457a689
col02:   475828497713a2388359358bb862695aab969f86a83c5ab84cc4d49b879bb554abe8c97989987936
col03:   67388987d58912588e6ba78c8ab7abd766a9c8ac8d94b849a758867a9678dad96a75a47846595abb
col04:   8847611875843697c76536564544767a5f9985678a3b819585a7ea8aaaa55b778b977b65628335b1
col05:   35488c958a86638d897796c7b318b79d598a76844c8b7b88d9b9ada961985b8889778577a689848a
col06:   4525346892697654965c5984a5794a896553595eb7a5846652bd34aa869675a6954dd6a594478169
col07:   96b66335219994673836a77d67ba968878a597c5bfbac898daba4a4f78d8388bcb8b87e8a7da46c9
col08:   a6467412354b5779658675ac89bbc9b5996cdba8bd4ae8a9c679cb7b8a79478d7a8978c266aa5246
col09:   57914869656757948ac5c1598a746574fab6bc97b7cabb9c7da9c6af6b86b76cc398998337c78a18
col10:   3b694325696555637b9296b576689976569a7d5b868c6aa6696aca9f87683868a975a67365a75954
col11:   665925475319789898aaba99174c657d65b789298598a598b79b979c7adb7a78b8755657c7485799
col12:   512179544748241874b998a959b8589979aabf52c996895485a85b96285585a794c786116ab56951
col13:   a312a25684846757b588886a77566a9c8b9bb7b959dab9878da8cbc9b9a9cc8ac86b68b455998737
col14:   431163463466377979d778257a94a5ab77b9b98aabe8ae76655886af3923748ab9b22281b4898779
col15:   1735524793b69784d798e6a5a8c7899e59ec4a9ddca8ccc6ba85e788488665469875ac96961399a7
col16:   533277a4464833496897a4b22bd8ad6eccb98eb8b8a769b7658c488a88a92636aa96534566841753
col17:   35376342294c7899b837526396ca777de97b9ba65cb7e9bbb4b8b7896696b9c276a9877341572586
col18:   4115262a1169327467946a5a8a9ee899858676a517889858f8895c77a68595aa9688a47868736549
col19:   3124644345624678b6982544b1bb7893a97369c487da7cbb9aa9bb999688766a6996639553473195
col20:   259535676187679195689879a6a6678cba63a9766b9b8aa6ecadc579986378676477656443217b5b
col21:   95627523a8b488a4887897777eb7798a88ca9ca5e9b88aeacc8a758a865dd59a97b71a46c886834a
col22:   8a6546153859787b765965a56b37558da9da569abb8aab6b9498abd3594771b86c8b754738673457
col23:   37463a5746995a49587bbab344aaa4b887cc5588799784987bd6bbb67fa967ee88b91aa7ca8f59a5
col24:   73482467786886779997877969973a8941ab676884b777c3e9bd76c4b7b498aa485ab2c7a5267447
col25:   766d99783a96894e646d98559bc78a6999c77cb989ba2b65667ad7fd97dba7e59aabb5a5768aaa9a
col26:   53361577884779bbc45b79658a84287a855766998999ab58565997b9b8c97b1b9cae89b86a735b98
col27:   76971b6639349bbdbba8b978bc99c42a6c7e5c788a9e9b9997cfa9fb84a98c85d82abba9d899b5b6
col28:   378a965a878955b9b89966973bb468a3bf69adbc94cbb99f88a59dabfe688ac996efaea8b366c579
col29:   cbb29a98a7a75a48999c85fdaa9ed579ea67977fbafacd97997c998bd8dd6b9ba9bbd7ebc6967a57
col30:   468665acb88e9c86667759887b9bb6889627a39948549b3aa7db8dda9995845cb69abd776a969988
col31:   867895988abdada68a8bb97bec9ba5bf7aab9a6d8e8dae9bf6fb798cacfcd9aaac99b9a989b9c8f8
col32:   8686558b95b789b649596c686bc89cb988bca6b8a866489cca986b97995e997abbbca8669778fa96
col33:   6398863949a8a9877968ab6d9a9eba78fb78ac985bbb7aabcc4aed8798cfa97cddcb9b86ebdd8676
col34:   71864163853a8a6e6d6c9bcbe7a8b8a76c3967bc98a9aa7978e6cfccc3c878dcbcfd9c77db7cd9ab
col35:   659a456749657969cdd9376dcbc9cdd88aab87b8caccd988eddc7eb78bab9676fd979c7bf99daa9b
col36:   8b7869877796a8388bfb99a9aa47988c8edbbbbdbc8be7a79bbf7ccdbbc8867ba789798cdedba97a
col37:   9ac7499875a9a5dbbb8cd7c7ad7deba78baa98cb8bfb8bf6ddebfdb68ecb7ddada9dd6dbdeaba8aa
col38:   6ba8689447b5868bcfa5a569785bbb5cd7515f87b6aabf87ad6689abbbaac5b8a97c88acc97678c6
col39:   a26866d1d75b948b89a3ab9ad7698c9a69aeac979dfdfcf9e99a9bc9c7d7bff79cb9babcba7bbb57
col40:   b849899f8aa7a9bddaa896727898a9ad9a77e7e958fcad6aac9cdeadbb99ee8aaa9c8d8c9fe9ccd8
col41:   b86d8a37f59daa8da67cabad99afc5ce9d99fcddb7c8ecfcbbfbaafbb7aeac9ac96b9edfecda9967
col42:   1976986caba979ae9dc9587daac75a3bc87bdbbbeacaba6b7eeaeb9adf5ae987b6e6a8b9eac96dd8
col43:   c5ab7a644cbab8c7e9abab7b98ca8b9f6afb9bcdbcbcefd9baedb8dbbbdbec9bdcbcd68fdb7d98a8
col44:   b65aac58cf67d8d8757d9a7a9dc86bfbe8eacade9fd4a6a9d9d9fd88af9a9bbbfdb9cacff9cacabc
col45:   99ab8d8b8cdd9777c98aaac89eacaacde4cabecfaeef7b979ce79f9afaa3989bab9eb4dbfdad9969
col46:   9ad65b7bb99d7a5df9aba9bf69889cc7c99bafa5f7eb9aa6cd8aa9dba58cc3abb8ca4a7ba868ca99
col47:   9d51a6a9bc8d7bdab7accdcac8cf9dbdce9bcccabdfbabdadb5fb5ff89c9ced9e8faf49dcebcadd7
col48:   b6537bae9d86ca5da67679b99dc6babddb6d8db9bcdbaa5bfedee999ee4a7db974485dd9bd6e7a7a
col49:   9374965bbc6fcaa777b8edc8a8ebcec8bafc9feccaefdeffbefafd9cb9acafbab76f7af9ccdd99e6
col50:   35794a4b3ca87ea9bba9ce7c67b5757878c97cb7a69b9eddacc3ccddd9897ca49b8b67fbdbbffa84
col51:   3475b88ba796a989a8487bbc8bc9dacc78adc758bbf8caadcbdfbfcbde7b7dd8858c96cebbbbcaab
ROC:	 BPix_BpI_SEC6_LYR1_LDR5H_MOD3_ROC5
col00:   6256287766bc78476bb8c85b8b5bbd7b6b5b8bb67bbc9bdbcb8bbb8678cbb7bd988f8bb78b7b797d
col01:   e7b768ab948866bb896dac7b78b77b7596bb87ccbbbc6cb9c8c7d8c5c9b9b778b7b8bbb998b9babb
col02:   846667565777598b87b9dbbcb98b8b87995b96cbbe9c7b8dac4dc8fde6bbfab7bc5988b87f979bbb
col03:   6893458848b678bc89bb89c9bc699cb6cbba6679b9bdbbb6bcc7cc88dbb8bbdceeb9c77f89db9bbb
col04:   8766676b74c89bbba7bbb968bcbb6ee97d9b89cbb8bbbb8ebbbebbdccbb9c527dcbbbbbbbc93bb88
col05:   b79b7786b8bb8d58b88b788bdc9b5b58b97e6bfbe7ccdbbbdcb7cbdbdcb87cdbebbc8cb95bb4cb97
col06:   9556bb95587699c8997799b6c88b9d7b9cbcabbbabb6eb87db7cdcdceecbccbebbb7889598678ecc
col07:   b855868b573d897a86bb576f8c86eb7bab9bb97a9ebbbb889dbbdcfbdb9bd8e8d97dd74b78ec6789
col08:   87488bb8579bb6436abc78b6b7fbbe57c5babcb9bb9eb8bbbdd8988dcdbbb8bbcb7cbcb9bbb8b987
col09:   67c7bbb47794b766cbc87bdbcb97cdccbdbbcd9fbc9cb99bfb99cbb9c9cbfbc9ecbdc9bc9d9c7b8b
col10:   5786986bb7a58b88779bbc77cbbbc98b6bbbbdffbddb9bb9eec9cdecbcb9da9b7b3bd9d8de77cb8b
col11:   8638bb66a28b6874bb5ddb99bbb6d99ebbbbcbe9ce8cefecbefbeabcdfec7cebccebc9cb8bbd99f6
col12:   677c9666786777c9cf7a8cbb77b7bb9b97c9bb8bdaab8cdbbec7cc7bd97dc8f8bc5878b89bda9bef
col13:   789b97dc868a98a98379bbb954d8b79bbbbbbbfbabb9c5b87bebecb9bbba9bdf8bcb988e6b9bbbbb
col14:   87856675747b978bd88b96b799978cbdbdfb97ecbebd7acfbccbbbccdbbbb9e9b879cb6b59cb9cbc
col15:   88586b886966b75bca7b8cbbc7bb49bbc7c89dbefbecbbb88babf9fdcebecc8cdbdfb97987bbec97
col16:   4665786646586985cb7e98bbb8896bbc88beb9cbcbfc67bb9bcbdbbbc6bccbc9c8a96c6b8b767b78
col17:   4877657b78bbb793d77bbb8cbbba6bbbacbbbbbc9ebc9adcdbeb9cbbeedfc7c9fbf7bebbcbc99bc8
col18:   88764866b5d8769bc99b68b88ab7c9a7b5bb7fdcdecdbdf79bbcbbcb7dd9bf98dcd7bbb677d59cb4
col19:   88bb6769c66bb9998988bc98cab8bc98bb9ad987c9cbbcb8bf7dbbc8bccc989d7bddbabbcebb899b
col20:   6785943788966887c8bb8b9b88d895b99c87bb9bbbdcbbbdebc8bbbb9c998bc99b9bbb9cbcbbb697
col21:   634686bb96bbb86767bbbb9c8b888da9abacabcb998a9a9cdabedbdcc9bcbb9ebbecd8b79c6d778b
col22:   6767898967784b58b9e84b9d9b999c8bc55a88bc9cdbbab9fdebcb899b9a67b7dcbdb9bb7369778d
col23:   6885b6978b7b9b5598b8da8cbcaa9abdbb89fefb88abcdef5bbcbdb9b9659ccbc9bc9bbe9b96bcfb
col24:   b87756596c89a79a667cbbbb9d8d9aaf999ca79eb997bb899ba9999cbcbcbcebcbdbe97bbeb9ead8
col25:   9a86677574778aba9c9b88989c7adbb8dca7eaf9abb9ceecdad7ab9bbccbcabbccc9bdbedcecbbbb
col26:   19979597698b97b47b49adbc8aebce85889b8da9b8dfbbbfcb9bbfdac89c9dac8b95dbadbbcad6b8
col27:   879978ad859a4b89bdc8b8abb8c7dbbb9bbccbcbbfbcaded7bcfbbbccecfeff9ddcfd9dedecba879
col28:   9bb9b6882aa586679a9ac67abbd9ba99cba9bbcac98bdac78cdbd7cbcbffb7bbbcd6bb99bbb778eb
col29:   859988c9877f5b378a899ccbacd7cacbdfbcbc7bbcdbeb6ebb9cb98bc9ffbcccecfbbba8bb88bccb
col30:   8b89c77c6878eb78a89bbbabccbb99dcbbeeb8997dfd999bdee9cc8bbebbedfbc9ddb8befddd8abb
col31:   58db685789bbbe6bbcbecbdcefc9e8fbdedcfabdbbdee9ebc8ac8fcb9fbdb6bc8dfbc9cbabbbbbdb
col32:   b99b89684bc95679bbb9c9cbccefada68cebcc87beb979dcbbca8bdbbbbc8cc7bdabf8bdb7bb7c9d
col33:   6a58899899659b96abb9ba8bbdafd7dd9bbdb9cfb9c9bffddabb9c9cc98bbe9db9cfbecbdbb6bc85
col34:   58977ba5997675b98bdde5cdba9b96bbcbdebbdb8cf95abbdc7becfbabdddbdceedcbb9bb8bb9bcb
col35:   9746e9bb86ba9ccb5bcadc99bfbd9be9e7c9abe9eaebdadddcbdaacecd99fdc9cabc8dd9bd6bbacc
col36:   7d7b6bb99bcdc999bb9cf979dd789dcedcb9ebdccbdbd9bdff8ceede95cef8fe9ccab7bbbbabbc87
col37:   a9a7cc9b78bdcbdb8f9b9ab9bbaeceebbcecbcfebee9bcffccbc6ab78e7a9bdfba9bbde9b9bbbbdb
col38:   777b8d9b769d8a6bb9cd9adb9bdbbfff989ffbcddbefbccbebcbfffbfb4b898b97afd78bc88fbdcb
col39:   b9bb9dc9999bba97cc79cabffacc9fdbcdbbccddcfbcbccbfce9dbcbdadcb9ebdcbadfe97aeceee9
col40:   3878bb857f8acfa9abb699babb9bcbc5aacd8bbbfc9e9badbd7a589becebbbbbbbac9dbcbc79d9b9
col41:   998879845a948cecbc89f9bdadbbbadadbab69c8e8c9b99f9ecac7b9c99d9bebbf7bb7dbbbbbdbaa
col42:   bcbb8ca972798babcb6baabe78ccddda8a8daacdccbb97fdcaed8bf6cbc8cdbecec6fcbe8c9bfbb6
col43:   4288cbb968e86b79cae5dbd9dbdebbf6bbbb9ba9d99bccf9cfedfdcbbd9dfbbebdbefd6b97dbcddb
col44:   7ebb68b6b8bb7bc8898c5c6bbd8bab9cba8ab9cbdacb79dabd8ebbddea9999cab76ea6abbcacbb6b
col45:   5a795babc77ae947ba86ebadb9caddeaefeceec9cedcbbbd9cabddc899ebb7bbadbba9bb9dcfbbbb
col46:   98644789cd6b7cdbcb8bc889b8b8ddadb9b9fdbdccfbcdbccff7beba9eeecedd9bcddbd9b99bbcb6
col47:   b99abc87996b75bb8929adc8d68bbabb7cbdbbefc989cdfbe9dbce7dbbcbbb8ccbe7b6e888e79bbb
col48:   a77899b977969c9c7b9ceacbcbbdc9e9e8bbbb9afef89eabefdee8dedcb8bbcbc9cdbbbb9bb868b7
col49:   8b9bbcc986bd8adc9bcaaaba89bbdedb9aabfbbbcccebbbccd99b8eecebfbffb8abd89feb8bfbdd9
col50:   868dbab7776cbd9bb979bacb879976fbfba9dbcbadbadb9dbe96dff96cb9db8bc9b9edb9cb4bbb78
col51:   9c7b78b7b6bdb9c77d9bdbcbdbbfbbececbbdbbbb9dfeddccb8dbcbbbbbbd9d99cbb9edbb6bc6bcb
ROC:	 BPix_BpI_SEC6_LYR1_LDR5H_MOD3_ROC6
col00:   32b632649686846683aa78be9798677979b6678ba8bd64989878abbb9cdb98ec89ec8bb7997abb78
col01:   76797778588c88975ba77699ccafa9e7b8ad5b9cb89bb9ced9b89b9697889beaacc7c9ab9adaacbc
col02:   7839654787355697448277bdc8cca7ebc7cac76cb8ca9cbc9d7bb9bda6dabcaaeaa9b8d9786a8768
col03:   a88a7a8a7bd76a69c857966bb8abba5be7aa6a5abb6dccca78ed79b8b9b8ac6acaea6a88de9ac5a7
col04:   a499986689576c8768d8aa7d8aaba98b9ccf6cca79addbcbb8cba6caab97c6aabbdc9ac7bab59797
col05:   4a8ab678aa777649629b89b88aad46acb987f5c9a9caaa8dd99b5b99cfc99ac7ba899ab96cda9b9a
col06:   4a8a9a8655ccd95b8a7a9bdbbb7c7699eb9abbdcbbdda98ebbc9e898bd97d7bbcbcb89d999885996
col07:   798ef7eab499bb8a859a8ab8bcc9dbdfa7b9a6b9bc79b889ab7dcbbbca9ecca67b9eaaf9b7ac999e
col08:   9a49684998ba8766889b9a76daae97fba9efba97e9e8dbeda9dbaa8ca9cbcadacecd6b7a9c852bba
col09:   9baa79d7858b66a79bc899986b89d99a98bba9d6fddab9fcbcbdd8e9e98eb9b9aaa6ab8cdbcba76b
col10:   99d5767f9d7389385b78aa6b9849dc8b97de8cbc98ab87cc78e9acbc9abbadbdeabadbaaacaad5a8
col11:   365b8877d7a7cba6c7a989696a9fabca9c9db8b88dfad8ccb9bcbabd8dfccc8deef7cbab9b9886a8
col12:   55576957a8a97acb68b8aa7b7ab9ff74679cbe89ca7aafafdc5bcce9cbdc997866a9e9ba9d9ba6ab
col13:   84c893a7757a5975bc96ac8a7bab6b99bbbfab8cb6abb8c8acd6cdfaddf8d9fbc79bd9ba9c99b8c9
col14:   8663d8b43757aca57a8ca88ccabea89cbb69bab96a67caaaa899fcdbccba48bdebd89ccb6889999c
col15:   9986a8ae7a9a98a7eabc7bca7aa999baddbcb9cb99b9bd9db99bc7d7baeecb9a99ad97aabb96c9e7
col16:   6738689928659accbc989b66a98cadcb7dcd9dba7dd8be8acfba9dd968d788b8dcaaaaa7ddbd499e
col17:   982585678967acab8cba7baa998c78ba7bcbb89bacdbabfa7b99ebed97bfba99e9aab55d9abbbacc
col18:   71aa25788885898a89bbdab9997b9abd8abd7c78aab9aca87b8d8a9ac9b6a36a6f9abaa9bbbb96b9
col19:   72d788669787878c7cb85998dbd6b9c8bab97e6aad8868abecdccaecacdab9a8cb8ed9cfa97c9b9c
col20:   48c887b7379a7b98d68d88cb77abeaa7bb9cbaecdb996cdb9c9cccc9bebccbd9999aecce8bc8bbae
col21:   86988888959b787b97b8d5bb9aa88eb6dc7bba88aa6cbcbabaabbe9aacbacaac8a8fb7c8875b9dea
col22:   88bcc5852994abb88697988c897b9dafb989fbbbb9cdcbd878bcafdcffccbccabbecfc7a69bbbaa9
col23:   a787aaaa7a587c9abb5fea649bd9cb6da75a6ba9bdcbddebad8fbf7cbdcaddad7cc99a8ba8acc89b
col24:   98768a6889a7889aacaa873a857ba8abcb9aca78bbaadbecabdfeacbbcbacd7b98cdbca9998a89d9
col25:   88bc9ba776c798adb9cbc9e5ccaa8cab9dcf6bc89c9ebbbcbbe8bcdda8bdaabb8bc5cbb8bcd7bcbb
col26:   a7a87bb78669977b9af87aa99aa9d99f8bbcbbdea8aaaa9dbdac7dfcfcdec8ab8dbcdaec8baecdca
col27:   c8996a94878a979a7b4696adcddbbb68ada9ecdbdfb8cdbcbcfdbbed9bacfacaabbcbaba98bbb77d
col28:   a88cab58c8b9a6b769bd8dbcbc8cddb9b99fdeb79afcbccaababf8ffcaeccc9dbcacbccf7e6dbb7a
col29:   557598bbcdaba7ac7b77aaccefdccdfd8eacddcdbeb9ab6aeffcbe7e9edecafbb9ccdeaacac9acd9
col30:   736ba658c5a8b97798a99ba8cdd5cbacbdaa99ced9bbbbdfceacdefbff9b9dcddcbfeeacdecdab88
col31:   6b78765aaba68b88559cbb8b9e9fdafcaedcdbabbacbb5caa96c9cecffccdadba5ceaefdd9ef8ace
col32:   5776a798b855989a6a6ea9999dfedebfbbc7cfd9bdcacc8eccdeafddfbefabef9dc9a9b9cbedbcce
col33:   9979799998b78accaa98aabeaddcdbbfdaadbdcdad8a9adecd9ccfbabad77beebdb8d99efad9adcb
col34:   7b72c8ba7b86c97bacbecb98b6b9c9ddebeccbfedeb8b8cbbacbbb9afdcacceabcacedcbdbbee9cc
col35:   85888a958a9dda9c9cbc7bc9a9c9baa8ad9bb9dabbbaabf9ebbfedfcaedcccededbecccfeae7dba8
col36:   777cd8b9689c898595dbccc87aaafe8d7ce8b8a9cfadeaeccf9bc85ceefbaed8de7cbdddcbeaceaf
col37:   ab5a9aa99a999b6a8f9adbabd79b9adcd9aeb7cdfcaccc8cbdecdbdbd7b99affcb6aefcac8c9bbac
col38:   8597897776bd9d667fb9c49989dddcdb8e99dacb9bfcfeeebacceebe9dbddda8cdddbcbbf7e8bddb
col39:   8dabb98da99a79b9aa8c9f8cbc9adb9badb8ede8dbccbfcebdfbff6fdceaddeeebbcfd6bacca7ced
col40:   998dc88c978d8777bbbaa6bc7cad7afbcdaabaabdadbbdacdcbbdd9cb9c7beddcf878bfccb9a8a99
col41:   6ae987a9c7ab77a8999cdd9ffbdcd99aabcdaacff8bceccadfefbabcccb8deddcddfbbd8bfdbf8eb
col42:   6798778ba79ccb7ac9bbbbc9ab8dad8dcd9addeddbdecebdffaadc9bdebebaabbacfc8cf9dcdaaca
col43:   79a6a7baa9993b78ababccbaacaeb996aafc9ecdddbd8ceeedf7cfedab9d8cf99cabc8ae9dccedfc
col44:   5c6a8874a9997689f5caabbb95bcccfeaeaaebdeccbebcfeebdcbcfcbfffcbabbacdcf4facdcedec
col45:   987efbd6588a5799778bbaa979ec9dcbb99bce9cddcdabfc8febfbbdbf8cbadeaeccfad9bbbadbc8
col46:   777aab85979e9ad75996caa696b9a8eaa99dafabf9bee9efbcddecf89aa8c9b969bb8ddcfdbdbdaa
col47:   65bcbd8b996cc88839688cb9ba69cacaaaa6a8abcddeddadabdaedfba8c7a7acbadebcecd8b5b9bf
col48:   5a5698759bbaaa7acaadcd8deed9b8bd9ccfcc8dbb9eadba8c8fef8ca6bbf9acab8978d9abccb889
col49:   9976b7bb76a96977999f4b898b9dbfcaab8bcadabbbccceda8eccdbbbbfcedbcee8b99dddccce9ab
col50:   31246a29a7b88a9a8ab9aa9cab9aa9ca688bacb99bcc9daaceeadccdb8abafbcdcab87babdb8adce
col51:   b8a6d76699ba797868aa9ca9eacba9aa7f8c87c97a9d8a9a99cf9d9b9ca5bbb9ee89b9c7a89aaccc
ROC:	 BPix_BpI_SEC6_LYR1_LDR5H_MOD3_ROC7
col00:   66754356766659937939b97b883b778488bb86b96847592b7c4cb6bbb8b869bb468bbbc5b8b52b8b
col01:   3766b8173754747766599596a89edbbc5797b9cbb6f7cbccacb9b9bbb59bade8657dabcbb7b78873
col02:   547436574773755768533b9b7867988b8b8db4885a79c37984497bb9ab997b9b49b9977b99558d66
col03:   417375487685768ac797b5a79a67a63ac8b9c9cdb9668868b8889deb87bbcd879bcbc97a7ab58cc7
col04:   155946b897578588858e9db76b7b58e3b78b97989b98b8cbdbb9c77c8966cb98cab7c5a767e578a9
col05:   13927547973bb7b866ac8b987b95b9ab9b6b9dac9a68688bb9bbc8bbc6abbc9bbccdd89ca4bcc96a
col06:   461666b84898857a8c446bb4968675844b9bbabcb8bc856a8bdd8ae78d899bb7c5cda47bb7697a73
col07:   6665b57978987a9876b797b8ce9875b8786ebdce7cb7a9c8bececbbacabaa8de8aa89b7a6c7789c9
col08:   58677468677967486666aa8b55759978b779a9cc88ab97cb9bbab84c9b997c98dcb4a99a9b9a85a7
col09:   a7893363775a44456868a3894768a58ab99bbb8badc998b7a8edcba89eb78889b9a884d52a859968
col10:   789a735a77977b876979746b798797ba6dbb69be9cc99b7879cca8ccd7988acbabe5297b7d77456b
col11:   4757767586565797b7684578ac69a97aa99bb7c69a79cdaab8eba8abbacbbb98f899bd86db698b88
col12:   66454552684a857d79694579d99886597977b99b79e85a529867b455b79a8437d798879b86a79989
col13:   4784aa96389497a9b8b779ac876596947abaa8a5a8c98aabbaac9877b6b9ba966ab85b865a77a976
col14:   66567b475466569679559629979f7588b5ada57ab88ca9aec878ba988d8aba9a899777bc67973865
col15:   5355766654b56869a9b858c9679cccba9bbca87a7c8bcb996b9a9c9bb798ec7a9a9c95ccc7988d88
col16:   5366655649b486898596b5a65a876baccb99ad88cbbb99a99b98bb7b8ab8997acbcdbb877b877977
col17:   35356455649927777a8aa789b889ac58a97ac7e6ee8babcce5ac8d6a99999b4a9c9398b649a76876
col18:   41785375bb862569576a989e7997a9679698a87aab5bbdba98b7599d934bde9c455a88b669964767
col19:   7456797667976ab4bb89bbb79ba76b7cba97a9ac88b9bfa89a677cfaa8a779bcda97a7879b8868b7
col20:   1687a6456256647765a8a879ab8bbb878578a9b69ba9bb69b6c889db7d766ec987a69c8d79a7b658
col21:   6a565787b5637784c8756558ab9da896a669ca9dac5b8798a7ac8a9a978679aaa7b88ba8879b7588
col22:   543857674a7669a9794596b6a88bb8b47bab9b67a76b89aaa99cb9b89bc58a957568698786989756
col23:   886a5777b976569d4b89985cc8cc99b78aba577568bb69996aababdb99cc89fb9986878488acb887
col24:   16652555ab778457998b7a58c78b86d5a8a7a675c877a89c8b89c9db9ed8767e77e6a97979ca2999
col25:   75767788384688b879b77b9aaba8898ab789c8e387cc9b99b98dcc8aa7abb97aabbd9b7aba97c5c8
col26:   a569867699785786b6ac874689d89468bd7879b789adccc9cbca99bc999ab9bbdb9cb9babad893c7
col27:   c778878999a788cc79958a3967a78a756b865a948d6adaac689ae7aacacb8b9cbb9a7bcb97b89979
col28:   766978953a778b89bc7a8bc69988a8499b9ada79b7d8b8858aadc8abccf8fdbdbabcc7a7bcabd837
col29:   7a86a6a8b4a8adb798abd4cd6a9b8998b88a9997c7bccac59a887bfbbaba9b7666ce99b99ab9b9b9
col30:   638886964ac86a76566c88964984bb77aaebe9a8988bbac9aa9bb8bcaa4ae886c59ab759ba799b96
col31:   7945b5aa7b787e95797a76899db7a85a8b9d9bb8b8bb66c87bb99b7b9aadda7bb9c9a9ba88ac7965
col32:   9969b7a99895eb887fc77b997ad67a7a66688bda5e865bacac898bbb8bd8a89baa7bba9aa87aa856
col33:   76579a5997957b7c38a5ac7a8a6a7999bc967798b499cb95bda8bc88d8ab78bdab9c88889aab8568
col34:   6588b5aa78bb66fb786ab85b87c9d9cbb97a77c886c99aea89aaa98bcbd988daca9889aabca99cbc
col35:   6878758b9888568a6b9a6789aafaa9ba8bbbb88ab9bb8ac9d9fbe7abdb9ba96898dac8dccdee9d96
col36:   a8a8787838988479b4786abb6ca987476989876b76a6e9998bb7a8b9cc9b9da9dbdfdacac9da9ca9
col37:   58674a36579b759b9aeaaae7b786ab7ba9ab8a8bcaccaa8cdcbca9cbcdf9bc9997ac8ac9bceda985
col38:   58aa5866b77946a79bc9999975ea8bb67ba78966bc58fba99bba9bacc9ea68c8d9ba8acaeabcc827
col39:   47bc9a9689bb8c9797ba8695b878a98d7b7bbca98cabfe7aacdadb8eb8bbad8b4beb9bfd8ddcecb9
col40:   5443b8a9a6a9b876bbb8b48d5c7aba89c8b97996a7aebaab8a89bfcaceb7b89bae87ccbaa9abbb97
col41:   678b99b75bbc8a987ab887da9bcaba99adfa9b6887dcacac9bf9faddaaee8cb8998cad9bbbdbfc99
col42:   799998a88a6a9a376a58888cd8aaa99abcaae9d75396d8bcb8cdcafd7bd779bc7998787bed77c967
col43:   5988cb6b7d985aa8baa7aa54a8ccbbbb7dc9c8ead9a9caaeba7c8cbaabdcbd78f9cbc8acd6ad799b
col44:   b5739caa988ba399a9a99798959789bdb988f8cdcc8988cd7dbbd7999efcc6aa89c9c9daaea9bc99
col45:   699999688a6d7cab97ca6a79cab987bac7cd7cc998beab8a63cc8dbcbbbaa7ccac7bb8a9ab5afcbb
col46:   49796869eb796a8d48abab99dc8c9986aa9dbacc8dccb8d7a9bcaeef98a8cbac8b7886a9aada5b68
col47:   475b8698a9a698586999a976b887e9949799eddc7dcaff9a8bac8aff9898acba97a7bd5bdacac6b9
col48:   789587588688998b9fda7a7768b95aa79a7dea6988c77daeaeac9deb9bbb7ac89988b989bcb7b987
col49:   5649968a8de688b9b79acb759b87c8d8ba7d868fb77b9acc9bb9ecdeaba59ab979acb7c7cc9c87ba
col50:   57c836869ba9b9978b9cbb57a96498b7b4c69baaccc79ba9dabcc9f6bbc77c7ccecc698dca689b77
col51:   bd454fbbd585cd59b7b9b7885689bbc6b9b89bbbb4cbcb5db7d9bbdaa77fd9b7889a9879b84b948b
ROC:	 BPix_BpI_SEC6_LYR1_LDR5H_MOD3_ROC8
col00:   457269645663b353b7657978675b9b788d6859568d6787bb699db95cc78e7b5b6b776bb8b6779b58
col01:   7535b678746627caa5a78b7b88a8b96566aa835d56887b6999b6b8d9c8c98bb9a96b679795b9b75b
col02:   94678674775b659579c858a69769a57969edb85879d9616a6d9bb8e8cb79b889b5988b5786a966bb
col03:   279e876b4c5a789c6b6b69cab89968bd9dc89cfab889a777969b4ba7c6d9b98b89b86b888448db88
col04:   264b86783787787977898a989b78db6cb868c5f797c3bde8bec8bab7b88a56cb87bbb84b9b6658e6
col05:   37584a89899c7ba8c769b97b89c9a88997498b899bbab6fb9a77c98a5689899bcb78bc68b7666987
col06:   46497678a5a897749999979b87773676b9b9acda56bbd5b85a9eba968b868b5c8abcbcba86a79a65
col07:   bc5655bc59c56c8a8dda8a6abb7b696c966acc6b85be6d9a8be9e6dc9bdbdabbb7dd985db68788b6
col08:   676697778477d9b8b76869961767998a99899b8a46b7a96998aa9bb86bab768abd9bb3c8a38bd945
col09:   68587db92988b98ca9ab9b79a78ca8ab959b674638ee885a6ca998cab8b899a7db6da9a57a7bb996
col10:   9b5953b58cbc654a895cb96ca9758957956696b783bb9abb4b89da96a7c89a83748998925a9598a7
col11:   54669977b68b6785caa8b96a68a6669bb6b8787c58885b9b8acbb869aacbb9b499bb997b694b756b
col12:   57456136648a88998a98958b8ad66a975987899a7c768569989f8b9b97d9b8aa8b8a98baa8686428
col13:   58c484a8a986676999c686a6aa8a98c9bdaa98ac5ba88883d7ac8798b6a9996a9b8898a9bb996b6b
col14:   87661649583565a9947a7a4b693d7f7b6b978bfa5c98c4d677abebb689477ab99b9967c98676499b
col15:   5575654766b7a65a6b99798b69cbb8ebb6ab97baa9c995ca8c99b8dbeaaa87ba5789499899bbe976
col16:   433679568e3b797967a93ab97755aabf89acabaccdc877a887b77657863771a89d5a67a796877974
col17:   666555978547a98c9867ebb9aa9bb7b78db6989b8b78dd9a765abb7a79a99a86b6a9ab7895695a98
col18:   388897644778679a9798c8cab799bbc96696459bab49787c97d96c77b678768bb877653b88769747
col19:   55a65876a66b75a779996997b978b5b87ae66b9ccaacbdcad988bb9bd6b69cc687b8ea498ba99978
col20:   9415a79863866665b8b9997c7787b9999b89688ca9aa9ba87875967967b56d57761b6b99b5b56767
col21:   427565a75a788c889a6bbaa8caf6b57b8c8a79c59b879c9cb8c749ab8998787979878998845a6687
col22:   9683784a358a897a8ac99c7786766b9a8688c8ac7c7898dd4bc7c7cb787a77d99d9889c96a53828b
col23:   36475465c88a687b879477ab9947a465b97b8467a5b7686ba7b9fba865a9a875b8998746c86ac687
col24:   b7bb65789989687da775bb797a754b5798956359a8a78a94a67d986b8bb7bc7abea7c55767a99a83
col25:   686763ba8a9a967bb98bcae8a4cb376a7b77b99899956caada8a8ccfcb9dadc9b9abbdbf899a99b9
col26:   b7884969677c8978acda6ab9c756599979aa4aba58d64689ad8d6979a8aab9bcfc89aaa69aba8975
col27:   59a97c98a78aa9b5c6997a8d8fba8a649b8bb69a9c7fbc9bb9aaacc7b9bac9aba9bcdba988b8979d
col28:   88b95c7ac6beca8c9b88a9aa96adbb9dfa8aa7e8ca47d7b6a49a9babda5d9dac9cbbe7d4b89b997b
col29:   557da8e89b8ce9c9cb6a8b9abdbfcbcc97caa9aaab999d8cb9bc96dbfb8ccea86bfbeda479b8e894
col30:   c898a7ab7a6aba96f989b7c87cd8aaa9aba65a899d6aa9b8a68869987c76b99947bbeb8a68785887
col31:   7da9c97a9abd89bacdb8cba978a8aabc79c7899d99ed7adb6bccacbb7db87b87c7dbac9b97bd79cc
col32:   687abeb7aa9cde8aa9abddcbcb7ac8b9ac89d9c49c85c9abaabaab89aa8bb5ceeade8b9978b8ccc9
col33:   5ca68799edebabfdb9ff6a9adbc8dececc98bb58b9cc998478c9e5b9bcafca99d9ead9cb6babb89d
col34:   9aa9a978b77ebcbce996ba77bdccfba86dcaacb97becba78ceaa9a9be6cbcbb99a9bbad998bdc8b9
col35:   8fc886a6597b59cadcaebd97c9cee79ee8bbad7a9cf79abbabdadcbbbd7b7a7bc98bd9c9fad8f9db
col36:   b88b6788d8ba6867cae77ab9bbdeb9deaab9adacccd9ad7ba9aabce797b8c9a9ecbe88effadf5777
col37:   be9af87abb9cbac9abbabba9a9caaa9aeda99dec8a99abb8cf9d7cbddc9adc9acdde7a88fefb8c94
col38:   ecacac86a7a7ddcbb8ccba6c98daaa99b9e989ad9bebcaea89abedbe9ac9b9c9dbedbacccdeddacb
col39:   aababdedadba7cbb8daadc6bce9bcaabb8fb9c9d8adecabbdd8eecdaababdc7a6cac8fc7dc8ade99
col40:   97be7aea899dc8b9a9fbd9b8febcbdbdb8cbbcffcbeb8bdff8bcddfec9f9bafccbdbbf8dbc7bb998
col41:   dddcccbbbccaeededaedfdeeeedcfebd9cabe9caac9dbcebaebf9ddfacbec8b9cccedcfb97befd6b
col42:   b869ebcba7bcbcdebf59bc9d8b7afcdbcb6bac79cbdad9cab6ebadaa9ab9cbbbafca8befbcedce98
col43:   b7dcc6accbacda9bbcab7befcddbcbdeac7baaecdafdbcecccadbffefd9ad9dd8e9a9addbd97b6a9
col44:   daaa99b86ddbadbfc99a8fddbbbcbabd8acdffbabcd8beb8aff8ca9fe9b79efcbceabfdbec89df96
col45:   8bda9ccedce989ccfcebabfdfabf8997badedbc99bfc9edeabdc9ee98fb7a8aabebeacbbca8becac
col46:   bbaab95cceaddccaec7ded9da8bfbc8efae9abbcefcaec9c89fdbebccfb99997dd8a99acab96c675
col47:   aa6dbbcedc8ceeacadafefd87ceebbea9efdeb9ceaecfbadccddcabdcbadcbbb7bcedc896aebccb6
col48:   cb49bb99aaabd99cdfdedabccbaad6ace588cf7fdcbadd9ccfb9b88bcbc69aabbb9babbadf7edbcc
col49:   b7b88a9a9ddcbcabcbde9baf9cdbbddeb7fdbffbdb7cafd6cbcdebfeebbd7edfba8bbbbacbaab999
col50:   69ab6d9bcc9da7abdcf8a9caed8d69efc9a7daddbbbedb97dfcaaecacbbc99eb99bed6aeac85969b
col51:   b78ebbadcbb7cb8ecd9fbcec6db98bccb88dfadedebbaefcbcbf9ce9c7bceb8cbb9ddbce8bbbe988
ROC:	 BPix_BpI_SEC6_LYR1_LDR5H_MOD3_ROC9
col00:   28567b64573886336663b38746bbb7554696855b7237cbd86b35689bb5bcb949d5ccb739b55776bd
col01:   46b8b88c59665786b1b47b5b88765cb879489b85699f886fbab789db8d6877b5ccb68bbe98772bbc
col02:   37868c8769367c6b2354646462b8c6964b3b8769c87bbb8c7d89bb896856b74c9b9b686bbb669b87
col03:   74b69885882688b76829486658b75879652788cb57a95b57b6bb887b9bb7bbbbb6b78996b8387759
col04:   3a9667b978b8c6567567969c88c9bb4bcb9bbbb88a88ccb84b8e8bbd8c87b79574b65b8b297ab18b
col05:   b9b65d8bb7666b9b6ab95b47b99b8cbb786b7b79a266b6b8c79cceb8cb9679678b7c98b687bb5681
col06:   8975988b8b77ba498b9b8b54ba5ab7bb957876869888b97868888cb8abcc59d8865146b674894b93
col07:   667786b9b68b8493c86b8bbb98ab8b7d666ba7888a88979599bc8765473d8b8b798a86b9678857db
col08:   778a7b5786b686b866b978666793c79bbbd4b9b9a9ab797bc7c6b86586c6999bb78bb98bbb6b9bc7
col09:   7887b68874979cb67876688986f9bcb797b7986badbd8b488b7bcaaf8bb98dbd9978676c6bb7b896
col10:   597773b84797b966989b7898887bcdc75b8b7b9ccdbc8cb8c6b69b889c9bd7dcbb6bbf9b8bd897a3
col11:   9266b998727b8985b678a5b78d9bce9b8b878b8a7bb98ceb5b8babbeabdbbe8c5bbc99b9599c8fb9
col12:   97486546678b836b89995964957b7b8b6987a9b7b6cc88a8d899b599bbd7a6889bb88b8869c698d8
col13:   69748848666d899c87b6a94bcb4a69d9dbbbc878c85ba6c7b776c799bcccebcbdc8787bbb5cb8b96
col14:   b679864b764c758c676bb849b89b8b7b8767aec7b6bf9b5b94b9cc8ab9cdbb7989e785b759868595
col15:   36889786797c6b78797787b88b89c969bb89bdb5789697bba7bba8cefadd9ad838babb74b8db677b
col16:   6467bc6c3776b77b76b99b9ccbeb9949b49b9d678683bc89b66babbd87dcbbcac8875b9d969849bb
col17:   4795897789875b9bb845776bdc8b6bb79b8f9aee9b6ab8bd78bdf7a7b9ddc99cb86bb799bd489687
col18:   46b94c737b89748bb5977886ab9b6bd899a4bbb9b7cb88b948db98b8adb7ebed3bbcb996757dbbd8
col19:   58bab8ba9b7cb9bb9bc9686aad989c989bc7b9b8bbeb99a7e767bad9ae8b9bbb68b769cdc67689b9
col20:   839b7568bb87bb97b8c982798b98b9b8bfc8babcb98d5b7bd9bebbe8af8bdcc88979788bbabb8bcb
col21:   667ca9b867bcc8778b8a8b7bb964b8c8798cfbbd6c9af86bace7c788ad9b9cebc9767ba69bd468b9
col22:   796b8778279ba99978eab699bb6e98cb76959ab5c865a9a7979b9bedc69b9bc8fb64cabb8a797ab3
col23:   6b9b8a89646a567bc8a9a77ad84bc88668cb9c8bbb9867de9bd6cbccbba7ce9dba86bb8ac688b966
col24:   78b7bbcc5dc8a89bbbb56d898b4b8cbb8c9fbbbfd89ab9bbdbbbbb9dcbebf7b7cc7a998bc99b66bb
col25:   98bbe7bb858b979bb9cb79cbb9cba9bcbbbaccf99c5bbb8ce9cfbfcedca99bbc7fcbc99796c9b88b
col26:   788bb8d85ce4bb59b7ebb79dc8c46c76d777d8cdbbb99da99cbda8ccca8dcf7bc6b8cc7bb59bbcb6
col27:   75b9bbdb7b8b7b979bb98bc89c6bbcb8bbb98c9cbdbdc7db9abdccee5abc9dbb3edf4bb8b98bd7a7
col28:   7c86cbbb699988c69ba778d68dccbc878cd96dbdba99c9fdbe7fbb9dcbfcbdec6bbbe99bfbcbbbd9
col29:   bb8b978bbb787b8588b896bbc6bbebdbbcdebbbbbbecbc98fbdb4ccdde8bca89bcbbdbec7df9aa9b
col30:   87c588c797dbb9a946687abceca89f99b99bcc6ccb9db88addbb9bdbbfdbabafccfbbe8cefd8dcb7
col31:   7db889ebc6bbb777db97a7ad9cccebebdcabc9bfadccb8ecfbbabbeeddbfa99fbbbbbb96bcbbbb88
col32:   5bb9ab5f87677674b77b6b8ddaccbcbedfbb6c98bdbbe8acabbc9dcc9dccacbbebfbbdfbeedb7ff9
col33:   589b7ba887b79ac588abcc76d9abbed9d9dd9e5db9bbcddedbcbeb8bcecdbfcf8fd8d97cc78d9ceb
col34:   787b9bbbcb76b7db8bb9993bcf7ccedabccbbd9cabe5bbcbadb9dafdcfbdbcecfefeefbfebbbbbb8
col35:   bbb9bb7b7b6bbbabc8899bc997db9bb8df9c7b797ebaffbfdbbefbdbdf69dbbccbbdbdfbdbf9bd95
col36:   775b7cba57bbc94b89db4587bb99bba9acbcb8bfb7befeefc8cbbbfeedba9b9ac99c8979b798bd8b
col37:   88799bbb9786477668d798eb9b67b9bbcbddbbeb9decddcfccedbbebdf9bbdbbb9dffec7dc9cdcb8
col38:   45cbbebccc96c7ab969d8788abd5bb6cd69b8ccb8bccbdbecf6bbdfd8997dfdcce8efcc49e8b7ddc
col39:   77b895788b47e85be78da969ba8f978ecbdb89bdd9cdebdebe9fde9b8d9bc9f8bdc87ebbbdf9ba5d
col40:   6779e8bc89cb7d97686878ce9bcd8b8dcebdebbbbbb9c9cf8bcc8ebcbfdbcbfcbec99becb9bdd6b9
col41:   87b753bdb8b48bbc87bbbccfcb99d9cb8bafafdbbbfbedeffcbbfcefcfccde8ae9b9bcebbcbcbabf
col42:   7bb7bbdbb6dbcbb97b7b8bddbd1bbdf9bbbdfdfbcccddcbfd9fbfbe9d7bdca9fa7beba9bbab88efc
col43:   bb9fbd6bbddbb7c8b9cfb8dbdbfceecbcbdb7cdfbb7ffcbbbcec9ecfae9f9efbfcbbcbdebced7bfd
col44:   7d99bcbbbf9bdbbfb9bf66bbebbdbcfb96bbbfccfddbfcbfdddfc9eddcbceb8f8cffdbbbd9ddd9bb
col45:   b7bb5bbbbbdffdb7dbbdbbbcdbfb9dbebbbbeddbbfdfbdffdddfdebdfbbd9dfbcefbbbccbbd9d4cb
col46:   8bb7b56b8787bdbb777b7e6db6cbc6ddbb99bcdbbccedeafdfddfe977d88edfce8eabcd8d9c89dbc
col47:   b92dbbbbdb5cb5cbb7bbbb9b8bc7a5bbbdcbebe99fcb9bcdebedb9cbfecbddebcfcfc9bbdfbeb8b6
col48:   b7bb5c5bb8b676bbbbbbb8cbabbdfdbcb85bf5cbbadbccddddcfcbcfcd8cccc7bbdedbf9c8e79bcb
col49:   cb7bb99bdbbbdcb777b6ebbbbbbb9dd68c7ddbbebbdfbe8dccdcdfddb7fbffcbfebecdcfbbaab5bd
col50:   657565bbbd8b8b6db97887c6bbbbeb9879dbefccf7aec8dba9eccbbfcb9cd889cb7dbcb7fbbe9a79
col51:   9dcdfbf9dbb3b5bb7bbbbbd7bbebdbb9dcc7bbbfdbb9cfdb8dbbbb6dbbbbb988bebfbcb9dc8bbbb7
ROC:	 BPix_BpI_SEC6_LYR1_LDR5H_MOD3_ROC10
col00:   27453159635665656b678c99497b8c786668963bb8bb88cb96a94567b797893b8b889875bb847657
col01:   85782357777676627966b4766a78666bb64a8a88bb588788977bab9ca7867ab3987638b9875c9568
col02:   22967566584566687899b97ab7887a99cb7478a96739898a6baaba2b4b86286a78a78d66974b3997
col03:   b3867566439755c4857893898978b87856a798a498958a8b997a7b97b69a9a5b98a687987a8958aa
col04:   54883663835747678986776b5997786a8469577cab99987b959b897c88b9e67b7884889888683784
col05:   485466567665799775a647ab58a8a9a7bb679a94b9c96abc8789959c8bbcc99a99ba669a9999977b
col06:   56825445b4648569c87686b58485988886369b86c677b589a65bba9cd4ba6967aa8a9869b88569b6
col07:   66c7974899196777899a8a8569c77d8967cb8799bca8968aa7da87666998578bc687cb68896b78c4
col08:   a712a34968566365b47559928a377fd985766a88b48996a999ea8769569978983a5bb83789b89767
col09:   9467657674386716758993687b99ebb677aca8b65a7ca97785a9c9bcbab9cb473788c9c3b97978b7
col10:   924537485767888948588588777a7b88b8999669779c8587d695b8aa7a7ab6966998977599988653
col11:   836686789567877897c5579a96a397988678ca988a7b8ca798699758c99ad79588a6998998986b85
col12:   85756777477a789987896857546689aabb6a7b6b873bbb7ab69c9ba49c8b8a97ba988b5488bc9997
col13:   4976885661c518679b88b749885a6777ba8988a6c88a86bcba9b98ab8be7d87b98989578799bc7aa
col14:   454648966457c5b369822687988498985b7986c8a9998ba7ba97bb5a7899c98799cca8977887bb69
col15:   96934b5b8ab748777499ab59996545ab89c59a77887c799c9787b8dbb88789b6b8869897a6779c75
col16:   455423434578882576a89a96ca6963868ba99798c78a9989c788bc98c98aeca798a7399ca9a86999
col17:   5775348247986978b87588ac689a9ab789689ccba97ce997aaaaaba89abe979a9a6baebca987a768
col18:   6357417544987588598779859997ebc6adb7c677ad79c7677cb9a876abab9bc98a74ba9b65784888
col19:   7857979627a8588885577b669cca9c5db8594797bb79c767d88888a899a9b9a787cb7b8b9a99b578
col20:   64756757483998495357985395b9a76a9b869779a79bbbcd9e68b7686b8b677789bbdb99767a89a5
col21:   7668984974675769474b86a77788599ab9a76a9c7b7cbadb9acb9d6a57c879b9ca8589786b6b8478
col22:   5957534757877587646999736977b988885877696a93755b99a97aa86969697ba4bbb894997bc878
col23:   4834997639793a15676669876883b98747b765aacab76cbc65b9dbbb7ab8b78d9b7ab88576a9b6aa
col24:   6557792b65467897977776d967b7a978b8998aa7d9b8babba88b6667d7aac9bb8b98679cbc679596
col25:   6687369975b9866688967ba88a7a7b9c86b6b688ba9a8b7bb8ab99cbba779d98985dab86bbcaa9a8
col26:   23666a66a686653634798495bb87b7ba778b86b8bb8bbb9a8646baac8bb87989a97a76abba875c79
col27:   7b49836688a979985a998899b8bbbb8db8bd9cbc9bbc7ab9de9bb87acbb9b8a789cb7b5888b9c99a
col28:   57889a5c778b987bb868b6b679a6c989886779bbda5b8ebbb4896aca65bab89896958b79a7978896
col29:   874ba66198875689b87ab7988a8989cbbbe67c6cbebc6baa5cb97c99f8a999bcadab97a8baa9a889
col30:   878997598683428b9cb7b7c688abaaba9bb6b9ba99c5d87897ccdb99a7b9ecc89bb7aa9cabaa5789
col31:   6846b48758579b99a9a9cc8bcbbdbbbc5cbdcab9cc9bbb8cb9a7cb99db9cd6fa59b87896b8989ab7
col32:   66ab85765a87a96a79ab897bdc79dbcb88999a6bb878b798a969a8ab6aa8899ba68956a69a99a659
col33:   88869ac86ab7a9a8989bbc7cbcab8cbbdbcabfcab8bcfbe6a89c9d9b9b99cb9cc89bb8b997b989d9
col34:   5758b769786d669a986aeeeab9bccbb68eaa8ca8aacbcc9b9aab75bb968baa979a6a899a889a5b7b
col35:   29646999a95b6d96ba8ab88a9ba8db7a787db9baab86f9be5ba9c89b8bacbbbfb89969886998bac8
col36:   88356b8454887857aa898abdd96b79cc7b9bbed69986899bdc89d8ab89878698a7a798b7b678b7b8
col37:   79a78879769b977cbab97b9a99ab99d8c89c9aabbb8caa9a7aa89b88b68fb8b987caa8a85bb77a95
col38:   755798c9878b898976a8cb7a68996cbe689d6fb99ddcdab96b97aaaa9acacb7ac8bbc89d888abb78
col39:   8ba66ba58daa8aa9a768aae99a7da9c6d8aa88dac9dbdbdcbec7c899badaaac8a9bc8bcba9d99ac7
col40:   7a87984878799897b9b968887888bc8c99b5bd9cf9c9b9ba9a8aea5cc69b9aa77a9a8c65979b9693
col41:   968aaaa474a5abb9a978d9bba99abdbab7cdcdcababaa68aa9bccc987bb88b676c8789999ab9b8a9
col42:   88b95786887b857af78bbecb9babaa9d9b9aa7899bbaa8bec5aaaacab7b988b99b8998a8a99cb9d9
col43:   7858877b5898588ac9788cb8ac6bbb9d9ba9ad98a9abcacaaab9ca999bb7886d99ace68879a78ab9
col44:   85793b8b79973aaa7996d78dab97aa797b95bbb8bb9a89abbcc7c899db9b8a989977bb5dbad88889
col45:   78796a8367764a747b8a9989aa98aabd9cbbbc9bda987aaca9abab98eaa7a7abdd8bcb8b9ab76bfa
col46:   64969a68878748bbb866a6c9b8ba68ab78a889d69dfc6979b79ecca675899b79aabc868c87696bc8
col47:   4937779956c8677a8678bb9a8aba4ba67688c9bcd8edcbcccbc7b7c99a78a98a88b9d76c59a9b89a
col48:   6348798849676896a78caa97a85aaba88b7ba7897bfdbaabd7bdaa9bc9d8e9d74e8bba8a967b79a6
col49:   78aa76aa785a7986b89aa998b9696baeabae9bdc8cecca8b998abddab8c899da8e886989a99abc98
col50:   8898a8c47a696966aa694c9699979796b766acac99dd99ac9db9a99ca7aa79899967a97788a6589a
col51:   4b9b74b789977ba489b79b8887b798d895999abdac97b4bbaba9cb9d7ca6c8bcb76e9999d9767b77
ROC:	 BPix_BpI_SEC6_LYR1_LDR5H_MOD3_ROC11
col00:   98b76897b7972b77b7b5599b86cbbbbcb988bb9b96ab7a8bb8cb6899b8bb849b9ac9b86bbb986d77
col01:   86697c9b85b98b79868b76cdbbbc7dc99bdc8a6cd96abbd9ddcdcb9cc99cbb8acbcccba58a897bb8
col02:   c8a8ca9b896878778f594987888969b9acab8aa8c8bb5baa8db8f9acd9c9b7599cb6c99c69ab286a
col03:   958c68b7a7b8a98d55bab7b799ba79abc9b8accb7bbccd88ebb7ddd99bcb8a8bca9cbb89b9ba67bb
col04:   88a8688c9a9b878baa87aab898b97aab79cb96bbcac8bacadcab9a79cb9bd9ecc979b8878b6ba76b
col05:   98cabb9bb6ac9b869ab8ba7d879db8bb9d6bcbbcb9ed9bdba9ab9e9bbfbebbbbac6eeda8aa79b67b
col06:   784798d7a9cda9a7997a8c68a7b6a897a6ebca98ac78b96aadce7687b7b78cc7978acbfb9b78b7b9
col07:   79998887978e8799a9baacbb6ad8a999baae8b9ac9c7cccabb9eedb9b9ca89c78accebc9bcb7c839
col08:   9b9d9b99ab996a89ba79ba688a9b69aaca89a8db88ba8bbaabdacb6b869babee89b7aab886b67ca7
col09:   99779b7985876abab68a9a8b98889b99bc98988bc7bdacacb79b8c9d7acd99b7a9ac99ab5da77b95
col10:   ba888b7bb9a7b89b9ba99b99bacc8b5968c86bbbabaaa79bcecccbf7ba994ba9b8867899b7baaca8
col11:   6979b8985a9a96bc8cab5aaabe78a776978d9cdba5a8caa8c9a9cb8ac9b99ae6aaa8a8777966768b
col12:   b47b8c9a987b9a7bbcbbac7dacb979886889c99ae8be98a9bb9cf66d978a998b57b9babb97b6598b
col13:   8bcb898aa6847abca7d99b9b898ba7cbcbcb9ccba79c989cb8cca87bbb89d9b47aba7696b7d78ab9
col14:   99687b697cb86ca697bb788abe8a8bbba8ecda978bae9cbbb7ccadb96bb797ad8baa7899a99bab5b
col15:   b7888655758b97beab9a89ad99dba99adb99ba7aa5996b8ab7aacca9bc696999b8b899c5888a8b97
col16:   e689bbb57b8967b79da999a79bbabccc9a6975aabdbb96ca9ac6cad9c7878aaa9db7bb688a8a7588
col17:   96b688968699aab88a7ccabaca9bc8b9b7ab9cab65b7ab98dcbcaaacaaa9bddbbbcad89e489aac89
col18:   78888a78856b5b79b8488a8b98498989b79888a88977c9bd9baba859a9ed88bb78bb97c787989787
col19:   781388a745795a996f9b88baca87c8ab899ccb9bbaa9cdaab8b996bdcb8a99ced99976abcba8a979
col20:   5496856a777a9b989abbea8ab68a9abaada8caa79b8b9e7fb99d9bd7b8acacb978bc69877895767d
col21:   876679ba8a8a9ca97c6a999bab9ab6b6add77ca89b9bd9c9bdba968b8caa99dcdb8b7799aad85888
col22:   698a9b78588ababc8abbac5beba8aba89abb8ecbbcdabdcdc9a9a988aaaa7cd9dc9c87dcabb66b6a
col23:   8497465b7dc9b8e95ad9aca7689b8a97a99b739899bbabe99ab8acd8997aadacaaca799979696b9b
col24:   6a87a87a9b68a8997bc7935dab79a67866bbaba9a6aa9b9888c99a6b79b99ac8c69a9d6baa7ba787
col25:   886998a8879a89a78ca8a68bc9698a89acb6a6c7c8ab7b95498b7cecbac7db8aacddab9bdbd96b8a
col26:   99699aba8956ab98aa99578979c97977ca798ab99a8b88aab9bc8b78b897cbf9dcbdb889c8ca9889
col27:   5ca7a9ca9ab88888bba8bbabc9b8878cb99ba9a9878b8c999bcadf6bcbc9bceac9abf7babbdcabcd
col28:   a9abac88b8ca8acdbbd988688dde8cbcc88a86a7a8bbcc8a7addbabd8cacf9d9bb8de8ebb75baabb
col29:   b8abacdca8a9997b9acd9c8bb898ba7998ba99d95a8a7ada6ccabccccdbce6fbafbc7cd9acb9bb6f
col30:   86cabc89a89b68caa8b9c8bb9a9aa786d8ac97aaa8bd8a97c8a8b8aebc998bbbb8bccc8c8c98adbb
col31:   85aa68aaa8a9acbaad9b8a9bbbbdadc9bb688d8ddba99ca9b7d9b9ec79ebac9bbb69acdbcbbac8bb
col32:   997a89c9a99ab9bda6a8ab9dab7a9966b698ba768c9ccbb99b8cbe9cabbcadbdcdeca9d87c6ba9ba
col33:   a7bb94a77956a778dae8ce9c9eacbadbdbab69bcaa8c9aba7ca997decdbe9b6daddadacddbe9bbdc
col34:   8bba8a9b799e8ca899d786a7babaabbb98ba9bb8b59cadaccabfabace85bfaccccbe9c9cfc9babba
col35:   b7c97698868787b79999ac98c798b9c7a76aba78ab9bdb99cacabbbcaa989cc59bcdcdbdbbdb978c
col36:   7d8bd9acb8ab969a8bab99aa9ca8ab98c779a89aaa89b9bcae9ca99cbbcdd6a9ddfba9efdfedabdd
col37:   67d8ba788b69a9988cb98abdc97bebc9cadaa8a8bcea8eebdcedbbd8daaabdbdeadeacceebfeddd8
col38:   69699c686ccb9cc7a8fd9ab7a99dbb6c8aec9bbaa9accccdacfdeaf99cdd7ccbcdddbcfc9dfbdbec
col39:   299bb86b8bbcb8b798f9abbd8eaacca989ec6fccdabebd9eabbdccdccfccbc9beedb9c9eccabadfc
col40:   7999b657a9b8cd9dd88c9a7aadbd9c7bdbb7adb8aaf9a8bfabdabc9deddb9edea9bfdcc99bcbfedd
col41:   c9b7a9bdac8abbcb99dbb9cb98cb9c9cabfabeb8cbdd9cdddeeedfbecaeabdcbaeecedbeddcbccc7
col42:   b78ba9a999cbabbccc9da98b99acdd9db5afaaccebabbfcda9eaecc9fdc6dcfdabbdc8bfddfbfced
col43:   bc88b9ba89acb7ba9a78c9abacab98cacffacbccbdebacccacbbbccebbd9cbedcddbacfeefdbbfd8
col44:   b79bcbbccd7b898daa8a99b9dbacbb9acbaddcf9bfdcebddcbbbccccfdcdd9d9ffbbcffdcdccbacd
col45:   9886cbcb9b6ac9acddca8ab9bdea888baaccc9bedc8cbc9afab9ebfed9bcbadbdedcddcfe79bacde
col46:   a7b995cb7d9cbbb99febbd98cb9b9b9cdaccdeddfec9c7ece9dfd8cdcbc8d9ccc9ee9acdbeedeecd
col47:   a8869ced95c9bbbbbd9c9bbf7bbc9c9bbc7cdabbddcbbfadbfadecaebbebfb8779cda9a9cdbbcedb
col48:   87949979b89a8cbbdcac7cadedab9a8acbdcddd9ddbb9bd9dfdcbbebdda8ea89ccddca8dcffdcbb9
col49:   cb77ba8bbceca77a9cbbdfacba8aa8dcfbefbedcccedeffcddbbdfedffdbcedecb89cfcfbefeccee
col50:   7a69a87bbcbbb86aa7dedb799bd9a9bafb8ec7becceb8baecafbbdfefcefecacebbc9aee9dbebd8d
col51:   8b8c85bba8cc798c78bbb9bc789cb888879ac98dbcb8b8beea9bcbddcbe78b9bbbbcdb9b9bdeed9c
