ROC:	 BPix_BmO_SEC5_LYR3_LDR14F_MOD2_ROC0
col00:   86c6987669d8a6a86291687777695d9a9aac96977ad69b7ab7ba7aa49b77aa536c4789959a87b856
col01:   a67a5aa865a9a889b8e6c9ab9ba9abd7f6b599b97a6abcbbab8a9cda999ac7b769b9a5b772798ad9
col02:   878bb76ba777cac6b99a5bc4ba9dc6c48bb88c6b589ade8679aaa65b48879798a48958bb98ba98c7
col03:   58279a9d6896c6a7ba9aba87bacaddc8ab9878ca7c86bac79786ceabbd899639ddc7699aea8c6b78
col04:   68ba8c98aa87ccb8ad88da97aada9b9aaea99dd79b5c87dc76ab75cca79c797b97b97787d8499772
col05:   7786d966b865c8c7c7c9aad57cadbbada77eb7bcbe76a995a49fbacab5b9a57796acb9b98a89bdaa
col06:   998b7d9bd4fa67399caaac779b769cec8bba8b88b975797cabcd99985b8c68dbc89798ba569a888c
col07:   77ac98b6b7599fc8db7a9bbc99999d7967e9cc89a4d9dcaa6a9b7caab45a88a989d99abc757ccb55
col08:   5b758699cb43857b9a7a57369daa8c77669958d98bc877b789887bca9ccbc33da689c6859ac8cb74
col09:   78bba6e8a7b8b78a97acf898bbb6ed9cda4c99ed49ced6db9c76a93d8787aacb9789a8c676a9a95b
col10:   b48acca7aabc39798e8b7bb986cc29bbdbb79a88bab79bb69f688d976c7c89b479a4a4b498a97756
col11:   8788a95da977eb7887c7fb95dd69879cd667a55963b5db7adacb4fc6d9bdaa9a5ca7185b8c6d9954
col12:   a766886787a759969d7a9897a7bc69d9e8c899efc7cc8ab68e759995886bab88aa869c63a69a4899
col13:   c6a964951998e9798ac8bbc7ccbbad89aea99dcdca8c89b7a8b6c98eda8bd9c9ba9999a7ebc987a9
col14:   87aaa998688c99788894976c877c96aa8d8ac9aaabdbda6cb964bb75e983bac9b7964a888a86b999
col15:   a77384bcb58b8b5ca739aaac799ecba99785adab7fbaceb7aac89bebcc98d99eaac6789d9b66baab
col16:   9a6bc8bbc7b769a95b9955ebc9a9bbeb5a98a7b8a593aa8ed9dcdbab6aa5aab4c78a88b68bb88dc7
col17:   79ba979858b8aa86866bca3648969857a88faa67b7aab9d8997e8a6988bac96ba8b789788a6b876a
col18:   689896685a33895b89a999a9b859b5e699cbad8b59aaba7ca54d9a75558878d99ac5f58b79b7ada9
col19:   989a5f8a849957a777abcedd7779bdbb8bda9b8baaed9a9f87cd88699cb8ad9755a7a7a859976679
col20:   9aa6867a6647859357a737b9a9a8a9788ca358b997abd66bd6d69988baa957ab98a69a64659a85a8
col21:   4787bac79a5798b4df6b6388c759dbb9f98b98b8af8ecc9da8b9a497a8cddf98c7a9bb9adb895686
col22:   4673c6788b889a595ce4684c9b5999c85ad467bea37aa67ee77987ba969e6ad7d88594c91b5568aa
col23:   87a95575a9aab7969bd5689b8f98b65c5abc7daa9ba5bda769b88a46ab9cbbc54668899a787a8c89
col24:   87379855b5a7887963b76a793bca88b6bc9b89d8aa999da779d5a48aa8cc9ba7bd9b855678dd92cc
col25:   c8967b495b59cb699a7c7baacc7bbdc89ae9a5caba7e9c86c9b899d7d7fcb68bfaab5c9595bab979
col26:   eccb77aa7daf8aaba98b7a998baa9adc9baceca78b9cbacbeaff8d6848dbe8e56b9ec99a9997d86a
col27:   5e3acc948e7bdc89dcb889bbc8caca8accfb98b9cbbeebab87acbcdcf7976de7fadece78faa6dbcf
col28:   b79b9bcadb6b9d9e69dcd6f6bcbd396abc6bbcbc9cebb68a9799dbd96aa99ab8c99aa696cfbc488c
col29:   7687da89e8a5a799b7c7986ecbc8ca88c898e7cb9baffda98aacc7c7cb8acbdd9c95899986ba9da9
col30:   68ce6d4accb58aad7798cb6abcabbe87aea8fd7aecd9acd9dab98e89bbbaabca99b8aae4d8979ea8
col31:   b99aba5dcaafbbbdea99abb99988c8ca78ea898bd7bb9cab6e9994adcaa9acebbab6ccadd7ddd9e8
col32:   a79db89757bd89988b4c86aba8c85ccafdbcccbbcbca9abbe9c69a76ff888aa8dbb92c969b9889b8
col33:   ab7a7acd99acabaa89dd5df8ddecdaa8bbcae9edc99cea7dd9ad8bca8c8c8b6be8cba8d7a7acbe9b
col34:   9667bb7ba866bdd9cadaccbeb3a9abaad6add8f8e4d99bacac9baac8d7d77c98cc9aae897c9f9bac
col35:   8d8cd5daebbbeadb49ccb9ea9bbaf9fdcbbbfbaadcccccac695bca9b9abcc6decccbb9fccd89f959
col36:   bc9cc889bada8889aa889c6badcbec6a6a7889b8f6cb9ccd8b9ccbaaa9cecb4c9daa776c8ca798c9
col37:   87e898cbca9cbaab76fcbcba6cedb7aaeacceadbeeae6c8adfceaacd888dcadbbad67a6cb98d8a7a
col38:   b6a589b9ceecaed78a7b7c18a8a7cafbc9fcce9ddabddbacdbc79b6acceab6cddefa96d79998b899
col39:   baba5fcaea3abe999bb7bac99add8fecd68adbb9eb7bcae7acf3a99b88c9dedb8c79a89ded4ac7f7
col40:   9b9b9e9da98a96cebbbcabdafdfaccabbbabcda6e8fedbecf898c98eeafabcaf9d89cba4d9e7c59b
col41:   ad4caedade6b9fe7ddc64cfeadc89ccccf6b9d7effea9c98aa8ddb8bd89cecfeda9bfafdd7c9fbc9
col42:   7b8cade9adbb6b7a89cb699d79756fd8ac9cde9978c8ba96dd5e8fce69aa9dea66cecacc95a7979d
col43:   facdabcddbdbe6cb8ee79ab9cfccdccbf8dc99ccfbcca9dd9bfadef7bb98eadcec9b7abcac6eb7cf
col44:   f8a9b98dfbde9d48db8cc8f6e7a6fdbdbc99d9aebcc7ea7dbdabdb9bcdbe78eaa8ca9ac7bdb9d998
col45:   99c86ccb8deaca94bb9c9baaaddaf9bdab8daca7ebcabaaabd788ccbac9e9bdcec83be867acdcf96
col46:   999487eca79c6c54dc94684cb6d8eaea8cfbfd8d6a79c8889b96625bb8bda9ec8fcefab8a5ab969a
col47:   85ac79b899bf98a497c95dbfbeacfebacde9efcbbb9fbd98aacf8998ceb98abbcb9b7e78a8b8e8a7
col48:   c995b77eba677988ea97cb8cffcad8cbdcbbd4c79bdd5aa88bf967bd86beba69cba9979b9ab87dbf
col49:   465baa99caabc8c8dbfd6baaacfdad9bbd7cab6bb76ab8cad8c9b8baaccd97ca89a8689bdd98cbaa
col50:   85caeaba9a59ad6c9daca9aaaab5ad9ccd7beba679ead97c8cb9ba79e9aaaa98ca9ac9999caaa994
col51:   776c2488a968895f57885b68aa998b4c9a6b67d879ba5b8a7cb7a574b3888998566847357ac6ca75
ROC:	 BPix_BmO_SEC5_LYR3_LDR14F_MOD2_ROC1
col00:   64778656266b44764787593344743aa5694566396366775a6a65ba697695a9b9a956787967d64955
col01:   7758988575945875746b6595978ab7b7777c9679999d7788998ace79b98978d4d98a8aabd5677979
col02:   537645683a5575985866957a66758673749898297aacb588a76b7aa996899676b8897789a496cad4
col03:   68b67c9896a56779b56b799a78a5bfba68a7b7cd8b968cbaad97e996a85c8b7acc9a8aba9797aa9c
col04:   91a176755754678778a7abae7c98857988bb8789c77947589a6a6adbec97ab6b67ab983b8677a879
col05:   35643887c4578aa798993a555869a459b88793b7a86988c7ca7b768968a9acb8e7b7998854b8aa87
col06:   3886886a756a77859b6476a745a7598979995759d679d999787adbaa7b86bca7769558c868f8b78a
col07:   76a987568978575858685696968a99569894b7678b89599aa8d8baaa97ab9b8a57a2ac7bb5c59999
col08:   987456579567967a36796b788c39ba9a979a8796b7a79a97b7674a778781858987a699766999b5a6
col09:   75575917a6a85aab658665a9b6a796b7bb8a869c9868a69688aaa9aaabd9769b7aa48aa596787788
col10:   7564897366944844a798498a77199785aa8a88b85b74a874a999ab956ba6965baa2a9ba9a9a9a984
col11:   9667375b59743a7b29868b7c79477883cb6959a9b9b7a6d7d63ab6879a8bb88a7849aa8a9936b979
col12:   827a788283935643375399b675897a56558b6969798397abaaa66877a59989e8a859a854a79799e6
col13:   466855a2a6859396876c86a799c89b97958dca8a87b7e7a9c8ba87a98996bb7b9b87c9938b7ba865
col14:   473947756344359b669c56b68787a77539a5a688b887a878a5b6868767c788a6a6c78e9776a6b979
col15:   653261999587679569964699b6b799958ca9bb958388d4bec929a9a9e78588ba9a99397aa5877795
col16:   5428489759997848659978b889967855e977697589897686796b79cc89bbb889a795ca6a98b965f4
col17:   93427874568258b76556a297866345baa17969b87aa98bc586899686c38379759579998a6765aa67
col18:   2453787545659a66472a9b76897a7994b4cd9888b9687cc659867ab9577cb89857576895a66966a5
col19:   74a5b6a7a94878a7565869b879d86bb65986bc979ad9896aba9aaa8a99a5ddc6295789a8a797a9a9
col20:   4746598757866b97437739689785967d39a2659686c997488a9ae885989ab7a73987588a59576842
col21:   4b426856884956767697458a9b787797bbc69989aa8a9b877978a88a8b9abab45ab873a8968ad6a9
col22:   71198357774796853656739659a8a787a7998889738a8c96a99c6897887a75b7685949598799a759
col23:   27749252a77a8586476a678b859a969aa77879a78688973b668878a6822ca6769a5763894447bab9
col24:   52672661a9576176c544678744998768aaa56e96247a7a7976ca66b89a6678a979a66ab96a858977
col25:   45a371b59586499778654b86b875779886887b97a5889d9b7676aba688e477e6647b55ac677a96cb
col26:   767749534ab7872569b76597bd97deca7b9a867d58e8bbb7aab86baa9aab957c7688b98acc999a77
col27:   4483788739387a9a8586b5c7b968a8cbcc598b78d8998da7b5a9fa9789acad967ce98986aa4c5cab
col28:   5268984ba749987698a8c6ca9c888a9bb7b8ca89bcca7b98ab88cabe58b4ac69babcb98aaaa6d69b
col29:   66798a66b658c6a754a497cee6cdadaca9b7889b6a7df9cea5bfaca699be8b5b87d979baaa88cba3
col30:   4a4ab5b54984789746b4aaac997a58bc69ca988a6798a48a498b8b877795ac5abb4c9895a97a87a8
col31:   83847698aa8a9896aad7cb636aaea779cabae7ba7a9bbc68eb8d9c8c857cdc9aa978aaa7d8ac9c74
col32:   6555577a87a78c9c59daa86986b87a6abbc9aaeaa89c56a7b6dbda9dda7ca99dba95a885b8ab93bc
col33:   488798b7a875a6a8449888c898bcacab9ad9bcbfdc88bbaac9bcd88adb7a88c6d99879a98ca96798
col34:   77759698967737a9a99899ba8aa78a8cb7acdbaca7bab69b88b9dffba698acdbbc7c9bab7b789ca5
col35:   67999ab869a898b98a9a84788a899bad88cc68e8bdbabc78a99d9dac9c9a8e678a77aab4aaa9b8ab
col36:   467468958e78a9ed699aab87756a5acb9ba9b698b8b98a88bb8569a9c8b9a9946687c98e55b68b62
col37:   7b7996a58a7886bca9a99eabda599ab59f9778999d96cd7ab9caacbb97b8abbadc59a79aea9acd78
col38:   88c7999c8b6c969b56b578c788998bc8b9649979ea88d78cabbcac5bc8ba5ccb6a795b68986739ca
col39:   9a7949899976d7a868e75889687b87a8aa9a989c89dcbccac7abb8ba889cbab79a98b679ab9fab9b
col40:   65879877797784977b98bc9bcba99ba5babab9da9abca6b8bac9aacca7a988b67c98acad897a99aa
col41:   9a96599a8bbb789d78b85aa797a635ec7db9cb7acaabbb99cbcba9d589c89bdcd9898bb8a99da9a9
col42:   91a86bad755997a885b4b8da7a7994bb98c5bbac9aab7b3e88badba9a7d7bca969bac78aa78d39ba
col43:   9888aa95a8889778797aa9a98eaa98eab68d9e99b9bcda9b899adbb89ba8bb7adcb7bbbe8a869797
col44:   8c985a747527a7ad88ea8c7a47999b868c5adaaa6ab8a59eca899c9a86c7aabbac7bba6bb897a996
col45:   7aa888a6aa7d79787caac97b9dba8ba7999a59bad9cbb89dc89e76b9b89bb9ad69aa8b9ba7b97b97
col46:   d487698a99e79879a95d9a77bc7a9c8b8e98bac87cb7acbba699f8bae887aaa798468ab9aa886bb6
col47:   98999796b8975bb89c9b7a9a98989397daaec76cc98bd8afa68aad47b89999c97a9c9879799b99b9
col48:   678baaf9b3a6857f798bb7bb9a998c9e75bfb79559b6aa79a69a9a77928797b796b99c499bc6ba97
col49:   8ba8a8be789cd9a986c878cc68ab98886ac98d987dbc98c9668ba7a49899a9bcb72b799c7899bacb
col50:   7b5695c78ac8789c76c7ba9bca8cd77c999a5a6c6ebcbb58ea8a789c78998898899bbd6a7aa98487
col51:   a6883a5697968a5986a7576989aac896c96c867a6698894b26a7a9c8969976889a7688653448a56a
ROC:	 BPix_BmO_SEC5_LYR3_LDR14F_MOD2_ROC2
col00:   64624617556466856646558686446856b4987684892774697ae99362842aa35695878997688569a7
col01:   a1376cb6888543aa6976a88696a7abc8b78aaabb5857b8969a689897ca8978b76b48f5876b665c97
col02:   57989b7396b9888a6696674a5866ac86b89a85766967a74798888848a8bba9b26779b9b968793b46
col03:   58a677a66ac66966b264977a9993aa9bc8586b87b88777897698a66a4356ac9a9bb9a793489998b5
col04:   545778185588887285a75a96737a59868a5a29bb88b8aab587966cca88a789aad6aba59a5a6769bb
col05:   949567465a96357649b97c748ddbc957a8697a8a9997b87475999954796a9d8b9c8ba85975c95a59
col06:   6475864999673a65676588789ac9a6a88a7ab68786bda4b5b6aa8aa9b699b9b898e9989797785894
col07:   979868aa38894789679a9b9c5c9a9428a86bb6d888796268c7869da8ca9a9687c9ca7aa88aab66b5
col08:   68b28646ab45c6aa547987bb7a88ab879cf59858868c66ad76c9988a95bc86757c98765bbaa95686
col09:   98467b497726765497668997695788996c557a7878b3787a9a7878b38683869a946ac786a8a9a877
col10:   5962546a988b59766569a377988479595b759c57c86cd7d9748a9bc965b7aabaa999785787577a49
col11:   585686867767997c63b6a8a8b9aaa7b97a59a846795499996779677c6aacababae5a74a6a6777784
col12:   76758a7978a59977a88a997a6a97aa99d78bb5ba68b86a8a46738795696a976a5978b9ba78667565
col13:   58598598688583b99948a9879a97db979669993ea99cbb78a86b7c9a9a8cc8a7978b69789e998982
col14:   7826855ba96bb78995988b86923ac7aba95c98ac6985a9799874a98496856ccaa8969dcaa8968695
col15:   477799899b757757698b9a7658a88d8d7ab8abc88ac898685787d96cb768a9a586b885aba77ab736
col16:   796766aac6a58b37acb99b9a8bb888c9a778868a7a768889b9aac898b687c8b9a876bc7997857975
col17:   67827538a65c6967a8b879766a989a8ba9c8a9bfb99b8a959769c7786a8bab7985b6c9489bc69963
col18:   a89a2756a56a57866b75aa9b964caaaa9ac9a78897c6858acb9a9b8b8a77788988bac596998c6a4a
col19:   a77a569648a995a6757488aab8a76a8c8ca8e8b9c8c9aec879accbfa9ad7b96689abb9426986a677
col20:   68a546485aa798b78c9b9a979a6a9aa69da9ca77b7cbaabaa6cfc9faab7acaacb879b99b6c977267
col21:   2b198b48c5978298677797857e89aad9b57b76aa5a95999aa7bab68db7adf8a6a577a689895786a6
col22:   584c63678897c966957969977aa896a8898b97acabc696c79baa89b4cd97868cb897a777a5788b76
col23:   557598477a959a7748867a79a9ab9778aab87a7ca7ab769656a7887bab967894e789cbcb79949877
col24:   79c498679898b7758963c87ac769797bcadba998797ab76998a6858d68c789ebaaacaa83b8b6a699
col25:   5594a88965a8dd55898ab79287cae97a98a96a8997bb88fba9a76bcbaa9969baabdccce8db6b9ca8
col26:   5b9ab9aaa59587da5d96fa87894ab7cbabc999aaece8b79bbada9a7cfcdca9baaaa6d9ed999897a8
col27:   969699988999a98c997766a6d7babb9aad9db7984c99b9889a9bbdcade798cc3abaa6ba8ba8aba89
col28:   8785a8a9baa9accbc9aa56b9ca9abaab9cdacb8b8bdaba8a88eac8adaafba8bc6bbccaabb78c99bd
col29:   977ca6a976bbb9db79ebababacdabd88ac88b999bb5cccbb9b9c9b9f8abaacfccad657bbb5aba9e4
col30:   969787a795988aa8bd5aaebbfcbac3b8dbbcccbdaaaab9eccab8dba9cccdc998cdcb89a6e89beca9
col31:   6976ccc5adaad7c999e998cbabacdbdadd84faa8af7cbcabbb99baba7ace8dcaacda789caeea7adb
col32:   ab6bb8b78e9cdb9ab999df7a9ec8bda7dfb8c8abaad7cfbbe9be9aabbaacdadceafef7dd99b8b8db
col33:   6b77ba9997aa678ba9b9a9ddabc7ba8978ced7dce7cbcbcaa8bdcf8daabba8c9a989dbbbcfaadbdb
col34:   8989acba9d6baaaa6bde9adddafbdcf9cd8adc89decddd7eeccbcd95bbdccb7add9ebbdbcb9c89e9
col35:   a7977b9a76a68678cbbbaaac9abbba89becfac6ed67b8cccd98e9bebccfaefad7b7fbb9e9897bc89
col36:   a77a999bbea9fdbba99cfec986cdb9badadcbb8abc8cedccbcebbfcbdab9adccadfab9c8db8be8a6
col37:   ac9787bb9a8c9e8bfdc9bd9a7cd8bc9fbddceaf89ecfadbbcabbba9fcbdcb9dbcbdccecbcc9c89ac
col38:   977bbab947db9cdccdaeeef8ed8db8dccbcfabcceaba9acbafd8edfaccbdcbadccdcb8acbfbb9acc
col39:   a7c6a9d8cb57eee78eccdbe9babcadb8cb99cadbcaabbccacbccbcdcdb87ebaaccb7ed9ddafcba78
col40:   b9c85ca9ba9af9998da7e8cc799ebcbbfdebea9cdca9ebfce9b9be8ec8cddecfdb9ba9ccf88eedda
col41:   7aabd8ab879eabbaddc8e9dbbdcebfdcbfa8dabdbbdcdcddcadcfd9edda7ab9ed89ab9ae8eddbbbc
col42:   55a5da8bcbadec9aa9ca9bbcadccd6fd9bdbe8eefbbcb5dcba9ccdb7cabc8caba8cbacbcbccaafdd
col43:   8abcbe9cd899badaacaccbababdacbecffecbdcbcddeabbdeddecbeaebbabbecffbbbddbc8cbdcab
col44:   8759eda79ca979a5ecab8fe9cfe4bbadbaaef9cabd9acd9e9cafbbfacdeefdbaaaefceabccddc98a
col45:   5eb99a7bcdbaaf9becabbfccaadcf9edbbc8edcca89ffcefec9dffbfacdccc9dbeeb88cbc97ce999
col46:   8beabba9ccbd9babdbb7ebaadaeefd8be8ccbdfadbcbfebd9ccfeecbbbdb9c5c7dccfceedbddcbfa
col47:   977bcaadcd96bcfeb8bfa9ccdafebdbceeda9ca7bd9daddcbea8bddadbd9fcdcfebdfbecbcdccbae
col48:   a69bdcabccaa89c8adbaddeccadfcde99da8cb8caddb9ed8debcccabcbdbd9de7aebc8ccfa64ccd9
col49:   ba6c7bb78dabdbc99b9acbcc9bddfdacdec8eeeacdb9cafbadccdfdd7bcaefdacdba7cbccd9bbcde
col50:   d7fba8c9d7dac99cbcbdbdfdecafbad9ce9bfcebceaebabcacecce9bacaebbbbefbf8daadecb8aa9
col51:   cc8aaa8a9acda6cb99b9acc8b7da9ebc9c89abcd9abca8b897988da9b99ac5bccc79ddc997bb5b99
ROC:	 BPix_BmO_SEC5_LYR3_LDR14F_MOD2_ROC3
col00:   139666a17845566368a886455a68a7797a75776595586664598685784759a9684424577747767673
col01:   9a679a688889ae48d7a6ada78c999b7d766db688c98c89a8867abb9ab66896675889b569669a55a5
col02:   74545596887a58a6879888853798d9b4899b9ca79758ca6987aaba798ae5aa7a3787688698b4ab56
col03:   5758689596aa799a5b8a978779bcab88bbac8c997567a66768c46586585a7979825b97bbb87b9d95
col04:   788ab674946756788b9a978969b9985a7a77a4b87b8ca9986859c78a3a9b67487874766e74b57697
col05:   72676967b8999988a896adaaaaac78ab7da789a64d1975c9889b9a978968c45a78957aa8d9588ad6
col06:   875878773dc77b61d6579c6b7ab697a697c9a7cc88a98b6999997a8696579976aab5987a69898975
col07:   88e6ba39bb64b7aacac9ac4a8cc798ddaa897a5d7aa59d8cacaa68868467dba99a57b978bb9eb849
col08:   a68b957d78976b875649877699ad6d9678a8b8988b95abea959c78b8c8baca75b7a7d5a8956ba996
col09:   76986a78a9797669b7a8d9a57a9bdab5ca63aa97998d78bd957cb777ca869a66794bb7d9b898cbc8
col10:   b6778a8a9668a649948c897ba69e986bf89a896a65e7a88bb48b76798998787cb9a599aa7caa859a
col11:   966a778a99a9492ae88ca9778a9a959978b7773697689d79cc95ac496899b868ab98b46b87c899b3
col12:   94687699428b8997778beadc2a777a78ababa986895aa5a6cb9cd885899a98b76588769957d9bb76
col13:   855c48d598879b66ca7a8acc2ba7c9f6959bdb7ba898e79d855afa8b67957779486a8a78a6d88a99
col14:   9498759b9699769687aa8778aaad96c757b7f79e89c79a59a7a5ba7ba8895c86aaad8b898998a868
col15:   35857768796b8ab84869b884779779798c8798b99bba86bbb697b8957b867687887bad76866a9b9a
col16:   577588b54b8bd58a8aba78a97c97aa869687eab5ada8b99b768a9aa88c5bd6599997979cbca98968
col17:   669725a6b2a94843777ab68a8895a3799487997bec9bc9b8965976a8a8b669948995a8bb69da9b69
col18:   5377768b887ab68a9a7c58998ca4d778cf87bbad679a6878b7958786c9b8699b989bc879979ab975
col19:   79b9499b43697b6a85989a38c87ab88799a98948697ac9ab997aaa86a7b686a9a6589bd8a9c74996
col20:   8938baa75aa8896da9aaba9aa798695e97d7eeb7b97697cad979c7999a85d89868ab668aa8aa58b9
col21:   267b5999889a8b67b896a9ca6999985cadaac8ccaca877c698ab958b769d857796798944c8775724
col22:   577c5878d57b655ba7b9b8b9b89a68759d76aca9cca7a79959aa8b679b99b6bb7388675897a6e698
col23:   458c7885689c5cbc755acaaa78686647b8a477b398a877a99a9a8eb54ba77b8c7958b97879597566
col24:   648a97898957a49a87697689864a78bbaca96a6ac9788b8bb878b9853b69b8699b69b5a495ccb887
col25:   a788896baa9a9797aac89868e6b7b9bbba3996ba96a987aa787b99a89775cb9787ab79d6b86cc8b9
col26:   a86aa6a99bbb668b8898a6cd6a8b998baddb8b789697c9aa86cc98a988d9dbc9d9ae9699abbaa7a6
col27:   aca9aa6676786a596abb6897bb77ab98c9b8ccbadb99a8b6ccac9799a77957a8899688997a9ab796
col28:   98a7b9276a978bb5e6bb88a7a66bda9db9c7eebcabebcadbe59c9b97aa9cbaa89aadccb7a98bcc99
col29:   28598bb5698b9d7388b7a6a5a8c8ccca99bcfab7bc9e7b8dcaa86ababa7b39c8eccd87b8b89799b6
col30:   8aa7cc97a9aba7a9a8bb95baa4accdd5aadc99b5999a99caa7bae76a9bc7abcc76d889638a9cabd8
col31:   9ab9aa8b8ec7acaa9abac7da9ab9a5e9cbebccb999eec4dbcd87eca9c99dbb98d96baba88abae98b
col32:   d8bb87aabd69adc9b9e8ca9bbdcbf5aeaacdb9bdbca9cecbccdbbcecaeceaaabb6bbcbacc7da87c7
col33:   78999885adababa999ab69aacdab98cacc9bcb589a88ccbccaacba7ccc6abb9a7db9869a6c78a986
col34:   8c9c77c9ca8ccce9bc8bc6b98bddac79dcdaaab9acdcba7b88dc9bb6999fa97bac9ceab7b886d75a
col35:   9687945a59babbb998bcb9a9bfdbed8dae6eafcfcba998dcaaa5cbad9c9baaddab9badbdc7baada9
col36:   d8dc89a9b9878997dcbfb7b9dd9969b8b9a9cd9cbafadad88acdbcb79c7b88bbcda9589ac9aceabc
col37:   68a7bcbb9cad9cbdddac89ca9dad9ac9aadecbdbac788aaafacad9eabcaedacb79a6c9d8aaeb66a8
col38:   fba87b97fc999caa988aba9bcdcad96bcbdacbddf9dbd8cddcb9bbacab9e6de8bb8bece9dc899cda
col39:   689a899a8abca9cee878b9ce99aa9acd7969bbcdaaed9daacbabbabc7ccb9b9dabf999a9bbabc77f
col40:   88da98cb8eb8c7dd8779abaabb98d8ccccdae97aa7f8baaaa6dc9ddd86aaac9badc88c9bbe9fdcb9
col41:   7b9aaceaacea999feadd8d7baeb9abbbc9dbadccbebdabbdecbd9988ea6ebebcb8cbddb99badbebb
col42:   6897b8aa7bcddbc996cd88bcdc9aa8cdeccaebcbcbcb9aa89bdcc8ec9acbbfaa7caccc6c9cba8b8a
col43:   a7aa97dcb8abbc9ddadcfcdef9dfcfb9cbccd7babdaffeabfacb9eabc9bbebbbc9babdbcbadfdb99
col44:   89eacce8ac9abcbdbebbbcd6cfaa9ecac8eaceb6bccbfcdccdcdbec9ac7bcccdacd8bbbbeecbdc9d
col45:   79c4cabea9c8ad9ac9cacbba9e87c8bcef8cecadeddab8cecaa9aa9d9adab7ccb98bc7d9dcadcc9b
col46:   dc9bbbac9dfcb7ebebccdcccabacbcbacdaf8bbbad6aa7cbb9ccccb9cc67dbabcd9daae8bac9bd7a
col47:   bbda9deacd7ddb8abbd6dad9baaac9fedbae9cad8dfbf9acbcb7fabcccca7dffdbad99ddf8c9cbc9
col48:   a7bacfbaca9cbaebd8c9edbaba8bbedd8cccdda89cf9ea8799bdbbbbd9c9dcfa98cbadc9bcaaadda
col49:   cac9fd99ce9bdadbdbcccbfabdb8feceaee8ddabbbce7bcbdfc87d6a97c9a98bbe899dcdc58cabcb
col50:   badbb599bbacfd9e9cd779eaaa9ce9cd9ebbaaabdddeabdccaaaf9b9f8ac7d88fccabbcbabbbcdbb
col51:   f797ddc87c7ab49897a6e7beac88cfa38ab7b9bb9997bd78e7ec8bb7a89bac8ab68dba6899688d68
ROC:	 BPix_BmO_SEC5_LYR3_LDR14F_MOD2_ROC4
col00:   743857578a5797577a586733676797589aa998177e878584697a8a784946938748a9954789746584
col01:   95c699b7979b57c8a7aabc998bb6b5979a579c8c898dab7a8a7968c69a8b5c97af877a9877875c77
col02:   9685b8ba98895ceba899b5b879987c9577599b9ea78d6739776a677689777c6a9a98c777cb5c8871
col03:   a6a8b68977b98887c89cb7ba6ab37c8c88a7bca79a8ae99b9bb8a9abda9a9aca99b8bc96ab897a86
col04:   a94686976b6b6ac768cb96e77aada8a9b7a3b76c68ae968c96a7b987995977c948a9755847497a9a
col05:   77b8798bb7b99779c9a5886b7c775e89e7d7cb96b96996d7749ab78ba7aac8a7a66a8b5aa9b76a9a
col06:   4794a7b7b8695aba6698868cc5889d98f899c9ba775b67699cb78c797c97b9a568a498896668a97b
col07:   69a96e959b9998aa9d78a66d5ca7cabcea6aecd7c8bbb9aba7ab88bbc7868b6a97d8a69aabbaa283
col08:   a8798a99bba96a98999aab4889d969ba5ab8a8b9788c98bdaaab8d54c9a886b46cbc9a88da9988d9
col09:   8acb948d8ba8a896899ca8b6c7adaa8bb7ccad8a9aab9e6a7978abaa6c9a7c9996aaa88889b5a875
col10:   887984778a8997baa669a9c8daaa497c6ba8787bdaa5a9a7a585b8d6c99bacab8ac78a899957c8ba
col11:   8888579a7778aac88ab97aa9a9489e9ab9897998aa4aeb69aaab7cabacb9d7ba79795848ba87a77a
col12:   7673859775979b8c8bb4789b8b7c87c5ab9caab96b98798da88a9bbba998756597d7a7a8797b67ab
col13:   5766aabaa6ab88975adabaab8799ce8af899c9c6afc9c79bc78b979d28d9c8b9cb78aa9b89865b7a
col14:   6a87c956a595479868ba59b9a85abcba68eaa978c8c8c8aa8c85cab5aa787667c9cc78cb99b889ca
col15:   69836749b6858cba789d899898c93dec989b9689abb9abccb9a5a89998889b7cdb87b4d93877d6a8
col16:   aac6977b86698679b8a469ce9a889dc99bb9c8af5bc8ad89a69c78b99ab9c578a79acaaa6bda999b
col17:   76a57b75a5a94867a68a68dc9b89b87bb6bb7c9aa99c47cc79bbb859b97a4cbed5a8aaaa8a9f76a7
col18:   7858aa777ba6b88abaca8874b87877879858b87aa7bebb78b97998ad9bbd97bb869a98a87a7a9ca7
col19:   99b9b86a9aa8cba78ab8e895cddc6c8bacabbacba799b9b8cac96b9c998797a5bbcaab9bbbbb5bb5
col20:   a624698bcb75695b89669b8a78b57cda9cce897acb8c6da8ba99b9d9a7a5aa5c97959bba9addb77b
col21:   88c886969bab9b68ba768757a5798caab6697898bab8dba68ad9a9aabb7cb8a77899a89779a97baa
col22:   a6a6aa867797d4b9b68baaa8b68bb8d9eda968a69a9998ca8c9bacdae9b9b7a3866bb8acc5bbdab9
col23:   8869a97c796984988ac87aab699dcdd97977cbc9bacaaa79a9aa885ac99a9777997b8b9a797a6b8a
col24:   bb76ba9a9a6ac75e79a88b85b988aba8d7a8b98ddeac9b89999bd999abb6da7d98b97a99d9c9b553
col25:   b945ab769ab798db7dcaaaac98c9b7b798cabdcd9c9baa8bbaca8b58b8acabb8beaba8acbcb99ac8
col26:   aaa6787d889abbc7b9b8acecda7aaeea9cabadbaab9cbcced7cec9ecd7aeabb9ca9bdaa76bbafac9
col27:   6a49cad9c59ad777c98aca989aba8c8a9b9d7bfc7e6beabcbbd9e7bbcab5abdabcbabba7ddcb8aaa
col28:   aa88adf9ab7aa78aa69abb98a9bacdaaacadacc8cbeadcf8baabdeba8cbbbadcc69bdccbc7a8a999
col29:   7faa9d999bb4eabccdc9d8d8cbbbffbdbbabcd7adaacad7d8defacebccbbd9ccbbebcbd97b5ec9aa
col30:   97889ad9a8d96898dbdd4b99b79dbcacdb8fa9ceb9e9dbf9cbadd8eddbbebfdbdeaabaecccaddbc6
col31:   bca9afdcd9ae8daa899acde9cecb9cecbbe9b95bba8aedebcabdabd99aeddeacadbbdfbde7acdb89
col32:   c79a8da9d9bfccac99bcdbda88cbbabcda98cebce9abfadceecceacba89bebbd9cacbdcaea9bc8ba
col33:   69c8b8bb9aceabac8955abbccceae9ccc9c988cdbbfbaaabacee8aba9efcacabcb9deadc9a9abdb9
col34:   89b9aca8cbe9bcc8cadcd9cbb99ecedbfcfbcada8cccfea9c9efd8fbacbeeb9dbceddadba8db99d9
col35:   c9a7bd7bb9acbae6b79ceccbe9dcaeaafdaeb7bca8bbdcaeac9befebbed9fced8eceabdbde7bbe99
col36:   b7a997baccabae9bc9acadabb9eacdb8cddaeedafddaccdbdfbebaea8ce99fba7c9dd7acdb98ccab
col37:   97bdb78bdd97bdbacd8b9bced8ceaeffabeddcfdfdbf9afbbdbfddcfedcbbfedcffaf7cefda9fa6b
col38:   99baea9ca99ebacabaacdbccecbe8adcaecbdacfecefefccceccaaccaaabfdb8a9dceafdaccc9dd8
col39:   9acebcce8c79eca96bccbabd8ecfeefecbbfa8fcdcbbdbe9d9daddaabcb8d8abbbcbbbdcc6ef5ccd
col40:   ba5ada9abfda7cccb8bbddcbbdee9bfdfcbdcaabcc8cc89cbadddeeeedbbeef9f6cdcae9ccbcdede
col41:   9adaccaba9bcaec8e98bb888ddefeebeffbdbb99aacabdecaaccfadedaf7fddaebfeecfb9dbc9acc
col42:   8998a9dda96acc8acacdb88bbeadd9cddcdbdbdcd9caefbbecdebbfcdfbafcddecc8caced7aabecd
col43:   7bdd8b8bcfbdaccecacbdcaeecedbdcabeaebfdbffe8ccdcdbc9ce8dac9fcdadadddbcabbcdcc8b8
col44:   bcbdadbb8bdbcbc7ac7cd9bcabfdbbaddd9bddcedabbeccdbeebfdcabadeceb9cdbcb7cbcc9cceac
col45:   abca8cc9abeccd97abdfbcbcabdcc8fe9cd9cbf9eceefabbcddddedafd5acbca8dedadb9fafce8d9
col46:   aaa9c7bfebbddcacbbab9bccddcbdccc8cebbaefbcdceadccacfdabccdbafaacfcbbdcbfeacccfbb
col47:   9c8cfdaaeb9eddadeadccccecdeccdbeac6be9abfabcbdaaedcc9bbbbc9c9aac5ad89cecfc9ebda9
col48:   c9a9ccaaac8bfcfa7eabccdfcdb7badcdcb99bafdbdacfbefeedcacbcbcdedd9bcb8c9badb9bbdac
col49:   8c89bdbdecdbf8ccabfcaca7bbbedccdfdeeeccdceecfdbffebdfbedbfbdea9eafcbbfdc9a6cdfbc
col50:   ab9cbc79b9ccbcbb9ceebcc9acbdfba8dadedaf7dbcafaddaf7bfcbdcfa8effae9ecadb9dd9caed9
col51:   baa9adba8babc9c8b97e9b8abaaae9898d8cacbc8bbda7ab95ba98cabb9bacab99ba5fdba879dbaa
ROC:	 BPix_BmO_SEC5_LYR3_LDR14F_MOD2_ROC5
col00:   3825354783784567a7749479969969a227774a9967a589b59668a375796665552b85578b68941655
col01:   567947776a66a7a5cc9aa78847a9dd88aa57b9a7b8b767946aaa79959a669a98a797b798857585c7
col02:   5778586a757a867a5b85a97959a855a86ba5a99536588859788ca78952bc5489a5a9b57556a5687a
col03:   7386268566a9a937a785a8a64b686577a7bab9ac8867a58aa8778656a6b478c98aa77977a6ab84a7
col04:   7955a38bb787798bfb7a9aa796aa898a8a79754967c89c85a5b5667a88b8b885d999767796797979
col05:   68575976b7277aca5aa9c97a6acc9a5577a6a74aa55655a8469ca7885bdb8b689e84658745996575
col06:   52ca46a976878625a798756c89b9b785b9a6a85aa689c77997896985689788a578998869a864659a
col07:   156aaa84589766964b9996a6aaaaa9b3bcb77acb796c9b679ae8bd97aaa7c876c93b87a9774968b5
col08:   96168976766394879686a98d8a669b9c9a8796aa699aa68688b3599ac95b978456869a8887299879
col09:   744aa59916b98667797a79999a77ba78c7a6ab8ba957ca6cca89bae79a879aa6a899c88387a9a566
col10:   6a99b3c7748897888797a68896956c866aa79b98688a9789696985a6b9b8aca88aa78978aa668aa8
col11:   6a8869988775a87caaaa77696aa9acb8b86b796ac786daba479895a8bc6ad68a9b8aa97877928877
col12:   95667b95cba5679485b7cc6c89c7b766adc79987668757da7d8cb946a85a697a978c679987767c92
col13:   867895a9997aad7d588b866a8c999eabe6b6cb9878bb78cc88b96ac67999997ab9b59885b8a8acd3
col14:   5a9c9676ca38766ab966598757b6a999b7678a7977da478ba5988c97a4ac97a6999677a84889b9f9
col15:   756b5ba8a54978ab7693bb976b896ab8b5a9a879aa7a9977b9ba77879baab6677b779e7a3aaba899
col16:   87967789898a6b76b8b8d9887758be6898cb9b8b98aaa9baabd1b889a678bb66ab9c97a459d89a98
col17:   7ca965469aa766a396a676a88a8689b77859a68ca9a7b6c887b95aaaa898b8ab5a5aa967a996ab98
col18:   a48986a87da89a5765b7785a9b788b38b7977c9baaa6abac288cab886c786aaca7b95787568baa77
col19:   56976aaba8bc99779bca59d997a79787a8b9abab998a8bab8ba888b786db997adddc9ba38a979a76
col20:   784da796866786a5a99689355ab66979a696b6cb76aa8ad96b89979b97ac888a79997b85a66899aa
col21:   7986baa6b7aa9b65769995ca7978678aa8ecba9abcc7ba58c7baabba88aaa8c64aa68c6747978787
col22:   664494988279979a6cab7b9ab7acc7b69aa8937dc887ac89caa89c76967f88a99b799ada7ab58589
col23:   7457965a878683868d558987a8898bd7989b99658286baa9c959ab99b8aa9ba7a6b797898a9894b7
col24:   77759b58d7a8c98b9a86779ab7899a9ba98cb88b6c8c98788aab976b858b87d899ba89a58c768786
col25:   7779aba585cbbdba8abda77aa8fdc4e798b6ab9bbb9cbcdcaa7e8777c9d99cbabca656ba99cdbf97
col26:   da497a967a786cc9abbf989ba8cbdb9dbba8ab9cbb9acb9c97aaeb97c9c9caabdbcbc6a9b9ccb89c
col27:   8955cc8688a8a9d99ba4b7ab9d8cabcabd9e788fea9c8cbbababcb9aca997d9cf6b58acbc8b9b9ba
col28:   8a9baa5789f6bb59c8acac89c8ac9ec99bd9dfb9f87cdfccbab9acf8bdbacd9baba97aaeebcfb9a8
col29:   a5a7aa698bd8b969cbc6aaf99acb84cca7cdca79bd9ab9dbb8bdccbcb78bbcb99aedcdca8e9bbaea
col30:   79c27b86c9b97ab69887ed679bcad7ccdbbc8cddcaaccbcbdba7d8f9999ada978dbca9d8bafdacd8
col31:   cbb98acdabbde8cbbfb4dcbabacdecffbabeeaeecfd9ecd9bacc9a9cbcccbbfccbada9bce9ba99cb
col32:   fbc9b9d9ab9bb79a8c8ebe9b9aaacca7ccb99ddbeaa9beb9caccbbdeecabcec9a9fcddbf89bdcce9
col33:   4b87babb99b7b7d99bab9dcd8bd7a9bd8eccfdea9bebacbacda7ab89f9cfde9cbbea9cbdafdbfe8d
col34:   99aba879d989ecf8c7abab9df99ebb89ad9edabaccfc9dddccacdec9cdedc7dcaccaebdbcdbeabab
col35:   979a8c9ac8deccef9bacb89bcaeb9bfdacbcbbdebdabdcb8cfceaefcfedbaed9b6dfeb8dcbfcafd6
col36:   95899dc7db89bc88cbbb89cbab8eabdccbbbbbccf8ecd6cabeff9bbbfebfdb78bc8b7f778cacbe8a
col37:   8c9baaaa8baed8ecebcdabeafcdccdbfbaaedcbdfeadccdcbce9cf9cedddeccccdcbfeb8ddcadca9
col38:   aa9c9a8a9a96bbd9abd8bcaaddddfbdccfea9e9ddbfecedfaeecceecddc6bedddaffedabc9caed9b
col39:   7858cbbba59cebc8a9cddeb9cdb9ecadfa5eeddbaecabceabedbca9bceddcc8ddc9bcedda7cd9daa
col40:   d5b9adeba78a8aedc8a9eecafcbccbfccbdbc8addfeedcdacefbbbfcfbbc8eadedbcae899baddbac
col41:   ad8d7baba9fb9cccacb9eddbaefaf9deedf9acca9cabbdbcb9edabfbdaabdbabcccaecda9cccbaba
col42:   ba86aabd6fadcababbb9a89aebccdeeceddb9edaedc9bc9e9e8dcacbcebbcdcaabcce8dbb9ebddc8
col43:   c9c9bfbbbeb9bddcd9dbbecbcefdbbdebfccfbeeaefebdaffddca9ebccfdefdefefabdd9aecaddbc
col44:   a769aabca88d9b8cacae8baedadeaeebcc98b96dcbccdeacedcee99ebbfcccbaffccbcd9bdfbdc9c
col45:   8ab99a7bbac8dcd76dbcb6cbcbcbf8adccbedfccddcbcfbdc9ecfdcbdfaefcd8d9efdcdcbdea9be8
col46:   c8ea9ad7a99a89bbddbd9facfd8ddbe9bdadabecebecae9cdcddeecbfefca6cccdbccdabfbbcccdc
col47:   8894d9bdb8ac9b99d8abc9eebdbae8deadeebdeceeef99cfdbdbcdccebbbaa79ddfdedbbccfaabfd
col48:   9799fc8c9a9c8a6b7eb9bcbbeafbcebdebfd9eceeacbcddeeecccd9fda9cdccbcbdafddc8dbdacfb
col49:   e9a9edd9cadcddde9aaacccbddafcbfacaddfdfccecafddb7bccbfccc9fcfcfdccfffdca9aa99e9c
col50:   aa798cafadf8ccaceeeddde8eeccfc9efafbddbcbee8cccbbdeef8fdbdbaab9ece9debbeea8bfcef
col51:   998ce5786ea9a9c7c99ca69acdadca6b9dba9ba9a6dbaabadbadad9baaca9b9fedddbb8c878acb8b
ROC:	 BPix_BmO_SEC5_LYR3_LDR14F_MOD2_ROC6
col00:   671657656869778a375a995b92897a8979baa4677679a6b6657778876966755598c738639a789556
col01:   6885887797bc78a9b9899ba799caa9d8b75699a7999a7869988ab699c8977a968a77c66c4999a836
col02:   67969b6a56aa7cc665a977499958aba999a92b8766a98b993889dab637b8ca9ab977779969959a84
col03:   865989a8997b9799ab8c996ba76a69989eaa9aad9885a88a797de49879ab8a67b8887a779a78c778
col04:   8767bac79786c589a887ca77998aa7b98aa98893977899db66a7cc5787877aeaa87d8978b3877486
col05:   68d787b63bb9787788b6998687a8a78dc86c99a978a9a7b79996a9b6669da8898ca99c9a9a6aa365
col06:   5a79954b986899aa956259b798aa887a7887a87aaa99ab93995b38a7a7aac7848cbb856897899c78
col07:   8ad9664a7ba7c795593a6a67879abaaac8e59aefa7dbe99b9ad78ba8ba89c874dad7b87a78c66997
col08:   a8697d77a878886597dcb5887d999a8977a9c567a6b9c77b9a9c97aa85aa4b5bb9978964a777aaa9
col09:   58a5979899a86a8595549cca89ca979aaa79c9b97a88bb7a9b9babc977ac9b89b8882cba9aa8a776
col10:   6857789a6b6ba8aa886c99bb84c7b9ba9a996c9888a997a685ab5979a797d68caa9b8a76bcb69aba
col11:   886929a7a759aa2b778dcacaaa999de7a9cbcb9798a9a8ba89aa99779c889788a997aa63b76787a4
col12:   773c799c5679b997da9ad89abd68ac99ac8b885b7a65b97769a7b99a8a7989aa6687769a97696589
col13:   69749889a889ba97a89caad6ba996a6ba7abc3c6bbbabb9c99dacc669c78879f69988bba5a989998
col14:   36977937a9798ad9c9796a8879aa89e9c5a87a9a988c98fa9bea6c986a79b7a5b9865a8798966ba8
col15:   6637b84897698a79b86a696986dad9b8c9d9adb9d998cabb2acb89cc9997adaa7a693a9b88888ba8
col16:   9758989aa595a8dba7beab5676c97a8db788668a5ca9a9baa9ccc7a89a967fb7695b77c76c845aa8
col17:   5367698b556ac9ba8896bba76a677aecb8ab8838bdaaacb89aaba999a86a7a879ba9a798789788c4
col18:   889a7598aa99ab877437968ad6bb86cba99ba88cc95ba888b897d78a58ca8ab8c6d787acc9166798
col19:   aa8795a8aa9a8779a987aba8a6d88d79cac4aab99eb89a9a99f7b76998c569c49ddba9aab74eb999
col20:   a877b99a66a758a68996898c696a98a5aab8c999b6a8b8b78a97e3ba976d8ac9878669abb7c8a869
col21:   a987c9aba578fd858a8abb99cba78ac8cbabacb68bdaadb88c98997aa9c7d89899b8aab8b9b993c9
col22:   94b98867cb89a876775aba9ba886b6aaba8b9b9697aba8ca899a4994a5a6a97ca8d87c8b59b689aa
col23:   79a87b9fab77cb8b8a8696adbb9a9a899aa8ca9a7588ab8a999bc7ba8aaa6a866779c94669ca796b
col24:   98b6b667a8a489a6ba787c97b5da9b89bcbabc99887acac9979499a9aa9996ba6aca799ca9799a98
col25:   bab79b7cd84c997a7a9cccc899ca97e8bc9a99bfa97ac6bea8a9a8b8699794aaabb9799c97c7bc7b
col26:   97c48b9a998bac898aabb879ccbaabc6cb9bcbccbc99eacbbbabe997cbc98cba88adcbacaa78a9b8
col27:   bd8caac7b98acaa79aab959b8abae9bdaabfaaccc8beb999bdbc7b9c9aa67898bbca76ad56d999cb
col28:   5a7d8b97cbba8abb99dc8ec9ab8a8bfcdc9bcbdbbd7fdbaaebbc9cb89cdaebb8cadaec9ceac9abc8
col29:   69bdcbaab99c9becad8bcaaabbbdc89edfabdabddebfba7d9db9899caad9bdbad88ba9ebacdbb8ea
col30:   989a8798a99cbcca88cca59b8eb9c99e99adeabdbaeca99ac9dbc89aaadeab9b9dc99d9bd99b9ac9
col31:   ca7a9b9a89cdddcaeaafbecdd7b9b7aeecccebaaaadbbbdbbabbb9ceba8abcb8cbadba79baec9b99
col32:   9a6acb58bbadcaaabafaccca96cca89cd899cd8cdd98d5cb99cbcbfebecbeecccbecbcab9adbcbc9
col33:   c9bb6dcb5d9cbcccbeadaccddcabdaeba9b9bbbdccabbb7cece9adcaacb9abbfb9feb7adfc9a8c1a
col34:   baab8ba9a8b8db9ccf99d699bbbb9cdbcddccaccbcceee9ffc9b7babfbb8e7faabbead9cdaea9b87
col35:   aaa88cc9adbbb8dacbaddadeaabeceadccbaeddfc9b79afdcacfdaadacdcacb7bebacc6ada8beaf7
col36:   9cb7b9cb8b79a9dbbd9dcca8bbcaacb7ccbfdb8bcdcafdfe99bbbacdbaaaccccbdbcccbc9dc6af8f
col37:   9bbcbdaae9abccbbdeeebdfcfdbbbedbdbaccbecd9dcbae9bcacbabb9fc8cafedab8cccccab8dac6
col38:   a7bbcbbbc9dd9adabef9fbfd8fcafccdbbccccf9bbcbabcabcaab8bdb9bbddbb8cebbabdab9fbdf9
col39:   799d7ac98bc9edb9ac7aab99fb9cefffccbc9caa7dbbc7cfb9a9aecbdbbbf7d9dfdabac7c8bc9bdb
col40:   4baeabdcabfa9eb8a9a9c9becd8ddffdafedbbc89ca7dbdfe9abfbdacdcddabbb9f9bccccfbaada9
col41:   c8baac9bfbbd99cfcb8acadcacdcdbebadeecdccb8ddee898bbfdcdc9adefbeedbdabddbbcbcee9c
col42:   88bccac8bb9bc7cbc8deafed8ebc9dddfdbccfbbdaad9ddadcdaebd8b99cdd9a9adbaf9bcbf8fecb
col43:   989acd99acb9eaeccdaedbbabdfc9bfe9cdcbfaafecefcecebbceccacefdcceedfcccc9bbfedaea8
col44:   a9d9baa9cd8cadebbbbccdfdaecbddcddebcfcbefbd9becffa9accdfcccbcbdebcc88c9dcba7d7ca
col45:   8cbaffba9acacdca9d9aeadcbbebbcbcbedabbad9dbebdebffbfedcdc9dd9ecabbf8a9abbab9dec7
col46:   bb7bb999eaaca8ebdacdacadcad8de9cecebedccaae9dcaa9cbaafbcbbdceacfcacc7afdcbbcfcdd
col47:   ceacdd9addcb8daddaddacfa8ead8ffadee9bddec8dbdb8accdaf9cbcabbcff9c9da9bedbeebcbbc
col48:   bcb7a9ccdaf8dacdccbbeda8eacf99cbef9ecadccbcb6cdef6ecdbdbcd9b7bdbcccc99ceeefeafbb
col49:   ba8adedabb789cbcabbabbed9ccffadadacbcdcbdeadecc9eedfeefef9abb7fbcac9bdcaabcbbaa7
col50:   69abbebacafbd9ecaabcbbb9cfa9d8adafbed9feddbfcbbebdeaacacdcf7bdc99beb9adda9dbdbee
col51:   89a798d7b6b7bd987da9ca8aaa8c8797aaa98adaabbad8a6cbccaa7aac6aecdcacbab7c8bbbc99d6
ROC:	 BPix_BmO_SEC5_LYR3_LDR14F_MOD2_ROC7
col00:   98662655658677459897a765997a8653828878a7897766783646879a4758786a5576845a488a7864
col01:   47656a9977b8a8b88799899a8a759b899777ab588c99b9c38b985956776897988799b5897b8a7b4a
col02:   a64e78897884b595b8879dba6a9675a6ab687a876b669a87a35aa69997a8388bb596496967988688
col03:   39768c8a7896ab3758aaa6e668a8d9a7c5a58c7798aeb96769b75c74b97974cb8885899678568754
col04:   7599779b7358e583878a6967877a86989986a87bb97aa8b67779868a189878799395849789b99995
col05:   aa35877a656989987899677b478a999a79749abc98a65584969ae798458c764a98769ca88aa68a96
col06:   b448a964aa7578a9869836b99a998b276a787749a93a97998ba79665c7a989c76688699796fcab48
col07:   4ab4cab7d76786aa78a7acb8cb395bacbf88dc9aa79ebb89aecb99b7886ba969b9b898a97ca87b9b
col08:   657a946b586595b6ba9877aca87a78a8a87c69cb7599ba5b789b999ba8a8bc97a6b9598799ac888b
col09:   687684a7a8778998a67a6789ba9ca59569ca8a686ac497b56b81b977a99c977dabb95687678bb785
col10:   48767759c6858bb7a758d9c768abab7797bc8c9aaa87997799a8698bb8c8bb67a9947766aa89689a
col11:   798879a7b767c9a6b89b68a898446a9a979966a788ca88ba96aaa8585ba8785aa7caa9b9a8a87c99
col12:   7648bc893b896b69597679a289777669cc79c876a9996a89ba88b69a9ab7a877a988589928987897
col13:   897984c7749aa893b2b9b9967999aa4899bb6979a9999cb778cc8ab98896aaab7ab84ba9c8b8b799
col14:   76a8a96a88a4789267668a8b4bbbdead9a95bb6bd9acabb66b788aa8a787466a9669a6a7adba9986
col15:   5aaa98c7c7372c7c865ba998d8cc97999ba7ad87ba6b889a8e77c8dd858abc657697988897a99bb6
col16:   978677b6b77a647a89988988594768a7a6987c5889cb96889d59988889797a99589ab679688c88a8
col17:   77a489867a6b98b8a9a87a9ab88cbb959a77c6a6a78e9a958782998678cb689b89489678b69a84aa
col18:   567ba8468798a9aaa888699bbcb7898898a797a7a96966b8fa996aa7b98aa7958777b977a54486d7
col19:   68c5a878b84678b87bba9b97c9e958baa57ecbacca789acb7b7979bc76b5ada9a7ba8ba5ca899876
col20:   275a58a8e6a995689abdab87aa6cc8a8bc7aa9c886abb86c9ab6c9aa89e9bc9ca87cab9977a79ba6
col21:   768aac987b87abaa87a975aaa9b9a977a95c575baab7ba9668987ba5a5a8a8797ab88b5a77a57b45
col22:   7aa694a6779a9b779bbaa978a7b6999c7ac8b7999a79697aab7a79bb9dba9cc78788a996b8b8a7a9
col23:   65998585597899ba9a8597c9793c7bdb7aa6ae8a7b8b8a5cb6887b93ea589c98768979a7a9668998
col24:   a89777a87a2896757dbbc9d58878999b7b9bcaa78b9db68a8988b7aa9caba888a8bb79a5b9b87987
col25:   75b6767c96b8797586abaa989aa9ab9a49996b97c886b8a9b9cacb9c9ba9aa9e66a5adbbc99aac98
col26:   97858aa5aab9995ddbbcdaa9b7779f8dc8adb96cc9bbcbdcfcb8b8bdaacddca6cc9ebbadb8b8bd88
col27:   779b5a9958b8d7b89c799bdadc9b9c99fab8bab8eab6baccadb9cdbc96bdbcabba7bb8ad79bd9bc7
col28:   bbc9c9aeabbdba99fbebbd6da8a9b8ec9bba6cbbf9bd9ddc88cbcb9bbdbaab8dbd7ac8edc8bdec8d
col29:   66779b545cc8dacaaadec8d7d5bccb6ced9aeec9db9dbb9ebcbde9bbe6999bc8cbcabc9b9c7a8aa9
col30:   a7a7667c89c987aaa6b8d9dbd8baaacc85bfccaefcabbc9e7bb9bdbdacdc6d9dcbf9db8ea958cbdb
col31:   bc87b8bc7c9a9dcaaadfb8a99ceabdcba9abdaceab9d9ed698dbabe8ccacbfcbcbd999d7a95a8ad8
col32:   9789a9b7dcddec99b9e87bccca8cbddaccccbd9e89defcbdbebdfccbebdbc8ac99bbdcdbcbf9a8dd
col33:   bba9e899997afe9ee9babdefcbfbccb9aebec8d9989bbbbfa9ca8ccbdaaa9caaaafd9bb9db99da8b
col34:   b8eab9eac9dcdb89fdb7a9dcb9cdfddccdabdc9debed7d9b9aefffe7d9f9dc8cfecf8abdcae9cb86
col35:   8b9b69aebcc9daaa9b8aabaca9fab9ccdfbaeca9caf9fd9ec9edcdfdddcbdcccbacca9c8c9cbcd8a
col36:   7cab8b7b99de9bbccdb8ccdbcc9cabe7e86c8cbaadc9bdbabfce88dbddc9cddee8ebcdab78bcecf8
col37:   dadcabcb9adaabba8cd8facebca88cdba9afbcca9ce9ccbcee9fcdde8adbccebbadcbdbbdaadceda
col38:   bd9cab9dacb8bb8cebfdcadddadcebfadbecdcdd7bdccddbcdecdfcefbff989cc8eddadddfbafbc9
col39:   bc9bcfc9c6aab9ebc8edaa69acbdb7c9adbdbdbadbddccdcbedbcfacbebcdccbbaaca9eebbddcedc
col40:   ae6ddbacbbfcdbcadd9bfccfabaddddbaaa8afabcabfbcebcaacccc9ecbd9b8ccbdc8ac9acdbdedc
col41:   78aae78caaeba8cebcb7ec6ccdcfceaadbfcccaeddfabececb99c8fb9dbeda9bdaf9bfddfdbffdb6
col42:   cadadebcadcddcab8dcaa8dacdecdbafacec8bcecc9cda7babdddfeebccaacef8b8bccebebbdfdaa
col43:   bafcbcbaabeaccdcbdefd9eccbc6bacdedcddcfcbbdeeceaecbd9dfcbdcdccabbcbddcecece97ccc
col44:   a9acebcaaadfabad6fe7e9d9cebcc8dbfffc9afffccc9b8bffcedebddbecbedbdbceefbdecdafbaa
col45:   ba9bacadabbcbcf888cacecdecbdebcedfcdbabeddcdaddaddfe9dccdcafffcadddbcc8cabb8dfbc
col46:   8bac9de999ddbadbeadbadaccee9bbd8ecebfbcdcbddededebeaefbaa79f9ab9b9dcbbafbcfacb9c
col47:   89b9cdaebce8ddaddcfdbfce9eefc8bebcebedaccdbcbcdbecedcbaebbcdbbbaabaacbacccdcdb9d
col48:   979abb9bb9bbaac6dfbabecfeda9beddadbbedfcc99dccbd9bd9d5dbca5aeca9ecd9ceebdbebdcbc
col49:   cfbbdc9cbddbdd9ddddabeeddbbabfcdb9cdeacdcfdcddcddbff9fdfc9badd99eabbadef98daafb9
col50:   88adccfcebbdaa8ca99abbed9accaabbbeeedaff9abeebe9a9adde9ccebbfaeccebbfcdaf9afefa8
col51:   b9d7a9a7d9ba3ea99b89e7dadc8bbe8dcbbb7dccda99b7cfaaa8e89f6cc7db6898ab89b9caccc986
ROC:	 BPix_BmO_SEC5_LYR3_LDR14F_MOD2_ROC8
col00:   735947388558a7676a474c37859796468724767656984358a357554a456685675379584787469547
col01:   567758a3968795846638757a85478666a65994bb99468987a827668a777ca8b95865777a97478a7b
col02:   7789948a6aa99675b6768898886678697b9656878537a987a5b74864c5b7a9ab97797b8488789686
col03:   76386a7496772a89877268a78596776752497975876484785375b8b7777366a89447a7768976b758
col04:   662344a55734967696a759a89897b76a3765548926b296886aa59368b7587aa579795a5794776677
col05:   638447774a9b879b5b7b648665aa986577876954685376a9768c9568b96564a878697588a7694567
col06:   5a9695876765537996b565758888a699a78398658a6978ac5675a878a5765939b8ca86ab677aa647
col07:   a7775457675457895a967b5797887767b5b77b7939985c678799885a846aa7ab988787b577976786
col08:   58956956674564477297775a58c7a6968a97757677a89686a9b6766927898a8a7798a6866a7895aa
col09:   5859466646635a784944c7888468688d9684614469484777aa6465776868686865a95aa4aa957638
col10:   92259843935786ab594481c3886558988687766689666a6c7784a6a798689a955479654797754797
col11:   459594787367a8a96446897555887b846898777d58a79b689a78578985779975556786786871ba97
col12:   677424598456569756b698a979a793858598897c686659c7c8a7a55a85746a87489949a87a987555
col13:   436b8589658889645696439579c9679da78765a7699a866b9568a679a788787b87a5789444576996
col14:   66836545648cc6a9a26ba86799879b96794897abba899977b755c976786a7994795575657b9886a8
col15:   35536895367b59b64598949846a99cb98c49889358b7a35986aa765788a994985766a78866787879
col16:   9675469794635698a9d5a97774987884a88345a97865769973b9b68c697baa89b6b996b8a9a79397
col17:   2265b8957798898587857a7397a8c956889b94b779c86759b769b79677b886748cab949aaa6877c2
col18:   765544569794b4a79a2767988894838867889b4887b5bb8846b8579876c99687a68b7a656788b873
col19:   687445766659774576898aa996879c6a178673c8779765d88677a98d6aaa78a96b7687776a49a655
col20:   93a7576755aa7a3775669668a748a96977b8b9a9b7b98aabbb77c89aa7c89a78479685a788987859
col21:   75a695878965859669788a889867769b894a89549a76b8887ab689a888767899b46bcc7a78d98763
col22:   a7768657a9b667476775868748664943779aba89c657685698789a949c889a7646b798ab4b96a887
col23:   77456578765386996467799878996866a898856a96a86b67767d66977ab45799b684775698845a9b
col24:   a5876a4647739758488599b779b97816b76a4a96574b7a6677875985875494cb946a74a87a58a667
col25:   696658985856949799b79477896aa79a998bc8866a787a8cc76aa9b8a9878a998ba63686a966762a
col26:   7676a773a75993c965ca6d84769a9a9ab69ca7a8bd9c98898b897d8a8a86bbaa8aaa98888a8a8869
col27:   88a799b9bc5a877aa994a7c94b99ba98a89699a7a98a6c84a9ac7d9ba9abb8779a29669957a7b9b5
col28:   66658b68a97a9bb87ab97aab78a6cc79aa688c99daa98a968ac7b79aaea9a9bc6aa98969abd8b7aa
col29:   b89b7795a697aa9988a7587a9ae86c97b8577cbb89aba87795989c7977abb9aab97c88785999c7b7
col30:   8788998787aa98a7a79ab9bb98c8dc988dc8c96b99ab7b899aabb7e6b8b9c5c896887ac98a987767
col31:   b957a57a769a8978ba69a69accb7acbb7b7ab979799dcaca99aa59fab99aba77797bb9aeba95b766
col32:   88bd94c77aa88a9688abc67ac799bbbb99d8eca998cabaa8dbc9bcaa987bb9adb9b69abe9bb798a9
col33:   98779b8588ba98b67888a7aa7abacbb8d98c789d9bba7999dcbdc97cadaecbaacb97db8c979ca8d9
col34:   77258799a8d799989b989daa8addb9a9aababd9ba95a69b8bc7e89dcbacaba9c8cb9b9bacbadcaca
col35:   9789c9b9b9fa9675ba9b9c996898a8cca979aaac8bacd9cb89cad9facd9a8bbb9ca9c78aa5d9aa78
col36:   989ba899ab8ab97897c98bb88ccbab7978a7b97989d8a9dbacd29dc9b8bd99a7adc9b5d678bbb889
col37:   a6a98997967b9b8bb97ac6cc68cacb8cbbebfdcca9bc99ab758ba6abadecbb9ba8ca97cba7bab7b7
col38:   acd98cab97baa97d87bd9c9d8c89aabc9bbb98acaa9da8ca99cfb9ba998aaaa9b9aada8b8dbbbbb9
col39:   48ac8da9686a65a99bbab58aa99aa9bbba9ed897abcaaadb88cac9995abeae79babb89aadbdbc98c
col40:   88a7787977bbbaa7a6bcb9c9bcdab99bcacc9ccce968dacbeba9abba6ccbb8dac4c9bac99caac9c9
col41:   ba9c8bb8bbabbbc7bbb79bcac99d9ab9aaae8caeabacabca7dd9ddcdcb8da9cbba6d9977dbbeca86
col42:   7bc9a94c6aa9b89cabe5bcb9aace8eca9d8adaab9abcbcaaceb8d89daaac9aa7bc77ba98b99d99c8
col43:   99c7aa8eb9aabb9aa77cab9bebff9acadaeabe9bccda89bbadbd98baedba8abdaaddaaabbadcac85
col44:   a9879897a89b66f9caa9bb7dabc8b6bab7bbcbdac8abfb9bbabcebd99ee9abdacbd9cc7998c79a66
col45:   99c6bc97a9b7ab895acebb8b7aaea899abbecacbbaaebccbcce8b8bcaab99ca69ccbab99dbaabaa9
col46:   7988896988c8aba87bbb9be789999cda8abad9fc99dca99acabbbe9bdc97ca8cc7b7aab9b7ad7887
col47:   99b99da8bbc988babdcaca9998f7cdbbfbcbbbca9acbacd9cf7cc9ecb9baeabbb7ced9bbdab7d9cb
col48:   a8b98a8b896a9aabb9da67aada8cbaaabc6c6c9cabfceeadceacaeb8acc8cba9aaaabbba88d898c7
col49:   b7ab8bbdaab8bba8ae988bbbdc9bdbdbcabe9bbdc9bcc8e8abeaacdead88eab8bccbbb9a8cac8ae9
col50:   6a8ceabca99a6babc999edb8aacaf8ebc8bcf8cc9bcd7dcb8ddcadec9b8c8bdb9a9b78dddbeaaadb
col51:   9988789866b9aa9cb657a7ab7b8aab4ba9b79a9aca987a8a898ab8ba897dc9a6a9abb98aa8a8a8a6
ROC:	 BPix_BmO_SEC5_LYR3_LDR14F_MOD2_ROC9
col00:   17796a7935688831a75644899e79665a7a487968477455462bc8576769c5765991a9457a64835a31
col01:   666a6c79859966966a7ab9b9a879a58b9bb9aa8cb4874669465b87ba259aab9aa874997868b9a795
col02:   2a68998914858576a5aa9888b8b88aa858a89a595b677899688a5b6d99794c9a5887576864469874
col03:   89657bb9c478989aababa7949967a7799ac99ad6c69788d8a95a58887ac8b797869c788d577ab976
col04:   a5937a7b657796785a487866dca587a67b6a7787798b936766bdb9278b9b9968a959a898a68b5869
col05:   658c747a4bb8888d98abc68a7798da8a787a688648b6c99a8ea98b3677678758ba98a7987a753a65
col06:   35954457a796b775768a688a678b7bb59aba9b45a5a66856da676a8896b5ca79c774aac8a6956b79
col07:   9bc8b8b78b69b6775a8c79868caa388bc98a9aa8788cca4a679b77ca79bc7bd666ab7478677d6a89
col08:   678a7967a8b9aa96979799a6b689a9aa9aaa98c3a4ca974778938b95989488ab98ea86a7ba67a9b6
col09:   aa958787989b67bdd758aaa98b9c7ba7ce958c76a89787a6989969b1a588a9558a89587bab8b6ac6
col10:   758569781ab9ccd897b9aab76bab89bbab73896665aaa8887d472d99656ab9a787a7765795788a49
col11:   ba75876679a95a7a99c699a8a79c769d887597f5bb8c9b97a979c9b89698a978567c6b47ca85a66c
col12:   8738899997687ae344b5889b9889aac97bd7c9a9a5c869a9589c9a888768d9878a76994888b9a37c
col13:   95b899697899caa7b697a897ada848868fc55a9c9a6ac8bb45a6b5b8b9d8499758378798a78888b9
col14:   5897a8a79ba4a978677899ad859c99bb8bdeb9897a97b878c76c8a8959c7d7697886587b87c8a989
col15:   92578b5bb8549b9a9baa9c9748baa9c89b99887bb997898a66c967a9ba737a7abc6b888979aaa787
col16:   7887a896bb78869ca8cbdc8749bb9bcbdc9a799ba5dd7869a7ba876969997d7796696ca97886da98
col17:   655686996c989aaa8c7b68a9caaaa9a98a69c77aa998d8aa7cd977a968988a7569b7499798aba788
col18:   4c598998d7aa88a7899899a779e58ac77d58acb8baa978d5d899b9aa77ab7ab5abb7a5a9865a39a5
col19:   798675a57984c79977a678c9b9d78ccc9b8b9a9c889bb9ab8ba7778a9b798aa8888874acab937545
col20:   a68dab768a89a8aaa787a88ab4ea87c74798967779a7aa9a58aab5998d78856bad9cd89eb7b97b59
col21:   56a687985ca98aaa86978b5b8b6c978898b869889a8a8b7b9b4975cab66b7b895c98c69786b56416
col22:   7a78aa63b8a65666bb7657aaa8399699ab8b8a7d9ba9c7a97c987a8877c7a98a767a95c76a9586ba
col23:   69a78967958a79784777aab6bc9cc9b598ae6499a967aac5e76789b888b576a3b7958a7a6ac8c7c6
col24:   88979bab9cc9aa6ab7766887d4acc38857db9888ab69c3988bb97999b96d9777a7bb9627a7b4ac46
col25:   58c7c86b5b9ac6ccb979b9babb8a6d69acbabb85ab9a9898c766bb99999a9a8c7ab7bdbbc97a89ba
col26:   8a98a9abcab8c6cceedbca9b7998da9acadace9dabdc96b79e968ebb88bb789abc9b898a89ac999a
col27:   78b9b989a6a8ab5a7ba888ccbabdacadc976dbd9d97aa89bba96bcccabbac8c9ba8b786ae6a87776
col28:   99ca9aaca8ab99da8b88a9ac788a8ecba9a96d9acaabb9c89bbbaa8ae9b99679f88cf8869a789989
col29:   989978aaecb6ddaad9dfb6ca98baad8aaceccca6fb8ddcbab896afc8cae9bba88bcb9aaadcbbcd65
col30:   a77b6cabaab8db99b77a9dcad9cbcfbb9c8bbcba5b9aabfb9bd97bccc9bcec899ac99db7aae6bb9d
col31:   bbc7d8c6c9acc6cedacbb6dedfbcaacce7aab9bedbdaaab8ccb9aac97ebaa899cc99fba9ccaadb8e
col32:   ca967db9cbab98c9afcca99decdeddaebdddabecbbfecdab9beddacbebdc9adf7abcd9ceb8c898e9
col33:   8478ba9e9bfdc9c88ea6dca8ccecebbab9adc8cdcfc9bdaccca7bdcceb99899da8d9cccbae6abaa7
col34:   adbb89dcdea9bca98abeacdfcbcebfdab9cfcebdfcbdeca9eff9cc9dccaebafdbbcbaa9bbbd9b99a
col35:   dad9b5d7eccaa8dfbf9db9ceecdabb6dfddaaafddbdadcdcbebcba9dadbc7ec8be9abcecedb78ccb
col36:   ccb8be998dabbbcb9a9dba99ecaccbdcbbc9acde9a7effd9eedbffcada8c8cbcbfc99bacb8cbaaac
col37:   99b8acccf9abdbadab9ddbf9ba9c888cdcfe9bbaadcabccebdcdaab7e8f8eb9acaac7da8cded4c8d
col38:   bb9bedbfaa8989ab99bbd8efe9fbfdc9dcdfeccebcddedddfbbddcfbddbbabfedbebdacb9a6aacba
col39:   a99ba9d9a8cb7d7eeb7aeeaceaacbd8dcccddcbdeacddbfafdaebd99df9d8aaa998ddbea8bca8ace
col40:   9deaedebdddcfb9cbbacdcbccbddbecca6caabdacbfc9cc8daccbdacf9eeabaabdbbbcafdc87add6
col41:   aa8aecdabdb8aacacb9ccf8ccabddd8acaecbddbccb9ccdebebdecd8b9ee9b8fdb9bbd7ccbebfbc9
col42:   acdaca9d89baabeabbbdcffabacedbf9c8abcdffbdcddfcdccedacbbebdb6ec9ccd9dbbcecaeadcb
col43:   ffcdeceba78bf99aaecccfacdea5acdcccaeccfeeb9cd9acdcefadce9c9fcec99ffcdabadcd7dde8
col44:   c7a8acfacaacdbaedbaceabacaeacadfbacadcfdefbcdefdebedccfffbdac8d9eaea89bedcbae7ed
col45:   c77c87dcadbd6a9acccddfb9ddedac8bbcc9abdcecaeccdce9eebbcfdbacccccabfdebad8adbcbca
col46:   a99a9acddcbd9beaccf9dbea7fececceedbbfedbbf9ebccbdedbdd9f9fdcee9aa8caabeffdcaacd9
col47:   c9cccafebafb9eaebcaeacb8bfedcebacbdecadbeddbeeab8cccccadbcffdbfccd9eda89ccfba9ca
col48:   ddc7a9da8bcbebcdad9acbe9edcbe9fbda9febeacdcc8cba9b98bcfc9debad9ccabdd99befeadaba
col49:   c99cccaebbcdbbee9ceccbbf9dbdfbeadeccbdaaacecdfcddebcefacabefbcdbdbdcbedcfacadabb
col50:   67acbfcefaccaefca8eeef98abdbadbaec9eefbbbefceddbde9ceafabbcdbdbdbdbcabb6b98dbded
col51:   ba88a6bbb998a798c9fceddc9bca8a8ecb9ccbacb5aacabbf9d99bbc7acc9c99caaccbdcebab7e8a
ROC:	 BPix_BmO_SEC5_LYR3_LDR14F_MOD2_ROC10
col00:   4522564464775367289174312164314463655b298875a9a268418147933316943585684375375398
col01:   3727976a42ac8987775b5a9458952a758598986a45756918264457683a614a3a666b178889976958
col02:   a541633653561254745993579628965782884577868643847c3148865445766547765544b4754632
col03:   8419976b517538671958786962a87b847679786578558ab856577666669258a8b888665575666665
col04:   688357845746a4568557879458a888a6883868237697a76576648687bb55566888269765635789a9
col05:   22468683573a61b9912656775858787bb864945579986518447a86a44557a9a96678576693228786
col06:   145584a164aa5ad7626793a97938888a67968585a5754866987a67bba5758a857556659785545589
col07:   6489379895b469466a288857946579889777c6638686a6874368a879747aa69a6896943958946589
col08:   51693361445699aa6857853a797baa89c967878681a77675477558689597787649934497464a6469
col09:   1528977a24b277aa997477359669a95699ae872696a887388c9891d949b78a6866368687727958a8
col10:   b46674564654867ac778a8b457b7958788585287866d6999ba8a979855c69258768777a257b67675
col11:   785937364a6153aa6888aa867a897b636867575796a797988656a987a3a8676b8aa79959a5971b86
col12:   577a7b6c884786666463686697676994b6585ab958a72a17aa7b976a98954977956a83653ea74782
col13:   27567785576377d66897669868bac7a897ab7787a64887ab7a678688a8767785858458a85b76b526
col14:   614378688745598596b7d9b7979a7caa96587b59da26696ca7798685c65693bd4997b67b9656a76b
col15:   56815763715646685764aa86b8a999ca654469d269995d7496885488578674869a6a6595a71b24f2
col16:   c7673767297479497374a79aa7286ab7a9955c86b64a9873b1b5a5bc564998a68a649b8886838757
col17:   33436565572748bb767834977552a7a96b5a7e9797675684a6c966989aba76844886baba789a8687
col18:   45614359a78653b497557aa5875867548a78689a768a998a39a757b879545a8ba587551488667666
col19:   6565524779476456b673c59497873b5694e988858a6a6db8c9a85b574a789a859bbeb6a657375886
col20:   74365459b7b5455b7766766a67689c9b947584955686ba6624a9787a55a59c9b4878278743535587
col21:   551366473776617798a66385b6a746a67c75795a9aba96b5828654446ac695793146b59854a4b986
col22:   955465865646768ac8173a7a45896bb8587b7c44a7c9bd85dbbb8764bd885779a999a6348b79c89a
col23:   85656476a885b294786d68a8a979866567a66878798977698b9477578978998546a4849a56a599c2
col24:   5813685978986b6d4abb95998386866694b48798999794968977aa9889b8c8b77b6a6867468b464a
col25:   7b867558573757ab767a8875768c48c8a997898ac797ea7997a5c5977769867c4897a86c87e84856
col26:   789788ba899bb6aa97ab97586699749afaaacab87e6ac5a8897578abec8aac8bbeaa71bab6589787
col27:   986838358464656b7a889daa87ac7daa97ad9dd58878a99a78b6c6bac795a89786737c7b68579a99
col28:   9977bb5ce6799ada968a999bb954f999f8aed497cb7987b66477b77b7ca93ab98774a599a9a997cc
col29:   36a6b5797cc476896798978a9babce7bb96b7859d5699b9889a5973767ba9bc8689898b9789ad5ba
col30:   145697a5aa48c4938949d78ad9f7dcd96988aa9ac89c97ac768ddacda7ab8a5caa896ca987caca99
col31:   559acaa6da997a9b8adc85b6bb7eddddda896dd9575a86c8e877e7eaea9caa78a79dbb9dbcac5a99
col32:   8b847879d959a957d77fbc6cabe76a889aa9ba9852ad9bbff797bbba7abaa89dca97b68aa8d8abbb
col33:   867ca878b87cb6cb99a77c9d9ab779b7a8baaa9a6b8e9947acaebd796d6bac77e7a9a978396b8877
col34:   a54fcacda9a7c8c79c9a5ca8cf9ba5abdcaef78aab98fc8d8a666e9ca9be5dabaa9789deabae998d
col35:   b4962595897acba7f9c88b885c88eaaa7ba8aada579b9dabcab98d8dabba989b98aaca9fa87c7cbb
col36:   a69468468a67cda7b9765899ca7dce9ada9c8faecd9dbcccabe84aab298bee75abaea5797dcd889c
col37:   8a9b68a9baba86aad899a9cbdbbcadccdba8abbadbb86da7ba87c9dbcc85b7d99969baebba8c9bb6
col38:   ccaac5d86aaaa9ba9a9b73a5bafa97badda9b69cce7e96adaabb8bb9bdaeba8b99cac7ec9ddb5ab9
col39:   5789a89a67abbc8adcb9ecbb8dfbadcc97cdbacae8bbeba9dcc8bc9b9a77cdaa9ccb9b8888cca9a3
col40:   ca95aab96a877aa7cbbbb9ceaaeb86ac7abfa5eeaac9ac9d9f8cee8b9a9a958bbc8c777d9bb599ea
col41:   86aa8c98abad76bcbaaeaebcd8b769abbac9fbcb9b6c9bc8c9baadebb9f69aaa8cbbbcc698cbea9a
col42:   9787f7496bda63c8bac597bdcce98dbbc9989b99c99eaeb9a7baea4aba9d9abaeb8996888c855bd2
col43:   aababdca7a9cbacaa8cbbcc9bba9dddb9ebaebababcbbdc9cccca85bcadbfbabdcc9feacb8c9c97e
col44:   ea6bc79d98d7bbe967bca78acaa888aacbefacbba9caabd5a87a9adb77b59bbcbabdecc9fda99979
col45:   6ca957aaeb5588abbc9bf9a9ca8b8a9adbccacbbca6aacafbbac7969cbaa7b98989b9cabacc788da
col46:   6a9997b9799a6bdac9a77eb7c8b9bcbacbc7ed9e9cad8bca89b9a94bd69da89b87cfdbaac86cb8c6
col47:   88aba86898874c9dacbba9fbeadbda8cedd8aaa8ccb88797bdaceaca8aaabfdca8cb8a8ed96e7cda
col48:   7b759c989ac97ca9caabaa9eb8c7ddd9bbbbcadcbacaaa8eab8bcb9a9ceac8988d99ac8db8989cb8
col49:   8b639ac9e86cbddec8acbfa8ea9ffce8a8da9ecc99eadaff8cbce6a9ba87a9a9aeaa778bcc9aabea
col50:   8cba7b98bba97abca3bcaaab8c87cfcaaad8ccca7dd98dacab88c7bc99ceccbfeab8799aa9b7f885
col51:   78c8a9a886aa7b549bc58977aa87c995a994bb7acb97ac96abb7b88ac86b8f8eca8da9bd8c8599a9
ROC:	 BPix_BmO_SEC5_LYR3_LDR14F_MOD2_ROC11
col00:   76563563b74548837618843a4395767677aa88976a258594565935836878a83884684593466846a5
col01:   3538975a697667b6b379bb87bb66665bb4a85979763758559798a775678759b39a868788a6389a97
col02:   695284768877999ba66686769598ba849658796ad8b54878466338a979b9594677b696658a79b866
col03:   338679578527f5378872ba4a68768aa533b775548656a6e7bc668588858879775739b9b74888a951
col04:   85a863986aca7577e65b844999999a768c7ab95a56c78aa79784a797789a9667777baba9b674ad76
col05:   956165526945826967857a357467a9957889a7788988969a876c65a769ba73a9668675861656c646
col06:   567a7a9b9486a68aa68b6476854692a97c86ba67957a637d3a74887a8a9798936656e7975b8b9687
col07:   887585988b5a72678996ba989bd877a89b748568978aa5e57a4b96876898778b7ba6679958599845
col08:   854565686769579a666798828988666c8aab87568ac78997a743656a7a88ba9b675589b889588678
col09:   aa68487787658865b785986c9b88563365649696ca6969ba7acb84db478a4aa78b8b55aa584ae552
col10:   79a87756a9a667896bb5a6a99b798779768886a86b8588967abba99a8b97979bd98589699b555779
col11:   4569685384516767a8a568977b7785a669c84bb88aa66775c9759989799aa8879797998b73779789
col12:   7745995a665786659798a74b86777a6a989aa786a8abc658884b9868766b876677a96a6d87667aa6
col13:   8874478669aa757747ab7855699984577856a6bbd886a849c9c69a8a5ca88b79c77da8b897a9b679
col14:   37b3a97a945376b898948978867988578988a9a66795a8999a6598cad89b999876a6e88659699897
col15:   665489b646866866766687869788a9678a6c857a68a8a79a8588a3a77b874a6aa5679ab8669a9874
col16:   54738669eb67488794bab78969898a797734cb69c6ba57878a9878db56d889999a98794a585b67b8
col17:   8a6a69678867869556a6b679865788a8c7a7b894c566b86777bbb75883aa66a978a896ac9b9ad7a4
col18:   477585539b7794677948ac996999c69e776d9a4b59aaaaa75997d4a888a7d7ca798a8a996c876aa6
col19:   b4848d5889a56a64a8a697aba8b79a7b89c5a8497ab6965889989b6a69a7ab87858878b9b6abb7a4
col20:   665883686a6796858a87998a5867886669bb9aba77bba9a8888b9cdbb9778598898aae8679aa94d9
col21:   664a576483759697757a5686979b67bba6abaca9a758c95979abaa64597b69d26aa6ac5a46a276a8
col22:   656989646797638a787a8a7b94b8a88bb768897cbab998aa77a9aab8bed5a7acac97a589b7bb1b97
col23:   895a97b666977a9588b4c9a8587a989b8b86ca8978a7897cab67b9778c96a89799c98896a5899c97
col24:   655799a569759c8749a7b89378c869b9a5d9da5aabd98b859c7868a88867969b6b79b88a8d848992
col25:   97655674a89e97879877ab8788889697a899bb8aa7bbea99caa66cf89b69a95b6a76aaa984ad9658
col26:   685aa89c8c9abb9a798acbbbd5accdabc87bcd9dccefddb789bbec8ddbbcde83dd98e8bd978a7b89
col27:   99677676ab889688bb95dca8b9cb7bcb9aa9d8e9a6ba8cbbbac99b7cfa9bdacb45999bbedba8acb8
col28:   a48386988b7a677cb786c959b9facc6caac7da99779e99bcacc8eabff9e9a77c9e988cadba9abccc
col29:   697998659889699baa8799959acace89ebabbdcebaa9c9d8aa9cdabbfb87abbdc7aece8bdba8aa9b
col30:   9cb888857a8798abd8e8acd6c6bcdcdda8bde8aeacc9e8c99bbcbaedbdcce7bb89e9baa8bab8cd6a
col31:   9b99c8e299b98a8b9cb9ba5af9c8eccc8b7bc89d9dced75cc999bb7caafed99cacd9eab99ea958aa
col32:   6658c8aa8999daa8cb9e8cc97d99bcdcac7edcdeebcebfdcca98eaccecbacedac7acbe9b9b98bca6
col33:   65f49aaadbb568cddc9adabf9bfa8c9979cbe7cddfc9ccd8cabd9b9bcaedcd7caaa9b8dabeb8fba9
col34:   8c79ab6ddc9aabaaa8acaccbdddb9faaccccbcfc9dcacc9dbbefffddaec9bddcd9ffcb9be9c999bb
col35:   a8659b9689999db999daba9dad48cca79bdbbcabeb8db8b8aeccbbdec9ed9db8ccdbcab89aa94948
col36:   7aa898b598af59b8e8baca9cfbddbbb8bddcc89cbcb8bbcdf8ccbcdedccdc8ccccaca86bbbf8b9f8
col37:   67ab6a9a9b8996aab9fbccc8bbebebdbbdedde9c8aa9cbee8acdca9aedcffac7c9eeddcef4da9eea
col38:   98bada99a8ab9e9a976ca85ddfd8bdbfccccdbceb7dd9ccbebeebffecdbeafbaeffdcbeeecdcbbaa
col39:   787bee9d88ae889aaaaac9acaacceccb9aca9d699895bedb7bd9dd88bbaacd9f99c9adcaebccbab9
col40:   b96baa988999aca7c9eea6cabb6ecb7fdbdddddddcecdbcfccaafdcecacffafedc9bdbc9dadbb8ec
col41:   79889aa7bb89aa9ce8baac8ddcadd9aaaafadc9ffbd8bb8ab7fcefbcaacfe79fccedcabdaefceefd
col42:   689b9689bcb8bbaaaeecacbac97bdc9befd9bdbeebfbdcaadfdadcaabeadbcddcdc99addcbfaadd8
col43:   a79bacadb7cbc9cabebdabaac6eedbcb8dedbcccebdeefe9ddfceca8dfdeecdddedcabdcdbbee6ce
col44:   ba7acb8dd7dc899da9bffb8ebcfd9d9ff9ddbdcbdcfececeeeeedbfbfbef9fed7aedb6dcb9efbdba
col45:   9979edaca8ac8dad8aeacc8cdebcceaeac8cdcab97ed9d88cfdecaec9fbaeabcececcbce7ffb99ad
col46:   ab9bfaaa5fb5b9c8dbc98b9db9bcedcac8bcdccb9cdc8a8ad8ebb9fcaefbdee9c9ddacdcbbbcecae
col47:   a9a897d667daecc9bdc8ccbcddafddadeeb8dafcedadcecbbfeac89daeeeceafbeffa7fd9dffacca
col48:   aba6b9ea8baaa9ecadecbdaccfcc99dccdcbcdd9f9efd9eabbcbebdefbdffdfddb9dfefeacbabbaf
col49:   c7e6bbbab68c9ce9bbcbdfccbcbdba8bcaeafccadbcedccddccfdcfdeddde9fdcee9befcfefaabce
col50:   8a87e99ac89eacbcc9abd8b9f9eb9cdcdadfcb9baadbbdcefefebcf9deccfddeeeefeadcf8aebf98
col51:   8598ab65868a98b897ab7de869cbbaacbdba7ada7fd8abcbcabccaabdb9eaccead97bcb97fbd9bf9
ROC:	 BPix_BmO_SEC5_LYR3_LDR14F_MOD2_ROC12
col00:   4776445683856829444877c568b5584e2767d85478677856769654796989a979476bb9a45baadac4
col01:   47b997788b448774587995646695a99f798699756a5b88dc8496a97ac9da8baa8cd8cc9cabbac85a
col02:   16448656792a95844a65bb5749686677c6acab47987987b5a8e8983a59b9b8b4a97b988d86a795ab
col03:   3678a6a569b636c446749559735693cb5968b9a898a7d65ba7c9caca995c6a87798a8bcc7f9a9d96
col04:   156869695758787c866767b64866c5a99eb5b67bb45a9c9787ac67bca8bbf3f688d4bcd889c7bc77
col05:   6182a629695945a7c8888878b87bc8aaa9acaa78c959b8dbbc8986d547a9986b67768cd969bcd69a
col06:   857788b973483348999488b9c797876a9baa6a77576d79a47b785a5a77a8abebff9a67ae87ad6775
col07:   2879878b86888913ab67bb76a8a7b7caae9ac79777cb73e96899478788a5aac9c68d759c5c8bffe6
col08:   37a5779733338dba7a5d97a5ab9cb7babbd9a55c9aa4d76a87b78998653a97a98a6ac8799a8b7975
col09:   39678612376796777796787795d8885798caaabad67c758b8a59cd7fb8764aabc99769a9b987a784
col10:   5152825755357486a678dbed9b76fb99abbfd9cbb6ba57f8978ca39777db9b4a9a999a896956aa94
col11:   8486da56b7569964535987a9b7779799799aa978a5a47899b86a7a66c7bb6abcad67dbb78d4887cd
col12:   77762616958458877776a67768a789679a8676698ba7b53bdbaa87a75b9866ab9f9f4b99a659b8b3
col13:   5651625658b56c9969696a8a23ba96d765a94ba8b346a6abb79a99c9aab3859a9ab699c7ba7a8b7b
col14:   37456896535955a5a4b46668cda6899ab988bb9c7b8bc6a95858abb97a8b4a8a75dcab97aa68ae75
col15:   56585a888795798a3534569388968696cab867a9b5b59b7b9a5999ac99eea99c98bc6bc8cebba473
col16:   485557c37a5d5b488977a9989aa416c6c5b5e387b67bb6566665ba8dc799ea9589abe8cb876c9caa
col17:   5522969456878792447968893c69ab96868c9c889a9885b6a466da9692b796b8a6a874d74aa989ca
col18:   217528755a84879677889db7b595797ca857758bb79998daf6b688bd9cbd9a88779ea797a4bf5a9b
col19:   545457687668a5488daa487789997957ab87dddb9867ca8a97c87b66898bd95d8bcda69dab49ba87
col20:   42378a7447895a946b6796c999dab6989c8a88579bc79598b6b6bc3b558b865bd94b76cbe87a79fa
col21:   18555717951596a7448ab47879bbaa68786b93a857858b3578bccd78ac7a8994c6839b9b467c9782
col22:   6337635465a59696a658b859953576a57bcc75945697aca8ce98adb68abc9ca9ea69c84879acb8a8
col23:   4595a48876b6536de67888573c62c5784559b59b9342764a6c65576a7f9689aa69b9977b6b97b9c6
col24:   3654a624555566ba7a9c8a7336b768b76b88e3b88a9db669ac498aa85b98e6589a98919a78ca9997
col25:   76594a65669389572984698b79ba8cc7b5f6d9a99b9ab978379cb99da9cbdbc5a8ce58cbacd9b7da
col26:   54874a8559541978979ba8ba86baa9c8ac7ac7a69a8a9cac9bceb8dd7eeecb69caa9acebbbcbca99
col27:   81828b8675856786caa98b969679a9ba9bb86cb9986bb98aadec91e1a78bbabae968e8abd775db89
col28:   543567b94a85355c97b997884b88d89acb4c6b8d5becbb9daaa8bcbbeaddf8ac99aacbdc8b9ccbd9
col29:   5897667aa65b6767cc75b9baac8cab6a88db7aaba8db978aada9bba77bb8cfd9d78d9bf8c9babbcc
col30:   c58755a84954a687894bc779bbb7988c67b9ca598aa978e9a5caabeebcafbabbfe9ce97669b99eeb
col31:   488a6787aa8b7a6b99b9bbda9a9ad9babf87cbdcf3b8cdb7cf69bbc786c9898ceaec9aa8fa898bdb
col32:   c73785688b938998a52bcdbcae9c9d7baf8c9bbdaa4999cb97baaab8fbbeb9bdbbcc8eabb7ed7cfa
col33:   37ad6faa799a8c498a7d8c9998f98abadea9b6c975d9aafa8bc8ba79b9ffcbaa8d8cf9ddcdebdc3b
col34:   588536888773caaaa6aa9ac766e7dbcad9c9f869bdbfcbbbbaa95b8eafbdedbfbcfa9bdef9aadcca
col35:   c945c9a9879c8869abec8a9f7abe6ab8a9cd8bb99ef8f9ababc8cbbca79bdbbbd978ccbc8b6bcc9c
col36:   4784996b68abb46c787b7d6598a43d8b7ab8abc9f8aa886acb8aba9b797aebac8c69bdbb9ec8cce7
col37:   6675aca765686b87cba9aae758e787cdf9ac89b99a8a969dbdebc3bbbcbdeebfcdcb9dee99aaeabc
col38:   88857967a8a77588aa7af7b8abddab9ce84ddb89ed9eba88fabbeceabfdfcacdfbeffcbcbdbbecaa
col39:   7446bb6aa88c63c5bbb4b9a6e7cf9f8bebb8cabf85a9caa5aacbc97dc7dacbaad9cadcdbfadbbceb
col40:   88568b99558e979a8dbaccb79a8bda9caf899bec87fb49baa9dbc75adaecbbbccfbffddb99bddfac
col41:   97aaab9af9d788b8d6bcbbc89a8badca9c9ca58c86abb697bacbe8a9ebcaa9ddfaadc7bfddbefbc9
col42:   8b679abbdb9997aa8669a6988bcdada99a97db8bc8c96a98d8bdecad699aaeea7b9dcb9daacace8a
col43:   b77a678bc856a7bbd4d9e89db99cdd6ceb9d999cc8adebacee69bbf9ecd8bdbc9dedebcbd9debbbb
col44:   478a378b3b7959b989cfcbb99a47a8bdcccabaacfbfecddce6cdaadcdcdeb99fdfecbfaeb9ee89bd
col45:   597a9ca887997af67babb9addababaf9edea77a78f9d8a89baf9eafc8998cdc8c9dceb9ae97a9ad8
col46:   abe678aaa8c8568b9c7db8b5a74adcf99b79d6ddfddbeeeaacbbef8fd8b85bcbfce7f9b6be99e8b9
col47:   988a7acbbc67ab948ca98acd9cddce9cbbeeeb4ccdacc99bba9dd8cdeddbcaca7d9ddccbaebbe9cc
col48:   cfdbc9b5fccc84c79b7bfba98b8c9adf9a8cccae98aace89ea88bccebfb8daafbcdfd6edc789eade
col49:   94564ed6b778bfd98eabbaebda8bcdfa8bdde9bacdb9acaab8aa9b8eabbad8accaeb9ffdeeea8bb9
col50:   979bd9c8ba578cb969a9daedbcabab8abb5bcbccbbbaf79a96e87cdeaba99ad9dafadb8bbdc9ba78
col51:   4597a99b7964a8c5a58b5759cc589c9a7cfd9b4abba9d4a9a769ababacac998876898788abe966c3
ROC:	 BPix_BmO_SEC5_LYR3_LDR14F_MOD2_ROC13
col00:   3354638874635844364575378197839b58a9b436888ab4a8967579997a7879999c49715755959568
col01:   294aa7461678479447587a86996647aa8c65b8b6966998a9e8be6b7aaa875788c7a588bbb8c76985
col02:   3844479969867578966966c8887a52caf785a7c9878ab79879976589a7aaa99b98b897a5c857a77c
col03:   82854645447854b6885975a3878a58aa89587d636a87a28b56a779d9ba5af3758783a8766b667887
col04:   6727b747828684645565a86b9a94957897687da76986aa456a889694787a96589b77988aa9b7c797
col05:   46466c95566556887354895c7ab89ba76b5885b39a796868aa776bcaaba6976376bab437b9ea6897
col06:   7737a6c77767b384977669987987b6d49a7ad7889888d99a77b68597b28466867b7466aaa8c76caa
col07:   367868869b278876b98979399499a9dc7699e8e49857a49b9a587358a96aa8838b696ba58999a777
col08:   8899888676267c29439696488567c74789c7b76ca99999879caba5d899ab7bb58a47f8a9bc9587b9
col09:   47346299897858a568767579bc8b999597a7878b8aab5db7bbb567a48888b6d688895887665a2c78
col10:   8359588588686b897969c888b469b998685996b88a9c79c6bb7aaab7aab4a768c979f898b7ae5c85
col11:   867956449667988985a65246793779848a99ab98a6aba6b987baa987cb96bcb6b7a983a9c778b368
col12:   53a47a69a86a47a797658569aa99c76a7a965aa5acc8939caaaa9ba788be569ca687c7ad9faca788
col13:   125698b688779b66ba8867775a86788b97768b66ba7799ae59b78bd6aaa7d99ab88ad8b5ac85ba99
col14:   86865388735778367a76ac67a8c489888b998b795ca789aa9a7b86abab875d98ac688bbbdb98fca8
col15:   43569395a548978657778698ac8876b589a8868978a97bb77aaed5ec5797abb4b86555ab1778b75a
col16:   71916aa67888785ac6788c8998685998c8767db879c6abcba78dc8b979b8c8b68b735a8bfaba78b9
col17:   4636828397786a3a4394cab678ca8a687a79ce44a5a8788aa8898abb76e8899e7464d9bb797a77ba
col18:   62627a89758863668578a9b725995d9a85c89b7883a98bd8598687cb9aa8687a989c9b6cd688bbd9
col19:   48a5a2957aa87668b87298b49acbb8a77979b698babcad9cb899a5ac9dd988b7ca85aa6989896da8
col20:   6557588854459bc855a3dd956795699aa7c9a5aac9bc9a9ac9da9978a7bb5ad998bb9aaa95e6b9c3
col21:   5639a1486a7a74b7a666867678a7baa95698c98578a88c989c8cb9969888a76a66ab8a7a8aba9ca8
col22:   6376497795758779a776898986abc79a7ba6a6c888acbacbbbb8abba6656669bcbc7e6a979a9ca57
col23:   6876a455385aa3765767659bc9898789b757b75a9aabc7756a7c167b99666b8a8cca8aa88c989b78
col24:   7557aa956771a5a5b87796a886756a896d97b9c9b7a9fac7baaab87b6aca79c789aad799a98c98b7
col25:   b779484968d498b89a487ab7aa77ab577cb57789c9aa7aacbbd968a79678a9c9a8fbb8bc8aada8a7
col26:   77a5bca88658a44b968c6b978e8a9ad7f976dbbb999acaaac9c7a9ac79acebb5bbb7cdaede69cbdd
col27:   8783b8a5997677b9857778a7c6bc99bbb4969bbebbc8db99cac989c9d8ab94a9aba8ccbba9e67bb7
col28:   a878ba9689789a8799d979b988edbbafb8bb879cbba8c9bfdbbcabfabddcdf8af8cbcb9ad99aece9
col29:   b54ad9673abb9676b79898799aaabdbcaaf9eb7bc99fdcb98babbaefbfdbfce6bad698cb9dda7a7c
col30:   a9946866958a877bd83478bbf5cbb98abb9ba98ca6a89c8be698ddbfa889dcbcaaa7bedaaccd79b4
col31:   75a6975aa6a99596b9a8b8ebdbdd6c9d7cdccbe799ebddacc9ddbc9afbaeebddf9dbba67b9adcac7
col32:   875abb996aa7c9bb78bb4bb989cbdacdceaccebabbd8cfcacbacc98cdaacdebcbecaacbcaa8daeac
col33:   959c39889bc897999a99d8b9a9dbcabdd8cddacdccdeed9bccdedeac89c89cccedbc8ba7afb99bea
col34:   5ca6a7788aaaabacd9c9bdbabfdbb8edb8c8abc7bbeeebaacdafc8f7dba9afd8ecd9adcabbcac7ab
col35:   77a4aacd8bb8ca8a6a8eea4bccc9bbca89b8dcd9dcc8dcafcea9acbacc9bccebcadbadfdddbbbbb7
col36:   a8cbe9a6998eb676b99c9bb788abbbcbbccd989acec9acdabcabbb7cebdbeccbc7f98ae9baaae9cd
col37:   6d66cab7b6ba97aa8abbbecbaa89eabbb8ede6cfe9bfdaddccdaacceeccde7aabadfb8bdfa9e9bd9
col38:   b786c7a9d789aadeadb7ac99aadb9cccdbc8feadfcffdc9c9cbcadcbcafb89c7becfeccdedbb7ddc
col39:   97bbaa8977b8a9689ebabbbb8bfbcde8abcfd6dbbe8aceebcabcbbd9a9acbc8debb8bddceebadbd9
col40:   99799cd7c9bbb8c87acaebe7ecdd9ecdcb9cafedb9fcbfcbdaccdbc9bc9eefc9defffcabccbbfaeb
col41:   989acba6dd6b65cb8f8cbccbcdc8eeacffeb9acaa89aa9bcf9dbfbe7c8ddfbb4acd9fbfd9aeafdeb
col42:   8a85eac9bc97da5ccc7acc7b8baba8baebfedefaba98cbdedbbcbcebfbdade9fabdfdcbafffad9fd
col43:   bab998aa9a8987d9cdbdca9dcc9befdcaccecdbd9cbd9dfafdfbeddcdcedcafaedaed89ccdede9cc
col44:   a8cbbe687799abaec6bbcb999dbd9bbbfdefbebf9afaedfcaacd8bdffffc98aadb9bcddecdeedcdb
col45:   7e88b799b8997acb8acda6cebcce7bba9eccddecf9cfc8e9dcbcafdd9e6fba99bceedcccfecccbdb
col46:   bb48987e88a5ba8acdcb64db6e9deb9bbcfaccdcaefafecdcecdea9adfdeadc9fbedcfcdfbcdebf9
col47:   b6aa5fab8a8ab8d9be978aaa6acbbab9dcdf8babbabdbaceaababccdbde9eaeadbbbcdecadccbefb
col48:   99c6b7cbc9cc7babbcc9dacbebcccc97dd9ffecfb8bdfc888cbcfcbbfafcbf8ebfb9dcaccfdeaddb
col49:   7a7aa7ccdcca7d6bfcbb8ccbc7cebbf9ef9cadba9bbcecaecdce9ccdcbdbacbba9bfbdbcccaffbe5
col50:   8787ceb988a8edd99cbb9b5c8edceb98eca99cadefffccbacc5eacddebbfccacdfccfddeeecfb8cf
col51:   82aca6658489a56abd99a9b69b76987688f68aa8cba6c7bb59cb79abd8ba8bebacb697a9ccccaa9b
ROC:	 BPix_BmO_SEC5_LYR3_LDR14F_MOD2_ROC14
col00:   31553657147875754459c96778a67998958a849c6a65999983785569a9977777a67877a136883466
col01:   4427865637669788677678779b72888679a856986857a7ca9a565c68986786b89977da7a894a8757
col02:   86878278669846685589a776761a59947db67597b9856a7d9a519c78c8898767867946b6668862a5
col03:   568593579498e6a657622797788888a89b588ac7985986939a687babba6c7b9a5b7b696577777764
col04:   68777467885bb968878598a75779baa84987989a86a98b67ca98bb79987598779d78c8498a974969
col05:   4856a8b164485696745574c365958797c69554cd97a6587763958795c58596cb393a976951499753
col06:   665466585549a6768998a389ba7a6a998a5777887878b78b6ba686795685899569a9a986787a89b7
col07:   6359b464a667776ca876bc76a887799b8968888697a69836b788bca99cb9a537a8b7b56a9a7a9498
col08:   359a7586699567869c85b6c568869a59a7a6ab69998c679885a94b5eab9568a979b4866798db8b85
col09:   5669769b88965aa9676c876688b47baa69b84ab6c88ac7597857968aa748a9676a7a879387676665
col10:   888997857a275b7976a9c83a6596697a68babababec9a7acaba9996956dba863a79646688448879b
col11:   947883b76566895595638678b5a876c8685579a79776a968974997b8a889676686b878a7587a4867
col12:   96578947996586a76899b8988b8aa668d4a746bb5ab86b5973b8a288caaba756966889b5679a7656
col13:   6587163a974a88b78a7897aa988eb59676b8b88665a8bcb8898bb998ba56a89b7a79a777a9356839
col14:   7a7878956a886b86a7b8975aa7bb9876b969869898b69b99b6baa9967b89a7b897b3997828966b6b
col15:   77c97866678669697a9a79bca84b7769b3bb986d58bd9a9cf77abe7798ad898e8b67a927787685a7
col16:   5465866bb772878a69957879b48569969c8897c998bb577a57b799b79b6aba8684997a64b57987a7
col17:   53867868ab7a8584877aab56aa98b7a698b47679a5a8cc97b9678b75abb7d8784a895a98b89396b4
col18:   878a5547467a9784a7c9ca7768a789a847acb8ac896ab8b57a7a9989bc8ba9795a9895897a9b64b6
col19:   55746988ba7796db7697999ab986aa8a88aaa6b8378a79a98b89a897987e899a87b65dbc99aac79a
col20:   537576d669aa9766798597a43d889d99787acaabeb997b5e56a7a9c8cbca48c6b997c67a97baabc6
col21:   553277769966688a7984ab7e996a77994ab78657996daaabb8b68aaca8777a69c8a66898a447ac46
col22:   4aaca685b577a878a64699aa8ab9b69baa76a8d79d99a89b79866a8c968799868a8c8a9aaba95aa6
col23:   96867794a69458898556a97a99b79d8a87779898bb996ada67579b8797a97ade7ab7699947668a9a
col24:   8a6c67786876627489aaa87a5c9a98977aa97a69ab97986e9b9868989bab8a99a6eca987ad998b77
col25:   987379a937958b987a9a79cb87a7aaa8995ab896bc857997abb9b89886aabc8a589c7ab7ba8576ab
col26:   8a88889677bc6af8ca7a4b7aa5ac99a9aacccec9fcbd89a89c5acacb8db9cd98c6aab4499e9cd69c
col27:   864aa8b8a85986db868b9bbba99ada696acea8d8ca98cfc85ad988dccc8a9bc99cca8ad8aa87bac9
col28:   c876a6a7a774968bcbab8b8ccbdc8aba9c7cbaf7ba8ed9ccbdaadc9f75d6bec89fda679a8d89b9ba
col29:   58a87b899a69598ac859ab9ab88dbbaa6edcbb79bca667cb98af89cac99a968a8eaae877ddb8b7ac
col30:   879aa89796c8bbadcba9dba7ccc4cbbbaebb9bfcccb77bba8bd9cbcdc6bad9aaacabc68b7cdacada
col31:   8ab7f6799bb9ecc9df89acb8cbcadfbe8eaa9ccbabb7aa88bdcdbdebc7ec99ddacac9aae997aa9da
col32:   879b879a949ccb9de8bbb998db9bd8ad8edbbe9dcadecab99989fab8ccc8a9b9ccaae7dab79ba39b
col33:   7bd9aa97bb9bc88cabdc9dfabcd9b8fa8c9bbaa7c79a9dacae7aadba8b7bbaccc5999bb987aab889
col34:   5775fa96d6668aacb9cbecbdacaccb98ba98cbe6eccfd9cd9bdb9aa6caba97fcce9ddbcbacecc7c7
col35:   99e9ac8cdbbcd689b8b9dbecadcbe7d7dab6dabceebecaaab9adfec97adcbceb9baa9ca9defc88ba
col36:   596697e9b9b89a8b886bbbdadb9cbb9baca7acc7cae9fdbb8ddc9c8a98cdabfbaeec6aaec9aacdc9
col37:   a9997d9cac8aaa8c88b8f8cbbaf9ca8bbbbefa78bcb8cdcacddecbdabd9d9adbaabbbee5d89bacda
col38:   99a87b9bbadf6dbd6ccadaba56f9adddedecbc7bbfec9bdfbc7cfc989dcbcaec8fa9acac9bcbe9ac
col39:   b899b798daa9cba8abca79bb9d9ab7da8bbac8bebb8eba9a7fa9ca79da7ddccbc7d8c9bcaccbbf79
col40:   85aaa6cdcc9acd7da7bcd7c9ac9abaefdc9bbcecbbf5dbaefcb8edcceaacfbdcaab9db7edcedb8a9
col41:   bbadba97ae99edcabdeabc9eddebc9dbcacccdbcabbc9dc9898dacac7bdc9eedaea7f7a9688bc6b8
col42:   abd8abc6a89a998cdcbddacaa9a9eaad9bae9db8d9ee9ed898cdcbeccdde9cac9fcaeabbc8dafe67
col43:   a8bcdbabc9ca7e7bc9adaad9b9bdefccecbbccf9ea8efebbf8cecbfebb99dfeccc8dfbcebda7ba7c
col44:   9b71acaaccdbccabacbe98cbb8ccebecfaaacdb7bdaedec9a99dacacedafb8c8ccffdabbbcbbfaba
col45:   dbb87799fc699dbadbbc89e8deceacb99acf9da9ed9bbbcbda6ce9cbcabda6cfdbaa6ad979ccbcaa
col46:   baabbbd8aae8aa899ceabab9dabbbcbcecbcfb97dcdbfc7edcbbcbd9bdbacc69abc5bddca9b9bc8c
col47:   86acbbcdb9d8bccddabdedbdaac9bacdeef9e9ecd9c98b7c9cc9bbcadcea9dbcc7ebf9ec9deaf9e9
col48:   ad9dacabcdeed69cbaccabbea8a9ba9bc8abcc8c8c79dcbcedbdbbcdbabf99d98cebfcd9dfbbdbac
col49:   a86ecdba99baa8d5cbfdebb8aaddcbfdcbcca9bed9cbcc98ecbebbddcdafdb5da9ddddcda9ccd8d9
col50:   bbc7bcdc79dcceed9dcb9f8ce89b9aeeccbcbfcdadbdcafaeb9dd7dbdcead9eedcaaaccbaaccc9b6
col51:   798a8ac9986edda7d9b97a879d878cf7bbeb9fbbd89a9df9ba7aa94899bcba99b99aaac8cab6ac6c
ROC:	 BPix_BmO_SEC5_LYR3_LDR14F_MOD2_ROC15
col00:   356855694864b77d586869886a7a58b7a9559aa29989b8679784d78589da738848339754459a5623
col01:   7ac768cb799ba8a8d5b656699ebb96aaace789ba6c95783e8deb8988acbb7e898a3a7655ba96555b
col02:   459588666c897688bb5c955d8ce68a57a5ba85aa598d8a86ca99ab98cab4ea68b69ada5956786952
col03:   abb93acb8978578b9c89bcbcbc896dac3bbbaa89ad8bd595bacc7e7bbb88dea98c689b9876698739
col04:   86d932886657bdea9d5db97a5999ef688b8cd7dab9bab8866de7eb59d99d9783566469ab48b6a475
col05:   53ada66876d7a99abbaacbadfaca57adbc9cc99bbc8bbf9c9d887bcb99bc8dca889ba6e8a8b77756
col06:   4877a97a48b6dcadb68b5c556a686bebcacda8c8d946ecfa7bb99a88aa7c8a5c875a6a57953ac66a
col07:   76687a7c8a7eb8897cc9ccb7d8b6f3a48d9e9a86bd8cc9ff8a5874ab9c7dcacbacaa979856365697
col08:   4c5c37b8d799b3a45988ac676ab8cb77b9aaccc88ec868c88d3d88bc9a8b8cadcb8aa6b866aa68a2
col09:   8788984a56aa67b97a9a9cdaacebf99da9cc7b9dcccfbdaada6cdbe69ba6b7bdcc77faa6ab7b4998
col10:   7a997827a598cb9867bc5c849b7f97a96afbbb96a5b9499877cac76c8c97779878cc97879eb8ba75
col11:   2785986a8757d89b569997b8ca88dab759daa7a9ae88d5f9bccadaf65d9cbaba88cb868a7859b878
col12:   8988879b5758667b87c8ddc57da898a5a7a9b6dbe68aa6137cb6b799678bd668638589b6878a6a56
col13:   994bbc9b9b9a7997e9d766a9da58bdcbeb9abba9aafe7977d9fe99cddbca7b7e6eb5a5a6fa8a7785
col14:   6749c8a84b768bcb76499999aa797cb9999a979889b8b7998c98a686c79d68cb688679a7898763a4
col15:   719b5b478ca77bc9b8b6babcec9ae899b69abd688986e979a7f778e4c9a6acb6bbaab988b2693548
col16:   7a5b6b89cb98b886bb789b6989a9a484ab9a68c79cb9acbcaa7ca87a8cb9c6c4c76698c8c7b59a89
col17:   7967898978759c896caaa86a4665976daa949838779f7b88996bba9fba5ac562598a6674a876b798
col18:   453b84ce959bd7a8bc99ba69b98b89ca6bbc9aa9c45bb69a7e87c9a87a7b8c98952754898878b6a8
col19:   6947a66599578b885b8876b94d8c9d7a8b87da8bedfaf89c7cc9c9abcdda87fa87896a6996894678
col20:   c445775e7887899888ca89eb8a99857a86a68968cab899a96a87de7ea79d9bb8da79656b68697482
col21:   5874867c8a89b598b8b9b5c8cbacd9dbbc9ad9be7ac8ab9cb8a7ca5989cad977caa685858b7a7159
col22:   aa4687e559988a498855973a87adbfab88e9c9b8a98585ab7acdc668cb9b6899a9474867985a3c71
col23:   1991658467d5aaa4aca5a88c78bababd9d9bba999a7dd7b9b9e89dcfdbca8a76deb9a99596937688
col24:   97559c9ac5996bc68b8a99b64aadd7aa6ca9c8dcdb4caad9d989bc99cb78a798b996899858658655
col25:   76676b3996998667d886d998aaa8bb8886996f578dba9beb97ba9b9879bab98b8b99657767b79661
col26:   95878b5498a797fc88b6b397cc7b9b96fbcabbabbdcfb8d9a9accacde9affebdb98568bb8da7d77c
col27:   ba8bd64dbcb9e5cfebe9dadc9d7bf99fcb9dc8cce8876caddd9aa9adaacdda9ddcabf998b98aa997
col28:   9c76c6a88a8cfacafcca8a6bdf99becccc7acd7e9bfcebceafcbdafefeeca9cdbbdba95bb7948897
col29:   3baa7876b66a79bb989bbfcfadbedecbc8beb899c4b5bd1cab9cecb5faa98cabcab98b9caa6a64d8
col30:   a8689859dcd78abc9aadc7ecadcbe8beeacababb98f98ffcddc76a8cb9eb8cadc9adaacb997bbaa8
col31:   6b7aa7baa6acebdc98bcadefd9f89af9bd9fab9cbe8cacdcabbadaacddc8cd98aaa9d9a59bdca8a7
col32:   afb7c84e76b689cab87e9bc9bcce76cb8debfdedea99bfba9b9bb97b99badbdbb9ab9c5cbbcbbc8b
col33:   8e9dbabb7cfabcdca6cd6aaebfaaadabbfbccb7cd98ddf9dfedeccebaafbcbf8cc76fdebc7dbc995
col34:   7c75c98a7e7a9dbfabdbdbbac9dbbbababfbdae8e6afede7bbc89cebcc69edd7ceadc7aab5a9aaa2
col35:   b7abd99b67bbddeadb9cef9aeebdabbe9b9cacbfbbcebf97acbccffafcbc9eaebf8d9ac7e939abad
col36:   ab86aa98ca9bb6af789ad9bddb7caecfe7a8ddc6dbc9bcafe99fdcbdba9eb4af8ac7fbd99c9aa4bc
col37:   aaa7964aa8ebccbcd8a4cecdabff8bbecbcc9abfb9ca7fbace6adbcb8bcd8cfaa9e9382aceabaacb
col38:   8758d9a679dbcb9b7eddcdbbeabddedabf9cfaabdc6ddb9abcdb96aadbdcaec9abbb5baf8eeaa8aa
col39:   6a9c98bae7c69a5a99aeb9a9e6a9bccabbefcdcbaad9d8edda9eb78bfdeedfeceaeaaadfbb7db986
col40:   b7cc3a9b9dfeadec89adfd9bbaed8dadeb8bcd9edaefd9be9bfbbecabbe7a9bc8a9cecead7f8c75c
col41:   a77ab9d9896a9db89bc8db7bbfcbdebbbfafafcaceacdac8d87ccedbfedaf9e7dcaebb8dbcabff7b
col42:   797d7798ab9abcf8ce298bcddcaadd9bdfdabfdbbddaebecaa8daeec8b8dbdc79a7788b6c69adbad
col43:   7c8aa79bb9af96dd6579edfceeb9fc9c8dbfcbf8bede8dfcbe8cfbfeaf9fbe8cdebdfdbeecc9b89f
col44:   898ca88ad6c6aed97bbbabcfdcbbfe8dfdffeddee9cdeebcdd99d8f7dccecabedfbaa7d887d9ff7b
col45:   8ab8c8ddab6cba8c878eafdecbecbe9fbcddcbeceedebee6ddbb99c9f9d9dd9cdaec78c9bcbaabf9
col46:   bbaaadcc9a8ffcf8ba9cdeedd6a7a9bedcdacbadedbdbfdadeb7dccb879abfe89dfc9a6878a877b7
col47:   f7be76d8e77e99f9ac98facf89feedbcafabdecafffb8cb8f8ffdabfeff889ad5dada7cada8e8e88
col48:   b6eca89deaa7a7dbf7b9baeade6afbbdaeaecddcdbdadeffdd9bebbccadfdddbca9aca8d9adcde96
col49:   799cc7abc97ca7a97bcc6facdfbccebafcbedcfda8cbbcc9dabcbfdffacefcabba95aac5cbce7c9c
col50:   bdcb58bdc6d6dc7c9a8ab6ebacfeec7eccfefbe8db9ee7defafd9e8d79bfccaa9bcc8dfbdba9789a
col51:   9a6a857aa78944c67d8a5899996aba5a86ac9a9bfc89acb8bdb89b87d48a97a96a8ba7ab88676877
