ROC:	 BPix_BmI_SEC5_LYR4_LDR20F_MOD3_ROC0
col00:   3335159425868556a86445b535755788958899348869474913a4a5774a7889756735271948966453
col01:   2865274489746495c777dca8818ba6dcaa799879c887599997896668a2b66b99b84868966aa85595
col02:   476756737455783795564765775b755a89b68a4774ca889699a9a9a56739377694849a57a4759a72
col03:   78358594696587b8755a39638596675a87a9c66c754999697985767892cab6887a8858588968bb74
col04:   661659798361356687a649556846668a9898878a855c9876a476a7e66a95b86679a33464689a7748
col05:   393366758772399766677627ca7877a66b7577779db947c597788a9ba6788895949599b539938577
col06:   354566647929793b87b2757778898777b9ab38a7784baa979687a67b88786786995a3a5357855347
col07:   6767a57337a4965676662b9b658da5a898346a74a9d9778ca5b5a99986c6699ca996a667cb964ac5
col08:   49324898455846b7898a59ba4446877c689587b78ab9656a5748a9685565bac88898768776968744
col09:   1b747c6732c7ab67964564a888899776d97997a66526858777a675797ba8688b4779968976976a98
col10:   6567876486aa85a649b5cca777c67867779b7955aaa79598977c99a5b69caa897869566799767997
col11:   1146145993b6957365685466592b285768787bc48a71b9b688aa7393869d977b885a799196546976
col12:   167197728896597472a58957787a9999b8687646579a55a936bb27628676a59b59398677b9966754
col13:   844877a8646668869b897789a7a6786898599675586688896666aa7578a97587ba57a78b56567797
col14:   9567452694b79b6a958ba78aa964ca987677995b4786b6cb8c5778a82c8caab77b99b64329bc6195
col15:   1192784966658a6a796a4467898657d8b8b879b76548487aab85a8887599878885aac55875869853
col16:   a335569589b797689895577994578984a9a759b96b85aab77568a88a829847a97a5698aa84656772
col17:   5868946585676785aab7976a5747a945589586c5998868797a7477987b6597885787666864388673
col18:   7286b6952555776b6876a62572a89366769a394667a9b9695747a95aa75a696b8887597775b84a64
col19:   4246689869666887a488978a5a68863978698a98ba755798bb7a985b6b55549b79aaaa8645737376
col20:   251665677d29a95787665497b688a5a995d8996b635776b7d65676997b6835a7779887b858d68959
col21:   65467957a54469ad6958568889558759b588b769669968477aaa8886879488576524587768778994
col22:   8681896958659a87a678644d5b87a899476b7368b9b79877548aaa3a876788573a57988786854673
col23:   71a436a7568987868565558797587b895ab85aa9968864449367a9767c997a79a7778b7568785491
col24:   498634948556996355995867a8745658ba9789786677757a7a4389ba896759aa97437877b5976a83
col25:   976785716889c7a995e65c978b6ba98897896777a9aa4889b8a5898698bb995959576bb9777a9994
col26:   89b755c8b5d757a7ab8c79c699857bb87668c78ab359db7938bb97aa89966c76b88798969b8887aa
col27:   a87748989998829645c738a6a399988ab9cab8a78794a9a685978ab8ba99aa9989878997a7697967
col28:   89b7787668c55776b7bbab9997a7d797a78a99a9b59b4adbbba9abaaab7acba9aa699a758a97baa2
col29:   a769697b8a78bacc6697bcacbacabbb9d9b8d7a5a8abce8bbb5abba9c896a8be66ab886967c95b89
col30:   8684b7e889879cc69998eb95aab9aa99c89998da7879b9aaa99aa959a9dbfa5ba9a7a87c8b88797a
col31:   b898c9464a8a9989be6cbf9c998cb98aa9c9a98eab9db87b6dbaa798c9cf78a7b8986ba9769abcb5
col32:   b85567979a9e5cbab98a9879bd767c9bc7a9cda6cbbcb6a9d7ad687bb699eb7bd4bbb88769a9a6aa
col33:   98a5598c7b998bd9bcbb89cdbafbc997ae9b9dabd8a6c869bb89bcab8e897a8ca5a8ca88ac857989
col34:   99a98698878ca9cc96ca69ce99a7b9dca8b6b9a88abbe69568dab997fbabbbd6987869dab578db98
col35:   c7798b9aa9abb4cb9b995ac8b88dadcb99ab87b9c7a8bc89be9a78cba88b6a96a7b9699abb8ab883
col36:   69878b999a5b689dd9d9cb68b96a9caa7b7cccba89989adbdfa6a88b999ba979abcc99b9979977b9
col37:   ea8a5966788fb6bb9b6878c88bb989c79aab8e8aebaa8baad9db7d989aba98fba8699cffab859879
col38:   8b9799c6b78dbfd976ae98d9adcbad9ad98db9dca9bcfbcb8a8bab7ebac9e8ac99a9b5ecc98bcbaa
col39:   867799889c5696ba49bacba5998dc9ab8b8ab758988eac878a89aa9b8caa9b7a6dbd769b99d7c8c3
col40:   6aa9cd6bbea69bcb7b99de87a8a9c98cb9debc97b99cc88bc999bc9c8ba89ab7a699bc987ba7bbe8
col41:   75677bc889c68c7c979d756ebbcbaababecec9baa7999d9b9db89b5bcd9beb6aa97c6aaa5ba8b8bb
col42:   889b8b8878d7f89ab8a79bfac98aba8badacbb66cbbc698b49a6cb8bbacab799babaa8c7598acc78
col43:   c98aab697c7a9ab889baabdf89edababbbbda8e6fdecccdae9b8a999dccdbb89b9ca7cdbbce7ba59
col44:   97b96aabba886ddb7b5ab8a9cac9d9ca5e8bcad9acbcbadb9ccbd9ab9b9d9cbabcbaad8cb8ba959a
col45:   63c48b76a8bb8c89aaabcdcd77b99e9bc9d9bd77caa5babe9977caecae9ab8c7bbaa9c98b77b8aba
col46:   86a8b4879cbab9cadddaebba9dbea98b9dbdf888abca99adeb8ccab9aa9acc987dbe59c79d8a6c7a
col47:   bb6a8999a996dcababcec8b6bdbd99abacd4bfdbbb9e8ec9d8bc98b9edcbbb89beca9bb49ccb7985
col48:   8499c996b89679ad7a9ca7d7ab9ab7ccacdab9caa8b5c67cfaeebcbcbb97adcbbbe9d7caccb6af85
col49:   87af97a6cc98a8bb8a7b69ab7899997f8c9acd9a8ac79ac9a899b7b9bb98ccdba7bc979aabdade9a
col50:   896877b66dccdbc97ad89a898d8badbbccdabdbaa9bdaa69bac9b8cd7998d4c79ebba7badbb9c998
col51:   93846787796788697b8779aad9899a77d8d57bab98a98c9a889b98887c8ac5a7b777b778cb766888
ROC:	 BPix_BmI_SEC5_LYR4_LDR20F_MOD3_ROC1
col00:   2657667969583586a8752abba6d9387aa9786669779896a87ac76a9a777497d4ab4997a97bb97c65
col01:   9666888d485aa89a89945838969aaba9c5a7cb8988aa7bca8988b868a379abb59fa898a88ddb9a6a
col02:   7a46765b864359687777678d9886c77c975aa5877a89a8b487ac654877cb978ac8ba9899656aeb69
col03:   357686767826c6c465ab6c8d85949989a97abdc9a6c9bb439a97769bd8c8a8b4c63b7caaba56c988
col04:   54857eb819b679b8b9ac5aab65599786796a8b666ae8975c78847cabb896b977a9cbcabc888bd877
col05:   8a64664d537a6a65978667b99886799aa5677e877d9695c99977777699888cbd4d28e8969b78aabb
col06:   566569659558579aa8cbbb9b7499c7bc887bcab9c89ac8a7899787b865c9a884297677b6978897a7
col07:   392975a68ba98b748a97a699749a7596d8aa9b89d8baa5ab99dd873aa669847698adbd8c369b96cc
col08:   65969586d373b77a7798494aa4377888968888c688658a6bcc6a76b5a7b668c8a5a388a59ba786a8
col09:   479a9687786769969889cab7879cc988d3b884946996bb99c6c84c8caa9e88988b868a99a6ea8aa8
col10:   677578b749a5ca98779599667b54a78958a99cb627bd6aa7abaaaaa87c87a9e99a785878868ba7ba
col11:   358697567877995a6a8a8458a7b7a3a9666a9566c67a7b9a985247b87796a9af6a9a879c87a79687
col12:   547986599774594797a8a7786a98b9a958b968c8787b8687cea79747aa96767796a89cbb86d89b87
col13:   7938778789a868b6bc98999a7b995c786a8726a99797d49a7667a7c9979c87ba8d739dc69c9177c6
col14:   37557965887a7869459988a6b8b5789a6794cb88ac6899bab9796779c6d869767ba799989b764989
col15:   66668666869797697a5583769876c79787dabba889bb58c934d9aa76689a93558597a97c838ac8aa
col16:   48485373a79b893e78b675685989857a9a8698857a66a9a99597a9b6a98b8baa8c9c687a8cba9d79
col17:   4323956667348b986b6559aa74887998797769886699c8a7998696499795965b766941796669a886
col18:   474469a7a667a887897757388d759bd89bb8998788d9995b9aba999778768a68a89a9897a977ca78
col19:   566599669856778867889947587a566994b9d9c68c9b699ba7a8a97a9bb67b87968aaaa957aaa796
col20:   585875775b13b5b8768898a58c479aba8988a77a98c5857a67376aa956c68b89875a88955f798578
col21:   b96767699889aa6498987788666aab75669a7ca757b97c9789a587abba8577c888c7a8a689bc9784
col22:   576467c69745548ac876a957c579aa5a79795a7a99b7898a95c948979ab6b886b6b887889998b7bb
col23:   5565944a366564a7689867868866799a9b97a9a8c9b8b76cd697a7b9697a59a386a857a9689da967
col24:   667954978466356976578aa7a979657b5a7b9bdb7c96a878a88998aac957888a78a6899889769a99
col25:   555a7a588a76a65d547566c89aa7e59ab78a68876cc989ca77b7a88ca7b869779d9879c98aa866ca
col26:   499469989a8dba7b6896baa88a94bb7899b88c9ba997ea799ba9f788bb7b9db79a68ebea6cdaa6b9
col27:   a6898a95a4699866dab798a8b99db8ccabc5bb77dcca7989cb775ac98ab89a86e869dabbbc98de95
col28:   b7897a6868b4b86a569a989b6889d799a8ae9daaa75dababc7c74f7989ac68bea8d7e9abaa8a7996
col29:   99895b898697b86a7b88989ccaa6889b79a7c6c9b9a8bdd9d8cbc9dbb7aaeb6fca996987bdb78eb6
col30:   676a89997a89ea8aa58c9a89ab79b87b99abbaab779da7faabbaabb8dab7a79d9d898a658b7da9b7
col31:   aba9962b9aa9b88968accb7999bdebdb9ba7eabccdcaeaa6a99cb5b9ea9ceaaa88c59cb86b899aaa
col32:   679766a955b8aba895bc9b68999789987ba9cd7aa9acadbedbbcabddbaa87fccb9cb7bc9c95adacb
col33:   7b9aa7785aa9c8aca9cbade8a899ccbcaaae88acababccaadbbbb94adaca9fcd9b5d98dafcdbaaba
col34:   a69774c886baa988a6a7ca7aaab98dcbc9b9b9d9cdbc8a9a687ce97ab8acb9be78bbeabdea7899a7
col35:   b8677a997abaa8a9c9c9b6dbbbe5bab77cbcaa75dc78bbbbaccaa8997cbc5dbd9cd599ccbb87c7ba
col36:   58ac7b679c688b9aba9bddba898acca8fa9bc8a8988aaadbadbe884ab9c999e97d987dc9aba9aaba
col37:   98bbb87c58a7a8ab99a98cca9ce8bbbadfebba88eb6ac9c6c9af8edc8bca89bcd8c9abc7ba9fecc9
col38:   688579c8b6888a8a9afb898bf8bc99a8becccb9dca9eddaabfc5b99ab9abadce8efcdbddaddcbac6
col39:   a95a9bb9a9b7daa89daba8b9997dc7a9a9ca87abc7b79b9c6eda9d9afbadb7cc7c6cb98f8899b9bb
col40:   7a78979cadbabadcac79bcd887bd997bcbdbb99aa88aeabbeab9aa89bad9bab98d9ccbecabb9ddca
col41:   47ab77aa6586b77a8bbcd86a8ca8ab9cace9ae9ed58aecba8aababe8bab8a899afbccbc8acdadbba
col42:   7997a88ad9a9889b8839dbbfaabadbaccac9da878d77bbab9afb9eadac8a9ce7b7ca8adbbc7fb9b9
col43:   9b7b9ab9bdc99ac9d98cc9cd65a9c97abbccbaedcbcd87afd99ad9a9dabdf6988db7bcad887ba998
col44:   9b5aa78c88cafaf899aa9aae8dabda7a8ac88abcebaac688adbbbd8ababcbd99ddbabbbfec6fef7a
col45:   a848ab8797849988c676cc76b889abaa9c9a96bcf8dd9fb98fbacaa9bfb8adbbcabfc9fdbe99aba8
col46:   a88a69899ca7aa968a7ba7aa9b99da88aa9b9b9ba8cb98a68abcab8bf8d9a6dacddab9bbcceacc9d
col47:   9577989776d9ca77db9b8a6989be9d9999ccb9ddedcabaca9ceacda9f6aa9ecbaaaeabc98cbe7b9a
col48:   83a5baad87b99c689adb67c8abae989aeaba9bcaae8b9aea7daddcbadacccaa8aaabcd8eebbdcb85
col49:   868896c69aa7bd9689aacba9baccd96bccadbebb9ce9c7ca897add8a87d78bdaac87e9aa789ab999
col50:   77c769b8b78aa9c67aa9ec7789b597a9bbbef8cb9bdbbabc9b97998d8cbcb67caebc9a8b9dccc9c6
col51:   b881976a8795589c685884868db87acad7f78a8cb8a7b9c688dc9c89b98c9c9c888a79b68b887b78
ROC:	 BPix_BmI_SEC5_LYR4_LDR20F_MOD3_ROC2
col00:   746657883a799969686697ab5779aa6aa7a989b998a978d6cc9978a85d79aa8ca7896a7aba8898a9
col01:   553aa498a779758685786aaa89bcbb8ca68889ba97986e7dacd8697aa38674a8a9bd8996e89b9959
col02:   78888378884a784379c899aa9865aa65aba59a8a8ca9c78c84ab9a8a88c5cab868b9a7bd97a9ac8b
col03:   b94647a9774869b95cc687493ac8b7d8bca7a8f879c8898a9b9bb9b7cbc68eb986a9ccbaba797a66
col04:   6769a9788967867695a698aba79aa8978aaac999a7797a79a7ad886d85a6a9c8b9caa7c799c5c8b6
col05:   946976a487d884898567b5698a87ccd777b4ba9ad999698d799a87a9b88ced97cd7a88aa9bdab589
col06:   6916b685589a4a99aa78a5d99cb98d68969aa8c9989b8b8dba884bab9b97cab99b9c9c99bdb6a976
col07:   6788a8bb851795999a498795c76abccaba9a79bb9d6ea68d7b896b8c8ebc97977cabca85a598b59a
col08:   57868648b8c767489677647587c7d7cca868b69b7899a9a9c795899a77aa9ca789597d96957a57aa
col09:   465447949ab84787b4b66b58cbd98a9cd8db9c9ac9bda798ccadbad99869cc99ca8bc958ababa7b7
col10:   967a67798568a79337a8e879568586a568b686babb55b9ba89a7b87a9a66ca9c89cdd894c8879766
col11:   887969a5a8a97546a799ad8b6bbaa9d7989cb9599749885857b7aaad897aa8da8ba79ca8a9c79957
col12:   76689669d8a799cb977699a7a899c88b8b9bcab96879c9998c9898baa76baab9c877ac8cab787aa7
col13:   85a9949b99a85a68989ba998bb6d97b8b9a589965adbf8bbd99bc8b6a9aae6a65ac9d7999989b76b
col14:   58355b9967899a45d9955759598cb958988897baba9966799a99aba97a8e98aca6bd7966a79889c4
col15:   7947c8897662d8a97aada967a57b88ca8abb7c9cc78a879bb6b99b973b9867ab7e78987ac6786766
col16:   9683b8959895b8669ca9b9ba7a779c678ec8e886859ac8a57badadb79b88887aa7998bbbbb86a769
col17:   567575729377c88598a78bc97a5a7c8e6d78d5aa9a6887b9aa965adb8b78a7957776a9559999a785
col18:   467767b6268599bc77a98a9987cbadcc6b7d8b49b67488bb9b7a9f8cd3967895aba5d66998bb85a8
col19:   26786b99a78946d397c79a78cb6c89ba9d99b8a87b9c98b7c4d894bb9e8a99d9a6888a3766d98a77
col20:   6879889676a548aa775b887569975b866985a6a797938587ab658949978dab9c6ba79aa5b896c927
col21:   755a7999886ccb698bb9aaa9aa8889898cbabaa9867a9badaa69697be7cda8995a9ce788a587b693
col22:   7865a7847a59b7a85759ba77d9887ac8c478ce898b6b88988aa9da997ab6d979ab75896a87b9bab9
col23:   58549965696aab76ad896889b668aa5a899698d6eacb8aa8bd988a77a9c7978819b88ceb78a7c7cb
col24:   674773357a697566a769875a57c99b6b68ca7b88b98589a99678c8b996c9798cb973ab7b6abb88a9
col25:   7928b9567569768859a8bab9aa86d6b7b7b8eaa8999adc86dba98797a587aaabaa9a99aa7b85b998
col26:   67a6aaca88a779c69aaaa7da99cb867bcdc6f9cbabbfd6dacbb7daa8bbc6d7ad8857897b8b89ab9a
col27:   94896a6679d69b9ba97a89a8bab7b9d98a9ad8bd7dbb99a8daa9b98aab797aaca78988d9cbfa4cba
col28:   aaa6a7aa77a889b996cbaa9aca8d6cdc9bfc9aaa8bab6e97b8a79cabab9c9a8b69caa4b79aa8dca5
col29:   6677a9a99a8464b77699eb8ea9abbada8dab8a8ac9bb8aa8f7d9bb99b8bc88b8d7ab7d8d6a6986e8
col30:   95a79ab97a67cb896dc889ac97a8a79cb89b99cabacb8c9abbda9b8bf7988b699d9aad97bac8a7b9
col31:   a998a88369ca8c66b5d5d9caa9ecbc9a896abbdb9ebeb8c8a8cb9c8d9bbdda7879c6da7a8aeb8c4c
col32:   688a996998aaba79b9a8fedeaacedbaac9dac87bebc9cbb9ba95998bc8bdceacacc998a9889aa89c
col33:   7a88bb98a9989dba9e8c79e8dcba8daa8cdbd8ad6be7b999bbafb89ab7accaba8c9c8d98d6867899
col34:   a685a69b99d598b8aa9dbeca9cdedccaea9cf9bb8a97c9caaad97daa8ccf9cb7cad9c988d6dcc8aa
col35:   899c9dbcbb9c9d96a95dbc69cdbbcdcbddadcccccbd9dbc7aca9cacabd8ba8a7dec7bdabbb9bfa89
col36:   84898746a8bccd79b7b9aaaeb9c698b96bea9ecb8cbaa78dac89bb6c6ca5999bdecb96cad99ade98
col37:   6aceaaea7ba9abcaceb6f8ca68bbcef9a5ac8aabdcc999589facbca87b9aaae9aaa99ec9879aba7b
col38:   baaa9cda896aaa9bc8e69db989bddaceccebaf98ecc8caaaccfb6c8abae8acc7ddcf99daabbd9999
col39:   88baa7bb898b9abcf8ab9bd989fcea9a8adccbcab9c9dad987a8e86ace98be9ed8b9b9acca7c8ba6
col40:   6c72c9b88885cdb88a5a8b7dbcb5cbcac8b89db8d8fbbcaba8baabbbccb7dbe9a9dc88da97dd9c8a
col41:   87969ac59a6c88968c8adbdcbccc6b9cc9cbbbd9a9c8cbdbbc7d998b6dcb8ebcbcaabdcc9abb9ac7
col42:   87caabbb5db9ba7b988abc76dbbaaba9edc9a88dfac9bc7cc9abba7bbb6cabccb79bcdab95ba69ec
col43:   a8ac87a65bf83a8c9baba7bbcb97dcbabd9ccd9bccf7babbbeb98abfaacabf99b5f8aac8dea89899
col44:   768879a9894997d94d8da77acb98cab7a6bdbdb9babdc9bd878bd99c8bbba68b87b8abb7c99b97c8
col45:   6c48878884aaacc79bb8a98bab77f6c9abc9cbd7aec99b9bab6cdfa9a7bc8eb9bc88db4998bcb6b9
col46:   85b77ba9bbdc99ccaacc79b6a64adc99b8f5b6d9d79fabeaabcabad68899abcbd9f7bdde9cbbbaac
col47:   79a85ab9bb8c9c9bfb6cca7adcbcda6dfadbefbddce77dc688bebaa959bc9bbda8897d8aaaacc9a8
col48:   69ebcc99e9999c97c8a8b9aab89c79d7bbaa848cebcbab89c9c6b8aa9bdd7a9cbbc7acba7dcbc9f7
col49:   5ab9baad6b9a5b6aa3adaa9b9f89aabc879bd6adbdba677c9ab77ab9bd54c9a9cc697d888d99a5a7
col50:   779ab6a898a7c9a9ddd9bbcb9cbc8aeab99cb8ba79cdacc8b8ec97c9babbabaacd69c887b98aba86
col51:   73aa7686989899c8498c988b665ac9798c95b968899ad5aaa6ba9ba78a586bc8a86a5b76698869a6
ROC:	 BPix_BmI_SEC5_LYR4_LDR20F_MOD3_ROC3
col00:   51363354354242766575657c556577797678b776757833727758875563877474a57758a694996284
col01:   837613b559547457968883278867776885b747b87864a59473a4577ca958678977a6c96889478886
col02:   131684855946655666456a455657b46c79876a857a63b6855535ac44c996676593f69a9b29587788
col03:   266557538664382247986997a385899975966b58a1a89b6777d7c59a9d8b87a69797668657778967
col04:   6375c697453275559948c9379887933759a756596b6968b9675ac288ba78b87bb67575a783ac9a44
col05:   355266867563684a52a97658887b99aa89966699557977a5a7a8a76a8ac668ab5777b86589758874
col06:   138367b65586985853ab6879866475569a6987836a9b77685b969846b98c9a637497a786b577379b
col07:   88276944ba34a894a66757689659a9789a689a779997bb94cbc779898688b62845a7a5978d87bb77
col08:   5116685666994646665bb754a46576c78855567b9ada8729a6b68ba688ad9b4aacb59659d5a98845
col09:   7747a379927465787487c474764b888c898799b89a77b7c788acbb587377a66a49765a6677689968
col10:   87347664978a5a77884a76a549c8882976d89a76a78b5ba997a76a66897ba789775bb7caa6779876
col11:   2482567c185766455998a574968774957895979979a698b4b76956495b94a98a46786894468696b6
col12:   452774737a549574b3aa67d9cbc994b9935a9a98776a9ba8aad38a95a89c9bbc7676ba9575d38975
col13:   536c45b5aa99585469897c7877a765a9786a769c7ba988898abaa969672b8db887995f9d9c2bb7c7
col14:   b455926855a68976977767584a684a7aa949a69989989a988569788c68b529cab887889a5678778d
col15:   48738c6486688369876664b78988798a8969b758d854cb6a785688a689b4e4a7c968879c68b68586
col16:   8566737859577e4387927846865497bc687a8b8879bcb79b8c9545aa68d8a66c7a6e4b5c974b787c
col17:   267b7556494995a7b967689548a9975aa9649959ab4b89b8b59778a5557938771a478b7889b699b6
col18:   745361665789838588a66587779688758945a984fa56a896875a8b58a18b78668846777985858877
col19:   6576789a57599475777c665796975a6967689979bc9b3ca97ba9778874b489b96a6977995778c287
col20:   18647896a568b556489895697c7856846586ce9b89ea99bca879989c96b7778b7949858497b39786
col21:   4155759579557742686a7a887896ea7ac7a75687a8bba7b887aa89756778288b9b6a9a596747c6d5
col22:   66a6728487a6687989349c959899a8998b9ba88b877dcd78a757ab8bba7878567887b863354888d7
col23:   5768866aa7a89685e76a75758a9b476ab6aabab8597b85b888aab9c9c8685a98748b9a6769a9a677
col24:   445918576669959c887898656758aa75bd7bc55bab8a386988aaaa87768679b96a676886b6897a85
col25:   85746895ba9565db8567ab985469a988768e99b7866d9a89be89a79a5769cbb6c68a7a6a9789876a
col26:   a979699879b9f9a5886aa8998a989aa784aebcabdc8dd9dcca7dcda98ba898d89bbb88eb998e9db8
col27:   95b458757aa465c7a9997d99ab8cae6d6ca76cbec7bc7a9acd8a9bb8d7a6d4cda893bcdac7b8b9c8
col28:   b76865c46ba75697a4dac6ddb98caa9eba4b78ca78a9cb9ce699abcabdbaaa8abbabc68d9fcbbba7
col29:   998a7a76aa8cbc5a75bababc9aca8aa9b9ac8c999b9d6dab9b8898c98abacba8faad78968bbba888
col30:   3779775cd7a877c98897ab89997b7bcb7a69abcc8aae979a79bcdc7b9ca8da988ebb78d778be9789
col31:   799989985a5999c9b79afcda6bdbb9fbe8cbbabaddcc9baebbbc99ca799cadf8bc89ad5abaecbaa8
col32:   667a9a999bab89a8abc998b8c6a9bbbb9abf9ca7cecbbba8abbbc6bcaebcccaca8f796c48dcaacab
col33:   83ca788869b8a9aad66988698dbb8b9a8e79c7bfbdd87cabd68bdeb9cacb98b8c8d8b957eaf989b7
col34:   e988bac99abab7b7a7bb99b9dcfecdbbfbcbbadc7d7e9ccd9b8dcc7a9aadb8cfbce995cacfaca9d5
col35:   67489b9579bcabc789aedc8addad9bd9dfdc9b9ec8bbaaa98d9c9bb88eeda7baacbedcb989bbcd7e
col36:   849777ad7b3985bb8a88bb7cfdaccaae9adccad9999ba8efadaab98d7f8b6cbaac8aeabda9abeac8
col37:   b87ad8abbd8cbbdaad7bdda9da9ac89b9b89dedbcbdc8c7c89bd67eccccdacfbbab9bec99babcbbb
col38:   abc8ab798baddeaaebd9cd99caccabdcaced99d9aabdb7cbcfbcfdaa6abbdbcb8bd7ecbeabc989dd
col39:   8c884aa9aab5abadd8cc8beb9b8a89d97e8fcb9abaafeedbcafbbecbeaa9bbdec8d8dea968a8abe6
col40:   59b988d979aec9cc9dd6becbedebbdb9ccd5d9dcb9cdf9c8edacbfdcd7abddbfdeac76eccfca76ec
col41:   bbc9a9d9a969ebe8aabaea8dcdabccf8ade9accbecdacc7d7abcdcdabacd7beadbbcbdddcdee9fcb
col42:   daae8889a8aa98b8acaab8aae8bbdafedcd9eea959beeedbadef9bdbb7aaefd9cd9eba9aa8ace8dd
col43:   9acdcadb6bc9aaaad97d88defbdb9d9deadccfffaf9fcfadaac9bab9fecbcbfcbdedebf8edb9eeaa
col44:   eba6e87ceeba8ce996fafcdbbe89bc9aac9acfb9deffbcf8c9edccdcafabdeefa78fafcddefbc8db
col45:   7aa99a8b8ede699ad99bcebbb9dcde7dac98abdbadaf8fcdddc86bd99a7b77bdcbcacbfbeeffe9c8
col46:   b8ab9ac7ab7cb99cc77abcb8bde9db89baeccc9c9c9aedabbbffd8deedad9cd9fbdcbbfdcfa9c9dc
col47:   8a7bd8c9bbcdacfcabcc8ccecdacebdee9cdebbcbee9faaecf8bbbc9eabebbabccbfdccbcebcfcee
col48:   a594babc87687a89ebdda9dadac9bbccfecfeacaf8aafddee7cafdafcbec9cfefdacfecfebbce8ad
col49:   8578e68adabcdfddaddeb9ccbcddcffb9dccfc7f89eefccdbfacb7bbdccfebbbdcbdcadfbcbadebd
col50:   8aac9de99babe7f69faacefdade8f68befb9acbcfaaefcfbbd8cafdfadccebffbdbeefadcdeeecb9
col51:   d7a77b8ca4ca3abb77a8aa7b7a9dbad5cb948aa8dfcfd686b9cc68c8a5b8ab89a7ccbd8abb9dca89
ROC:	 BPix_BmI_SEC5_LYR4_LDR20F_MOD3_ROC4
col00:   66325576a8b59974948895aa57bcaa7797a66b9ac39bad47ad82845689ac38998745794536b28654
col01:   4479bda89ab449a87fb895cb9aeca9bab9798aa8c89c8bcb5fb878667d98b6b89867c9777a8485a6
col02:   9a58477879a9796877985698878a7a969bacc67b578d9a897ad9b99c8cab78b8978627688668e58d
col03:   65699b899baba4589a8957969f74bb986ab99c98587c8aae968a5acb99a7bdd8b76844875aba76a9
col04:   5816686869bc68a55a86a98a686c7c599768bb7a499ab59cb66c78ac587c58c8a49aa85a6786c95e
col05:   4861876a98b785748cc69988ca9cab7bb949bb9a77796ac6cb6a7bbdbb988b9b9897a8a688446534
col06:   b9b8a8967848aba9999949ca7666a7abc88b496aab87a6da8bb9c78bca7d5b9baca949585a6486a8
col07:   7694b97998c8a9ab87499aa893ca89ac6bc578acbbc4ddc9bd979d6a75aad9e798979876b8c898a4
col08:   645967779866787974457475c85957d7aab8bb89ca6b99fcca8a787bca975997a836a759d3759577
col09:   52ab77936736b89c88a99d99bac9783988a6ad9abb6ba8a8ba77de998da8a9aa789ab668cab696b4
col10:   964969667b8479a7ca899b8ac977a48abcab857879a667998caacbb89a97c9da9a718b6774c976b7
col11:   a5589a87569b7672a7683b587719779cacc97995bb6cd9886b75a988b79acba7adba79888885758a
col12:   659164558578773588a5dad7788b94969a79accea8a7c6a7883a5999c82ba97d377995498a786a78
col13:   a64845a967a8c683979aaaa8c9a9c8aa995ad9baa98bbbd93a97dca995bd9a9689798679aaa29697
col14:   6674748286a58559897898599949a738c9a279969ac8a9999bab96887c7939be95a8ab88b3bb5855
col15:   a86466746a88956479b94baa9b5763999739cbbba9a699aa88aa7874b659c9dcda78795aa94d5b9a
col16:   8ae747544963a9497889e198a958888a977a97a9e77bbaa8c5899c6c9996b657a9997364789a9976
col17:   97578833415a8a888a786b9bacbc68798986796447785688aba77c9b66c6b797745868959a8a6597
col18:   673462964644887b97aba957969a998677a79b9a57777769d8a8685dca76c778735a3b2c87647945
col19:   aa8763576776978899776998b796b94c787986996348269cba79b97967b4687b58bb6bb689397557
col20:   4168695655577869d8486a6a55d5aca58998879799a7876b9a7c7a79a876aa996998c79739387585
col21:   788625888a898ba88966885e97eac89a8759bd7b5bfb6598ab974c8fa695864759ab49bcaa487958
col22:   27665657b65a197a765c7998654886a8ca9766785a78be7c56a88997b7aab787753b579999647699
col23:   764679854844664b6dc169aa83b6499b888a7b879ab9b6c8557a8999b686a79a869d687743567d57
col24:   49577273ba369559a5a94bab9b88777c68b458ccc8866879aab9798a97cd86ac568b991b65b96635
col25:   4685866a765885479ab887a778a56a7b987c9a5849d9868b6f78a67ba789b99999783856aa984657
col26:   966766ba7965ba84ab8a788997b99588d8bccac9dbcaccecc8bcb9bbc8a8aa897b96c869d86c5a9a
col27:   8735b7da4a4868a97b77cb9bf8b8a8ba7a97bb7c99bb9bfb86999c9abebdb8cbca7ca99a9ab6b96a
col28:   7a5989668a97489cd9adaa5ca986f7a88799bbbb8beb89b7b77a99a78b8baba87b7d896579aacb94
col29:   a58889aa5498b6db957a888aac5caadbb89cb8caa5dcbbc9ccaa6dcadebc99dba9989b8997e86c79
col30:   8a59588c677895b87897cbbad698badc9ba987bcfeac98e888dbcbb7985ac9c79a79c4889b98678a
col31:   4673896959a8bb8bbcaa959dbeb6bb9df6ccccdcdaaaa6de9ef8aaabceeb98ebdc78f6bc8b7b9bb5
col32:   97555b9a5a6875abb8c77bcddbdcfbd59ac7bf7db68adab7ac8bc6dc9bdaeaacbac8ac999697c692
col33:   7a94b6bcacb986a5aca78b98899aebbccbcaace9adcb99daadcc8baaedbbecfd9b95c97dc9d69969
col34:   89a5755b8867ba9c9bbd58ea9a7b9d6ca7bad67b97babd6dbde8da6cadc88adeaae9b89a57c869a9
col35:   49b799a75b7777a9bc6b8bcaaba7cf98ba98bbba9bc9ce7ddcbcca9aed8f99beabe89f5bd69c89b9
col36:   a7766b7ab78a78b98b978b77a89fb5dc78bab9b9ebaee77adea9b69bfc996db9caaaac9c7db8b979
col37:   96aa8878ad8a8d89b967c5cdfc7cb7cb6c4d9bada9a8c76e9dbc9bbacccedc979aaa8aba98b9cbb5
col38:   79c6ba8aada9cd77f5ab7bcbebc9babbae6c98fac7cc9b9abdef9ea8d6aaacca8cbabe899696c8ba
col39:   bcb8956cab87a9d897dacaa88dca6d99bcaaadbaa9adb896abcbbdeedbcaadac786bddf489a9ab58
col40:   3aa66787c899c87dbcd79797bbc59bf89acaac98afdcbecddfadbaab9ccaddbbdb8cdbb8ac8cabb6
col41:   877b9c98d584a77b89a9ac6699ab9ddcbacca9d9bfc6cecb9edcca99dccccd7a8bbab5caa7ae878b
col42:   99a95b6b7975a7aba579ac7bbc89c9cdbfb89bb69d9cdefeafc9ec6eeb9bceaa9a9ca66acc9cccb9
col43:   669897d8b769686ba95bbbadb9e9e7ac9cd5a99acc9f9cafdafbcbefddadcd8a7aed6c7d9a9ad98a
col44:   8849677cb84caa686997a8d8bd6abbaa9f8adddcbaecbbbfb9ac99cbdf7dbcbe5e98b86a6ab999a9
col45:   45879996b69a889c86a79bb69b98c5eaf9bcaadadefbba89eceaacb9bd7ccadadaaf4d9cbadb8cb9
col46:   5a768589e977c864ba49bb87a8dbab6cd9b89998f9bba98a979bad8ec97a5aab7a97e5aa99617d84
col47:   976835c5796a77788ac95bba9bab88cd7acbbbcb9cd66fadcefbcb669ae9ae9cacc9a7bc64ac88aa
col48:   889767a889a9a7b7b96a95c97a6b8b7cba8eaa7ebc6bbd9deed9aa9ab7baa7aac6ab9b9cab8b8cbb
col49:   64a288c7a49897a7839ae78babbb9aeb8bc7ab8ebea9d9cdadabbabaaa678c859aa7969989799d8b
col50:   b689986c94b4be9a6cbaaadd9aa967b6c9c83bbd898dfbbbaa9ccc7bab6daca9c6bdabbdea879b76
col51:   5a557675183676aa5aba9399659ab9789c77766aabab79bbba9aa9bab6a4a7a5b45a99ab3a558575
ROC:	 BPix_BmI_SEC5_LYR4_LDR20F_MOD3_ROC5
col00:   5585751293775ab728666968956744446428563984857abc46c76997564684375865a684a9698868
col01:   4b97753389756756969abaad879bc8a8b99caba87ab88abb9596b9b7686a6fa7a469b9a3782a7756
col02:   796977858887c98aa9948c8ab77a98ac697dabcc45cb89a7d89865b88a6889675b78797b76796656
col03:   b68745886a594476775a9a3dab879aa8a8bc5bd6b8989b47a98aa6576aad8784849547a974857755
col04:   285445697775f66b79cb98997aa9b9969a9a99999e89c76755b5a68787c26b95a65d58ba6a695b67
col05:   a989964a796a879688c88d68a9867ec6a28a998aa6cd3958a8ab5657c7cda49b768475a495896a36
col06:   9787379c56694b5b94a887cb9887596678689b79a98596a8775b967a99979694a89999524a395484
col07:   67b6bb7998bca89889e5969a96aaa78b9ba9778aa9a38aa66aaa968b97b99b6967976a9d98589699
col08:   935568a8788a95aa8791a59a877697785ab879595c79797997aab9478a88797b8a66545b3a998f78
col09:   67688836876856c78b8db689a79867ca59acbcba689767c879a6897b789e9649caa98795788a9996
col10:   9979a567757d89b9874986879945adbbc9d78dbbabac9a79a678b9a647897878a688596997965843
col11:   956a699796a9a6677479c7686aaa9abaa8949c6bb9866798ba8aa6c57989abb9a987685965a58994
col12:   79488aa954a786729aaaaa9689987a7a894997babab88966967998c7978aa8183d69aab959699896
col13:   765688b3686b788b7957684a88dba79b9b79bc9dda3889ba888a5998dbc96a98b6da67b65a17899b
col14:   9445596a4799899aa8699aea96a889a9675a57c7aa836787973689c9a9849997499ac99a68445779
col15:   96898a7a558bb8ac979a87abaa678accbbaa7a9ab6b999a948ba9c7b79a936687c88a42a9885786c
col16:   86783657578883958a787cb7a9786bab989a99bb88a7a668c68b87797a9c78b9787a58b7567a5795
col17:   9559555989556845895698788aaac7a9b859cdabace8ac98a5958a6777a86a57659aaa9398b19b6b
col18:   9a649ab676764b9aa737a86cb9a9499a989a989c4abca58c997a7a99875999b3787ba99947864b78
col19:   56a8a9aabbaa7997999ba7966d7cb887c7a9d9ccc8ce97cbcb6aa9bc9989b7a86c4b85879a88aa37
col20:   9464996a69676a8699649789899969af87977b78697ba8bbaa96a87eb769788bb8969a7c3a899ac7
col21:   833886758798b97688b89bc7bb989898995d8caa6ba8a97a87ad6aca88a596aab99978bb46767355
col22:   4678477bb86aa966788ba5777b466aba69b9c8b686c96ad96758ca9b7ab969a879899b585a7b6558
col23:   7577b986a57a998c879a778ab4a9bbb659cc3ccbcaaa68a99a7499aa9887ab979877776688a59874
col24:   265637775b6485a6495a9a89b5879899a99a79a89dbc795777b858a8ab94bd6c997a68a777768683
col25:   788aa745ab787a9a798974a9bb78bbbbcca9bd99bcced7bb7ab89c79daa7d9897a5aabb887457b94
col26:   7b8b8877bb8cd997d8accb9deadccac8c96aa9a866b8dbbaa8e87c7ccab9cb8a7bbca77c986a9bc8
col27:   8879acb9b88b9989a7abebab389cb8abbac7dbc8aa7cbbabdcccec9cf5d9de98dc99bdfa79997e93
col28:   9ba989889b9667eccaba9ccb9c8a9d8cfc9cac7cebcda967faaba9b8bcb8acd65aaecb7dc7979a8a
col29:   6bb79b6868dc6cb8bba9ecba7bdab9cdeed9a6bdc8ccfaa8b9a9c8b8bbcacb8ab98aabacd5987886
col30:   7b68acc59878cacda9bd8bceae899cabc9bbaebccfc5bab7989b8bc9eaaca7ababa8697967b987c9
col31:   17a9c9b9cbbbb8cbbdbbabddfcdcfeeec9ddead9beeb6dcbfefbca9e8dbbddcdaaaddcb98cbac787
col32:   696b899a97bc76a4bb8e8a99b9c89f7abcfed8eec9efaa9d979edaabbcb9cb9a9acbfbca9abcaf9a
col33:   caab79baabdabdacdbbbc9cccbdc8bcbfcbbeb89ed99caaaea89aaaeecbe8cbaba9ecaabe8bb9c96
col34:   bc4d7a79bc8eecbbddacccd8bedd8c9be8ceadecbacfdaa9d8eccba5dbfbb9ab8ee8ccc9eb8b99a7
col35:   7aa8aa9b6dac89deddbbccbca8dddcbdcacddabd8c9aadbbbbccfcefcc9ee79baabcddfbae7beb88
col36:   6799a7c89a8898bcbacdccdbb9dd7bcbb9adbdfd9bcda8cc9adfec87dbfcaaacaecddec8a9ccaa9e
col37:   cbeb9aaaecabaabae9dc9badbdcbddf9cccecffd9adbfaf9ecc97d9ecb8dfaebd8c9dcdac86ad89a
col38:   da6ad8daca98b6a8dbc9da9d9a8badc9edbbc8d9aef9eeacefde8ddeddeaadaac89acfd7bed99fbd
col39:   aba9a9cc4c778c8caccadbccacdfccfebadddfdcbadbabce8bdddbaa9fa9e7b8cdc8cbba8b79ab9a
col40:   8999ab78aa88a8dbfa8aeccceaacadfcccbabcaddfcdbba9beacf97ebdccba9ebccdbfbdabdbaabd
col41:   a98c889dcd89dbe9bdcfdeb9dacadebcdc9ecedb8b9cffdbbd9ca9fefcfcdeaaddcdcccc96fb7c97
col42:   f9c9a98aca9bcc8e9d99bddbcfbbbbccbdaae9dcaddffbedbe9aceb9ccdfbcf9a8bcfe7fbaf9becc
col43:   ca9b9bdaacbbad9adb9cdceedbacdceccdcefceffdcbbd9a8f9becfca8ebcdeebeecb9dceacecb9d
col44:   caab87ba8db9d8cfb9acabcc8fdcbabcc6df8eccd9abefddecc6bed9debecfceebdbdaaaeae98cba
col45:   799ad97daa8bcd8d6ec7bddfb9cbf9bdcbdf9dac8ecea7db9acbcdfadfbabda8c5cc8bfcb97a78a9
col46:   ba99b89a787dbcbdbaa8eccbcbbb7fbc8eacefccadcf7dad9adcbbabfcbafdbebbcccbdacdca9d98
col47:   9bbd9c7dbacb9baaabbcbcc8efeceff9bfebccceedfcddcbddbaedceebddcabdbefbedbddcbfc9b7
col48:   aac9bb988abd9dbebc996dcdbbedddcd8bdadbcac9afa7f8e8fecffbaa9cbeb99bfe99cdcbdc8bb8
col49:   89ba9789baaa9ceaf8a9ab9aeeccdbcfbcfddcddbacfd7ddcdee9c9ddbfeab9ecbeecbbeeebacba8
col50:   9b9dd8acbdbec8beededbaed7ceefb6bceababce7dedefcffe9daabdbacbdefddcc8aaaf9aafccda
col51:   ae9987cb98ad4dcb5ca9fdbb9bccbdba8cc9cda99ecbe8d6caebfbceb9e9bbe9abde8cd8baebb899
ROC:	 BPix_BmI_SEC5_LYR4_LDR20F_MOD3_ROC6
col00:   ac499748344a64686757378675698a6777b58599894bb1888871674873b859584726984515474574
col01:   7693884858c758976b9896a96995a98b8b798a9c7ab597679b65875b837a79588b53489755545417
col02:   7478574a7ac7677876689669c79b39b8aaa87b4a6b7b77aa6e7a7778376786946993888894345445
col03:   7579a55876a8697894396799a99957ca9da99a78aca6a58b899a98aa97b94b88875a4747a7864425
col04:   7ba3da4796b69779668ab8959866a898a897759e7857b6c7996cab896898958c69c9748886666821
col05:   88887779897a6c996abab6a8a79b8a959996e9aeca86788ac7753788bd6968967876957b729666b5
col06:   64a6757c695d9c578a6d89665a8b8889ac7bca6badb8769a888867c887566976ba775888599a5992
col07:   88a8598aa678798868b6b577d996c97ed7788ca994898b98c579db76996686694a4865a886373858
col08:   696a87c879858975a889aa599bb4ca9d96c768b9ac699b787781a14b769785797964768765959686
col09:   9896c9576a788b67abab6799a988978a79b8b9c88697878ab666a789797bb57b9a26768578b46864
col10:   8b775798af7869597a9c977aaa9a5686894c6c988775db89aa898784a8978595766b377648539746
col11:   558875ab866aaa89ab85a846979aba699c98b888669a8b966b885d977567a744878978257785a473
col12:   5c997868ad39359669996a7ba769587b9ba7a8583889a58867689866989a77394798949783678462
col13:   96d66a9a77599788cd7ab887b8aa798d7ba99c88989a96985995a48bb754a657a858677876a38476
col14:   576b7578b57b6b686bb94a685b7a78c585869b89a85688bb886989a857584ca994888777877b4878
col15:   977876bb9977b59c78b49675798b8789a8db989995ba8bd8c8689898bbb79a6abb76698992a96299
col16:   6968cdc9587678a4ab799aa9bb4a898ca8796baa77b7c77b96c8ba8ba59a99b8b78a78b867868961
col17:   758895a4958a58976976aa789ba7997654bad7988a6868aad66967b548977557ba857b4516884954
col18:   786a488597877b89a7668aa8898495caa9b95a96987ab9a998bbb98c7d7bc979b2977d9985586575
col19:   97ab5a993798a9a9869877a586c9a87bd99d6a45aba89657a9a8a5c9b8695b9b98779b9667138b67
col20:   4c549697586b8a9a54b97799977999868678ca8b75a6aaa9bc7a9586a97888678747877a67876757
col21:   397997799999ba5699568875a679869aa56a987da9897caaaba689877a88c98788678965577884a6
col22:   c7c98799978677bb7aba769896da975a8b9788abab797a97a757979a969786a4997895c8778b8954
col23:   856ca257c75458b998792896b76a97a6a9a7b69897a9aa9998aaa8ba7aab889b78825997468a8687
col24:   79b869a6a888674ad59babcc9c6997799b89b53ab77498977cb78a9a7988a8a76989684b998557a5
col25:   997b7a67667b997bbb399889a9688bb8c84aab883ba6987a875ba64a87874698668889b85c666e88
col26:   98ca7ba899c9a67ab6a9bbb8aa8977c97c6bb999cbddabaaa7879b9bca7ab688d9b8bb9c4aa67479
col27:   9b664ab96c9868b98c67bb9bbc9aae9abbadaaebca9ac7b8aa9da9aaa88dbbab98c97596c998c6a6
col28:   857ccbad9a9997a9aae8bbcabd8aac9e5cd99fa97bdea8a7cd8bbc8b9cda9bbcaa85c5978b76baa6
col29:   57a99aaa7a9a68c8a789a6e9ad88aad8da969a79ca8cca8b9a98ba8b79a7b839bcaba699b7bc8868
col30:   97cca59a99a576bcccbab889d89cb98d98899cfabf7ce7aaac7d9c9a9b8a9da8b8ca7a9a97b9699a
col31:   89689ab8bcab7bade8aaa9aa8cb7a9bbbaceb9ac88c9adadcbaf8a8aabdcdabb6a8a8e8978a6abbb
col32:   888a86a99e9f7a88699b88cf98e98d9ba8ccbaddaa99d9ba9ca8ba9aa99b8ad8cbba9ab89ba8bc86
col33:   bbaaabb98c7b8baa89babbcbe9cdc98c9d9c9eaa9a9becdb9d9eacec9d89c9beacaaea87a89899ca
col34:   babdacaa9bb89aa8bc9edd8af989ccbdc9aabda8eafcdabceb8ebaaceba8ebcba8598798ca96b87a
col35:   aba7a8baddfccbbb69a7a9a8cbcb9bbababc8cad4cded7acdacc99ee8ddcdd77baaac87a86d789b8
col36:   6aca8a9b9bd89b9b877789bab9c7ac9e9adbbdccdadebccbcadab7baaebc798b9ca88b59cb8a66c9
col37:   8989aabaea987b9aabddcae99cacbcfc9daabcbe99baabddca9bbe9dddd9a9b5fbb88b8b8888c67a
col38:   6c9a87abcbbbbde9abcddbb8cbbcbbbd6cbc9ebeaceaaa7fcdebfadedac9ca9b8c86babac58759ab
col39:   bcc87cada9d9be9cbc98eaace9bbdb889adadadaedcbbed9cd9dcbd9fa7eab8ecbbc9ddb98ca76cb
col40:   7a8d88caecaa9ca7dbbdcdab9abbc99accebaacdcabb8beaca7ebb8bdadfbd7db8ae99b9acb58ca6
col41:   aa9a9bbcaa99abb7989a9a9bbbdccdee9aafa9bc9a9ccbcd8bec8eedee8ccb9ad9aeabfaaa3a5fab
col42:   b8b9a9a777c9da77bbbacacead9b7fbcbedbabcaebaced9accdcdbc6cfacabd88bbb888baca9b6a8
col43:   8fb7db7bb89bdcdc9aaa8ba8ddacdbdcabbef99cbacdbdacddcefdbcdcbebccc89c9ddcacdbb88fb
col44:   ccacabeaae9bf4cabbfcdab8cc8a9a9bdba99ddccbe9dbaadaacdcb9decec7cdbba7fc6fb99d59b9
col45:   98bac8da497cbb88bcdeacceaaceaaa8c7deaacbcbbcbbbebbbcdc89bdaddabcc99877bb89accbb7
col46:   b8bcb9ce8d87ba7bbdc99ad9c9be9dce7baacedcaebbdeaecc9bb9bddaccab7aaabbaa8aafbac8a9
col47:   bb8bcb9adcecaccc8cdcbcbebbccfcde8bcebfcf9adcced6cdc8cbcedbdfddde9daed877ac7c7bcb
col48:   cba8dc7699c9c89b9debdcaccb7cbcaacd9bdaaa9c9db9babbdd8ccad9ebccddac9aac999c9b98cc
col49:   a4badadbbbaccfc9b99b5bae9e9ceecb8aadbeadfdbdc9dcdac5bbb9bd9dd8aabc99eb9b868b9b7b
col50:   9b9bd97779a9ca9b97bfbababfcceeb9dcebfcadfbbba99dbe5c9b9aababdda88d8caac9b56aeb86
col51:   77799b888686ca968a7a9c79d95d989bebb879c9ccb6bab87b898ac8bbad66cb9b988a9bacab5769
ROC:	 BPix_BmI_SEC5_LYR4_LDR20F_MOD3_ROC7
col00:   14563364431273754765458164265444563675557392516856844876677455665436436542154636
col01:   4125d543652779779575888457789779585b8857b57666965749b8783a4968866988655767585855
col02:   65797387546886185688445388a774a6886854859639986575768759774a88a5577436438a736573
col03:   72645594667174b565469665776765756977545bb949667b47556887767668783767896364816565
col04:   513377659272566488367a184856279896a5aa66676587a72778a637777987743363553666793666
col05:   8556621456667b89665798867465855996585b672487856a85a587586269737a7757793a5a573663
col06:   634546764545334555685597577858677757475345556a8939387756873855966736677565698672
col07:   766683968354774aa6796677698a798648a657975aa86c66a973a757838aa878a72977888965677a
col08:   77256574a4476689525a7844678787977646a998b674477637775a64787454783754873463a66644
col09:   58748523366958993955a989988ba649a5777856a98a9a7467863ba96aa778868a7b77b625945558
col10:   855984569734747b8673c9b8977495994784bb699a67898567587a3a3597577862787396a3179367
col11:   255576845458b5656837ba697b6aa73a86a6888786986aa87b769968889696466585568636976475
col12:   665555557427652a66768644a79978a496a65777967587578a666683867659675456648638453253
col13:   745558875b76683665562686a8568766975798b5a65758889566956997a664863956756677755466
col14:   45694855579a974868675777689768879539589978678765754853797598829aa547686764696453
col15:   45637885686679856866a66617889899597879697947279a664a9898679576774547337665358896
col16:   678457586653675752763898569779599894768a887886ab65876477576675835655578285794745
col17:   436744478678667b54998676777887887789939b5696879865766558656546797978365373875623
col18:   44566657755765654728977695568787766677878a69489938647788675857759646656571164463
col19:   5869584562538775798858577a646b68686b873877896889897593567688785587659676a3994698
col20:   33565889646765677266b7a5597a58978a8779759756656598888966566764a79657544343574554
col21:   b56667476733a953745a776677a8783a79b8c69677657954547588c68566776995a269477668a675
col22:   364565726666577679555949598a77b998678668877779a99768a8976aa566665928455786773322
col23:   7456765797668a335475986a96a656b74955697577897b9868677868877829859771a57518542754
col24:   77478455859469585497666685979778399777a8ab9856b848655668aa7787875864555767647745
col25:   777666684478a6a778a9b7994a8898a979bbb6a8a5a967999959a6ba77b9c74aa876688756597854
col26:   69966755679bba798aa9a97a697a968798b779cc7a9489a9c8ab98982a977799676ca77497487655
col27:   687586c9864856978c9998d986db4988b598879799b799a7aa8b9a884a978b8665768a9879358576
col28:   669679967778676999699aca8a8989989a7aa5a86b5aabc7a67c6ab79b9a59a9a78a47a9c9445784
col29:   886769a88943797696a8883a88989a655a86ba89c999986b999aa5b8aa7c7777a58a467987c89759
col30:   8686a6ab98386878a7869ccbe38779aac97b69b7798aa888ba8b7d6768755a578699aa683759a945
col31:   997887a899757b86d6cbaa9a9d8a9489bab678c9acbb6aba878c75bdaaab766b77889756778a7985
col32:   d7877586a9a7b99789868a9788b8ca9b7878867aab78ab789a898988ab79ade68468a769a55985b8
col33:   6a89969a7a899848a89487999aba9b9878799999b99a9779ae999998b8a9aab658a2875a9856b896
col34:   b979b8b77a6b8c57ab9887c9998bba7a969d99ba7b88acbaa9ba6d986aaa689a8c8ad6897ab5584a
col35:   5ba6996d99789a8a9b9e778dba877ba9a9bab87bba96cadb9f8b8aba99abaad9899c5ac872768b98
col36:   8cc8876b659c876c6ac6987ac6baa9cc8babb9ca9a8a8cbc988ad68b69dca9a779a769b569878785
col37:   a898b979ba6b97ab9b97ab95b6c8b797b7bcc8aaba9acaac99abc8997aa98babaa95778a74866b96
col38:   c774b9b75a7967bab88ab9979c9a8b9b8cd9cb9eaa8b89a8caaaaba8be69998aaa8aab57969a7776
col39:   a287977996b68a98bbaa7889b9caac7b89cbacb8aba8ccaca86b79778caa7cc9ba988886a6799978
col40:   abc8a8bb78ab9cd99aa7c9799b9bbcc6dbd9ec6ca8aaaba989679cbbabac99bc6b7c68bac8aa5a73
col41:   7788aba895abb96bbabfbba79acbaabafaadf9caa9c9cc9cbaddbabbbaab988b97aca78969c689aa
col42:   a697abb84a6b7698dc88ba8ab9ba7b9799ac8a8c7cab7eab6a5b99b8bcc99c678a7a8979797a7944
col43:   89b999fbaa9a7abcbbeda998e9a8ddbacab9a8dbdaae889eb6cea6bbcdbb89ad9aaaa79c7886a899
col44:   8798b86b9da9998db98999ccbaa8a9a9c9bad9bbdab89c6999aacbaa6da8ac8999899bcba897c8b6
col45:   a88aa776ba9b79acb99ceaa9dccabbacc7fb7ec9ebebacb77a99daebc9cbca9caaa9a78b87898676
col46:   998799acbcb6b778a9aa8aaa9a9bcc8dccabdbdc9aaa9bc9b9caac6c8cabbbb9bada67b779789878
col47:   9bacaf98b8bd87cb9998ce7abcbd9fd89ec96cacbbb9c9dcc9b9b77b9daccea8b8a68b8daa89998d
col48:   798c9bca89a8889998bc8cabb9b987aebadc9c8b9797adbbacba7fad97789ba976d99a4bd68ba477
col49:   8b6be8b9dab86b9bcc98ac9bbc9be9accaaac88989bbecbac999bbccd8b9baa8c78b8c7886c86696
col50:   baa8b9b99cb9c89a68baab89acbbaeabcbc9cc9a8badadbaaaaca9ccabab98d8bba6aa9b8a98a9c8
col51:   bb976a9b879877a9aac8a8eaca8b9897b7b7b6bba89cb8ba9c9b9a7b8978a9ab969886a99678b874
ROC:	 BPix_BmI_SEC5_LYR4_LDR20F_MOD3_ROC8
col00:   f567775b98497778764a667777b476a73a8899a86966a9a79aa8687787d66e66767987555946b965
col01:   787858aa588a679a98a8aaab85a86a8aaac9a999a8a7ae499a8a9ca9dba689966a99aa898e9697a7
col02:   74ba6c667835866699a7a85959a8aba99a89aab8ba6aa996d9a9b9ac7b996686878469396478b825
col03:   93a8a68b7a7a38a89d6799aab96acba756d78a877c77b79a699aa8aa88ab86a7a9ac8c98a75a4686
col04:   599656b9a67a7a7889797a839887897a7787a97a9cab9a6989a99a879767988a98885a97579ac777
col05:   896945768978ab895786898849c8a7da6899d599788885ebaba7ba488bb7bf748876979ab7688466
col06:   7829887a99589658b88587779a785659cca6a8978a887ba889d78697b8a987abc64a488bc95a8b46
col07:   c88a9a78a8a996c7caaa7cb98cb8aa6accaa8acd65bcaba98bc96b65bc84a7a789b8a7a9a5556695
col08:   956156b9964a487a66998da89865998cc867ac8d9aaca9b79ba75daba9ba8ab7cb88886a76635465
col09:   9b6989877969768a8975b799978a9b65abb9bbaabacc7d97b7885d77a79cb9aa885889b678897a97
col10:   6875b858a48d6998b9a69868e888b8a894a8abb8ba6ba76b9b89c86a9cba77788bc98662b8987c7a
col11:   8876876c9aa8a999a7a98a87b67969e659888b69965a98d99bcba849a97a89a956886c57764b9a68
col12:   a4396b766579ca76b678baa896874c9779a7ba94a85969babaa5879589c869879988c87c86889798
col13:   7898b9a89a5ab9d85a4689c89696b88789ab879de99899cc9b988ba98c9aa9b9ba88aa5696499959
col14:   898879798855684899cdd7dcaa69abaea7a9abd9bc8aa889657a893cc7b7fc77a8a5a88c85799a78
col15:   68a667564568c8a69a57a89976779635abb598c839a9779aa8b878a7b789988a765a9b9849788987
col16:   966767788c78698d7869bcb87ca69c96b9a7aa9b9aa8bc979b8a987b68889a97777638a58ab836b9
col17:   945ba486997898598874688b778598b99a97ca59cd98b89898a796989c887994996b9996939bb63a
col18:   7b68a5b93aab9888576899ab77bab8b9a799c98b99659ab7a9899a9d8aa9b89997a8b5688b485b66
col19:   9d588a98756878a88b6ada98a9858ca9778e9cd7bac9a47c7c8b997cc99b4a799a5656a888888884
col20:   9b498b7859ba6576c58998aa9b9a9cd89bba78bb8999aa79bc8a7c5778b778cc9a965858b88b8797
col21:   77aa3888877978986599688a7e7a76acbdbda799969a675c6d976a889a8a88688a96cca467998943
col22:   68865979697b67eb7a778b7aba9a99d9bab8897b97ae7c8bab9ba9879b9baa7789859568ba5a6988
col23:   66778778769a78b996bc68579a595898ab9e859785ba75549d8cbab8c8b799959996877775583448
col24:   92d6679c48a6aaa859987b9777fc7a99cabbaa7a8baba88c8baaccaabb8499a79a4889a974896485
col25:   76888b3898a87b66ac9a5ba999ae9ca95ac6ccb96c8db9aca7b9cc8ceabdb997bab57898a7977677
col26:   97a4888589d88d9a98acdbacadfbcdba9abb8cf8bccebba87deae9aab9bbdaa9c9cabaad7a8caab5
col27:   687a8aca79b6a99a8abcb8ab8a7ba989a78ce7d998acbbbacbcbca9a978db89cb767787b9a9b8c86
col28:   9c89b8aabab69fbdbacbbaa9bbcbc9999ccb9b9cdbc9a9adabaccdbbeac9bab9b9abab99ac9aba86
col29:   9a796bb7878a7acc89aaaaac8acebc7acb9dadb7abada9bcac98cdbcae8cbeab9b88a9dbb55ac8a9
col30:   9858bba6998b6bd99cc877cfaf7bbd9bb9dbdba78a9968bd98bbbd9bbddbbbb9b9cacba797b98bd9
col31:   7a9aaa9cb7fdab6a9c8abbc9fcafdbbacdbbbcaf8bba9daabdc9adaabaabcad8ab9abbbcbbaaddba
col32:   c6a9a9b9a7a99b89bdac8ccbc79fdfdeaddafda9ed97aeefcacaaa8cab98a9a999aacad8a6a9adaa
col33:   b67a9a8ab99cbba7bdadabe98ddececcbabdcac9acb8bcbceba98b7bca89aaeba8caaca98c96dab4
col34:   b889997daa9d8aacdea9dfc68bcebacbcdaccbbfeedcdbdbcfedecb9dbcbcb9cc9badaaae8bd8a8c
col35:   aa7be8d98dc8ddbccdecc9aabdeadfcdfdeeacccbdddccccecddc9deacafccc9db9ababcaa9b77d7
col36:   b69bd89697ac7cbbbbedbddd9e8cdbaeafa9ccadbbbeacbc9cebcbccaa9ccfaaaf8a986595bb898a
col37:   77dadb7bdccc99acbedcddcdef79ffafbe9ca9e9ecbaaabbdddce698cad8dacabbb88addeba9cb7b
col38:   5ccc9ac9c8a89cdbdbccefccaeabddd7adcbdafbdbfdccacf8bfbbccccebefa67b9b9cbbdebaa9d8
col39:   c98dcbccc7bead8cbeccbdd9acabbccaead9ccec9acebadbd9fddac7dad8bccc98997fa7ea7a9bb5
col40:   7788aa8a89abbfaaccabdd9fceeacdbcc9cd9fdb9cfbfcd9fbbdcdccfbba8dadbadc98aae999a897
col41:   abdacab8c8baddd9abd9aed6ccccbceecbeeeaccfcbddd99dbdcfb9bc9aecfbcbbbdb9c9aa9b8cf8
col42:   989cfc789e7cadcaef9bcdbdaaceeadfdd9bdbccbdccdabccdebeabed99beab888bb9aabcabc76b7
col43:   8acad9faeaccfbdc9bcfecbeeceacedbddcddffdefeb8cfafdaadbdcffbdcecabed9bfafcbcbc9bb
col44:   ac7ebadcb7bbac9abe7addebdfceceebfdfdacefecacdbdcfb8cddededbcadbccdaa9cbc79edc9d8
col45:   bb9ccb9abccbecbdefadb98f8cedce8b9fddecffcdf89cbfadadbcbddedafcbeba8aa8aceb899ab9
col46:   9f8babaadbadcadecbbfceabfcaeddacefbdfeeeceed9ddbfdccccbef9fdecb97cdcfccdabab99a9
col47:   bb9ddbaecabdb9bbcbdbddfbebbaaeeefbbef9cd9edfefddecbecd9dcdbecb9ada5abcdbb9bbacc9
col48:   9ebccabdacc99bdceedca8dfddfaccdbebcebcbebdaac9ebcdcebdbdfecfef9acdccdaf7b9bcbacc
col49:   ccbccbabe8beadcdbacceec98bdceacdeccdfceebedfdbcfbabfd9ddeccda8fc9eacccaa8d9eb875
col50:   ba8cbaa99fcca9bcabdaeffbedebcec9febfafeeadeccbcddcdfedbc9acdfed9feccab8e7bccbee8
col51:   a8cc9bbb9aa9c8fd79cbb8cbaea9a8b9ba79daeb8caa9dc9d9cfccf8abaaacb8dc99ddaa78989a7a
ROC:	 BPix_BmI_SEC5_LYR4_LDR20F_MOD3_ROC9
col00:   4b7836917959454c878466851968789589793898763577b56c78888816473a536a87767d876465a1
col01:   8588a67a8649875a62567938b9a96838bc58aa88c5c976aab9b8a4b7a68899b7e7666867332a4436
col02:   3567555564b68767936b6a847b5849677a4796a9aaba789f88c997897a99a484b759bab459863a12
col03:   79699694c8694b899ab567baa468a7b7ba8a88786c778cc582bd46697d177d732488456534589985
col04:   9b456645829777a4b7799a6c89499848a96ab57d64a9666cba7845b6c88588476867739688712655
col05:   5c495a7a65a6887a8a898a47769b69799776748a87b9bbad852aa9758b7894758a72366818271378
col06:   8757794a65b447669465783e979b8cd8bb6899a9b784d6acb488698acbf7ac73a594c6935947a546
col07:   674684b9678764586618a8778aa47aa9ab9acc88a8987a897a8758b7a736789bb665766489975774
col08:   a4b579a6546666737876786a89776798a6786b9c8989abb76b7189c7488a84b6aa65698d88532158
col09:   7857a867b8ac787a686867b99a867a7aba98aafc89faa9cba886596a7cb88b7959778a5974a79a56
col10:   58585378d8b888b677679a88a656c987b98aaa97cdaa8aa9ba854ab8758718b76445677985b35741
col11:   46746532a5c776744b854bb7798a7ca6949a7a99ca9ba89979a659abab836a456695587777754596
col12:   36188489754965a8a3679758ad8caa8ac7969979aa878bae888d7cac77b5cc47aa3986786a352261
col13:   7a718465835872a6478648aac86f958f9e86c7b8b689757d9c79fa96a974658ca7a789959a4a4a25
col14:   952467669957974856c69486ae7b8678669899978986d6a98aec596d987a58889995577b696677a5
col15:   39c76856598978b6746da6b684ac9ac5997d49a8ad6888de99b9b5b697d7656677886985415b2755
col16:   6755498b578857679a87a793b6a873a9ba734698c56b7a8ae7bc999c6ba9eaaab894b78946556449
col17:   77657353875944d89a38618c979877872c999c87a548867558459a58679647877588e98596672579
col18:   5764a658785779aa3866798a9a96789c998a58b9a959577ad7aa9e65c66988ba967b877987427834
col19:   1456535769a36a935a77bd8c886b89669ba8ab854a5c6ab7c86886b799c98744c6a65b553581a875
col20:   95b394545657997749855772768344a9ac57ba5c9959b7b9aa64a9687487a66a98852a9655566737
col21:   66895a3945987487698799597775b77789a77ad6998a67b868a87d79b8baba984888995977635735
col22:   6775844684958a5949aba99957b9b9986758867bc92b979758a78a88963a8a6a874b98a545637196
col23:   9ba624a86585377ba955d66337976787a989bda997768a755a9c77b8759377998955569985552864
col24:   71a965b9698688969a8668cb37987a743558aa5a7ba8b58a68c77875554595d9b6797757b6517696
col25:   48746987a87559ea87557babaa6be9b7cb9a666a89aa9689ae77558b7aa587a94d89694a8a725575
col26:   9a44c78b89586586b787d9595c9a879ac99c86a96b9a9cdabaae8bce8ab8648e6856d8a95baa7846
col27:   bb86b5757abac4aa6ca8bcf7aa8aaba76a85a99cabab69cc8ca9ac9b9ab99a8986c8889b798456b5
col28:   779667a58ab6886cd8dada899abd79b7c69b7be4897a8cb7cdaeabab9db8a6b36b6a999b48b94966
col29:   5446576b88785a6b6d76a6698aac8799baebc9a9cbb99bcadd7bb8e9d78769bac7965797ab79ab65
col30:   9669a359c787776c79aacece67b9879bc96acbacbd7cebd65c8b8d97b5ba78ae8765479995679a75
col31:   775abb16a78bd7a699a9aaba7c9cb799ca9c6cdc8ed9b6d78aa1a99d9ab869a689aba8ba8a97bb64
col32:   abb8aa59699a84ba9c6a59fde9dad89c5c9fccac9abcdaeab86abaab948edb8a99da936c9769b8a8
col33:   888ca67b6cc8975cbaab88687b363ebc9b897e87ada8bdb6aca9c8af98bac8b7c9ac89d98aa89878
col34:   b688a59ab89c77e7b87ba878c668a9bc6cdba9d79dc9896b9cbcb9a8aa8cc7bc899d9b87c69a3a85
col35:   a6dab678897e98a9a9b8899abbb8ba7f7cc98c9acb8beaab97abd977ec8cbb5aab8859898b894a95
col36:   4a779ba477a97ac6dababa79a9eeaa9a8a8cda9ac6bdb6ec9b9b8a86df9a9b797ad9aa758b58b681
col37:   aacaa8889858698cbb989999ba9dbb9da8bca97a9dbb9ac8afaaa76da5b9aecbccbac997b6bbaac7
col38:   b898deaab9bd7ec9d838dbad8c6be8cabdcbaddfab9ddb9acdcb898cebebb5ea97a8e88daad6ba83
col39:   8ac9db8e898ac6baab96afdb94ba69a7aeaab8dbcdb89d6a9acaca97cf6bc9b78afa5b89b8daa79d
col40:   8a97a8aaaba7a7dadbba8dcbdcebd8cccbfdecd9d9989cdcbcacdabcba9a8b98b79daf8b883a7b7a
col41:   b767976ad7bd8a9eaad999bb9bac99b5ace8e99ccad878a7f9dccbdbdebbc9a96a7bada3cac7b888
col42:   99a9999a8a6cac898b9bb99c9c6ccaddcdda7fabd7facc8c98a6ea97ac9995dcaa7cad7ab8d58969
col43:   499796ac9b55b9cdc87ba8aaa9aecbb9bccacdb7bbdd8dcb9ab99eaeabceaeb7c9a9cce9a479a7a5
col44:   79ca57ad9aca7ea8ab97baaadbadabe989baaa7aaaa89cdcabdaaebeaaeb9abce7bdad98bcbccb89
col45:   9798a67a9cc9c7abe986acba9cb8ccccabbceccb9978dbf9cb9baabeb79abdc899cc8a8b9a99bc26
col46:   b58bc6aa9a95689d9757badcb9aeb9c799bbfc7abb88bdabbdb9fccfb9dbb8bd9e99c9987fbc469a
col47:   c9b958a4968a8d7c9e9aba9accbc68adcacbade9baaa7eaabaca8edcd9bdc59ae6789acbca9c7665
col48:   589a5895bb977b6ca7ddcabd8bbc97ae9aa79b8ca97bc6b9e9bc9a966a99f9ba8b878d7786d89386
col49:   f97646796b978a79977489a5987ca9c9e8ceccf997fcaaff79879d8a8bbcdd76c8ab5798a9299892
col50:   2ca77ea787cbf8b7a79cdbbc99acd8aacbfc8da9b99c8bac8fbabdebacecfc8a8a4c78aa686bcaba
col51:   9a766a289775487aaa5867a798ca89895a67b8977e7d8888acaaa68f8b6886c9ba94a897676a9b74
ROC:	 BPix_BmI_SEC5_LYR4_LDR20F_MOD3_ROC10
col00:   7157731a7388685684676548986268654a8389666859799a585565868957468a4779649589963a27
col01:   9983866743438585587996b6a34759676769795689555b58aab8979a87b87a589784977685846dc2
col02:   5946755465886b67a8e7678678a6ac697599a939ba387ad79ba53837ab666927888a96985865c387
col03:   96a5a79977395a984889a57a95889968876a87888a79989788667698b7e6aba9645563a9b6646671
col04:   667668194765b887b5ad77488c48a64779b8a97978b787a896aa9caaa7a79767a76746b679a55b86
col05:   67695896866199575479c8aba94db793789aa888a878d4b8ac788da28a5778995677459455664754
col06:   7555683346aa629788caa8a698a6cdaca67587b996c98956ae64764c35993b498486778798347583
col07:   968b789739bba899997b99aba97975a97cacda6898baa9a9a97a7b4a88a9685a86a89c65b7954497
col08:   76236886147863b477798ac79869a88ab7895bab7da84c96c9799b888a849c478777955595857987
col09:   2938968469d6462657a89b6b7a5bba7ba8888aab858b59767897a8a6daa8a8682a5cc76259a47756
col10:   9668a5716597b89757aa9ab8789899876677989eb69bb4c7a5e79a55a79aa6a985b98a28945917b7
col11:   3a557365ca6697755c9a797a868799b9975c696dab76788a7bda88c96488a88886da758c8c857364
col12:   745463987827a648389287754763ae87caaa8c7968b8667779796c6896616b6879a77a76e7887568
col13:   665867988895b7578554bb9b8926886aab886a797aac864997bba77b968996bc6888497667469764
col14:   7655a7777b5a7488cc7c8b738b68b9674baa999da5899aa5a9b78c88699a7e6a6a96977889b785a7
col15:   59669547575a97986ab7997799a7949c9a9b77a6c66b77a9ba8959c8d4aab6789b82944a5a693774
col16:   aa463973973e878968775da6aba8898c9b585abc867b9ab6977bc88898c69aa8485793c97858866a
col17:   9696967629998869869aa55a9974cab57b97bb8c985c8a8a8996969967c8a6b884bb7a7c8a659556
col18:   65768675988aa9993889588c98369bb88a868559b96bac7986b779585ab797988775863646897744
col19:   85597899a9d8748869b9678899a84ac9a7899a47b79a9387bb784a8786cb984ab795885981669583
col20:   9738a87b3699796999a7a8ba7b87998a48d99989a779b18b849aca8b88999b79a18759467a766356
col21:   45887a597875696997985689c9949c876998c9ca8ba8cd888a99a788b96959758958787847434381
col22:   57568672775594779467a979a8d8b9a76aa7a7378799aa77835bd7b56867a89a868877786579c754
col23:   75a6c87975669695a5944b8678ab7aa7b7b77b7949a7889aab97a687787889898558ab7962417516
col24:   8776a4a474d459d7965abd569e987a78898ab484aa79bb8abb9a9697716965878868489796a54239
col25:   974c76869766569898ababcbdcab86758bf8b67bc8c8a6b9996ab99b7a8557957769669766b6aa69
col26:   9648898ac99d9b775b9bbc97ec68aa7aab99d9dbfb9b9588c98a98b98a89ac979866c999879bb9a4
col27:   68558879689fa5aae9ab7ce8ba8b898bd95b887ba9c8b99bc99a897c9b29b8ba77858639a62698a3
col28:   7a77ab9a6bc699b8c8b99cbcb796a79d7ddb7adaba98bb6699bc7c9abda98a5cab6878857a887a75
col29:   a799c9998b9a898b8c79a9b59a99ca99ad89c5a59ba6ad987bc99c978acddc978b8aaab989b58754
col30:   79b6ba9aacad8998b9a798d598ba9b89b78bdb9cda9c9bb9999d9cb78dcbad6d4aa6c8867964c894
col31:   d75b666ab9cc9c9c6a9679fa9ac9aaa9eda9b88bc76b9dfbc9cbc9a7dcad79d99a7587a8b7787677
col32:   888c998b88ab88997a8b79accac9a8bbfb6edac9dbbd9cddbac8cedc8f7bae59f7a7897bc98b6a85
col33:   ab899c959f8cb8cbabbbc9ddcb6b6dacacbaaacac9bcf9ecbcbcdcba86af897ba587a9a7b97bd89b
col34:   aa8a6b9aa7bb9cc989cbaadcc8acbdcadcbdbcfacc9dbdbedbabbce789989886998897656bcab767
col35:   c978ab98a7bec5f9fba9cebfec58aa76e9abcecea9eaa87be8accbbc7dad5adaa4fbb4998c8556a7
col36:   8bcb6bad79adc8dbfcbcace7edecae8ef7a7cad7cbcaaaa899febcb9da9b5b7bcca88a9a87b75473
col37:   cba99569aa89b98baddcd8c8bdddcdabca9bbddbeaaba8d9d7acbca8989cbb77dda96a989caabdc6
col38:   faacd9ababbb9c8a8bce7bca89bb9ccafff9fd8caabb8abe9affacd89b9998bca88ca8b896bb95a9
col39:   7cbd99c9baac9dfac98cd9c9bbd9ac9ade987d898acecac98baa8a8a7a8a9a8778797ab8ca79857d
col40:   8c8d9cb9cbca967accaebdbccfa89ebeb2e8dbbcdcbabcbd7e678c57dbac9bb8a87c8adbca8a58a6
col41:   9abc99d9baa75b9a7dbc9bbaabbef9baaa9b9ecedeeedbccbbb7cdfc879a898daa99ecd799ab7987
col42:   8bbeebbc9989c7cacb9bbcbb9ab9c9bfbabab9daef8ba99bf8ad8cdb9ab9ba68977bc8e8698fb886
col43:   aa9a9da4abe9d9977a8ebde9acedbaccedcbbddacd9ccb7bbabdbcaaddd9baa99db6cabd78b9bd99
col44:   9abcbcdc8bcacaa7ab6ebdf9dcd9bddcaaeaceeadeb88abadaabdabe69a887cbac9cdaa99c9c9e86
col45:   8b9ccaa596adaabdacdcbcbbdbaab88bdcceb9dcd9beddfa9cbc6a7d9cac9bca6b69ba5996aac8ab
col46:   a9ccbadbb9dbcedbffba6bbfcccacdaadacecc5cf9bfda9aecdcdbcabeabbdfec898d7849bc45e99
col47:   a9badcebebccbbb9dbbeccadbeffafcbccabcbc99edabbfaabcaf9afaa9ba7d8b6a99d98b7c9778a
col48:   a8c8ebc6995bbadbcc8baabaabfcceaabccd9ebb5a6adb9aaccabcbeabccbaacbe6ccddab8abd699
col49:   aac9aca9be6ef8c9997cabccab9bdbadce9cebbfebba9bfcd8a7c9cdddaefedaaca69bac9db797a8
col50:   b89a7cbcceaec5b9b6acadb98ed6cbdad8c9bbeafbedbbd9cddbcbcba9adcceedb89c9baba68a994
col51:   8a6b89bbe98a387cabd8a6c9bc9a78899cbbadc9bb7dbdb89a95a466487baaccac86c7987a8d669b
ROC:	 BPix_BmI_SEC5_LYR4_LDR20F_MOD3_ROC11
col00:   7b8eb94d5287b7856589886b7a7c6b9bcd4ba9c1989685887a5788a589137a588975398558487447
col01:   878c98b77499799787b9a68a89aaba8caea9969a78a6babc5a8c99366982ba55878894aa4a667772
col02:   799bbb6b7a7787ca766ca4974ccba8bb6bad8a47aab8a8ab86bac255b7b8a95466687bb576481679
col03:   76aa89b977ba3cdabb9977c9c978ddb8c898abb8fbaa7baab9a99bdbc999886c98577597b8ac7686
col04:   a998e8a8e98c5884d998aab2ca97cb8a8a788a969689bbc798698b68dc56967a8999c9888ab87777
col05:   ba39ba69757a559898968893cbb8b74ab67c89ba986a7ac9a8a88bcca7659aaa8785883788964a94
col06:   9d855a99c959777c865ca885bcca8bb6b4557ba97c599acbaa979c1c87856a969b8959a6a9c58766
col07:   8699787a9caa8996e78ed998a697779bab7587ac78da658a877694a97b865764a89a6a7ab6837e36
col08:   794674778b7966996799a8b8b96a97a9b7aa9a7d96ac8787a5b97695b79787d39693a77781485277
col09:   973d75aaa4b9497bd78b9888be689b97a9ae66a68bb7acb98a8a999c969a9a4789545d6679565889
col10:   bc76abcb89c45c9899a68b89cbb93ab9a9ab8657c968c98aba6d8858a86469b779a5557a971ab759
col11:   42c87754968a669967a68885999aba96ca8ae7aa596aaa9865886886978da67a8caaa6776a9993a3
col12:   8597865a88897bb777859a736aca76cb599967787dc69a99b7a8ac8f597996498798557687797647
col13:   9c8a836ba687c79b686ad599a9b79cb888b9b899a7a7cb5a5a895a6786aad8ba7958a5a859b47786
col14:   8597787795aba6d6784779abb5886cbb98799cc5ba6a9aa9ab79a66587adacaa949297ac67678755
col15:   87aa8987784aa7a9a78938a9b7a78bb698ba8e974e7c798d8b87a8999a888ada8b9d688858775986
col16:   5a67778748c5b8b9b67896b859be78979d979b9c6598ba89b588a8969a957c999a538d6787882334
col17:   aca9a89a8cb3776968759bca7787b4b9b98c9964999a6597b9a8788b73b5b269575d877457741a61
col18:   96a79788b7b8667b7a99b78998ab878daa7aa869548a6996a5596b9e886a9cd97859756688739647
col19:   b157479768a9565b8848ab7c8579777a8b8a7b9776ab58b2c89b8998ac6ba689b6ace7556b884662
col20:   855a97649a9488759967894856cbbc897957b975a8798b797a8cab758966a667a65b216867548462
col21:   b8675a8b687a9aa9ce79ab85ec8aaa75dabea749b98a9c888ac85cc98b667aba5aa871b4a55a9698
col22:   b77b65798a7ca96c98d8b574896b9766885cb5898a77a66da56b6ccdaa599836ca4b977884598556
col23:   68a5f8748aa88766b8697a89abd8697b7a98c9889c89296667da763578ea59768c66575665a64363
col24:   7b598394785a787a98587c68b7684a767ca8a7496979eb87a9b8b765ca9cd888a8a895874a669557
col25:   675a99b986bb97a9aa9968ca8867889a9ca8ad995997968768b68896b95b8c79aa9b787377187584
col26:   6abab98699989a83a9ccac78a7ab9d886aa9cc9ea87a9bddee8a79ca9a88aca97cc8aa68756978b8
col27:   a8b779a8aaa98cba8688c8aaca9c9b8acd9aae99e98bd77a97cab9778da7c9838b7d78d76a686695
col28:   a5799e8889c76cdc9b89a6d67b98d98cbbaddc9a7ecdc88eadca9bea8fca8aab88bd5c7746889893
col29:   a99c74a8ab8bb8bb9ccd987bb85856bacf999a4adb7a8b57a96aaade87959896c6ad9b9d76c97684
col30:   bc78a9b5b99979b5887c8d9bc899c8c9896989ec96d9dcddb9c6bb9aea96bd7bd88971bd68858594
col31:   4c98a979daa8a7ab86db59aab98a9869bd3cceb9c9a69ba9bf8eadbcbabd9c9aaa5597ccab99a8a9
col32:   a33ba99a77ba986ababb7da8ab8fd6abdc8ac89c8ad8bbd9dabb7bdea9cc96498a4bbcc6db67ad97
col33:   99c7a9c77bb9aababaed9abe9ba9c6ba86c8bbc9e8abd8b77adbbdbacfedabe8ca9b85b9db669bbc
col34:   be57899689b78b78b6557aa6dbb9798ce8d7babaec9b8a97bfbdfa899bbb99a8b9aa685bc8e9b866
col35:   59dada4eab9abb87ba9eb7bdcb778f9d99a796abaed87cc8dcaabaca9ecee987a5398da978795998
col36:   9a8a9787d96ab8bebaadec8adabbcfbda9d6c497a89aaabcaae9ca7a76a7a669cc68abc75aa97a87
col37:   777abb77cbc9abbcd5bfce7aabc96d9bafac9b8ac9bebfcbccfcec9ec8bbacb9a94ba8baa988a567
col38:   aab9aa7cb6bcacb9cddf9bb7aecc9ebabaabb89c8dcb87b9cfe7ac8dab7c96aec8d9bccb78a76da4
col39:   878b9a9a9e7ac8c6bb9b9dd9baacaebd8bce9bab998dd896bc6faecdcbae9a97ef9daad8b66c6a78
col40:   9b5b96cca8ccdbdbc699abecadc6dbbd7a7e9b9b9eecdfc7ddec9bc5c7abcb7bb89d6bbc9db954f6
col41:   aceaa9889aba77bcbe8be9d97bbcfabbbffbace95b99d5bbbfc8adcbd87bbcbac9689b9a89897797
col42:   98a89a876aaada8879aabcad96b989dbccde97adbcaecce8bfdbbcacbc7eb69aacea99b8dc4776d7
col43:   af88baacabadaaa5d978dbdc9dffdeccbbb8baf89b99ba86eaf8faadacc9bb8897bb889aaa889a8a
col44:   78679aaa8baae9aaad77c8ace9abccaabbac8b3caaaecbdcebabaabbcac787dbe8e7cd9cbcc98696
col45:   abcba9a79d9aaed9a8b9bbcbbace8a7baababacc9adcaafb9cd59999bdbfec7dac8ba7b499698996
col46:   588876dcbdbceccb995a9b7dd7cfbbbba9bceda6c7dcb8fafdba9aa8e9bb8e78c95b7c6a78bb4a9a
col47:   b884b79a8c87bd98adcbb9985becb88bdd8cddaaa99997a897ffaada7ebbb9cbda8789b57a9c7865
col48:   bf5968a897bb7abb9aba8c9ca99cb6bb8fd9cbb95b879d7ca98aaffbfedb94a9866d969af9649b7a
col49:   cc89b8af9da8c97b8c99a8e9da69bc9b7acc8bdaddcbaa6dfcabcba8989fab77fab9a4b89c788585
col50:   499889ab9aa68ac7e9fdb9ccd69aaa8cbaea9ffdadfad96c8caccaaccd9bcc9b598997886b8c9998
col51:   5a6648a289a879553ab6a6859877c8cc9ca999cb98aab6588bb4c988a9895a794a979b6966764275
ROC:	 BPix_BmI_SEC5_LYR4_LDR20F_MOD3_ROC12
col00:   55366673785a7b8759469a968766887a9aaaa697676c8979b5869a9789ad87525524a73c87847651
col01:   787867795777a7a46a7989c7b68796bb85687798c59b87774a8b47798ca6678878a787856927a834
col02:   885659552c539cba968837ab56a79a87a886a79cb989aaa79d7a868a6ab97886758c6a96b9456454
col03:   55588488589867abaa75869b8769d7c599ba7b8aa99a99556c7379988ab46cb9a975a89371596666
col04:   999377877778565785487886b7a566a8669a98a9b8ba698a9b8698a97a57797aa4768858aa455633
col05:   a34b66758a779657767c888a9869a7aa9a996a8a79c6968597bb8a39898868ba8416a8798a366a75
col06:   66a789a9875798ba573969a69a569b986869579a979a84ac9686a88997b8897e88558d9668956448
col07:   777869997897b4aa8989daa86dba7a7b9a997b9bb8aa8c8a89ad986879b98d799987889759665a98
col08:   7964656abb974494675969769667c958a63988996a89bb8997b89a98b897b5695887925746885755
col09:   7774a8695b9c698a7ab7977a77f98996b8b985a97988838897b749899b958578a996469b8686a983
col10:   598825634a9a866857b4a66a7767ba78bb7989bb88a8a98799c945a8b9998b95848a77887899a789
col11:   979899a79878a67b9a797e55496c8789a7cdc8788858778769a7a55a867989a989ba6bb686736164
col12:   a86594564878b945aa5596398a9997b7d7aa8aa4883a8692bb3777ca8a97878868a9678756778483
col13:   68637a37b58887786776a49aa77987b899867679be8ac9d46887889787a9673a7a648b4859947799
col14:   2659661788ba8a55599a57b886a6b9878a8b64888b98bc5b89aa8a8bab7a8a649799999853923a97
col15:   5596a79a96a6a6987a7747ad969758ab9b979a79949a9a9b6888ab7c8a759c46c96a884856285794
col16:   a5159a77658683579b66a9a9e989996c87969889687c8ad97a865774eb9aa88587a957c475866771
col17:   86a667767834a489d789a866a677b99999c6998c8c4a8ba48b77c599999b88a4a465487465875977
col18:   597527baa8a6388985b9a666755658659b885adc88677b8994786b789a8589768258496784544977
col19:   5675965ba77b867b97a7ba98778867888b999895dbb8989c77c987b7b9596955797b889899675437
col20:   97494757a888575946a598c79883c898ba6686654877a878676ae799c7696958b745978b86576768
col21:   76b885793888575579699b8d879b6bbac8bd968655a6946a9b8a7aa6895759667c93787947789866
col22:   79779465666b7a7a479a78986787685baa87a66659b96ba964897697b79a7b957cb8754668675836
col23:   96777895a86847b67b98666567b679abc579b99a78598667ab869c8c696788a7b4a5754678677632
col24:   6797aa97789a668aa8a7a87b89756747a94bca99699a876988569686b663b76a6475796948887548
col25:   6769c4a679765766688a49d8888998886ab59caca8d7993a9a779a7b8c8b8a66ab9b78989b585477
col26:   899a97c98a4ba867899887abbc9cd86898b68bcaa98982dcc788cbaad7cbab76b7a967a788957b87
col27:   7779967a8c7a477b9abaa6b58bd6696cb9a889a7ace9bce8e996958bc9a8a6a786aa9888379688b6
col28:   69ca99a7c786998b67bb9da9799a98b79aaa6cb8a9b9aaa99b99ba998a98ac89caab697b8a4a8656
col29:   66b77a88a7ab97a9c76a9bbc88acba99987dab999d89cba9bccb68ac8aea97c88db987aa9568b7d7
col30:   98697a8998689d77ac9b7dbabb7d797bcd98c7bfaaa99c8a999b87c8c7c48b679a79b9a4b5886958
col31:   7caa89b7aca78bb7baa8aadbde9cfeac4c7cbcaebc9ca9b9cfdb99cd99b759ac988aafa87ba689a4
col32:   9c9bbbb9aa87898c8c7c7a8e9aa878ccc9acbdd9dbebb8ea9bbc9ac9799c87a8df8d889c7a7b6879
col33:   bca95ba9688b9b6a8a9abbc9acbcabdb9c8aacbbcdba7c8ebd9a778ccaa7bbb9a87986b8aab89994
col34:   aba77ac39a7d74ccba97a8cadabc5ab99bdbddaba89dce9cbc9a8b8aaa89997d97adb799a8a66a8b
col35:   a9958968777bdaebbaad9aaedba89caad8ebbc9acacc9bde9eebcbc69bc66c8a88a8fa7d798a6798
col36:   baaabb498e99cba797c88985b9c9ba98aabcbbebb8d9aba7e99cab69ddbabdbdda97888a5a797945
col37:   b5789abb9bab888abc9b7a97dca9d9b8dcabcafadda99c9ec9aae9edc8cdc999bb8abbbe9b868c88
col38:   aa88bcc9dc7ecc9888cad66a9d7dc98bbabbba889cae9cbdd8bec9ac8b8dbeacdda899a8bb886986
col39:   acaaaeab9adabbaba9ccaaabcdcada698ebed97a8cbe8c9cd6d9cba9cdccdc9b8d9d97aeb9ba9b96
col40:   9bcbd8a8a9baacdc9cbcc9baadcbbcdadc7ebb8fdbd77ba98ceb9c9c8ba6cba9ab97a59a6c6aa6a6
col41:   bcb69daccabdbdcefbadbaadbbb9dcaacadefef987abbabebb9ac8aa79ac9a5aa9b9b7b8777ac9a7
col42:   b8cba998cc8fa9ebbbbca8dbebca6cac9baaca9bfadcbafe9fbadcae9869fdcc8ad8aaac98ae69a3
col43:   ccf88b99cbabbbc9f8bdc9edcdaae9ebdb9d9fc9c9cbcdbccb8d9ccdbb9b9a8a8ac8eb9949a89878
col44:   bfbab99ba9bd9e89bbaddabafccca9ccbcebcdaacccddde9ddb9f88dbcadabbc7a9bf9c968b8967b
col45:   9a69b5c5bda99bc7c9ae7bbc98bb9aacacaadaaadbadb8ccbfba9bbadc9ddbc89b8ab9edd87a7ce6
col46:   dd99a9e7ccabcdabdebebcfba9bbf9edc7b9cc8dbacdedbbccba9b9bdcbdeeda79cd7bda9b9c9a68
col47:   c9aebb8aa9aeabb6ccaccbabb89dcda9beebaacccdbfaea9ba8ab99f999cac7facdb8db8a9abc439
col48:   a9d7aa9ab87baebbbac9cbccafbcbcc6cf9afa9abcfdd99abbbadbf8ab98abcc9abac889ada9888a
col49:   db97cddbba69dcfcc9aeae8bcfcdce9cbeecdafeccfadcd9dc9b9b97bbbbbafc9ba9a8dab8ab8b9a
col50:   aaab9acdbc6c9adaaa9dadabbba7cc9bbbabebecdeaab8dfcb9adbe9cabcccda9b98fe9b898b9a76
col51:   68c89b979beba8896b7bdc89aaa2bdab5889bebbaa789b8c9fbac76d6e87a6a6ab7a9ab9b58a5966
ROC:	 BPix_BmI_SEC5_LYR4_LDR20F_MOD3_ROC13
col00:   69aa48879659987966b7c872e7b79b8839988869b9279b74a679b988ad389e875a48684846686272
col01:   c689b78b889998da3b85b9988aa8fb5acaecb89984c9848a7978b7bcabc9f95c787968bc3776c987
col02:   5b998a997996a6aaa9a9b8c99aa887ba98c9bb8bc9a658a997a83769ab6999bb4ba6b995ab778864
col03:   8acc7b99fb968af7988ba9bcc677ddb9aa8aababa79cba98e768c898ac8689b6669dbaa778276897
col04:   a796879facb9aa8c889b8bd9a6ac8888c6998ab788e97a9bb578b6a8bba869758775546a87a93459
col05:   898595994674db989a89ad66a8b7a76887ab69c7896b8b684eca8b6aca6c8cbb978b5b8678b3b226
col06:   66866a969595baa989799aab79cb9bc7aabb69cdcab899a9b997a4accb8787a877867a3885a57431
col07:   7647988982875687a788aca98a9a886a899b49ad7c796bd99bb756786ec88a89b6a598a4b7598814
col08:   737a69576b95786ca6c8a7ac9a589bd4a46665889a5ac3bdb5b9ca97a8c6b6a68aa9762895697765
col09:   5ad7a8a8a6978bb6c9bb9b8946b8abb7aba6bc87bb8acb97d7bb998dcb9c88eb96bc8c98ba8876b5
col10:   9a7b9698d7a958a7a79abbb98aa9b8cce9d9586ebdabce77a95777a9a5a77ca98878669c875936a8
col11:   932664867699a5586a994cb77a68c84a47787abbaac8dcd7daab7a8ba5bc8b656939b84774987884
col12:   8759abaab585567c7d8cba7eb87cac87bbacd9764b99bb9a866797c88c9a9a589598b98765745476
col13:   747ad586c778a9a767b894a58a93bdbbb96ca787b7df78ea6ab7d65a9d6b8a48796927a88949b945
col14:   89777ab7767499a678abb898898acad8cb6bbc598aae788ab7799a8b6788c7845baa686419a68987
col15:   89744d8599a9a677abb89ba99ba99aebc879696ab7a865b7a67a8c88796ac995d9da6b798886b855
col16:   7a98897a8baa8a6c97679a99d89babcfabbad9d7b7caa4ae99da9bdca7dbda88a687a797d8663765
col17:   95559739698ab46b6b86bbabaa87b8da6b8c6d787c5a8ba8a69aabcb6869a799a86a787c48675948
col18:   487b8a564397799995b7a9a7f88b679a9b99998db8cba69aa599a6888b7a5766a64987495caaa257
col19:   57a588a88a9788a68797675cbe7aac9afccbb7aaab97a679b9ba89ad97991c78c879887a62a957aa
col20:   6757a698b5c884866889c687997979a78998cb8cbaaa868ca8776b8a98688abd95aabc89c5789438
col21:   9675788c9b598ac7967ca89a999bac89989986b9a9d9bbdab7679c9d9a2997b9a5986a4556757553
col22:   4895483a68665746886b475a8788a7bca89aa9c6e7b98c69caa7b999b9a77968557a6548964a8597
col23:   44895699a65785a8a8896899b7c7abaa9d78a967ab9aca537bac63778cb99a9875985a6966775664
col24:   7da539678679784957837977ba7c689aa8bb76c889898e998a86ab95f76a88978898571667885484
col25:   93779a99aa9a847d68abcb4c99a58c8579bb9b99c9699ba9aa3a9c8aad8897b98687b78975f456c8
col26:   77798bb9b998c9cec789eb89bcd8ddccbbe9aba783e97baac8ada9ca98edb69daa9b97a99686ba97
col27:   1584b8d769aad95a78a5879d999dfb87dc9ec7b99aa8de7cecc9dbb9a99794aeeca8ca675987b578
col28:   8c8adc8a788a9abfb98e8c7889cc98ead7dafc8aabcf89aabcbabd7a8c9b87c9a998945a6daaec95
col29:   8959ba84abacb6d7b9cac8c5b876baa7ddc99cab88ceccc9daafb9db9ab8d798ceafab8bdea67a69
col30:   8685989b6bcbc998c7a687bdbb99cda8fadbbace7db8988aabaa88b8fa89bccb8b9b7dbaca697467
col31:   bb95b87bab7d868b98abd8bb9889cabdade8cccbcec8acaebb7c9bbb8bedbb7a9a8bedb99c7daec6
col32:   d9a6867a8c9b8c8aead9ad7aa9bcb7badcbc47bbbbafdab7ceecabdcabc795a87ca6ac75789ca882
col33:   5b68bbbeeaced9869aab99b8bab9fbcaaf9eb9fcea69bcdd9ceecad7c98b6a8899cc8b8b665788a8
col34:   b69c9a7b4addd969b98f9bdcfa87bbfaafa8bd9ccdafb9accb8aadecafdbd9bbbb8bc9c9c69989d4
col35:   a8d9a59d88c9b96abaa98f7da97dd9ddbcdaccaed9ccccb9bba8adcbcb9d8a9bb5a5948798a95686
col36:   5868b49dbb9a97da68bad98c9ab99fbbe9eebddacbadbdba99b99c9da879eb7c9aba99767d68bbc9
col37:   569e979db9aaab869ca5ae9bcdaaabcaaf7acfabdfcd6abdbe5b9cbea8bd9ecdedb9bbba9a7c8968
col38:   98bd779bbcdc77b978e9adea9fada3eddac9bbbbcdebbaecbaeb9b88ddabfdcfbcedbb9ad8abdb65
col39:   9788a7a6d78b868aa999a7dbcf8eb7acecf8ce9eba8bfad99a9fdadbdaaecdb9ea8e9a998597898b
col40:   788ab778cb95a98bacccabdba9cbbccdadf9bceddb8a9eebeebcabcfefbfd8a98d99ac89d9bdd8aa
col41:   aa79875c798c89cadba7ccbacc89ccbbdfa8cfccca9bbcd9ca9ca7796f7bcc98cea9aacbcc78cae8
col42:   8cb888878bfbab5bbabaeca8bb8c99e9ebbbabedcbdcbbfbaa8c6decdcac9bc9aaceaf99cb7c86ba
col43:   87997aa6a7988d9abf99899be9dccb7b97ccea8cadeee897acb75dcbe7ca99a99ada998c7a885968
col44:   bc197c87c5a8c7daccba9bdccbb69f7d9dfd9c9a7bcdfcdc8ce7badaefadedaa9ce7dcdf58698ca7
col45:   97a96cdc6ab9c89dada8d8bab8bc7c9dccded7dcea9e8cedfa8ee8bdcbee99ddedebafa8b58ae7a4
col46:   8898b7b8bcaaa9aa86a97f769eddb9becc9bfdcbadbfade9caebbe58aabb9a997a9c5bb7bcb7a5d6
col47:   da989a9a89d6b89ba9cbc8cad9b9c7ceadabadc9bdab8a9bbccd789acdabba8558c797778b8ccbd9
col48:   8446a69ab97bb6ba9bdad8ab8a9abc78ffeebf9abbcc89e8da9dcb77acdbbaa8ba7cacd956fba346
col49:   69abb888aa9997bbab9b7a998bbbdbb99bddaacddea8db8f9697b9b9ccecbdfaba997c887ad8ab98
col50:   5945686a8ac987ca9c6b9cd9a7cbc8fbcedbceceaacfbaabcbb9bbd8dbbf9a989a5cbed8dbc9d6c2
col51:   65a86584a8856868757a87897696bb89abaa86ca99b76d9c747bba87cc7de79ab74a9b95da9aab76
ROC:	 BPix_BmI_SEC5_LYR4_LDR20F_MOD3_ROC14
col00:   84667877473977b89d67a89899b8b6587a885775784a957676666a6587559659a7797a7755958754
col01:   7d45856aa98558449cba84bc4a77aab9cc869e9967a69a9babb29a8997b49a7969b677baa668a7a6
col02:   5a66598698997c873c648588527bbb887ba98b797c7c7cc89c99cb67a7ca7a46a887696227775633
col03:   998b983a77b878dab88748497b8678a8a969c789a7c967da955abaaacb86a37879756a77a8786479
col04:   c7ba77f7ba8257a4798ab8c7cbb6c7aba785dbdb88769a7989bc8a973b38989a9bba988697a96aa1
col05:   3aa3bb565d99432a9868abb96b88947a8ad786c7b7ac7ba8c69669aaa385a489773a84858768b784
col06:   6b67886a765c97597888779c9758fa6b9ab85bb9676769a7b9bc9c77a847a6797b8ca77ab4887a34
col07:   79789a6757a6597a8679698ab98ac6caabad98999698c49babdaa979a6a8c35d465aa75877298887
col08:   a9628d694ba968745b6685a97bcbafa97a79b7a8fa8869a776869696c57368886a8b567666896723
col09:   5669ab8bb8a96676776968ead6cbbbac98a8b9795a98a5eb889c778988b899737a6dc864c6db4613
col10:   68886acd8779bb7b8678b689776ba8a99baa8bbc9999887baca86da7c88a887999798394867c5a57
col11:   65b3769586bb6669679876a97ba5896ca56ba7ab9a7ac99539b6ab7b8987b9baa177739677744877
col12:   1364a59677959a89776a8696c66bad8cb9a7a969bb9695e786798a988bc989676b66647786481779
col13:   6778a67767866ba78a9787968c79ed9d89a8ac8aa5776979ab98678bb796aa9a787aa6a747768a79
col14:   665557558488b6c99aaac678c77886e8bb69b887d98b969665776799889897a65be92257556d9797
col15:   6898696aa5694ba1a8977b95ca8578877999bc6a977c8998a98769cccc8bc55856638a78674686b6
col16:   8799d8b4169795abac689a748c67aab8bbb8679aab9596b959a8ab89a9b985a9588bb5c88459a998
col17:   659698699387766d5556a787a7a87b9867835bcb68856a6aba389b8d747cc9474b55979665383591
col18:   654885465878697c6bb9b648896ca6ac999998ad98668b859baa8a79e98ac7774978a75687877764
col19:   8b5c878534a788687aa86b7985489879bdac766ab9b9a65b38b8ab7ab7b5ad817aa6797c756795a5
col20:   848684696747869995996dc5aca668aca698b8ac88689cd84b97b8899b76b5479459668583724492
col21:   497a64a599d99693599da89aa9acca567aaa6a95a7cd879b9789679989876b778c687295b4884585
col22:   7659875a487368b75c96779c837f68c77b6876a589769c86a75a998c57b9a7798889877a4467a164
col23:   aa87b67589b938889a39baa7a98a5b7c75478b77879698a6ad8b77a9a9c9ba979aa898a577953763
col24:   5853885786b778b87b989878a4c79a53698db8a6a8666867a8787a96797aa5b69b9675775b697676
col25:   5a747895c95d6795a89ca87db6da7a6b8c88ca89a998b869b6b68798899b789645c86697954a5985
col26:   896b8686989977bda9ccb9a9bed9c8dab7a8aabba8a7b97995bbbfd388b9cdcbc9b6cd49ab99a385
col27:   9a7874d378aa579a87888b8877bac78abea8aab7bcbe9ac5adbbda9b967bbbc886596977ad649a88
col28:   8886b9c9b99b98cdcaa8a769caba9bccabcb9ab9969a9cdb9bd599cbcabb78958a9a99968b68bab9
col29:   9669a7c6d89668babb9cc5dc9cbd8c6aacbcceac759aeca9b9b98a7b9989949b778979984caaa7e5
col30:   8788ad999a6a78ccbbbb9bc6c9ac8cbf9a9c8779d9997aca889ad9979b8a8886bab978a5978938a7
col31:   b7cba889aab977ac86bcb8a79bcdc9dd97db88aefbbcb79a8eaaaeaa879b9c3c9cac9b59bab97998
col32:   b89597b8c96ab6d8b79bb8aadecebcaa9dbbacca78cc5ac7a5cb7e6aadb9e9cca98abad8eb8a9c68
col33:   b9889c7999bab799daf7bac9dadcb6abbecac8a88daea6ae7bdeeacaadebbaec5ccc8f7ba48c7fc5
col34:   a738a98ba79a84a9b99dafccdb9c8c7cab7ad7a88daeaccab7c9ec9e8ed8fdab9d7baae7acb89c68
col35:   7aa6ccdcca8bc8a689fddb9cc9a989b86ebcab7d9bcaacababbd9a9cab9999a69a96bca66b97677b
col36:   9aa888ad7faaab998adc9dbcb9cd9aca9fbc9a9cac898dcbdd6eccfcd69d7a7aaa978c8aca86a9b9
col37:   c9999ccb7ce98cbae8eb9ccbbaacadecadebfcb8ea6c787b9aacca67fc999d89a9bb878a6cc599e8
col38:   6ca7b9d6ad97bd9ad89cbdeaadaccdeac6bdcdcfbabcb7b9689debceccca9cc8cc788aca9a96ac96
col39:   ac7c7ae97858ccaacabcd9accaa9effc88bcdabbfbbaa7eb8c8addb8da8c69aeecfc8968c9abd998
col40:   6d8cabbca9adaa7b9a895a899ff999acaacbfdaababac988f8abaedecab5dacccaaeced6a98af986
col41:   e9abcac8c7a699a96ca8faf9c9bffb99cdc8b89bafb9ccadeeacdbb7bd98bfa7aab7f89a7a6c8af8
col42:   a4bbad789bac698d9a7ea9fc889b999c99cad77cfdccdc9d8b8bc8bdfbbd98ad8b998b9aa6a799c9
col43:   7a6b7da8bdcdaac8addcadb89bcdcdaa9bca7dc9dd9dd9afaab98bf8beb9ceb7b7b9b77c7b8c9da7
col44:   6ad69c698798dabadb6bccb8a996c9acda8c9cab97aca8cdcceb9baaab99c8acb8a9bbabbb9dbada
col45:   bb48a8ddc887bb9ab9e8cbe7dbccbdddda8a86fe8ecbbc9a6aba9ddf8bd9dbebad8cbbb98d986c39
col46:   bc76a9787c987c8ccd9ccbc9cc9dcbe9bcdeebacbcaadaccf5aaea7af9d99cf77b9bcb8cdba8b489
col47:   9db8aaadddfbcca7dc6dec9b7dbdaab8cbcabdeae99dc9aebae8bbbf7c6accdbcc99e9bcabb99a79
col48:   89bb9d8ccd69dbb9a9bb79ba9baabcca798adaf9b8ababd9fdc79a799adebada89bba1a979caa86b
col49:   69cb2ca69ccbbaaaaaa98d8daaaa7fdebb8bdb8fcbbddfe8f5ae79abbba78cab698d9a8cca89cac7
col50:   979b889a69c6c7b9c9ccc8bbaae79eb6cfcbaa8a7d9d8aac9e7ccbdcbfebcbbb9d88cbbc66689a7f
col51:   8c4a6cab7969489998a4a989a889a5ca8b5fa7d9c78a89aa8af96c8a9a8bda8748a6799abaaa5aa3
ROC:	 BPix_BmI_SEC5_LYR4_LDR20F_MOD3_ROC15
col00:   37a5a458b869857a8bc7556c9865bb9c99c6b6c765697798795aa8977887849a87d5b7698238a57a
col01:   a65ab566bb5879a88999b8ac9e8c5a799ad9e69bd98aba7876976baba895798d8cb7a98bb9957896
col02:   858a278a7ee49a88994cb97c5ca77a9d98bcb9e8c6b79b9a947baab89aac99779bb8a7589bb58b65
col03:   6496695c778aa85895aba786dc8eaa9a99996a98aac8fa6c67cc9a99c8a4b65ac9b57b7b878ac8a8
col04:   99739687679869889d7799e44676b9cca8a88a69a9b9abd7976b7a7b4b888aa8a8c9a4a7479aa5c5
col05:   555799c68968abb896a9c89a8ca9963b78ba7aad99a6676a778db9b866aa646aa9b8a4a99995a795
col06:   7a8977359c6869b899abb7aba9b99a98c9788eb89997a998bbf8b79771a998ac9a8ddc69ab8bbabb
col07:   8789c7b99acac69989ac5659889c9c977b889d88a7bcc6babac9dc79aa6bd6b6996479b45b787457
col08:   8c9a68c578b9a689d9bbbadbbba8a888cdaa9c8998b8bc3a768e7aab9687977a9a8b9895c9b79798
col09:   4989b7996c99bc68976b6a8869a8c78bedd7b79c7a8b77b887c6a985e8c79a9b9ea9889a69796896
col10:   89b66c96cb9ca79ed968aa69d9cd988876cb7bcaa68aa6b589c688cc9be4cab96c978d88c89ab873
col11:   2699e5869dabe7f888c9bb8976889d857eba99e86b986f9a899a9a9b86898a4ba965a7866b67ca79
col12:   55ab758aaa8b8a7a9a8998babda799b7998abcac9cba54c4cab69c89766a879878778789a48bda75
col13:   8a558c99ac58a8c968869b9b98aa974489dcc69bb73799968ba7aca8d879b8b6b9786aa698a54768
col14:   79b8c5b7c596b67765abb9ac97799a7b59c8e986d8ac9aab795bc7479b949798b9a679787a9488a9
col15:   67868b6399dcb67b667b98e6a476d899a98977778adacadccb99ba596a3ee6984caa8869b7766786
col16:   b65796a88976899bbc89777736a65b79b9aaa6bca9a8bacbc7ecd6a7a7a98bb5aa7bb77d99999778
col17:   497a94948b789c566689a6499bd96bb997995a98b7bca96a78d885799a5776b8b897697b85519889
col18:   9647d99644299955a9568aab84a98889d96b5988cb7aceb69599b5a7a888ab8c7da6678b787589aa
col19:   94a586cb9aad695799899cba77b89cb9acc9e9ba7ab87989da985fbb66b8889aa899765cab7a59bb
col20:   79796c887765a596c57b8dc95a8d7a6ddab9abdac5ac7996467b9788aa8aac8797867aab9cc96829
col21:   78a4bac7c56b48bb9a8d89879b879ba69a5c89caac4bb97abbbb87caa476898978b869b69934148a
col22:   6a8646a8a9db98a596c894aa947ad4799b98c9a89aa666cda86a77878aa87956797a66aca89889a9
col23:   5a589a9869789966aad7b7a7bcd9999b7babaa6bab9976ab5977bc5d9a89993a57c85989a6956796
col24:   46989ad469b8a777ae668c8a8aa7a9cb69a8bbac65a8ba699a7bb894ab8a47db8685a7498bac85b6
col25:   7aa878ba57bba7c7dabcb978778b9ebc96d9b9a7a6b89ba98b89b8bbacd9988b69a5a8bb97965bc8
col26:   6cc4b8d5799dcb99b989aa9a9988dcac9ccb99b6a589acfd8fd4aa977ca9bcd8dbd6ab976bca97b7
col27:   67794fc97565fb97b4ba8dd9c8d8eae7edfab88baaa8c9c9bdd6c66ac49dc8bc888787a7987d88b5
col28:   ab53ab9ccabdcab9ecdca9bcacbff9edda98d98ca6dc8ddccdfc9bd7978889da9b9ba9cc8688a7a8
col29:   89c9aab9a5a7aaabefb9c78facfaadac9cbcfb9d99ef97c6cac89caaada9c9de9a867989a7a96c79
col30:   42a896ba97b8b9acfaa9fbccacdc9c9abc6aecc9b9dd98cb7ab9ca688fabadc78bbba8ed9bc99aad
col31:   d8ed98c8e7dafdc9c9e9ddbcca8bdb69cacacacdbcbaadb9bdecdcebc67db6dbaf7daadb8cb9c8a9
col32:   be889bedb5aa9cab9c8a9adc9bd8dbabcadca9cce9dadb9e9bccd89babacabebfbf89bcabeb8eddd
col33:   c95b797897bdbbb5bc8a8b9ab8c9bacc7ff7e9dad88999dcfee8ce9dca9dab9ccb8b7899e9ccb798
col34:   b879e998799a899c7b9facaeeaf89c9cefdcafad9c7cbcdfb7afdad89dbaa9d8ec8caaa9e7abdbfb
col35:   6bb7569bb9bb9abababdeab78a99a4ac998e9d9a9ccfe8eb7babaffcd9a9c99b9daeabd9eaacebca
col36:   b79ab8a98b7a9dbcbaaaea8dbcbcbecd98989ad99bad8adcfc8ad8c89ebaf9cc9ab7af79a8b7ed9b
col37:   998ad9b99aa9f8ccb7bebdacffca69dfaaeebdeb9bbb98e8ccceb9bdbefd9cbcacba97badb6da9dc
col38:   c989aacaedaeb2e6b9aa69dbbbedfcfbdbaccda99d9abdeaceca99bccebebd6ceabacdba9999accb
col39:   fba7aa9dacfbb8cad8dcacd9cbab8acb8a5daa9cc8b99bbdab9a8baaeabdcab9ecbccedc9b7d9fa9
col40:   8969bbcadc99a8b99ffdcbbdb8afaccacaaa9eadbdbbf8ceaa9fbdaccbfdad9ed9aac8bcaecec9cd
col41:   89dfc6c679ceccbbc6ed8ba9997d7cc9eedcebbbcfbeecbeceb9c9dceecffca7aedacbedc9b7ec68
col42:   888ccfac99ba9cc995aaca79bbb9bbddec9baceeadccceb8cdc88eebe98cbac979cacc9cca9db9b8
col43:   9abf6bf9d7eabed9a9d9c8cbbddeffc9cedf9adfdbdcecfaabebb8f9bfaabcbecfe8eeeafbc9dc9a
col44:   9abdac6a1d79f4ba9bab97ccaa9cdbbaaebdebbaeadbacdac7c9aa5d9addddbdbdd99daf88beca9b
col45:   9a78a99bcb9ddc8dcbacd6dbabafcbfaad99bac9deef9b9eabfaebdfdcdd996bdd9bab9acbc69ba8
col46:   a899aab9ca9c9898d87f8abadc9acaebedaadbdcebed9a9f98daebbacabbabaaebcdcbfcccac6fec
col47:   8f9d79abb7feccbbaafccedb8e8fbbbcc979cbabbef8ead9fddecd7bcecdead79cadacaddaebbdad
col48:   a7a6b8b5ca7b7aa99ad9dcaaadbdaedccdbd7cfba9c8bbcfaecfcaf99db9bde6abbea8dc88dd9ded
col49:   cc9fdcc9bcdca9996dbc7b7cab9be7e9bbadc7cedbbbdddbacbadaca99b7cdbefecfaebddcbcbc8a
col50:   b9a9cfaacacfdccadc9ac9fbcfabe99bf8bad9aeabef9fcc9fcdff7bdcca6afdabbde9d9addceeee
col51:   4867bb5b979b8bac86889766b9889bb98ae96a88aaba9eabbeb9deb99cb79dba889aabcaa665aad6
