ROC:	 BPix_BpO_SEC3_LYR4_LDR9F_MOD2_ROC0
col00:   7b789957aa84aa598b75867b877cabb978f7c986c5cb884795d96954aabd736b546bb63689a55466
col01:   967cdaab8e696caa98b6bc8cec899aab9cbcccb9dd8879b99a89ab879ac97f66cba95c87659ba548
col02:   79cb95aaca8cc788d58a89c98b83cb897bd76dccabd98bbd95d9bbab99cd67d689bb9ca9749d9445
col03:   7a6d89ccbc9c8ba9b78b4bc869babbfaaccdbc99b9dcbb7ce87ba88c9887d99aa9ab6a995bb9853b
col04:   775887859c99bae6999aacd89ecb89fcac8be89cfbaaaba87b79eb89ccb7abaa5aaaabcd473a8b96
col05:   67ac7bb5aaa4a777aeadacb99b95998abcc8da78bfcbeab7f889aabbbccbca95b66e676688967959
col06:   878769cb779aa8c8d88eb996acaaab97acce8b6ca6a799fc896b9adbbba99a96babbbb869b8999a5
col07:   8abbbca4a6ad76a753a7e8e5abbc698c9ba8a8a8867bdcaba56ce7dee6ddaaa9566677b699aa3493
col08:   7698db528a78a99797876679a8b8a8b6dbda8b58da7b6c99ae8c94bbc99c97b7b959b767a6724464
col09:   c7bba6a85a9898aa4aaaba6a98c98d8eafcaaab8a7e7db7c7adcacbcc9ca8a779ba8b988e9968653
col10:   77eaac9aa9896dc895b7d7977aba88478b8eae8eb9dbc98ad7bab77ac48ba2968a7baba658b7a952
col11:   9489db96d768a867c9a6ba3a898badaab8a8a654ba9ada9aa888abcebb89f6c94666c4852c81c885
col12:   898887b47a497ae8d7898b67de8d7b99b8aedcddb779a8babc9d9bc89998d7868d68b8ac44aab975
col13:   a59c7a96aaaaa8a4797698677cbaab9a89a97987b9d7a986bfbaabbe57cabbd8966b8757a9959856
col14:   78a2567ba6c68a7768cabbe89899c5dbb669c9bdabcaaabca9bf93b79487ada9c789876876599481
col15:   aab596784759db68786ad5698979cca8988fbcaabab89bac9bc6d9cfba7e788658956b96757a8d96
col16:   4a899869d929bb7bbca9baaad9bba8ad9b75eeb6b9a798a5c989bb9babef9999bb8a384a69782564
col17:   775b968bbb6ac6a5aa9a6abbab978acbd76c9e98fa8caedbc7bd88bcb98bd49aa4a97c9b792ab637
col18:   a77aa9959a99999b9a74e86a7a86bfac4a7b85dacaa7dbb88abbca7ab97bcf87bf7c8b6c8566ac83
col19:   45a7658997ab673f77a7ba6ca8b76a6a9ec9c6cc9ac9e698bc6ab8dac85d4aa7aa47c675b9cc7999
col20:   8d69997a93875b786a2ae9ba77a9bc7879a8abc65a878a8756c6798daa97a47c9896a5bd759b76ba
col21:   c886684478d6cb87a9a999769b87d78cdbabb9aaaa96a998a7ae9b8bab98caaa84589e9ca9895488
col22:   84b867869966a48da5ada4e5bc98aaa79aabcc6b8a9accaaea79aabf77999897d3692958768686a5
col23:   74a667b7828698786a59ab99487897a8a7a99d7e9b8aa68a8a7c869a7978baa8ba5aa7c779597835
col24:   98b5879879764c7c65b5a89b7aa8a66796887cbfab7885aa698c9857b89a4bae47551671c7d86d66
col25:   aa8a99547b4ea632787bab979a8eba9abbd7caac9ba7ac6caea98cbc6a9cad776b97784923a89739
col26:   78977aaa7bc8dcb99ac9ecc3a9c8fa45e799dac9abccf8caeb89a8cabfd5abc8a7c789b9999a3782
col27:   767aa375dca68778e8fa9cdec9d8c9cefc6cccccb7ea8ab69ab59baaf7b7dbe898c7d8b885bd9ea1
col28:   4aaa6abb987dbb8bdacdab9acecadbebfac8bb8b8fefe857a9ebceca89abbbbaeafbb587aacaabca
col29:   497798bdcb77aca9aac68cb8ddeba99b9af89be89afcb8cafba7c8fa88a9b7afacb766a8b89b7ac5
col30:   5976dcb998a9a7ec77b9b6a78aad87bbfeeaacac4edc8b8caaaaa8bcdadddcc9a9b997b9a897887b
col31:   a9c7a86878c7cabdcaeaecb9d9aedad79cdadbdedabfe69cda9ed6b98bedcccbc9c8af899ba8a69e
col32:   7867babab67ccca9abc67dbbbadaac9e999f89bdc98da9baba8ecfc88bb8ab9cc8c67b98d898aaac
col33:   b85a9686ac8beccc9ab98cabb9bdac8edecc99b9bd8ca8fecacedd8abb8bb8bd97ced96ab9b78859
col34:   c8aac9d999bdcfbfc8cda9eaecabfbdadcdcaefaec6f9bb8adc9ec89afdcddcbe8bbb68c7c8ccd9a
col35:   bd88b6daacbcefcbcaffcc8e8cffdbcbcdd8dfd9eedebffed8ec899eb9bdefd7a98adcadabea59cb
col36:   5968b496a9acdea98c8abdabc9dcb8badbcaaeeebadfcdcab8bddb9ddddb9cb6ebb9abea9c8d98aa
col37:   acdecb9cbcbd99af8cdfbdfacfe9bccdfe8edaeb8baefbd8bacb8ec9cbbb9beaaaadcdbcd9b98bbc
col38:   77b68ababd6cad9ec9cdfdc9abbeffbacf9d9fd9dddffebc99cacedfbfbfaeaec9e8bccdda8cdb79
col39:   7ab78bb997dacbbba9dcadcadc7ecfaddda9ccdcdfacdfabb7ce9e9b8dbbe8dbbaebbbdaaa8aaa9c
col40:   7b8fa96cb9bccb9babdcea89ecccbb8dcecadedfcccad9f9fabdbacebcbee8dbfdeddbebb7ebb973
col41:   c7ca86adae8bdfbdcfbc8e9bcfafdda97cdfcbdebdcadbeabbdad8bfdeddd8baceddc8badf8bc8b5
col42:   bc8e8cbae9bec88cc4cee6f9fafc9bddbdcbeebcabbbcbcbbcafbeabfd7cafddf8cbadcd9c4bdbea
col43:   ddae9abf5cadb98dbeda9f97bddcbdc97b8dbcfb8bdbdcdbdc8fadcbebabd9f9ebe7aaceb8addea9
col44:   99dacbdda87bda948eeec9dd6ba9ff9aedabbcfafca7cabffbfce9ff8fcbffcc9feacfcdbcacc86a
col45:   88b9b9aa87cabcad7cdd8decaabeacaebf9cbd9b9bbcfedee96daccabddf8ffdca99ad8ec79dc7ae
col46:   a798889d88aabbacf8e8bcaadcaaaaebdbbbcbe8e8d9da9aaf8fedc8e9cb9f9b9de9adba97b577eb
col47:   bc5dc79b7b7bdbec9cddfccaced9acbcfafdbcbefcad9adcbeedffbeaecc98ccbdbbdada5daaa897
col48:   5bc99a557e889caeafb86a95db97cdcdb8f8ccdb8faabddedf9bcc77fcfdababb9bbefddfbfa9bad
col49:   6caba949a787fbacd8cbf98cbaccb8ae7dda9facaade9fec9adcddeab977ceef8abbdcc9fbb84c9b
col50:   88bb85ad9eb8f799afd6b9bae9bcd8ccbfff8bb9feac89cf68bbfaaba8acdaeccd9eacaef9df78b9
col51:   885577b8caad4ec7da87aa59d9a8cc2be989ad8ea8cb35b9ab8957bdaca5a9a95b95ce7aa7476696
ROC:	 BPix_BpO_SEC3_LYR4_LDR9F_MOD2_ROC1
col00:   1869577783567748977776a558477689a79164576867395ba7ab7785278946666b77596b84873687
col01:   676998a935676488a8848a493a878ab8869b8989a7699b9a44b8bd9788b769b57a959c48466d4b94
col02:   6b735855c47697656b46886a4a945b878876c7765697757679735abb98ba57b99888aa699a748b52
col03:   8653776a8348966a79aba8ac77847a89b9678ca54a56c9b98aa886b989678d896788876561676687
col04:   698367a7757c677a676b7879a9878ac8678978747396c89b8776b4b9f77698acc7a8446a55657442
col05:   5695a77d57684667986ca97c955997b6aa8869bc86a5a9988468b858c9a9655aa85b9a9a94997743
col06:   876566984296577966479a58aa74a9babb9e3a8a273b7a99679b5a9ad55c666477b765988a5c6746
col07:   888a78778988589897aa9b77ba9a69bd958aab59cda9a68866674b959978258989ab36b77a64ba53
col08:   8878578a977b867a97c8677999668887b4977c8ba868787763aaa7946b4d578ba86a79c66b7a6b52
col09:   87646b96b797611666a666874844786a88b8887a55b486599a87c889889596a746b7659995686887
col10:   577769388798776977ab5a96868ab68989597c8b977b6b984a75796897887a4b8569796777884986
col11:   2689896486a85989887699897da5a57975765ca8a536a838878a8c5758879a6c67a6b5d77859b449
col12:   84534364a797265658ab6b5bb78497a7685768486a989a6878d55b868cc584976485679834195965
col13:   16665845648b765a4a88c95958879748589486ab7786c77789984658287b86885a9978856a767694
col14:   54a5415589497b8866987398a68b87ba7b4c97a68799ac9955aa8a68a9b696bb9b6788738648a84a
col15:   6466585a6577666679497959a98c57868b87a899776a898a98956a8a9a489b69698a99b899549653
col16:   777a687a5766b73797b8796499839885bc7858e7c889879884a8adabbab8bc75797989a6885a7347
col17:   835344667819566a55764a8a6b888568775db769889a9a8b57798cae5cc866acb946a986c75a3a88
col18:   543484376a678982747a89987857ac7547a7634588988ab97a497777859877a68539743583845865
col19:   87a5b83a8745a88c56565768ba9888acb8899667a897787797abba89c8988b77c8a9783799976451
col20:   7997676866659758666b678a9baa8ba65686a7598ca978f5775668888a8cb88a9759987546295367
col21:   965559778a47497596a958557aa98b56898b9745998b887b77d866a699d58387b885aa77a7968567
col22:   672869874858453666a9bbbc8876a868a688c976a676488667a7a8865b7da896bc9c5b468864a87a
col23:   39866675767859439a8b7786677479ba8b7968c8ba6a846bc86795979ac8b9a4abbb685957766563
col24:   5972726657a65838c888685b7b798849c6868b88a78a8d957998989ab67b9769688ba88785775852
col25:   64673698888597b997786a6a6a7a894aa79aab9967b9a58789a99aca66a9ba8789676848a1865857
col26:   a88475579689a9cbb8998739ba86a78c8aa9d98aa6db76badc686a965a56c8ab9aba4a7a86b3ac65
col27:   68475687c9687b999a96b58b8a8b7a9796c87bacc9c9acab69a7a7ebba9ab7d6878686a9a7876667
col28:   489589678b8785795b4b8c6ab689fa98b6bb9ccbcbb7bcadabdcb7aebaaaabababcab779789a9697
col29:   8768a678775569869c7a9799857b9acab96797c869aeea98a6adb78b7caacaa8cc89acc9568c7b6c
col30:   c68b788a699688885a8a8a99879896bb6ca89cdaa78d9aa957cbfbc8bb7abcb9b59d556ba9a7ac57
col31:   895bbb398aa97497949aab55bbab8699ba399c99bacbc7a9a9a898acac7d6cd98c69b99a83399835
col32:   9799a88876bc889ca85a98cb6b8989a87cacbb889aabcce7bc99ddca9a6cca9ca9afda99896987d5
col33:   db984977b97868bab8aa98ba8ca9dbbf9a7a89abbabc8e9d897acc6a546ace79cabc688d989aa985
col34:   a2898c95cb7b5c77c58c8b1b79bb9a9cacafbcccc99c9ccabbb5bc9ea97bcabc9aba98c68786b98a
col35:   7b49685aaa69e78b98c9ea9abaf7dad6bcaabaccc8bdabbc9bcbd89cdbc7a99bbb69869a7b8669a9
col36:   9bb8789a99cdaab8a999887bda97d99579fa9bce9da6aeb5ecca7a9c9995a7dbaca88a795acc7674
col37:   b737f7ac6998bcb8b9bba9bd89ac9aba8ab7cdcab79b9ea8da987897bbd9a99cc9b8a3aba59b9b92
col38:   997ca56b7adcbcc99aa9a9b8ddbcdcabcbbccc8a9cdbcbaaaba979cbbaac7c7aa799adcaba999a8c
col39:   87baa9d5a7a799cbbbd99c699aad99cdcabb9aabbc9abd79cadca99ba9bbaa9bab6acd67abcdaac8
col40:   8a8c98c79a86d8c7d96a4958d778abbc8a9bbba897cba9cdbeb9ab9ada96faaae9a7ad998b76c98b
col41:   8698b84baaab98c5b8dd99ccbba96c9c9d98ae8eaabbebb7bdbbbc99badeacaa97acdc78a9b889a5
col42:   8cc476a889b75b9bddcbaa697aab8beccb8cbfc9baaab9ccbcd8999db9dba98b98a7c7967b977ab6
col43:   9cb87ecac9ccc94e9a7cacdbe6bcebadabbbae9bbc9aacbacbcc9fbabae9edbacacaa9a7c97ba98c
col44:   864ab6898a8a968ad79a689da9f9ded8bc98c789bbdbb9bcc99dcd9abbbce88ba969ca899acc9bae
col45:   76b9a468a9a8a93b7bb7c8894ad89ca9bbafa8b97afa9aba9dae7ebba99e8ae95adaa858888bbe76
col46:   8966895b78769ba84dc8987e688d9a5d99bad9e8c8cab8ce86cc9cbe9b9ba9697b9aa998b89aa796
col47:   c78b7b9cb89bd9a9aa989a9a7785e9ceca9bdddcd989bc9bb799dbf7babc89cab7b79c9c87c5c789
col48:   ab6b78793bb9cab9aaa5abcb87bd9ddcbdcda9f969a898abfb9cb8b7cbd9babcbca5cb6ba8a7a6ca
col49:   4a9a9c5e8986ca899a7a78caaccb5caddbaeaaaccab8ec9ccd9cacbcdba9eacfdb3b96989a8bc9ad
col50:   779898a89888d5aaaa9abacdfd99bbb8e77c6c9cc69babbb9b98bfeedcb96cab6e9c996db6ab8aa8
col51:   56717a99877a999866557c9879aa694cc988cac88aca8ba68a74d89be7ab9db898b898758975a898
ROC:	 BPix_BpO_SEC3_LYR4_LDR9F_MOD2_ROC2
col00:   4984196a466a8684c73b638aa376268885a753b8b7948b6b898442b6b7976ba688859566693d2463
col01:   57876c1725a466aa9787953688b997659559acb88a8a765a668a89a7798a897726749cb5749944a6
col02:   646335888465a48b8858798b78598869576876ea9876c58a75a7b9788668bc897989653837968727
col03:   8a67a746655766869944478fa7687669988a8bec888baeca55c95a958b87b7388659796b9ab76845
col04:   7861465c438b74658a8784467878a78b98569acc7a88ca56786a8b978ba75aabe987889da695d695
col05:   34897698756428c6773798478c8566985548996a998a94a97ba78bda87988774a7b779b66a588966
col06:   3783698457b536834927aa97982b97895a8746b79a699999a9bf8897b8b8bcba459486bb6963a398
col07:   28654587aa95547458b954966637aa74886597596d98777c997a9786aa97a6849974855832683758
col08:   55293757714677b85556165ac93b925966cb85c5d876867676b64a7978579778b89898296669a675
col09:   58833885aa57966aa96996aa87567283a65978a8796679aba57e596d9cdb98999b979b98a687baa7
col10:   34565573a799568522669647a994b988c8a657985ac69778a98a78bbbcab8b896a6878768b686766
col11:   4549276343731778979997856dba8687a7c5766879a86b8766d8a879c976a84494baa8b85a594744
col12:   489477776558735864787a945364a396b7f5ab4898a7c859988597a887889b885897984946766437
col13:   45673648337873699a7778697869a86844685aa77876b9786b8a86688dc698ba76667a8964a9755c
col14:   331756453859646647799887a754ab88a986598b59658cc988aa6b66aa59956779897668f7857174
col15:   88648a548977684968675358a5b4975888769789699a85898aaa9556695a599a9a3d8974a584d698
col16:   4a53384769588d89678866888935578b7787ad9587a947876aaaa6bba9648eaa7aa585a6c995757a
col17:   871437287662589665378b6655a8984969a87969458869869ad79986b9989c1338aa98b935495851
col18:   7446654a377966d676a7967156b4778a8b868689b588579878b8baa7a3b575a99aa449798a554485
col19:   687627254679584869bb9368b66547a9689a56c8bcaab64b48b877b876a97be57b88657685a85842
col20:   345617426925474767886691776835a66868b868a59666799676996627b8c76799aa689479599844
col21:   467b7436992479774a788649674b789789aba599784bb6b5b8c6cb6a3b79a49a778e5676376a69a4
col22:   8b66549665865468937964875b459859965968794b47387a77755aa78886e9998898967659915356
col23:   434843a645561766677763645856685aa6daa78a7aa84998b886958b779673699c875646b6858962
col24:   5484799279488866484b8678ba97869b88ac895866969a6763a9c5989a86789a7b4654497b3a6737
col25:   4744674969878b695674a4a48a6469a55b78678a8aa8a9bba68b7798a9868a797a7997b6e7939837
col26:   7ca9a6567668a89bb8a6a9a779848a8db9c9b97ea8ba999f77c9dccb9b99a86b8ba9a5b768aa9bb9
col27:   44795a5867879399bc6489586bb789a57a8b886ecc6cb9c98d6b98789cd66a8dc978779ea6876b66
col28:   aa97486d7aca777baacbb38b7abc9a99b799daebdaaa99abcbcbaa9c8ad967baaa6aaa6965ba67b4
col29:   7886a489595889c7b59877acc5a8a86ac7c78a59c9a95a99899c658b9abbd99ac9997bb9598948a8
col30:   554a866998aaac99a6969d75668c78a8aa7bd9bc9aa8bddbba8ba967987888b9ec9abb29c6878bb4
col31:   7837588b9798a79a6b9985778dc9a789a98ab9ba899baa9999da9bb997dbcba86886878c69968388
col32:   566a6458b76995ac5c89bab96aa999cacbad8bcd9baa898a95b79ba6eacb788aac96ac7596a869a8
col33:   67b6ab79ac656699b89e769a4a987a7a8cbb6b6cc6abb9c9888abc9d9b99789a98a9a9969689aa67
col34:   369a77a986db8b96dab88797b8cb9bbab89bbc3bd7cb9bbabca7a88d9688acbbba7bb7977ba84858
col35:   26bb5955d899669d7aa989b7e98b9ae8cb799c7b98aabc8abc8caec8c57a67c8c289aa8aaa6889c7
col36:   67a9658aab7c979898c8998979bb99ddbcac77babbaab6749cd998caaa797bc4bba778498abb9879
col37:   89ba8a37a878679cc7c6b8a89ab8cba9e8f9bbcbfa8ceacbaa77b88cf9aa99879dda8baa87cbd9ca
col38:   75996778a9dcbc88b88a9b967cd7bb7a6abadc87aa8afbdacbbbbabaeab7dc966bbbaaabcb7abea8
col39:   a8768788dc78b6bb5a5dd2a9c8ac8dcaac88bcbabbfbcaccbabe99cab7accb8c57a9a8aaaa98b894
col40:   a6a1ab8a87c5a46c7c8bab99bbfa897ca89c9cc5fdeddcdebb89c9b7b8cb9b8d9ba3b9ad8899cb69
col41:   5aa78ac84a998b567898b89a6cab8bc6aaabbeedaa8acdc6c9badaccad8aabb9cccc7abb87b5bb6a
col42:   95a6675cac7ca7b9bb8d7eb997b4b8dba9b7979bbcb7a6caacb7bf7ad8abd8cc9e78a989a9596a8a
col43:   a87a986bb9d4aaaaadacaba96aad99eac9c9e988cbbbaaaaea989cd8d86ad4b68b8ab873ba99ccbb
col44:   57999ca87968a7ab9a7aa6a9dcabcbcbbc6ac97dabbabb8ccc65a6a699bcbabcb7d7bac9daa798a5
col45:   6477d4994787b7a8aa87cda89a6b8ebbab9c8ce6875a9b89ac9c98e8bdb8abdb9b9999b8889b8ca6
col46:   b78b9a7899d7a7c998c69b8db6998cfbbb8ad9cad9b9a8c8aaba5bdefadbcadbc77779c5a8abab7d
col47:   89795cabb6c7bca79d9ac989bcba777bbaad9cbdbd9beab97a4add8bebbe989998a9a6a883d95887
col48:   aa779394bc8759a8ea6dfbb9ab67999dcb9bb89a88cb7c9bbda8cbb6cb9cc8bad8b9b69a87479bba
col49:   b759a57aaa5ac89bb9a8da9ba869aa7a68bc97d9dbcbdabbbaa8ccd9fcbedbcab56ba95b879ba9b8
col50:   c85899796999947b99ccafb77bba8b8b98caafcacedaa57afe7caaa9ba9a98b7c85cd8bab9aa5a69
col51:   8934893823559996884bb4ab7975c95d993986998ad799ca68c6b6a99a88c88b9353675aa9659949
ROC:	 BPix_BpO_SEC3_LYR4_LDR9F_MOD2_ROC3
col00:   67746547857587974643687b97a78b74966788b98a676779595976a8c585748745498449846a7966
col01:   77896876666a8378a99987aa5359a7b8a787abb7b6a5c7a77ba98759a9898b578b67949577a86486
col02:   a776a6ac68965ba9b7a7895ba9658978895896a7c9ba95cb5a88babb567f59ba99b83b788ca8974a
col03:   642669a8a5a97859765a889666aab7a898c6a89a987c37ac9488a6a7786998846b5b7a88a4885767
col04:   387463ba479945796749989896758a68978998aa67aa6ca66a8c759865a5999b4679a86756759787
col05:   7a6684a86687768b4658867b8998a9b8ab57cc9846a749c8fb5b7a98979aa665a179786586798551
col06:   857935b776a6765956a7587a558a789a89c6a8cd85a7a9bc969dd6887a6a97ca88895946ba9766b5
col07:   59554b86a8a47664989887a78baa8a78daabba9a75bb99a76daa99a7879c977b587875987b6885b8
col08:   75668474654689417969aaac7ba7a38d86ca9bab86969858b9bba8886a9c65a78a5c685675c8195a
col09:   8856d6824876584888dbba4768898b78ba7b5b996baabb8dabbc8589e89ba6976ba567747b689687
col10:   857645979694997a47677b8788a95cc678cda8888bacaa9b9a6885b6ab9daa9a556a96868a57749b
col11:   7aa845a279444578569b5a8a7a49786358aba8c8a99b68a69a98ab7ba6cc998787a6956787738446
col12:   b698a9a6847875a7a678b88979a98896769d992a6b795d9759956b98858ccaad86d6869622b47889
col13:   4a48529b8b8a88695799987799b5889aaaaa59c6c878c9daa9979a8a56c96779aa89c6a699abdcb8
col14:   4699744688775a672879867a78a8b97a669a69ba98acaaa9b6aa9c98baa79887985a49b89878aa7a
col15:   65b9879869bb6975987a5aa7a88b8adabb9887996aaa67a78ba3c9b78a87b6d7a99ab6667677578a
col16:   83a977986854b22874887997b888a9b9bac79acaab8666ada63abc8a658ca1a365a8ba747a788869
col17:   5475a36675896976858978896677bab7c7b78757bc687969c788a789d48956b87677885a753768b5
col18:   865357673a2b8aab79694855a688a9b7b5978c6855a99899ba8ca878885bc697836728a746641865
col19:   b77b976789886999878958799b8a4aaba9aa55aada8678bacb7ad787bb7ccc6e7c76c68356875975
col20:   4a79979397b9996b6669b6557a696a5a6c8698c7edabcd789d7a596ab9b9ba865476557a88797a99
col21:   698968664ab9a4899a64547876757969ba8cb37a7d6d9767999699887d8a889b7b518885a5583837
col22:   65863ab762a67696ad8684b48a49996669aa897879bada7cbcaaa98b98aa87ca4566899389561579
col23:   66865269a875699a6a9dc56b5a4aa7886ca5cb89569bd879767a969c76ac7bcb7d54b4566536b7b3
col24:   58a774995b45364a6588986488a8ab98699589a95689a79a9aac9c78a3969a2a78986ab786a85785
col25:   965a9a695c486589b6c8bccb8899b8696ecc8aa797b8b899ad8859c895b993697c8a66a9987888a5
col26:   a7a987659787d76c97cbb728968c7c8bcdaa9b4b8999abac6aa6bacca97996bc859b7b994a5795aa
col27:   7698a999a6aa478a6b6ac8acbb697cbb88b7df987dbd9cd99bc5889a9cecc988477967c858685696
col28:   7b5a49d6aa7aaa67acb89bcbaba6b6cacc8aeabaa98b99769bcbeacecbc8b9bd658a9c69a866ca66
col29:   aa7a9a9b9bbbc8b9869c99789a997c87cad69adaa87c7c8b6a8b87a8cb89a8c686ba567bb75baa89
col30:   aca9679a89a68699aabcc899b8d9596bad9b988bdbdab94ccbab68e9fab9799b8ca7899687a78887
col31:   7ba668467ba88797bdbdbe6cb9ca9bdad8ba8b7a7dbba6ccb6ae8b8dccab9979969c9b9ae8a659cb
col32:   9bb7c888765a878a9a98ad87bb96adbd96baa99adaabba6caefaa9a3aaac8c99caba9abb4c8976b9
col33:   861d9c7a987abb79cacccaaeac7bfd7cac99d8bb9aab9bccbaadc6eebadaadd7a8a7b86a898788a9
col34:   b8bd7cb969a79ebea99db95c998abbcada6dcbedf86a9acdbedd7c8b8dc79ea8ab7d8ab87884abb6
col35:   a9b9ba9bc7a78bc78aca99a99bcadcec99dbbbbc9beb77a9beaae98b8dbb9999c7ac89c877b68eba
col36:   b97acabcac8bad99ca9c9977abbcb9e999bcf8bb8a997b8bd7cb898caad9da77b9976a99ba7a76a9
col37:   abafc6accc8bbaab77dccaaaaacaecbadbb9cad9aacdcbe8cea99dcbd8d6dab8e9baabab97686a98
col38:   9c9aaa9c8abbba69b9bc8dcaaef99a8daabcabdbbbf9ccbacaa87bcba8aaabe9bbfadcd98a4d9887
col39:   98aa98bfecc8c7dab5b79bb8beabb89c9988ccc8a7bb6aa7b6dab9aecb9edcdbac9b99cd898878a7
col40:   cb9a99bb8caa9bc6d79bd98abadcadcaef7cbccaa9abfbccabbb9abeabcda8ce958aab8b7a8bc779
col41:   cc9ccfa9baaa9a9acb8dceb9ccc7bdbd9c8e9ac9c8adac8acddeaa8c8cbebebba9abbcd98978bbb6
col42:   9bb9bbbb7aac9daf8cb9accda9aabbf95b9daabbacc8aedb988cb9abc978bab698aaa79a89996baf
col43:   9acbda89ea8ca87e9fceac7ccbbdef9dad9beddce99cfdd88d8a8b8aabe98ba99acb96a98a8b97bc
col44:   dbb9b9ba8a7ccacdbcebbcae6bcaebabedcbeee6acedbeddfc9abb9f9cdbbaba6985988799c6b977
col45:   babbaaaabcaa9bccdbbbac9bcb9cdc9efcaec9d7edbabcaab9cbdac9bbeb9d898c8a755bb8899993
col46:   c8bd6a8cbc8bb9cbcedbbc8cab9c9cbfdffecc7c8adce9ca9adc5fc7adbbbc9896a8cca78a9789a9
col47:   99c8dccdc9af8a9ad8bcea8c8fc89bbbdebdc9abcccfbc89bccacad9dddbaaaadbba9da9acac998c
col48:   adb6ac79da9ccbcadabcdddacbed85bffebdbaedcdcbfbecbbbafbf89d9eaecbbb98ab889597c98a
col49:   cbd9ccba9b8babab9edb9bdc9fdc7dadcac9fbdcbddaefebbacacbcbaacbbe96fbd976dca7a9a9cd
col50:   a9c6cb7b9cbcbbabea8bf6aadaefccdcbacddbbcdde8bbcb9cdcbdc8aecb9cdbc8ac6b8c98c9a6a6
col51:   a98a79bb9c668b999ba6e8a8cb9a87b8eab8c9b9a9aea966ca77baaaca7ab94a9587668768b7c767
ROC:	 BPix_BpO_SEC3_LYR4_LDR9F_MOD2_ROC4
col00:   b76a769755458c347ab7718b745799589b87b874964a8784776785365aa749616554333584625831
col01:   aa799a9a68537a9c8ab57b99a95a9a8689787bc976b79cb9aa868ab96b7892676767475568658759
col02:   7467a68845a791668a7997fb8587ada698569cba78a9c77388958788965c988aa48a6476a6796a72
col03:   98674caac895aaa9a778a939b6aaa3bcd8997b787696ac9654975ba8a868a77a7b77a5459868b6a4
col04:   98ac66b8daaaa9987a92cbd8969996a37a5baab77bc7b99cd9c98a8a8c6b87975c5a788786a77871
col05:   869a68b77b747a435b9c98bc696aac79b877b7a7cb97c7b789895798aa889b976699597b6454c783
col06:   6795a899a8a88956a757c7aafaa9cac7679b8bca98a69cf86aaa797c768ccca7bb985a549755b765
col07:   7aa86f7684a15354cc97b99f6a85a79d9b78a876988797ad867554bcad969a498a99955675384555
col08:   a46784778965b957ac8db878aaa69c894b779897cc9a75576994a89799aa67678574798838646549
col09:   aa94b68a69dacab97a38a46b97a9c99abba8bba8aa7a8aa9756a8d776aabeac9a8579776a6a77877
col10:   8967d67a989c687a79ad869a886bb8764aa87796a4bb53bb7a7244c3d397d97d991b9988987968a6
col11:   77b8a8696b8da6c88b76778da7bbb7547abb8968897a4e9789b798a96b858749a8926299ca549867
col12:   9949974996bb5e8b9376a889b7a9a3c69b8c6cc9977b7baa47d876a4968a798b98767b38a999699b
col13:   5767887c79bb789478b7b98c8aa5a997d89ea89aba98a57c478aaa9d88a8989a88476769bb94585a
col14:   6594b594895aa989bc9886977c4eaa97799a96766aa899bbab9e78799b87a884c899999888679736
col15:   d868ba99dc969aba9a4bca9ba789976b57985868b7ba8accba8ba8a9ab94d7895968826765328881
col16:   6a88b9c9996979689a7889667cab899797b997979a8d7b8a8aa79b7a8acbba658e88e687e9787775
col17:   3786aab7397695867a9cad9aa87939659c8789da7dba68db68cbe8bb9965768d765898aa84537522
col18:   63166576a87accaab4869835bd936aa38a99c9a79bbabf8b7bb6cb7ab86d9a89b6967a9335781375
col19:   c47ba9576e7855885967ab686a8ca9a8a5568caac777ed87975c786ccaad873877a1a73876877874
col20:   daa757567a6ad878978ad8827757a889b979688bbb79c6b98796ab9a5a8899979143684659556a66
col21:   7884a697b7b87c789766aaa677fa8ab7a7cd4bc7a9867c3eaca78b6a6957d88ab79a68ca966a9a48
col22:   58636a598688558a598988859589b986d568c696a8883979ac79b7aa78aa96a98a8789b396415844
col23:   cb9a7a796a87a985aa6e8b7878797b99c897bcc8cd79a58a7baaae95ca4478aa42b8814879767773
col24:   85c874857b9b7d94a86c88a7677bb9bd8c9acb79b8cb99e8879d54bcba849a557987876a73537563
col25:   58969b98ba7c5677587b789789a577bb7ba8aad7a8b99678aacb8caaa67dcaa8b785b69988b3477b
col26:   97977d89879b895bda89b8adcccbb7abbbd9cccba99eda88c997d8ab96dbaaca9c893c4b486c8b9c
col27:   aa59bb9b9ab799a878a9a8b9e9bca69cc9bcca9bdccbbedbdbcdaa99dccc8899a9d8997aab87acd4
col28:   9aca77b6a7bb9987d8dabc8aabbdedad6bbcbddeecbac6bb89b69b97cdbdaccadfbb8cadc6ba5464
col29:   9b6ad8486aa4bdbb899c59dacaeca698dcaa9a7dbb99cedcb7badbad9dcb9899db8a85b7d75b9796
col30:   59b887c57698a8a7c899ba66b8ab9dc7bcba9b9bbcbaaacacb9bd9f8bbb8dadcf77ba678a8959c68
col31:   3a9bc89897a8777aa9d9aaaba999cfaccbebbe7db9bdebdc9fbaa9e9b9eeeb99e8c8b997a88aa8a6
col32:   c89d8bbb79e99ace8bbd6a9b89efa996aaade9ca8ddbe8a9bcebea5c89bb7abcbbccaca8d9bbaba8
col33:   6b8a89ccc9aa9fdc79bced8b8cbadab97cf8acdbafc9b6caaa9ebccdcaecec78be8cb6fea87b9a99
col34:   67d598d7dca9cbea7abdaf7aa9acdad8bda9c8accfa7a9dddaaba89dad8cb7bbb7ae6bbbbe69ab37
col35:   9357b98be9cabccabbcc9ce6bc6d9d4a9ccccbedffbcbe9ddbe998aa9ceff8abb8a8a989aab87b89
col36:   799dadbcca7add9ddd9bbb9cdbdde86daacd9a9bd8ccb9baeb9daaccbd98abaeaac5bb6b8a5ab66a
col37:   a597bcb6acdcabd9bbbfb8fda9d8ddccdb8e6bbadaddd7cbb7bacbccc9c8faeddb99ba6a78dcb7d8
col38:   86b7ba9bd8ccafaaeaac9e9eaadc7fbdbadbacc97abcef939ecbfec9b8bdf9ddeaccc8b2aad9dca7
col39:   b9c79bcccadaf9bbda7c9db99b7caddcbac9abbeaf8acbfcac99bcbbd8ccba99da8b9faa9bcb7b9b
col40:   78888ac9ba7eabcddd8ceedcbcfa9ccaab9cf8cbbebb9dd9ccf7d99cbcfbc9aabcbc8e9ebadc697d
col41:   aa7bc97cbc9dccebbccabcfbb89cafcadbeb7bd98acdbdcbdebba8c9ddadd9cb8bcbbbf7b5aacaf3
col42:   79cc999aafbb9abcdebbb8a9bfadadeffbdbbffcabbdaefddab8fa689bddbfdfebbccaacbec86989
col43:   9ebc649bea9fbcbbbbbdcbad97dcfb86fcccf9dadcbcb5daabb6da9898a9ebaadfcc99c89797da9d
col44:   c7bb9bbab8cbedb9aefbbce7d8cce8cfabeddcbcd7969c9aa9afa988d8cccbc99b9af8baaa77afbb
col45:   ba88c58bcbbbcbabbcebbd8cea9ddafb9acd9bc9ffcd9ebadb99e9dcaee8c9bec4cab93cdc7ba799
col46:   5a79be49b87abdfbbcaf9abacdabbfd9be8ebdcffffe8ccd8dbbbcfaa89dddf8aaccbcbbcb9c5ea9
col47:   a9fa8ccd7bdbbaabc88abca9ecbdaba999acdfcfaebacffdaabccebf99edc88bba69fdcdab9a9bbe
col48:   acbcec8b9aaabf9ac99dcbbd99baabcdbc9b8c9caea9fcb8c7cababadfbee7dbcaabb88adfbcbb77
col49:   d67a9b8a9ab89baec8ecbbbbbbce8ddabd9dfcbbe9b5babc7ca9bccdceed99adcdd7faa9c8faddbe
col50:   78bf8ab9dadad5af6ddeeca98fcfe9cbcbbcbba9ad9cccdcbbcfd89bdabef7cbfbabe5bb89bbb8bc
col51:   69ba7569d88ada7ab8a54abcbb8a76b7a8dc9b6ba99a9ac695eb879ca8aaaf8c6978b96b5c979653
ROC:	 BPix_BpO_SEC3_LYR4_LDR9F_MOD2_ROC5
col00:   69859777974a73877898a76758a95668d72895495587867668989691e9866866467646999868b664
col01:   666878a795876665898a897ba35879b88a9bb797998c97bdbea89538876b9788d77786a767c68967
col02:   585952658889669779bb855876cbb7a358c16657c28aa88a7bb889758a868bc8b879876799658788
col03:   8755a725987a77a82b9856783b8b87aa8a96676a7d7a8a9ba4aa7c574699cb84fa6ab9cb58a976b6
col04:   67a688596775979897993aaa8758b42b88ab965c8b7798bc857b7bba6975bb79b89b697c4c8764b8
col05:   6747858564755679879b487adaa99a67687bb88786a9b6a658aab8a688c799aba7c4c867d926a5b4
col06:   c678785b5a967948a78989597798ba99b95987a599776aa4abb594a49b8a8a7b68a7b468a89a8a86
col07:   54357778a6a688845539a89198e676aa9a5b76acc85a73a7a6898b88998b9876b978c9965867a8a7
col08:   63779641668294c6499a6c5ba88787783b976a9997489a67a79a8b68bb6798c6aa978b976548b897
col09:   55a78a777996f965a788a997da7b8d79ca8ab6b9a98b9d8b8ea8acc68d6988899c9b77aaaa5ccc76
col10:   8aa5a7785da669b76979b969a8c9a69ab5aa8ca8879c78b7864a67998bb77989a838a8896b777a77
col11:   6a4779845457789855b9868889c899786cae998996c8a87998c8677a876bb865a795b8b76696a597
col12:   4699963798484967b38c67978a489a86867898678a9a87a778a99a9888aa7699c898765a5a97a6b5
col13:   a44a79b684376598a77a8c9887958586875addb9b95977a79a8aa8a9ba7a587689a86a8bb87be6a4
col14:   78775b187464b5969598cc776647979b9876b7a99ca996b9aab7e77c967bc69a97ea98a486b75876
col15:   28554339aa77789aa76a5c5bd68bc86da98aa8c98bbe8779aa982aac966974a7a69646d798989696
col16:   775775693b47886a3876baeab9769c98b897c97a8a9c889ca58a7683698ac976799996869d65b668
col17:   2a71747873658756a57a668a979aa589a8996c9a94699aacbaa69996767aa8a7b868756564679a95
col18:   56856583597594888897377a899aaca6bbca6b9ba7a67757a869899793996f65868696756598867a
col19:   7a5699a69a95766aa67697bba98bb4b98a86983cb99979aaa8aa95b869984a8dab989697857b9c7b
col20:   95548375693a94696585eaca5b85887997778a979a97858c67797a78b55837546d895a49c6866496
col21:   39836364a69a8596bba8767a7aad8a9967b9e9ca8c69a97bc9f9958965c8b99d8899a889a6d98878
col22:   44576a797686b76943a6aa986788b9ab88a9c778baca7a7a796a7ba699b8c8c87a7ac687a879b98b
col23:   848853869679979564886988a958685ab899a798bd6975889378b6a9659a5886b8bcb994a7779456
col24:   34b558857956a6385884796547aabb83a7755bf69a6bb4788a88f985393ca6688c678748769824a5
col25:   9456796569a78aa67c688686488878ba9b98c97c99bba77ebbdacbc8b9baa6abbbba9c9c56786899
col26:   987557478997a679b8aacd78b4a78bdcdf7fcacc8aa9459ebbca5cdf78cacbb99b9acc7ab8ad997a
col27:   86b68968aa968aa8b78c95c8ca9bbaccb9ab7a9f8b8c8acbc9bd8d96ee9cd978adc8abd98baca8c7
col28:   856a1aa999798577667cb8b7d7c9ab978ac9a9b988ad868897a897cca9afc77759aa959c8c959a88
col29:   77a88b784869abaa7989a7c9bca8d9aadac84aa6daa7bbad889ca89cd58cccb7f9e98c7c9bb8caa7
col30:   45a9b9769a5868a79c7b9babacbb898abdba99a8cbb97dbac9cca9cca3b7cb6ac8d589a866c875b8
col31:   7857c5aaa8b69bbcb8ca68acb98adcdacb8baceb8c87beabadabbbbbbc8dab8acea78abbc9cea7dd
col32:   a79bbb6a9c9b768b887ba9c8a9cdfb69e8bb9b8bb88a8acdbfaa99ccab798a8aabfa9ccb89dc9ac9
col33:   b58ad7848a7acbc78c9d9cb8d9bac9bdb88999cb797b9aba9d7c9b9bc97cbdaba9a88a9b8b9bbba8
col34:   7979a859857cbb8accb99d8ccc989abc9baaaad9e9a9abd88adbaa8b876bb9eab5a9ab8789a8eabb
col35:   89a7a879c9ae77ab4ab7cc9abcda8c8bbac8d8e9cbb9ecbbadaabbb78ad9ba89b9df9a9c8abc7979
col36:   686b9b8496676d9e5bda889c98de6d9cabcd98c7a7b8bf8b7acacbbb8d8c8acaddcdbac98a75fb8c
col37:   a8aa75acca87a9ab96e899efab8cc9dfc99ddbabcb9aba99aedaeabab9c99bbbcbcdcab8bcba8cf8
col38:   7557ab789e89d6ba9b9bb87a9beacbb7ca9acc8ebbb8de9aa7ccd9acadde8bb9dabcbc8cadc8db9c
col39:   8597acabb56a67aa9969bc8bcd9abca9cdfdeccac9cbbbab7bac8d9c78eaebadacbecd9dcbeef9b8
col40:   77b7b888ba99ba6c2ac89dd8ab68bbbd9fbcbb9dcdc785aaaacbdd9debd7bb7b8ca8a98ba7a87ccb
col41:   86ba8778a8778add698aaa8e99d9aaccadcbaadedbeb9a8b9bfafe8e9a7bcbadd8d999dcddb9bfad
col42:   7a85a58a9858997999cdcc89ed6a8abeb5ccadabbebd7afdbdccacacbbb989bd9aadaa8ceb8d9799
col43:   676a8bbb99a7b7abbadcf777eaed99addbccababbd8dab7bcce8bc9989d98ba98bcd8ad9e6cadbba
col44:   895a9accaac8aca98a7bbabac9ca78bcb7a6dbadac8989ccfbcc9bddfcdeca9cddadcbbb8ccbea99
col45:   abac5799cc8bb898b98ca7899ab5695e9cdaeaccd7bdcbca8cc8ac5f9dc97ef9cfbb78cbca787acb
col46:   8679d787ab6598cbc586b8a8ce8e9c9b7bc8c9abcf9ba8b9edb9bb9daec6b9d78bb979d77ad5bbd7
col47:   787ab7b8b5b8cba7d7bc9a96bb8ecaaea9bcc9a88aaa8fbcddbbbdbab8aa89deea8badbb98f78a8b
col48:   39795aa9bab67aa75b9ac7aad6aa997ca6ad9bb9ccccb8aaacddba7ceae9cdad78c68ab999dccdc9
col49:   76588ac76a977c796a8ac5cbcbaca9bccabb9bc9bbbfaabe7a8cabc89bcaabe5ad9b99bebefccdcc
col50:   68967d8789d66bcaaaa9a9cac8a9d8b8cadddd99cca7abacb9bad7ecc9bdd8b7b9efeeadb9db7dea
col51:   82b948779ba77a98d9b789ab87c78bd7a6896b988a99c767b98c9c8ac8c5bb7bbba98797959aa7a5
ROC:	 BPix_BpO_SEC3_LYR4_LDR9F_MOD2_ROC6
col00:   38657987935656554646577856765667a7785854867786846b69a74569a9883b9a9977a789834786
col01:   4538989856647679a88a98699a58a8997ac4767a97698c85879859996b6669b8687888894896b979
col02:   745765867784755959a799688589a67789c974698ab97657a8ba9777c9a6776a594b99a97b7acb94
col03:   57546599496789855945755a57979645a966aa8a779c7678a88aa58866c59c6c58c793b94ba59a8a
col04:   44776876654775969988a8a78698987797a4bd798967777c68a8a8788a9a99db8985969699869db7
col05:   457779a85945787877898978b9a789ab6587999aac9a568b8bb7848569a486a68a7b98b7869797b7
col06:   3545748696557847a4568989768a799897b74aa9589876b6686c877884875acb987ba77b8887b8d5
col07:   45268385675499996a678778a998b89b5aa8b98a69967599cb8a69bacc769aa9baa8caa9b8aab748
col08:   94633442a76965759aa69b78869799887b7887799b5a888a8767ab8a7779ac65a8a8a76b9ca97679
col09:   568a957596779899785967945a856b8a9b6779d7696988a9788a88ca9896a4785aa8585a6cb7897b
col10:   4766927446b756b7a28a7587c4756a65879a699769b98887a68898887978a9ad8996a879658ac97a
col11:   25259487653476a7a6575676779b888679bb959997a7a8886995c7a9887d7aab997aa847768899ca
col12:   7658a67567a6749868b8958a9b148977aa658aa9586a889498876b86a47786797777aba79559a7b6
col13:   6976865b6456579a69957969d7b3988dcea79967878778c86b86a5b689989a9bdb97ac97595a7989
col14:   658773598659775687997a666755877738a68887997b899e859997a979a345778caa67779b8b8646
col15:   46666a88549c58d356aa657a58b79c9866b8b58884aa9798786a6b8a86a7aacaccab8a987a988ab8
col16:   353548a7876377768aa78578c5a4a9ba89a5c888bca9b79676fc9b9659a9a99898c39b7a9a9979ab
col17:   61576448776ab594a89639a873b8985a6aa9aa99b58988688659966a9888898b88b779aa95ca96a6
col18:   55375767968478789778655939666497a9769a797789aab68685ac899b9b79c959966777858acab8
col19:   5676367566a155897b66a9b76589658977b896887789c585665989bca9ad79b89589aaa879a8b88a
col20:   8554b5556357676875b88789ae98a99599978a768a9a99c9e44daa78a74a6bd7a8a89b9896998a7b
col21:   4375687585a597b9a49898477b4578b888786a88b89998bc89aaaa7899bb9b9cb98b49999987bc79
col22:   7553629844777668999845567d876879389997989997a87769877aa8898ba78bab9898cc65869796
col23:   4678776964856a38785777a9687a7ba9a89869ba6899796a796a8878b5aba7a8aab988ab4ab59685
col24:   7667684877976396689868a79a895498c7a8c57ba8bb9daa9acaa9b78bac977bc9da9789a6a85985
col25:   647668675a55a67a98987aab8678aa98976b97ac5ccb9e6cba976ca9aab9d7ab9d9b9d99bb657b8a
col26:   787697789a59a796a98b9a6a86b99ba8c9a8add698dbbaa9cab6c88a78a9b998e9a9c978b9c9b889
col27:   97567879567966a685a865a88979bc9b879ba4b576bba5aaaaa8ab7b8aaa88adca8aa988898abcba
col28:   b679878992a9b797a9a8bcb87896ca8aaeb8bc999c9c9cd877a9899bca98acb897cababb78aaeb98
col29:   4797645b8794babb7aa96ab9bc98b7bda997b778a99a7fabbd7aab9aca8bc8cab88c9aca9c7a899a
col30:   778356b77578b77caa98677a8bd7769baaabbbbbaaaa89bdb7adbebbcc79cad924b79bc7aac98798
col31:   9a78aa66a9788a78b6989658abd6bab9c9c879b9bd8b8cb8aabaccbbadd8dac9b889cba968a6dbd7
col32:   9966888739aa898989a99a8bb99ca8bbaa9dc7ada9bbbd88cbd99af9cabdcfc9ccbac8b989ccaa89
col33:   795679a98cb9b966998689abab8dacaab898dcbcaadb6bb8c7ef9a879ade9ababa8bc7b9a7bbc8ab
col34:   b5b7769857989a989c8aabaaaab768bd7c6bb9adb994cbcb8b9accbacdc9f9cccf9b99cdaebc95d9
col35:   b9a7a7b99988abafbcb79aca6989a99998cdc9ccbc79aa8ac8faa9cbba598bbbcd89ba9799c88ba9
col36:   9995977bba969a97a98a79b79acca98889ab8c9789aaa996b9fce9f9c7acbc89ce7dcc8bcc8ada9b
col37:   986a7699789b9ada6c99968cb8abaabca5cdcaab8988e9aea9ccfbecb9acbb9ddccea97acaca99aa
col38:   9758c889daa99abc9b8daa8b9c9bcdc9c8c69bcebb989ba9f9fcdd99adabdd9b9aba99cba7dadc97
col39:   77857a5aa79a56aadbac6bc9aa89997bb9c769997be9bbae89ca8accabbe9a99cc4bdbdb9baca967
col40:   a959899a593664bacb888ba965fb9b78a99ae8dcaa8edaabbbb9baba9babaadabeccdaeba7b9bbda
col41:   6ab8a9776ab79995abb95a8bbcbcbbcbe8abbdabbd89ccadbc9ecdf7aeb9ba9dcd9afc99c9ab9cd9
col42:   56ac89aba476898dc689a8caa7ddb9adc99ba89abebead9c9bbbc9c99b8ccac8ea6bac9c8adf7aca
col43:   99cc77baa9886987c9cdae9c9aabbabccce9ccd9bfbaabceaadccabbbdafdcabddceaddb9a98beac
col44:   a89a767aa9b88a9a9a9ba696b988b9dac8e8d9eb8a9799b9a89ecebddbfa8c8cd8cccacabaddecab
col45:   a8657789997885a8b888bbb8aacdbccbb8aac9b976b7dac9bceab9dfb8cb8aa9bcdadb9d9ed9cbab
col46:   b6ba78878aaa997898bacda9db7a87c8baab9a9bc9eaec99aaadf9b8f9adcbabea889abafbbd8bfd
col47:   8898b999a898ad689aabad99c7abc8f88ede9eacbcbbcccb789babbacddbdaecab4afa9ddbc7afcc
col48:   b87c87a57ab899bb89c77a88bdad9aa8afcdde9c9ababbaaba8fcbabc89cbababbab78899ebacad8
col49:   5797aaa9da978699b889cb9baac89bd9dacbceb8bbbcabcaafbcdb9a9dd9cbec959c9cadbbc9c8eb
col50:   a9589b96b5b888bbb7abcb9aacabdd98d9ccbacbebcdbdccebbbcbccf6aaebeaaf8be7eb7abdaaac
col51:   76367535954865a97699b6a7799749dc9b988ba8abc69b99b977aebb98b97d8cba968cabaae9c9c7
ROC:	 BPix_BpO_SEC3_LYR4_LDR9F_MOD2_ROC7
col00:   555562a959869466762b78a69a86997a777db49ace58cb99a8cbacd8dac64785baac599dbf6c468b
col01:   99a787a37a8689d7b7dcc99aa95868daca879869aaeddb7ddace7cbd994db9defb8d996da7acf8d8
col02:   738687a8d74868bab8996b956cb6abacccbba96ba7ddda7d6ce9cce97cdaae6ebbaddaadebada996
col03:   33357a9616c77757a78699ca879ba75a9c96cd7ca79d9d9b88aacafdb8ea8896badddbbfabcfe5be
col04:   778a7b886959898758995a9b377a5a67cb688cc9ab98baaca99b4cc5b9fddccb7dcebccaf78fadb9
col05:   25483586a878a5b89ba8895a2a6c948889ba978bb7dbbc9ef9faacbca9c8f7cbddaf8beb9b8cbcfa
col06:   87e748ab437a8998c7c57756db8bc98fc98a986b9bcabae6bc979ddaca9d8a99fce8fcbcaccb8dd9
col07:   9757778596774883926c76cdbaaa9889dca9bab9dbaa987caaca9a9bb97cb8bdca9fcaeaccc5f6ec
col08:   45426b814865a8446774689273c8897b597a8aab9bcc869689ba86b876da8a9ac99889b8bcb5a9b9
col09:   7487ae9477d787b787cb87a9789c7bc69be6bade9f7ab8d8e7bc7c9a8f65bbdd9dbedc8b8b9cdaa7
col10:   658596236895878835989a5979668a966b7bca9a4aa8c6ba7bcabcb9a6adc7abcc99bb99ec9caeb8
col11:   873346788cb87965452a46b7a9baa7888bdc858d6c8cac96b6a99b8accccaac8adb99b7b8bcca78e
col12:   665376266498559749ba46856ddc9d99ac759aacbbc8957b78b99d98a99984c9b7f9ba586ec8679d
col13:   82682d974a6d5737899a88999699f8cb979ade9b97bb89bea8bbcdc8acaab9a97bda88e87cefd8bf
col14:   9a777776489889835778a5eb898987885ca98a86a8c9a9b9b998c8895bbca8a89e689aaa8bab57d1
col15:   358b44657532b187778475577a9aa7dabbc469cda99597b8a9ba95adb58aba9ae98edc8acceea989
col16:   9455b7486455597af598bb586b8b868b6a6bb96f755d669dbaa9a8cc86899b8b978798a88887abba
col17:   551663567632a738974775888c6cac89785dad6cdc9995989acb9b97aad8b979c9b957a98b8ac7a9
col18:   295977545564a8398756a58575716688886a97d76b8795c8bbbaa9cba878888895d7b98a99a8a887
col19:   a5437b6665383a697566593b97a785c869ac8675a758d7889789ad8bc8bdac998aa78daa8de8cd8a
col20:   2239949a8955651467553a6858578b49d7ab689b58d8586a8ab6ba6ba38ba7f9aba7798ca98ab666
col21:   62555436595568778275a8856a8978894ba39cdcb8ac9ea96ac77777ab6dc9baa7aabcd8bc8bb8a8
col22:   7253347367536685a985375b487655a887b69a9c999596f879b8bab6b8cdbbd75a97b98cca6a9986
col23:   3795176746743475789715795b87a88ab795b36b766bcc734a8aa8a885db98757986b8ca8ce8aa96
col24:   53488a2766177a7854b747a677a6a8655656c755a8c98a9759b7ca3a7aa8997aca99bc98a77a7a39
col25:   884555a3a587747658668695267a793e7b7a78a8a677c7b5b9c8a8a7898998a95ea9cc99a984b9b9
col26:   6795a753699594b6986767a399c4796c9c799ebb78a8abaa9c8ab99a7799ddc99bca7acbb5bc7b6a
col27:   a8397575973a7748a69aa999a65ae97ccbb69b89a76e98b8ae8b7d8dcbce5adadacac79bba9bcad6
col28:   6678867a66457878985ba79cca9986399a45bccaccbaa69dcb9dbae8b7caab97b99ebceecac8abd9
col29:   7a479929978a6c6466a578a8bcd89a959996aa8da8965aacd8bbac99accdbcfdad8ccd99a9a59995
col30:   b7156988676588786b75783e6779d7ab9b89ab9cccaa7b76a78b7bbbc98ab6adf98bb9cbccaa9cac
col31:   6b7ba6a5667978b68c7a4aa8c87bdfebee6b988718b9bbca9cd99ad7cdccdeb79dbddade87dadd87
col32:   46b679424a897b997b7788ba75759a79dcc9fcc99d9daa77accbbab6adcad9a9bc8eecbb5eb6bcd7
col33:   875586bb8a7ba35a798a989baac6cabbbc9ac9a5d8cb9dadb99ccb9bb9ca9eeaedefd999bdddc6a9
col34:   997786c787869a8a7898b7ae997c8ac8aba9add9cbd2b8c989d5c96bca9bdab99ae8abccc89fbdaa
col35:   9a9685b77a9aa4bba928bbc7a8aadaba99ab9b789ce9a8b8a6b9bfa9dac9f9bd7cb7fd78da99cfbc
col36:   877986993ac977a66999768a5997cba7ba899c689bdac8bdb9bb788caaa8dddacdaab88befba89ba
col37:   b669a5c69baaab89958e6967c87b8bac89ce8ace99bae7aaaba7bb9b7cacccb89bcac8bdedcdfcd9
col38:   bcd79586749aa77b4cbb8ab6b9aeaabd77dccabda99b57c9a59be99dc9bcbbdbacdc7fd7cacca8cc
col39:   87b9bab588d8b59a958b987cdfbb9ba6b98cbbb59baaddc6d8c7ba8b79cbb8edcdfe9eccaf99dce6
col40:   ac66aa99ac776777a89aa7af79dbd69aa8c89cababb9baafa9a89999c8b8cbbbebdbaeab9d9bce9d
col41:   d45a88bcd799aa9a4ba68a95aba8da978a797e48958dfadabadcdd9cd9db8bc9fbbbaaecbcd8a8d8
col42:   8d8656837b979485b8d7e6897b8abacd9a8d8bd79d4b797f8babca98cabad7dcdca9dccdbbcc98e8
col43:   84996b78c99965679a8d977a8abc8baa7a8ca88ba5fd989ba8cdaacccbbb9ebcbc7aceaddcf489a7
col44:   7547b9a7b78986b78ab6bbb7a7c5a4c898b97b8a9aed6ec79a99ffd9aad7fceccbfe9bcaaa9abaa7
col45:   89984769b73956c797ba7b757aecabcb9b9dacdd9eabcbbddcbaa9bcfd89a6a6ab8be9becb9a3da8
col46:   a974b7ba794ca8527a86a87a8d7ead9979b8898bcab87b8bb7cbfa8cabcc7aab8abb99fadbddd9ca
col47:   e9c98389796879798a8c89ceacddb6995e9aa6aac9ba9f98acdc8db9cb78dcab8fb969cddefc9fbc
col48:   79798a8a3b9b86c7787886c86898cbaa6948898b8eacaccab8e8ec79baafaa6accdb999cfa8baac9
col49:   a69797aaa766a79a9c788abaca6aa998c977aadb9bb8ae9aa98ec8c9d9c9c7d999aabd9cbbaecbea
col50:   ca979a6a767ab1999d8694958baaaaab99c9c86a87cdddb9978aa7aacab7f8acc9cecaa6cbadc9ba
col51:   a7b7626ab2966a48ab99c758686b24b8c48b69d7a7788c8982e5c8979a99ca746ddd99989a5cbac9
ROC:	 BPix_BpO_SEC3_LYR4_LDR9F_MOD2_ROC8
col00:   34386671646721586554255136656a89765545657c84636356367646679644767761427637545531
col01:   53667544667426775c969878397785bbb967b9da6aa85c6587592a8699785965c6926b6787666474
col02:   1875557743b55379494478784966396567258a68896364abbb967875984889768554854a7136a778
col03:   b6558445445493a3677729768659b74777a9578965b638674a9969b9865a7a8a8985b77966686874
col04:   547744398663133867666698857785786a578a8a4874898a66a99aa785cab53a289b773566455765
col05:   63698536176565985767548c69365ba34a646c886726a9556776985a78997b648c46785a744678b5
col06:   868ba825a98567556457793663778c6a57785885856a37575a783666ca676a86277a77826559a68b
col07:   76558765593896aa49a3945b593a696bb9a4957b29998a6999b48656888c6a4197a96a779753cbb7
col08:   6369a5774a36446499866a86b969a99a66a646458899378aa579699889a646788889273738653475
col09:   468b5636436777885a8786464544958aa66d629c6875497957aa888769989c34998bcaa63859a47b
col10:   24665949788751357778a58888ba29948ba7688b978998988a855a375696797583a98a4857a48257
col11:   155755896952679988b9a88a7a97b96988989777448559a7a89d6a95a98a645d997797997a595751
col12:   715775328a52a66387575d89669a866689b864856bc87e896a7a619697a7a7953a7b89875b35a1b7
col13:   886853367598666698a746667a53997b9c6a87777a388a8b3ac9577888d689689c778a76b4546668
col14:   37556aa886658877b894779b4877a37a9bcb64a594b8b894949895c9dc83c98785a8687965968777
col15:   8949b9258a655b9659976856949388b986a8a7c8b797589787798eb959ba86685885856534b84d88
col16:   389715745428576797678a56766465a59a596b888987bc977859865a989689979268456688567b63
col17:   8a75544636a8aaa46639772669a5ab8b898a58697989b9d8b58aa78a6586745ba98d2a596638a528
col18:   75437767755a974656465a58595884896888a789877b785667c853c8a69a88576829679657819954
col19:   b9b966457444a86936755a6977abc84ba39ca76a79a87658bb9757b696aa8b96496866e85756593a
col20:   44656a94765a77577389488b8668998857d7968897a7769a573aa7687777777378787777b5696a34
col21:   1653878348244a8b74566179867196767a8a96baa98848969a64979aabd5689a7a7579c686654a76
col22:   3567638567353637996828769766b85a666a719b756b75683b98b7997a99b56778888665657a8682
col23:   8a73724658687665868879887987798986b575a6797863abc9a6b9aa76a66969a8669aa553894955
col24:   65776995ab76495571988599878aa69a58c86979ac87ba836d6499b89899877497688985c95555a6
col25:   5a37d56ba87b7749c7a9878a877a788488896ab9a7a956a48b797999896ba6a758989aa488683754
col26:   6788989a55947cbab959b98988d8cc7848bd7986cc8a7a9a9a7bacc8b6dacc987cc79a9ba3279548
col27:   87757777b746ba88b79668695799797ac9a5bbb49a7b5588a9c7cb8a8c6ac6875ba998ab96896a96
col28:   6b7b7a6c868aaa699aba8be7e7ccbda8b9bd7c976ac9c9a67c675aabb9958b86dba99498869888a8
col29:   acbac79a88d5999b85c898ac95b88bd9baab9beca8aadac8ae9878b87d6aa886a59a7aabaaca7c87
col30:   89787768ab8bb87a678b97cda7b89ab9b94c7bbddf97995b8788bf878ac9c7ab68badba98a995978
col31:   6cb96bc8b9cacab86cdccaeba9698ca9ba89aaea99ccaa9ec4cb9da6a8d9896cbcaca98baaaaa95a
col32:   a859c69a798ab9acaca699d9c9caec9edeaaa8bdbdbb78999bc88acd79aa9bd8a56a9ca87aa76797
col33:   598db67aa7aab7dbc99e8e5b9daa98889a7ecebc7cafddba6c99aada7e77bab3abcaaaaaba947576
col34:   6d4998999c98abb763bd9bccb88cb789af89ccacc7abefe978c78cadbfac9c8799ccbd979bd9ab77
col35:   b7b9c5b8a88a796a8677897bca99d9abaf9bbcf67bfbef7babaabcbaaadabbd7e989baa4baf6a9b8
col36:   a65afb97bc7bacc8c5c89abccbdfbbac5dbbebcf8b9c79b7d7c78a98a89ca88cbcc9b78983a99885
col37:   ba97a749b796cdbdbf9aa9a8d9bafbacc8d9daab89bfbcddccfb4daabc98cac9e9a99ba8a9c8eaba
col38:   ababa9a96a99e6efdd9c96ccdcbabd8e9c8b9ec7ee9cbb989ba9b7a8cbcc9dc9cc79d7ba9a4abaab
col39:   b7adebad7a5bab9debc99adac88adb6aadcdbce8b8cacaa9cecba3aabc8a9b8ebc9a9776ba9a6db9
col40:   d8ed7b6acbcdda9caab7a9e9cc9ca8baacaad9aeeaccbecdbbbbabcee7eaccc99bcba76c5cb77a85
col41:   9887995899cc9bdeadaeccbaabdccab888accccbb97bdeda9c5cbc7dbc8ef7bab9e8d89be86cdc96
col42:   ab89b8ab9c68988bc6aabc9ba798dfa8c9cadb7bbeb9bacabdaa6b9cadc78b7ccdcaa88fd9f777ba
col43:   7aaa9ab9acba7b99de8ccacbc6cdcddbdafcedcbeaddcc9ada9daaccc8caaccadccad6ba8aa98c6a
col44:   ad96996abce89cbccecbeedcbcbe9facbefacdcfabbcd99fcd989dcabaabf8cadc8bdbc8d8c68d99
col45:   4dd479cca9a9ab9d8abbbba9eec9a9bcbcdaeacb7cddcecbcc98bbaeca9cbdbbb8997ae97884d789
col46:   4c9788dc8987dc87df9dc9bbfecbbcccbbbee8babb6b7daadddbcda88ccaebc8bccab99daa678cc8
col47:   ad9ca6dabe9c7dabbbcbcbabc9bdedbdc8bcabba6afccdde9becbaa7edadbafcba6d99aabcdb79c5
col48:   9c9acb89ba8a8f88a9eacb99b9cacaabdfcabbbabbaeabfbdabadba9b9fcc5d7b89ab6aab88ba68b
col49:   ba9dab89ebb87db9a9dba78b9a9e9cbb9c7abeab9ad69dafb8b9bdbc9e9aece7feca8a7b9cbbccbb
col50:   79c87baab8b9cafbe98c9aaef6ccceadb9c99e9dcbb89baacb8e9d9dd9aadaadde9a9abaab88ba9b
col51:   cb6ca59a9bd8caa7767ab7da7da9c687c8a9a9bfa9ccfa9d79f6878d8c9a6aa7abb7a7ab96784c17
ROC:	 BPix_BpO_SEC3_LYR4_LDR9F_MOD2_ROC9
col00:   86a899899ba6a7a49ba79c9c7a7957d58b86f7c496dcd6bca479b8a99b59a87ba4b867c776a6d2a6
col01:   8898bda58ebaeabba8d778bb8a5d4aaebee79fd6defabbfb9cb5678eb668acbd56bf58a8a9cb9c68
col02:   9b6a9a899af7b899b8aa2a56b866598bdbcccbdbedbc9ca9c7b997a99aa8c7b78deb266b9869a8bc
col03:   6bcc86a8778bb79d9ca5bc98ab98bba88bda79c9cdafac9c9e8aab99dab778c9ab77aa6cbe58a898
col04:   b58c667b88785897b67adb3b7ccbab6d8f98adb97bfddcbba7ccadd8d899dbe6dd88baac99aaaa79
col05:   bb9bba998a6799b887bba9977f8a88c7e6bb989aabb9eca8abaa7bc7cc68d88ccaad8a57c6d9cbb7
col06:   74bb6a9adc794b32aa69a586cb8a898d7ff7c9d658ea8c9ca7eda9eccbdbbdc6ab559ad8b7baa7ca
col07:   ba86878999faa89bbadcc9a9a9bab98eec9cb999f89bbd7eaa97aaa9b9ad7995ab89a788a7a88979
col08:   6b68aaaabf8baabea476c9abc8959c89cab9ecb9a7b87e9dc99f68a6bbb9bb99b5766c8493274777
col09:   898a859d57aaa55499d7a8c7cc9c8a96b8dc9ccacbaee98ae9c9b9bcadaccaaa9bb7bca8ed86857d
col10:   64736a7bbc869bb99989b898f4bbb7eca8aba8abaa78bacdd667d9ca4bc9ac98cc8acbad77b9b9b9
col11:   7887ca56ac7c88576be7aacb99ab9899fdb98a8fb9dda956edbfc9fb7acc9d8997a5a89ba79c7469
col12:   b787848ba6fad4b98a986a5ab7dbbfc9b79c8fb85899f8d99ab8a8bbe9ccda9f97a42bbbcd9ea955
col13:   a7a7b8c837baa76dd8778ebb9cbfabcaddcc7daadc9ba977eb7b6b8aa99cb8b7da37aab9ab7b96a8
col14:   cabeab98ba799db9a8869cba97a7eb6b7dd97899a99ab9997fbaaaabc95cabba7ecacc996b78c539
col15:   a8bc57cca6947c89c9889687ab7eddba7cabbbabbea78bb68d989cfcbbbbab98b6a8abffa89b68db
col16:   96958a197979afa599bb97c9a9c8bfd9997cb9989abaaaaceb9479e897abcc9ce8a6b7aa9ca8888a
col17:   7868bb98bb38bac9d877977ebb6e8a89b7a78cb9967acb688cea7cfba7c79cbbae7ad58bb7849d98
col18:   a958a8b859aaaaa8bcdd997bc996baac9fda8c87b7cccb6cc7dcfac88ba6db99976db7678648753b
col19:   8a99a598b768697a3c9a839ab997afeb9cd989ba8ab86baba9aaacc8dca6897e8f7ba6a576796b9b
col20:   9996789887949b99c9a9b8aaf99df9dfbbcdbbd9aab9eb78ca6aa8bab8cfad67a896c9a7b8a685c6
col21:   66965b89b78cb8586aa9abd99765fd99a8ccacba7a9caeea878c965969abbc92bbbacbec8c74989a
col22:   5a85c96a5a7b7bb8a6be9b9bb396887ba4c9ca8ca95b4e6865ca4dadce5cc7cca7ac93bc99bcb986
col23:   8782969788c888c6899e7e89766c6cd5c8b85aba9dc5cc9bbdbaba8c989a897ac8aab44b8a687866
col24:   75a4a5985ad96e8b88cb96a9987bdc7d8b9d97c8cac9b78adc8f9e799ac8bb97959a87a557b99c75
col25:   776cabaa69a9b9799c8c9bb9b89cdaf7eba98a87adc9d4a99c9b6ac9cdcafab8dab596a99cb78769
col26:   c6cb8cbc99badbead7a698abf9dbbdbea9dfda9ebc7dddca8afdbb8ccc9b9b9ddc7c9b9b7c69dcb7
col27:   99ab79896eada7cdbc8babcfcb85dbfcecdcfdd9fcf8bddcc99fcfab87b99a5dd9c9898a9996be66
col28:   5c6895ce8f6bffdab99dc9d8db7dddff9e9bbfdfba8a9fd86caddb8acaab8cb9abbda9be775c97b8
col29:   abe8abbfd89db9bc8bdc7ad99dec98c4becdbcdcdcaf9adcbaecc88fada8dd7d98ca778c3788a9e8
col30:   acb67887b97d9c9d7bbdebdfeccdbfbdbfa8bccacc996d6bccbbf7bbabacbafd89c9ba7ab9c996c8
col31:   a8eabdab9bcb9bdaafffca69accccbddc98ab79ca8bdcdcfda9dddbdbdf7c6a8df8e69bbdd7a6bc7
col32:   8a7c9999bdd8a9bc9ab99b86fd8adaeeb9d998acebbcfcb7be9ddaa6a7ee9cdbbdf8edf9ac976a7b
col33:   b95cbb7b9ce89ceabdafcdceddcdcfcedcaecfecabcf9bfcfffaee99bb8a8abdab8b8ebaaffc9fae
col34:   8898bd9aabaaa9ebabbbccd8ecdb9eac9bfadd9adbcbdcddcbbbdc7aecc9ed6daadb7baa96da8c96
col35:   5d9ec9eab69f7bbcdbdbebdebdddfbea8c9aabbaa9f8dedd9ddaeb4cdaab7daa9a9abcabb76eacbc
col36:   ddb9ae8a99abbcbe5cb8cdddeadecd79c8bcf79ddddbdccbadeca9b8fe8a9d9ac8b9d99bba8c78cc
col37:   897a8bc9bcdbcbcbd9dabcc8dcc96fcdccefcdaacbddeff6ffbbbdecdfbcfdadd8cb7f9b89ad9999
col38:   a9dc7fbffeb6c9a99cb8bdf99bdc9b87b99cececcbecbffbcdfe78bea6eefe6fa78ba9bb95bbac9a
col39:   ac9a7bdcddb8cabafe9fabcbefbf9ccbbbb8afbfccbeecfcdcfdc7fafe99da7caacdbccceb7abeb5
col40:   c89cb88dadcf88abcbceecd9ccb8fdca5defbedcad6bcdccaefefcdfadb8ccac98baae98cba7c897
col41:   c978b5a8bcaba8bbcd8bbbf7bcebddfbc8ab7b9aaacfed9ccbbddaabbfeeadcccebba878ad8c5ad8
col42:   c1687a89e56dd7af99dcbcb79bbadcaeefcdeafa8ccddedce8bafabebd978bcba79b9c97abbd6db6
col43:   d77987cab8d78cab89babdbdefcff9d7b6ed98cee8beaee8bd6dffff9bdbcba9baaadca8bbaaba98
col44:   dfabac78d8e8ddcbcfd799a8ea9ebbdd5ceddcbfddf9aaeabac6bbcb9bebbbd6da8ca9bbe8aad6a8
col45:   8adaab4b899dbbcd8dccbd9b9bfcbfdeec8abffebccbddfdbbc8ef9edbe9c9ccbccdebba99effc87
col46:   a996985ab9c8babbcda7cbb9de69cecbbedcdad8fcfcccacecde8cae9a9bb79ebb69e89cbbabcd6b
col47:   ad46a7aa9bdacab7d99bdfacbeb99cf7dcfdddacddeccce95fc9ededccbcdbcccaaa9cc757aa979a
col48:   9986e7cc8999badcaa99f8988eb7c8a9dabceccfecfe99fae8db96fde9a9cc7a898da9dbce9c768c
col49:   b6b9abded879b6c8b998d9daa6ccc9faab8faffbcac8dfcddeeb8bda7debc78abfadeabbea9bcb7d
col50:   7c9a74dcabdd89cdacc9e8aec9ddebb9aad8fee7fdccbbadb9da8a9beab99acadac99ad9799b99c2
col51:   6c969a9baa559aa66b48a895a99bf9abacb7aaa984889998c995c7d55b7aca55d697a86698cd7c98
ROC:	 BPix_BpO_SEC3_LYR4_LDR9F_MOD2_ROC10
col00:   67157663586a21b9681368489768b6698c9778a9759866777959aac876ba6b36b3a7889957594999
col01:   9a959996669285cc7a68998b7d686d6dacb68a59ab4778c5ab8ca59bced6cc679c895986989569a7
col02:   87769a4567595a8c576898a7998a88baa69c8baacb6accaa8f59d98a8ba974aa88b79b98467a5ca8
col03:   47764b6875778698a4a8aa48e7967ba9bbc27c9b598a7695a89baabc799cfaaacb89989687537965
col04:   574a76769a55c9a99aa6987396766877a8ac99ad5ad98a8aa76e89bb9f9ba99aebb9bb9aa9467987
col05:   568896b585a69b83baa858778ba6c6bab8bbbcaf8abcc999dca9bb96ac9d886947b69ba49a39ca68
col06:   84bba7a57869a66ba6b658498789aaaad994dbb59a77b9a637aa5b96a5c7d787699a3868c795a966
col07:   5893b7a498a897ab6867957a89a969bab88e9d7968babcaab8c898887a9a9a89778959c4b76a96b7
col08:   56786a8b76877c8aa69a999aabda7a6b8b8a9a7b9e89bdc6ac7c659b89b9bb697b8ab75b962bb462
col09:   75466477b975b888787b4ba8b9969babeb8b8c9ad5c8b9c7c7c69c79d5bd49d589ca4c88a9967a5a
col10:   3866ca9599ad82b8797e8aa888ac8a38baac6ca8ebbbc98a98dcaca75dca887886b998d59648598a
col11:   5765c7796bc79b9788a9b7aa89b7cb5976dabbfaacadda8f4a69e9a37b9aea78a8b7b7485c589799
col12:   95669775735b57b784987ab9b9d9b6a9bcd5ba5a799aab7997886db2ba9ad8989ab6a9b95c76aa78
col13:   b85666488c887b78c76a9a94579ba8c86b7939c8aad89ceda8c9adcdbc986a77988466a6947599aa
col14:   6377666998a589a9b7987bbb8c75999d79b7d6c88a59889989baabab8dbd986988a7697c5868aaa8
col15:   4a865997acc88798b39a7b98ba8b889ca9adaabcdbecba79a868698d97b466bc9b877469a99b87b6
col16:   8765586a41756ac5a8979b8b72766c79a89cb69aba9c6c66785857da9b2bb878a7479669a33b4487
col17:   2648a586a689ca689ba78765b8c7c8c9bbbd89ae8d2796a7996ca66acad8bb58964b779799985197
col18:   69746655549a3797983aa887aa549cb9ca556576c7c97c7aa4c9c897cc9a9c8aa4a4677a785a2885
col19:   88594655669a88caac67dca9697c99a68979aa8bbb9bfec6bbc68aab998a977a8a6a579a87968957
col20:   6b675855b877b7a9797585d6a677bb78d9cd7aac98976b9bd99fa88bb4ad8a5aeb5a9675a68abb75
col21:   786946b699b8696b9ce98699888bba985eeababea8a9c97cc68b76aa899f9b9b97977b8c66849875
col22:   7a59b6467a78b486699bb68d499da73cbac97b96b98b4a9c8ab86696db74824a9bba3598ba8959b3
col23:   868958589889a8a858799a8888cbd58c66d6bcb7a98ea97aba9a8c99bfb979a7a888685a7b68a241
col24:   526936b875a967295b4b7396497ab988996b59da88bada49a7aab9aba9aab9f8848968aa99985657
col25:   78967965ad896298aa9bbadab8bca8986dcae8aac79c7ac5bba9a8d958deb9cab7b8989a49b38738
col26:   566a9a859778fdb9acbbad89cc9be9aaaaa6eaaabcb9efbe6797b8bc89cd98ad9da9acb8e85c4a89
col27:   65989a69a8ba8db78cc79a9999798beeae9bc9b8c8eae8c7d9b8aaada97c96c9ae896d89969a6c64
col28:   7b8aab99ab98ca7aac8bbb8aacdbad9b7bb5dbafddbccabb9acb9b7ac8bc6cdbc98b7efb3b78b8a9
col29:   9c57a7b56b9aa9b7bbca9ccdac98cccbadd99ecabbbb8cc9dcbb9bc9cebbcabaa79ebbc8babaacc5
col30:   b9769ab9a9cc9dda8b7bebaca7ccb8a9c98cacfba9dacfcbdacbb9ae9b9dda97cb989a9ec865b689
col31:   7686c779a8b6c9aceac8c6cda9b9bbaba989e9cb8abcbdaa88dcfce8bddd98797cdcb89f98b88b98
col32:   8799c999ae8ab98dada8cacbcaddebdcdc87ccb9bae8cb9adf89dbe8dabfabba7b5cacc8aeaab789
col33:   8bccbdd8c7aa9ae6b78dcdbe97999aa7d9ecb8ecbec8db98c6aeacbbb8dfc89adc7aabdc88ea96aa
col34:   b7b597b8beba6abcb9aaefaacfdcbac9b6bababefceadcd99abaffabd8bcbdcb997bfa99a896b989
col35:   9baa8cb8dba8ebbafdadcdaba9bdbb9abdcfeebe8dabaddab5fdecbb8fb6d89bea9b5e99a9ba6866
col36:   8aa9abbb8557c999789a8aa9ae9eeb99bbc8dbbccaccc7ddbabca9bda88d897cdecc88cce9ac99a4
col37:   85ac47abcc4bacdab969dddca9cbbaeaa9cdd9bfacbfd9caf9dbde7ed7e8fb6bcca7caabb989ac9b
col38:   dbb9879b9ca6aabb8dccbb89a9dad89decb8db9bbbccdfb67bd8fbbebc97a9da9dc9aab97cc8db46
col39:   a78adecbb9a5cea8a989d8dccbdbfcdebcceff9d7bebcbebdbfdcacccebcefc8bdddda8bcdda6ba9
col40:   9bbce97cd85d799adca8baaeafbcabccbddc9bdcabcddbdf8cdb7cdccf98abb99aa8cbbed9a8aab6
col41:   ac699ccfa9bb8abc6cd8a9cefbbccebcfcebbaa9c88aaccedb8e9d5bbdd8cecbdca989cc99f964cb
col42:   ecbcc76776aabaf98bafbdabdcabe9aafbacdaab889baeecfddbaba9ffbdbcace9aeeb8da8c58b57
col43:   ccb8caee8aaaaee9b9ccbc8e7cffbdbfcbaeceeaedefcf9ecead9fae9dde9edccbfefdbfdb88db89
col44:   8a9cbcb8bbbcd98ecba9e9fb9a9cdfcfd99bbac7bbdbddfcd9aeaecfdccfacd8ccfac99baab43a89
col45:   baacbeabc87b8c7dd6d8ea8fbdbd8c7cc88fd9a9b8bd9acaddcbeadcbd9cccea99cbabe8baa9d7b9
col46:   bdbbb89ac7becccbae9baaaaaff9ebaadeddeafcbd9c8b8dadcdcdceacba9bcdf88bb9cbc48dd759
col47:   8adcbbbb89ea9dc9edbb9cc9abacaca5efbcdccefb7cfafd9c9f9bebcaaaabdeebbceaab9baba986
col48:   abc9cbcbcbaccabbccbb65edb6ddedaccecccffdbbceceb8dce9e8bbbeca9bb8a9cccd8cac9999bb
col49:   87a8bb9c86acc9bfadbc9c8b9dbe7cbddccaa689fbccfcddfd9eebbabbbebfafccf9b9cc975a64cc
col50:   7d8b9b7bbc5b9bdcc9bdcb899adc9ceedccabacbcfbcadcbdc9cecd9decebeaba7c7faab9ca8ebba
col51:   abd9798979897a8a869dcaa97ce4b89aac8d7effcd8eacbc5c6aa78ad8d7c978c77b984c66cb8c79
ROC:	 BPix_BpO_SEC3_LYR4_LDR9F_MOD2_ROC11
col00:   a7878857694a685775794b856a995965498899664654771777db7698d64aa5757a75768575456472
col01:   6975886b976a69b789587b85676e7b97c9e86a9c99eb9799a589ac8dab9d9964b9698486985aba6b
col02:   77823a3a76aa97a58789a857b8eafe6b858ba876939a965a697899b88997a9597896699686455574
col03:   967a8bdbaca48698397799aa9ad976bc77b79fb6aaaa9888695b999a9cb9b7699615787599798ec5
col04:   475717757486794878bb5976a7cb698597d69a98e5a9b8886a88a9ae9c9974c9e6c6489448946636
col05:   67567a87983aaa7b65a6a68ae7aa8d8bcb5b68d979b9ba859a9a7667786688a87c6c98873c553877
col06:   18569858c9b4bd65687bba78797bc6b5dba799c87dea758768396baa9ba88869b778486979857566
col07:   672a682379327849875c74cba9b9aa6b769cd875c2f978baa8799d66c798458bba895769a4698386
col08:   6aba4755448a8656a7479a746888886787c8abbcd6a355c89986c876767879779b58547772d26478
col09:   8a66769886bc679bab677aa6ea7dad5878da9f78bb789af89669b99ba9d6b7767646c876876779c7
col10:   87278946b8a5a39495989ce558776aa5a88e5a677bb8a99754ddc99f8877e86785a67a6b95b64357
col11:   6656778799575697886889a9db888b58ababb88a8988a76898c5c797aa969a778a5694b587b87771
col12:   57664586776958797786894766697cbfa89bbb8a8ba7dba38b9b96a88a7f9a56556b98554a776396
col13:   779756619876a4aa698a8aa9579b8a87a8998a8aa379ea897a5c96e8cc59aad5bb93758688867888
col14:   5826c78658787292575bab87bc668e9a599335b67b988b7aa769b78a99a77899762a988994275754
col15:   a65537a87988a68b78567a58a7546a89c6b8b7eba686c6657a97db6bc95858a7b8822552b9a86a68
col16:   75957466b7a8689888968c79897b97b9a79aa7acfbaab8a5aa8a6a85a997bc9a9528838b7b788415
col17:   6aa567457596577898cca867aa799a57a98b8b8998898979b9b6792aea978a669a8884686a938865
col18:   a4b658a7498758967a65897876757885ccac79b676bd797a867b85ba779989879897784867988a75
col19:   786466c874c89785b79688759aab7cc7a78aaac8a8a9898849858a8bd7658678ab55776469c78a47
col20:   5389352a497a6a764d7c67a739a799b75797987599787a4ba88768a7578795998ca79a9767685653
col21:   4446958a8b78b36797baec7a79b5ad966bbd89a9c56a79876b5ac797b8c699a49589a87b88bc77b8
col22:   53276598b974a578b6b7a778788666ab9bc689a684d69866667bd948aba67a66598487aa829b77b6
col23:   6575447916678765888a3978c89a89a6598cb9467aac8bcb786653baa888ab5aa8678b852b573665
col24:   545c675368c399ca967a9989546cab6a9abebaa75a74a7ab6d4668968a87a4954868776a64744471
col25:   768a5974a8d54a397797a7b898af8879abdba99bc89a7a7a8ba76b868d7856a77839c776c5287877
col26:   67797896b7969969cd8aadc5eaac9878d98adaaabefb9d9d9c9a9a9a98ac7795a699a8869747a9aa
col27:   775486995746cc7bb987c678abac8bc98996ccccad6a6a8cac7c96898c819ba7cb794aa7b7b77b73
col28:   8ac877798a78aaa988bdc98c9fcaa9c9abcacad8bdacea95a999a8acdba9d7b8eba79565a98b5587
col29:   79aa5a8878588668ab5ca9e8bc999ba9daba38cdbb8ca79ea96a6ea7b6c789788aaa77a8c766b899
col30:   79bc9987794be888b8bab7acca8ca9ab6a9a9bc8c9a997c599bcab99acddaab8a7269b78b8a695a7
col31:   975798db6abb9be9b87a9b98cbbacbd98a9bbd9dad9be8de9dbfbeb9ecaaaacebab8a9c8a8aaa5a8
col32:   9968d979a847b9bcc99accab97cceb7fb9bb7accd9ceda6aa7ab8ab6b97b7be9daf89c6985ca6d85
col33:   b7c67cba7878a89a8c9d89c8cda978fa9dcdc8bfaabadbbcbc9b7de9bb9dcccb69c5e77ac69cdaa9
col34:   9bab785b7948cc9aabbca8aabcb9ddbbb9acbb787ba9bb6dcac88c8c78bd98ac96a9b668c88b8989
col35:   a9a6b567baab87da8a6998aaa987e8dcc8acbdafeb9ca9ecbbac88b99bcbfaa9aed9cc869b99aaa8
col36:   79989b948b6588acbcbbfde589aadaea8cc88bda7e7dcca7bcaaa8ddb9aec889aa67aa9b9986988c
col37:   ba6bb9799ba7b87ac7cbc9bc9b8ba9ab9d8cca7daea7dca8e999aecdbfbdeddba97fbb997b98e97b
col38:   964b9a7aae6ba886c998bb79cbadb97dc8bbdabf8d9956ba98ca7a7bbb98bc9c4998dac87cbb8689
col39:   d595aca8ba85abdc786ca7acddc7baabbaeb5d9ad97dac9daaebbecdce89fcc989cc979a6bb9ca77
col40:   bd949ca8c9a8c878abba8e4dfbcbb6f98de589acfd9abdbacdc7afcb7aecaa89a98cda57e98bdca5
col41:   78c878878caec8b8bacabfd9c8b8e9be9aaebb9dcd94abbbace7dabc8d6edc7aeaa8abac869a6994
col42:   bb6b87a5c99aa6b9aa86bc5bcab97d87bbea7bbb997a9a8dd8a956aaca9d8b7eb8babaab89879aba
col43:   c8a99db887bb7a6cc8c7bc9da9bb8eacbaecafa7989abbc8a98bbc8c9b9bc9e9bdcad6bbec8aa6d9
col44:   987a898496bc798acb9afc6db7a99e6eab9b9ccecbdd9ab9c8c9beabcba7e9ac67c9ba9adc5b9968
col45:   ad6b88a89aa9ab5bedac8dbe999bac9ca8a8dbecd8ad8b7789abcbf8ccbd8dafdb8c7ca9b7fb989a
col46:   7c9d99a8a989cfb898bdd8e8aacc9ddec89cbc9bddeb9cb9c69bdc8cdcccab9ab9b76ca8bcbb8769
col47:   8bab9caca9888c6a6f9cbadb98eaddfab999caaebce9bfe9ab5c8e7bcb89d9cb789bce6be8676a59
col48:   b86a7ba99889e5a9bd8aa8a9b99b669bb9b9dd7aeb8bae99babdc769ecfb9c6ba6ca5997caa8b9ca
col49:   ac7d789bd7cc6a89aaac76a9b88b99e78a7a89ba9bbad97bbdc9accaeebdbcdabbabba6ab25c9d57
col50:   b7a76a984b94aca87a9c98bd69fabaa56d99acca98bacd9aa8d9bcaaa9bcaf5558d9a9bcac7b59a8
col51:   98c9676c66b8a454486878a887878ab8869db689e97ab7da6bedcd8b7b7a6b799c6d99cac6877aaa
ROC:	 BPix_BpO_SEC3_LYR4_LDR9F_MOD2_ROC12
col00:   5856a3394263466764245758882676384795746a885854547a8223385563577564455a663d985937
col01:   7676793588753556776b6669687b5787a97639897269892c66995877969a55549593944666968967
col02:   795348584747657734a44957596666697c8878a5aa69865687557719a87888984967735669555488
col03:   45334b74348464554c69558b648576aa598795767a3995757a9896a94966867556a739754836668a
col04:   693569426655546769557668876a476a89897d97b9767695847988bac965469a9623b6767636a847
col05:   663763675485534644b5b48696866b898698aa7b6b757895899659879362aaa5466847578954b9b7
col06:   244692636a6a467847798897968787929557bc51689676996866a76aaaa8a9585b575b5a96575646
col07:   7668396357a9877878957a5874a7a793976b774776a8834788ba566578b756a6999cb948a8898a88
col08:   5667726444a6675856a79a7a749856a79c8659b79a5a867a758b79692b377595566a988eb58c8988
col09:   857439a76a74447aa83a89496b45669ba5b8b7698849a7864cb9958897996955a766677589886756
col10:   468866864865846a875748b945a6699877d85759456669554a6d7889d8773b79768965c764758976
col11:   9585885583356646877a969868856466c888c76a99c7576458cac798588765a979c5587975876658
col12:   7476455956a79879b9958888767964abc756577a76a87884488a5975686566779277897a69582375
col13:   7766585c7668467695878746969458b9a9a6aab6b81ac76bb75797b769cc798a679669a98ab55847
col14:   649457764957849a7893869655763c987488b7978aaa9c45d779999d7578a8a897699d3676d78b72
col15:   78557836934723378887976a7c76768b9775b7aa96a6876a8768b88a7a9a86857698636a95763387
col16:   58746985968676696985b9b693687b5a5a998967877ba59899898a989797765a8b8959867ab764a2
col17:   96764a74555573676998b8774996aca9465964aa99b7b75b6698c79b8986965896b65a6565668895
col18:   6a757469a66617782aa9876925786866a97bab8b53a89797ba7588d7687c84888a769b8374983875
col19:   9659847937a868847ad87676994c897ba9bdc29c48769a8cb98557b8643b9848786a798887746b92
col20:   575584a16397a6448997568525b7a9689276b669a75d83a896979868b5995476388778b557777a86
col21:   774577756769b98867b68996599bb9a9867869878277494d89957989aa87e78695757785697692a9
col22:   7575876e356745786a898697975b38598a789d675c6aa8bc949a768c5955baa767677aaa25178555
col23:   8874666338554759779487556475997888b47b79cb8d568c5b956b438aa3869656788a7878897258
col24:   27884879a949a58a6bc9896aa578769e8397968989b589989879954d69778878865995b768478aa4
col25:   77645877868a94895ab8985978db7768b768aacb5886a45ac98a87588c8a58879697a864979aa29a
col26:   43839b7a49b56999ac8d8a9cea87bcaaa5aaa8997b6b9b869bbcc8a3a9a7bd8a9966a49975568a5a
col27:   8476a6776c484b578688579ab7bba9a8aa96aba8997acacbc8699bc7cc97baba859989794bb7b857
col28:   69a88a7797aa98b865485999a8a6499cd8d7b997c7f78bbaa76aba868c89965cdd5b9c89a9596895
col29:   8b87aaaeb6aaa9c98a87a685bc98a9879bab97aac8c5b988acaf4b7687aaddb75cd988fa57aaab85
col30:   68dd897a68ab698a987875a8b778b8aa9bbba9789c9898bbc97e8e8ca9b6b89998a99cc9cb5aba88
col31:   97a98689c78d8798a9689bc99ab99dcbccefba9c79cacadd9eccbbdddcabcb987aaca789a69e7b64
col32:   a8a9aaab87a9a8b8eea8cc4bb8bc9bdb988bcbc9bc9aa8ab88989bd9aa9976c9db8b7a98a78ca778
col33:   9698a989a9d9a68a9d7c8c9daab7dc99dbacaaa99abb7c8dbdc9edb7bcbba98db9ca9b66d8ab7779
col34:   588879cc6a9b488a7a89c9ca9bb89bbcbfd9bc69b98fddabbdeb7c8ebbb7aaaa789ab9aabb978668
col35:   7b99b8cc798eaebbbdcceaace9bbaab7cca8c89dacca8caecaa9ab8dbbeaa9b96c68aa7ac9aa8b4a
col36:   5bb968b6689a8aba9c9adc9edc8d9ba9da99bbe9d89bced948c9c7fbd86ac99c8b8a89a8b9b9b8c6
col37:   d98aa9c78d7cd99f8bb88c9aaacdcc9a67dcacdb7cbbdfbdeadedb8edbc8cad9c9bc8d9bbeabd8ba
col38:   ba8bc99d8bbecb998b59cabca9969acaba8baadbfedad9bcb8cb9bc98b9b9dbc7aacbba9cabacbad
col39:   9cba87bc68ed98b878bacb8b6a9beacdd9bb8acaccd9afc8ccb6faecbdcdcb8bbcabd897bed9d897
col40:   9bc957a868b9a9dbd9b7baccc877dfdb8ba8da9ccb8aabbd9c8bbfb7cb99ae9cbca7caacb9a89b7b
col41:   9a89db9abadfb9aa9abaebadcca9abff9fabcfc78bcdcdeaddc9eb9dcafcc8ddd9c99baacccadca8
col42:   59c59ba9b99989b79aaae9badbb8cbccbdcfa69ebe6dabaf9dbfefe9dbcbefcddba96bcda9cc88a8
col43:   cbbbec7d8a98cbcabdbc9cecefaadfebaaebccbebdceabdbcabbbbebbaee9da9cc8dcdd6998caa8b
col44:   b5b7b9adccaa7baaba9c9cbacc99acfeeedabedcacbdaaafc98fcfeaba9deacebbdddab7ddcc9bab
col45:   bc9a8cbaa79c99abfcaadbbc8bcb8bcebbebfbbabee968e9abfc9a899cf9da5b8abbc795cbb89ba6
col46:   8cfca9ab9bdb8eadb78cb9cbc9ac7c9c99b9c9ac9bcfbdbbdb9babcdd6ba9bcbc97dabea7a6ad7d8
col47:   b99bb8897a87ddacbcecba8dbcace8cddaad9bdacecff9edabddcdebfcde6cabdde8adbcdacada87
col48:   bbaaa98eabbf5cbcbbccb9caadbcbeba8b9c9b8eefefec7d9addabbbcc89cc79ccabcead9a99bc9b
col49:   b5a97caaa68bbcd99aea7cd8bcc8b99cfd87aeedfcbbdcfaeb9aabbcecf9acdea9b97acac9aca87b
col50:   ca7ab9999aab9e6986eeb9cd8eccd9b9baeecddbcb9acbaa9aacca9c7a9c9accbc9d9afabc9c9b87
col51:   5746a85b6ca83b9dd8c998aaaca9bab8baab8bb9d78db9ab9fa7e7c6c9a999caa894969dba8aad97
ROC:	 BPix_BpO_SEC3_LYR4_LDR9F_MOD2_ROC13
col00:   54a595145656478467488888a7c844697c84b7828677b576776749847ba699857598657865222865
col01:   4476785997794a6886ac457aabd576aab7bd6a87a96b689776bc9678c9a9b7a97a7553689848982c
col02:   64b5977567a94b7b496888646a7696b6b88a77978b9a9a9dc8bea7adab9b9a67a8b6762aa6728776
col03:   4676a54754957477689997795866b997977897a99979ce8b89d9a68a997aa477a746457986988468
col04:   546855699b89986768785aa8cab58babbc798848a9ab479988ba8a76b76ae37774b7887a7697656c
col05:   88793485953586c5744568856859676ba9b887969887999b8aabab8b9a8c4d99a76745799a775667
col06:   a7997954863b77369a965b786494cbab667596abab9868cb877987fb778599497b4a838459685758
col07:   674667a472c7ab8a859a89cb5a968977bab8cb98a69aba6c97a96997887ba4a4a49a7a5849554668
col08:   58558377592b57a67c573856898b6a889aaa998bc5b895aa95ab47a579d6764caa75584378585676
col09:   7748759567a6a794786bbb89969b7a7aa9c4a79a987aa57ab8adb879da977a6aa59b8ad568a89877
col10:   776946db766b5b96569b48ba77a8a9b698a78b997cddcba9b7c8968b9c668a6a59b63977988aa566
col11:   a785667a66497588a85a956e687488da4858595997a99777a5587788bb9a5b68578396b5b287d383
col12:   5876667877693599836c7e78d48799776cd989ab9a5b9a737b7a2b757685aaa68894b7676a779784
col13:   3967b845a9b66cbca986867798caba6698aa9878949c8dddc8a8977cc9c9aa6c78999ab9a599a499
col14:   498556757799684a8888c8786879ab76878777a68878abb77dafa887a8bb1a969ca7ac4899387a77
col15:   4787578a8757676bbaa768ac865eb97bbb778a98899abab7ac886b7a8669b89966d87789c8869859
col16:   599784b3297a8bca7885693ab8cbc8797c67aa8b7bea996adb59b78c95a5ba6877a66287887479a4
col17:   894646965a96a95a976578958a87b59acab6785b86dba6b8babd3b7cc97666957456766aa7664a64
col18:   545574a97998937a884773a678769798a972898b395386ab598c98c7b979fc589a97759679657744
col19:   98868882a765973b78ab96646e799b97ab587789a9578d5b89aba999877a6bdc97979aa834778798
col20:   278966b6884685749b74a8676b839778799a88c7aa7ba4689a8b9a59b9c87a77634a875758aa5956
col21:   25657888c6a5aa77e98ca5da969aaebaa9789c896ab8689778dcbbb6a649699896a9526896889c49
col22:   7aa78a9d88ba9a674576bb7978a9bbe85da879c9babb88b7a8bc9b87aaeaba78ca9a6a69cb997b59
col23:   687958d646979888a8978899ca8676977ca95ab959959b687abddceac8898979aa77667a36189ba8
col24:   86b8c4438baa98886aa76489a967c898b8885a7a6b98a86aaa697667886884b755a7868797458b85
col25:   98768574aab749895579b8947d5997d79997babab8976bba7b78a895cb8766b776b85ab9786565a7
col26:   7a88a69c8767eab9b9ba9d9899cb97dcbbd8ee7ccb89ca89cbc98aba96b969ac788bada958aa7ac9
col27:   9996687aa7a997adc8eb79b3a7aabdcaacbfaabccb9f7a8c67baa798b8c8998a7d85d67a99a55776
col28:   8884a887a598a8aabaca9abc8a9ba5acbb98cbcbd99fbca88c9e98c6bac689b7aa9b5a7aa7a895b7
col29:   89bca7d98a97a888a5bcbab8aab988aea8c9abaa96a6ab798ba99c78aba85639bc87b8a57889aa89
col30:   bbb8688986899ea6b9ada7c6abb79bcca8d7baf9bcdab6bbcaa8cf6cb88aca6b9c99691a699c7a79
col31:   47a776976a688cc8ebbd3b7ea9ababcb7b89b7ebab8ca68bbb6acaaaabacca8c87fa869ca9977746
col32:   a57a5b7b948788adb7baac8ab6ba99b5aab8cc9acfdac8c879e7b9b8aaac8c89a9aa688876aaabc8
col33:   8937b9daa9abc79cbcb9adfdbad9bdcac98ecccaadbdbbadcdabcb8acda7c4c79b8b7a8aa9b9ab78
col34:   577cb9cdaa9ad7bb9bdbc8bbb8cb8f779a6acbadcdd8ba8adaad88adb688a9cb8abe9a9a89fbab78
col35:   aaab86a9d898ab8bf87aedadd8abcbcd77dac8c87bacda7dc7bcbdb9b7999b8d8968cc987aa76863
col36:   78a799a88db8a7a9c8aa8adaa79ebbbccacaabeea99edbabbab9dbb6cbcac85caaab8998887b8b98
col37:   6bd89ab97b48b7ceaf8cacaffbab9ccde8bcec9ddedda99de86bf777eab9d9dffccca7d9ba75acb7
col38:   9f8edc97befacbaaabbd6cefaa7eada89cdcffc9fca9ba9d9acdaeceace8dca9fdd8ab6aa7b7965a
col39:   86c87ccacbcb88ccb998df99a7c9bedbbd8fb9bacca9bbd7cdbb9bbacbf799da5ac59bcf6b78a59e
col40:   cd975797ab9cdc6ada9c9daaa9baabb9d88abbfbdb9c9e8ab8bcbc49ccbbdd7b8c9dd7898bcb6b79
col41:   9aa955e89aeacb89aabedc76fccbeaddcbbbdfb699ef9ec889ab799a9aaccbeb7ac999aaebabaa87
col42:   d79bca9e5c9aacbcecbb86baaccb9b9bab999a8b9aabb9979a9bdcdbabbc66bb8be7c7c999a99ec8
col43:   89ca9c78dbba89c9adbdcfc7bfdd7bbcbecbdbddcecaa99a9efae98ccddbaaa9c9acb7c9b9b99986
col44:   98d99a8ddb7bcad9bcab9cbdccc8fcffdefaabbe7abafd9a9aabbc9bde9b79ac89aab699a9e79969
col45:   ac88a78caba89b95aab7ea7ab9ccbbc9cbcdcadc986cadb8bdab9b76bdbcaa8acc9ef5b9abcd9969
col46:   9b899a8bcb4dcb99d7ba9ce9bbdcabcdbcaacdc8dbbcbb66b9b9cababb9888d9b787baaccc9b6759
col47:   4dcb9a8fedacbc8dbafc8cdbcdba8eaffaabd9cbcacccacbbe8ccbccbcd8ad7b96abbc97da8a9aab
col48:   ba8668be4dbafbabab89bcbadbaca9d9cfbaaab8eb9989ab97b8adcacceabaf8fb9b8d999a99669a
col49:   db99e897aedcc9d8ebdea9acbca9abafacec9b99b9fddacedb7cef9caac89facb9a7ac8ecd9768a6
col50:   6aafe9baae8789caba6ab8ccb7fcadafacb9df9dc9adeeb9ab98bde8bdccbd8cbdbdd3a8bc98a9a7
col51:   855aa9cc9ae858d86a898b89bec79ac9788c5b67c897a8bc8a9d47a988d5cc58ca7979aa5773755a
ROC:	 BPix_BpO_SEC3_LYR4_LDR9F_MOD2_ROC14
col00:   3b666a9667895a859445774d6a4a56aa67a6a98885a56786799886965558337b8867626759599569
col01:   766a68769ba693a8a9ad95cb89a8cbd99abc9ba9769998887a8b7399b97777ba74c6594678942495
col02:   666ec76496755839b889a97b88e59cc7db8aca79978c9cca8ecaa679d787999ba885995659568756
col03:   6553777a69489875a484879bb8aca7c8d69abba76a9777c9d4a7ea8689e5a877764447ea72877877
col04:   88ca644946ab65ab498586abe9974b9acb959ab9966ae9b9a7cc38aaabaa8877d965676859a73675
col05:   c48858777b31278879a6c598aa69799b3a6798a799aa949939a876736835865595697829568685a7
col06:   8b9ab7aa55568778ca88ac7948cbaca999c9688abc99bd6de9b886a9648da928b75539c875377755
col07:   78a5799a8a9986b6a7798d89b8abaaa979baa79c989fbe7baab59878b6ab8b899b7999c678753a35
col08:   7867498a6b29978897669987799a78cab9adbbaa98898bbc9b999785a9748899a7768678a8958947
col09:   a4b4b748977b26a779aaae95caa786c779959c998eaa76ae7cb57a59b8a7899979978a66578a54c6
col10:   36a2677859ab9c4776778aa8ab89a8a8788979aa87bbb6bbb96a7a7bd97889ba98c6b5699868c6c6
col11:   a885859779897787a69b78857ad7897bc89a8ebd76674ca659898ada58787a95a9aa768755686668
col12:   97746689995ab5a4b6b79a577da7ccbc79aadd7a9b7747bcbeaca6798baa887937595836baa98b97
col13:   4681889d9aad6684ac7e9da8a69867aa88b88989b79aa7c74b67cbab8889648ab37798478996854a
col14:   494796a8569aa7da59886da99988899a99d98989e7a589789b88a98a588bad786c89a6899c9d7938
col15:   5994a97895b78ab696a88697486889778a69abdb9f999ad6698a896e7b779695b69b598655694375
col16:   6698675776785929babc8896a7c89b79b976b8c687b98da788b9d7e93bcaae599b9975a38537898a
col17:   4947856995b98568a8566a9cda6ad89699a9d867bb6a7a7aa9baca9a7827c97aa9796389a627a364
col18:   9785a75cb375778bcb99a669675a6bb7f86a8aa3aaba89c99b8765b9d8697ab75ac6977485788675
col19:   9a78655659a9a887799bd9a9b9789ab9bf986877a8d75873a7aec87877a9c96a597697688576b649
col20:   8857798b655a6795843b579574a8aaca939b7b92a95d7a5ba98b593b87b96558978b6b7a56575883
col21:   484599597776866a7da9a7897a66a949b987988c77ca976889c98995a598aa74689885778645a563
col22:   ad577b18b76969769c78489cc668874bbb9bc8e7484947a8ab76ca5adb8a7973765ba56769676721
col23:   6857664847857895aca79738668b79aabb7a966759a7fbaa7b8a4958ba48856575ba76b777b66681
col24:   8a7918675887b766b78b37b87b996559b98a86b9699a4667e7ba696a9547997a9987b9559363b451
col25:   784768a9996679c89c95b9a8b8589b9979dd9c99b6b97c8bb9689a9876596c77db756b7469d78787
col26:   6677586788e77c997db99ee58898c967dcb8a7b9a79cdbc9cb887aee9c57bb9ba9bca46eba878a6a
col27:   848877b45485c89856bbb997989b97a98598abb9b6cab7a96489ccaab6dba3979b9977b6ab9d3689
col28:   9ac4ab58678c88bca58a6b998ca9bcb99986cb98baabb7baa8ed9a9bc8ad9a99bfb8b85768a695c5
col29:   bb699b655b969b9c999e7cdc9b999896f8dd9c9aceaea9a8a9fac9cad8c97ba87c9859799a79587a
col30:   9bca98a5c5c7896768bba9ba7b7ecac8ce8dd8cacd8caedc7bb9d9e89e89b99d889bba4b598ac967
col31:   7c798787898bb49bc898bc7fb8ffaf89cacdcbbcacebabddfdf89cb3cc6cba9baad8c7864f769897
col32:   59c889848c8b8a9c8ecad7cdcc9f8ba989bbeffb78bb99dbaddab9ed8cbc8ab878aac9acc877c886
col33:   78987a68c6e8abbb98e9bc998debfaadcce7ac98cd95cbbe8cc99a8bababe9abbba86799a597759a
col34:   986d646a89cbaac79dcae87acbc87d7b5c6fbcca7dbcaacdbfaeca9ddff8ccc79cbe8979857a68b9
col35:   69c6b9ba9875bcf8cbf84aabbcfce99cfe9a9a8ccdcdaea99cda9abbdea8cca98e9ba8849727aca8
col36:   69769db7898876cbc8fbb95bbaecedcde9bcadbba8cd8cdcaaadaa79bd6a88c999a7777dab877866
col37:   c5b77b7ac9ba999bc9faddbcfaaa8cdfbdcbaec8de8eecaae9fd9d6aaaaaca9ab9ebdb7bcb778699
col38:   f9b8b7854aba9f88b9e9bfcd7cacf889bdcccebccbdefabcbdbec7c9a9cbe7c7b89b8989af5cdb87
col39:   8aabac9abaa9d9ca889aba9dacebeeacfebdcc9aef8aca4ada7edc7cedab76bacb898cba9a7a8a76
col40:   3bd899bbbaabcbacfabcdecdfdbeacbdab7dacaa9eadcb99767dbddacabace7abc9dabcb9bb8989a
col41:   8dbacc6c8ebb6b8cbcbdbca9a9ddacf8fbee7eb6befbddaba88ff9fcdeeea9fdfd9db9a88ca9baa5
col42:   dccadc5a758bbca8bbcc8abccdcb8cacba9dcc7debbfbc7acc9bf7bccabedb9acac86b9a6a8986a9
col43:   7ef8bdcfebbd8fcdafaceccddcafc7cbb9beebcbcbddcdcddeafaf7ecdaeefdbc8b9f5ba8baa57a9
col44:   9ce9fcdabddfad8bfd9bffcadabb98aca9da8dcc6fbfe8bfcccb7caaddacbac6aabdc7b7adb6de3c
col45:   ba8cbbcfcc9c9bc86ab7afb99c7bebfdf7badabdbcdc9dc9ddbdc9cedacbf9aa9aceacca8697689a
col46:   da89ecbefdcd9bc998fbba9ccbb9deb9c9ebbfadfafebbbaaccc79aceb89c9caafcae799cd86a899
col47:   cbbb97d9c6bcb7dbaeeddaabaeede9cbbcb8cc99aad8ecfcabe9cabb9aabcfdd8bca7cbbc9bc98b6
col48:   99bca8bdbc7ecccda9dcbea7b79acfaeabb9d99cabccad9ccd9bccbccdaaabb87aa57b9d7b78a978
col49:   aa9e7cdbadfdb7b8abdaddca9c8ebc9baaebbdedddaccabbef98d9efcde99bfcacabbcbcdb9bca8a
col50:   bedacffbace8cddebacbf7fdaccccdcefecdebdcdccfc9fdecfb98dda7dace8c588adba7e97965a9
col51:   b66997b6dce9b87aba78bc9badc9cdcdcd9ecd9c97cee7d8a8edbdad88b897da8bcd8895bb257538
ROC:	 BPix_BpO_SEC3_LYR4_LDR9F_MOD2_ROC15
col00:   54485257155978969a137747b658676a67a6786277614966ab874a7799a98a698577eb7b87765946
col01:   58677ad75ab976697877b67a8995a77ba5a6bb7d78879787cb8576f61ac6798c9a556797b687a74a
col02:   d757878b378489a78989a668b98855a86b8867736989798b77adb8b9679d7b79c9949898867565a5
col03:   8854a958a25678a689b6dc76b56a9869a75a8bd7999ab97e945ba6899778988bb18b8a78a57898b5
col04:   852b6754568486af78689b5996b7b889bb799b8b7998966ab677655bcd99cd8395b869b9a8a789a8
col05:   57b4986687516ba997a8b545697baaccd56c4999934997969baa9b9b97879bb3b7ca9b4995791798
col06:   8868897618469aa857589aab75fb7bcb8ba69baaae948b8a7987a6c97cac9b28b48778ab7788b745
col07:   87968788888ce86c6bc9867ee65cdcb8d5a788dbbaaa88b6ba77bd7aacc965ac6486a766db26497a
col08:   5875862a8778a8a89cca8a4b875696e5b899aab8a9aba7bea6a98b96a5986a1799685a687799d567
col09:   8676a9977664785a96846983bfa5bc9a8cc9bc6a567ca477ee6c99a8aab68ad8999a9879bb4ac696
col10:   6d667b6a6956ba465da87a5ebc7adcc9c7798d7a6c6b77b89bbc76869597a87abc99689888996569
col11:   42378b2869a77d5986b489997d8dac9baa9dc797a7988a9b9c87aaa8ba79b8ca88aad6ac84787778
col12:   898757d767674b87b94a995a886339b8aa5a6bbb8adca99d8aababbb954abb8a78b87877a9598ba5
col13:   a7583876b878b7488c6975688a57b9887aa6ba75b8adca8cca6aaabebb6994bbdb86b7d588a61f81
col14:   65878599796a9d97a5a65cacb9868cab9bc9a9c99c8baa99a6c9dd8a97c897be799987b6a67b6a77
col15:   746c46b6b6c79cd8b959caa9a85cbc997a9b76cc566b9d57b1ce8e99bf88989b97ba9889997a6986
col16:   74a875a98a976cb617a467dc8668889b67796a99b8d9bb5a89b8a77f699ea976a7799755a8b845e9
col17:   496685e563977662a788a99ab6ba98778bba69489a99959acc9cb97dbb96ba997c6ba8a9a97c6854
col18:   6575d58457658759a68d87b89e7a8b98899ce89bad8eabc49abc83a9aca69bb9868bc4a8a3565649
col19:   875746867ac748578bad68a87fad999a8898a666ba86cb9b9dcb36cb9ace8998a5bbb9f779c8b966
col20:   75869857aba5a578ae8dc89d7bcaad778bacab7b997b7cd8b85b9879cacb597aaa8398875b679c87
col21:   259879a766879674d9b79aba79959887c77bbd448c79c4a6bd7a89748b98a9989c6c7c8b68c967a4
col22:   96596857798976594968a759c8b9cbbbcb7695989ad996a46a98989bacb97a9da9aa667659783a87
col23:   59744a4a47a856399bab65699ac7dba99adbb6cc9a6b9a7a6b989c8878aa58978768689865a73845
col24:   7c247a468a7886f78ab59a6989a99dac69679a5586868d9898cb956a98ce85db49b56a3a6b6eca74
col25:   9787a7c458767d877d5779a986877dacdba98db6ba8c967a889a97a9aa58d94aa499caaa8587a975
col26:   2b96aa99a8ab68a7b89bec9c79c9baadaecbcc79a6aaf986a9cbabadb67eba777879ea69988c66ae
col27:   a7975769897ac5579a4ac8b9d5a8db4aaa99baa8aa7baefa989aa9cb7cac9ccae7885599c975b6b8
col28:   7eb59999d9cbb98a7bba7cacb9cbab88bccc7baaccbeaad9ba8a8a9dbde9297ed9c839add8888be6
col29:   7b8898999c98a8cb6cbb7b9cac9a9a9ea9ecde98aacbcd6aaacfcbc9decccc9bcbcebcbc889d679a
col30:   6b9955bda9766aabaacbbfadebc9b7fcbadbbc8ad81a75bceedd8a99bbfc8da9ba57ea9f9f88ab96
col31:   698babbbab99acaa9cc4acccb75dc7baceac9ceea88aa9a97bc7edbeedfbcc57bccbca8a9e8ebc6c
col32:   7c7ab6acb78ab79baa98fdccba8dcceaabbabda9a8acadcb99c8bf9d9cbbdccdda888d8e96bafdbb
col33:   4cf9789bd6caca9a67bbbe889ccadab99ab8e789c87dcfbeaeeadbaacabeb97d998acbaa86d85bc6
col34:   a7aaa57b7b769aa8bcc7acbbba7c7df8cbe8dbcc8dd95ede9cdcbc9acdbf9fdacd8a9b69bddd9bbc
col35:   a7a5d9c99a768ea7c9a7bbabebc9eabcbded8ab8ae79bb7daed9cdcabdddcbaedbacaa786d97ca97
col36:   bbc79a8685ab896b6b9798bc89adc777dbadd8faccfcbb9bbfbbcecbddbb88acb8c98babc7c79889
col37:   897a98ba9aa9bbcedcc9cbeaedaa99adb89f9cbdbccd9ecfbecbdedbdeedbeb6cbf9eb5bc987ac99
col38:   8aaa99ab69ba9acebccdcacdccb9997edbdacbbda999dcbebcacbefcecaa7fd7cccaceaa89cdcc7c
col39:   9dcbc4cb96b66bcc7b8dc98c9babbb7dddcbdcbeae9aabbbbabbadeabeebad9febbbcc6bdc95b5bc
col40:   79c7bb9babdaab9b9a7abd9ab9cbfbcf8aabcfadcbd989b9cbacfdad9abdaafcdcceaa8cfcebdaa7
col41:   caac59bac8cc89dcabdfcccbdacecadcd9abaebdca99ccce99aaab8ffeefdbbccad8c9cb97ddaba9
col42:   bb8878aabbdaadc6e87976fcfcb8eb977a8deccec9bedacf9baedbc9bbc9fea7c99fc89cabe979ab
col43:   c94abd8d9cddedbd9acdbedbcce6db9bfaa8cdccdcda8addfdebbc88fdafdff9bbbcbdbadcafb9bc
col44:   db8cdc6c689ebd87a8987bdbb69bddebda8bbcbaeeefbdedbbcbbbacfeb9a6be79f8c9c8de88cad6
col45:   8a9cb78cca7c9eb9f5dcacb9d9ceeadffd8cbdcd9a9bcdac8c99c9dbea9ccc799f8ecbeca8dba76c
col46:   77acd87dbb9abdf9a8abbca87bcbdbfceaaaaaecc9cea8ccccaecbb9abaafbdd86addcb9989abeab
col47:   99b6b8cae9da6bfcf8ccabac8cadea9eaadefa7acccbd9dcfcfbddadaefa9bcfdedcdcbf9d9cafb6
col48:   bbcb6999b99cac97c9cd6e8afecc7abcd9dabdd9badd4fabcfea78bdf6bbb9faae7fbcfba8a8e99a
col49:   78bcdb8c98dcf98e9e9b9b9a9cdfababbc9ffabfb6ffbd9fedfbbbbeaec98dcbb7cfecadb98caeb7
col50:   7acd998dea8abd9bae9a8cfba9cbaede9bacddb8bbfdfaad6fcbfdcddb8bbba9ddbda7cabcdb9bbc
col51:   b597add8a55983877998aca3d9b5aacbaab79cbb7adbbaab9c99cd479966aba8adab894a8889cc95
