ROC:	 BPix_BmO_SEC1_LYR3_LDR1F_MOD2_ROC0
col00:   a79a8d679a7b69499685b778ca76ace9857aaab99a78699cbc99bca7d9188ba8a84c67a588656897
col01:   9798b9895d846d7db5b9b65baac9b5beeeba496795af989f88abe8867acb97c97b64d8cbab865cb6
col02:   9c5a7e7558ba8b89c8b8d8a9b999b8a577938a8b9b97fb7977d5bcbb8889a6a789a99fa798acbbf5
col03:   a899faa4a769cc9979ccabeb6b6b9b986a78cabc8c77cccbaaaabb6cac688e7c7c9acdceb9b9ac8a
col04:   779a998837789a9dca5aaba7d8bb9a77aaab4a7c97db9abcbb9b97be94a89db7b98a78a37cc68966
col05:   179b99968a7ab5aa996aa9b8c89dbd9eb98ab7d867b9b99c7afb8beb99a53778b87c9995db979cb7
col06:   875b88a7a66b99787a94aa6a9aab9cd6acbdbadbca4cbb8eadd97b999b67a8ca78ba68c895bbd686
col07:   487bc6a98764a7d798ba86c8895a63cc8f8588db797ca7aa9ccabfb9cca889968a67ac6c99a7bec9
col08:   8a8457ccc6a9878aca88a96b7abb99a88cc9cacaa49a59cda6c8598e78a7ab98798cb9ae7779a9a9
col09:   5ab5a7479c88bcaa998aa9c8dfaada9a97cbcbbd879cbbe97c9cdacb4bfdda8ccaa7b6c5bb97a8f4
col10:   c9b66a9994d9ad47a9c69acbb778fddb99cac9bcb9cb4d9ab9b8daa8a7bad667998e486995acac98
col11:   727976b8a99a768cbb928788a8bda9a656ab6e876ba8dd98bca9aa9996789aaa7787aa9cb867baa9
col12:   599a97b997b688fa957b7a87c669c677db67f889b8c7c79a596aec6ea898b999497a8caaacd6676a
col13:   6d69548bb6b66bba7ba8a79d9aabc7bbdaa88988bad7d88dca77c889967c7bb8d89ca55b9daab8a6
col14:   a7b89868ac787e73d6c9a3a789ba96a989daa88d199bca99b8a7cebb989a9a74b95f86e9657886d4
col15:   65869b8958bb698a8b8699978aa8a7cbac96a67a5bfaa9699b77886ca899b8d57a9a9b57779d97a7
col16:   998b777ba7b26cd867ab8985a97b8bcb89b8969ae8678877e88eba8a9557baa68a6ac9f88a797398
col17:   aaa7488aeb987ba66877b9a6566a99767b9a897b67896db5a7dbc399a3ab88ab35a5367a86845767
col18:   38a6978c998c88798598c8bb9d8b678ab7c8888983a579add5bca99a9c6a47799997996a97765679
col19:   154978a4eac5698a4ab6897a9da6caa8799689998f58b75989aa996a8ac896fbbb699df76a249686
col20:   972286b97656899a977b999d888359bab75c95b97a8988bd6aab65b79c8798cac6e5b8a7a6c5ab47
col21:   6ab756bb59b6b7bb88aeb797a68a7a77ab3a9b5afa8bb8ca99989a5d8a9aabc98aa88becbacbaa87
col22:   9d9687a5ba8687a741ca9758499c977597d838cd879ab8fa96a8e976a6b7bb674688869d9a9c7696
col23:   99b5579997999ca58d78819879baa69889a866a5b95897c66b9579e5a9f6a7978cb99666b89a3a83
col24:   97c4a56c869c5c87587bb6c6db9956a84c98788da69b6d7984a88ca6dcbc8c867aca54958a94c769
col25:   a854999f7a4b798db9877885f8b9ab76df778ab97a79a7ba978a7978f7565795898cb8e8abb897b5
col26:   97bd98968ecc79ab79caab9e78aecd588cdefba99fead98e8b7998eaa8acaad979d67ba8bc89ed88
col27:   c9a7a999f8ac8cbbaa9d929b968bb8ebab9f6cb9c6bdc98ccbe77ca8cd9ac8dc76946895b8a7a59b
col28:   7a6b98b7cd85b9b7c8bbecc95ab9bbab7dfbf7de9e9ab76e959ca9ecdb999a8b69fadccba66adab9
col29:   95a89abacab8a89aaead8dbe9ac9d9bcacadfbd8a677bbbdaeb978c4bad8a98686cbb97766a8e695
col30:   b47889995bd76d5a7b8c8b9ad4eaccbdc9dbddfa79add8caabdec9e99b9caca89a84ab959ca27958
col31:   b7c999a7daad57cbc9dcd5d98bd6b99db9ccfbcdcaea8aa9e95cc99b7ea8abc9ba8aacda9c896a7d
col32:   56a9a6e59ca97c99da8ad7caadbbcbdcd69ddccadacd5ddba7cd97cb68a398d3caa88e83b6c5c7ca
col33:   aaa88ab3dbb99a8bbcb98cacc79dfdeef96a9dfadee6bcbbbbbdcdc69fadbaabb9ad977d7bedcfe7
col34:   c9d69cbb8978a9ab8aac9c6dabafecfd9989b9a9cdcaa9dabed7bcecc8d96c8f9878bbce8a9f98f5
col35:   8dc9bdcce98cbccc9abba768f97fccfecf9aebebcace9adcfbf9bc9b9b9d95aa8cb98decb9e9a935
col36:   89c99bccbcea9eb9cbb9eddbb6b98d9edad889e8abbcd97daedaceacd86c9c86a8d9cac39ba9ce5a
col37:   cbad9687abaeaab9aa7ccdcf9bedbfaaab66a9af8ed9efcdfdbfbecc8bebdddca9ebbbbd8c978b98
col38:   7acadfe8e99addecebd89ae9abbcca9acbd8cba999ebdc9cdbcc88eebeba7b7dcab98abca7eccdbb
col39:   7ac7dca5985a6abcbcbdea9c8b7be98abfcabaeebfcdfe8befadcafbf9ba9bccf99ab6f887cb9eda
col40:   989abcaaaf8ced78dbdc9acf7cc8dececda9aaaeabdcdfcd9a6e9bcaacbbdd9bb99ba8b9bafd889b
col41:   aa9ebcbd8ac9bbadbab9dcffbbddb88d99e98decbbaff8ddc5afadbcd9c9a87bacbcb899addbdc9a
col42:   ebbdc9afa66ce3ccccccddbe9fbfaac8ca9d8cbddf8bcdceebcb9ef8ee9daa88ad8ebeb8c9e8b9c5
col43:   c6ecebcc9a4cbf8cb8fbbbeacfafebdcbbbeebc97bebcdcbadba878afcb98cbbaccdba9af8ddf9cb
col44:   7cbebccbcd89ec9b8bc9fc8cd999b97bd6b9b9dca9afbbcadaadcb8f777a699cec8fac8cc9adcaff
col45:   8c99bc9c9aaacba9d79b9ecad9aebcaaadbcbecfcf8bdfa7dadcbe9b98a6babc6cd756c8b8cacca5
col46:   dab775cbacb8c8b87cada9badcbcd7dba7ad9cdd96b9c9f9af9bc9eccd9a89e9bb98ab6b9b877d99
col47:   998d89b8bcdaeacaa8eadaccccdcfd9facdaedaccedcccdbbda89b9bbcaa77a9adaacdc3aca8a89a
col48:   a7c7aa7e8b8eaeae78fa5aa98ad6c7adddfbabbdcee7bddc9baabdbfaba9fc67f96eeb68a65bb9a8
col49:   ab7cda98c9768b8babbfeaf9599adcfdafdada996ad88ddc9abda5a5c9adaeadb8dccaa866d9778b
col50:   78bcbaeed799b3fa8da87cbfb97bfaccdfafe7bcc9aa7baded7c9ec7cbca98fafd9b888c7799c8c9
col51:   88a94cb77a6b87cda99aa8b99486cda789a8d899aa86a5acbdb89b9c995968896694686753a88b85
ROC:	 BPix_BmO_SEC1_LYR3_LDR1F_MOD2_ROC1
col00:   25627926285345566656b46845966797c9aa6879b967b6aa97788a86aa587bc578aabbb86db597c8
col01:   53469a74871bb6a87c8a9aa9c77a79798a99a5938ab89a5b8bc7c9b4c79cca78bbaebc89a9bd8ada
col02:   7969769778862ba434768796ab88b786c56989985ad9aad76879acb97c6ad9b8ae8ac98c6f79de7b
col03:   71885466566666dd75897a96ea379baa857b7cb97a59abcfbdabdaba9a9a8bd9dacb87ac49af8e98
col04:   8777969bb7a5745c7b49d8b69c47a9a9b75cc7cb97c6b8959ddcaaa97b6ae79b9cbae9adb9cbcabf
col05:   14862757936677999614956364969e89c998a9b99cc985fa8ac57fbb9c78cddafb6eacadb87a8bab
col06:   156565958a9659a9abb773a891ab69b9c88a587a9b8d9e997bbb99b8b96cb6a489cabeaadcb9adb5
col07:   8427a3865a868579899b52b5daa9dab7b6e3a68ab9a7a7abbcaacc97c6d9eac9bbcca8c9dc8d8cab
col08:   3264487978866a7884698a78978a656b8c596a99a97cacccb8899795ea6bbbbc8cd7ccdcdaba6899
col09:   628596b95aa5c5b9c79a9a797989a78b8a9896b8b76ad9a6cdca89b7d9ddd8df7cf8dcdbd9dbdb97
col10:   77762358959658a6977497d6a6d38876bc697b778a8885996f97bc7aa85acba76ae98989bc7997cb
col11:   7a82876559455627185586653d6a8b9886967c999b4a6ca79dcacb7c799aa7cccc899a96db9caeda
col12:   2654a768488757788694a9a9375968b8c69a776bab5e98bbaa9b8d6699eeab6c7779568bcbbad2c8
col13:   4249a68b5686a67465da5666a8998797a9a96ac979868ac95b8c87d988d88ab9b4fcc778cb8babb7
col14:   5757522755869427788447a98bb667499898398b8a98a56acd97c9cca9c6abbcbb97d69788cbdc78
col15:   9986a77667b9aa3693846cc958985b89aa86c6899ada5aa979bbccb87aac9ad9dbc8b8c8b47da89b
col16:   27484975597848559556b5aa8c7794bbbb9979da6d8c7bac9aa989adad89aac9c87ea9ad9799fcab
col17:   6637c36463735884c75979b4258897a8d64c8968ca7ab7a898e968b26b8596858a9bc5dabcb8ad6b
col18:   7452448343876a26a7cd86a569a897b86ab966ba777a985799c69ea8abb8d9dc9acc6d785a787a85
col19:   1384877487768477786736a45bba7999a6a9ec785b7b7cabc9c88979abb979bba88b8b8a989a6c96
col20:   55b45a3564476a86b19b798766a896969957546eb6589bb68a9c96a99a689ab276b8cba9c4d9b953
col21:   8419742a71ca8799669796db8aaa8a9bd957b978a9ccd88aed87a9b7eaace979877ab89cbbb7cb8a
col22:   436657465b36665877938b9489bcb7bc89799568ac8889a9a7ae9e957d899895b8e998886e89b9aa
col23:   9462775726886695a4769c9a686888b6daaa98b9883ceaa889799b9cd98aab99bbabbbbb7a6da59a
col24:   765166536585ebb458996a9a987756969b85688ab89bbbc99aadb7885bdc6c6aa75adccb57beba99
col25:   64517557551567869b7496a98985ca8c78b89c86aa78999af66ba387dbbabb9796a7a7d9a7998aa9
col26:   5a66496898ba6a8778cdbb87ab9aebaa8cadbaf9a8aba9cf7dada8aa8bba8ecbbcca9dcbce8eccf9
col27:   d658789939a59aa96abb889978c7a8aac7b89bbedc9cadbdeab6cc9bacbcfadc9abccacfbcbbcadb
col28:   9587967767d77a67aa6bbb58a966b997badb9abddaab6bbc9faaba9adfed7abccc7c89c9ccdcddab
col29:   44674a8767a9a84937ca9b896a89daadb9ac9ab76b7d8cb8bcaeaa9acfcfcd9ded8a9accecd97d9c
col30:   6865a8785a989b7349ac5888967ba988b8cf9abfddedcaace99dd9fda8aeb9b9c8bdbddccbcdcbbb
col31:   a698b9993986bab6869658a79886bdbccaaabdcdbb7d9debd7d88dadaadcdccddea8bdc9cbfa9bd9
col32:   9875c8499558baba69898ab95bcabbda9ccca9febaab9cdbdfba9b8a98decca99cca9dbbca7badd9
col33:   2949a6899ca95cb58a8c7ad4b8ca6b7f8cbbfdbbfbccf9cdaafa5bacb8bbaabafc8b9fcbbddcfedd
col34:   9a78ad72b5abca7ad3988abb4a9abe8d88aeaabbd9aaeb8badca97baceecadadb9b7cbceadccdbca
col35:   85798aa6668b9dbb8baab7caa8968d8a9d7caa798bb69bbedab8aedbd9abfddccd9cecadac8dbfcd
col36:   a75b99845c6779a899c776c98d4ac68799b96cb9adcbc9afcdafecd8cb7bdaeecaadbcaa8bbbf9ea
col37:   56b68a66b9acdbe7a68aabaddadab9baae5acbf8bccbbbacccdcbbbfebaabdbcabaccaad9aedafbd
col38:   8ab6697a9dd894a4a7c9eaabad768aedae8bbb9a6ddcd5bcdabdcafbf8ddc8fbdaddccbfbecdccec
col39:   6b763687a8acbb65865ca8db9ac8f99c8cbabbbcaceb8ccaaadaeaaaedfabecfedcea8beddabba7a
col40:   88776a468b87777bb9f78aaacbbcba8acdaa8cde9aa8de97caabfbafec7fc7dacaeefa7ebf8cecaa
col41:   9946596949aa4baadc6ac8ada7aaddbacdbfbf6adbdcdc9dc9dbcdd8cadcfcddaeaadd8cfbbeece8
col42:   b69a98698a9bbeb8fc7c48dbacdbb9d8baeb99f9baaaac9d7fcbedeee8deaecfbeedbbccab9ecae9
col43:   9675b9a5a9b289aa878da78999b5bbeab8e8c9ddfbdcddd7eacbccefee99ceddcca9dacc8cffbacc
col44:   9acc7796b9cca97ae79c66cbacbde9dccfa7ecebfaefcceaa9aaa8c9abeeca9dcebd9dfcbbbdcdac
col45:   999a7a59a7a97a7be5e889ab5a88adcca88bbec9dbfdba8bcbaccdf8dcbdbf8eacbacdcc9eebb9cc
col46:   88c6aa599ea9a8c567b9c97aa87b7e8a9ea8bdac9beeacbaebcbdcdf9daffa7bacabccceddb6cada
col47:   8a87a6a959a9b9aaa798999caabdbadbcb9aba9b7ddcbcea9cae8bebadccaebbffc98d8cba6cc7ea
col48:   87c67aa427855b7bdaa798979bbaab9b7acddb9a79faadc99bbbc6bbdcdcacebe9ea8e9ed7c8dadf
col49:   88919a8b5887a9c8b99eaaadbccf9bbec8baa9dcd9c8b8cbc7ca99ed9fcbce8ede9e99bbbcfafedc
col50:   97647867e469cab79a99cf8bb9adaaa7bdedcecabcdabab99be9aadfe8bcfdfee9cc67abbccbeafa
col51:   7575686767656daa94258678599dc7d99864ab9b989abba9a78a9a9b357b7da69cbb8a998a69ea99
ROC:	 BPix_BmO_SEC1_LYR3_LDR1F_MOD2_ROC2
col00:   59667a666a7898c57bba6d88c7b895caad9686b8749a7c9999aa8a459ac8947a6ab75c8694965584
col01:   77298898a6b8a8a9f999a8f97e97ab759dab68b9c9bae59dac6998aa97b7ab7b8a8b95bc59aab797
col02:   9ba8a599a97ca8aaeaa96aa7a7ba9b68886b9869ccca8abbc9a89a6ac94cba85568a7a89d8baaac7
col03:   759677caca6ba896c9c5997899c99c995566bbbbd6bc9ab88b6d9a8c95ab7d769bcab949aa8a9997
col04:   879484a799888799bca9c8b97cd6cda9a87b99b97f9cacfac69a989aa9b8b8aa66b9ce88958a96a9
col05:   7789637ac8a968f688b8a8bd9da9dcdcb9ddbca9a8c8cd4a9898c7487d8b9a99a4eaaaab9575b958
col06:   98b59aa699ccb59aab8c3a87798ec9c98cb7b8cc7bcedacaa8a98b8baa76a867e5a579515b5ac867
col07:   797877996b5ace9cba7b9ac8b39aa88b99a69d6da69b996d89c98a8759b5aac679f9b57bc99e78b7
col08:   6651aa9977a8da7d7699b9a9aaa78b8d98abab999a79bc7b799a788b6a7b998793968ba8a697dcc8
col09:   6b687a99958aaa49c7884ac89ba3cccb887987ed978da849ca9b76b9a9adc87db8a587888988a489
col10:   388a9a6b95896dcaaac5aaa9d686dc87db9eba8889acc7ccbba97687c9c97bab8aad889987ba7775
col11:   364588846995a9a6797e9878ce8ab7996b968ac77a898a973d46a7c9c88a6c667798a4b989a56aa8
col12:   46568b97965aa87b898b8bbe7a979b587a7b898876aa867c997c929a57ab6679a7ab77a87c9b8763
col13:   66598bb8ba856e7ac759bb68bbab8c6bb87acbdadcc78bba69d9bcbec9b96eba7498577aa999cad9
col14:   896456a67b686a78789ab7c898ca7c87aaa7a9b89c8889c6baa62a9bc7dcc47a87a68a87c7a88899
col15:   74667695a775d79ba868aa89b6a84bdad858d777a6a798a9a88a7b8d65aa87ab57c676c9a47b6376
col16:   656699b67a9897da9c879aa6999868c9c9b57fa8867ad9a98966894be77797cd889c6ac7a7ad8855
col17:   7f576a98c8d787a8679c9aa65c82d69ca978b7a77aab74768988f559bc99b575889b996ab8c49857
col18:   a77c4a57c8bd765a9ca9bc98ca87c779eaa8dda75cbca57a5798b8b586a6ac959aa8aa9798b8ca9b
col19:   8567a85587788987abaa5b9aa87ac997ba7a76b89899599bbb98769d968994899897d66c689897c8
col20:   bab964adb898a986a59a9678ba7b385a9a5ababb8a8769788aa87a9c8a9ba9a7d887cda7c8b6a2d6
col21:   566a876adb7cab785578bba58c8bbb8c969aa8c986a9cac687b8bbb8a69eba8699759ca68668b564
col22:   5995a7a987886aa6977a78b8658b5b6c9abc9bdca87a74eb9aaaa7a988cb7aa797d867677ba69886
col23:   8891897477868499866a7985b9bb9a897b868895d8996a9c8797ab8d769b848799897a6957a88764
col24:   a58685698bb4999583977aa9a6d97acaf8bbc99a799ba89897977878a7a8679a74c7aa7868c78796
col25:   896976788c566879977c9889cc65aa8779b68c89c9999b7aa9984888879678865768689c957778d5
col26:   6966c8bb69aeb28ccd9bc8a99ca7b9cba897bfaada7d99bb89795aaa49bba7598bb795a98c6a79ec
col27:   9999b5798cc6d898b5a9babb7ac998eec967a8597c5aba8bda898ac9aab89a6b636a697eb97ba774
col28:   788b788a8bd9caaa68badbccabaa6c9db9ac9dde977d9abbdb8b6dea8bb89c96be9697a79abbc7a8
col29:   598965a869a75b8bbb9d8ada5e9dbf8e99bfbdbaaad9acc7c9a9cd7abb88cc79aa876b9d8b97ac99
col30:   c8ada8e9a978ec59bcdcdfadbfcabddeb9aaebdccebc779b8bcecbb8bceb7c8aa98fa8d75dbbcc8a
col31:   9d78a989ab9888aa9c9dccbc8d99dcbaadccbcb97a6de6ac9d8b9b87efab8bca9c7b97bbcabb9998
col32:   d9cb6beb8cab9ba9c9acca7adba99dc8ce9a8fc98eb9cd88b796d89cada8b7bc879d9579bb8ba8c9
col33:   59c9c6898bc9bcdae9bbacbc8cdbbeacdbddbdbaeeafdba98a9a9b95eb9cc7b78c978b9bacba8d77
col34:   86da8ba8898999da96c3cbccac9acbb7afd9b9cfccfc46c7abc9ebed869ec7a899cba77fba67baa8
col35:   7a99aad9cdb69ebabbeabdbbc9dcccdec8cdac9cecd8cfac6a99cb8caa87cbbd8a76a87988bc6ac4
col36:   ea979b99bcbbcfd79cbaba7dccac86adbeabd7d89cbd977bdc8ac7dabfd989daca99ababaa99d87a
col37:   92b9a269a88bd8caaa7cadebacce9dbbaf8bae97adbbdc9cb5cecbdc9dbca9cc8c6b996eb9cbaa99
col38:   86cafcb6a96abdaccfcfecc8aa9dababcc9abafccc9ac8abc995ad87d9baac9b989a8bdbaaa68b8b
col39:   8ab8aaba877f98c9d6facabbcbcfb99ca79abbcfabdc6edc4fb96bbb9bbaaa986b7aa5795bb8b999
col40:   9b879c98fb9bec8dc99cbbd7a79d99bdbba9cbaadccb9db8bac68edaaca879baacbab89adc98bca6
col41:   6699b8d9f8c98c99ba989ad8decbcddccebcbbfe87a9bacbdbe8dbcad8ce98b9dc8aa7aafb9c99b7
col42:   aab6958bbb59eaa9a9ab9bc6ccdedd9ccbb99acbda67889ecb9b8ae7d6d7987ddba8996989d79a85
col43:   bbc599dc7a86acccbbaba8dcba9ded8f79db5bedfb988bfcb9b9899abaabb9aab9bdacc888a97bcb
col44:   cec9baa9797ccbca8a9bdbbec9da9abbdbcba9c9d8d8eabcd9ce8cba8abb8b8ab4bedaa77c9acba7
col45:   b97b9b97899db5ad7ace9cdcabbadafbddbacda7ecadbacbf7a79a8c778bda9d679e876ac7aeabb6
col46:   ac98a9ea8c9e6abab8dbab96b9bcaac9b89bcccccaba98d8afc9fb7fbdbbda9bacec79acab6d7ab6
col47:   d9b88aa87da89c9aba8a6acb9bd6aaaccbe7dcdcab9ac6ebabd8899db5ac7aaa9868bde9d998aba7
col48:   3ebcea7acc7ab8b7d8bbac78bbcbb9d9c9faabbc9abecc89a9babba7599a8bdbc7ac9cbab48a6b69
col49:   ad99cbebacfacbbbabd97acb97edaccbb9a7c8a8cd8bf7abbcb88b6dcbc799acdaa76cb57b8a8857
col50:   a9a3baca6adcca79a8ea8b98e98acbc6a8ccb9adaeb9dabcabcb78ad86d8a9a6d886b85baa8cd99a
col51:   a438565a9b68879a7869887a9866ca735a56abbb5356b88a7468cc996c659a5894652b488786ca94
ROC:	 BPix_BmO_SEC1_LYR3_LDR1F_MOD2_ROC3
col00:   557683565b7dc667b888856958977bc65b889a8699d969795888897976869697b677958a66876a89
col01:   b588589daa68cd89ba4c84a97d589aa77bcabbcba6c8aada78fad9d78686ba789bc9b867b97767a8
col02:   a93538a79c67cb177785b8b67c7958bc58d8b8bb88ddc6ba998a984b7956c887aac9998668864876
col03:   6a8b7aa6399572bba47585ba996879a769bbd88aec69acd8575aca8db79b7aa8aa68acb9aa87875a
col04:   9e94d8e64a9a84a4b9c49d63bc9c788799497d8b6bb695979b789aab98ac6a79e5e998c9859cc9a6
col05:   a4a96e587a7a6ac6da99758bd99878bbaa798bb5f9b9a9b8999ac9c8babfc9d79c7877aa7e76b68d
col06:   8bb66588a9a8768979a987ab5cb8c9c8bbb5aac9aaa7dfa99b95b7b889a8ebd7b68855d795ad7bc9
col07:   5577a9998876765a76668fa7baaa88aba58bc8b8cb89e89b8cbb99b5aa87c9e984634c56567887c8
col08:   698589ab89d668a687588787aa96b778a9beab98c7a9b7aa7d8895aa7a8b9b986b88b5c846999aa9
col09:   a8798ad8aa74bbba9e7aa6fa4bed74bd8fbabf8ece9b98cdaabadaaaabcb8ebc87b67d989c7a8b66
col10:   a95517da58778ba6799c7bacabc8c93cca66cabb4699be7a9abbfba9abcd888b4aa5daa96c9a6a95
col11:   6767b8768b6789a7c9a78565a775958bca87ea8878ce588b8bd8987679cd9b8bb77788998a95b992
col12:   a97c8797a7c86cbc6dd87b9b7a9ba9c7ad9c9b8bbabbb77c9bf99a79d769977a6a9757778871995a
col13:   699744a5aba65897ab656998baea7aaf76baeaeddbbcdad9adbdbbcb9b88aa5abda6b7689877dc97
col14:   83c66ac8c8c769bfa797994b89a8c8ceaa8c9698b999968c9a9c4aa84949ea67b7a77ab98a7c36a9
col15:   95a994aaa59a889999c59a6b786beadba99a4abaabc5adcbdeb999cc998a99bab857a9a8c878e976
col16:   78565a8bada9b8bb8aac969bdc65d68bad878b899499acc989b88379ad699e6b8ac87278b69b8f45
col17:   67b7999769757c86b6bdc4b73c8799b388ac88d9b9bcdaa996aa89fc9996b9bb6b767b787a989ae6
col18:   9897984953bb58aa8a79685aabab864d98bbac7b9a7abb9cd9b8b76ab9649a59779a79796a84ba98
col19:   898399c6868896a9ca6b69bbcd95ab9a79dd8598bba89898877bcae998948f979c8b6b7ad5a8569c
col20:   282677a59765a783978d8788a8857c6796e968aaaac88b9ac8a9acb9a56e9b759547a99697a87985
col21:   9758a999766859bb87bc8b8799db9bb77bcb9ba8b7e7c9db97fe8cc8b9a9a759bb9d99b9ccb969b6
col22:   248b9587899d7959a9ada598a8c8dc6c698b8b887a9c7b9a7b69cb679c767c6ac79978a67979f999
col23:   6752878d8e3c5a597cb6a7c7887787b8c99a699b79bc9897d969796cad789a96aaaa6c6c98a39caa
col24:   856376a276a65d44a6ad9a58887799a9c6aa58b958a9999a984c56975887788cbc78a98677859848
col25:   866578e955aca77797a76a8987a68a9a8b96ab9aa996bdb9ddccb77ebabdab9db599abcc6cbca8a6
col26:   57ba58a799977a7b99bcefdbf8cdb9aa9f7c5cabaac9bfa9edbabb6cfaa9998a999789a6bedda7a8
col27:   7263dadbc8da6e66b867edd5b8c9abada9a8e886dcba9adbd9ccfc998fdebdda9a9acb97dccbb9b9
col28:   574ab6b9998b9ab677b789a8bcea99bb8c56eadaaa8699a94bdaebb9bb9c9d8e9abdba88ac5bcaa7
col29:   a3bc9559c899cb888bd7acc7e5dafa6da9caadbb9b7ccbacfcdddab88d9eca6aec98badb8aca7baa
col30:   b864886b4e7cba8b899babadcb897cad8c5aa7bfcbc8ddcfcc9ddabe9d9cc8dd9cbd7cdbda9cbca6
col31:   9989899baea8a997899bdba99cbad7fc8bdb9afebe77cb8caacaaddeaaa88ab79888b987acb4897b
col32:   9ca4dba9bb4aa898b8f9acfaafb99cdcbca5dcbbabc9fedbaafbdca8a9eccb9acaca8f8ad9db8bab
col33:   6799c4798c99ebe8efbceb7ccaadfccdfaf7dceb9df5ece9daf9e795dc9b8d88e788cecbc9bcb5d9
col34:   75999d8ba9aba7c8aacc9aeb7a7cead9eaca99abdbd8aeecbabbc8d8aac6fcbc9975a98caca8ca57
col35:   8fbb98778dccb999cacbccfcd9bedadcdbddbfdbaabdddbacac9ec7eabfabca8cccb7b87abeaaba7
col36:   99ad95bcd8aa99a878bdca9ec9babebd6ddcadedc9fc7cccc78cc899a9dafbaab9fca9cbadcbdbba
col37:   6b6778da69abddd9d8cdef9a6addeacfc9fcbdda69cebdfdbbacfb84db9c898aca9ea797ca7ab9d9
col38:   9c9988878cbcadaacbb778bca7cdddacbdecbcdcfbb8afdbdf9cdda9c9baacbce9bcfdd99dcaa9d8
col39:   8a88bddbab8c9d9c8acbbdbce7ec9bb9e8d9dd97c8cddcabaa7ab7a99ab9edbb7a9ba8bc9a5cfcd6
col40:   7b8be8ca6ca9b99e87dd88cbb8bc99ec9bd9bcae9bf7bbacfacecaacd7ca99bbdbd6bba8db7ad8c9
col41:   bb98cbb8bebabddcbfddbf9fa9caa577ec8cfb9aabed9e9cc8abceabbcbbe76abbba76abc9accbbc
col42:   a796ccaaa978ecd8c8bbeaebed8cccc99acd6bb9bce9db7d85f8f7bd99cbdc9baca769c87c6aabac
col43:   ec5bbbdab8cddb8cb7fa8a9bfa9a9fdebfc99ebadc7eacbfed96f98c78dd9c9bbae9c9ebb9cc859c
col44:   9be9ead9cbdcbc98c9c7aedcadbafdbbab7a9d7bb8caacb8cbaeb77cebffb5faa7ba99aeca9bcbba
col45:   dde779f9ab9bc9f767bed7ded8bc7babbeb9bcd78bbddcdbbdaada9addcb9acbabf9be8dd7cd69d2
col46:   97b98be989dbcb9b6ccaa77dbdace7eeeb899bdcdeec79da9b9ccabddcb7cadc9aa9998a7ec6b9d9
col47:   a99becbcfaaacd8afebc89a98e7dbcabdb9addcdc88e9cdacadba9cccdddaa7fdab98d97bcecdae7
col48:   ea87addab9bc67adafbd9abb8bbeeaea8b89d8b8a7d9cacbbb9999d9dafdc8bbcf8bbca7d9cd9dfa
col49:   4d9aeb5e98eebaccdba9cc7fbecacdaa8cebcefaeda8acefad6dbbadaacfad7caba85ba5a8bca96a
col50:   ccca9689ac6abe68bbbbe7eb99adfadde895a9eccbb9bcfadca9cb8b9a9bcc68bc9ccd6ba9cb8888
col51:   6758baab87d6c6a48a79797698f7ed87789a78e57c9879c79a899ae884b8ab998996c89838547664
ROC:	 BPix_BmO_SEC1_LYR3_LDR1F_MOD2_ROC4
col00:   9886b8b7659a8687ab989993688bc887a8889a9a6996a59897755b7b7499a8a4aab769679aa7969b
col01:   7588bc6669c996c3a9b97b69d6a4c997a88b89ab9cbae8a3a9a9b86969cab4da6ceaaa98abb8cb8a
col02:   9a65769889cb8847aaab97b83a6cd7aa98bc977a97a86887cc6ca7c799abda9786b5acb8b5898cb9
col03:   57ba9799b87ba8ba87987acacb99bcbd87cebbd9bbac9b769abba6db7ab899989d68b77b699bb998
col04:   9996e978c9b9bec7d9b7b9a7bdbdea9bbc9d98dacaa985a98ba5c888afcaa84a69cab7cbaca96a82
col05:   9b9b78469abd99989997b96bac99acb9dedaa5ca7caacbaa7d9cb9bb9886d77c87c7f78e89b9ed75
col06:   66a6599bb8aa6b8a8a9b8b9c8974aaab5698b9b9bda7a87979ab6bcab66aec8db876b87ad7c7a7a5
col07:   e7c89b8ba6a688c98d7b97b4b7c8787b9ab9e89acaa97c8b6acc9cbb96aabbecb6cbaabbde8bbc75
col08:   968bb689b6986cd99ba5b9d9cda6986848da7bbcba799b987a699acbb9b769b8aebcc8589acd4868
col09:   c97c89f88a68a999b88888d7abcb8878ddc8bb9bbc97a7b996b7aabadbccbbbc9daa8a775defb986
col10:   9a7977bdd89d98a76ca99578c7a8a9b8bbccab8da6ab8b666a8598d8cecbbcaa78c8dbb8cbbb8c7b
col11:   6566f7899769c6877b788a9cad58aac7b79789b6bcb8c89d8687bc892ae97cda6c65a4a9b9d9bcb9
col12:   65786a73d9b75b4788babb98b7ab85849ace77acfab988b77687973e77996877a9b6bba8a8b5655a
col13:   79969586c99a9daa9aaabb7bcbcabbeaaaca9cb668ab9ba9fb9ca96cac9da6d68bb9dc787878bd77
col14:   547989a89eaab977aaeb6aad97ac9caba48a989ba88ada6886887785b5ad9bc8aaa88b89b6b56a97
col15:   48868aaab79b6caab8ba99ac5fbab97dfdaa9cb69b8a56a79a789bddc99b56c8a677af99465789c9
col16:   c58a96c79aaa6b86899998ca9faa8bb79a89a698bca9ad99a67b977cbbd8bba8997cba579c99a8b7
col17:   595689d758667b9998d997aa99b85c8a69a699ba69b899a84bb8577b3a9de7c8727c877598564984
col18:   7668b9b997977b87b65c9dcb9baacbaa99cbcbca8ea7bbb7999a9887b649789c94d5678a9384c7aa
col19:   aa8a86b969cd8cb77ea99a98be6acbdbac79b8b9c9ba7bcbd87896c977ba7c558a6c9a6767a698b8
col20:   737a56a8eca69695a89daba7ee7889a9bd8ab99b968a8aaa5bcaa86ababdbaa8686a6858864ba575
col21:   bab8d77aab9577d6895aab98adbcaba879babd8b6acdb57eb8b7679c8e8cb68799dcb7ababf7c978
col22:   57ba9769adc4c7aa96babb9cc89a66779a78cc76a849cbb9b888dc6776884a75768b8975989c7aab
col23:   35c5b79a7c9a79a9a9e6a868cca987d989aaa8bcbe9c995a74ba7a88d5764834ba84a7a95a775858
col24:   6796bbb66cda789acbb67aac75ade638aeabaabcaaabb5ddad8bb4a796c869759bb7a67966a87664
col25:   757a88858acaaa97f958a8c877a9979e8bbc6a999cac889a9c977cc759b7c778a88687775655e7d8
col26:   987b5d99ad69c88d49bd9ddaeacaabcbc8bcebbccbd6fbddaa9d8d9ee4aaaa8bbba77978a9aa9a58
col27:   8caba7c69c98bcccddaecd79d9fac99b8abc87abcd4a7af988b6cac8a7d9cd6ab7d9b69aa87999b8
col28:   7abbd9a9c8ceda9baf8dad8aabcd9aaddccbcbbbe7b9fd88cbec7ccbb5ebf8eb54aa7b7a798abd86
col29:   a9abc8b7d99dfc9bbc999fe7aebab6bd79e9bbbbd6d7bf9988897aa9baeae8c7a998b99789c7898c
col30:   cb9abba88cbcafbbcdc9aebb7ccccddddccd8aedb8afbccba6abdbde9db9ab6baa59785a998996aa
col31:   979bebdd9bcc976cdcbcfe8aab9dcdddcdceaabfed9ebacb9bcc9b99aabbe98d7b99ea88c6797ca7
col32:   9b65bbb8cfbcf9db9bb9dacacaddbcdbc9c87a999adadbda87adceddafba89aa99c8b888b9739aca
col33:   9fcda98eebbde9abceadfed8dcee78fdfdd9f6bfd99d9cbbefefaaadaebbb7c7968e8dc9bcc8aac8
col34:   7a87b9aa8eddca9ecbfaecf9dbdcabbcddeddfacbcab9dbadebdff98ae99aad696baa97ab87caa96
col35:   9ccbbbaaec5ba9bdfaeed9a99b9aed79cdd7d8feda8c77ababb8aaa7ecbf7caa986a8798b9a7994b
col36:   8799bca9f96db8bebea5a7afab6dfa99dcccf9b6acbbaaad8ddeeababbbca6ba8aa7799c6478c9a6
col37:   bb9dadbbfbdecdcea8fcecbefcdccbacf9fbbbbba9fb9fcddae7cfb4a6ab9b8b9aabbc9b8ca696b8
col38:   dd9abb9b7afd9d75acffc9eecdeddecffdfcd9da8dabccebc7aad9dfa7b3b8dcfa8eb9a9a96bbb97
col39:   ccffbab8cddf9facaaeaecdfdcbd98af8bbc8bbfbe8facc8ccb89abc7e9bdfacabcc8c678665a8b7
col40:   c9baba9dbbcd9b9cbcead9d8beaeeffb7cfcec8cecd9c8a8eedacabdc9a6c7c9ebdbbda89aa7a9c9
col41:   baffebbaecd9acfb8bdccedbdafc9cdcdbaf97cdb9dd8ababba6ba7c6b7cd8d8b6da9b6b8b8ac799
col42:   9dcacaedae9c9abba99dedafbcaeabdffabbeba8befdcbbbcb9aabfa9ddacbac6b9f9aa8b7a6888b
col43:   4eeaa9edfaaefc8daccadafbbbdccffadbeec9ccadcbbbcafc6ab9a6ddda96b9cbe8e96bc8be8ba7
col44:   5acbbcdaaea9bab86bf9acbfc8ade9dfb8feeaf48edaba8cabadb9d6db8e8a9cdbb99ebbdc878ba8
col45:   7daddab7c89dddcb9cacaccd9bfadc9aefebdbdaabd8bddbea9b7bcabadbe7cccbab7ba7bdaba68a
col46:   badae8f9b8bcabb9cfc9cafeabacaadc9afda9dbce9acbcd8bdbadbcb7dc878a4786d98accabbb69
col47:   edec9eca9aacdca9dedcbcf7ee7dabca8dbfec9abe898aadbf7c898aad98d6ba999aabea8b7a7a88
col48:   cacafddbec7daafdeabddecddcdc7ccebafabecb8defcad8cecbbda99bbdd9b8c88ad7869c98a6a6
col49:   de9cdfda9fde9debc9e7adfe9bbfddacdfdceb99bfecdafe9aadf5ccca8c98b9baaaa99dc7965e8a
col50:   baecdceddaddcdafeda7cc7fbe8dfbdafeddebecb7a8fdbbeaa7cbaaaa9cebbc7ebcbf86b6cc9979
col51:   988abb8dac8b7abba9e9abc8acbd8eeed484dc9daa7a6877c8877b877788c7836ab3798788888898
ROC:	 BPix_BmO_SEC1_LYR3_LDR1F_MOD2_ROC5
col00:   d697a777a48a96a8888f68a9a8d886b9bb98468a87b668c69da6ed77ba7b798986998bd953a79c9b
col01:   9a67b9aaa8998977bcaee7b9bed97acdb8b7d8c9a99bf8b9ab9bd8b7d8ccb9abc8b9898bcaccacb9
col02:   7b8b77a6ae85c78759cba5a4a8a4a978b98ab99baceac988bc77ba99798789a9c8936beaad9ac968
col03:   997c8ba9a9b9aab976d9ec5ad8b8baca9facca8ccb9abd8bc98996cd7aa5faa788abb77b9c9d9b85
col04:   5b97889885c9cb8b9bb9b3a78a7ebabaaebabbc9b8e8eeb89b9cdc9b7b9ec49daca788baa76c8d99
col05:   bb478a48c889b6a8b6dccbac6979cc9ab88b98d988cac9aa7a8dad9ab79c49e898e6979b97aa97a8
col06:   9c9a98aa6a97b8deb78b9da7ba8d8f7af8c6ada5aac6aabb6b7c8ca9b9a9b9999acabfb5b89a898a
col07:   979977cb94daa8b7aa9799cb7a88aa8bbce6ccaa979ab86b9bfac969cbc7c9eb999ababc7779ebc7
col08:   caa9988e6698888fa67b99aa85adc9edaaccba97b899c8ccff7b9b89c99d9abbe8c6698889aa64cb
col09:   c599789797cd86bbada7c9b9b8a9aa9bcaec8789ee8ddb76eaf4b58d9cdbd889caaa9a49cbbdb8f7
col10:   7669b6b88bcadc889eac6d99d97aac9ebc978e989fb9b9abbbca6a6abc86a9bc7c9a7ab7bcdb8bba
col11:   498b6574a9b5e7977c87776697be995e2a9bdab98bc9dce895747b89aa9dc795a6aaab7776a78868
col12:   97788c98a589699baaa8ea9ccad959bbb6edb9aaa8c8f8bccbc674b988eabb579aabd6aa8aaaaa67
col13:   a781bafca6c8ab6b6a97b59ad99a989cb9a8acaccfb89bb998c9aa7a6bac9988dbc9c8ccb9d96a36
col14:   b658abcb8d996c7ab688bb8998dd88aa99bda7a897c8a5d78ea8cda899a9dc8c998c93689bba6b78
col15:   67a77968b55966a7ba8a69cce7abba9a9779c897aa7c8969c876ad7f7cbd85b98a6abcc7dab78698
col16:   98777764acb989588bb8989dcac59777c4abacbb9a88cbaaad98ea99c83d9c86abad8c97d558b987
col17:   5343976caba9bbb9b99aac8a899d55a8abc7adbc799acca7da5a698899adb4485656c695b89879c7
col18:   24a7788a7ab96a769998a88397aad688baacbecce68786c9e79c7a1c96aa9599cb568788dac9c978
col19:   64647887b5db7c377b9e8bc57d687bcabaa7bbb588897b8989c7778789b74abb5ac7899a5687b3c9
col20:   a688c7989988bba678ae8b58a8758d7c9aacc7d7bc8b89eac4c9a7aa996cbb979676bab979598b83
col21:   997a67c9cb786bb7a9b7a9bcb7a8bb899ad9bc7d9bbb9aac9179cac7ecd98c98cb7c86a798a667a5
col22:   387c9a99b977a7589a4aa9999aedaa7cc9a996e694989ac8b894bb7b9a8b9c6eb8ac9bd777a4b6d4
col23:   969898477646c3489989a9baa7b9888999abd8caabc8e8a4b8e5787797f9892776696977a9c98796
col24:   439785aa79b7b9eb8886677d6a9aaa9bbbabb9885bfe86a387ab5d6bc8aca977b9b976958a751e88
col25:   88789b29c86a6a9487868777bfbb85aa8a7889d7ca5aebba7aa794a5a9ebddbba8765aaac8a878ec
col26:   4aab968a8dc7ccbbaa58c97debb8a9c9aacc9cad99a9dcadddbabb7c85ca76c5ec88b87878ab9a84
col27:   a66c29786c88d88dba8a988acadb9aaccdbc7ba7b89ed8cf7aa9a9a9a9b68da9b66cdcb79656c787
col28:   9ac79abd98cc9b9c6c7abbecccbadc7aba9cba99c8c8ad8aada9cec797bf8eaccb98a75ccc888999
col29:   98679d939ccb975bce888bbe86bebcac7daafc8e95d7bccbb8ef796cc9cbbb8858b69959a98d9a73
col30:   8b8b9bcad9468cb8ae8aadeeb9ccfb9b99ddf9dcb8bdbb7efa778cc999cad9bc8dabb5dddda894b9
col31:   a9897c87cbcbc9a6d9ab6b9ea9bdadcaaba8a9d4bedadcdbebbbcba8c98bdcabb88edb84c597d9cd
col32:   ac9987beebccabdc9abb8dc7aafcdcefedcbb9ad88bbdca988babfcbdcf8998a5b98b7ebb8ddca4d
col33:   9b9949bcad8acb9cbefa75e97a8dfabedadd9b9fdbcaceb8d98bd8c7cadbba78bd9a9c9ac8bacdb8
col34:   8b6dae8b958fbd7a9eccaaddbaecb78dfaceb8bdc9eade7bacbbcb7acb9ab9cccc9abca5b99a8cbb
col35:   89abafdc9dbcaaabacfca98abc9bb7dbcdbbcdeb8beccaba9b5b67cbbb7caaacb9cb6f8ea9abb987
col36:   cdb7dcb9b8a7bfa9bdebabda9cba9eac9beb9b7a5eca8bdcd8b9d9bc8fc8eab5e96e16a999c8ceb6
col37:   7adaa8b87aca7acfb7abecc9db7bbe99adf8f9b9baccbcbc8ccab7bf69b9cda9ece8bcbba9cb9baa
col38:   b6ac25b7989eb8fc9cc8fa899cfbcfccd8fddedbafeccbcdba8e9abc8adbcdbddaa9dbc97a8c8caa
col39:   9bd8cbce9ad8d8ebcac8b8cfd85ccceadccc9ecba7c9fbbda9ccdbbc979d77beaba99b69acbbfdb8
col40:   cba8b8ebfcc8ab9ba8a9bdede9dcdeabdaaccedad7beddccc9bbcbcd9bcda8fbc8c9abd89bc9e7d7
col41:   eabbc9b8aabca9afdd9ccde99beaabb8ebbad9caa7cbfbaafdbcd8ddc7cdeb6cd975bcd9c8898cea
col42:   a89b7fc8bcc7bccacce6cbeccacbdeccbfcbfb689cbac9fbbdda7abdcdbb8bf9cbcab9aba7c7bada
col43:   e789c68fbcd7cc9a8977dcedbcbcfbcbadbbbdacebcbdacbdecbabd99dcada8bdace98b89d7b7c96
col44:   9bb9aab5b4aab9a8cbc3dbe6fb8ccccd9ddeccacbbabaaeb9dcabebda9c8a9bcc9cbaab8bccb8b4a
col45:   aebaa9b98a998feb8de97bdac8cdeaecab9ceeb9bcbfdbcadecaf5befba9badbaacada97c998a7c5
col46:   ccadab9c9dbbaabb4cc99ceccbce7899fadceadafccabfbbaaac987bc579d99d998b7abceab98acb
col47:   959db99b58bddec7baaccb97ebabb9aeafbd7daa7befbedeaeacb987bceb9a58e88dcac6d6aabc8a
col48:   c87aaccccbf9c8eebab8fbdfadbcfd5dfcabac78bdabfca8be99ccdbbeadcc9de897c6bbc86e96a5
col49:   98998bbbdbbd9d9c77ebe88a7b8d8abcba9eeabe8cc7b9b78aacbcdadf9ddfac96d6a987caa7bab3
col50:   a688999dbfcedb8bfb99ada98aad9a9ffdacfc9ccabcb9ba9ffbd98e9fbcbd499796be8cb9a99be7
col51:   88665aca893b69bca8a98cbbca9bb8fa96ccacbac9858a8a8536589ac846b789979774a958777565
ROC:	 BPix_BmO_SEC1_LYR3_LDR1F_MOD2_ROC6
col00:   5669947a49487a6982baa1794537baaa674997a5b998b274b749597d8656ba7578a9a886b4966879
col01:   617c6a9a9987a9b7751b889c9bc9cab668673aa99a75699c9985bba87b8867876a1da8a78953985a
col02:   7884c777561693677682a6a47ae9aa97b5c975b9a899876799a9c8d7ca9698b5697a738779968886
col03:   83b857a57877749b89444c6b86a85498c8abe96aa89a69899ae65ba8c6a88897a9a9a9cca87c8a94
col04:   78888568694889667a9a9864c49ad999daca87778d66945ad46d738daba8b78a77be889967b686b6
col05:   887748689748b488a888aab6669898c7aa795a7b69bb6c6b876b99b8986c996caac8987a499d8994
col06:   84869868772424555988947ac8986996487c9b798b878969998889869acba9ab9b96888656b8a579
col07:   79659b8894aab7659ac96bcb9857a785b5cc79bc6da5b86a9997766bc79b889789c659a7cc8657aa
col08:   671a8677698627777768b9588845b554b7cb88b98a988c899b8997aa797b8aa66a78a999a7988b67
col09:   777ad788787799a98b89959bcbdb9ab9cb7aa87b7caa7bb8a7accab995a8a7c8b578566b8cab78ab
col10:   75966b5aab4329aa478786575a9877ba8ab79559bca599bab4c79979baaa99799d9679bb8b66caa7
col11:   7876259598c884767b99b4859a887988e9a9b857b7b997999b8b76888799a88b5d9aa5c5a97779a7
col12:   29559a726677aa5a59656b8ba89a6aa46ae56789c3acb9a6a688b69ba8a97ab7b96ab96c8aba9ab7
col13:   668784795866b89be8a696789bab76a8ad8a7a948dc9c5ac76b8ac8977a7a9a8c89879d7b869ab79
col14:   68539798166a688879aa5a685987b9b9a9abc499a928a8c5e7a99a7c789a97aa89d663a387b8a698
col15:   7554a79677657d5987cba98778697a9b89ea9678b9a9a78a879cfabb88a969b8a86976c6b75a7478
col16:   7858963686857775a965af6897a5b99a99c8984aa56998a4ba69c998ba98b9ba598b7bacba496c79
col17:   5112683335848877a866b7a97688a8889598aa9ba7aa98a669a8aabd7587a67383998b2989586557
col18:   5738857658567ab9835978785755a5e86b59d985a87a78a8788677aae7666b879987da9a888a3886
col19:   687385a9829576588a67ab657689daa99a68859bb79b5ab7777d979b7771c9797697ad58578a6e99
col20:   a656668c856566756354c6d95ca67838a79b9749944aa4896988a9ea55697588a8688a7885656aab
col21:   878776589786776a6669659b9a96b9e8b8886ac5aab79839ac9b38ba779a78949a886cb77988a97a
col22:   3889a479456889964498b87b39633c78abba8a888798ac99d45896d8465851599ab76b7cb8a73988
col23:   878a888667458a86653996b8389b599989c5767aa975a75a779a89ba87b89876ab67b874a8789586
col24:   6998674586886798caa78659a766b59a7ab9969d38a559b6a5878a75ae686786894d7c8479855847
col25:   653888c75a575a9578887669c5cad97595aa9c8c7ba689a98a99764aa7b95898967bc6c8639e8a76
col26:   6988cb6959a7bca77bae9ca99766c9d77db9777a89c987ab6bbcb97b8a99baca7ab8c77ac9799e5a
col27:   666988685786578755d88b8ab8ddabaa899ac6cdb998989ba8dab89a8abc7aac7c5c8b8c989b8a8b
col28:   85447caa9ba5c8b999aab9b989ad78888bab78d8a868abc9c99768daa9cab8aaa799987cbb99aa87
col29:   5a888997884878a8aabb7669a8c8a7a59e9aee769a9bb66a99d699dcb777dbaf9aba76a67ac46a97
col30:   7497a79dd7a997b6cb7c8b9dc89999bcdbc7becb7bb79a9ba8cb7b7cdb8dac98a8b8b9a5b699a8d9
col31:   8997e865b9aa78bb98d4aaac97caadfca3a9ffc8aa9ee48bcbd89ca8dffcbbbba8ddbab97e7997a6
col32:   73856c79b94a98a655aadb98cc5a899a88bcbbb99f8aabd987ada65fcc88cfd9d79baac889ccada9
col33:   18878a999888bc79866b6caa6c99ca9f9b9babbabc99b7aac99a76bc9bab99c9bca99d89999a89ac
col34:   689488897686bb86bacabdbafc9ba8bcdcadb97b98cd8bbba5faafaa99b9bbaaaabfbabb9c97baea
col35:   44954ae699a9a9b88899d8999a7ccc97cccbb9abdcbb7b889adaab8acc88eaccca58aa89b78d98d9
col36:   88b9bd73985caaca868acbabca66eb8cba97bbbedbaaed8bafdabb79cc4979ad7a995d97979b5aa9
col37:   5794699b6576baa66badcacccdc867d9bc9a8a788bd89ab7abaadbeb9d782bd9878bacdecacbdbab
col38:   a6bbb8787d8687aac689a87a67db7cacd9cccbb8bc89cbdbdd8fcaab9bb9daa87c9cdc5a97d79e9a
col39:   a7858cb677a7bbaa897ddca9acbbbd9cbc9bb9babdcd9ad9bc99a7b98bbeafea9999aba89697caa7
col40:   6c8c88bb799cc8ca85bda9ac99bbbe6cbacbca988b8bccda9cbdab9ddecaaccaacba9f9b9c6bdfba
col41:   669589888779b6dbb687abebca78baccbca8aaa99da7cbafabadfddda8b8ca9db7d79e7edabb99a7
col42:   84a3896ba7b8e86a7e99ddcbdbba7da99bcaa9cc8bb7c9fccba9accf79ab8a6ae856968bb7d9ac6c
col43:   cb5668ca6aca59baa9cbb6d9aceccc79a8c74aca9ffcca98a99c9e8d866bbab9b8b8f9976898aa7a
col44:   6659896947ab569986ad8b7eabcfcab9b989bcdd8acbb9d889adcd8db6fe8abdc9c6abbbcc68ac95
col45:   68b93875885bbbca987ca7b8aac998fa88c789bb78dabce8edb8cb9bcb9adddab7b87baaa9c7a5ca
col46:   859878558797a6ba89d987ba9dcce9b99bceb7bbc7b8ad6aabcdc9d98aabd879a9ca99a9989b7baa
col47:   5e6a468b7969a578b588ebc9c989bab9ca9c9dd7c8ea9fd9bcabdb9a9b7dcd797af9ec97a9778bd6
col48:   6697788899b448aba4a757b6bbb8aeccbd6ac9fc998adb6d8addc999b87d9a9dabaa9ca65c8c8ab8
col49:   78a69a959ba899bca86abc78db8b68bab9a99bd9bc9b8bb9ccdd6b8adca96cba4f97bac8c5b8abd8
col50:   c7876989ba68b9aa99ba8caa9b8bb89dabb8d7c8cbebc6abac8cbbdaab989bbd7bb7ab7cbc98cddb
col51:   76729b952a4588895b885a87888ab63877a96d57a876b69799a8b848f79da8884a797856b664ab99
ROC:	 BPix_BmO_SEC1_LYR3_LDR1F_MOD2_ROC7
col00:   7772a99895a13b6498cc18888758a78a9976ab693aaf8ac2975cb19a8cc5eea3779a778ac8c768a6
col01:   b4bd99b6acb8a7779997ad6dc9497ddbafaaf88ca7779baa7de8a8abb9adcada7dbbc7d964b77398
col02:   4676b89597a788a6bc9cadac8d9a79cbdcd99988c9a999aa5a89f7c9c5a69b9b888d5daa79aaa56c
col03:   8c65b68496558a468a99798966c6b7c98b67e5bd79b8a94fa6d8ba58d69addd978479697998b8651
col04:   78859b7bab6776c48baceb799fcacaba85eaaa9cb8edf8ad9a9b6997ad959ba9ce6aac5976779b84
col05:   b76496559a9bf979db8c7749aca8a4a7d9c6b83a7de9d9a7b5b9b7bacb9b87babb57828b686ba875
col06:   7786a87994797987c79a85b9b8b9ba7de8997c97e89bc9a9b8bbdbb98797a8e289b9a8d697c4bb87
col07:   87c4787e96ced68a9ba9b7a8a9da7d4767ab8956aac976a5a99aa8a9889af78999b7696a98aa8779
col08:   781bc59d98678a65b7aa9998b5dac5a99af77982d7a2bfb4db8b9a9ad718ab9b59ad9975a855b9d9
col09:   8895664ba5a9b9ed5ab3958bb6d4aa8aadfccabef6eb8789b8d75999999dbcb8799c7e88a8b79879
col10:   6996a1c5cc7777889bba77bb8af79b69ec999bbebccadeac7b679ab85a9bac68ab7386c98ba8a934
col11:   75a96749895386bcc98d765ac5aa565a8ab6bc67ab9a677caa99a8c998ac3a6a57ba74898a7a9889
col12:   572a659757695976669c6971a9aaa7aca87a97afd89888be76b77b7e99bd7a9f7bc76cca793398e3
col13:   74198aa8a7a7a4b5c965c489bd6956b796876dbb8a8fc7a87a8c79c7628ab9ca99a57b948754859a
col14:   363566757777479797ba29f947628a9d978a89bc4b8ed558985cc876a8da73a7ba7b9baca6d59686
col15:   45bb6a8d7176664a8ba89cbd9a8b86b79bcbb7eac9a777c47dc7bbba8b97b9f2b95775b79c969689
col16:   449898b89876bc743c8a8acaa484785b88aea79779ddc8a96da6dd767886aa98a7818959aba9ba94
col17:   55a5858a461558ba689518cf3588b48674ec8c58c588ccfb63abfba7665d88a8968cb8866c977767
col18:   8899a439a8a7ab848895aeb86da86adad847c86c95b894bc578ba98893cabdd9bd7b394982887489
col19:   5497574b5b87ba675969bccc799a5bbaaea7bde66a78c98a588949c67ad9ead68a95e7a75dba89a3
col20:   937359a88a732587665249bd8988788b5ccc9b74a869957a9cfba436c896996cdb58864997967ac7
col21:   8851568a5a8a7796a9b99a4a98be9c86c69b9cddadd7a577ceebbd4ebc989669b7c6c8a596995842
col22:   544a983689ad74a66479ba99ac6a96795dbf396a8c97889b8bb79cbec699756a69cc76a9cb837c6e
col23:   b8449687763978696868867e6c4767a5768976aaa837c665ae99772a9ac632c8896658698e58c983
col24:   8985675568e669b9a998b8399eb873bb8da88bd9cac9bfab759786a966b8875b758754867a499936
col25:   da368976769a9979c9c6a7b659d69b5b76bae69bd8a7c884eda78a469ac888cb87db8b56c4968c86
col26:   866898875b976a3ab78b6886eabccef7c9accb9de8a9da676f996ff57c5cda68cc5b77ca6ba88f78
col27:   7bb8a8a7ad9fa88cd79ba49b96ccb8f99cb8eaaa9799ca8cb5e695bb966ecfcac8a4894376d799b8
col28:   89c9caa61d9a6846bac99679ac8bbbb7bdbfe9cc54bae9d8b4cbdabb68ebebd84eb96ccb668d7793
col29:   577899878baaacbcb6798a75dba7cc7ba4bcc97a9ccc9786f9dbc7db46dab7b9cabaaa4a786e8885
col30:   549c5ab96d69eb6dca9876c4d89fc4e6dbab7ccbbdac89ca9cf8ac88cd96a9a4969ab6b2aa79afa6
col31:   7a98eb69ac98ad87c7ff9dde8bcafcbfb9a8abc8cbdabb77aedecab78a8a89a8eb9da9b39b9ccb84
col32:   b4a7ba947bf7b5ba8a97b9d888cb9f8df88ccca8ea35dc79c96e99bdd9a98d96bb96abe6ab99eca6
col33:   7bd398a995ddfbdbba89a78deab9aae97dcbadfdaccbb6acdebabbb9bca7cd6777bc77aa6af9c7a8
col34:   73b869977a88c97ad5fa7bb3b7caf99f8e9afcabedeceafca9c9cfb9c578c8b796c8e8aec78bbaa9
col35:   7a7d5a97796dc869ab87dc8d9fdbfafbf8fcae7cecdefb968ccdb7c7e77dabc689ab92b746ab5abd
col36:   aa64db895da56869abf789889faaefdccfefa8bdcac7fbcddb98df66da98f99a98978d7956bdf996
col37:   5996c74c99aa3b48ba9eef7bafbb7afffaefb8dacebdfd6dbd9adbfbb7b5c9ba94cbb7ccabcb9b8c
col38:   a7a9de59aabfa9bbeafa8ca9bbed789ca5a98f9cd9cac997d8ec9dd6cbfac7aceaab59d9fedbee55
col39:   8589648f7fd4977b89fffddf6fbdcafeebf89dccbccaaa8cb9abbcafc6e89d3774a6aaaac6b9a86d
col40:   bcc779b9eb7a859a5ccad986ba8ddccd9accbceaccfcfbebb9cada6dc99f8a7b7daeceddf9a5a8db
col41:   ac67979ca9ea8ac8ca978acece9f96deab9dcdbab98dfaf9a66d9aebceebeea7a9cbcaf9fd47a6b4
col42:   c888ca6977baa5bdce9bc7fb7898e7eb97e9de9dbed9d88d7a9aaac6aa79cf8a9d6aa9cd69cab7aa
col43:   9da8fa877bcb88cd5aaeff7bdaa8bbefaf7dabc8bae4a59aa9adc9ac87abbc6b7decaa8bd9f5dbb4
col44:   778beb35cad8ac78c99cc89abfbfacbe9bc9fdedcfc9aafaad9aee79aba899cf6a98c6cbb785fcb5
col45:   ac9adddcbbcbdd998995a588d9acbcc9cccb78cbec97de8b9a97d9bf8bcd94eba9ab77a758a8ce9a
col46:   ac9a85985b8a5a77e7e6bbbccc8bcb69cbdc98beb5e9cab88fda8eba8a9aa98cb6aa69975b76ebc9
col47:   a98ad9ec9a2ca7bdabf9cbe7ebe798a7ebc68ae7bbf7eccf89beca8aadabaa93bcb9847baf57bb99
col48:   98a85c68d7897b89ba9eadb97daadbcaeacaa84cda88c6a7aa7d9ebcabccac897b6c8b975abcce88
col49:   9788c8a9ecc7da9bdbaaced8cd9aaafb8ac7cb9bc6cefdf769dac8daeeab8f8baccc9bb884aab5c8
col50:   599954b6bb69ab8bd6cde87988bbeac8c9ffca7dbcfbb68ad6dac4bbbc5addbab9bb6bb98489c697
col51:   5b95999bd9678a89f76c5e676799b7a3ac9989e9e6bab954de7bca78cb948b7a965863b8c259a691
ROC:	 BPix_BmO_SEC1_LYR3_LDR1F_MOD2_ROC8
col00:   6645256648666e7446a444a61868685a8973a3767888867682655136762a64754283834674676171
col01:   6434747a7886a766537c68797876a669a7847aa89678979876789698688558546665466356879657
col02:   73b9547a46a9896769695965a999c6998a8786a1399689649a5879b5689599a7ac557a76ba5a5753
col03:   9147869c4777657699a656b896999778b8a783785678978565796385485659495687557597667976
col04:   93a7257b46786a696785887ba654a478dc7a685b678769a643656b648869696836637778346367b6
col05:   8186a756866733b6b59c46555c9a677888a77766877c978c9437745948615b779768995674655538
col06:   9869848c73b58587162776b8956887847955579b997d65a7559635698494459a4546a85555844474
col07:   65977789b756287b56aa678aab8c599c958964778a9679eabab77b76a66998b35b89b48887468884
col08:   56c4879cb76776569aaa58c9b877ba867a3978a9a44ca9b98bc8689b49c5c68848866a697a382646
col09:   863a5799689989b67897b68a68a97866967788a675a576455e9ca78c85488555a76779ab5667a952
col10:   7a7595a9678a89668cd6b798889599549a977b895bae77ca58b776895b7685785886796798895767
col11:   68785966877677867996abb989d8866998aa7c34ba5666998559596a69916b966998796224479495
col12:   87343568a863748888968b978abaa6abaa97aa59877c9866a6869b698595685676a6669699987334
col13:   77749a6647999476b974689b7895a7a955988856a5887bc77998b8a6a8cc56b98787b8675688799a
col14:   6998c97786587a56c6556bb7a6b95cd8a848a95b97893867cb578a7687469b99b6c67868a789a684
col15:   82477956676686a5b8a8998bb889ba7a9742b988986488a797996ca778a9789b7758955414457463
col16:   24595ab7943688a8a69a7cb787889aac85a9758868b8b89d877a9a87a9687699b6c6b448996785a4
col17:   56a82b876966b6b1868ae5a65687978a68c6c977899779b767a654a97598ad695487559673a7ab93
col18:   47a26568898a888766a782d75765a9baa68daa9654939859a6697a7d6b58767587466c7c57973665
col19:   89564a687b8786767cc8cb8d9b998a99da7bda7679a98858a78889469aa97a7985953899b5a64858
col20:   497543676c79577978b678797799c75cca3a8797b7956baa898b69778b85998c7854c45656878859
col21:   68839577877a869a887848a57b798a68aca76559978ca79497c58973b68672a8888878858c458b56
col22:   1666a575865768c77b868989769abba6a6a78a99a98a686c8b5967a868ab8a9889873a8557969553
col23:   4786a87a79768a8c4ab68a9677488b85a7a9575898798bc7885988a7b586567b39486765a9845844
col24:   a777d7ba55a658688695ae78a646849a8b787895594788869c989a67978caa8a8658683757649678
col25:   849868c77a987a8a887989c999a694978bd76b9e9968abb9a2889c6a755a9f6a55ba668768787b84
col26:   6947c69a6ccb8a86c9b7db5998e79bc7aa8ec87d888cb99db88788bd7869b9c8da6b449798a96b7a
col27:   72635966a7bcaac9babd77bbadb9999ac9d798c8ab89a7ba6979aaa799d77778aba7b978c8679a85
col28:   68b77699b977f8cca6c69a9bace7cabbdb98bb9cbbabcb9bb889db9abb86c8a8ba99aa8aa6767968
col29:   ba7ca88aa58ecf7bba6898acc8e5a8baa9b8bed9cecc8a9b8bbad87dbbbbabab5a9c9a9c975a98a5
col30:   59567cb88c8ccb795de9bb9b89aacaa6bc9cbdb97baa99afd97aa99ab7a9cbb9bc9b9587a99a8774
col31:   d7d8998888b8c786eadd8daa9aabacbcd8cccbaebbfbbbcac9bac9aaec9ebae8faab789aeb8c9787
col32:   97a676bb9c99d7cb76ccd7c8bcbca7bbabbbbebbdadddddabebabda9aaccfa7baa9c88db86ab96a5
col33:   77a88aa99ba79ba8b7786a8b87babbcbdbda9ca7e9dce8da7bca7aae8bca8eab9779b79a6cb9a996
col34:   c9ab6836a7dcc8995a8cb997ebbcebfcbcdbacbbbaa77eadd9988aaba98bb996e89aa6bc7a7a86d9
col35:   b9cacaaaaab8edc6cf8abcdaabd99acabb598ab798bba7ba87c8dba9db9bd6adaabbc9bbba89aba7
col36:   9899bba78689d8967beabdf9abddecabb9bacccdaaacbab8cbbcaabbecd8ba8be8d989989d9979aa
col37:   b98acacdddc9e7cc99c9ce98aaaccaad8c8c98acb9bebcd9d8acce8dfc8ca9acb899ca8a8a99c7a7
col38:   9a9bd978dab69ac9bdacb7e9bbccbdfbebcaed9abd7cfbbdcfb9dad9d9cfba97cba9fbcd88adb99a
col39:   77d9abb9eb69c8bbb9b8c8eec8edbd8ac877bdbbd9cadcda89bcc9ac88badbcc7b996caaa7ca6cba
col40:   7ba9a9add7bd9b9b8a9dcacd8dccfdcacacccdc99dbb9a8b9e7bd8acdd8bf9faeebbbfd9a88999e7
col41:   a79a97bda98fa99bdfab99efae9dabbde9fba9bbbdfdac9babb97adec9bab9d9bbeaacba7ada7ba6
col42:   7cabc69abac896b7abcaf7bdbaaeadfcbbcabdb9dba8f6c9a6dccbc8c8a7fa7eb9b8a9aacb6dc898
col43:   bd7aaa9dce9dad9becbede97addebf9c8eaabaddbbdefb8ccefdbba7fa9fbcb8d99bb9a8cab7accb
col44:   9cbbaabaad8ac9cdbadbdbcce9daaedfbe8dbcecddddca8dce9cdce9df9bdacdbfbcd7c9abcb9ba8
col45:   8eb98d797d7ab8baabbd9bcbbbbc9cbbffc7cdb4cb88adcbafac8ce9cb8b9aacab988bc98ebccab6
col46:   3769abdde8e89abcc5cdbbfbaddabccad9cda7a8cdd9edbfab7dfdb9aa9aaacd9da7ba9bb5aa9bba
col47:   b7cbaaba8a9bba9bbbacb9adde69bbbeeef9acacd9bfde9cdbefad9d8cc9cbbbfedbcd9aab88aa87
col48:   adac978cabe9bd8dac8ddccedcc6dcdacdddfbca9fa7ae99ed7acaaccdabc8b9cd9dcaa9c7a5a9a9
col49:   a9adba77c9799babbfcbdaccebeda9ebfcdcacaaacfafbaaccfdfcc7bb8eaddbacc8bfcdab88adca
col50:   d897b9e9c9bbcafdbbacebc7ecdcabcbbea8bccdddd9dbabdecfcccbbcbc9bbaacca7dd9edabb7aa
col51:   788a7b57989bb9a596a6dac989bab9a9baab8785a7cba7ba8a9b98698abba9899aa8aabc97b6a695
ROC:	 BPix_BmO_SEC1_LYR3_LDR1F_MOD2_ROC9
col00:   93c6a78686b87998565b7768968aa9883896a757997a8f555b999599998e76bcb7a7766aa7c66873
col01:   a98997464765ba898a7c7ecdba788dc99cce7b8faa668aca9bd4ba878996cc8ba898d8b7bdab7c9c
col02:   627869aa64c78848cdbba469a488cc8a957aac97bcb6d8c775c588ab97b68b8aab8bb4cb8b886899
col03:   72566a84c57ad86556aa598a7bb98ba8bbb9a989b9a9aaa97cc96a9aa9dec5977a8ac5a98b997b99
col04:   ba66b47596a696a48a5878799886acd6986ba8b987ab69a89abc6a6b8898ad799bbdd787b859799a
col05:   aa857a9999677dab986a694a7a6ba98cbaadbb7ababcebcd876aad9bacc8b75b78b8b79896969886
col06:   55e79578b83a4586628f79bd989dc967969eb9aabd6db79bb7c9adb9db988c9354947b56584568b8
col07:   9ca7964bcac9bb8fca9a9bc7cab69cbaa9a96bd8a6ada9db9cfc99d8cacababaad78abbc5b9a6998
col08:   7558a8a88b96aa399a82999b7f6a9cebaa7babbb7bbaa9ab86bd9cd98676baea6ad5859abb7aa788
col09:   7a36c5648763bb579c7b9a8879a679aac9acb8aaceabbabbb78bb8b68ec68db2c98a9abab7c7b9a3
col10:   58a747c696c7997b99b9b888ccb8876af79b94a998b69dcbaca8a8afafbc9ab7bab6aa89dc5b4697
col11:   b584984a5a96776b787658795b6a499cbb7875bc999979b7dcccabd97da8d88789877a98f69569c7
col12:   79777b5569a89b145ccb6a7acbb79bbaf8e599b9a69885abf9599a6a6aa7aa7ab8b88bb5a8878e89
col13:   977b98873a86868e8ab87b7cbc8db9bbb7bacaa7a8a78afdad6ba6a8c67c6ba99cb8baa7d99aa889
col14:   48a6679b5997db8a69b859ca9c7bcaacf9ad888b8a8cce97ba76dceafda58c9a5c7b88bab95a7c78
col15:   839874898a5a3a9699747b8a9da7c75db9bafaaa9a97aab8cacfab95fbac8c7ba9b6a9789477878a
col16:   1615a79a8788b669b9a78a7869ba886aa799ba8c68d9a9bcbfc9bc768bdaac697aac8a878b9967a9
col17:   6337979749578a88a5a8c9878b97abb9cba9a9bbb848db9cd9acb99c8beb9abb87a9a8678ab99966
col18:   759b55a766ab9b6877416a9acaaa495cdb97788965999dabb8a8b9abc96b2b74ae959b997a88a335
col19:   189bb89678778b69c889aa7bb9d9d79fbcbd7a688bfbd96acacacbc9dd9aba5c768ab7c79bdaab68
col20:   7869756b84578a98a7a59658b86cbacc8a8bb995b9d86aa8c989acecd9db968bb87aa93639997868
col21:   82aa9b4895b57868bea689899899a96c7d8cc9a987acd9adc6d8a9a66c7696a6dbaab999879c9698
col22:   7a698ab77a17b9a9bcaa9bb5c956b989a9ba6e7b98caac6b9379dabbdb9a7b58956897b8d9986a54
col23:   869a75a47a6896a98a79ab675699b5b4a6ea8a9bacba99aad685a988af9aa69786b87b9c74bb7768
col24:   ca5476a5b43778789395a6888b698da79b4c85c983c8b989cd88ac599dab498787b6869b388d7c76
col25:   8a8759657aaa878a877a7caabbdc89ccbdab8b8ba67b86acab9889bab5b89cbba9c788b6a687b8b4
col26:   9b9798799899a6baa77bc699a768a999fbdd8c9ea8bfbcc8c89b978c9dcdcbe758aa97b398b7a9b8
col27:   8a58c698ab66bc999a99ab9999b96a6bccba8fcdae9acad9b999abc9998d9a6689ad99899b9b5b78
col28:   79d7aacc7c6c48899bbf89a8cc9ccd8a9997adbc7ccbacdcb8dbd8ddaead9eb9c898dbaeba5c8bd9
col29:   8458a7a5beca97ab698baccc9cabe9acaea8cbecc8aa9cbbba9d8bcebb8acd78eb78bfeacbbaa8bc
col30:   9775b889ab69b9887988aca9e8aab69aedc8cebb9c9c9e978faccbc9c6acae99bc38ad9cd6a8e9a6
col31:   bd9ba77a9aaa98b8dc8db9aa89da9cbf9bbcdbcd8dbcdda9fcbecfeabd8bdf9aa8aaaaa9ddf797ca
col32:   7c89aaa9dabbcf9baabdcb96c4ead7dfbcbdfaadfbccadccacbebecb9fb8dcbc8dacfccf878a8899
col33:   d78da958b8ab9dc88ce978dc896ed8ed6cacde9eec7a89fe9adeab8de8bbdca5bacdba7caaaeaab6
col34:   b6aa96b86d979a9bccb99dbceabf8eca9669fdb8fafd9b9dccbbabba7cacd8c57acaaca79e768baa
col35:   998aaabeda8a9ad8bb9acecacbddbcc96999abbcaac9caaabeccfcbcdbbc8ab9ebba99cacbb9ccb4
col36:   ada6cbc5ca8db57dae5b7a9c9bbdab8aa9bcec6a9dfecabca8fedb9e99aaab8da9bcbbd9b8a88bb5
col37:   97aa96abc9ab7ebada8aecc8a89aa8ab6dddbaacee999ddbadbbbbdadebaccca9cf9c8a6989b9594
col38:   bc4cb8abbdcadbd89ad9cabbcb99adbcceccddedddffedcbfa6aadfabdfdfd98a9dbabcabafd67c8
col39:   bbdc85bab98a98b7e7cc9fcd6a9ab8d9cfcdce8eccacccaeedd9dacbcbc8ac97d5899d79ec55d9c8
col40:   97aaaac9a99c7cccea7aaccd88ea9babbdaccdebfbccbecebbabbbd5dcaaeccfcdefc9aa9bcdbbc9
col41:   dc4e9aa9ba9c97ec97eaaa8cff98b9eb8fd9dbbcfaeda9bcdaddcc6a9cbdfddddfdacc9bba9cbadb
col42:   baa988cb6abbbadcccc7aaafcedfbfddb9cbacbdcfdfc9adecacc9eccbc99d989ddcbeb7a8d98ab9
col43:   e88d879abb8ddefeeccb9f9faca9faedcfaaefbcdceabcbdfbbbddaab9ffae9dcded8a9cc69bcb9a
col44:   ca6a9ce9c9dc7c9e986bea8bbc9897ccabaf9cbcbeac9fcceebcacddeffdb8bbbeacbcdcdc6eccb9
col45:   8c9a9a8ecc99eada9cc9bcaa98acfbb696bdac9d9ce9b7bacbfbcaaecfcfcdcaacc5d8c9bc9988dd
col46:   4daeceb878dc8bbcbecbbcfafbfeac9cf89b9dbbeeea9eaa8bbedfcdafabccbcf7caa98a9bcab8ac
col47:   9bb5aac9bd988cf9a9bbdcdcbe6cbaadbecdedaaddbbeaceeaecdadebcfff9dbdcb9ca8bbcadca9a
col48:   bcbcdab9f7bd7ecce9bbbc7cbdbdfd9a5e8db9f779cc9cceafcb9cce9e9bbce7daa9cb7fe9ab8aa6
col49:   adbcabdbcbca7eda86b6df7a8cace9e8cccabb8bdeecc9ede9ecdbcfcceefbdbdc8ecc9c9c97d987
col50:   b3aabd9bcadeabdccdccaff8acdbbb6ab88cbbfaddbacacef9bc88e9a9bcbd7cbd9ecd9aac7a6daa
col51:   aaa7bb566a9d85a4878b9cadcaaaa968997cc99beca8aaabbdc9a8bbacfcd9bb9c99689849a66a76
ROC:	 BPix_BmO_SEC1_LYR3_LDR1F_MOD2_ROC10
col00:   9685656586659b954799982b87b4abc79d95c879b49ababc6888c5888a9b7aa6ccbaba9aaa578f9d
col01:   3ba9c7acc8ba8a6ec7976bb8ddcadbac59aaa9cda9d9deb799ac8797ba9ba79ea6ba9a9a8d7dcb9c
col02:   69697796ba5bba8b8ca8bba795eb78c5a3998e9bcc8a8d9b9cb989ddc99bd889adb7778d8cb796a9
col03:   67786b9babbf7c8d947b79ca8ababe7daad889ebbfc9d7abbcbae9bbb98b9fc7c7ca8baccccdacad
col04:   78baab78fb7896a8b89f59bbb966989aaba5fcca5bfc7a6b9cdbca79cb9a3adcadb79cccee7ca9cb
col05:   3986a6759998b7ba96e7bec9857786bbaaae9ab8babe6859c6a9aa69abaadb9bf89b699b5773cafe
col06:   69d35979ba998ab8bcabacb9ca9e897cdba88ad8cdbeb8baa9cdaa89ab7ba99aa9bfbe97aabb89a7
col07:   75889aab35ba619999bd96b989c9db77aa9dd7baca8ac67a9c7896cc6ba98cbba7cd87afbcb9bc8a
col08:   a76297a85869ad78caa9977a88c7aa77ac6cbb69eb85d9a8aae8fa5da98bd98ea7ddc7cba8a8daad
col09:   47c996a57a9abd8a9c9cc8bae9b7bdb97d9cabe88a6ea9ab8fbadc5d8d99a9dcaca567b797db6aba
col10:   7485857786657787a88b85d87cd9b9c8a8a8bd69c6bbb8fdcd5c9cc8f9eadaa89c8bbd9ea8daacb2
col11:   95768634a85a88495a799a575b9d679aacea988a89cdb8bacc6d9bac9cbaaafb8a9cc8d79953b779
col12:   47799699aa5bc89ea9e8999779896ab99c9b9a6bb8bb5d878cd789949ba9acdbc6b6a9b9c9da6a7a
col13:   835a9db5978a9a99775a969a8bdb8c9bc7e8abea9ad669caddbd9ab7c8ca7abccf986ea7b6c5ad59
col14:   6995c5976d899a5578e9aac88bb9a8ce98c9aae8a99c767bdba8a8a99d5b9acf6386b5a9bc96d9b6
col15:   87268859c88a76888bbaaa66ddbecd9cc79ab4dddda6dcc9adca6ebaebcd8b9ad88fa6a68b8cb9c9
col16:   5a69c974a36a6ae9997bb6caba5bb6bab9dfd8c998c8bbb9db79bb7ad85e78b8cba98a7a67a889ac
col17:   76a36b97969486878d8b948488baeabd797cb8f99a89a997ab97ab5579bdb88bd8aa686845869b94
col18:   aa56a64a877876b8876968a9b784c9fec7f8e5a99a78869ada98de978bcb6aacb8baca9b7ab76786
col19:   687baba4a85b86e7ad9ba67a99a9dccb7b7a79ac996c999c86befcd8a8e9979cd78a7888eb9a8584
col20:   159695b87c8a7baba8abd76399bb6968f86bea74c88bcd9798abc8d2b6c4acbba5c548cd38c9a469
col21:   89a669b868879a777a83ca98c97aea9968e78db687adbcbb87b9899ba795dba9a799abbba99ae889
col22:   794a6896ab8aa86a87887983bb7d8695b98daa7c9b78677ba887795f89c8d6cc7985c996d79b8cac
col23:   76669647bb98d139ada696896ab7acb9d784799ab993888c89978db8acbbc78c37779aa5b78a6ea5
col24:   7896b689988b551899c889c895b86cdbc9ab768ad98c98cc9a8ba99a97edbb68c9c694dcca8c5684
col25:   85876a67a9757aa9fabc89895b58599bccb8d8679bcbb8ccf8d989abcca87b8d5b8ccb8889c96aa4
col26:   ebaa7bfaadebb88babeaf7fc98d8bcc9be9ebb9dcbd95bcdacf99b7dfbccaacdeacb8cdd55acc5ca
col27:   aa798c8b86bdd988a99bcaa8ad9a9eea6baaec9cbb89c6ecf7a9e5ebddae4a96bab7dacabbe3cab8
col28:   858adcc86d88ca69c5adbdacba6dccaa9cc8dbcdcbdcdac7afb9ce8baaebbbfac9dda65ab976b88b
col29:   9596a799aad7bbce7c9ed9aaa78ace9cf78dfac9cd96fecbb77ce7ea96bddac9caa9fcbc849c7bf7
col30:   daaacb8689cc9ae978c98ac9ebbaebb8fde9bf9ceeaac9dbacadaadafcaaca9cc6c9caaad9bccdb9
col31:   a8caccf9e9cc4bcde9bbb9c8d9cea9dcb9dc7fe99a95ade9bcfdfb9efdabcee9a9facbbfcac6abd9
col32:   66aa8ba8e9bd9ed88aeddba9cbadabbcbdec99cdee9cdb8bc9bddcbdd9cd9de99c899dcb796c89db
col33:   aaac799ea7bbca97eceae9c8ccfaddfdacef6badfbecdcaed5eb9cbbdc9c9fdf6ab8c9edaebdaabd
col34:   6aeceb88be6889be9effed8debadbcacddcbf9baeccdc6ab89d7d9bfeca5b8aac9b6bc4bbddcacba
col35:   dada7bbd9a6fe6e9e88bce89b8bcb8feadddc8ddbadaa9bbbfcb8adbeacdecddcadba997fdcccb5b
col36:   b598fdc9cbdaaaccca56c9bd8aa9fcbfd9bddea7ac6baffbbbdeceb5aaebeadb8dcaa8e99e875aa7
col37:   88c6aa48a8979bdbb7facdbdda98cbfbeceac9dbd6aceaaaffcad8aa9cbeeede7c989dcac9cddabb
col38:   9a69cdacccacbb7cb9abcdfbbadedbba99dca9dafdedfacafdbbdcfcca9dcfd9ecbefbdbdb8beaa8
col39:   cabafabcad96ebfeda98bbaba79acdaac9dabec9bda6dbcaeacaafad89cbbbffbb6edf9b7bb6a8eb
col40:   b9b7999beccd8bbcadab7a9cc8afefecadbd9bdac8cdfeccbcbbdfbddea9cfe8c97aa9e5f8f9ad99
col41:   fcf9cbbb979aa9cb9a8ecaaf89b7efcce9fbbdabc8cbddfcadabcbbddebddbedfc9e58bd6a7cace7
col42:   b8caabbd9cb9cbc8b8c577cb88e9be9fe9cefbfbbac8d9f9ed8aeeccf8eafbdceb9b6ca8aecf7cca
col43:   bcacdecccbbb9bba7bdc6dafab9abfacefeacb9edaaceacdb78bdaaaedfb9d98cfdcabbb9acddfea
col44:   c999adcfbcc59ce7b69bee99aabdfaee989d9bf8adfebdbdbcb9bcebfbefdddcebccc7afeafcbaff
col45:   9c5a6abc9dcfbbccbacecdcb7bcdde7ecaf99efafbbacbacfef6a97d8b9cbbfdd8bb9ac8b3d8ccda
col46:   bab9e7fbab8abaab7ccefabac97ccaddcaacec7edeab9cfd7fccacbdb6c9a8ccaedacd9acbadcc9b
col47:   cf8caca68d97c9dd58fbbbb7b8cacbabbdaad7eaccdacbfaddc9f9becadecaecfb9addacdbe99fcc
col48:   bdc8ccd98afa9bcbde8adedcecbcdccb8cbccddad9dd9be88fc8d9eecb79bbcedc9b79bdcfdcbcbb
col49:   9b795bcbabd8ba7dbd96da9a7bcddfbecaccdeccebfe8afbafcb9a8cebffb9c9abb8dddafb6cbdfb
col50:   b9bbceca7b8c7e8bbbccabfaeefaffe9eacdeccfddeffebfddcea9cbed6aaccabecd96dffcd8c8ca
col51:   9a9abba5a9839997586bdab9baa7b6caa9bfa8acfbac78aaa9aec7a9ab9b79ecc894b96babb85d86
ROC:	 BPix_BmO_SEC1_LYR3_LDR1F_MOD2_ROC11
col00:   a75967a7967aa7a214a567b8887ba6b49877d884af46456b66c76c73b68a9bacc74898748cee9bb9
col01:   6b539659a7c76aac6c877a97c8bd8ef4aba6da86be6cd7b979b6a776798cb9b7bcfb4d8da7dceb86
col02:   42937a9596858a6cba5b78a7a97c6985bb79c5cbbab4c8aaab96aa9a669b9bb599c989e97dd7bb79
col03:   847b779a88994a779a47c8bbcb5768997cfac9e9abfab76b689cc89a997b9ca6dadc97f99bcd78aa
col04:   759c95ba96c9788b94be898a84eeba99a58aaa8b8dc879a7aad979ab9bc6cc95a6e899b8a8697ca5
col05:   8b39a86bb88a8d588cb6697956599dbdb68ab9b8ba7cb9ed6d86ce6ab7987abb8ca8787f99799bcd
col06:   628889ba5a966aa9a99bfa946799a7bcfac88ad554c8b7c888ab8aa6b8fa7cb6c9a687dd768c9ca7
col07:   696988b98a93bf67b7a4b8abb84c8668b6796cdb886c8e57cb7a9977b989facfbba6a7dab67a5a75
col08:   98a59783a857794b9979a59a8abad77969bd7b58a89b84a8b6ec7b93a6c8cb657b8558b8a43685a9
col09:   75898667aaa4b5da6aa66577e4cc8966ca994accbb8bc9b788b8899be7dacbf6ac9b8889baa9c797
col10:   885645a9a8989876a964d77db9196dabeae88db8898a87caac68caa69b7e879baa6697da8e59df58
col11:   55a77697495ebb8896bc688677a7baf8b88a888cb598e86a5c97db9d89a59588a796c6bc8b89886b
col12:   da8696a4a879bd6c9c69a86b9a6e879da8d76669a99d58ae4887a9a858d93bb684d9b756d5c6d8a9
col13:   587a5997665c8bc8796c99aa9bdc9a6d897daa9995f6cd788d8b7daac6ec889977f9785ccb4d58a8
col14:   c4897648677cab85a78abacd8bec78a7a9caab998a9b9bae559ba976d4f7a9b6d77679ac9bdcc9a5
col15:   638c9686bba68bb9776a789ab8687c4d969984dc889989ae9bacd99d4ae9bac999689d96ba5d7be8
col16:   55368b7667d2c5aa8a8a7b446b8ad889dca918b96b85798a98d9c996ec9a85988d98a99a7a5b89e7
col17:   965c55a75542868b46b764a37999c4a5a8b9db8a99b4994d7b8aabaa63b6af87777977ab87d7cb79
col18:   28419a7755bc998655b74989669be9b6c89ab7967688aa88bb76ac68a1cb9845ac77f788a8a7aea7
col19:   5855c6a836567599b357e898dabb6956bd48b9edb8b99aa9eb997aa7aa98c7bb7eababa598597856
col20:   73a1a9878c61927576abb886b7ac7d66ae9b9aa786894998cc9cab8aa8989abb5bb986489abbabb7
col21:   89787b797b8769974a5394997a7b9d97987dd7ab6ab797cc9b59bb99bdceb9e6e8e998e86abfd979
col22:   521a74ebca8774899799998dbabc5c76a9c96aaa98dba9ab84d13897a4bcd9cacb94783ba5886a3a
col23:   9464a769b68785685a9c7669595a53fbb6579fb9c986e6c96aa9bdadc7c9a7a7879e89eaba994872
col24:   88a3a988a95a679c845c3b8aac978b69abdc9ca8986d9293bacb96949748c8aabac983a6b8aabb88
col25:   636859a35489ad6598b5ad8b7bceba98c8b94b7cc98d9889a89bbba5ca588ca88abc9cab8b866bda
col26:   6b5c56cdcaa87acabbbaf8e8aae8e5aaeadaabb9edeac969b987dc96aaa6ccd8cacacf8fdcaccaa5
col27:   a55d8997878489969a7b8ebea99a8dec99d5c9d9a7acce98d9a687b85aa9deb9cbcc84bddba988a8
col28:   96b76aad6cf98b6a9b75b98aa89a7bc7bcacafb99cceccc99a8dccaaa99befcdb9b8fbd8da5cccd7
col29:   5678c9878a8ca9a9bdabaccdd87dec8ca9fa9a87afdbcaacca9ba8b9c9b99c878a98a999bfebc6da
col30:   6765cba66b979da9aac77be99cd9b9a8ecbcbacac7ac99afabadcc8c8da8cc9b88dbb78cdabbfbf6
col31:   859ac899677969a876c798c9bfdc489caee8bbacdcea85cb9afb6ffb96e9dcfbb9c8f69dbcb9f999
col32:   7bd6dbe59eebaad6caba6ccbd9bbf999bfcdababaa57daabaf9dcf5abebc688b6c48ae7ec7f99a9b
col33:   ac7989ac7ce96cdb8b98bb7afbcbdbb9bf59bdbbdc6fedcddce9b9aabbaac9d97cac86aedde6abda
col34:   aacaaab8abcb9a9aa577bcae9a969ac9e9fb98bd5b3ffe4aaeeef8cedaced893cdec9cb9a88ad7e9
col35:   683997bdb6bd4b6a89e7a4a9abdceabcb99cc9ccbfbad9dbdbbbfc9babbfec6eaccb9bba8ababdaa
col36:   b83b49aba7ac69acdbacaacabcbbbabbdccca7acbfbcccc779cfdc79afadc8efcb88b6d7ba7f8f86
col37:   bc89b9bb9d872a9cdaf9f8aa9dc99acbbabc7ddccdaa9dbc8cfccbacbdf9bebdad7bbcf9eeaa6c88
col38:   baa9bcf9dacc967e89dfb7d8adebeaeaacaf8bbec6eeddcbcdce888eeeeb6aaacecedcbb7ca8ba89
col39:   bc9c98dda9b889e9b9bbbebbdc7ff6bca9a9eed9b95c9fcaea9bcbc8eebabdcbcbc9cc9dcaca88ca
col40:   d9b799bab87cafd7fcdba9bddf8d94aeaacbccecff9cbac9aafede4ac9abfc9adc9be9b88967aab8
col41:   bd8a9b78cdb9d8f9cdbaf9ea7b9abebd5ecaa9c7b9caccbfbebd5cebfcadbbdd9aecaba6ea9e7bc9
col42:   7b8cac6eaab5adb9bd7bad9979ccbbfcadbccfbadbabefadcaa7cb97b8abbbb877cac9bbaec5befa
col43:   dcc7d9a79bb9a9aa8bdb8acbaadb9dccbec9afcffedbcfac88f8eda96ceefbcbbdc9accb6898e9c9
col44:   bbabaf4e4adaa8ee9f8decda9b8defa5accb9dbfeceaffefe6eefc9ca98fdc9decb87d76b67de985
col45:   9d9bb7cac97c9beeafbaaec7cb8cd7bac97d999bb98fde78aa9bdbe9cae9ab68ba8db5fa6baebf9d
col46:   787abdf7a9cd98adb9c8a6a9fbbc9bbcd9c8fbebbcc9edca6acc6bcbc8cba998efbb7afb87bafaa7
col47:   fabd97b9a9987ee9be9ba6bdf8cded4bbdf9ccbecdc88bdf9ab7c9ccdb9989f9bcaccbb7c9aa8a9c
col48:   6a95a87778d7b9899caac8bc7aedb8cbede8ced9bfcaaabd987aecba7bd9becda9ebb8c9deaa88a6
col49:   6988ca989bcbd7cfb8ebb9fb6aa996fbeff5d97abfcb87bbdebddccbcccdb6cec9f9caeb9a9dffbe
col50:   dd99aacbcdabb98d999e9ef9cabdcc95cbafdcace86aacbc89beac95a7efbc9968fbd69bbcaccdca
col51:   9c67acafb2b561cb8b747cc8b7accb9c7d798e2a96dcca79abed65b766ca48987923a81c888a86c6
ROC:	 BPix_BmO_SEC1_LYR3_LDR1F_MOD2_ROC12
col00:   745753165867a432468a85ab4877886cc88aa8957c6b76488757858a4b368867a658a6a767677764
col01:   4387669887796855164b8a9558b7b478a6574775a66b8979716a4989a7cd89688a9cbb65889abc7a
col02:   8446656876673b6df46b8b946874f67667a9768d9aa96a76bbaa78a5abc6a57a698697a6c9c6b5b6
col03:   528967498728b938cdb7858785dab7ac94889ccbaa4589b8987d9ac88bb979ca49be8886b98a9a99
col04:   98578497897aaa889c49ba679c9b9c777916ba889c7a995acbda8a799acd79ac38aaf759e65c9864
col05:   88586364627779a74669959a8399a77ba896aa9888c985899886aaa6a7a9e8a8986ca8f9ca9e9544
col06:   a585889b9b779b879ad6a85a6a965c7a897ca79cc9bce5abab67caab96b93abd7b975596699a888c
col07:   4176673765a6a5ab8dab49b9878ca7bb77b873e889a97a8c7a5c8ce7a598778b68dad959aa966aa8
col08:   356845b4a9871cb7a88b879ac8b7a9978eda999ba7699b687e884a68b8ca95a55b95a765d8755894
col09:   9b648795699757958aa9b9b99daba74ca9c898b4b889576929b5a8aad8a8bb8b9b959a5c6d765a91
col10:   677ab76578b68478aa96e8b979c9b979898883bb6c8b5977a594a959e988b78897c346876b739765
col11:   574865b75a7666b554a5986698a8a368b6b8ab88ba6aca86999a5ab9778da9989798a5b8987595ac
col12:   53427756ab87b77b4a7869556b864e94aaacba768abc9eca48acc7d7a8aa6c99876ba6a97a8b49b8
col13:   987496696788778a877578776d8a698e9b9879ed995aaad8fb98d9cb966dce47496d6a7bcab5a669
col14:   54587345588997676ab677b73a9b87926b98b5869c96748ab9ace9b6d5a96c959a584985a38a8482
col15:   67687667a68773658c8e883a9799ba757bb8888cd54dba9858b76896898bb7899778d94a986896a6
col16:   78782969b769622966ca7395abcb993987a698baaa84bb599ab7aa9cbbc6599a95754886aa975772
col17:   48969ba6ab4db55952838853835e9a8889c79caa5887a8569675c6c8ba9949a7a78b747864638c7b
col18:   4941d9c59b7484835558686788aa29a9797665c7d77667a96e66bab99bccaa99748eca8784b87673
col19:   887b9776527a46a887ad4d7859a597c62b8fc66abb5cba7b569ce76d9a5a8a78987963ba578b6a67
col20:   769a68598b43677baaa597b8696d77d9b7998a88ab563a9b89646989b7887aaaa69687676b999283
col21:   6596495497b8464a6576ac9a37ceabb5998aa57a87a6976797a384bca766c99696678b3ba98aa6c6
col22:   196a76a7776a7725979a9ab7885a85aa8567788a884996b7389986a87676aab479993398a997cd82
col23:   18768a78766839a79997ad586aba8babb99aa891a58d6cc789979628756b89b43889d87693754a37
col24:   867a181a86d779f89ab987877c5f95ba85cb889836a87c95c766d7558bc59a599c64aaa65aa689a5
col25:   67657c5a8bc74b888864576a89987ab597ba6987b929a6a6887696bbb9969a96988a5b3b85967475
col26:   bc9cb65eae7869cd98b9b8939ab88beab8d9c6a98bb788ab6bb8797acefa6caa9988a8c969cc97b6
col27:   49969cab886b7ccbbe999698a7aaacfda9ad7ba98bbedfbbbb775a88d5b7b69e75da5aca6c8daa98
col28:   8598ad997a89a99baaa96a7c9aabbbb97a8ffab9d689a89b4b57c8d699baaaac898db7c893dcca69
col29:   9577d9cb8887a88f69a7dd5fba87caab6a6aecb96e9baa788b7859aa787b9cc9fab5988c7979dbe4
col30:   b9ab58a4fa59687bbb999869cdbb5ac76d96ce9858fac9b8be67c9adca9bdcab879ed7a7b995a6b6
col31:   ea7a98596eb8c9ccbfa7388879aebf98d9aeccb8dc8b9979e797abbad9dbaaeb9ca9a8fadccdcaa2
col32:   6a99779cabbce77ec3f6abbb8a98cb8d89187dfbc99d7cbeb993db7adfbabc97aca8b59acc8b687a
col33:   8597da6aa9ba6eab79eb8bbabbac9fda8ccd6cc7acbcedd78e69cc9cba9ca8fccad78ab7f95ca9fb
col34:   7686b8c86bac59bbc99b98aba7eedea7b99c8cb8dad6cfcbcdbfab9cd96dea9b9bfecb8ca8ccca98
col35:   d8796977dda9caaa9998bb8dbd99bfaaf99c59cac788a77caccdc8cba8dc8ac9c789daac9cc97c88
col36:   8ab6a8549aac78cba9cb7f46e9bba95c9b8aced7dbacac9aecbacbfcdfa9fa8cc9deaa7a5b78bac9
col37:   57a9ccbacbb9fb9ac99cd8c9b9abaedd8beaf9bab96bcdbcc7d49d989aee9ac86adbe9ccaa9ede79
col38:   a99d899aaabbbdca9dffdcabdbddcdfcfcccc8c9ceda77dccdddbf7bebaacb894e8a9b7ab7f9b8d8
col39:   a6f5c67b9c669cc4989fb8ca8eeb9abbcfdba7bacc9ceb9bbada9faccbbd9a96a9ba7adaf9cca5a8
col40:   a8a8ba99bef8aa99cca69cdbd958a9fd9aabfbddabbcabacc66bbcace9cac8aaeed857bdba5addca
col41:   a8788bba98d6b8a4dad8bcece4fde8a9be9add8aabacb9cd9cfadee8c99b8be5bdb9a8696b9da68b
col42:   a9a9acb9c9dda99d89be7a8c7cafac99cdbcfd8aaeaad8ebcd8c79fd6e8cc9ea9bc8ec5bebbb8bca
col43:   b764b58a9a898cebbad9ccb7ad95cccdabc8bf9cdba97cecdb89aba7b6ad9bd8fc9ccec69aac4e8a
col44:   97a7b9bd66f9aabbbc9debdecedf55c8b1a9c9da6dbcfe8dcaab9bffdcde9afa87ddf8eb7b99ceca
col45:   99768dd86abb9c8a9cacbfa8bcbfacacabeded8ffedde7a99da9ae99eca8cdadcd7bbb48fdd8ecac
col46:   6a8877aaac6dc7d9daaaa8c9ac8788cbcca8d6d9bdc9996afbae8ccadbcac7c988aba9eb9bcd5c96
col47:   939caa9bd75aacdb3ba8bb9c8cbca89bb9edb9b9c7fa8b8abba6b78a6ac9abdba99dac9b8277c9b9
col48:   98b55b97cba9d5bcf8bcbf7b8c9ccddc8ee98798cecabbfcefdeaaaa7b7bb7a9fb8c88d6cfa8a7a6
col49:   9767bb686a98b46e7f8a7aa9a79794ba9cd98b9e8a7cfed9da59ba99879ccbd9c9c7bc69b6ecc8b5
col50:   ecb78abac867c8dcbecdbb58ac9cabba9bbbec88dadbbbb6beccbdebdeaadbf89bcaabba7fabcaf7
col51:   8558d59cac94ab98515668c952769b887d6897a89a98cdb9da6c987bbdbd6aac94d9b6a999c78655
ROC:	 BPix_BmO_SEC1_LYR3_LDR1F_MOD2_ROC13
col00:   1758453596a34b9ba89aa796a788da688a7aa8b7b5aa47b7a5a8bad9c89b7aa67495c7854bacba66
col01:   79a48587b68bb857b99fbbc8a8a9bbcaea9b89679b9acad7b875aaa7cf9bca98ccdcbcb9bc77e76a
col02:   b7a32da9a3babab8df9ffdb5aadb7bc8d9eafc79b9995bbda8cb9caf8a5bbddac7b8bb9abfdcd6a7
col03:   4894866766c985a79967bbaccad96aa7bb9e8f87cb9bacabdd9b78fcc9e8b9d76a7ceb96d6668cd9
col04:   45a6ddbac78785c886abaaaed89c7ad5f7999ccd9859ceaacb9fae6afdccccc548a9799767f9b9b7
col05:   b968779589b68ada7cccccbead5ceb8da95b66ba89bc9a8b79cad7a8abca8e6799fcb9a87a9a9bea
col06:   6876b87a6aa8b9aabd99a78bc9c99eabf75cb999c6c9ef87aaa78efbacb9da9be59baa887797c998
col07:   749a8acb58b776c5a56888b8aadb5a96abbdacaa49beafd7a678af9cefa8addacfc977b8a779a777
col08:   847d7676d989accc98a94c9757fa85bab7f8bdaa883d9a44d8a7a9efa8cbcc487cba9abb66469bb5
col09:   b588a87e9b1cc98b89b7a999cabda88cfbfeccbfa9bab9eabca7b96ebb9bb87cc79ca3a9aa9cb8a7
col10:   a48baac469c7adadda87689ebca8cac9accbaccbb97d89ec7b6cbaba6a989ab77ca9698c95adc9f2
col11:   9a898a9a8788b936cc59a996bc88baceb7d986a9baa8b69eabba8c6dbc79b8878a55b898a9aacc89
col12:   7a848ab5ca87a7987ac9496aaca89b6949cbbab89a7cb679bbf8a88fc79998ba6d658a677bdac598
col13:   86648b76b88a97b6dedd89c9acb9ab6bcd9ca9a9abcdcb7b38d473dc986de8bcb98e983cd6b9c984
col14:   786b689699787716bbc8caba6898a9c9de89a9699adbcda97789ddcbba96e7749ae5df9aa4caacb6
col15:   842586ca497b785469a87899a8d7b9bcbce58a8ac7a88fbadbbbc9b87abb89aba9799bab6cdac4c9
col16:   b997aa85f684c8c5799649a89cae99bfa9ebabacc68da96afee8b69aab76b58bb86de9ead99daab6
col17:   a957b9a49473878696b8ac985a7c9d78ccbb89b9bbaaa5a75a88e9c86c59ec89e78996b788979d98
col18:   8b46a85d39735a3cb78a8aaa9aaaaa9c99d9a58ddaebdeda9c5bcbabcc96c88da8a5f99488a8a8ca
col19:   9ba9a8468bab8869e7ada3bbc9796884cdccc9b8a8fa8d99d5ab98c9cb97c4f49ddb9e589ea68bc8
col20:   635647baa8a875c9a26aa987b5bcba6b9697bcbab64c88ca7a9c966994ca9b9ac79899ab89758477
col21:   8a7558888999b678a897a8466b997c6bb5a7bdb98d9b7afcada79b9cfaa879b6b8b477b96967cba3
col22:   aa67c95649adbefaa97ab8bbce7aead9e9efdabafe7abad8aaac9a96bbc586bdb9dcdadb75969899
col23:   78263475b8a8a16a96b8ba7a86fba799eb7aa985a9aac6dbca8acb957c68c9db6a9a66b4974c6856
col24:   7278694b7a68a856bd66999b9b89bfa77eb6a7a699c6a8b5c899ca75b7bcbb86799b8e99a67b9a78
col25:   886677558bc8b5cc879a8a69cd8c57b8ccdd68783a6c95caeb967797fe69aa8c9ad67abb68576d78
col26:   5868a897d9e87db9d99af9f99bcdffadda9a9aacfdf8bdc89ebbbc7bcdadcad8f5a997a966b8bf97
col27:   38b57db78857767b7b9b98cabc9acceabaa7aaabcc6a9afe9bacad7bffc8a99a898ab7b9aabc886a
col28:   8ba86597edcccaba9bb477ce6ebd98dababafdeabcbac9cec8fdd7caadc99ca9aed9aa7bbab5d6a7
col29:   9458784ac89cdce6add6dbaa84d9b89da99988ec9b8abdb9cfd97aacb8a897bc77b4a5ac8cbeaa89
col30:   18cabaa98ac8a97bb7dcccb9cc98cd9bcaeadbbddcbbd8b9f7dbddbb97dabdfb9c9bca8cbabbad9a
col31:   55adc7e94cb5fabbbcb9e8d9b7bce8c7babcb8de989ffabdaeb989ad59de8bb98d9a4c7be9eabab7
col32:   74a9c8a87a8abbadb8cbbd6fbbe9eaeddaffdbddca8fdad7ebdedfbdbcbfb6bd8ddccae7d8e7cba8
col33:   65ba95e8adecaa9adebcacbbbb9faa8bcaecd5abae8dcab8bf9dbaa5bcecab79cad899cbedbdc7ce
col34:   f756be8cb6eeaa7eeab9da9bb9af9abfebfbbdc9b8fdda9ed9bd8fe9a9bdb9c9a77b89bb99baf5d8
col35:   999fa8d8aab9b86ceaaaeb998dac99dccdd9bea8cfdbd9ccd9ba8aa97dcadcaba5de7d899b7cf8a7
col36:   aa9fc8ebabcdea7ec6c99ec8cabab9e78bcaadbf9bc9a9ead8df6d9bb98a9bccbd9878a9cd98cbb3
col37:   89a9a78abbbaabcfecba78c8fa6a9c8dbcabbbe9aa8798ccbab8cce9cfc99aabecaabaab8cbbf7d4
col38:   df6ea9acebb79bd7edb7b8aecf9dafcccdecacacacaebbc7fabe9cacebaca7b8b9dd9dbbad76a7d4
col39:   98a8b7cd9a6998f8ebd8a8b6ad88beddcfb8afecb9faedf8adbda9e7c8cfce8cbbeaacd9cd9bcca6
col40:   ec975c7ab99bd8cda7b769ad9fbfa8daceba7b779afbfdebeffabecaebc9faaeb8abe9bda8ca9ee7
col41:   4ea7ead9bbb97c8dcc9aa9bcaba9c9e88cb99dcc5dacbdda88cfadfbccbbffeeaba78c8cfacb6cb7
col42:   56a9a7899996acfb8d9685bb989facbfdc9bbdf8addbf8bbc9bcd8edaa8ada77fddf9bbaca9abaca
col43:   48ab687cb7aa868cbaead9abceaddaafc9e7bb99dabc9cd99ddef8acbacb7dcbaaa9b879aa89cc97
col44:   c9bb6bc76b26bbd9bd79bd9f58d9facbaacfdbeadc4bacb7acbabba9c9fcedcabbbddcd8a95bacd5
col45:   5c9d6a7cabbc9af98ea99caae7baddc8cb7b89ab89bbbfadc9d8b8998ddcb7bb99ab9aa4c7cbea69
col46:   bcd9cc9bc8fa7698a6cd7bf7ba76b9bcd7f9d8aecddcb7ed9cd7bbaaad63cdb8c95c9a9a9af79cca
col47:   a79c9996aaca9d9edac99b797fdbbccccddba83ecddbcc8bdad6a9b79a789dc89e866a8ad9edeac5
col48:   27ba59bccba8c9979abbc968cc9fc9cbbfcaf7a86adbb7deea7a7c99a98cbf8cb7ae78adbac9bcc7
col49:   6696999ac68a9cabe645ba96ba5dab8baacc877b6956c7baabb9a968a9d9c599bcc9c7aaa9bb9768
col50:   a486dac7fbd798b789a98ba694bafa99aaaa9bb9df8abcb69adbdba7adad94bdd7c9daa7b9a9baa6
col51:   4365c659768589b7b7688a7a744985759b53976a5ac59a75a9863765979567598935966b28743768
ROC:	 BPix_BmO_SEC1_LYR3_LDR1F_MOD2_ROC14
col00:   7a6a8677668977458a8a7cb4b6c9889b67aa6999899aca7a9bb99aa695c776abba89cc9789fb9b98
col01:   57b869a79ba68e7a9d7b8da899c9d7adbeac999bdcacdefbfcababbfaaafb9c7a9becb9a67cfabaa
col02:   79798a8aa985c9785da8b8b796a8a88c9abb98f878ac8bb8fdb9daa8aabb6bc9acac7b9badaddada
col03:   4c38c9a8a887e97989c9aaaca96a8ddefcb9dcbd8cbddb9abab8bdebcffdddcbbd8cbbccaaaaba89
col04:   8b5cbc66a888c878a79a9bc9c57989bd9cdad7a8dddb9d4da8bc8aabc9aebdacecbad9abbacaefbb
col05:   b6656a77daac6689da9cccabb9bcd6f9c88bca8dc6bcedaceaa8bbefbfa8b9faca97ebaac8f6cbbb
col06:   55798983a79a7d8a899b9c88b7aadcf8dc988edbca99ac7adb9baccbbfaabecb9bdcacfd6bf9adbb
col07:   746c8597868a6796badae899a99fbefbb88adb7cbaedcba7c59ad79adfac9ccebce9faae6cabbecb
col08:   649848ab86887c5969b767db9999a7ca9c957dbca97caca9cd99a9c89a89bab9cc8baae8acbc9ddb
col09:   675969b8999a9b9bab7bcb9abcb9ac98a7babcbb8addffff8afba9cafcefecabdcbebaeca9bcccba
col10:   666989688bca678798be89899aeada68cbccdabbcdbaac98ddd9daabaaeabacccc9ebbc9a87b7a79
col11:   65878535898477a9ca74ba68b989a8a7a7b9aa9898b68ac7abdfebaccabc9c579788abeadccb597c
col12:   31c9b879a65668686a757a8aae9ba39bd97cc8f7b99aa77fc9988bbca79ca7d7cbec7b98a97cb8c6
col13:   b4187b894a52897a896ab57e78c7ab9a99ad79c9cba57b7d99b7cdaababdcbb39e88eaa8a9c4bc89
col14:   682aa57a67aa899967adb88ab6c5caa4a9d9cbbdb9ab796596a8ababb8b6c798bac8898b7aa4bca7
col15:   68b589b9665ab7779857a9997a84aa78968a97aad5ed8dbe88a94ae8b9bb6a99f6cbb8ad9c7a9c7b
col16:   54587ab4764c76877a7b88b8a6b7378bb8bacbd8a9a9b78ba8acaa8abbb8aabae8998bb89ca9cb79
col17:   4467616c8477886565a8a7a87ce874ba6c5aa8c5a9b99bb79896ed6adaba9acc89b6a9aa99abac7a
col18:   5173658a566435999593399bb7a859795c979b8da879bfc8bdaecab499897d86ba6ca9a7879788ca
col19:   89359785a667579686a7bb677ab7a9c968cb8a6aa8c99ba9cabbb45a7999ccbddab9cccc8899b885
col20:   8461b5766784487651478a683536999883c9b989785a9a9aa99599ab6c8c9b68a9688d6b968cba77
col21:   44a873977977a6b8a55987b9a7575655bb9897789a9685c9a86b98c7cb7ada7bc9daaa8a89cbc7bb
col22:   899477a9778a454376a988c999a78778a3b69399baa67b65a7736b9b7ab9bba7ccf6ac978b8a8b9a
col23:   7847896759b99956482aa497966a598a899799c594b6d9aac677adb7c88a8cdbc9a4b79858aa9588
col24:   486738a96983374a8aab694697aca7468aab6f79b9bb7a65bb7bc6b9ab8bba99a9993ab88a6cab97
col25:   646931949a46789a96b88b888aaacb987cbb89a7869c8c88a86bcb9b99abba97d989a789aa8dcbaa
col26:   8559b5857688cb88c7abc7cacc8bbbc8abc8bbb8d9b998f9baecdbc6fabc5d8a9ce8a7a8bdfc9bb9
col27:   7542989a759b9b7b54569bdab7899cbbfbc9aca69ccdc87abcb8fd9c99d9cb4fcadc78cb989baa99
col28:   6875d7a786e55b7998a98c8c8b57caec98baaac98bccbc99b5ceabc8cda9dbcb7c8aaccbab8b998a
col29:   98979896a7499ba9c7b78779bb9d5799b89a77b7b58bcdc9ba9eaaaaa79688e7a8dcacbaaaaaabd8
col30:   56797bba9869b669d548b7b899b67aaabaaa7abb5a7aab9afa99cdddcb7cb99999bcee699accaca9
col31:   598a8a47679aa88c749babc8b9c7a8bd68ac8baaac9c8998ac8b9e7bccacfdbc8bd9acabdaf8bbd8
col32:   99c7759989e8759ac9e8d7d76b7dcdb9c9aaaab79c9ce6da9cbcceacc9aaddac6fabe8dfbcebdbba
col33:   874879a879979296bab9bdcaaca9a8ba9cdace9faabc8eaca9caab8bdacd9ab8efb8cb7aedcacbd7
col34:   87aa8aab69bba86baa89b88bba99dc9b9898a9a7badbac7dfbe5caccbcbaaacceafcdd99c9cdbcdb
col35:   9a8b578c8abb9b898be8989a8bbaab8b9dc9aba9ae6cd6eac7bbb899bcae8accd9db9d9bcd6dd996
col36:   497758697b5889aaaccc8658a9a7aa9aa8aaaabddbb97abfaabdca998debbafbbae7da8ae8dac98b
col37:   ba57bad9b59aa6788a9e79bdacada8c6aaccebcb5bdbbdc89eabdb8cd7dce6afcc79a79cb7ccd9a8
col38:   6b8dcab678bb79c8abb997aca8aaa9a79aeaba9b9badcfba9dfadabaafdaa9cf9bdaaf8fbc4efba8
col39:   4799db779bab89a85ba8ba9db5afdd9ca8bbb9b8cbccabcbbcc9ccbecbcbcaef9aa8baafbb7b7b99
col40:   388899caba9a9b97c8b5b79bbcacaadbcc96de6bcbbebc99dcbf7babbafdc9beec89dbbad68ebdaa
col41:   868abca6babacda9a9b8cadc9cbcbcdccd99cbfab7b8dd98a8bec6bcababbabbdcbabab988d8e8ca
col42:   89787caa97a99a5d8ac98c9d7c79bc9adb7b9a6aa99f87cccdbb8bdbebe8cbbcaafd9ddaac8a9bc7
col43:   74dc7acd898a9b9bc7998abbbc8f8aeadbbcda7aca998eadacb9d8cd9cb8aaad9baaaaadabb9bc9b
col44:   a9ab8d9ca8699cb69adddb9699b9baa878dccbb8ba9c7aaebccbbb989fbbfbeb9fbefbc7ddbccc8b
col45:   8b789976a8ea99ca89f9a6c9caae967bca7abad7aba898ab9afaadabb7cadcccdbcedcab9cabbbeb
col46:   bc8a786cb897aac7a9a7d8b9bb8abaad7eba79bc8d9eb9bccc9cbaada8ccabab9cfaebbdaad999cc
col47:   8cb7797988e8eadc99cfadaacca9caeac7d9fdec9cbce8bcb8abcbcbabdbd9fcecdc9bfc8bafccb8
col48:   acdbc8a66db9a6989ac99db9bcccac9aa79aab99acb9da8af9aaddbcac9a98a8c7cb98a9addb99c5
col49:   db798ea5fb79aaca95a7dda6b7ba979998abcdc97acb8bbbecaadebdcac9afaaa97a9e89cf8bc7c7
col50:   8db7fabd7a8aba79baabbaac8e9cddb8ade5b7bbe8aa999cc9dcaab88b9ebb89bbf9ce9a7daecbf9
col51:   68a8646ac975a937988786eca9998ab6b8b989dc967a8965ca69aa8996a86aca97887a77a76a9899
ROC:	 BPix_BmO_SEC1_LYR3_LDR1F_MOD2_ROC15
col00:   3457a5596497874568977553a58986787789439b86887a8c893879a777797b6aa568834837a768d2
col01:   8259a67687697813c86a8887b79cb8ba79a9cba98997877669a7889a5aa6b66998aabacb899684a2
col02:   58866ac8c78677c87996d39a8976a9667996668a9ca5a48c9486a877bb4979a97b6aaaa769c58878
col03:   627372c5a84b799966b8897a748c976a88b6ab85977cd78886a5ab8a99896538aa96436a8a9ba983
col04:   2969947a6576b764bb9a798b79a69acaa8b988989b6b9ca9abb3d7ca695c98b6c8baa5aa9c7796a2
col05:   6b48b5899946a196775ca599778ba8491559998c95a698b89ca488c969989a65db9398885b995ca4
col06:   4576a55976b487d9bc5667a497a55a98978fbbd67aa76996e349d959a9a687babacb9bc588597a86
col07:   56d56767b6c495758865bb9a7587898686ab6aa7baaa9c999599aa799a98f79d5855a84b5cb978c4
col08:   69b7685889b579bc579ac6ab4cbb7988bbafb988a9ad688acb4969a89bd9b6a57b66b8b775aa7b77
col09:   345677777895594ab6b65a39859b98979a9fd66cc855b859bc96878975a786998ccf7e7559c9d875
col10:   8888a9835687a69a79987a9cc9968858979aba778e966beb9985675878aab9b79a68fa86669966b3
col11:   b53478369b9274746794a9b8879c7689888a7ba774696756ac73b857899c37b889c7998b678bcc89
col12:   77877c75667359678a5398b559a88b89bb8a967db7956b6494ba88984e7863999abdaa49678767c5
col13:   65a4492ac65667a4c777fcba9b5ad888aa77c9ba629caba9b49a8a755cc3999b4b955987bb978677
col14:   4669793ac64b58a69a7aea3b699b4c9566976d9fb4a67a987758bc96d6bea7489b9775cbdbcd79b7
col15:   6595678989517b6c634885ba6897d58ca9c6aa9baab889d5996898986a7ba2985a889a65a98a96a8
col16:   38a897c7886d6b558998a9b37acc6a9a8b59cbb8b797587aab857699bc9778495998ab7688b5b556
col17:   75ba7657498898726a797aab578b777ab95ea89984a9acb6978abb9ca8bb7b9a57d77ac879ba76a9
col18:   8c669986689776aa82649bebb7578aa998b898b78cb5578a98d68aba676867766b9997c766d7b9c7
col19:   834756678896d7889a69a987c58c7976baaba7c85799b969ab8ae6ab9fa8b289c59cd9699a998796
col20:   369737569979a9b575b89ca5ab34578c7bea97999b7299a6a7b9ab7caaa98cb9c75b88998a745bb7
col21:   68893874a3985596ca9867788a39e7ad9b98ab89c6889ae7968acaca86c74a999a8a58a7d9c779d7
col22:   94455767679977d1b847ce768a8c997899a75e7aacd88ab5bd97b5b68889999ba4797b3d8ea8a965
col23:   9584348539b765382889847aa4a49949355ba7a8ca8495acbb3a99688bdb6c676aa899bb5aa7d978
col24:   a8694776a84685b64da65a88a6779c8b8e87a96c8b89aaab98c8dc7aa7a9687c85c9974c9797369a
col25:   7584b49d74898b698887a98c988cd8ac799a69da99bb99646c99ab8a99caa8999bb79697689cc887
col26:   c47a9c59b88c69c988a8bb47ca98acc9c8eaea899cc8a89a9d8bd8a8d9cf9b7bdbf84be8d98b58e8
col27:   95699a85aaa9799bb99eb88ad8cacb98b99be887aa9895acbb9ed8bebada9aba7cb6bc8d77fe9dd7
col28:   677cea88779788854d78d45b899aafbc9da8ebdada9a8b898a978dae87abbcacca8aa9eaeeabbac6
col29:   87aba589487a987d7596ca86ddbabbd99d8b9bba9e944acacaa7a7cb9bca9badb8dad8fccfbcdc87
col30:   3558ab99b97b6b9cc797ccc99aeccbcb9ba5c6bcaa87abdbb9aac96bd6ecbba789b8bbbbad9ddb98
col31:   bba88aacbace8b5a9d9cccd7deecb7bfcbcdbbdccab9da9abaffde89d7dccadd6cfacbcc87ccabed
col32:   9c7ab68765a89bbbdc8a8ae8bd8edadaafeeb9bceade97cdccbfdfedcabba8ccdaac895a9ccbabbb
col33:   b7887a9b4c5d6cc68667b7aa8a89bbddc9c7e7bdbcfaabefa9f9dfdccd997ab9bdcca986af7ee6f7
col34:   95c89a6997caabb9e9baaecbfb89ebaaaafabbfacb9ccda8c9fcc8cbabce9bb8d98ea79b9dede9cc
col35:   887986669a7bbc686bc77cbcdfcc68ad9cbc9997c9dca8dcd8caa88b9afcad7b9bba9be9e595dafa
col36:   a5b9d68a8b88dd98d74a98acbabbd6a8bcacbbd5c9baa99cee7abd9ab8ebd8ddcbacccccc6da9bb3
col37:   6c89ab969a9a99acca9bbad9a9eefc669fabcebdbbccaebddcbdafdbbcccda69abcd7bcdbbcfbade
col38:   c69aab8dc9b89abadbbadacc78fbad97e99ddcabebdbbe8edcc9bbabbcdbe7ccd7aefffbbceeb9b8
col39:   c6959989c94ba8a9d7cfac77ba8ab6b5b9bafe988faccaa7ccdc6aec899cdececeb6a9b88bcafdbb
col40:   a8ab7b78ebbc6c996879ab9ecbaab8baec7adbccace89dec9f98b9efbc99accbbbbccbc99bdbdbf9
col41:   a99ac3b7ada7c6abadac89cf99ad9fbcddbfc6bca9e9baccaceacaa7bda899daac9a9acd9ba8ebb9
col42:   3b5ad68d9a7caa9b4eb6bbcc78acb99dc9cbeb9b8ccec889bcb7cacae8c9dfcc7dcbadccbccdecb7
col43:   dccdc9ebbf9cf9764a99ebafffbbe9af8abbbabebdfccdbeb7efdebbdabab8ddbfedf8e8fa9edb98
col44:   dac9e9ebfa9acdcdbaeb6a69d99dcd9ddbbccadbccef9b9ccfbdbdacacaf7cfa8cbb9c8ba8eb8ad9
col45:   8889a8489ea9a8f8abb78b9adacdb9a5dfbafcced9bcaeb9bdeabaacafcafb96bbc9ebfccac98da2
col46:   7c7eaaa69b9889caecabc9bcabcccc997c89abcabbddc89d9fbdf7cbcc9ec8bdaeba89cbcfc9d998
col47:   6aba9b898adbb979b9abedc89bd9dbcac8fdc7aac9ba9cc989cbdaaafeaabdcbdd9aed8bcd9cfceb
col48:   baa98e999c9b9a69a7accd9e84eadde86599cbebea8c8da7cc8c7ccc8d88eaa8beaabbccaacd9bcd
col49:   a9bb9cb99e87f7bb9777ddb7ec7bf689caccc5889af8ceba9add99bbb9daafaaf6cdbbddd5adbedb
col50:   c8876aba7e99c7fb95e8ebcdbbbabcbbcc98e7b789bbdaabbbfafaeebc99ca9cbeefacb9ccaad7e8
col51:   8536a5c78396a76798597ceab6eaabba7d87ab7badb9969ac89b98a68bb89a7996a8636d85899ba5
