ROC:	 BPix_BmI_SEC6_LYR3_LDR17F_MOD4_ROC0
col00:   596a73b5476ba969b79a9737677d9a6b6888e88854679ab7973a5582699546576668971447112945
col01:   ff9b8caabb9aa8c9c94ab695959aeeba8698b977699bdaa8cac7a79e89a99c8868b9318463856787
col02:   9aaa79eac999ec86ccb998d56a9c8d6dab98988b6a6676b7999a9946a8a6b9a4a474587688946932
col03:   f7db797aab688a3b97a7b78adcbabe98b979dfa97dcba6bbccde89575b97884575b7673895963547
col04:   ba4897d879acc5a9be8bbadb6b95bbb57dab998ca996795b96b5be45dda876756b597676959727a1
col05:   d76b79ba9c8bcd9a7a668c97cbaa9abd787e86b988797ada575a788b9995a5563977c87113774336
col06:   898c9659ca54a7988a598778998bb77b8a87c5bada6bc679b6bc96256dab9b7855968c988b463875
col07:   7ba87c6996a8e7767b278bbbfcca798b699ba849db56ca8cab75793872c9b856a678888768839514
col08:   86beb6d867787e9c969ce9a9a4cb8878889accaac3597778a5568b68ca465c3ab988363a963485a2
col09:   59c87ad6caad9799ca799ab76aaed9bd89ad9b7caa8da9aa96a8bc79acc96876ba62597546668224
col10:   8a6978bb5ac98597cb98c88ad9d59a5778b59a56a5c9b6655787b593b6a877677757482666858743
col11:   69a76a497955796957958bbbc786b795a9c8bb8e78fa6998989a451a896a877835788ab336b45535
col12:   5a79746898666ab93a87a58ba945cb97d79a87a697ca9b7b99d78d7aa4987969a79498983a766766
col13:   95cb69b67b969a5b779ca699b96b5b86a89bedb669c89aad6c6ba982aaac679764878a8494837934
col14:   57cd7a7a76877c899aa9672bb98a9c677798d8389db79a8ab896795aa7699bb7b882976894a65797
col15:   a7587b987c898695a949ca66b887aaa8aa8c7ad8daabbcaaac9a9778c979369a5885c2a8587643d1
col16:   79c5b87cada48aaaaa877978a2cb99b9a996b8c8bb796eb7aa86bbb67ab895657a65b776892b6451
col17:   b8b2aac6478984788483799a78aa6a5788d7c6aa873887536958abb99c6c73894444658378634357
col18:   8a5989b99a2acac6a78a759ac5287786799983cba9ab796bb4a79a6848786667558a14783b725b56
col19:   779664667559456c85884947b96889a969ba7989774c65a7b5c8996896a7b7a787b5831856667612
col20:   47bc874a99679b879969b5ab968c67765ba2a68a79a69a7678b9758b7496565534a9756718531741
col21:   a576d7988d68776c6897b597a87a5b37c7c78a3a6d918a467a97a669a6b8bc36b553745672794531
col22:   83974aa977cfa8a6476bb974964688a89879a6b4745a8767b979377b9bcba7578673758549852642
col23:   8a37689c934a775737888b6668559a6686d67b77b3262a989a5787568b877457a3878c7ca24a1932
col24:   749479b5665957545864cb795ba85b9973c8dcaa776ba96a988a677be79a7c777226b765847b4417
col25:   74799a756a7283673a91d54a7b3b69a7676a8b88a97878847668698aa989a7848b775c4759473251
col26:   b8a6abb5a67bb775ccd79cbba8b9dcac9bc7fd8b58babc9bf8d9ab886b698ae7a68758499567546a
col27:   a66e9ba9a8699aa9b6a87897b6a969abbcbb76898aa989c58a798f78b9785ba599c9498774425647
col28:   996bbba7687baa8cb8adaaa5ba9cfb898adbbc66a76bbca6abbb6b69a998c97a9d68677d695a7645
col29:   2ba8b78d65978d9999ea6bca7986cf86daa6becaaaa7b98ec764c7d98a4c9c8ca957864598862677
col30:   aaab9caf78a8eb7aa76bab99899a889bdcc96b6aa8c577addbb997ba9aba9adb295749a727724555
col31:   a7a7a8aacaa9955bbadbafacc87c5e9cbadb85f8c96bcaaa99aaaaa999b988ba6955a69527836831
col32:   777798aada9ca5bf87ab9aa988a667baaea8d9d9ea6dbcdab88bfa9b9a89a8d77a99ba87b8377737
col33:   cab6abf57968b786a9ce7da989b79cbc879adcabaab9abbec86d97cb779c98a788b6c2b63ab94b64
col34:   aa6a9a69d98aa8ae7959beb8ebea87aac9abbe989c68d975ab7a8bab7857c85a9af9c945b477587a
col35:   c9c7b898da9898cda98c6be9bb996dbae86a5baa98e9a8a8d8ac9aaad6b983888b6b3678634a6518
col36:   7b987998c8daac8b89acaabbcbacbe69a99aa9c989fba58aa4bb389bb9aaa6c979b69a73c735b774
col37:   7cbca8abbb9adc9c899acac9efbb8fbdab8c9b988975b78ad7988b7b7d9d8bb677766e56659749a2
col38:   a6aeaa9ab7ad859a898babbc7a9eadbba8bc6ebc9898d5a57b979a7bbaac98d99b6a88e87c859854
col39:   c8e989a7a69e8866a98d7bb9cab9acddb5e8cabdbadb9e987b99dbc9c9a7c8a9999b5a68d5276897
col40:   ccc6867cd8c5c7ac5ad9b9caaccbcc98c939bddb6acb8db9d69abab899ca8db465d967a796c67751
col41:   696b9cb48a9daaa6967b9baebe2888ebadbcd79a77c9ca98c6b7b7ce9a89cc99799a9bb667267758
col42:   9b8c5aaba5ba97b8ac8a7bd9cc8ec788d7dbceb897c98ab99398f8877a9a768679771a6a987c9879
col43:   7c5acd3a8fccaaaa98bbbaab8bfddec8fb56babdd8cd7c94aada8a8aa8b9a68489d72c73a9798373
col44:   cb7c9bcb97aa8ca9a9b987cf9b99bda6efdeb8abfaabddb9baabcdaeac69e8b776b79c7a95744a95
col45:   bc8c778fac7dab8ccbab6bbca8ca979bcaa89d6cb99aa9dc9bdb999b969fc5989ab697978686c7b4
col46:   d989c9bda8878a9a8ca9cd6cd8b6b979e97a9aaab789adafa7fdc88dc6caa688c6389a956a5ba883
col47:   cac8ca6b5ab3b57a7d999eccbbcd5a98b9c976d7ea8acaba886ba5ccc9c6e498b78b5ba7c998b576
col48:   ca7997ca64a9b9dadbc8b5c7898ae2daaa9db896ccaca9d98898a986ba9b7d755878d7687888ab62
col49:   5d98685758789d6394a89b8aaa8a8ebabba9cbb779998d8a9d998acbc689c5a769985b5aa6677a96
col50:   d68acbcb69aa8d7a896bfa674a5599bab68a8ba9ccb99aa6faaadaafddc6767a6b9cdb3687952773
col51:   66896b9886b95775a66a4745878b9d66ca6495a468467a6978721a4a689799874496469445636863
ROC:	 BPix_BmI_SEC6_LYR3_LDR17F_MOD4_ROC1
col00:   79c7765795a9c68986a98d8ca6ba89b9789877d77b97679786a688a6a38a97646837855487674686
col01:   b9b9b999896888a888a78c9bbaa788899688a979aaa9bb77bc9899bcaa96a8aaa978a7b65b759796
col02:   9656a89a7989a88d7a9c8eba6dbbbbaacbc86ab899797bd7a796a8a58a9575a8a79c8987a658b574
col03:   6a8ba987bbb9a795bca5a9887c989cabb97b96b89ba9799674cab5995d99a95a87aa98a756679896
col04:   758cbac8aaa8699b89889ba88a99cbac88a9969768999b88b8a8a87a5c94ba88b99797695953b878
col05:   99a5897667a8bacb8597a8ab7c88b8bc59b8b8a7b4958b7976ab57aaa995c8be76aba86a67864871
col06:   77b77a6b7ba9c79aab9caca8a9aacd7ad7a678b6e7997b4a79cbca969786899a698a83395883aa57
col07:   7a6ac7e8ba88a7c999c8cdda79a686a8d9b9886ba7cc8abfa87a8798997989b93994993735a9a8c3
col08:   45778b9889a8aab877cbaaab88876b998ab9b9b8aa987baba8ba9a698d76a98c9b89699b85476684
col09:   7788679b9cc959b894a38a779a8aa8699c9aac78998aa7d9899779b87567998cc5778669a878b528
col10:   ba979bb679965bbc876aa899a5c9bcbb99ab695d973a8993a699798cb97b58b84b5935ab37589889
col11:   998997d99bb988aa9acc996a88aa7bbd889c7888caa8cbc794b9b9577866c56996784872894667b7
col12:   7aa76589ae767756aaca89d67b998b977dab5cc8887b769977c97c6878b9779a78a5888858646526
col13:   58688b99a5a9aba9bab9899bbba7b86cbd889f98c978a69acb86da95a889a9889a7a682b9a8b69a7
col14:   8588c9c8cb8bad88dfaa7b8bbed9c2dc979c796b9ad9dbac8a747966baa6a8ca9ba77947788758a7
col15:   bba7959aba9bc6ba9c8caa8be997cb9b7baccc69a8aa97a889bacbaa89c9ab836a54677799767a56
col16:   879986a77d8a86caaabaac88c7a97a6b6c8cbb7c7999ccaa798b98a87a899677cc758388a6995574
col17:   768a597399b99b78b8787c98aca998889bce8c9ccca6aab679ab89c797b896777957886c8872ac9a
col18:   5776598a759b9986659aa9559994bba88e899da9bc7c899c9b779768496b98a667747a5777945475
col19:   b89c5cdba98a858b8a87aee68a8b99b7b9877aa6a9a8aac7e899697db6b798699878928766598579
col20:   bb88b7b87879dc8b9cc98ca97acbcb8b976c9ccacabba999c8b9bc87ab9886a7645a336577c7a499
col21:   96ab9889aa886aa6799aabba878aaaaa78d9aaaa97aa7aa4c5a68bca6369e6ac842a88457a796864
col22:   77b99c766ba9aa989abb59a7a88ab87b7cbab8bd768a7a999cabb98a9775597b69586d8b8a788784
col23:   5859676a8acbb9667979aaa9ac778ab96ba7a5c869ca69c9a936bb8c3aa499ba8949588769622984
col24:   776879488a6cb88bcb6a9b979d9e9c9cc6cfacab976ca879ca8669b786a8ab5bb89768a88a986475
col25:   9855998a778d36ac97bac989dba68ba9a5da6a9ba5b89bb88a8bcb7a9999ba6b688799f698879966
col26:   679b87899e8baa6a9ab7dafc7debcba6f8cb9aabaacb6c9ca9ccabbd88ae8ba9ba985989bcccc886
col27:   9876b9e5a9ba88bb8988abc7998ad9bcbbaabaa9cbad9ab98b8abcaeb6aaad9b986998999ada75a8
col28:   5898b5bbacb7ccec8b6b7ec99abafdb7bbab9cca77b8a9dba68876bd865d9bca98a89ba77a999a68
col29:   b8bbeab9a9b9ab9ac9aaa8c99eaaaaddeb8fdbaccabb8bc89addabaa88a99c95aacb6a68ea5c9a68
col30:   abcab79ca7b9dbd89999dc98cabf99daa9bba7b7ac9c87a8a9889e8cbaacb8a68b79b8c98ab788a7
col31:   a79abdcd9ba8d9cb9cabdabcdafcacb8eab9dda8be9aaa97c8cabaee87c8cac9b9bac889c896a496
col32:   a8accc7d8b9f9bdc9caddadcdb99c999d79ccc9a97ceddbbccbdea9b9a77baa889b9a669ca8cb969
col33:   9889b879abbfa799da999adc7aabdbccc9baa8fbcdf9cba889aa9bbadd77cabadbb79957a98bb556
col34:   7dba6d8a9baba859b799aa9a78cde9bbcc97dbdcabc8ea5baa6a9779d9b9bb98d98ab989bacb57a8
col35:   5869cccb9aa9bac8ca8f6bbfc6bb9adcdeacdabcbacdbc9bcd78ade5ca9da9c8ac87a9ba997aa697
col36:   96cb9d99bdbb95ea4caa9cddbb8a88b8aec9adaad79d9bb789a8ec999b9b99babdaa68ca9b67a967
col37:   766aabda9dfab6babdc9faaddabbeac9aefbeab8b998cb97d8f9d897a7a8a8968bbaaa89a99b988c
col38:   e99afbb9bd9cdbcbcb89bcb9cb69bb9bcefb8abcb99f8cdccacac999c9a9bbaa7b9a4bd66aa98b9b
col39:   8acaaa88a9a9dda9cacaaadbbbaaacdcbccaaaacc7cd989fc89c997a6c98bda98bb9979b8bab8a55
col40:   cbbaa7a8aa98caeabeaddababcb9baf9c88aeecb9acaccdcadc9eacaadabcbbab98a77a99bb87d86
col41:   bc989babb99cc99edacacbaddbcbcabb9a89cdabddbde899abc977dcc98bbaada97aadabc7899979
col42:   97c89eb9bbd7eb7e78d7a8eadac79ccc9aa98ccada88b8aabaa8daa9b9886b9adbac98a88a898875
col43:   bbdbcbddadcaefdccbfdc89cdcc8a9fcfecbcecdebeabddcddaaefb96ca8bcc9c5a9999bbaca85a6
col44:   eaa7a9aacbce9dba9dabeaa6bcdeadcedac7dbbaaa868999aaacbbdad998d9c7aba9a7b7faa26c8a
col45:   cda8d9bcacd9afa89aceecbe9ccacaa8bddb8ba79aabbada7a8b98b9cbbb9a6b89baa9daa9897576
col46:   bac8aaa9abcabed9cbca9ac8bcaccc7ea7b897bcbaa9978dbca89689bd7bd867b897a788ad77caa8
col47:   b69abacacd9a9aacb9dcdbbc8dcdd9cadadcba6bdfa9b8cb8bdaebac8aa9bba8b6a79bac788bc87a
col48:   9dabcbbdbdaad89cbbbcc7c9bfdedd7f88fa9ab9ccacccbddbac9dbac89aa9acccdbdaaa9aabaa8b
col49:   87bbabaf9acdbdaab9aacc99ae8cdaefabc9aadcb9fbdba7bbacedbd7cac8fea57aabadbab7ba99a
col50:   a8aac9cda9b6acedaccdaa8acbbceccae96bba8ccb6a8adbaabcdd898ba9acc9aa8c989ab9794997
col51:   89c9baa888aac9a8ccb8d76b9bc989cdba9989a99b899ae69688a9799ba7877997cb98bb868aa851
ROC:	 BPix_BmI_SEC6_LYR3_LDR17F_MOD4_ROC2
col00:   87c869cba996c95ca46aacaa9cf888bb698896797aac557674874a899a667965b7d859a2636a5543
col01:   ba98d4b69b6ab967babc5ca99aabedc7a8eb7988b6a666cdc955baaac978b88785688a9853953755
col02:   5b93ea788cbdb7da9a68a7accb9d9b99ec6ab994e9a7ab9992bb786678abc77a76a275736a998984
col03:   a39b76ac58d9789b9a9ac86c8abbaacca9ada9d9994b89ba7ca8989adb8d874795b8a2778875a857
col04:   99dc9deb78a9bb7ac8957aac6aba5aeb899da889a8ddaef9d688a898bb7599898959c8ac97b95a69
col05:   9a8b9795a97b3d77aabbb97b9bdb98a98a858a8baa98b96a888ac7854aac7b758b89885419794598
col06:   7c899b7da66a99b7ce99bd7bfb8b996bc578989dabc9aa8aa7b7ba6bc84cbc986aa5c568f7c55846
col07:   b97b97aa9899ea9989c76b95db96b975cabb8d8ab9a699b66a46bb896ac4669a75a4b9a3975a7695
col08:   88c885db6a4bbe9cb498aa9aa7a8bb9aa6c78aad9799a7a7a687e656b6b889993545377376527881
col09:   78b79adacd7baab99edde883d8bac7ad7797daedc9787b7a89c7ab8bcc959cac7aa8b8aa77d17c98
col10:   9a8ac8b9a9a8bb78abaebc7ca9898a79b9fcda8db7b99889d2c5ccc98aca74ab77a7777666886c94
col11:   889a7bcb9787c95a8bec9a69c77a98a9dba9ba4a87539677a68b86aa95ca975486a747a6946a6594
col12:   95a798884c9b9d8875ccd78c996aca88ba9b66bca6a697a9688395abae94888554583c467671ab46
col13:   a55ab68986a7adb7aa99aa9ac8d87cbe3caa8ad98b76a5858968877a569924bb888456c95467898b
col14:   64c7a76969657887b7c7cac749b9a8cba9e67c7a99a4c578cbc8c9667777b9759b744aa662987684
col15:   6aac8ac7aa8ab9b77d9ab7889acf88a79aa679d854b7c8a8a978b757a677c78537795a6275786778
col16:   9598c99c7a9bdb9acb569c9bf5bc6ac9babc8a655bb89b77c398d89cbb3895868b8a72168d769945
col17:   a6b996b8376a88babc87857c979ab4d99aaba7c899885c8689a87423951458886753852696785184
col18:   868a587a6977a9b963c79db966977a77db578996988688499b7baa9a647759678868798883256617
col19:   9a2aa76a9a8b5898c74567868bb75d77bcc8a889c7958ba86dae5ab451b789893a747366dd988764
col20:   8b5796c578279aaacc7cb37a8ba8aa873794b7a3877947a7578685679598847a7687b86835689767
col21:   b56898a89a98a7a9978dc7aca8c52d4bc9997688bda8c7496585aa8d86947895b755381844b51862
col22:   999579aaa7ac8939aad99aabd9986a65ec88b777b9d8c9a87897b97a435c78a95a95157637896959
col23:   45ca75c8b686b99b8c89578cdb7bbcd8b95b9575968692a99aa972698aa98948546542b642357827
col24:   95a8ac8589b77686eb793a95b689a985aa8619b8569cb879a66aaab7885668616785638961558612
col25:   768888abca2a9889aac76aba789a8c5998a7476a9878949898bc5ad98c5755878577767734634681
col26:   7a9c99b748bba9bed8d9e88aecb7e6ccea9fb8afb7896cca7aaa9e748a9775ba6a768c585a5ab457
col27:   c997aaa5988b87b9b997aab78a8cbc8a77bc9a899999bc5ac9abb9b6ac7d577668965976a5a7694a
col28:   b6ccbb95b86bcbaa9bdcbc8a979a9abaca9abeaedb8cb8abba88a89a87a777666d77bb6aa7b76686
col29:   7787c7b8fd949ac7bcf9ab8adadcabab9aaa8bc75965ada9eaabccaa7aa782869598873351ab8685
col30:   937a9bc789ed8cbb9bd8efb7d896cbcbba7bc9d9e7dacabcfc8a9da87a87d9ab6a8ad79779778b97
col31:   6b8aeac9cdb9c56d8cdac899eafdaabab89b6a3bdafaa8a8aa9a94bacb9b94776968d767ab9a8987
col32:   ab9b5aeb8da9aac6bbcebadabadd8e94b777af8ab99dc989a8aaa97bb78abd5cabad856873c87783
col33:   bfcb6779fcf6b987fcc59afdbcaacba9cce9d8ca8aaaeb8ecaa7b9cab6a6eb489796b997558b4958
col34:   e8c9fecbfa8aeadcd9cacf2d9bbac6dababceafb7ee5b87c6b8c8eb99a9cb9b76a6bab6998b99825
col35:   b9c9aca8a9cebbccc8ee6c9df4bd79cfb8c5fbd9ebd9a988aad8a9ab9bab68778aa877bb96699683
col36:   996cba98fca8a9bccc76aa698ebac69aac8ebde8d6dfccd6bbcabcadddc787ba9a7895995881aca5
col37:   ecabfbabddfaaa8af75eebcacbbaf9cbadbbbacd6bcb99f7aeb9b6a7b5858c8ab9b997b565a6e9a6
col38:   be8da69dabcddbb56fdacacbbcffc8edcceea8bcecf97fb894b9bc678ddb9aa656b8cc68688688c7
col39:   7caeaeacbdcadbb6ea6dadc879b9a7c9ceabfd9bcafcb8dd84a8a96aaa8d9958cad8a748abb73658
col40:   fdeadacbcede7cbf6abaebbdaccee8bbbbc7cd8aea889be77f898986898dabac4848eab86a6da786
col41:   7d6cd9bca6debb9aed8daa9c9bdf97ccacace9c889aeba9ad8cb7ca79b6dba8dac9b854a638a5749
col42:   8cbde6a9bdcabecababbc6cd9beafbaa6aaccabb889dab6cb9bb96aa66d4b6b874a79cc96a89aa88
col43:   abbda9e9cd9bcbcefcadaabfdab8ccc5e9b99cbadeb9ddba8eacac689989eb98b74b7795a8969778
col44:   ccc997dabb8bfb9f9dfbc7d89a9c786aeeeaccabbbdb99aa9d9898a8952cb7a887c8b9aa6aba659b
col45:   c6b8fccdd8aabeb8dccaa6eebf8e6d9aecc997dd9c76accabc6b9879aaae781a88c378587855992a
col46:   cc898adb8c87b9f9e9ca588dd9a8f9bd7aa97b9e8ee78ac96b88d8488eb6a7c9c5796ba4b7a659b5
col47:   ba7b8bcaaeb7c98dbdbdea9c6bdfad8acc6cedd6b76bd9674ac78aa888774c66a8588884a67969b5
col48:   89a9bb96d9aa99edbac88acb89edcd7fa8bbdcacadacd97a9d9b7b65ccd9b64b8a8778669a793771
col49:   98cbd6b49cc9bdbe68acc99acc77eacc98a7b98c9bdc98c6976a58bb778a985a3366a6a943877474
col50:   7a9adbabcdceca8d8f98bcaafab8e9aa9cac67b997b8fd9b8bdc9cca99b96cb959ca38694a657877
col51:   863992e3bd9bad7999cba889547b6778886ebb61b87879da35b68529b69654262671391945282862
ROC:	 BPix_BmI_SEC6_LYR3_LDR17F_MOD4_ROC3
col00:   65a8a79494843f6d69aa8a5957dac8a6e38a978467b9497c7a5a7da795976659849554889c695385
col01:   ab759dab98866a79aba97ab99abc99caf999a98ae9ab9a98db5dd5d8fac88a8d6b98bb95775a5361
col02:   9a999ab8bd78b797ab9da797bb9a9888a499c646bafa9d9ebcc98cbc69699875e76aad54899569b4
col03:   99bd8f597b989ba98b8b868fcbad5ad8cab59bad8b9f9a7b79beca777a85abcc899a9c89696a5787
col04:   bb98ca968aaac7a9aacb6a7adb786ab5c9accaacd787b9fdaaeac8b7cae6898bbd7b899e5a5aa7c6
col05:   68648887a8db696989c9aacb85a88ca98ceecdb7a99cd758b3b59e9c87a77b799d83989c7a98ab63
col06:   9bb8a6c69a4a7bab9da588bb87ba9e6ac89748ccb569b8aaacde9c5ae7ac97b97568b9bd77976394
col07:   687b686a987c6bb589acb9962997c7cfbe9a6cfb9c84a89a79cbcdd8facd8bac77abba56a8db7496
col08:   a9a4a8d8aa8bb98c8a958cad7a8bbabcdf68baaca7aadbfc77c6a8b889bada4998695896886aa617
col09:   9b99775655a8a8bcd9f9b7a5bdacc79aeaaa6a1a98adacaa5b7976c996a7adcb986bb9a99c988a95
col10:   b757ab92767a99c7bb89bac6b69b8b88ebc778fb589e9bbc7bbc8d99d97a88885a958abb834adb94
col11:   a462bdcb886cb4abbab788b98857e8a6bd7c7ab9b9c97aba8c89aade66a7aabcc9dbc8a879a456b6
col12:   b5596b85aa6ca7996d8c99b98cdb9e99aa8bb97aa8756b69a9e7bdca9b997caca67a79977fb87a5c
col13:   676796b76b8667cab97b484b7a9d89979a99a6c8a7cdabadbec7e39cabdcbb85a777989b67887147
col14:   46c899748a8afd89897caaa9868a9badb696addb9e988cefb6dca7a78a6fa87e8a3688c3a8a56945
col15:   749889a7dcb482889867a9bb89b97abab876abaacaa9a7afbab99aabbddaabb76a7a3b1596a7786a
col16:   44865767a788c5d5c75a8aaa6a9abba78cb88cc94a99c8b6ecac9ab8999abab8a97b3bba8a843aa4
col17:   782861655987897298d6959795f86b999a8d9b789b65ac9aaa5e9ba87ba958888cca677953366178
col18:   5c69a8a388a1789876899c88a657a69caad9c4bcaadaacc6577aaa57d58e8bdbabab7b858b5a4ca6
col19:   8a559bbb9a68c8c95a68a7aa9a6679b97988cc9c8f7cc965aabbda978b6cbec46ab7885593695a8b
col20:   378888ab796a79a2687a967959b9995d8767b7d8a7a78b67566da898a7b5aa7b6681856ba8465754
col21:   aa593569ac78b987785b79a895978987ba79ac9999879d5d95b9a57c99b7a9593a9b8974aad85b88
col22:   8a89a6b68886a9b7ba6998a866a888bd5fd899ea7caaebe999c96859865b98798699438775568254
col23:   867767868887796968177b89686858bc68b7b498cbaa8697877b8899a986cc7ba859719837a81285
col24:   9a956aaac79aa8c659a5a59cada6cd9cc6cb8a89a49baa875bbb6ab8758686999799a865a1649474
col25:   4689c89a7a76c8788674889cb8c7cb79b8b887aba9689857899889349c5cbd99ba866b3689d64854
col26:   68677a98899cbcba68eaaec7b7aee7b98ad8adcce78cdebbbeafcdbaaacebc5697aaaac85abbb797
col27:   7a78bca78a9a69dd7d9c9ca58bf9ad67bba9a9ba8ce6aac5a9bc87aa5dfadc98cb887b6bbc889576
col28:   abe96ba7d4ab96b75bb96cbabbcbaab9a9b9cabcbcc89bd8ccdab8bb7eedbcacbcaaebaab85b8788
col29:   7a59977c9997abaaa7b69cbddbabffab8c9cb9baadd8dac9addb76e69bb6dfa9a85d653ab29bb6b7
col30:   9998b9afcade8aa59bc7c858ae5abaa9f9adccfdeba8a98eabaaae9acc59659c9aa98aba9cbc8ed6
col31:   aa8987988aaaa7a9d8a6ccebcbbcacbe948f79edfccaebeb5ad99fababdecab766ecdb9c9c9b8a7d
col32:   897da9aacd79ab985a6a5cbcee8b88d7d6ec6ffeb7beecbdadc9ddbdea78a9deb9fbaaab899f5578
col33:   778d7a998eb76bd6cbdb7a87ea9bede99ccbbce8f99cccbdccbeda9da9b9c99ddadc9cbd89bdbc75
col34:   796aab98adca7edfacb7aba7fadfeb89d9cbd77dea7befafc898cca9dfaafcaaa88e8afccaa4e873
col35:   b88db9c79aab9b997b9b8acdfacdbedbbbbb9ce9eaeedca8baaadbeaeeadfbacefaad66eecaa98a5
col36:   9a8bb9cbc9a69da8b99acd9adcddaadad8aa8dae9bdb9dfcbb89bfdddf8b9daad85ca8a95ce99af8
col37:   88c9a9caaa88a9a99aabbcccddfccda9bdaddd9aaacbdecadcaccba9fcbdcdebbc8c9bcc8dda8873
col38:   e6ba385bdd9c699ceadbfb9cc7abdabcfcd9dccaffcdceebdbdeddce7ddefbbfb6ac9ba7cb959ba5
col39:   bcbaac6d8cc97b999a9edbabac7e9eeb899eaaac9efebacdc8ddd79dfbbbbeadadc9da9bfa8d3da8
col40:   bb97ec8cb8e979d8bbbcabaafddbaeedcfccf8eadefebacbbcdcb9dcb8c9edddaa7accbabec4be9b
col41:   8a9ab999cc96c8abc6b9bcdaebd9acad9ccfdcccafbcadbfdc8dc9bdddcca887bba69ab6757bbe68
col42:   96c97a8addbbbc9b696e9e4ebecbcb8a6ddfaaebdecfcf8ff9eacaee6f9dccacce696ca9cbdaba67
col43:   7da9aea5bbdba8daba9bcfc76c8baaad9acbcecce899d9eeabbabd9efdd798d999bd98bd81aa8459
col44:   7dca9bbb9ac99bcb9cbcdcce9eceddcddaacbbedcfef99cabbcbaaddcea9fd9cbba999ddea9985ba
col45:   89a6a8aa7ecccabb9f7ecde9d9baeafbafdebcdadedeca9faf8ccf9a1fcffefbd9d9f9a6ebc89bbb
col46:   89b878b99a97a8bdcabacd9bcddedbadcbdefceacffdabaaadccccabbdcb6cac9ccbfbcb7cabd3d4
col47:   9bcab88b8a76caa9aaabccb7ad9aea9cf9eabaaec5edcfacbdbabb9dba8d7e9fecea5ba9eaf7b86d
col48:   bcb859e9a8a7bbc8abcac7bbdb8e998d98cca7b9de9aae88accbdaebcb9bbadbbb8ae7dbda7c8c87
col49:   b7d887b76aceda998bd99fa8adccbf88cb9ade48b9bdbfcb6c99da7dfedd89bac6eaabc8c7cc7887
col50:   8aa7c9bdc9a9fda89ae77bd8979ea8b6dfabdf5fcabb5ec3cc5efa8db9ecb98dabbc7ba74caa99a6
col51:   7998b4829497b598979a899aa77bbe8bad8e86aa9b97b668c8676799cc5db9b9aa76957ab9966844
ROC:	 BPix_BmI_SEC6_LYR3_LDR17F_MOD4_ROC4
col00:   94ab896a98aa74958a8868868995767663dbab68676a928a959a8b49824264651477661513667725
col01:   9c99cacbac9556b7c988a99878f877c78ba89966aa87b88a9588896697b5866799766557c5589576
col02:   6d99b788b73bac8858a9bb968cd6bc899ed5997ba78997679757867759a475964644865315866333
col03:   bbb9cabaa79e89ac9bda9ccbd9bb78cba99987cd878888a6598297ab48788ba5aa87b57594845923
col04:   87aa9bd8b9b8b69bb997bd8bca6baa78ea7eba9878386987979996689989a794835b95167678a926
col05:   b8ab5cbba78b7997ccaca9eab8acdba7597a6b78c4bc955a997aab96a6a988666666728c74945835
col06:   6968cbb79eba969a897a77b57eac99b688ba5aa77acba9b877b688893b8789967557235596875351
col07:   a8cb9bd9cb95ead5bcbc9a69aca9d857c899d86bab9a797cb56e6c77559997776877749b67698865
col08:   57d7abbca8aa8c88dba8b99b9d9ca88b98da8a7eb96ab996648776c789b856597797966777937814
col09:   7aeabaccdf8996a6b999cf9866d87a9a67a9898977a7b7887997789b765b5568a56c9677c7366a65
col10:   8a9baa7ba8abcd8cb9a9bacba89b6a898abacac96988dad7b89a9a5a29ba57a8b74b5292969a4474
col11:   ba99ca97acd9ac8b88abb7787aabdc95bba6b89baab8bcc88bc86b659754662666634685a6a66877
col12:   bdeb9b8a88ab7cba98aabddbba896aa5cac5bac89b8ab8d8971b786b6569968a5867789686679753
col13:   b8bc8b9ac89cd989bd88d9ace8a6bcb9b896cd9ca8cab77597a7685889953c4b8966664968469588
col14:   caa8b79879b9b9cc8688baaa87a7aa88c999bcbce689c558699567689b6993787d76b784747b9788
col15:   969b99babbf9d7a9baabcb88a5baa8977bc476cba98989888b7884b796579c664859499853285682
col16:   bbc9ba9eabad9cab9b679cd8aba6db87bb7baa8597a9888b769c88bb98989a9877775c8266b327a5
col17:   8aace6ea9d78898a7887768aab6ad88c798b7bd899a8696c7ab9a9b89697b4a7a997874845449525
col18:   b9a887a9cbbbba97bb8c88a6aa367889a88da987185d4b598d589569d6a965a2b795647746544882
col19:   9a86db9ad88eda7cd68bb9c9d999a6caaa8aa969a69b8576a8b8999797db7897888797ca888b4b68
col20:   89aba897fdca89b98a89dac798a67aaaaadb5b9ba678c9aa4977a9797688ca8661698747b9546a95
col21:   96bb9b6c96ba98cc8885a8c96b9ab99bbaaaa9ba9897aa969cbca9989a8d76b77a2867b388656576
col22:   cba97bacab8bbab69bda7b889cdacaabbba9db8a7c8cd6988687886a9b5ba687c87a3b365795a991
col23:   aa9788b6ad8bbcc8479aba73b889abaa9b88c89b896ce8a6d798a9a7a5a67a6b6766782887575768
col24:   dc77aaa99a69bbbb9b9b9a9999bcbac8598a79db999698c98a698888887878598997ba9569956778
col25:   aabb96cc7b9999bd89ac8aacbaa9fcba9cd87b788bc6a98b67ab9d58a8997b6a96ba87a88989b278
col26:   cd9bc7cbebacb9dbd9abcadbaaccc77bbc98aadce9a99ea6c9aba85ca7db9977dccb8c8596ac8745
col27:   be6799c9eec7daab79aabdc89797cd9a897cbbbdacab8989bcc7a99a97ab9aaabb9793968c8a8aa7
col28:   aaca9dbb8e8acdba9bddeebd7be8ac6bbbdebacbcadacca8ed99a9b999a99b887ba8ab687686979a
col29:   abd8ee9daddbbb7caa98cc9aba9abaea868ad8dcabb6bcb6abcbc7abb8a5a8a99ca96869da64687b
col30:   fcca88caababbcbc9ccddcbc9bbca9aabcd7abd899ada8d8b5acadab8ac98f8a87b7acbb9a8bccb8
col31:   9c9ccbcba8dabaad8aa9dbadfcebcdbcdeabeb967ccdb99c8ecccbcb8e9a8cb8b8a79a788dbabcdb
col32:   bbaaddccdd9ebccfcbbebcdbfcbadadcc47dd9dbcaaabe7e6996ab949b7c989c9aa98988db9b9878
col33:   db98a9c9a9bafba8cba8ca88dcdfd9bba6e8c899ad8bbbfb8cc9ccb876cb7bac8caab8968aa69867
col34:   caaaaabbbcbcc7c9bb9fdb6eabacbebacfce88ecab8c98ccbca8aabbbb9abbcac8cd9bd7bc98a8a7
col35:   deb9bad9aeccbaac8bfeedbbecdacdf9bb99ddcc9da7b9e8ceab9ecaab87d6b8ab9aacfcbb9a74ca
col36:   bbfbbb7dfdbdbabba9dcbcfcbcccbcdbbddcefecbfbeacacccb8ea9cabc878abda9bb39ba7797a47
col37:   cccaadc9abdcbbbabcccfecaef9dbbeddefcfadecccddbadbe7a9beac89babbbba7bc9aa8adcbce6
col38:   d8fddbef99baabbccdbadadedafdd8dcdecddcced9ffaf9adee8ca9c9eabd9caabc9998babb6bbba
col39:   dbcbdbcf9fcc99fbbebebf8eec8abbedffdcc99a9ea9a9babba99c8cbea9eeb9bb9c79ac98a9aa9a
col40:   9bdceaffdbcdcbdabbaaabfbcddcddcaddcdfbccfdfcfcef9cabb8bfdcddcbcb6998eb9aacaabd7d
col41:   cadbb8deafdafcd9fcdb9badbfc9ddfdcdcafacbcde9bccf9bcbada9b989bf9afcaacb988a9ababa
col42:   adaafbddfbcaa9ef7fdadbeb9eb9bbcffddd9db7ecb8e9fc9abcdd9cd8ecab8a6dede9b79aaa888a
col43:   cfabaefddadcafbececddecbbbaaeefcd9edac9cccffbac6ebd9979cfbfeb89b8dccb8c9cc7bad66
col44:   cbcacacddfafcbbbe6ccbcbcebbeefecccecbcfaecdcdddaabcdacefa8e7bfe9babacc776b88b8a9
col45:   baeaddddeccbdcbcecfc9e9b9d9cbafdfbbccbbd9abbfcedebaccefb9aeb59dbccb97bbd9aca9cbd
col46:   bddcfcecbd9adc7d8dbc9edeaaebbbcbbcfdfcdcb999dcf9cf9c9cbce8bbbbaaa9bea776cc9abb57
col47:   dacdbdcecaeaedcdc9fcacbcaccceadefdfebcaccbc8eecefcabca5fbaa9ebca96b79acaa8dab9a9
col48:   bbbcbccebcddbdb7aecdfebabdcbdddcccbd9e9fcbaabcbcaddefabb9ceb99cacbaac7aaa8ab78ea
col49:   bce9defadfcb9dbacbeccdebe7acbddebbac9aebeddcadc899accd7ecbabadcba9bf9cf9cac6bea6
col50:   edfadafddefdcfaebddbea7daedbdb9caefcfdbfbbedecbdacfcac6badd8ffc95cdcbb997cdcaeb9
col51:   a9bce9bad89ab9cbb9d999ccaa9acdcbca999ccb8bcac698aae8aaa7c989cb88aab46baca773aa76
ROC:	 BPix_BmI_SEC6_LYR3_LDR17F_MOD4_ROC5
col00:   8787778b7879b58a985b69436b93b7aa8775799c86a7877665797188235358575286777441635361
col01:   88678b6a9ba8a8bd69ba4a8a4be8a97a6987798ba49a8389b6a863967b986578bb46748655ba9317
col02:   b88b89868c8da7aa7987eb8647b7888879bb8aa7679389965c5b6a7668a5769576865a9339768135
col03:   b788b687899c8aa68a74cbda9c8999977737b5896d8b99986689a987896958ba35876989829763a4
col04:   958a8aab6b9899789ad757ca8b7c97ac6a9deb79b88988b597858d79a8666538977a58862b4b7366
col05:   bab8ac58baa8ac58798b9adc9a8babad899d7bb38587688488c587b996758787a287a64797589669
col06:   5b97cb8ab8caaa7ccb7689ddb8d99b9bdb69abd78b5c79c95668a6ba787789667777a564477a3597
col07:   96ab89879bb99bb8a887b7ba77c5b6ab8898787aba487899848a7844977a9875444444546855a535
col08:   6b796989abd997a8869c88686889798c99c85a9ba5b7a6998799998898846539a586879792b98671
col09:   98978684a8b895cba64999a8b8e9a9a89789c64476c79688898a488b74997676655616967145898a
col10:   a77cae7bab8c6b87898a49acc7ac9888b89987b87667a9c88894b9a7799777785687465767938693
col11:   97a8b9b688bb9a7ba8c887a58b988857a899788c687c9ba786845686a685479687a9654244656642
col12:   a6a6b89879aaba99abaac479b679a768ba95b889aab788c8989bba89989a7396ba788a467466a271
col13:   4769d7a57889c777a897ac9678caaa6c8aa689643aa4a77a87b7788b766579598791876c6a6554a9
col14:   671cbda9a8a9c6aab7887899787a9aa6b9a885b67b99868879da77867b7b798a69b8968346291b41
col15:   bba7993797898caa99a7d889a79597b958a97a8b3ba9a6aa96896b98c62a7768654b587664874464
col16:   8a758d89dcd9acc98986a79db6995b887abb7aa776a8ab58668ab5a9a866aa978544686965995787
col17:   89698978a9b69d994bcb789b8c97d4abbc5864ab86aa88a686a7b7a76578987a8782817651859756
col18:   79b69d98b767aa999a96a89d8a9b8a5975ab7b799a88a65c9698aa86b1a69658587567784a836466
col19:   aa9b8b97888999589b9bfaa99999997ba958a88797aca8944b898f76669685667899577784378854
col20:   6983c79987866c68aaab25b89ac9886aa987cba6778694997898b5ba85688549799c888766884754
col21:   9965bab8b8ca8dbca8778a65b7d9887a9ca887b8aa86597b195ba97896757565473a967856896b86
col22:   7588b99998969b7984389ac98688a7aad868899988a7c547b8977b69b65684558456679869567664
col23:   879988699999877749b9a8aa98594aa8d998788886886299a49a9767cb6894564a6256a745575382
col24:   96a68bad988a77ab899cb79ac773b77a9868968ba9ca9a964a789a3896986868b7576788ba567931
col25:   95a489cb88498b786a8999aa8ca9d59aa89a87ba6a8756869db679aba985a9594788589973936985
col26:   a8aea9b9c89aa7dca67bb9aa87a7cb8bcbcccd758b77cb9b5ab7a7888ba658c8837894b7bb578865
col27:   d9889abbca99e6ecaca9d7977abdbb9a8bd99aa8495baa9bea4bbbc98a9bd7aac7777958585a8673
col28:   7b9cc8cb9adaebaad9ccd999cdbeec9a757baadb8a9797b7d98dca58b8889b8b987a99767a889858
col29:   a887a9abba8becaccbc98ca79baac88e89fbc9c7bbd98aa997567aaa8798b89366d52abb78764749
col30:   c9cc87ebb998b9cccbad9bbacaca89b79c7cad88bc9ab8ba99a888998ca9c8a589a679867d586a86
col31:   ade6cdba9c9a8698eacc7e8996fabbc8abb7bb9d799b96bce88ac9967777a868b78a9b85ca977695
col32:   bbabcffcbaa8eb9cb99be9cd9dbb7a9ca7bbad99aabcc96bd88b8b84ed88c8596a96a5a685aa7848
col33:   9a88dd9bc9bacdbbbca69ddcd7f9bc9899dac9ac8abdbacab68a9ac8cb99aabb88677977969aa856
col34:   9bda9aecb9babdebc9aacada99b88acca8abbfcbb6cbaa9b9cd98acabbdaa6688699cb9894ccabad
col35:   89999cb9d9cbcaacbacadcdbccacdab798cc97a5b88ad9c7b8c9c8899c9aa998a9aa8ba849887a74
col36:   87a8acafcb5cbdccbcfacbe7acbbbc9a9aee78bfe9b9ab6c5acaa4a8caa7b99b65c8978b82ba8799
col37:   cc98cbccbebaabab999bb9ddef9aac9c99bfbb78da9bc68ba8acb98fb8ab9ba6589a86b77b88ab64
col38:   6ca97cdbbda9cbaa79dccbbeaceb7ecccaacae9abdd8acb98ed8b9be9cd8da6bb87b8b9b7b4d8776
col39:   cd9dbfeaaaabccf9cbabaa9989badbaef8ea69fadb788cbb999e88b7998bc989867555ad9ca889a8
col40:   adccced899eabd9abbcc8cb97c8dcd99a8a9ccddcea9a9ccd9bb8cac9a9cbbedab9997ac6c777598
col41:   ca8b9dba7c9acb89ccafdcabb9a88aaba9bbd8cce9cbaacb9b7789a9a89d9a77a9aaa7b986b66885
col42:   d8ccabeacbd97bc9dafa8babdbbdbcabeccb9cacdbb8bd99acabb9a9acc898cca689b989b2a8798a
col43:   a9bccf8eba86caaabdbaac5c8dbad9dcd8bcadb9c7b99ccbaa7888aad78d5baac9a8c9867b6bc48a
col44:   bc9bdbebaffcd9cfbceaaec9bdaaa8cbbcdfd9bad6cbbcaf97dccaddc978c99aabb7bca99b78b79a
col45:   d9cab8bd9a9bdcdc9cbacddb89abccabc8ac8c99a8cb889cba7a9e87d8b9b8b9e88987bb5996a9a6
col46:   adae7ddabcbbcbdaa59bccc9cbe5b7bbea9aacddcbbceadaba8beb5d9dadbd9976aaa7c87c9a69a6
col47:   b7b9cc79a8cbca9c9cbac9bcec8ac9bba7caddebcdbcea4997ad7d6aaa986bbcc8aaa96889aa8858
col48:   bba8f5ddac9d8cc89c9a98bdabbddbabddfb9ca89ac99ab9d9fbdbacb7a97abecb99b97a8475b996
col49:   7ecbb68db99bbcac9aaaacacec9babed8db8ad9da9f8dab9ba898a8c7cb87b9889a7966867a8a894
col50:   bbfbb88d7aebacbbccbbabcbbcbfcbaabbcfe9cafc99cad8cbcbef9fcca9daa9dbd7899998789a6a
col51:   b9d58c9bcc9ba8a6a787b9978d779b8cc9ab57ca7699bba7eae9997ba77b7a258567885678434498
ROC:	 BPix_BmI_SEC6_LYR3_LDR17F_MOD4_ROC6
col00:   348186355151142411357557b97a573696267763929776899a568658837a68266744696556357543
col01:   676527ba5a6ba77864859777699995599a6abd6769ba2b66687367689d93664367a955973bb49714
col02:   77c554699769a7971a76c9b9889a9b55d74a95a561673889778a996ba9968aa97569694573657544
col03:   6496925667ba5986748995866576597c9888988aa89699ab654a9898766ba87a8736a68456992667
col04:   5857898787a8657936ca94abb978aaa58aca99785876847a69687796b7866d299537556759565267
col05:   863a43968a7769698265a678688877b87958963b5988b57937197b6a975556757a5634a498565815
col06:   966a3454443898886897769355978b6a9db959a78778799caa747888688a871936a76a8499389751
col07:   6569697a94187aa97367a96c789ba99c7c97a6a8566ba9b979b77998a7794d694998469666377954
col08:   756468da969595658797778992968cd98ba916b7ce9767ba79bb47ba9abacaa7a896967817875665
col09:   77597b62a788c8939983979c67979697988e8484759878373a7baa5c87788c9a18a5868a84773677
col10:   6969776499994666a684a65aaa995966d85b57779899879188c88699b99fc886839675557b754848
col11:   8a78bab779b4586998797846e79865797645c9589a87497a7776b5866989d39468855712756a4265
col12:   775365583569c87738ab9988898a769a5a99856996b9aec58aaa6b85948cb87a9884858a9c546346
col13:   a33358a76b9c7889a74724568a6da86b677c97a651a788567687aba783b77a65a587888757377543
col14:   89a7488159977776b788749998c67c8abcc6aa7ce9f75568676a9d8a6786686b475a896797365534
col15:   72669a9768887aba5ab9b6b997a7397989aac5977a967acac69759878a979c9a6734c3744a535a64
col16:   729365937851699245ac98779998b89a9968698b9a8bb79a53c878887848aa968478745797868667
col17:   64a7176673679735388978ba98b8ba8668965d459a9a668788a6aa597a7757a49694836922469631
col18:   657657866987864526767959a575b987a9c85a68b7766a8776675669a78878468657666715565567
col19:   a99a858967cb5989d987665567d978696aca9b49a984baad95daa777c979a7a969a8a67788f54957
col20:   67768887447859279a37745a78ab9ae988456684985576878385a879474893759784766b884a6432
col21:   5737a66a265a9544977978eb96466a8acaa699b9a68abacb958a68835ba97a5b5577576367562685
col22:   7967674aca5669a6756a4a9aa8b75a68b96a79a77829577a69ab68a5aaa8915769762659a7747345
col23:   696a8598515558999958a7a36577b69984a9a9868a996d96974758b76658885a5954984518489633
col24:   876a7979564768986786a84a9a38687f857ab86a8a6a489879869467a7ca88666886938883665534
col25:   93a7a69399b63b699b8c666796db687a888bb39ba878aab6a89a67b8fbada4587ba67a9782425656
col26:   449576a8aa7a98b999b8b99aabb87b867ec9c89b9baea7d8ce6ba6a87aad9aacb7abc7668866ac83
col27:   968589a6ba899a579bcbaa79bb8b4c8a9d7acab9a9c98ab87a9d667becaba98a6aa3ca6c366686b8
col28:   654975a77a779888796a9896ac89ec9b99bd4fa8b89aa74bbac7cba8ba7b979bb8988787566a8b5a
col29:   78ac88bd9b7bab8ab98bc7b9b99997ec897b679be8abe9ac8a9bc78acaab84a7b5a76d98a6796566
col30:   8a95a9a698959a8a8aa8ba87aadc9cccb9abbcbbd8e8bcabe8cccb9cccd79898da89898587697a85
col31:   9ade8a88cbbbacccbbb99b999acdabbaaac79cacd9899bc95ea9e99aeba7ac8acb65ab88a888a763
col32:   d79b9cda9c99bb9cba588ba9d788988aab99a9bcb9cbc79ab89cc7dd9a8a7bb94888b887694c9694
col33:   b8abccb99999eb999a99bdc8abcbacb8aa597dcabe599aaaab8b68dadfcac9b67697ba6ccc7c86b3
col34:   979cdabceacbbd9c8cbe9cc97accb97c9bcdb897cacaa9d9a899cfab899ada7ab6a799b6b7896ba8
col35:   997ba869a7bdcb9aabdc99eccaceccec9bda99b8db8bc7a7aaabdfcadb69ba9cb8cccbaabbec86ca
col36:   6a98895f8c87ceaab98cb9b9c6ddaacfa9cbceaad79aee7677db879d9aacbcb8ac8aaaa988986c68
col37:   eacfa8bba9cc8ffbcaae7cea9adaebc8d89abeeba9ccaeacb898d6c8bbfc99bdab8969bb8aaaa8c6
col38:   7b68aaabb8bfa98dcbc98ee95b9efe9de8bee6aba6babce9bca9edc9b8ce9dca9cbcdcaeca77adc6
col39:   9d9acad7b8b9bda9ca898acd9abbc9efa9b98abda7bdae7faca99c8ccbdabadc8d977c7a9cc7c578
col40:   c96a9bd8edbb9e7bc8c6cd98abd899dfb9bbbefacf9d9cacfdc8dd9bfb99d99abe997b8b66676986
col41:   769b9ab9ac9dc7cffbddffd9bdbeeaa9eeebecbbcabf9becebbf8a8cb9a9bca9998ee4dbac9cab77
col42:   86db99ba6aad89b9facdbfefdebaccaee9e7bfdcbeb9ab9cd7796b8af9cbcb8ab7caba8cefebb8a8
col43:   dafdbe9afccbb689bc9ce8befcece8dfbba99cfccfffdaebbedb9dbacacf99ec7abbc9758d888ad6
col44:   8daacbae99ebcbc8b8ccbecedbadc9a99f9cdbd9cddcacdbdbccb7ccbeacacd9c99ca699b96a6958
col45:   7bbb7fb7e99f6cae6a7cbbfbf7bceccbbdcbbeadbbdba9ca9ae7d998aabc69bc9787c7a99ad5c898
col46:   bbb8c97bab7a9d98a9dddcdbba8ecddecafbbbcbcbea799cda8ba9dccc98ad9bab6b9a8dbb9cdc99
col47:   cca78acebbd9b8f9dfbda8bfcdbcaedbaeddcb9fcbdaa9f9c5bcbebb6aacbccac88d9bb99acc77bd
col48:   dbbbb99eadac7ada97fcdf8caefbfaa8dfbbdcdc9cbcbddeedb97baacbfc9d6bca8c67a96b98b67a
col49:   dd9dccfcaaa9d9accaaedf8de8cae8b9dbbacadbcbeeb4b9bceabe7babddeb77dd978869aaa67aa9
col50:   c9caca9ae8cbbbb998dcbdeccd8acedada9db9de7d9aadd9debecccff9aabda78ab89bceb8db9679
col51:   b97a8ccae66d97bb8a9c9a8b8cad9cebcb9cb779679dccca7da9b9b9d8b4aa88a6996a7676785648
ROC:	 BPix_BmI_SEC6_LYR3_LDR17F_MOD4_ROC7
col00:   a79948689a968367768687988db8caaa89a7995967c78977866a58ab94778572576548367a284a22
col01:   bad8a767c88cc7998699876c7a988b888aad997aa8caca7795a8655bc949a866b6998958886b8974
col02:   67ab79569983bc9aa59989d589ba99a78bcba8caa789967299c9b88599a55c6779baa6997c6987a6
col03:   aa89a655bb6a94a79abc99ca888a377879b8c6ab9c779cc97cca8c8c9b697898c973829738677537
col04:   9ba6b9a86c8ba5aabb7baba8bafc95d99899aa8687aa9acb887a3e388957969c6aa75957a9754466
col05:   aa8879ccb897c89687ab89acab5ccb97789c979ce7a8a88aa9976588da775a97c8786695ab623555
col06:   a7a7ac588b778a889ebb769a8c8db9ada9cd7584ab8956997b5553c6c979c6a996b888a856776642
col07:   9b6a9ac8aa94ac9a7bb6caed7e3b8999aac7b86895a999ca7b85f78884b988a886a5789666665356
col08:   4d8869c98c596ca89797b7c75a869acba99aa9c659d975b6b8baad83679459768769876b5866c957
col09:   aa5c9ab6a7adc7987cb68b5ab889cadb9bcaebc799ac97b7bc97adab894785a9b79ba677a6672465
col10:   9b96a65899c56cadd98cbbb63698aaa969986797877776897ccb9aa6977c957b9867595978365684
col11:   8786c688886c694aa89aab688f898776be98ba888786b55a87785b8c889696846479997179585675
col12:   6875869da67959a578aa979b988b665c799896a788a9679888b79787ac97976c79ba48a657552d55
col13:   7a789bdc79bb87c89886ac5b987b7a993bc5cab86a89b9999bb67b975c59b74a768984a8aa665566
col14:   879b8c977b794c79b677b8ccab9798a58a9886587d8858b9a759a7a6987989a95796c88a66878463
col15:   c6b76975877746a8679a58d7886bae95999a69ab98d5c7986a9d79997b89998c77959589379c5444
col16:   55a77da7cbca9596cab9bca84c859a75bbdbbd77a877786996aab759ac9a679b897b6a9759564487
col17:   9867648b75886a9876486c589c8ab957ea78999998a59987aacd888ca9959c965b6b9883a5665381
col18:   6a64bb6c59bb895b38b99dc8fbab9b9d8c899b787a525947b57d78c99a7d78697583597878647667
col19:   9a1cdb95b8ac67eb4c55b999a776879c7a9895788b8899b9a7ba9788979869a8a5a4493764557632
col20:   9ca869a69ab69b9b6aa79da5c888885a898a95795bb3b69cbca5b7d797b497879a49764585953663
col21:   6938a8a76db9699749849b9b5b7897777ab88a877fa986987bb999aba6a9b7a8bb65499617735724
col22:   6a89b9a8957b98a876ab58aad5899969878a4878aa8ea99a876ab78ab9a885564a7575a629516541
col23:   9a8ab7c6bb5ab89958987793a697db89aaa8ab7676a89979b774899677d9976b8a99a4a46b777691
col24:   8a87776ca8aa89899aaa98aacda9a49ea6a769c99977c9997d5a8b7899a696a567936c9757a14771
col25:   9b89888a899b5b6ecba796a798b9a8bc5bb65699b8a8bc66aa5b8988aa4b9989a6a6675549675455
col26:   cba9ac8a98bb9bbd8dc6b8eda8addd7a9b9abf89dcbb9bcb8cc8bfbbb9a8b9dbbab3ab595756a847
col27:   896c67d9c8989cdcc9bbaadbabc6ba9a7be8b79bd79baa8b7b76ab6cc59db89679b9687957ad8736
col28:   b9b8c9b9bb99c9a8afc9f5bcdccd6acce9bcada97bcbdaaaacdbbaadaa5b6896d8cb99689568a6a5
col29:   b8b49787a98bb849879ba9bcac9a7bd8cbbabd59eabbabb5cc9bbaafda9a75a8887795757ab898a6
col30:   9a99a8b79b6a8aeb7ca98cdcbbd6c89abab8aaef8dbc9abbdd79bbaa7949875baa6b8759bbb48749
col31:   d88aabcabbb98da7dbacbbc9cd9badbccccdeacd9bdfb9fbccbd7e9baaadc9a7db8986a599965554
col32:   8ccc7ab987adbdaedbbc76b99dbade9cc8ebbbaa9de8bdb7adc9b9fa9a89b8d8d88b7998696a5a56
col33:   caaddb9dcacfdcc99dda98fbdecbbb9ab9b9fa8fcebfce9dacbedc9ad9aaac5c9a89b4aaaa99599b
col34:   dbbdba7becad8d879dbcd9bb89dabcb9899acbfc7bcddfae789c98d877979ab9dcc7888ab5b86854
col35:   da87e8dde9ecabbbbdf8daafa8eccfa8abeefedbcdc8eea8fbbcac7a9b8c9dbb9a78c89996559887
col36:   b9aca89a9bdddecad9ddbbfcefbaeccbfdfaaddebccdbcecac9bdbb79a5a9ac7babc9a87fb9db7a7
col37:   c98b8cedbdcdc8ab9acadffc9ddbc9aeddbeccdbbcae7adcedccaca899adac96bdc7787777894647
col38:   dabbefcbdadbbde9dcfacfebc9fafcbaecbde8abdfce8eecfa99d989a9ccdcb7a6aac9a9b8a8a597
col39:   6c8fccba8a9decddd9be99b997b9afd8b9cbabdfdcdcb9cdadda99c8aadcacabdcc88878cba88cb5
col40:   bdb6ebfcbef89cccd89addfd8cdbfbabbfaebfaadaeceff9bbdcecbbcbd9daa59a76a79fb98eba25
col41:   bbbbc9a8ae8ffaa9e97bedcccb9cacbafdd8edcdcbcecceaecaababe89cd3da99b998a97b796368d
col42:   dc87aebbeb8bcfeddacabafbdaedbcbacd9cdabbaec8dabcdad7bed8a8cda785ec9e59db77995af3
col43:   6cdbacec8adabca8f9ebdcd8bcdcdcc7cacbebbcccdbbec79cea9bbfcaddbe7c69fbaabb87a67998
col44:   9a98bdceaf89e9cbdbfcdebecabbbebfbdbcbccbe9cadfbecc7bfbcbb9bdccbb6b88abdd688a8eb9
col45:   ca6babbde8c7cafdfafdedbccafbcc9f69baceeccbbdaeccdad5aaaa9badcd8bb5abcd8bb7cb8a8c
col46:   9dabacebce8ffbde9a8ceacfbeedaebbc8baddeb9ce8ddc9cfbad4daed8eaa999ac9a6aeb7a8a571
col47:   ba9db8efaaacefacbbcd8cab8accf9fa9de9ef9aabac7dcb8a9cbfccceaaabc8b879aa78dc7abb89
col48:   aacdeacbecd99cb8eef7facdccb9dfdf9adefca8dad9dcadc8abdd8bb9bc78ddc9cdafabd5ab87ac
col49:   cdea8ab9979b8cbccbaeef8dfcdfa9dccece8dcaeffaac9bcacdbaafbcbadaa988a9aa7bd57ab754
col50:   cfbdc99afedacebffacdfcbaccae9deaafeaefaeacdcdacdca98eccbadaac978daaddb8b74b979a8
col51:   878be76a7ca7b68b99a9d9c99798995c879abc8c89ad885a85b7ab68c3877ad796a667b588546835
ROC:	 BPix_BmI_SEC6_LYR3_LDR17F_MOD4_ROC8
col00:   8f6665751595755464469636969786554656368745786416877a942b66338c33748367474a718224
col01:   f835886735a865bb676949b66586ca8a79aa887928a689a7666997588a88765a4965445628649824
col02:   7b665889847898a77798a569a885a849739b9acdbc6963bb63579ea898a41956a89858a3373a9776
col03:   788858a889b773a959a989a8b6877c8558b8cb85d79a4897aa56975c6b9a7277676818a746624422
col04:   6958989871a5667598759395c9797f8c55bb7995a5e98969648c877baa5978974695824b85672552
col05:   474b799e77355ab55b745e98b8657a7875787939576ab6787495aa827a14a6285533966469664848
col06:   4497619666c885b698775a456a5667a5a5b858bca79a8b897c99a79984ca8c7c555b74687b238468
col07:   88b9775a6a8937986884897b6c76575ba5698a5585bbdb666457a6a94944b8a47166a7547b757665
col08:   598782865685264799897467889885b79692686ba8b6796c936586a768976698989959548c458658
col09:   68b4689d9b87a8769a6bcfb997ba959587b869aadb69a96378697cdb7435a7a273946b7549777a52
col10:   78563b7cb697715a743a99a67539a63957474b4caa958db6a974ba89e789ada269776a6865744a82
col11:   888755b7352378a39a56447985b7958b88b69927b54ca73d85899994684775357533677985232171
col12:   69c78a5587675537556ba46536a7479a778b898ac66a79695555658c55399883d695776277618353
col13:   747d488874c6689176848976cb837b37778847755696594b57c49878459956866536473a77548928
col14:   59594767557267a8988b89595b7698b898c6871656a79987b594599662c869514475993543735412
col15:   bb4384573583a4a37d486998898c566c79ca9a67698692aa88c88568538a737c83297175565887a4
col16:   96a9465b718696939c29959a4766657ab7a88988b6a99898495a7b73a787c96b596866836d347674
col17:   657512245679459646514554469757b5966a8652f4584b8657784b75b2bb658734643a8898757964
col18:   329a866128936639397b7929826798798db87698858587948a985927668a5169b66761285988b572
col19:   6836147a6442554c7999b963dbb972768746b58b67d876bbb44bba46736bc8886566a448241d4361
col20:   98455865487a7756386669855975676466caa79a89753839a767884695478547467386a942542472
col21:   1a7434a15669845567958a977b4c9358a8788b5688967b9ca5a68779957996986798877587475687
col22:   464aa6b779656688697a8755b769958b87997b5849857798735aa9caa3b889756467588487519153
col23:   56468c928349625945695867a8a87658489788a7a5c859b6a48966975a9856a8345789977ab75751
col24:   57857677988c458aa397667787588a979bce7a579b69976a9aa388a676b698759585661984373911
col25:   377754a9c86934494796b1788795997899a597566b666abbd8866796346195793878699557778654
col26:   c7aa796899b97ccb4bca882d35b8aab9c6bb9886bcb785c66a56a69eb5fb9ebd92a89993a757b871
col27:   9456a6a79f9a77a7ea779ab86ad99ac8884979a43ca8cbc9a4b9789887f7a8449c99b59774488864
col28:   6988b7777b88c9ab5acb588bc9ae6d876ab6aac6b688bb4aab47969898ab966b968685ab74775976
col29:   8c5579a926e66946578a87a69b7d78bee63686ac76bbaa9899989c889b9b86a86979777748744888
col30:   779776aa7865e8668c89a9799a6a799a67ba9c6aab689ba99af89779a59a58489a7767c4599265a8
col31:   69995987998c7599c98b998ab8abd876ad88bf8a8a959b996898bab89a9c875578a88d85aa147973
col32:   9698a9b77c8b99bd48a6989adba98afaead6ab8ba79788bdcab696cabacaa9e9a58657bbc85939c7
col33:   a786857bc47698698c9ea9799c8adbb7c88c9d14bdaad4d967a58c568a877a37678986b379768783
col34:   6baa8b77b757ace7c89cb98a969988aae8a886e7d66c9eab65a9a9c6987956dab76db865a8495866
col35:   6b879a97c976ba66898b6a597b7959989879ccba8e888a96878a8e99ca59a8a97aaaa946b9868993
col36:   4a8eaac6ab66a6cbcb6acbcacab67bdbaccc8476dc66ba9a3eaaeb8ca9c9888c8969977b55473846
col37:   a5aa6b683b76cd96a6965ca9ba8aa95abaca9ca7bea9999b98595c7d9bc866aaab898658ba47a799
col38:   99598795aacac88c7a6ab7c8a7b88bbab7b6d4adcdcabe39ba6ddd7bb9fb8888fb7b759aa7b689d7
col39:   cab9768a6a97769cbb979eb7e968aabc98977da8a9e86d777bf89acbddffbbb58b88bb9365c96597
col40:   b889b78aad5eaa86a85dc9c8af8c78deaec897bd89cabb996eabaeac6b9889b8897ac86836a97844
col41:   896a9c9b5566aaa77d89d9daccacb9c897cab9baa9889896ef8e9acc7b9baec9b286997b533a7587
col42:   9978a997aabc695b86a8aab9939cd9b8c9aac99f7b9a576b88d999abada5cde5a9a793698a8a9d85
col43:   6a7689a4eb5b7c8acc87b8b89bb969b889c9c768bbbac9bc5ae87c679bbb75996aaa869ba88a8866
col44:   da598d98499c7ddde58bd8cfadcafcaeabbae99a8b8b9aeddb78c87acd87b88698768988a893c679
col45:   aa9caca9cb98c6bb8c78b65feb98caabac79798ecb9edb879aaa769b6ab38ca8868596b989a99878
col46:   e69b6c497b89a89bde9ab7ab88cbb99a9d9caabcabafe78788989987b98cc9796d67c7b647977951
col47:   9c9b8a47ab764a87acac6898a9cdab7aa8ebaab57ca7a4ecac8aa98c185a88acbca99ea67a23a4a9
col48:   87b57999785c9a8cb8597dccced9a5bbacc96a8adb9cb7b8d7f9e7dde9a8b97986baaa5a86a6a8a7
col49:   878aa9877bccba8c9abb7c9ab997c797d6eb8aca96d9978caa6b9c38e87c8bbb8e98c8975855a766
col50:   9b9d869cd88a9bb89e89bcb9bb9dd9b3cdbf9984bbf7a9da9a94c75bb9caba7a6739daaa7a296676
col51:   86365594a733468ba4a9a6ba7a9d97d865666cb494aa1a95d99899b45788b3856bb7559526449687
ROC:	 BPix_BmI_SEC6_LYR3_LDR17F_MOD4_ROC9
col00:   54566a7339588543763a89569966879367972a8a957936959b65a857981967578753774365729487
col01:   1366896b8b6979687a9b66aac59a78c8cbaa85ab8a8c87a6a768657b9a968a696a784a878974b5b2
col02:   68378586667b84653715989978976796896db78777b949a8769aad87cb9499a986648b7967548661
col03:   8877867b7196558772798b698cb56ad45b6aa8b7ba86aaa89c78867b97594aa48749246c8ac65699
col04:   3969589b97aaab7a6a599a95c69bcabb9a8cbabaab7989a693bb7871a96978bbd7dca5b58ac8b935
col05:   2444c7186584357ba5789caa7a95b765bda9a3a87c5a3a6c6b8cc7c867578854c879d99887456345
col06:   6589b4b6887889ba886b9b688b6b96579a978a8b96bc4c7969a97879978b9535948a798577887764
col07:   4488779a48a9754b88bab9b7999ab6a89ac789967da99b49c889dcb969a7ba9b9ab49a328476989a
col08:   5879486458548b6a68d35398aa88adb999cba77bccaa7889ba975bb78caa6959768ab69886465976
col09:   564c878a95a851a795ab878baacbca879b876969a7b89c9a9977bc76579879aa59b778265a64864a
col10:   6898da79979a985a899997b967b859ac869974a79a9cc9a6898a769bab8799aea9976866aa75e847
col11:   7876db4b79796959c8b5c8997cbc895a7899cae86ab69abda766977797ba5d8aa6d8a8389a58ac86
col12:   78576b88898c6b8977897c86b9db4a7c7cab698bbab7baaca6c8ba5999a84bb96a4b58a7979966a6
col13:   5a86758985797768a59899b9da8acb7c7bbaba7a668c998abe9ae99b976c6977ac74ab488876a5b7
col14:   8c5669439a97a8b88a8699b8a9978a657986c69ab89896dcdaa98b98b5b89aa839759676a867683a
col15:   98574a96875b5697b8678669b68ca78c4d9bccbb87879984887575aa7bb7b8749577a39825453a96
col16:   467a67b93b7759babb2896967b6b9669b9489b97b8878a6a7a8b7a9888958bc8bb67ba88c1785bb6
col17:   49556957ad5a38a9b698a879a9b2699d79aaac4b7b789885bbb8cb789799a9756797349816593576
col18:   958b76ca768a9a7395a77688889c7baa7585678a669a6d578ac55682ba449b2a7a59993558686667
col19:   77da8ba977bad65c977666a98988bd8797788987bc9b968ca76b7998a7987567978a957849567976
col20:   7668784587d1559abb9baea977975c9aaa78ca79797a7887af599a764e8a76897ab7d776b7865c76
col21:   a5b76477aa475688aa8a56ab79ba798c788d98877a8a9ba89ba59b869ab97774aa698b1788a26798
col22:   ba95a4654385a59a98995688ba6ac86bb88778a989cacb9cc9aa7ad8ac57aabca8587a7a57895643
col23:   68ac66846ab7b78c2a6779697bb893b7b6886669aabba99996a8888b5793bc9789668764a3689786
col24:   62885979785b9b9b599879597a96b684b7b7bb95b8789a7649c85a48a5a99ba93984467764898837
col25:   998674baba7788896a7a8ab599587a589b988b68a8aadbaab698ea866a9a65483b8895883a76b852
col26:   6d849b9659a973986cc9bca9a9c7eb9cda6aadcc8a5b7dc9f89ccd7fbd6b889e79c898c88768b952
col27:   a57ab7878d6aca8896c8f7bc8999cba8c9c79bd898a9dedaa389c99b7b897bb98996cd6d7887f68b
col28:   6d7a697bc87b67ca99ccadac9da7baccdcbd9dbabecab9acbb899cb8cc99cb6ca6ba7db7aa65a888
col29:   be5b8b898886b5a97898898ba7bac8dfcab98aa99a9bdb5b8acbeac9cc9dbcac99898ab89ab97663
col30:   685c59a6daa8a8ab86aaebb9da9a98cbad9c9bd996aacc99ed89aaa9bdcfbee6ca88d9958767a759
col31:   d8caab7d98ced79cc7b9eba7ecbdcd7adcccb7dbbb9b8cbedcca9bcd8fbecc6a7e67ba88bab8b398
col32:   a8a8ca69daaa9a98c79bc8ddbdb8dacc89eb7dfdaaacc98cc7babcdeeb8ccd7d89cd7a9dcbabbc7a
col33:   99acdd7e9b879c8baae89bfccbb8cb9aa9cc8dab9ab9eda7ab8a88ba9ca9bbda7cbab77ad7955769
col34:   58899a8bb789ca7ab7b9daa86aadabbcae9fbdb89bd6a89bfddcba8bbde6faccdb99ced897aba8c8
col35:   9cd9a97cb4bd8c79bfc997bdb98b9d9c9acbcddbabbcdbfccbbac7bddaa7b89b9baacc99b7a799d5
col36:   7b7bc5a7b9abcc5aa9dbcacbdcccbea8bfcbceda7eceb9b9fdbcb9ad9ceb97bf8bc989a56ca7a889
col37:   7b9e79ada9dc9baa9aabe9e88fbcdcbdd9ab99ccdcecda9a9eecadcccd9becaaf7ecbbdba978e784
col38:   b898bb878aca6cc6babe9bdcfadecbfafe8c98efe7dccba9decbdadddbcbe8cdf8bcddcc7da99886
col39:   a869dcc878a78bb8abfd9beccacaeafdcbdc8bdcd8d8dcbce9eabbabeadbcfa9adab8b9b8abbabc5
col40:   b96dacb9bb9e8caaf8acdbbcccddc8aced9fbbd99fbadbd9e9b9ddedfbb8dae8a8ebbdac9b8acbab
col41:   8b87cbcc9cba7cbc99ddcc6bde9ca98bafbdedfed8bdfaeccddb7bcededdfc8e8aeaca7b99e978c6
col42:   ab9ddba9ad7a898a7dde7efd8ccf7acecdbd8cca99afdfcfcbcabdb998bcebafcbc58ab8889baa89
col43:   a9ad96da7bdbabdc9addabbecabdcc6aa7fb9bc7cdc9cface9dbfbdedbcadb9eaadcbfb9ddd8da5d
col44:   c99d9c8c9eabeb97d8cabcbeaa9ec9c8e7dfdabccb9ecad9ccf89bdbae6ecbb7b79999dccecd99a6
col45:   dbeb5bbec9c999daaab9bdea9defbca8bffbbdffbed9ebfcacba8eededdcdcaceb7babab899f9bb9
col46:   ad9d9abbac8b9dacbcdcb6d9fcf7cabdbbcc9dcfeca8fdbbfcaeb6acf5cdaaab6e78c9c7b796e9c4
col47:   97aaacac9bf6fcbebdc9eed7ecd8cc8ccfeacdc9d9babdb8a8abd9cddbcbdbbbdbbb99eaba8caaea
col48:   d5d7af89dda99cdc9dabdbcfbacacfedaba8fbc9ceacbdc9ccfa9bbc89fdb9bc8f7c888abaabc9a8
col49:   9a78bd97fa8b9e9bea998ad9adb9eecfb8ccda8b8bededeecbeb99dcbb9abcf8f8bbccaaa7adb988
col50:   ab9edaae9cbb8ddcbbadca9cbefafacdceddcdcadebbbaf9beacfaf8d9ecaf9abadbca9bb8b8ca49
col51:   a8a4b77aa558aa698a6788caaa886999abb7b98998a89aaca898ac7dd9bb8a9c777ca9ba7854ae3a
ROC:	 BPix_BmI_SEC6_LYR3_LDR17F_MOD4_ROC10
col00:   6c9e78a99755c8b9b679b778a67aab88995996354a75a7668646a2a84874916c478b84a536691676
col01:   9a769da69aa9ca6677c7978cab6b8ad76b98bba698b9a8d46898a987978a887b79837987447849a9
col02:   96a8b9b8cdc4acbb99b9a8a688c88998caa8a8cce7ab6dab7b777899a897bb8a67a8668ab6576565
col03:   87c99bae8a788998b676a697da9c79797c978ab7896bba9aa98ab6a8ab87bba784ac4899b7989597
col04:   ae7a89b7a8a9c8bad779b889cb89996a9aa8856b8899ab799b98876a89898b976769787859396658
col05:   67ab89789daa96aabdca89989f646ad9bca8988a7caa78979a99998994684ad97647796778674644
col06:   6a9cb6b7498ba8697c9aac9a899a5b89acbcc879c698a6546b66a798935776786655cb6886796663
col07:   a8ba8ab9b9789b86aa99999aa788b8b7b679bbddb5d8987678b9a899b9ac887c6a9b767788655294
col08:   788a4778a589b8878ab97859b87b885699aa8a98788bba7977995a7a8a6657a667a3176757a58798
col09:   aaa7b779aaa79da946ac7a9b9cb7c5ac69c586bbb778b499a78b7779ba9749a99988b759454496c8
col10:   a676a9aba5a779bb76688ab7aa9998b7c6aaaaa899bb897a9476ca79949c356566b5654881489773
col11:   87a89bb959776a878a7795a8a87dbaa67ba86cc685b5a397a7864a668d958b4b578736577996c647
col12:   a9999a87a7a8b89b79a45a677b69b37a99758abb946749678a697679898aaba87a66637687968276
col13:   997caa894c98ac878699a8689999a9b8b99a7988babad666c7a979d87499a766584a667676874712
col14:   a7c67ac9ab6737489a78999ac699ca87699ab79ea897cb8b576787989a9876778444a97779666272
col15:   ac889a67983778a9cc878498898b669797a5a7a9b979998b579a977693785a685888889a94484895
col16:   9a97e6979a779cb79d597a59b79ca797a8a75696c7997788558bca7857a588739a47548687444891
col17:   b775caaba6677b957a86956b94a8abb8944a788996289878a5e9539957b359897978868466834369
col18:   7768a987bb78d79a979888986678c8739cb57c9a86b68885c837988c6a989687628a669888644346
col19:   97956d8888489ba69498868cab9996687894648959eba88768a66579959894ba7784567576b65961
col20:   95987a8a99ba89cb89a948c997595a8abb7b87c8c6ba8b8b775996998a6977785658578257676565
col21:   ba89ba88ac7987aa77798b7a78887b8aaaaaacc9bb7b748a699a9776a95995597787147266769556
col22:   94a87888999786a7699a9d97ab99a8ab8a77ce7887d582754899a857976663799289736673531483
col23:   7b958a9778bb9b8577776a937ba9be989999aaa957b8664978676a59789848939692663346898781
col24:   8a7cb76b85a8ba89666a9a5887db567968a98688a7798b97978996755465657986633a7884876715
col25:   69569d87987ac477b778ca9b8b9788a7a7a978ad8b86a69bb789768658665379877b28635c485658
col26:   996dbbcad9c9ad99bc69da99db9a7a88a6bb899a46d89e374b769955aa97694779f4a9b987887856
col27:   aaadd987aa998767aad9bddc7db985b8c655aa96abaa89b6a99aa83a649889755886939979445976
col28:   78788b9bab9eb86a9a78c99bc8c78a998a98bb89bba98bab988998cbaa98788277577a7897639674
col29:   a5accacba6786bb69988cb89d9daa989b8adcb76b97d7ba883598aab8799786667987a7a84527699
col30:   67bcd8ecb598aabbb9bb8eac7b98cc9e96d78a86bc76948a9ac3998799968946a7a7848958774873
col31:   999b9589babb9dbbbcb8b97a9b9adaad9bba9b8bdc9babda9d86bb6a877eaa6976864a899ca86884
col32:   7a9b97ad799eddc6eab6a7aab99be8aa77addbaccec9896dacba9c8bcaa79a86959b78a899995564
col33:   ab897dbcdaf78ad9cabc599acf9cb878b9999ac9aab6737bb9bda8789bb9779b6b7a6aa7893b7947
col34:   98abaccbbab6998cd6dabdc9bbfa9eba9cbdb9a9be8acb88989a8aaa968878b3a787846955c96a77
col35:   abb8dcaa7ac78ba6b89987676d9acb9cad889a5ab95ba58abab9675aa89869a358769a45895b35a8
col36:   898a9abbbb68d7aaabf6fadb897aadb8e6a99a77a89897a9caaa97989ab87a7b78767c799bca9895
col37:   9bca8cc8aacbbd8b6a8ad689ab9ba89fc999a7ac8bba9acbd597caaaa9b69954c2979757598a7865
col38:   7bbd9e9bbaaaa987c9ceabba7b9ba8e9b99b8dca669788ceae77cbdaa99c9a79969a99c8ba9b8767
col39:   9abd98d8d7acb9caacccca89698abd9b9b9a7ca9d99cb6aa96bcc56babd8a9b78639b89787596577
col40:   aabae8ba5c5c9acbb9dabb6fcdaaeca78bbddab8bbda8b5bb9ca8547e8bab6799b96b65a695abb96
col41:   88bbabc85e9ab9cabaaa9aaea7988ac9bba86b7aaa7bb99a99cbb99aa9aa98567a7a9a92a7b89376
col42:   9b6bca9b98869dc9babca9cccbcac9aaaa8da7cbacbae7747a7689a99b8da7b7aca79b98d68aa7ba
col43:   bacb9ebbb98b9ba789a8bb9caab9bba9da8bcbbcc99588caab9a9b9a7b79968d85a77ab9488aa773
col44:   ab8bd9bbc9acdbc88ed9aeb8a8bbdccadbc58a7bb8bae987efab89abacabb6aab9a99857b78798b6
col45:   cbddbc9ccae8c58bb97beddbb8da89a9b9bba8adbad997c987c88899a689698ab8a88aaa7785a859
col46:   b9b8addbbdacdbc99a9d9badbf999ad89cbacbbd9ca8e69b9abbd5a8aabb79899a9885aaa598a798
col47:   b9badcbcbc9bb96ba899bbbb7acbb7a8abadab997ba8d6b9cba8ba7aba9c9898499b88849a7a9964
col48:   9eaa9888a9caa8adbb89a9b9c7baa8baa999b9bbada7bd9bae8bb98a5879887959a87b851ba63366
col49:   aaa89bcb9acacb9b9db89b6ba8a799bab99c7ac8f699bca9d9abb6a35cd7abb8a7785a8887797763
col50:   e97ada7acbddc7aebba9b69ced99bcacb8dc9bbdd98a6878ba89b8c98bb79267ba7a9aa69a867775
col51:   949a7a698d889aababcbd797857998986aaa6aba5987a8a78978696bb88688676558758579468395
ROC:	 BPix_BmI_SEC6_LYR3_LDR17F_MOD4_ROC11
col00:   b8a9a66aa7984799a5b55867879ba8495775a739676ba4a85465558485674667337628a665355471
col01:   976ac9a9b8859a969c6a8989699989aab975bae87968d99635879aa9c78784a6e377488778666415
col02:   d8879aaaaa8c7bbaab8aa7d988c64ab69c9496977979797b38a5b974b9b555348a47797556a56145
col03:   a7a7987bbcb799958a9baa8aa6798b7b86917b796589ba4b9a99878c89959c9697938b5654984676
col04:   aa98876b8ad9c9d9afdc9b8c898a79b898aa7899996bc6849787b687896a76887589277535575695
col05:   7679d99c99798a865c99bd9cb7b985c5c99999b989877a8696aa58956658985527956544a7345356
col06:   9cb898a88897c88bcbcb576987d78b857967a8bb9868bc8b59b7aaa76387a99364a2693565346698
col07:   98aaad77bcb688597ac698c85856a999ba78a9c869bd654ca976883a8497b7576a66927861884867
col08:   b788bbaa8b99999a87c79aa97d77d968a898c497a7a367a4798b78776697a9776678868aa5766568
col09:   b9997a9c69a7899abb9c8ba8a998a9c97ca9a6988b8cb7ba987b67ab9a9786858951279968744965
col10:   9b68bc9ae8688a6a9bb7ad8767aaa86cb7a77baaba6b8d7a8aa39568887488a74754387748c87a63
col11:   b57a6ab88cb86789878dca888ac99757ae65877965ab978a779777c662b66869b66c443972744631
col12:   9acaa9c97c8cb9b8ab9ac98998bc78a888aaf79ab899ba9c68886779823964665659496543375427
col13:   cb89589a9ac9aa9b9b896ddab9aa988c7bb578899aa5a46488879993995aaa97656b6397878747a7
col14:   c777ae987cc99e89aac999bc7a5bc9c9ad997a86886886a66c68a76c9489643a8698727767664383
col15:   99bb9b89ab7cb6b8acdb8ab5a79baa9a8aa5b7c9978a87c59db788a85488a87539684556656958b7
col16:   8b99a7989cc9ceaa898a88799c8787a98ba8b96aa688c798d7b6bb6a698985699875776636676636
col17:   89c9a9a88b6a97a78b9d687887a9986a57abc7ba97d7aa7a8899b9ab7376a675654443aa98896745
col18:   97b78dc9c76aac99a798a8babb5787c9b97996ab6a8977aa993a5a8f84a887665397671589645467
col19:   79a9aa98bdbbaa88b986b98ac599babbaa8ac6889a77a5b9747ca96997cd74967776677368355757
col20:   8887799aaa58db779c89a9d89aa7a8778ad69cd9aa89c5ab89b969788b78268b4695976544884764
col21:   b4678b7ac95a9878698a8aa9bbabc97979aaa976a6866379b99b88c46ad79775578b867743538569
col22:   8989a69c98a7c68b8875c8d9eb8a9699b7995889bc9b57b7a98793b8d6768676466779683879a836
col23:   6778aa59b68cf898ceb9c779bcba98adba874aab8a6b9b94979847b676a77a364868985963759587
col24:   887a8a99878d6c77b7cc9a9a8bb9a9ac889758869b4887aa37468669b44869855897865593789647
col25:   a7b697a8fbcd8b57c77b7cba9a9accb8b7d6897acaa8a868966aab68d6a773a964799a8777958582
col26:   aba6bcba9b9fd98c8c9cdacdec7bd7db9d9ccab79bbbec49db9aab6baa9bb8ba779aaa679788a746
col27:   daaa9accabd8abaabaedadcb9bc799dacbfcdb99c79bdcc7e8bc9a8989b865a78748b7478465a888
col28:   9bab78a9ecbcdbabacdda9cecce99bbaac9bcbbcec8a9acba8c59cc8eb9aaaa599e7679a8a789174
col29:   9bd7ca9cf9abdb7998ccc79a8cccdcbb8aacca9fa9b3aadb6b5bd3c99c5598b9a995a5969797b5ac
col30:   b9d8ddfcdaebcccdbb9dcb89bba9e8e7facdc8fbcabca9a9b97c8aeba8db69988bc7578977674867
col31:   dbdf9cbe9bb9b89a7ceccdcacbcd8bc9ccdeaab8dbbcceadba79e9ab85a889b8896ea69c87b867b9
col32:   bbe9d9c8dbdaecddedcdcecbdacbebcbdfbfbcbd77faaccccc9dac8bab7ddeb79b59dba88ab769aa
col33:   accbb7ddeded9abbca9a99dbdce8edcbcaeacbbcaaaabd9bbbcaadb989b999a8a5bbca9b7a7aa7a6
col34:   cbceedcdfd8bdedc8adbbfeeaa99bdeedc9aba9cb7acdb9d98a8f8cc9bc897897aab9e7bcbc8e7a2
col35:   aaacfcccbaababcecfdfccaafdbcbdb8d9c8ccdac89cedcb8a9baaa9ea889a7869bb8889a6778aa9
col36:   acaea99eacdccb8dbdd8bcc6cbbdd9aacfc7d9868bcaacfdcce79da9aa78a7cc8dace89688a99589
col37:   c9baeaecacc8bdb6aefbacfbcadeccbcdfdbc9dced79a9b7a9cabacbcdab7cc9b988cba7b999aa77
col38:   cbbcdfef9bddeaefbebececccbacbbbf89f9be9c8da9babcc8cadb9ad8bb99b9969ca8e997967aa5
col39:   8debfecbdeadccd8cc9fdcececa9ebcecdcadbcedc88cabbbaacc998c8abcbcc8b99c8b96d979878
col40:   dabdfecbfdbcdeab8bccbeb9fda9afe9ddc9bcaddadeca9b9cabdabab9acb7a8b8dcbc674da97888
col41:   e8dab8adbafbeceeccaee9ddbabfaccccacfdacb8fdddbbbac9ad8bba8c9bb9cc8c88a88b8a9c998
col42:   ca7e9afadadccbcdeebbdddefcdadecaeccdcdabaddcdce9adacbbcbacb898bfc9f79d9b8a95a3ab
col43:   ebacc9bfccdfcde8acdcaddcbcbdefabbebddbf78ccdcabecadcc9abddabb78ae6c8a9cb88bc8aa7
col44:   da8cabccceaddac9bfddcddacbe9fac9cdb9ca9efcab9cc9bb8bac8bbc9b8bdad8eb9c68aa669db5
col45:   abcaebbcdbab9dcbddbddedcebfcebdc9eb77edbbfeb7c8ccfc9baca9caabac989f9d7596f9eba97
col46:   cbcebbbda8cecdcbcdffc9b9bcccccdcb9dbc8cab9ebccfbcabaabb8b9ba9bca9c97ac8a9c987e69
col47:   ccacaadad9dde8baa9dbdceddecb9db9edececaacdef9baadad99aabbcbb9ac98baab78b89cba8ab
col48:   dbccddbdccdbdbfdeaddeabaeeadceaeafdc9dcdbabbddea8bbca9bcfadcabbcc9a8ccaacddd8a9b
col49:   8dbbdcebd9ebbc9cddfacec9a9d9bc9fbafdcbccccdaeeb9dc7efb99adbaa8a9ab77baa8cc97bb79
col50:   dcdcb9ddfbfcdceaabeceefccfb9e8ecadddbdebdaabeadddaecddb9b9e9aadb979aa968cb986b99
col51:   dbdaab9acb99bc9a98a9bac9a9a9b8ced9cce998b8bb5968bd79a96a547a3a6938b879675a3857aa
ROC:	 BPix_BmI_SEC6_LYR3_LDR17F_MOD4_ROC12
col00:   7436c3a6b81a7496699884758c77b6ca69b589985887887769b73428db95c76d7c85876366d73746
col01:   1a7983778794987558983999abb8b79ad9aac7b99d6dbdb7aaca595cdbb7adc76abc8b9b9986c9b9
col02:   477679587ba8a6b78aa489c7a789cb87988a66b99c9bba887a6ba9baaa86a757b779996a827b8aa3
col03:   8956ab85aa53b785b6a97bcb876b7abb589993b9b7aaa9cc83dacd8ca627d68a76879548a5867a9a
col04:   56b78569b4889969c999ba3976984b8a7998bc7b92bc994b577ba889b6a99a9a87c6d8a37b867ac7
col05:   954762449c889778ab899aa897966a998c6a7ba6c996a8f9bd6977cb9aaaa9aba789794d98477c63
col06:   38867a84977859b889aa99988b69b6a99c9bdb8596a79db99ba578bbab47ba3c6a76bc58b8789989
col07:   6655a8997b6599c5889b99866a88968ada8cda9eb5a6a8968a799aaa4bb8ca76a897a899b9877875
col08:   828686a8c7597a9789558877a8b787bba766797c69276b77898a8aa85a97b8999858b89666a78b87
col09:   8a89b597b98867876958695b96597657b957d9a8a98c6a99eba7a999bd9a88c8cbaa99ba88745aa9
col10:   844858aa5887a5c985686998cb9888ea88878b9578cc9a667896987aba5696975c26858785779369
col11:   598793879b899a468a697a8478aa75b5b8a6bba9d98a6a598bb9b988487799da4ba9c959999b9ad5
col12:   78b47484676895737c6a76b56a9a7a7a76995a57879777eb8a8aa69db9a87986a84b9676b599a89c
col13:   398a626499996b68788599898b8598a96b8b95abb99a78798879da8abc598ab7a89978a3884b89c9
col14:   52596883d8561958886a7598a93bb95988d99878aa88b974bc967aaaaab6c6ab6698bb8795866985
col15:   78876da7b6749889d2ab999689968b97889e79ae8c787886aa76c47b7997a78a7579598578767648
col16:   47686a7886764784875a7897bc86979c9c59d97875b497976aacc8da985caca6a8b6b86bba65c988
col17:   6623c8a7a794648856578774a5b969b8a55a753c9477a56857695b9982769c47868a5865b588a447
col18:   934476587639898756445a55aa37b6a4c8a57d48c5799bb786aa78b8b78b699e8b97669586787b76
col19:   55189186797d6b84718466c787689786bacb998a589a788b976caabb979859c8c9c49e69b6989787
col20:   161587898685776997b985a9c8c878946787885bb81797577b867997696887876959a58187a64846
col21:   9457667447448839586b998769899b6799588789abb689a988baa7864976968ac865886a57775344
col22:   67a877578aa6769536ab79aa48b4968887ba7b9687866b9a37b9b979478877c78772a59788897646
col23:   9357696879987a7769397849448a8b768a9c9878ba79a5997b76986578899a869e789888658c6798
col24:   634b686969665b856b6d94889876898bf7876d7a84987ac798759876a9a968578b58728888894758
col25:   66d376a868b69a9aab8a8769aaa559b6989667aebaa486388aa7a897ea366ab93a576a9876748969
col26:   a756ae98ac7ca98a489af99da7a7eba7e599f9bbb88dc9bdbbd6589b9b9979cbba89a9ea9a895b68
col27:   798957986789865aa5b88c69cac5a7997bcaa689baaa59ad8bc76c9bb887bc7aa78b88a97a777a85
col28:   499bbb4787f97c9a9c88ac7faba6855c9979adbbcbbcbbcacc9ccbba8cbba5a9caba7abb99aa9768
col29:   973bb799865496bbbcbac5ba8669599c8a9cbbabbcd7ea8ea8cc79a97c88cbba76977688a99849a8
col30:   6a88889ba98a99a988b78b8ca999bab8beaa87c9d7a7d89aec97bdc97c89a9cb28a67699997b9c95
col31:   98799c7e99b9ca88b9a785b9fd8b88c9cdd76e8adc5aa79b7989bcb999a9dd8cdc75c8c77bc9697b
col32:   7b86b9daddbca9abb9dbea89b8c8bb97f9cac79dbb798ea9dab78cd7accabbf7b68ab98959989998
col33:   99bac5a9599ab7abe5aa8868bbc9c979a8ba68c68cbaadc899cbbcccb9fb7ca9789a785bc9c7aaa7
col34:   7a3a6aabca9b9e89dccb8bbbbacab996c8aba9bb89c99bd9c89b79da9879cdba8999b98ab677ba75
col35:   3a9a87877b96a8ac7ababe8a7999bba7acaadca88dbbeadacb999896b9aa767b8ac8aa8797b9ca66
col36:   66b9b9a76896b9cad88d9e7dca9aabdccabcbbaacc888a79c48cb8d7bdac9898586a98c5c6d96b98
col37:   876b98b7c99bc5c9a95cb6a8fcabdbbbebedb789ccabc99dd6accdabbc9baacb969838bd9aa7888b
col38:   a9aa868bcd7dbaa9bce8d9da798adb7caa9ac9bbdc6dbddabd889b7abbae9a8975c8f87bc8da98db
col39:   6887a69accd98c8a9bcba6ab9b9caa9a9ba9a9cddaa7b9dbbca9a697bac9b89bc8b77778cba9cb87
col40:   b66ca986ebb79896dc9ccc9bc88aed88b96aaebca8cab9ada9bcdd6cca6a868e9bac5a9ca9cab674
col41:   767c5999c9cab6adbbac7ccac9c7dbddd78cbc86ccc799caab77bca6b9bb9a96c879748b6697ab97
col42:   97aaccdacb9acb4ca9b897adaccbacb7bb7bdbbbbcdbaaaa9adcb6f99969ac59b77ba768b789876a
col43:   a5ceac95caabbbac8caa9dbcaafccafabb9a9fb5bad8b9aacbe8bdcb89bbbcacb8a979887c896ac9
col44:   8a5acaaab8dabd98999ab9bb979afab6d99cd9facb97b89aadcbb6c7a9aab89b6868694b5d5d7b89
col45:   798abc99cb7b99879ab8b87cca8aa98dbadbbcc999babdcfdca6bb9787aaba8768e768b8a6d5a574
col46:   9b8cab7d9c9bc8ab7fa9bbe89ca9cea98ddb9bae9ba8aa9cd99ba4c9bbbd77cc78b8d8dab867ca76
col47:   bbb6aa8bb8aa9869aacb9cbd9fbdadbbaba8e79675997797ebb9d9c79e9acb79c66bab796b587796
col48:   8a9e759b9c99a9aa9cda7d79d898c8cba978cba6aeaacba978c8a99badba6779a99bb798a98a9e99
col49:   aa8bb989a998ba9cbcca8a7d999cddba8afdd8fc988fb9998c69c7dda8aa6b7a99aa8a894697637b
col50:   9bbb9bc97479b9c9babcc8b9cb8cac799bebca86ac8cb7698da898bbb9b89aa8c8a798b9d957a9b9
col51:   bb6a47864a8a785a75a8b97eaca9a799a796cd7785754898a774a6b756bc8689833689857479ca48
ROC:	 BPix_BmI_SEC6_LYR3_LDR17F_MOD4_ROC13
col00:   eab79cd4abd9bab7cbbba8aaaaa4adeb87c7bbc7a8dba9cd99ba8d9689a88b94a9758666c737a734
col01:   c5cbbedcbbadc969d887bcbdccac7ea8da8dcbd8c8ed7bafe878ce8bdc8cb987b88f86a986ab76a6
col02:   8c8a88bc9decbcb59c599a7ea6badaaebc8e9aad8fef86a9baa8857bacaacf97bbcae9d8677a6977
col03:   9bc8addabbbccb98c8fd7c9d9bbb9daac9b78ba7d9cbaca7cc8bcac978c9cd59c9a88ab76879a847
col04:   69a9db5b56ab8dba9f89dbabc7998ecebacaca8db9fccb8dbe8d6a8aa928eb9afba758dd968b8857
col05:   c988a7d5e8bcd9cc99bd8869abbfbdcfbbf8feceb69c8cbe99bbadabbf8b7caada896bbabda4ba9b
col06:   b9b9dedcadd97ecbcb89fcbce96abe89ab6aaa7aeaccba9ab9bfbcd763c99ddbb899e77da97a69ba
col07:   d9cdcbabbea5ddfcab89eabb89bf6d9dbbafdccbb8c8f9c7ac7beeb49bb9dafdc6d5c9b88a837597
col08:   cfbd8987caabea9cbbd7bceeeb8a9eb6b9fbdacac7bdbbb9d79c96a966999ace8e9dec789ab48a79
col09:   85a988addd7d7cacd9bdddabdbabb99fabae6faffdfa8eaadbbcd9bbbc7aebac7a6d78c7c6b237b6
col10:   899d8a9a9db87ca798ebbbf8bdac8bddbc88cc69dbcabcca958ed68589cfa988985bba6776588653
col11:   c7da59d89cbadcdbced8e98ae987b99cbc7c7aaeaaa8e8875968b4c8e8b99998d745979baa46a244
col12:   8bbc789ea78cb7afcc9abcb99bba6df7aeaef9c46a87a88edcfd9b7978a591798b6b858585849526
col13:   b7aca3dbb9ceacfaaa9d9bfc78b9d7ecaaaaabaaf7ad8aabfb8a88f8d7bde643b85994969bb4ab25
col14:   8c9afa7978969eb7bba8dbaa99ba9d799caa9eb98aaadbfb9f6b488cddbdbb7c6f8a5687b37881c4
col15:   7abdd8b9a7bb8eceaba29cb8ed9aacdad9a8d7ac9b66bbbeb89989fa9d76cb994d8d998daa757744
col16:   b9667aab7bbec4a7dad4bacccfde39eccade95a89ad6d66abd78999a9797cbc87a8d7a99e5b56585
col17:   a88af699949b97bac79a99e84aabc8bb89b789a7d89579a69978989bbab9db269aa35ba273455658
col18:   87b8899c948ca9b9a678996aafcca86ccc57a999a8a779a88a78c8cbca79bc866357772f87676492
col19:   9a8da85a8abaca86bbf67787c9c99d99eab88656c967de96a76aafbeb69b7786978a8ac767479452
col20:   978c9dad9478296fe74a68765a9f7b699b6adaaaa86aaa8bb5a57b6b5d9a99896669999979158562
col21:   da7899bcec75cd5abbd6aac8a97a9fdcc7cdaabacaa8da8864b9a7abd9a987b6b7ba6259a9997343
col22:   94d888887799bb75d9ac899c88aca4bfaabbaa87abb797a8748b83999797b6927684585265131532
col23:   4ac87995a8dac9bd989aa8894e7cc5ce8997e88a6cfbdd5a6fabaaab965b97416bb5699ac869b491
col24:   98957cbb699b996ca886e99ab78756e69e9ba8a89a8abb75d68b89866736c88e5999598455416613
col25:   669978b7bbbb7b8766be9ce8d77ab87c3bbc9ba7b88bdaa9968a87966d77a99979958956a67684a6
col26:   deaeabcbe9eadebe7ce9a89cebfeafb9f7cdda8c9abcaacbc969ac66aebbec99b8769d76b7597554
col27:   996ee9fb8bb5ca7bba7dbd75acc889deb8cb8be9aecb9acea978b9d9966ba9ba88c46bb749a6a8a6
col28:   bcbdf8e89bdaad9fdaebc6bdcafdbccbbadcfbdba9abbbaebcddcfddedada6846987987795397675
col29:   ca878ec9bc8baaab88bac9b7a77cfb8ccbcbcac89bbe6c5ec79f7addabb6b4848479866796aa8431
col30:   a9af9f79cdaba9faebccdcd8abcabacd99d8bba7babe8adabbaacb7cfa649cbedca68b7694655868
col31:   b9cc98eaecebdc9c8c8fdb9ba7fda6caabddd87ceb7c96aa99bdcc99fc77e89dab9bc89bb9989918
col32:   96a989be9bbd68fbabdabccbdc8c598cdbfdfce8bb8dc88decfd9bbabaaa9ca69f7bbcb972289652
col33:   beafbea8cb67e9c77f7d9eddb8adf7789b9bcc9b7dcf4ed5eddbae7aa8e99a7d6d88ad8d78e79755
col34:   f5db8accccbb899eeeacd7eeeccc78cef9ae8bf9ab9afa97a8a6ddbcb489a799d887979884876665
col35:   cca77db9acda7c9bbaa5ba9b9abfbbfdceafabcbddbb8ecde6dcb97cacbabeabb8db958b46758a51
col36:   c8cd9798acca8a6f9fcdaefdaddabbe9bdaadc8bfabaa87cc2c9aad9dedcb5ba656d9b4a5788a858
col37:   dad97eacaabf76c8debc9899eabbc9ccb9fa99bbdfcaae8bd8aadafbda95ff8995a465773787e87c
col38:   cbb6aa39989dac8cdfaab8dee6cbbef99e9becadb9eaa9a9dcb989ea7f889ddea6894c96e6696b76
col39:   bb49babcfacd99bacccbecae8aeeae8cc7ed79cfeb8a8d8dceadbecda579bbcaca9676c77c5547b7
col40:   c89ac8bbcac4ccfa5da9cbdfc9dd9ab999fedbd9e9fb57c6aaabbfad6ad76d6a99ab5ea8ab354693
col41:   9add86987dabcdacdbbbea58ba99aed7cbdcdc6acbc8be87ab99babbacc5ae8796aebb9688811c55
col42:   9faaac6aadbd79dc8bfacaa9b8887baeaacddcb97cecc8cc99c9ba87da3e8c4a38a6aaa696892353
col43:   86bd7999adcbbccba8caba6a8a9cbcbbef896fbcce6daaa9cbbacd89dab59ac9d9b7da99b6a79886
col44:   aaba6ef9c9bfa9a89ae96d648777bac88cb65b97f7b8aa5b999aaa7ccaca86e47d8473a685454656
col45:   c7ab89cc9cb9dd994bfd76a878c5bb8c8e7afcabb8f8d8bbbb8a3acdca96b98779a5767999898747
col46:   49a689f9dbbbaa8d7c8bbe8d99cbb89ac97afbbaa7279879cb88be5bddabbc88b9986983a9a57a25
col47:   7a9cfd9a7cdc9d97a7bbeb8ebbc8bcaeded8cdac8969e8baf89a99b95cccbd9d789748c9a55953c5
col48:   bcabb9699cbbcf66aec7eb8eaabbd7cdcbdfbd999b9ac9b9a7caa6b6aba578ac8966c47858856869
col49:   a87bbaccb88da98ae579da8bbec978eea9a9acf4af8f8aae99b7997d8b7b6b9888db6649c8c87689
col50:   e996958a7bcceab9bd9aa79dfda78c5c9dfc9d98ed7abbdabdbdf8889b7c76ba699da7a889d91765
col51:   598aac9ab75499899b46e955c8a98b99b6a856d4a84878a88498973a858c7475b746836474454981
ROC:	 BPix_BmI_SEC6_LYR3_LDR17F_MOD4_ROC14
col00:   5345552787153395555467a674537c79a6bc79743aa685626c99b8a89e5a9477b51855429315b733
col01:   735216a28676984598247685688a6a5896779bb77b9a7c9ac9989ab9b7baa786697ac58576659131
col02:   569978697397a66879947ab688967a6ad8b99798a7a8bb7baa98796ca89da87b7bb9796639684897
col03:   8744886b95b72b778a8885677964789a77a988898b9aa9a85b7b8cb7b7c679c8aaba5c3659a47733
col04:   564145584ab87767887679a5b77897bb97589c49acb8e65b4bca9a769d887d89897b88b63bb74791
col05:   4866899677689a969c5979d4a5776a7884978cb96b8c478878a6b677b878b6679b59544698374424
col06:   4736448486b786176a58c7c58a457bb9bc86ca5d668785aa877a98898aeb68a9b775b6a97a854738
col07:   8899956778777aa6579b7aac787a9b82b96a8caa9a8ab88c7ad85c9aaaaa8999687542478c7587b9
col08:   746845658466777c68a53849b88b856c959aa89698b59789a5d7899866c659a99327526a83aa6da3
col09:   9967586648572c8787496a6859a98a83aabcca46a96bd9bc75b675648594999b869b6b6467a94864
col10:   5763687948593786875898575658ac57789a99896888d99a7d978868b65b9b9896818523a5584533
col11:   366748b457969976999ba45679857a979a55d8957ba44ba5ba96b689b8498c6a73c76ba6a6471388
col12:   88954a85695bd7a9c56988a7689a6b985767998899b9d3595566ab9aa9867db588766846987434a5
col13:   485557867a7ba679cb95849cd7d6a8977bba9a5be98ba58a7b6ba8a9667aa97995aa4588975b87b2
col14:   687754688ba8786a8758a8b95976aab69b869775ca8bab898aba6a769977aa49986667987ba7454b
col15:   7a77c5986b9868a7b43bb797b77a4b49c8757a88a779c77adb64b6988484867a54998159746a4732
col16:   9679b69676466c578a599ac789489b778797789c798879959e969bb98996866678a6157b8c734737
col17:   b686877ca4868ba9374ccc88a98758c6a77989a79567986b79a2888b58857b7693c96b548a567475
col18:   85495895685476ba97575b875c8c18b687b87ab848a76896998766797b8946378617996876246533
col19:   bab7876caa595aba8cc975bc8c97c87a7b9785666c79996b3b889aa9754b7956668654c984ab9757
col20:   75335a85967686539989877888b979f79685b9caa6a8987c9b98984ab7d69a557747687767675562
col21:   6955b48c7886b672665bca9a8ca9799ab77579aa7ba9cc88ab5b968abd6796794546a25968471524
col22:   732bba674a8a85898657773736a864894b8ad7bca78aaab7844677998b5647a62856778323379432
col23:   6536767697588d877698776bc9c95587967996ad49e9976c9a89a8c58959a726978a996988367611
col24:   482762759674686889b66b87687a8b89a56888778aa7b79c5b949976974584772665a897a5548766
col25:   65a94c68476bbc468989996aa67b7c78c99b6a979789b6a5abbaa559a89996a935a8598967725859
col26:   39c5967a7786ca956a89aa9998b59b99979c89b5acbc7a98b788798d9ba96ae7a39a88a8978b6862
col27:   8b94b6635976778a9aab7b8b9dfa8c8ab8a859aaa7abbab7e759c86b9778a59996a6497998855a83
col28:   a7895b8888385567aacebba9ba86bcf6839a89cad9eaa6d7c9e6aa5cbebb8b687cd3ac9575e45452
col29:   399baba95788aeb98cad65bcb988bb8ab695aecd7c7a69dc8a96cbb6a87b8b988988846a69985668
col30:   ba48b986978ddc9c96b89b77a9c8ba9a98778a5cba8cad7aabb89a5bc7a57d7eaa98b798b7639a95
col31:   ca6aa769bba969bc78aba9cbd9bbb9eabc4badcaabbe9cc8dc9ccbaa8db6c787688646799ac86777
col32:   d976667adbcac9cdc8d79abcaabbceed889abc79aa59abbaab8c867ebb47a886775a8877cb7aa4a9
col33:   7556a8695d8b98ab99b697596bdad8adccccbba799ea9daba89cacccdefcba595a787689c74a4955
col34:   a779987abbabcc78a78a98ac9abaaca637da7778acab9cb7cbcaca897a9e847cb875b7aa96b75462
col35:   97996bbaaa879bb8c787abc9a79bda8a68fc9b8dcb85a7aa78da8af7989799a86987b934898a6464
col36:   998768aac879aa87bbaa87a9aa7babcda8f99bc9be8bb9679ceada8ca7ca59d7b5857e8868854b77
col37:   ebcdaa59c9869aaa9b779bdcbc6d78c8b7c99d89d8cbaccb8bdab9898c888ab9c766aab746565988
col38:   9ad8a8c9b5a8bdd99a8bcba9bab789a99adbaca5bcd9ad689897dacad9b7989bb84b868944686e77
col39:   867bc9a7689d6ac8a58bba5d86accaab7a9ba99dbdbe9c99a9a9abe88c7fdbed9aaad43c89897574
col40:   55b77aa6abd879cbdd98a6adb86dacf9baa96df9acadbdad9d998b6cba8b7b7aaca89ba75978a652
col41:   b6976a86b77adcbdb99fcbbfa8e8bcafbed9bcbbebccab59aacaeab5db7b6bac679c9c8b66799671
col42:   ba9969a9abaaccb88ccecbb8c7da98c95b8cbabdca39e75a8bcf88998a9999b98b5a998888978584
col43:   866b88acc8ecdb8cbabdedae79e86c9beacdaabbdeead9fbdddbdacf9b889abb689b998aaa7b58ca
col44:   9b94a879979acaaaa9b9ebae8d889b5deaaccc77996cdaac9ba9bca9977dc9dad8a9c7b387b788a5
col45:   ba62878e67dc8bac589acc7aab9d7baba9acca6caaa9b9da99a88ab79e8b799b9abba899657a6974
col46:   7d965694976b8cc98b8c574d9ac6bdc999bc9f9bbd7bacca677e86a6a8986b97ab9a59b7757d79a3
col47:   bc68858cba9abc8aa8cfdc99ebea8c6af9cd9d8ccfaabadbcdadbdc96bbc96aa5aae5a8ca3879b75
col48:   948b8986688a9acfbaa8cbbc9d999cc978a999b8ccca7ddbfb6a7aa53abb78856c6bb79b57689448
col49:   98bb7edab8bdae88b9ba39acc79697a9d9cbfecfacc9dd9ddc9ca79cab8dacc7a7c3985c3c817935
col50:   aba9bc99b8c9d6c9784b9d77daebc9dd7cbbdbb8ba9dcbbc6bb9ab8c9a6aa988796e6883554777a4
col51:   797788946586868b55855a7a67999b32a98a98aaab775d6abd7a7d788b655885ac75266578316465
ROC:	 BPix_BmI_SEC6_LYR3_LDR17F_MOD4_ROC15
col00:   67679456596b4958b687b76a6854a7695c96783b5655576795944134a52864d98456146965833b78
col01:   7598c35b98c5c9c793599abadaa8d9b869ac5669a978c766299b86865a86a78aa85784d7a9d367e7
col02:   5699c6887dca888a98798787c7b694cb9c54baa858d5dc978598755aaa6987b6a995777abb69a567
col03:   8664e589689698bb977896b797aa6b6cbc6aa87a5b888a988989955447d8a7795767853b47c6b553
col04:   275a5bbb87a28999877d678e7fa5ca88ab7c398b6a5977498aa99bab28854a79876989b8a95a7796
col05:   88896656a86c95e6488689d655b7c98cc88656fa97c57ab765459558a8bb46878b57976a84658aa7
col06:   5a9478878d95cb9da4d7a889a9a73769abb9a6aab898dc799d5a8987b95abb879465b4cbb788af67
col07:   b77a97669a458777a89c49a7a99c9867adc97afcea7d8ac9a7b787c774a9c9899cba45b68847aac6
col08:   55a4945b6998d6c6785b89bb886aa8b9ac5536a888a9377cd99a75a6bcaa5674a59d9935968ad49a
col09:   3866936b68c558c1d89546bbdaaaaa9b78fb9b687978aca25aba37886abb979abd97aa2ba7bb6ab7
col10:   758735a7a98aa4b55994ba9b77b79945b784b6f8b7a95b997ab88a774975c88b884a6b6989a56489
col11:   b856f566c4ecaa6876b879569cbad865898ac899a7889aa9847989db9957a87bc88a84b86973598a
col12:   57c9758666579688786ea8a459887c7f97abba86aaeabb7479b8fc99979d98cc88a7b8ab98b847b9
col13:   2568c7a449954ca77b677b71b89a9dde6a698679888e5675ababac878a8c6464ba37c7abc6a72768
col14:   a67518aa983c764d88778a9697ccd8c6986c8a8db8e9a78a8a978876998aceca28559bc894a97d76
col15:   32b8c95ab64a95cb8686b6a848a897a869aa7bac8887aa79ab87739a7babea7a8a786bd8bd79958a
col16:   9cab537b77767bb79a6a6867ad964e4ba4889bb7ae6aabe8a5dd989bac98babe688e48da98b99479
col17:   3774a89726a6a75b6899879967b986a696c6a79678aa9a9b49598fb8a66accd69a9968c598a897ac
col18:   64ad87b97498998697a7c8887b77886b95e68a77fa56ed89e8d779ab8ca75579c995ca75975877c3
col19:   779553799936945a76bc967bdab8968783d85a788c9aaa88648abb9adcda61998acc99b8c866a856
col20:   55578617926977b7325793e9a878979b9a96888968b4889c779acc767cc3997567797878e6779a34
col21:   55129a6858997a6887a49b437ca9636b699c1caa99ecaba98ba9bc879687889c76be83685a97b4b6
col22:   844597545a8a76876b74558897a9a55ae89b65b69997899af3578799baa38bb7a7b67a9c6796bb66
col23:   a58346467567868a47769966797d9ba599998a547bba9aa7daac946746b87a9aa9a695ba93669a94
col24:   677857a7964d3a737e7757a7957a9ad8aab856ac78a8458a7cceba68899ba7c87a7737b7babdc477
col25:   477877b77a37747c489c7c6868679a8cb9ab679aacaab7f6ae9fdabcd87899cacbaa5cb989989cbc
col26:   756ccca78a19878899d898ccaa6b77b99e7aafade9cb9c8ffa78ddbb684b8b79c9c5a8c6b8b68898
col27:   846886a678b48c496cae6b8acb8a7c6acae77ba87bb9a4bcada8fbbecda9889cac8a97cae9acb98b
col28:   65397889aa33c8886ba785cbbf5afbe8dea9b88b7cde7b77aaa5cc96dbdcdccf99aaa89bc889bc8e
col29:   667a7db7a389e5e57a6cbcc9bc7cbdba6f986b9b99dcbb8b7bbbbedbae9a9aeb9eceb97cbaa7aca8
col30:   977799ab6a8787d778776897caaaa8dc78999fc9cbac7d9ec8b8f3cb9bccbb7bcbabbddca99cdf9a
col31:   63c7ac99abbc898aa988c96b6fddcbdedcb8ac6abca9acc89fafebdebbbfbfcfbed84cdfecdbfa97
col32:   a5788a6697cfbad5aabcbcb95bcc798eaaab7bba9c9db6fabba8c8bcdbdcfdc9b9eccdbd6abbfccd
col33:   95aa7a7c796a5ba9caaf988ddbcefcadbc8bbbc9caee9ceaea987b9aeddce7cdec7dcdeae8b8baed
col34:   576489a9ca77bbbabbbd5dc8cdbdeb8dae9ccdd87bc9b9ab978fdf9dccbbcfcddfccb9f89e9a89f7
col35:   798a996ab7794caab97cadd4c8fb5fdbfbaadb9ddbecacbbaabff8fabc8fdadbbcecaefaf999edba
col36:   ab5b98a6a9b98d99ef5a979ca9fec9dbab9affaaad9cafdab9abb9af9a9bcfd9c6cdf9becfd8f998
col37:   997b978ab88d9cbd9abba957bcc89addbdaea9ccc9adfcdacafbdbeadbe9defe78fd9cebdcaf8beb
col38:   5b4a787a997b7b86aaecac9dfddacdece98f97b987ecaafefeeaafeaeccceabebdeee7cbe9fa9ed8
col39:   5a887879c796c95c6d5b96dbfb9cab8c6b8a9ab96c9e8cbbdfb997cfd6fcddfbd8aadfebbbf96e98
col40:   434386b9867cc9dadbd8aadbc98be9cab97cb9bbacbc7f9aeadbf9dacdbbdadbded8d9eccbcfada9
col41:   8586a86b9799af8c7dacb97bcdd9f79efbdeadebebabcc8fdedbb7bedcadcc8ce9cacfefbdbb5a8e
col42:   a5758995babcaaca6bc9bb9b4b89addb9ccaad8cf8cbecd7fbade7ffbfd9fe9fa596ddddabfbfc8a
col43:   b8aedab7acaed7d59e7c99789bde8bcdb9d7a8bcf68daadbdeeebffddaabfcebbeabffc9bbdadaf7
col44:   8675c88ab78a6c997c5a9cbd9eababe8bccbeceee9acceeeaa8fab8adcfdcbcfcbadc9f98fc9e8aa
col45:   76a96b76a7a8997bfdcbc99c999bcccaa9ecf8e7ca9aefcefca8dfdbcdfdbababacbccac699dcdac
col46:   a7659498b78797ad85a97cbad6cbb8dacdcb9dababadbd8e8d88ba8fdaf8fbce87cacbd9fdbdceb8
col47:   7576c86b666ac88c278ab9dd899e8bbe8abfaebddfccd7ebbecdeed7aafc9ccfacfa89fecafbbefa
col48:   bd89b927aa77a67bb8797e669acbabaabcbcc9787fcadba7c9baccd9d8ed8ddf5defc9dcbeccfae8
col49:   49959a566ca75aa997a4997b8da8bdc9dd7788ccdbfad9bbcacfebacf4bcadcfa6ccfbb999dbcfce
col50:   59989549cbaaa88a94dab7a9b898cb6bedf88eddbcfcc8fadbab9defaca888dfbdafefcfbd99afe9
col51:   441552627a75887a58885d9975889be7a98ac68eb98a9697979b797aaadcebccbbac8f9beebc9c5b
