ROC:	 BPix_BpO_SEC5_LYR1_LDR4H_MOD4_ROC4
col00:   25256457a566367815589558b778a9866b9957b7593b757b658a865789b858958b467874668b98bb
col01:   4367678445554a8565995395b56667c9b997b6b78a69b76c89a7a7d789b89c89b8aa8b566656c6aa
col02:   85758389474a6279a7869a47479887a58866788b899598645ab794b885b7986aca6b8389a95975c8
col03:   5577959589a38899743a9a6ab8ba7c9a89768666a9466c9b7797acaa4bab9c869997a8767aa6656b
col04:   a58aa78b6864a9978969d5957879bb79a9aa59566996867b9a87989798999aa85465777546888976
col05:   756c6989576769767895858997c899c89bbcaa9895798a9b977947598a96b8b794a9576c7a97953a
col06:   47888954b7785a687b48b5b97a5a7a996696aa99a8588875288a4958cbc688a799877988388bbac7
col07:   576866857867a7677977584b7b97896a49a537c7998ab7b84cbb6b8a66b9569f76a769aad5ab87a8
col08:   75a8a67656859d37756b78cb77665c697a599967adad85b66a79b688998e7b88aa5899696499b977
col09:   84977876975955b957696948985ba9d988999778ac7b5979867aaaaa7488a89a38b98aa887aba77b
col10:   696897744792bbb6886755b8c89cc6c7cb9c7778c76baa87867a576d789ca8b8a7877ac89b9a9ac6
col11:   777658c686665b686757aad5a99a98b7798b689b99ca468b988879abb9ca8c98b798977a8b4aa778
col12:   17775987876878b68bc89976b99ab8ca9587b9aab649b7899579da8a8ba577b898b889888878a989
col13:   6a7643675778856aa448946ac7b999a9a9b8aab88668a799689ba9c989a7839b8b77a9cbc5887586
col14:   78756364544779896a8678795798aa76a96c78b9869b9b875668ab9c88d59a98b298a4ba98a9c957
col15:   445559688399599b79b87978b9c89a76b689ab8b7b96b8577bb9b988aca9ca969a87b9859b967acc
col16:   757777568a77966678699998987b97a887d99ca8b98996c97b897aab86d9ac7796a6a4898a7b8897
col17:   951984537459786b969a957c6988d998a57ca97a7bb8ba5ab8a9bc6aa7aaa8a99bc869b79c7aba79
col18:   86654665778857698a986759a98aa4d8ba7b9da8b86a655a5a98aa97baacb898b9bbccabb984797b
col19:   65a864678a66767768db95a994aa99bcb9a98c9a5a9ba86799b7bbaca7a7eca876a9c9b9b8bcc896
col20:   35a98689689999ab98d885894798a97b89cb8a8aa986ba7ba7ab5bb9ddcd9a9bb98c7a99b8a48dcd
col21:   5387a79a68896b987ba6748a7797aa97a78caa7bbc8b9b988aaaa979a9aba8b8bbbb8aaba9cb9cb7
col22:   597776785577476a9a7c7a8a6888bb9968a8b9be9a87b7cd98998dac99c86979887da87b87759ab8
col23:   46b6c67697658ac599997aba5b788bc99abca989999ab9999bcccdcacddab8ad89bbeda8789b888b
col24:   5796b5b97796aa9789b86b6a9a78b78b8d6cbab778a8ac8abccd9ba9abccab9b686c6aa9a39bacaa
col25:   387788998b8a89ca68a968ba9a9999d76b8bb9cbe87a8a797b88acbcbbd79aad99aabcd9bcaba696
col26:   a77399788b8b58679978889bc6c8c67899cccd97bc7a9bb7ab99aabccbabfbba8a9ba5c7b9aababc
col27:   569797764ab8879a9587966ac9abc8aca6d7999b9c9abb997bbc9bfbcabaac9abbb9bbcbeabc58cc
col28:   54677abb8997c766b4879b8aecbb89b7bba7876bbcb7d9a89a7c9cb9edbbdad988cbbbddbcd9a9b6
col29:   3597777a8997aa98aa8abc8dcac9dc99a7aacb79bbaed99dbdedbfdbdbba98bcb9bfccabccdff9dc
col30:   a7978c958b7685776aa7ad8c9bbaaabaacabdbabb97ae98eaabbde9bfb8bb9bfaafceeceb9b6dbbc
col31:   47777798b796678a99dc98bc9ccebae8bebaaed9889cb6adc9e9cecbea8b9c8d9bc9f99dafbcbb89
col32:   8895777697b7a6788a8ba9c78dabbccaaea9ac7a9ab9babdc8cbcdcc9aacddc8dabec97eb9b9a9bb
col33:   269a89789a987a989bba8699aced88aa8bcba8cca7896abcaebdc9acf8d9cbeda8bb7c99eecedbda
col34:   77879798895876ad99cca88c88bbbacddbd9c9dcfac9bdbcc999bcca6cbd99dbdbdccad9aaf6cbad
col35:   8c95985877b77b6998987c9ba998a8bd9ba69b8a9df9bb99babc7ccd7b8abfbbdb8fabfced9adb8c
col36:   398a8a9779887a7a7b7da68866aaa9a68a7dd9a9ab9bbecabbacaae9aeabcaaddebcbfbdebcbdbaa
col37:   a958a98877b8688987989cba989bbbbbaee9cebaabd9bdadbdeddcd9facdf79acaabaccb8c9ac8bd
col38:   78886757b89ac7c797a4b6aaa68667acbd98ac9988bccbddaccf9bbddd9aab999ccaaa9aedbdabcb
col39:   7bb8898978ab8a9489ad978cbbccbaecbabb9bbbbb9bccabdfbfccabdfbcbdddba8bdb7b8cccfdb9
col40:   848777a568aa7aa9b897b84abbcc998bbbb978abfab8a9daba9aa9aaa8b8fdbab97abcbacc88ba86
col41:   589b62478b7947ebc7b98cc9baacc9acfcb996ababcfbbdaaaeed9cabd9dcd9dbabad9bd9a9bcacb
col42:   b5b9899aa97a888ca8ac98aaba99bb9aabba8ccdcbeacbcaaafeaafcbb9dbbabd8ecadcca9dcb9d9
col43:   97aa8cab8c9dc585abbca9aaab8ca9bccaacaccfab9bddfbdcdfcbddcdcbc9db7bcdbee9bbccb8bb
col44:   47479459a978c96a8baaa88bc99aaaa98b7baab9cdbb7defcbece9999bebe9babcaaacbadcbebcbb
col45:   84756ac7a5a68bc87acb9a9bcbb9cdcc87d9a9c8cdda9bbcaab69a9cdbdfceecc9c9c8adbb9d99b8
col46:   6a35999aa4aaa9a79989869bb7aabbdcc9bae9daabcbcd9ecbafdddbbbeafc9b8bd7bbacdd7c9ac9
col47:   6899658958869985879aba9ab7d9cd9b967ccacc99cbcaacacdbdecc8b9cccdba98dfbacecbbaaaa
col48:   66565877c77a97766dc999b98a8dbab879cdb7d5adcfab9fad798dcbabdda7cbc8ddafe789b9bb7a
col49:   795787a6958a7d7768b856cdbadbf9a988ddb9bcedfbbf9ddbdffafbaaddcaaddaebecb8adedfdcb
col50:   549674696679687a76b7c98bcb9d9c99aabbb57bacecddaa8afabaa9b89bcdc89878ccdabecdd9ca
col51:   8466459668458b899ad5ba9a89ba999886678a89c99d8abccbc69abbcb8b899b8b7d8b9b9aa9bbb6
ROC:	 BPix_BpO_SEC5_LYR1_LDR4H_MOD4_ROC5
col00:   5558716513576a4557b859a79ca665a88a7aaaba97ba6bb88b7ccb9ba789dbcb7ade9cbba69bb679
col01:   234553773987a87795479668a8a99c8b88ab9ccdd9899cbde5769fa9b9d7c8bad8acaabb9cb798cb
col02:   35768454654669755889999d798aaaab669a889a9b9baabdd8addbb88fdac9dccb7a94a9c9d9cbb9
col03:   185958598b3a64965969977ca78ab78acaac69ad99fbbb8a9caaceaba6dc9eef8fbbbaac8899baca
col04:   44275527849b6868787a98ab67ac6e8ce6aac89ab8badb88c9bdbbb999b9c9dcdabb9ab9fcca79fa
col05:   6654988b8637876768a96b4b8d8b8cac5c8c9aaa7cccdbbdebd9a55cdc5b9acddaa986dbcbd98a96
col06:   754555957679457b975665a99db97adaa9ab7bac8abb99aebcaaa9bccbdc89afff9c98b9888cdbab
col07:   4652848865578663a75638566abbb7b7a89ea5bbbadca6ebadaf9be8c6bcacbbc8b99a9baccbffa7
col08:   7a66959964937a7697848798d989ba798abcbdab99dd988bbd9adddcaceada8adeceebbc9fdbb889
col09:   7a57995978696b57aa89857859cab7d9ab99ad7cabdadaa8db8bf9adc9addacbbeedbb8c5b8b989b
col10:   b47ab88759a55775ca74748c7e7da9887bb9c9b8e7b6cac5aa8baabceebaecd7eb9c9cbd98bbc9cb
col11:   646496b9c68898287a79ab8687b99a99b9be9cbca98b78bdbbb9dad798df8fdab79dabeacabb9aa9
col12:   14797745599a7786a9a8b967a6a7b89dadab8c777cc98baabdddd99d9fabcdcbbcab99adcad977bc
col13:   36487999b88765c978ca98b98bcc968bd47cddecbd9cccbbdccbdbef9f6bccdbbbcbfbab6fbcaaab
col14:   371879872685289299998bae9ab89b8aa7b78d79d896cadba9abb9bbff9abb89879dcca7bb9fd9bc
col15:   15348654767939787c889ab957c88a89bcc9b85b8bc8c8b6cbcc9eaa5dfce9ac8bfcf7a8ccc8a78b
col16:   57969569516678968698898c7aa98977bc69cddd8999ea9cdbb9be9bebecfb87ccae5c89949aacab
col17:   552353a72977659baac4c99995779b599a768dab6daa9bdebeea9ba8c86ce9ed9bb8baceba8999ae
col18:   735275781a4354a8a79a9a867a8bdc95b88cf9ccbbb9dccccca9bcb96bdcccadb86d99fb7aa8cba8
col19:   863698b9798429bb88a987b599ab74b999bdccadcbaa95da9acbb9bba9abdeebe88dcaadd9d98c89
col20:   78444b674846ab589ab9799979a9a57babac967e89c8e9ccbc8ecb9caabc99f8dabb9d88fad87b9d
col21:   a7497567b65875769a8955b9ba9acc9a6b9aa9babaa8badbbb999b8bbf9aaddd8ddd99bd9a9b99e9
col22:   b58567a687379b97a89597b8b79bc9a796bda86a68cad8787f8cacbbabb8a6dbc8d8acdcc879aba9
col23:   646899788957b77478c9c997ac789a6aacd7dc759a79bbbcb9c9a8bad8dddccbaccbcc8ba7a8e9e4
col24:   386856877833bd884ac69cc98b4989a98d89d99dda78c8bbbbcadba88bd8c9bdabbc8a9bacccbbcc
col25:   b65485b74889898968799aa8885689aab98baf9ecbae697a9bbccbfbbbd6bbebabca9bdccaa9bcdb
col26:   966555896778b997b6c9aa8adbaaa8aaee8bab9bbc9a48aba9adecada8cb8d8fdabc9dbdcc7e9baa
col27:   ca7a967aa68789c9db6aacda88adb697c9e786baaeb9cafbb9cfa9d9dcdebbbecd99d9d8ce9e8bcd
col28:   78697686697c93b896c9cbdbadabd9abda8b9aabbad999ba6bdbb9dddcb9ba99aebc76ddd87bdeb6
col29:   2598a866b759884867a989a8cb899d5acd7f7a8a9acaa98e97ada79aebe9c6cf97cccbbdbcdacbb5
col30:   899a797a75857dd7a7aa8cddaafcabaccbbbeadc9aca6ace6fac9acd9ce9c9d8c7aaca9c96bb7cb7
col31:   7677ac648a76855cabb9bda8a9dcadcbd5dac9becabcdcdbdcfeeefbfbc7bbcaefadacb9d8adbaa8
col32:   9697ca78a7c99989a9bcbaa7af8aceed9accbc98c9af9dfbaf78b98cb9c8cc9af99d9ab9eabddcce
col33:   698a696b588795cabdd98ccb9bbbedadbcafccb8badcbbcc9ca9bab9ec9adbb8cb9deba99bbb97a8
col34:   876988867aa6d576bea9b99fccc8f8da9a8b9acebabfd8eb7e9db8cdbcbcbdcadb8ecb8abcfba8a9
col35:   8867aaa746b68bba8ab79dca6ebaa9bd9fabcbbeabbdaddadafbbbadbde9daf69bbabcbe89dbbcf6
col36:   75786897b778aad9999cbab9aa6cb9bceb9aa95eacdf97fdcdcad9daebbb5ebb8bada9c9babb979a
col37:   6979697579aab9ac87bbacccb88aacbbcabc8aceb79ac8bccc97badbcbcd9aacaf9fccbfbaabebda
col38:   887d5998ba6aaafa68b9daccb79e989b88ebcaadccbbd9edaccbddcdcbaabcccc86bbbdd8ea99ac7
col39:   868b8959895bbac8b78b86adfccddb8afec8b9edbc8fbfcbcbefdeccdbaeceeffb8bddfeb9c7aecb
col40:   57899ca978c989acacaba8daabdababa9bba8cbdcbdfbccf8bccbcadac8cc7bccfdcdbab99cbbadd
col41:   379653d9a99cc9949a9a6ab8ac9bc8bdadacccdaddacc8ff8dad9bbc8baefe8aa7cbcc9ccdeb7bc9
col42:   b46a9c764b9acaa7baabd99db9c9fcdeabbbafde88bb8aebaaffabadd9ddc9deecdedcacbbdad9ab
col43:   a472c8bbb9855c887bbdcacaafdcbdecccc9bcc98c9badecaccf7c9bfc9d9efcbed9ee9da87b69ba
col44:   6bb987ab8ce7d69da89a9dba7bcbba7bfccee9bfe8caca89aff9ccdfbbdbcbfbebbd9dddba7eeaa9
col45:   a8696aaa997bbbaba69caacaadcd9aacdcbfcbddaeebdfdacdaaabae9bbecbb9af9fbcadabc5adea
col46:   7768a89b8a7c7ac79899b8ad49dc9ba9debeb9cefdde9eb9affcbbfc9edcbadee9dbb6bebbfc7bf9
col47:   68977abb7679989d7bb99bc7ba7bedffceaabcaeadbbbbfc79b9c7899ebfebdcb77c9adcaaa89dcb
col48:   99c87b789ca98ba75b79bbcad89fabcbccfeccabccafdbfffbfefedabfd9c6abcfcdd9abacdd99ce
col49:   85db9868989b998ba8baa7bcba898deedecd8e9b9dfabcfceddbdeeeebcbaacdfa9dbb89bccbccfc
col50:   7d6a87c58b98a9ab7b86b99e595b7c9bebcbbcccabeb99dd7abccb9cadd9d8ecd7ccdbd6a8be9979
col51:   8b8b67b945a49ab668c9698be97e56efb5dad99e9dcbe7989cd83a79acd4a8cb9cedafaadebcbdab
ROC:	 BPix_BpO_SEC5_LYR1_LDR4H_MOD4_ROC6
col00:   1452654445365567563cba87ab87b6b76bb78ce8b98cb9775cb789bce89b7966dbbb97cb8bb89b66
col01:   536237975567a8554884789c998bb99ba8797eaea79aacb9d9c9abdbbebccbac6bc779bbabbb8dcd
col02:   61556787676b8468579a8cc888858bba878b9c9a8ac8b8d9ab98acda8ab9bbfcd887ccb8b48abfeb
col03:   575381565786669767a689b8a8dbe8a9fa9b979a86a9cbcaabbadbdbca9c9eedbbb9c9b9cbeababa
col04:   375576564396a8546979c765bc67a93688b3acb899c89eb9abbbcabbacab6baccdcbabc877aac7bc
col05:   455826724887967789a4949bbd8699b5bc8b98ccbbd8a7bbbddccbbddab8c8bd9bd9bbc8c7c9bb6b
col06:   374733697666b3648776854b9ab9a868899a78d9aa987baca8a8c8f9cbabdbba7cbab6aaab89aa9b
col07:   667b747758485745688a4974899aa69c4aa88abccdb8899b7bdb9bab9db98ba899ca7b9c89a86aa8
col08:   55426548685963665a88887a999ddaa69b77b889d98999cacaddaaeb9ceca87b9889ba786cbc66c8
col09:   8644876152769962788b67899977999abe6b6db7689aabb9bab7cbddbddacd9babc6b79cda578c78
col10:   875377766435578699556ab7a8b68bcaac6987c7995aa699b9abbcbcbaa8ebb77bb77bc987b9ab7b
col11:   48469565277757a98986976766779ca9aab9c69a7b6cb99ebcbbc9aab8d98dd98ca9688a5a97ca66
col12:   6455896848556855b8a994977bb8dba98b69bd9c9aa9e999cbdaadaaabbab9cbadbc8879aaeabcb8
col13:   467788694698cb7996897aa79bb9b69b79b8b7bd97a896c9adeafbcbabebc9cfcabaccc899bb9dbc
col14:   43775557385bb4756b8a98999589b6bb96684a8878a9b986aaa98b887a7ba7f978aacc8a8688945c
col15:   65445754686873586576999968bbccbdc76a7a8bd8988d99f9da8d9bbbcd5e9acbabd69a58b68aac
col16:   175647845249634467768a677c6659b48877b8cad87a89999cbea8bbaaaadc98aba9ab98c6ccbab6
col17:   563441546667446ba784567775ad8cb767ac9b99a7a99aaaa7ab9a979ec8ea7a9b6e9afba8ddb7ba
col18:   7775575894975685899875979998899ab996898c9dabbacb9a7cbdaa9c9bdabc9dcadbbe999bcb8b
col19:   55543a5265979257a4a959976878baab8ad97cbb69bad9b9e9bddadcafadbadabcb7eba9a9bb9bbe
col20:   553556657585547a679b49a958a6c869a9bc9a9caa7b99bbb9894b7c8bcecc9aace97d9ccabc88ba
col21:   565556c873367899c89d87db89479aab8bb9bba8b6a8aabbccada8c9a7cc7bb87799babadbbbb9c6
col22:   57462962a686a65a99999589b589865a6d9bc768cc699bbbb79787988cc89ccce9baa58a8a99aab8
col23:   591655547a6b6a966786a896c699a79ada93cac8a8cb95abbbdbac8a94cbbcbe8acd887ea5a988ba
col24:   83754986375368857b9b489b9b9e9b7a9c7797bdaa69c6bbd7bcd99aa7abbbbdd9cdaaccaaab9bd9
col25:   515758757869526d86ad67949abcb9bb7d9c9a9bbc9bbbcdaacadbefab9acaaaadbccdbca7d8fb96
col26:   171569448788685b6ba97ca98d8bc98ba8a79adddb79baa8cddbeabcbaabdc9cccbbb9dca7a78986
col27:   5778545b77488a586648bbaabbd9bad9aaa9acdcd9a89cba9aaaca8baabc7ecebabbba99abe8cdbd
col28:   796a9547868b4579a77bc9be89ced9cb668cbb8cecac79a9e9b8cab7e9bb7bac9bbbb9bbad98a5ab
col29:   78987368658aa668aab8889abcbbabbdfabc9abdeda9b8e98ba8d859bbeebcabeacdbc8adbaa976a
col30:   96a6755799b458388a9d78c9aaacbaebcb9aad8cc9bcbaadcbbbbbbcaccbbfdacba8ca58dad9acdc
col31:   54676777a89689599cbbdaab8cadcb9a9acc7cab97cceca8daddc9ada7addbabbabbad7b9eb8abbe
col32:   655764789478a8787897c5bcbcabbde8c9ae98b997b89acc7adb7b9bcbb89bccbeb9b7b85be99d9a
col33:   346647756797a689898789cabadbbb8a59bcbabdbbdb7baaaaccaadccfbaa9ca9bc7dcbd7abcebda
col34:   516195a853652536589898bba8a98a16bd989d8a9ea9bccacab8acbcb9ccccbcabcabce989afb98b
col35:   58578747766b678796a6a9ba9a7c8db7b5abbaaa9bbbaa9db5cac8cd798deabf8abbaac87b9cfbac
col36:   66576a66387978898a9a8cbbbaaa798bbab8d8aadacbbc9c8ebeebbcc9b79bb9bacdc6aab8dcd9ae
col37:   5676aa757678799b97b9a56b9a8a99abbbcbcadebcacab98daacabbafdcdbccbc9bbddbabdd7cba9
col38:   87755779a8769798a7bb97c8797a9ae889dc8ccc896cbabdaac9ca7cbacce97bc9cba7a7a8dad8b7
col39:   bc76549788a67ac9a976977ba74c89fdba776bd5cfe9db9e88cbd9dbedfccacbcbcde7ebdfbaaba8
col40:   6276569796596879b7a8755b9a8a999d9aaa9bfb5bdabebcc8eafabc9a7bc7cabdcecdcaddcbd8ab
col41:   2435356548658887aaa96b5aaabc89baabbdab999aeabc96ac8d7bccbbdcbddacadce9cf9cabcdde
col42:   357b6574999a89838b7b9b9d7a9acfb8ba99bd9aa9acb7ccdecbcdc79aa9dc9afabcdbdceddcd99d
col43:   44848586777678958978a8a99bc989dbc89e9cb89dd8999a9dca8cababe98bfdacbdcbacaccbcdac
col44:   7766677979498978a78acaaa79cccaaceab8c9a7b9bba8ac9c8eaa9bbd9ada9beccb897ccbaeba89
col45:   96778744676749b68a9b9adaa9bacadc8dbbefcaceaaddcaafd8bcfcdeb979dc8aadfbc8bac9eaad
col46:   5977673697458a79886898e7aaa9bbcbbbfbc9bca8cabd9addccdbebdb98fcacba96d9bc7bc8ced9
col47:   3765765826a7cb766d8757a8b89999cc976bc8aa9bcdbdcdfe99bfdddc99cbcccbbbbacea87bddeb
col48:   77691b7736765697898a99989679bbaba7b9ebab7eec9cc9dbdccabc7cc8dc98a8badae9d9acabaa
col49:   7a79656a8697797a8abcb99a69ac7c9ab9ac9ecbbabbdcecbbbccddec989dbdfbb79b9a9db7ca9bc
col50:   9958675595699747b58fa8a97c99b6a7cacdaacabcc9caaabaad89e7bd8ca9dbaac9dbcba8cb6abc
col51:   867966763735487a786b997988dac49899b8bbcb9bbae8adbb9bbbd9cbaceafdecbfba899ddca9fc
ROC:	 BPix_BpO_SEC5_LYR1_LDR4H_MOD4_ROC7
col00:   62566978767533544667546bdb6bb7b89b3bdb7f877fb6bb5b59c9b7bbbbbbddbdbbdb3bdb9bbbdd
col01:   129761637646a64787b55585588b8cbb96bbbfcbc878b8bbcb8db9bbcbbbbbbbbfe8b8b7cbb9bb8b
col02:   534165317b876b876947b425b898cb75c8697ccbcbbbbbd87b678fb8dc88d7bbb9b8bbc9bdd7b7cb
col03:   75956bb76368877687837879b8cbbbbbb96bbc89b9b7cdb99bbdbccbbbcc8dbb88bbbc98bb899bbb
col04:   5347556b74967859577b8b8b88b8bbd1b8bbbd6bbd9b8b6bb9b8888bb8cbbc6db6bbb989b68abbb8
col05:   574b777785664695768ba898bcd8bb8bb8bbb8c9b5bb648bb988b67bdcbbbcc9c8b78bfbbb9bbc8b
col06:   667575676727668678898b7cb6b88bbb8bbb769b7b8bb789976b67bbb9bebb99bcbbbbdbb7cbb6bd
col07:   54846b7879352856786b85987bbb6bbb85b7b9b78c7b7768cb78b8bdb9dcbb8b8bbbbbbb6bbbb9bb
col08:   14844b7588855325768779b468867bcb9b8bbbbb89b8687dbb788bb797bbbcc99bf888b76cb7bb8b
col09:   632265b5455775858bcb7b6bbbbb8bbb9ccbbbc8b88b9bbe8bbcbbcbcbbccbb5b8bc8747d99b7bbb
col10:   5577647865877568677b6888bbb4bdbac64b7d9b99b9688bb6b8b7dfbbbbc8bb78bbdbbdbbccbb8b
col11:   745943675b7867c6b7bb9b9b6c98ce8bdbbb99b6837b9b86bb98acdcbbb78cc7bbd6b787bb8c9cbd
col12:   764668668755766b8886b876875bb7d8bbbb7c97d79574c9b6b8a8bbbbcc88b976bbd8db858b7bbb
col13:   577549568585647798b7b866b6bb76bbbb97b86cbecbb97b4b9cbafbbcdbcb884d88bbccbc6bbbcb
col14:   47177b56568b6b7b7976bb88bb6bf96bbbbb76b988b686577d97e8bbcbb8c6cbb7bbb87cbb6dbd9b
col15:   516788764747687bbb686b888dd78bbc9b8b9bbbbc7cc77b9d9876bbcbbbabb8c78bbdbbe9dcbbbb
col16:   56546668465658abb8868bb8bb9b89bd8b8b8cbb8b9b85bbbbbbb9b8ebbb8bc7b7ebbbbb798c8bb8
col17:   645566764667c4768a97789787bbcb6b668cb689bc56bbcbb879bbfbbc9bdbe5bbbcbbbc58bcccbb
col18:   2476276b68876b8869b97887bbbbb76bc97c887787b5b67bb9ddcb9b8dccbc88b8b898d88e97bdcb
col19:   655578476477866b95948b998b8dbcbbd7b88ab99bcdbbbcbbba99bcbbbbb97b898bb79cbb85c9bb
col20:   45466c453b74673647b8bb68b99b88c9958cb6878b8b899cc8b88b97cbb78bbb9bbcb88bdc88bbb6
col21:   588839934564bc57987b98bb6799bbdb9c789b689b69bcbb9bb9e9bbbbbbbbcbb99c97bf88cbbcb7
col22:   6236862656876758b8b858b78798b88bb99bcb998cb69bbb66bbbdbbb8b8bb9abbb8866b97bb6c9b
col23:   5579876b7896b87bb86b89b8b99b9899867bb977a679bbccbe9b9bbbbdb9bbbd587bb59bb67cbbbe
col24:   b5b8b6848bb867886b9b7bbb79768979c49bb98bb8bac77bbbbb9f888bbbeb9987e8bad5bb75bdb7
col25:   777b7997568996b6b8865898bc9bb9bbdbbb99b7bc7bbb9abbbbbbcdbbdbd8bb9becb489ed8bbbbb
col26:   896778b96b778b98bb87788c887b7dbbb8bbbb7f76cbbb9b97bcdbcb8acd9bccb8cccadb6bccdbcb
col27:   6767b775b486b5c88b64789bbcc8b8bd7c9bbbfbb9bbbbdbbeebccbeccc9cbdbbbecbbcb5cbbbbcb
col28:   9557887b865bbb884849bb8bb8bb8cbbb7abbcc8c99bcdcd7cbdbbbbbbbdbbbbdecbcd9b6ecebbcd
col29:   76898996bbc676bc98b7bb9bb98dbbbebcb7d59abbbcbced9bdafbcdcfdddbcbbcbccfcdfcdbbcdf
col30:   4b74b699b85bb8bb8678589bcbbbbb98b8c88b8dbad9db9b7dddbcfcbfec8d89bcbd8ccbbebbc9cd
col31:   7186b877bbbb769db8bb99b9cb8cbbbb9cbcbbbfbe79ebccdffdbcccddebdbdccbcfceebbbbbcdbd
col32:   4788b77778489b847988689bfbccbbbcc5b8bbbdbccdc8bcc6bbbbbfddebe9cdbe98cddbbcdb9dbc
col33:   7875577b879888847899b9bbbbbbb8cbc9deb8b9cf7cbcd9bcdbedcbbcbbbdecdb98bcdebbcbdb8d
col34:   3868b8784b88bb587dbc9c9bc8cbbabbbe9bbbbb98bbcbb9bbddcdbdb9bebbbbcee9bb9bbdbbcbce
col35:   8569b89b5b68b9b97676b8cc89d7c7bcebd8bdbbfdfbb9b99bdecbcfcbdcbbccfcbecedcbbbccbfb
col36:   4b8985b7c683bb9797d97b98987bb69bbc9b9bcccb7b9becfbbad9bccbcbbdbbbb7bfb9bc9bcbcbb
col37:   7889866abc6885a77b8889ac8bbec8bbbbb9b79c9dbfbbbb9fceeeffcbefbcbbceb9cccfbdbbcbdb
col38:   68767887947889a788789bb9b9bbbc9bbaec98bcbbbbebeddb9bedcbcebfcfecbcfbfcbbbecbdecb
col39:   559b888b777bd897b9b9cb9bbdb769bebbbd9bbbabb9cdb9f7bbdfccfcb9b9bdcbecddb9bdbbcbeb
col40:   36b78c59497788bbc79978bb89b9bd8cbbbbb98b8bcccbbdbbfbbddfffbfddadbbdfbcbbaccbfbc9
col41:   95667576689cb86b88bbb8b9b8b89bcdcbbecccbdbddcbdcbdfbbdecebbebdcaebfff9ebbcccccbc
col42:   56bb78787b7889599a79dc88b9bcc7ccedbb9b8b9dded9dd9fcbcbeecfecbc9bedeeedbeacdcbddb
col43:   57b6b885b8bb48879599bbbcb8b8b7bbbacbbddeabfbedbdfffee9bcdebcfdbfccdeecdddbdfcbec
col44:   638b855756b6676c9878b8bd99db9bbcbdbbdbbbbb8dcdffcebbc8bdcbaabdcdc9ffbcbdfebbbefd
col45:   6835b66bb79a779b9bbb8b79b99bbbded8b8db89bf9becdccfeddccbbdcdebdbccecbbcdfb99dedb
col46:   69618868746978789b7799bb7bdbbb9f8ab9bbcbcbcabccbdfbeebdecbccecbbbadbcbebddbcbcb9
col47:   b7664877ba68756bb4b99b9b995bdc7ebbbbbbbf89befcefddbeececc8b9cecfebeebecc87cbcbdb
col48:   58b76788b2976b88b6db89ebbab8bb6bbbbcd8bbbbdbbdccebdedcecb9bdd9fcdddccbcbb777cbdd
col49:   7657568858b78b6b76b8bbcd9be9bbdbcbb79bdbd9bddbbcebccdfbbbfccbbbb9decc9cecfbcbebc
col50:   6385887b9776b76a896e77c799bc48bdb9bb89b9bdbddc8ac5bdbdddccd9fbbdbcadbbccdcbbcbab
col51:   478b645673b67b6b5b67bb67b7bd8899ebbbdbb7bb6dd9bbcbbdc9bbbbcbbbcbcbcccb87dc7bb78b
ROC:	 BPix_BpO_SEC5_LYR1_LDR4H_MOD4_ROC8
col00:   b8144769815694795b6987a579795b7bbbbb9d797653b7dbbabb9b6b9c678b7b565db7c777b38697
col01:   8779b897544b9b584b46c9bacc79bbebbbd7799b9c68b9b4b8c9bc4d7d7c6c9b957ec8677bd398b5
col02:   427758b763a89a59166f99bd8aa9499c9689c7b7b88ab699d59e9c7be68b8ab4a89ac9e8b65789b9
col03:   884794b78968566976b7a867db58cb967c65bb8bab6cb89aa6b4ca9eaa9989d86bb764cd688a49b7
col04:   866686975677bbbb9b9bbb89ba74b8babccb99787776899756cbf88a957a5a86d69c96b8b8c9898b
col05:   675a73385a899857b66868789c8b6d6ba8a697c5bc855b99cb896fba68f9957ebebb9a5ae77f679a
col06:   4336b857745897465d96b88b989b7856879867cbb87ab8bbb599b8d8c869bcbbbbbb84975a996797
col07:   6b6876a7486bc899b9766b8b46a8b7b87a6c9b95b8abac66dab9ca85bda9bd89c86aa6a8864c6b5a
col08:   8b1688b6977b7869986ab84ba9fa5bb688c98dbbba997bd8eebb899bf7bbb9e9ac68598849b583b7
col09:   6a8858c5547a3a58b67b74369a895a8888bb7ae7c8b947c5adb9978bbbbb66caf7bb47ad99587965
col10:   989a99669be9999d852487b7acc8ab8cd97fdc868b9da779b9d7bb9babdfc6a298bc7968578e6895
col11:   d928b5cab661788666ac7878d7ba25dbb689accb3ce7bbcc7866eb8c798aa2b79998e8998c6de876
col12:   749aa664457256b71db9956783cd979979d8ad876bb6cba98b9bb9898838c5bddbb6b657abcac8c9
col13:   9a4a62882789b98b669979967a7b98ab9946b7c795db7cbe99b7b99ababdba85ccc57faa65b88c59
col14:   67895966376b5a788585a5e895b78bc6b9ab69c7a8c879f89a49b67568d8b7d5dc88b95967ac7b78
col15:   565587657a7969a93a77a87dc9b55e7ac79b9baa6bc7bcb99b99dbbbdabd87a7a89d986a3b9b8675
col16:   5767a8937759886d86bcb866789bc6bb8a65bab779ba99ab8a9d8c9d77ababbb6d6adb88b8c5b998
col17:   45c456888769965b1966957a57d8a967b98b6cad9baa98bce9999b985cb36c19ca5749bbc76b66a6
col18:   948835942c495467c798aeb9689c999c9b3cbbbbbbfcdddac86be919e99c959c7da9b95adb67d88d
col19:   845969857898866978ab35749ceb968bbb9f9d855b4cd7a9e98b99857f9ae8ad6abab8cb86b76886
col20:   367616263e9617769bc8b487c9998afab676b8a79bb98cbbd5cad9b8cecb76ab8896ced685b898a7
col21:   754b8988b9b39996b9bc5bca5fa79a96b4a8caa7b889da9bd7db888f9c569fdb84dd8698dba58b76
col22:   586956669a2876bca97ba665c799b799b89988b68789687bfdec8bafa97d7997ac9b6895c57bc658
col23:   54b557c98368b58796a66996877cb6acb7b9787bbebbba899b79ac9b68b8bb6c675a6a97c8db8b8d
col24:   849597ba8b47a79877889899988db99b8aa7abb7b6787bdcbcd8d67b77afcbb7bb9869579c698b6b
col25:   4b49785968c9a8975e7b85c6afbccea987bc8bc8bbcc9a89a799ead8ccba98af96afebcd859aa5b8
col26:   5a54439446b968a94e6c56ca8a8bbb6cabb7b8f977d9e7a87676a8f99c7b979bcddbb6b7a7486bb9
col27:   3888a48569c46bac99b88cdcc4eddc8babaa89afefe8cd897cbda38bbada9cf9bb98b89c88b7a775
col28:   7865a47679889b879b788c79b8b6eedcb7cebcd6bceda6fb88aaa88bbca8abcfcda47dd7c9676963
col29:   79a294a94aa5996999a767ccaab9bbd9c7c8baf9ce7a99aab78b8bbb79cbfabf77ec8ea676b7495b
col30:   666d7677c5578aa8ab9a99bbaa9ce9add9ba7bab9c6cc98786ee8bb6cdbe95f9bfabadbccbbbaabc
col31:   8a473acac68789bb8a9959889c8c8cebac79989bfb7ab7d86cbdbaea75cbbca89bd959ccb5c97aab
col32:   5946992bbf9c4998b8c9cd9badbbbabac6daca659accbabdca99e997ab777ccdebabe48abb95eba6
col33:   6a6a99756367a7bbd69adb8e9cdcbcbcbbbaccbbc9aacfbb89bcbccda9be8aa59bbdaab78bfbebdb
col34:   9aa3498dd86b99bbb67c99d9b7bfacbbccbcccc7a7ef97aca999e87b978c9bcd969abab79ac67bc7
col35:   8597ca96ab96baad5a9e7baa97c5dac6a7bbdedbfecbdcbaeab68d95bc98be99b88bf8b99bc9bd6c
col36:   887c9abc8d99779cc889a8bb7caeb9bc7eb9ddacf9a9bbd9e9f9dc9ecb7ab9c8d86459a95cc399da
col37:   79879b979768c99b6a8998e95dd5ec7babe8eafc9baabbccebac78bcda67c5adccbdb4c7a787a7cc
col38:   848669d8ab99a698c8da999aab9bae99bb9e98c7ccad85c7968fb7dbbab4945ba7b3cba7aaa9b6ea
col39:   ab3a56bb6cbabaa9bcabeba9fa9a8ab9bd9abb9aaecfbb99abb8fccaca99f8b489b6d99a9aab87aa
col40:   bbc7a98775cdbca9c8ca698cc9ab6855baed7bc9b9b8aaa9587d9e8c79badbab7c69ba9b86ac99ae
col41:   cdb677caa5bde688b9daaa8bdc78c73bead9ecde89cad88ddafa999ccab79beaae8c6bab5c8bd9ab
col42:   db6b88c887abd8aea9d6bac8a7cb9bacc87b6dcabbfbc5badcbac6baedb8986eabd9b6b88987d9ab
col43:   86ba67a89a8a9c8b8eb8da9cc7fe6cbccbbbb9c7eceea68afcaabdadc7abbadccadadbf9a67998d9
col44:   75786897878b6d7b9b9cb7ddcd898b8eb8ede89ac8ca89beaacb9a7deaca95acfba9c857b67a57b7
col45:   78d7766b85a6a79d8cd7baab67cb8c99bbca7a8cfbfdbedbfdabcdcebefdb8f8897aab9cbc79bb97
col46:   959c6bbb7b899c796ba8abdcd9db9b9c9a7bc9cdd8d9d67cafad8c9bccfb69b7ad7c88e7fadd8965
col47:   c6659a6d7c9a9ce6d57c8becbc7baedc8b6c8dd78afbc9eacffbcb99b6aec9b9bcbec9bc9ab9ebfe
col48:   6a999998f469ab9b48b7ca9599a8cdb6dbaf98ada9aadbbb7cadefcdba5ddea5b6ab87bbd798c7e6
col49:   7c85b8c98ac8b7b979a6c6bb4a598bd7cdbdbdda69cfbbffd7dcfafdebb998ad88d9b9ea9abcc8c4
col50:   b46b77abaab68b878b798a8b89b9bb8bbacca7dd8d8bfdbccb7bb9ebadbf9aea8b7a7a59689bba67
col51:   987bb7bbd898477e8abbcbbbccbfdbbb8c9b8bcd8dc9bbb6edb46db9abbcb8bbbb8b76c6dc7b7b9b
ROC:	 BPix_BpO_SEC5_LYR1_LDR4H_MOD4_ROC9
col00:   7bb7355773776d5375d7745b77f7b775d7777bd77b7b7b575f777b67b5bf7bbd57bb6765576d4bb2
col01:   b2356bb577b57754b7b8b6b9bb7b5b6b5bbb668b66bb7676c3bbd7b8b66b777b6bb778b34b6355b7
col02:   36658676bbbb72756b675b36b755bb598bdb5bbbb58669b377b7854bb7b68b777bc665872358725b
col03:   575578497515b657b4b667bd87b5bdbbbbb66765b6b6b4b768bbbbb87d6bb5b55bbb6bb9557b6b7b
col04:   55675b84685b6563455bbbbbbb8b77978767b75bb56c6bb86877c766bbb8bb887bbb7b775765b441
col05:   57b276566b456b76db7b67666b8775bcb7bbbb9bc45bbb6bbb7b65b7847778bb77279b7bb764b535
col06:   3576527b67bbb757b267b5bb75b74b9bb88bb86b64b7788b556bbbb9bbb55475bb7bbbb36865b8b5
col07:   5657b7bb3b677bbb799b5b76777dbb75bb5757bbdb6bb5bbb5b7bc6837bb7b7b8b897b74b7553bb7
col08:   697b76665757676bb8b8b6677b67b767bbbbbb7d896bbbb6dbbb45b8bb983b667657783567555742
col09:   5bb78798653bb666679958b68bb46b86bb558bbb7c9bbb56583bcb7768b877b7bb74b978b4585d77
col10:   5675578373579864b57386b7b67b7b8b6bb6b77bb65c8687b798b766bb767b49959d259756b54b75
col11:   511b357b76bb7772b7bb777b9b546bbbb76b5bb7bdb884788bb6bb6971bb558bbb766bb4b5766b77
col12:   257747558b435b5bbb47b785bbb5258666b5b7dbb87b662bbb5b667586b8b67886b74bb857265b15
col13:   3866176b8b57297dbb72b7b9b68b677bb9669bb679b68bbb556bbbb7dbb676988b7583bb76764557
col14:   8656551b63576bb678744487bbb587bbbb7759b8b6b78776bbb8b8bb5b8b8897b47b76b57848144b
col15:   47724586765497676b7db7b7b67bbbbbbbbbbbbbb9bb87b6bbbb47b7b77b986766666b7bb5576bb6
col16:   6454665757b77776476527b86b88db8bb7b87bbbb7b776b66bb38589b897b565b6724bb584b45d57
col17:   534b799b577965bb6b76855b7b7bdb6cbb6bb8b8bbbbbb7bbb7bb8bbb476b5868877bb8666764893
col18:   2b574752b35737b66986b5b6b7b8bbbb786bbbbbb7657bbb6b98bb766b657564b7b8bbb57575b867
col19:   4754559b77b8bb775bb5bbbb896b9dbdb8bbbbeb7bb7d6b5bbb79b88878bb66786b64bbb48584547
col20:   45787675b65563b76288bb74774d8bb7cbb8bcb8bbbbbbd7bbbbbb56686b66b5b956967487bb767b
col21:   58b7b686bcb6598567b35bb8bbb778bbbb7bb7bb8b7bb978bbb8b6bbbd47668bb75b8bb873b3b876
col22:   456426753bbbbb55856b6578b789bbb87b78b75b774796cb6bb6b8b9585b6b8bbb77787bb787b5b5
col23:   767627338b7b86675778cb675b7b6758c769c794bbbbbbbbbbbbb778773bb89687b28b87bb6b7855
col24:   5265b7556b77676b83774977bbb9b458b78b76bb9bbdbb7b86bbb67b767587187bb57b68b8c8b255
col25:   55bb5887b6b889bbbbbc76bbbb789b9bb8bbbbbbb48b76bbbb8787bb8698b94967bbc84b7bbbbbb6
col26:   256574785b4667685776bb7b8b8787bbb5b788b7bbc8bbb3d6bb85bbb9b7b6b66bbbb8635cb6b542
col27:   6b9b65bb57b67b76bbbbb9bdb7bbb7bbbbb8bbbb78bdb7bdb89bbbb87bbb68d8877bc9bb87b8bb85
col28:   73877bb77767b76bb8bcb9678669b688d7bc7bb76bbbbbbb96cb6db8b88b787bbb878b87b7bbbb35
col29:   bbb8bb678b77bc58bb7bbbbbbb7cdbb8bb7888b8bb558bbbbbb8bb75db786bbbbbbbbbbb6868bb46
col30:   6787bbbb7bb8bb78786b9bb87bbbb78bbb9977b675b9b8bb7b6bbbbb8bbbbbb868bbb85c78b9b9b5
col31:   bbc9b5bbbb967bb87bbbb5bb8bb6bcbbbbbbc8bdbbbbdbbb8bbbdbbb7d6bbb9cbdbbbb8b377bb88b
col32:   57bdbb7bb8777897bdbb7b7bbbb6bbbb8bbcbcb7b8b7db7bb68b7bbbbc77888bb8bbbbb8b6bb798b
col33:   b5c7b68b7775b877bbbb78bb7cbbb8bdbdc8bbcb8bbbc8cbbbdb2bbbbbcb8d5b9dcbbb86bcbc7bcb
col34:   9bbb9bb5b877759b8bc76bbbbbdcbb8c9bbbb7bbcbb885bb897bb8b9b588976b8b66bb9bb6cb8bb2
col35:   7bbb772c67b7b698bb78bc8bdbbbbbbd8bb8bb7dbdbbbbdbbbbdbbbbb8bbbc7bbbbbb79b8cdbb8b9
col36:   75bb7b7848b97bc6bbbb97b6b7bbbbbbbb8bbb7bb78b7bb7f87b8767dbbbcb98bc78c9bbdbb694bb
col37:   b77cbb2b988bb7b77cbb898bbbbb6bb8bbbb8ecddbd9bb7dccbdbbbcb8b88b8bdbb8bb9bbbbbb67b
col38:   bbb89b99b6bbba7bbbbb7b78bb8dbdb6b7dbbb87bbbb7bbbbdcdbbdb8db796bbb77bbb8cb7cb99b7
col39:   bbbdbbbbbb7bb7db7bdc6dbdbb8ccbb9dbbcbb77d8bcdbcbbcbbbdbbb8bbbdbbbb66b7bb9bbbb66b
col40:   7cb9bb8b76bbb9d7dbbbbbbbebbbbbbbbbcbbdbc88dccbd99bbbb8dcc8b967bdb6697bbc5c6b7cb6
col41:   bb77bbbdbbb9bbbbbbbb6bbbcbbdfb7bdd8bbbb9c7bb6dbbbddbbbcbbb9bb8bc7b8f76cbbb6d7db7
col42:   b87bbb6bbb6bbbb577b9bcb8bb8bb8b7f99bb9b8bdbbbbcdbbbb8bb8b688fb676bb85bcb9bc9b95b
col43:   b6bbb7bb7b7cdb7b979896b7ccbbfbfbdcbbbcddec6bbfbd8bfddcbbbbddbbb5bc7cc5bdb7bb5b6c
col44:   bbbbbb9bbbccbbdb8b9b9bbbbb8cbbbbcbdcd9bb89fbfd6bdbbb78bcbbbbbb6cbb6c8699cbb97b7b
col45:   bb9bbbddbbbb9b7b9cb6bbbbbbbd6dbbcbbdbdbbfcbdbbd5bbd78dddb8e8b57b77c7b779bbb875cb
col46:   bbdbbe68bfbbbbbbbbbbbb7bddbb7bbbbbbb9cdddbbbbbbbbbbbebbbbbbb88bb66897bbbbb5b8b47
col47:   bbbbb75658b87cd7dbc7bbbdbbdbb767cbdbbbbbbbbd6bbbbfcbbbb89bbbbbceb68bbb77b79b795b
col48:   bbb57bbb7b8bbb4bbb7bbbdbbbd8bbbbbcdbbb8bdbbbbbc8bb9d9779bbbbbbbb7bb8bbd78d7bb5bb
col49:   bb7bbbbb5bbb6ddfbbcdbbbbbbbccbbebfdbdbdbbbbbdbbbbbdfffddfcc8b7bbbb6bbbb7bbdbb7bb
col50:   5767bbbbb88dbc7bbb9bbb6bbcdbbbbbbcb9bb6b87bb699ecbbbbbbbd87bbbbbbbb7b864bbb6b77b
col51:   ab7fd99ddbd7bbb7dbdbbbbbb6bbbfdbbbbbbdddbbfdd9b5f59dddbd6dbb7fbbd7bbdbbdd7bdd4b7
ROC:	 BPix_BpO_SEC5_LYR1_LDR4H_MOD4_ROC10
col00:   655677569d6578865b8b2b9978bbbbdfbdebd8e8c7bbdbedbddbcbbbb9bbb7b6bcdbbfbbddddb947
col01:   c4b55599678856757849687798babb7cbbeb9bb88be8bbc9aecb8bbcbcc8bcb8dbbbbbdc78bb78c8
col02:   3747545b68878855b878bbbb88b9b9bccdb9b9bdbc99c9b7bc6e99dedbd9b89b7c97bbb995abbb89
col03:   567697798b68437988b69bb8ddac78cbb89db9b9ccdbc5cbfbbbe8bebbd8ee9beed9dbe8cccb8b9b
col04:   3742b456c7587639898d7bcbba579b98dbcbb8ba89bdbbbcbb6bcddb9d98c7db87f8dae998bba8bb
col05:   8257bb5749b877848b6b5b6c869bdb7899bbabb789dcdcbbb7d8ebfd9bb9b9ecddcbf7b9dbd8b68b
col06:   b44b66785b8b8994878c9b88799bb5bbdb887bbdcbb7abd379cfcdb7c49699b8cb89dbbbab68bbb3
col07:   646b7b486629c8bb36c9bbb798bdb9eba6c8dcdbb8ea9deebfe9bcfdc7ec8bb798db9b98bb878b98
col08:   956339b575bb67b699779897895bc68bbc88d938bcbc6bb8bb4bbb8b79c7cbabcccdad89bb999b98
col09:   957b51698bcb87589aba6777b79ab843bb968898f9ccb9998cb6dbecb9dcb7b7e4dbbbb9998ebcab
col10:   765937586b38888486775b87b68c8bbb798b969bdcd77b8a9bdbe89bb7abbbb8b9cb8b8bbbc79cd5
col11:   32453656b6b89c88bb966acdbb997c8bbbebebcdbf998bac89d9dbb8ebb8b99d7bb9bacbb686bb98
col12:   5554736884568bb67b9eba4e6c9b849ddcbe69bb5bcaba7b888ccec5b8ca79b5b5bcc9c6bb6889a6
col13:   852355756b78677876e9dbccbbbbb8e9c9d8b8a9bbc79b8bcb78bcbbe4cd89a9ebcbe8c9d9cb6c98
col14:   5456653387667766b958786cb6bb5a999b7d9bdba7bb97bbb99bd9e9a9aebabbe8b996699b88988b
col15:   476876566668d7b89a98b79ccebbecbccbdbb9bfee9eb89bfaecebdd8cb8b9c9cd9bc9b96a67bcb9
col16:   36431335758499476bbc56ba9cbd7bcbdbbc788cebbdbb9cecb56bc8d9bd9afccbb6a93bbbb4ab99
col17:   67537436257677b8b97576c67bc5bedecdcbcbb89bb9ceccba8bcbbbc698baccbbb8ca7dbbbb8b97
col18:   7678595858837bb865b7747b7bbbabbbbb68cb88ac7c98cc8b9be79b768a8b6bc7a9cc59877acb86
col19:   649877673b797b565659b86c8bb78ba9d9b9da9e8bdde9db99e9c9e998a9dcb9bbdb89bbaaa9a8b9
col20:   b534b967768b57688b88978eb9999b8e97888ab89db9bacabdabbd99c89bbd8babb7b889c8bd58b7
col21:   8822658485b98578b65a1d8bd5fa896bbbb6bbddab9d9bbbb9abbbacd8b876fce998ab9ce9ba88b8
col22:   28b957857877875b69669a89bb9b9bcbfba8fe6bbbc8ccb89cfc8be7b9b9a99cbbb8b89558b7b7b8
col23:   55144666577866b6bb997679bbad999b8ba97bbb9fbcc98b9bcebac988afc8ebbbebda7bb8acabcb
col24:   34393645b67887b878b969598656bd83b35e998d7c9b8795dbcbfcb77dab98c8cb88ebd797c57799
col25:   54677479897566c8968db77bcb9668bbb979c5897987ba88b9df7bb797b9cbcdcc8db8bebae6b899
col26:   382554768575b6bb969b77988f6775bbd8aceab7bbea978987ea6cadbacaabcacc6c79bcb8acbcb9
col27:   578bb5386635abb98b8b57d6bebb99bbbbabc9c9c578bccedaa9dddbc9c9eafadbebca78b69b9f99
col28:   878b38598446889b8bb7897b888c9b97c8abab8fd7cb8898da9b8bb8abccc8999ade9dbc7b9baba8
col29:   bc57dccb87dbb8b98b5b7bbbb89bbac7b77cbcb8cd7ba8d8b8898ccdfe9dbf9cbcbdb7bb9b9bc9ab
col30:   b5bb6667b977678b976b97989b66788b787d78a7a68b8bbbadbbcbbbbdd8ecd97c9c9cce8888cba9
col31:   7765b883c67d8dbc69bbc8899ba9d97a98bb9ddc6dd88c99bc9d9acaccb88bdbdccbccbb89bcdd9c
col32:   77d6558b76585bb5b7895b7889b6acb688b9ed8a8abb8bcba98bc9bafb9bf8bdcaf9ba9ab9eae7c5
col33:   6b643156b55b9c6b78bb7bbbbb8babb79cc767888bc78aa6acbaecebcbb99d779ebbe6a9beebbdbc
col34:   7b7585b5bb357db779b88a7b95bdb968cbb9bbc978b89bca6cba9abbcabcbcbdedbcbbfab9bbbcab
col35:   b7bbb558bb65b778cb866bbd9b9c9b77e99b9a849b9b799cdc9becaebbb7b9b5caaacbccbdedc8cb
col36:   b6b664584b9b569b9b9b7bb789799bc9b9887b89ab77d77b7b9b9adceb7a6bcbdeed8a8efdeecca7
col37:   775b9b56b8677d7a7bc8b85a5bb2389be8d98bd9d9bbf8dbccbbe99de9bc4adc8bad8dbfd9ebede9
col38:   7b3b51b57479bb9bbbdbb95b7b8b87ba8bbbb9888b85b888bcc88b9d97ab869999abd9d9bbaaba8a
col39:   7bbd5b3b9bbb97b7b7bcb98bbbbcb8bb96d8b5ebbbbcaccc8cccc8b99bcfeb9b89cddcfd9bb9cb9e
col40:   7b5dbbbc8bbb567bb5b567bbb6bbbb99996987b979cd8c99bcebcdedb8bb69fcbccfbbfad8bdcbbb
col41:   dbbbbdbb59bbbbcbbc9cbcbdb7bddbbbbbcbcbddb9cabb9b7d9dcbdce9baccccf9fdabeee9ffeac7
col42:   457b9bb8569b7b8b767bb8cb77d89b7c87bcbddb9b9bcdb9b9faecd9cc8e8bbdf89cb9cc9cacedda
col43:   b6b4bbdb7bbb8b87bd8bb87cbbbc6a86ecbccbcbfb9d9bcb8ecc9febbbedddbabeabdeddeddecdb8
col44:   bbbdbbdd6bbb7bbbdb9dbbbbb9bbbbe885debbccc7cc888bbbbdcbeabcebed7bbbcbbbe9ecbbcacb
col45:   5bbdbcdbbbb8bbbbd6ddbbbbbcedbbbcbb9bbbebbbcabbbbbfbbcee9bd9db9ccbbdd8be8bb9b9bb9
col46:   7b9939bbbbbb85bbb9c57887b9bbb7cbc59bb998c8face9b7b8da9db8bba999b86d8adfc9d9bc99b
col47:   5b57b7bbbc7b9957b6bb9bbb8db8987bbbb5b8cbabdfbc8ecabbabdedb9cbd97d9b79c8bbc99bcb9
col48:   bdbb7b7bbbb97b8bbbbb5bbbbb7b567b75b7bbba78dbbacbd9db5becb7bbc89ba9997bbbe8cf9976
col49:   bbb9bbbbbbbdb7bb7b9bb8b7b8bcbbbcb9bb99fbcbbbdbebe8ddfd9cb9bbb9d97bb9dbccc69cb8b4
col50:   57bb5587dbbcbb6b7bbbbbbbb847778b9cb888b9ba7bcc89dbbccdbdbd9ec87da868a5a9cbb9abbb
col51:   dbd7555577bd997dbb577ddb7bbbbd9b75b9bdbb7775b8d7becbb8bbbbceb7c7bbdbbeb9bbbb8759
ROC:	 BPix_BpO_SEC5_LYR1_LDR4H_MOD4_ROC11
col00:   31142614132166864581858765963568463866bb76546a884565339864976577b874566756784579
col01:   127654586227456795665988669989895765b8aa767378d569a6c7ba94989bb94ab882a68ba96998
col02:   293457726185618355437644736889d6895854c794964886b649c96767777987499aaa68755b9a66
col03:   352854425643562c7866377889545a76949aa9958967738778da85978a699c8aa6a89579a8587194
col04:   5464577133859626583786636a7787a889999677a34656a7bb6aba8999b6b3c89aa76a8b8a943788
col05:   547471655747333684284677889d688689797ba955ba9895a877989798a6a9b8776977a996aa46a6
col06:   863b8686357936547a3574986447777855687c7b9798666aa8ab5aa87a55a698765898b6679a6888
col07:   413569767668778489a83474b8c598bab94abc99a8844778759589847a579ab8746a9988977bd898
col08:   138545752ab685a47953662669b896798a9888737857976a86d9cc787a98a988d99a598b668a672b
col09:   13175382454947869555365a9586b76aab79a4776997ca6798cc8a68a8c6aa9a97b7a7ab7c9ba895
col10:   665659956466643843776b77999999a7b8ab9959dc9ac9588697cb8b967abbca869569aa99abda8b
col11:   42137675557787398489978a78969a9a8a69979c99aa7ca9b8c9ba8bbc9a9adc9dc897bb957a59a7
col12:   156337b5438867997783652874588ab5674898b7baca5aa6bc7789dadbc6d67b8aa776c99bbda898
col13:   486847566549692676675cab86c87787779977b99d57789ae8ac468a77d9b997899a947b9bc47677
col14:   655753765454866665669678778669aa99a7859a7a878b68a378fae8ccc6aacaf86689569786cca5
col15:   35533626882c596526858b8649795599c6b98648986a565a25a9abb97bcb6c9dc9899b7679c59788
col16:   4846386945a877b789788979bab6879b6aba7b996b9c9ac6a899b9ababbbbd9995887baa9ab96b4a
col17:   14463847385c7cb7848796a6a77b5878534457bba7b4c998a977bb6bc7abaac9c6d89988996749a5
col18:   41167854789457998a8a77877788a9897586896aaa9baaa7a78b9a8acc9c97aabacb7a8ab989bb67
col19:   5645b47814555877886886b8d8acab9b78abbaabb8c8aa9b9f79ca8cbb99b4baac7b8ae8898baa79
col20:   384438875698963a8a3bc3a77899aa6d8783b878899a838d99aabb7baeab78b7b9869a99978898b9
col21:   55268458b7738a78574ca9788c79bb797b4c897a77689c99cabaacaabbaab99b9c89d6baab8a6ac6
col22:   5847659556cf76579776ca8b75867a9c97998699cbcc5ba7ca98bbcc9babbaaccda8aa8b5869b8ab
col23:   555558a6248796976a87a66aa49666c9788b9aba479a6a67abbb9dcabdecbcea98c8d6ed8a6abc7d
col24:   8595987786a6a899487649a7aa98ac998ea97bb9975ddac9e9bddbfbdccbab9ba958aa658ac9e998
col25:   5584a67689865a87799874bf9788b8d97a89caabe8e9bb89dccdabcafedfbcdcaabdbcb9adccc8ca
col26:   98779c76b86989cb79a89b784b7ab97bc89abcc8777cbb78abdebbeead98cd9a7ad7cabaa999baa8
col27:   7ba8aa98a79ab496477bca87bd9ccaa9ea97babdabc9ccab79eefbcedabc7acd7acec9cbc6deaaa9
col28:   563979a88877a8b997988898ad99969bb8c7be9bab979b7babccbcdbf9dafb999ffcbabcba7bacdc
col29:   a664659888985876887d9b7aadfaccddd6db6bbac8bcb7ed9cc9aeccdfdce89ebfdafdcdabead7cb
col30:   49967866a57462aa8cabc998cb8eb8e9dbe77dcdaccdc99bdcca9afcf9caccec9bb8db99ab8bbce9
col31:   868b9977795894c75a5dcacac8b9baddfd8c9a9cdbabfff9cebafbdfbeffffccdcfdeae9caa9d9cd
col32:   8a763668986e97b6ab7aaa8accbc8ceaeacac97ccaccbbd8ddfee8bdefaf9babbda9be8aa88ccebd
col33:   9435757a7bcab89778a9aabcc8bebedccededeec7bba8c6fdbbaa8eebdbceadcedbcfdccdbadfb8c
col34:   8775687a78986a799ababa9aeaae8edd9afd8afcd89fd99aac9ecfbf9bfcaefebbcbb88fdcdcbeac
col35:   786ac66775679b9a9899b589bbace8ddcbaddb8cacabca9fafbaafbd6cccadedefacfe98bbedefe8
col36:   59766886596756a6979a6c67bb9bbcaaceb77fcc9bcdeabfe7dba9dfdaebcfeb9abadcbfb88cabb6
col37:   647954c9746755c89ab8d58ca68acbad8de89abcbab9acfefdddaccbdd7cbbcdfbcbcaafbddcccda
col38:   a647588b8987b759b6a8acbac7cbc6d999daecbacc7bca9cfd9fbfbcaccecebfbd9cddc8bd98dd9b
col39:   78796a69a7aa88678e89b9d9bc8ddacbc89cd8fecbbaeabbfdeb9cbbfdfe9adaddabbefdddabc8f8
col40:   94848a85968988a99ab9878aaae6a7dcdbdcaa7899ae9dcbadcdbf99fcdccab9bcdcfddad8aecbcd
col41:   67456799875ab58955b8abcbe9b8cb6ccb9cd9bda4fccabaddbac9cdddb7daacdf8dccdaabcecebc
col42:   866d76ab866859996cbd8fabdcad99bc9a9ccbcbcddfddbdacadbcbdbfcc9ce9deccbabddeacb7ac
col43:   88866ab9aa9a9bb9869aaa6ccccb9bacc8d8caccbafbbaa89d8fbdfcbdcddcfcd9affcfddcdcfdac
col44:   89797bb6668e89aa59ab9cb77bcda7bcedea7cbbfca8cadfccd9bcedfefeabb6ef8fcdffabdddbdc
col45:   b5656798837996e96a99cbbbab7d7bf7acdccaebddbcfeafcdb9dcebaabdbefee7cdecdcfc9adfcc
col46:   9b69a566b756bb789777ab8ccc8a9ccdaa7eba8bbdade9fbcdc9cefdfabedbaffaffefcc7df9defc
col47:   43432b4a77a578867a998c987e9daaedcadbbcabceebdec9cbb9cc9cbb79cdbc9ecdbffccdcaacdb
col48:   8553b86b7ab9b947b97aa9bcc8cd9bbbabdbefc9ababaeabdc6bccdfaf8cbadd8bbeddbdccbecbab
col49:   87676689b8ac8eb9ca8bb8cbddcabbc8ccda79dd8cccebbbfbeddfdfbccecaadfeeecccfedb6d9ca
col50:   89565a6657699c6aac9bdb9a7e897b8cac98abb8a998bca9a9baebdbeebda8ecbcbccdb9ecdeaadc
col51:   7458868358b598578889b89999b98879998b5abf87cabacabcf9b9a8bfdbc9cbbcac9b9bcca8d8cb
