ROC:	 BPix_BmO_SEC8_LYR4_LDR30F_MOD3_ROC0
col00:   87865751752965b7773769a8457b6aca7b67b8c8889a8ba67adb8c699bba9e8a9ce5257852ab4775
col01:   a4d92ab5a8947147789976a75a98cec8bbc87dc8aba9c9ac7ac8aae7bb7a9fe9bb495f4db69b1c9b
col02:   766ba48799a7754948979c979a799bc4a8a69ab8a67cda7d8d3694a7cbc8979a877c668a7aabac87
col03:   986899a64a759487685699ab89ea738aa6778cd87939bca9faaaa9d7b86679b689baba9c889887a3
col04:   3656958358c4a6795858687a9aca7b7a57a8ba6c6bfb879a5bcdd748abb8bb8ea8a56768796b5acb
col05:   477a7958388a858868567698a98d94559c69cbca8a88d4d797ba896cb8fdd5a98d986bccb9b99749
col06:   99977ac76685b77b9b87a687b7997aa7bb78789bb9aaa9b6bac8789a5b78567a967ed87796bb8677
col07:   c5aa7757893a6877a7999a6868bab88ec5a7ab84ab9ca774ecee897bfb7a74a9f97aac98b4da6aa3
col08:   b759a9748597b968999869aa5b98d4bb998a5876ca8477a88e696b88bdc8ad6e944a85b8768ab876
col09:   46a8576879b575869888b8c6695ae8b99cac8dc97b98b9b88d9ca968a5a48aeb6b787a5b7c78678a
col10:   5478b319859b62a69957c3a9baca8bd94ca98a6fbcc85898ed8caaaeda799c7966818a57c37c4675
col11:   7898d58878978755639576686ab97caa79697b76b9b6bb8768a688b499b98acaaf979b8898469a68
col12:   68a976578b498a6be89799e8bb8cacbbad499a8cd988bab8b7afb7aceaabb8acb98aab7598dfab74
col13:   737a55798ab9d657ab5a8b9ba6e8a9ad998c688aa8a96efb79ad7cb99b7b67c78d8d7777b868a687
col14:   6375955997898589aa69b789ca7c784b7dcbb5d9c6aa9e7966988d89da97989ba97978a999b7cbe7
col15:   a989a69687c78b898a9a97c99ab9688b87c99cde979a8ce8aab98b7adc77c9a8adc67ea69977aa79
col16:   96668c973937ea253a8e57c9bb7ccb8b7a99a6aaab96da6a68b8bba6b899a9a997978aa887b67998
col17:   4a7814a89b875aaccc76b799486ac87976997988ca6c688a7b7379d8d8abcb9bb99ab82c858b9ca4
col18:   958448887669877e99af563998a799998da9a9894bac89eca7989b8ec9c5669aa9686483758aa597
col19:   988899b979847aaadaca8959acb5b967aa97798a9ccbb8769a6b7f8aa99cab99aa978b7ba8797557
col20:   c977587ab67c4769477ab77b9a989a9af67cd7b59deb9999ad89c86bcaa97a667bb5b7ca68976974
col21:   77855975b7796789d6c887aac76ad97ca96d58baab77cf68d7d68ab9b9ae788b77b498bbbb8b9875
col22:   743594755742b99bbba8d7a96cc98b7b695a57ac9aa9daac83b7997968bc98b79b55999bca86b887
col23:   829769a98e9b687ba655c7a98889b9af96b8978c8eb7e69c7abcc9b9a5ae999b36c7965b6caabc78
col24:   a888692898aa994adb9b87bafa968fcf7bad88686aaba9499b577a8b9cd98da9aa88f657aa956969
col25:   7568b85c8b5fcb98c8b899bae878bfdd58bbaafa9a999ce7d9c87a8ab65c9b89a5c9fb5987b58a74
col26:   98bcb5bd8793aee8e998ad7c8bbbafcaabaae88ad9a7ca88caaaaba8b98beaca9eea89ddb675aa9a
col27:   b899b9999bde98b9899cb82cda67fd9fefcaacda97789dbcd9dd9eddcb9dbdbcabaab7dca94b8a89
col28:   9cca7c5bb83abb5ada9d6c867fbb8cbabcc9a8ccdaabd99adeeca9dfabdf9aaa7dabdba98baaeb46
col29:   988acb89d5cb9bacebaa8bacd7aaa5bf89b9fbc9b7a88babbafaceb9d999cad6daac8dda8abfaac4
col30:   386ac6d8b76695b9a9e7cbac988bbeceaebaa9e889b7baabad88abcba99a8a8d5e8bbcbbd8858689
col31:   bcaab95fad8ec9c9a78acbcdcffd8bbbb9bbcedda8dfba9aceedeebcea9a9be88adaa7cb9cbab3da
col32:   9c97ea6daa99ea9ae98adeb9996cdbbee9ebbfabeb99bd9bf7eeaababc3ac8acba79aa9a89cfcb9a
col33:   989bdaa787ac88bbbeca7c7accbffcaa6bbafe9bedacfbcdb9adab9d6cf7ccebb88d98898d5867e6
col34:   a6bd99b8c89b89bbccabdcd8baddebdbb9acc9ba989dcbaac8aad9ffad9bbffbbfb99a7cfb8b9a8a
col35:   96cbea69beccabaddfddddbceabcdc9bbacdaaccdc9cdccdcbbfdcdbecfb9d8adabbbab99fb9ad7b
col36:   d87cdaad9d8ada9f9aabbbb8ee99bdb9efcfabcccbed8caadbdcacccbeeded9abf68c987a6aafcc9
col37:   bbaab95969bcabcbdabb8ebd79decbeb8f8faf9dcdeabfefbdafc9d8acaabacefda8a9a98b5acd8c
col38:   8badaa9bbbe8bb9bbbcbabdbddbdbce9ddded8cdbdacabc89ccbba8addffbbf9bbb9ba949bc9e88a
col39:   a9a79997c8cfdee968a8acaefbddcadbedfcfdcc9dfea9dbfdbabe89dabaaeca78a7adaf9b7adb45
col40:   ac99b6d99bbbcbe7cfbeddf9b7fdfdbadabeed9bdabeabadccaafe9bcf9bb9df9d997bcadaa66eab
col41:   77ab8abc8a9aedbdbc5ddbeaacaefcafbcfebcaeeceaccfcaacbdcad8aba8bd8ade39b7bab869cba
col42:   a4bcafdbaa9caa1cbddccf7bcc7bfdbbbadb99c9cbbdcbfcfbabbbcc9c9effcbbdcaeb58cdafc9bb
col43:   8cdababb8ebbe9fdaeaaaac8add9befbf9cbebaacfddeacbbffafdadddabdcbbecda8bd9bdbcbab8
col44:   799b7bda96debcddbfb9a8dcbcf8ccccfccebadebbdfbcffbdababaea99d8b99baadab5bcecca9a8
col45:   8bca78b7d99ba6cdaebcb9ad8eea8e8ddafb99cadeee9dbcfcededeeccbfcaddbfbaa9a9884cacbc
col46:   89bc899ebaffdc8f9beaabcbee98cecd9abcbedcdbaedcdcbce8dd9d8bad79ccee797beabd6a7845
col47:   a7bc8d958aa89aaabdccb89ccfcabbb9bbbfd98fbfba6b9bdcfcbcbd9b9a9db8aa8ccf998bbcdae7
col48:   49badbc9beec6b999bcbdccfdaccbca6bd8eeddbcaebccdb79badcacffcfbecdb9aeccc8cb9fae8b
col49:   99edcb9aeb9dae98cfcbc7b9dca9bddcdb8fdcad98dfacdfacb9ebcb998bfcba69bd8a9cbcaaaf78
col50:   79aaabfdc9b98ecae7dbecd89dbdfcccccfdbbeaa8fbbbdbafccabedccbbb5baccba9c8dbb99bada
col51:   a69b987b7a8b7aaabb7bbdbdbbacccd9c6b66adb48b9fbaed8c9cbabca7daaa79ac9d76659c8b989
ROC:	 BPix_BmO_SEC8_LYR4_LDR30F_MOD3_ROC1
col00:   7864777677773957b798896589c7d695ac7d9b78a79699a988a39aa87bd97895776958638c487596
col01:   482667a886a99a66a5a7bc7da8ba79b98b88c9aaecebc96798ac8b9499cfcb668988c8d778777758
col02:   75b66395867dbb98ab9abb77ba9bdcab8d6a69debb788d778cb76d5aa9f96d8a5886646878c66a88
col03:   9897585865b698dbb786e769d8bf4bd5bf8edcccfbdc898a7a9acabbcb999ab9cd97b8a8478a6595
col04:   69887acc7b775987b978558a6999b7b9d6cfb8cb898a8ecfdba8dc678eaa8a8a89bbcad56e695545
col05:   947b997b895c7b98b59774b88875a6b6bb3b7cdea6c8cdb7996baa699978d78c7b9ba872ccc7c56b
col06:   8476ca8a8a9b4b75898a98f9a898c879a98997db786ab9a779aa7bacafaa99baa5a7877a388386b9
col07:   9875a917866977d88b6688899a798b98a58caca9bca7abbb87a9a8a8a6b648e7749d9665476965aa
col08:   748387a7a76a76969d99cc79aa7a86db4c4bbaaa4dc79571669898b78edd9987668b8468a3576987
col09:   79a9989b6c99a686afb48bab8899aa8ba9ab9cacba8b97dbabbb78ab767ca7a8a9e566b9844877b6
col10:   86379a8577a99fbab9796a79b78a6886c5a6db5dcbb58888b5965aaa9b892aa97699c8988677a165
col11:   95779b418986867a71889599bba6d9b869a938b89c8797a6998879865ab96553666a979779a44664
col12:   8359642849b85a6d9b8bcbb7c7b75a6536b7ad7ab678778889c99879b6b69586778b61bc65998666
col13:   6899898bb9a3bac888896a68ad894c86ba984559c589b558d888bb6979a99866476699964d876578
col14:   a87b579797ab6588a947a4a389ac4ba9b8c8a97bf9598b98c689669599c79759685659785a987753
col15:   66981e55a875a97a7c59cb67cc8899a6aa7797a67a8a88895a85a8667a67699a777b667b8b553564
col16:   464377b7b88789787aa9a9aa4678978eac9dcac8a38899c7b86788a7c976999789b85ab7426a6982
col17:   5353a59b676795b59b884a88767cd84897a77c896968b8aa77b8c96a795ba686a6588bb99746a641
col18:   84b5477384985977789ab779a7a685bbd6b9b86b997868ca6757c7979e847cba9b644679615676b5
col19:   4762478594a9668a7797b9986a8887c5ba978679ab8a8b67c3bab89279b6999dc8798757a8587253
col20:   55957a668938699856a594b98895ca698898998549a975a9c66972d69678a69777698b5958356793
col21:   8bae6a4578868c83a9872446bc9a985a4a9b5c79a998e577cabaaa72a87c7b89499c6a8796a69546
col22:   487857865843b873985bad379896a84ab949aa879bbac659bb87a658b9b8a9493bb55945852c4233
col23:   9686456478366757582a36a798b59ab7958878b59ab69438a7459a969a3a895864885a86a9756844
col24:   36637b6667789928459557835997879b95d69396779948846a8b747ab9b7968b4677786474a4b7a3
col25:   7a3687d65643c447a8e86bc869b689847a767a98bae7bd8a8a96698a986a8887b757b8687686b256
col26:   8d98a78678984bbc9ebabc77b8aaa57b9d6b9e8986899bbda97aa8acc9bccc44564b35a7c8b67554
col27:   c7a7778f3e77c6989b889bc99cb96adc88c6c9c7abe4b95bcca7687cc8896859978daa96956656c9
col28:   788787868e899ba7bc6bacecbb8bd8bb6cfaccfab7897ba7cc95b7c8a67db7bd78be87c9c866e4c8
col29:   56c8775879756c879b88c5b78a799b99989fd9cdcd9daa779aca7796b7669a8b8a97c69787557a88
col30:   95a67b85677ac4d8fabadc8a6c69cbc8dace9d9cbb7cfab777987d7ba7d8a9ad589bd76988787747
col31:   a7bb9a6aacc9c99bcda9b9d97afcc8dacdb9beba6babb8aba99cc998b8ad778aab7a7797a35a7a53
col32:   5d9876798a68bb69a7bdabd8db8b78da8b8fbaa9a9aa5ab9dc789e78debac8958aca7b647466a9a5
col33:   9798b9b696887a987a7e898fdcb8dbb5a8f99c6cec88aa998ef99a7996dda78bc97ab529b7d98592
col34:   68a5aa68ebb9988a8bbbadc8bbbbdb9999aebcb8e6aa8baa9ca6cae89d88ac8baf7a76da9a777884
col35:   91578984699ace87b5b9ab99cc8bb9b9bc7da9aacbdbcb9acd9abacddcab6be6c8cb9acdb9a536a8
col36:   7a79649b8d6aab7bbb978cac7b8bb9aabeb59ce9eaad8a8bb69897abaad9b8a8d9996868ca968858
col37:   87786696995aa9cabaccbcbbbbbabbbb89ba8b779bda9bbaab7bb9cacb8aa8a9a87a5679a769b578
col38:   7c87787466ccb4bdf599a8abab88abce9cadca7e8c9adeb7cdabb956bccaaaab886ab77c887a9623
col39:   994779c79a9a56daab9eeac7a5acad88988b899e588cacb88ca7cd9e7acafba7a792865895a977a4
col40:   7a978ebcad9dc8d7cc9bc8a7bdcb8eaa99db8fdbdcccbbd76ceebba8dcbbab8cbfbc9999a4a8978a
col41:   887aa9dc9bbc8eebc7d7a7b7aafccdcffcfebcf7feecffffcfebfbeffbdbff9ccceb9cefaabadc9c
col42:   682685a7aa67a8eeb7a7a8bce8bd8889ab9aa7a9b99a9eb8dbbf697de67b7da8d898ab87a52c5b7c
col43:   669377a9b9c28a7d789b7cbba9ca98569ba6d9a978b96ab8ad9b9b9ad779aa6589cb75bc7aab9aa5
col44:   888b67a764ecaa6db699e8c6abf8abba878dbdad95acadcc9d86ca8bbe98bb68777a69367a8555cb
col45:   99878aab74988b9a9fca99a8e8a889dd8fa9adb86bfee9c9ac7dbc9ac6b7acb7656a97ab648c9599
col46:   2777b59726bb8c4a9c88a9a5999bbcbbbaf6d9799c78a7ba5777989bd9996ba7a9669b357a7b4834
col47:   89779bc94648eaf5b9daa9489dacdbd79acdfadab8baaa8ad797a578bf677967ab78b997b9799986
col48:   896775979b8aa966ba7c7aa998a799a8856da97bd7aaad59c5838d9acd765b8adba9499a5b469598
col49:   3b7596699b6aabb898bea75d9b8bb4bb99a79babd878abfa2a895a87acac798aa626ba8a9bc91d55
col50:   7c3d694986bababe9cc79c9a6b9be6d8d7acb8dac98bbb9adcccb7c57b8ba99898b8ba76777b5676
col51:   526367867469266673a79c5895749a6c7897878b988283b5d79974136866a8818698a64968419641
ROC:	 BPix_BmO_SEC8_LYR4_LDR30F_MOD3_ROC2
col00:   77512659835458a368a678656679766494477965886b763419889574558567637766863694185486
col01:   7647a7969739825993933a99999777a68684488279589a8be97838699b86a657a89878866866ac88
col02:   45359875723ca779478887a98a7974b7867a6696886999a69a87a688889d578657a3777976784c98
col03:   6536b686459896785a94c8a696b34578b79757a89889a768997796a6847a89575988677899885596
col04:   76526687876488797156776a95976bb797889d9774a698a847a9ba67a5b9688899878a89886944ba
col05:   39764579483378cc8666b698863b979bcbb989bc6ce9787a86754a7a64597977a9aa6964375cc847
col06:   82858355938899755655879969dae9b49d5587b79889a9a4a496a67897d2a77652b6779c97976898
col07:   aa93484595871995a9887a297a775999cb7db7bc876ba4b58b6bb8997899a899a8563b79b7936a96
col08:   363689646a766886a85489889786769c79c98bc66a977a98868ab9877985787887d4bb4a474cb794
col09:   415976749375676689a7855989fa7a8467869578c97a9a95a6aa5585847aa8695588678bb98b73a7
col10:   57da897867b54847776db47b9a68b8a7a86aaa958885975898988c6567686eab58b6b6998388b373
col11:   a9559b6556855a9756954a796b69b5ea66bb78ba9f76b685a7a65857a58579679787954997999b65
col12:   a4877675847686b8685a9b94a896e97a638b89977896c7f75599a4c7778a4b6b8867d8a8b79a9957
col13:   869557843997426884866788977b9abacd69bb8aa7c789ba5ab9b4b699ad779986a76aa979c779b5
col14:   3776675748855d9931a65b9787ba5b66f8a9ca8b9778999b3697adeb8aadac6b8757598568d978b8
col15:   488a977639a757567a85577a7896776359bb78b7a95a97a999b5aa9c569abe7974569b89a5788777
col16:   56868452a7668a88958679b89759bc99a6aa9998a98675d95a8ca6cb8867be8827aaac678769b7e5
col17:   844b57566658694897965c7967835769777876d8a957bc4aa77a66aba97c8a75a8ab9c9ca87fc65b
col18:   4554667748419975693669548c9a86babcbb69ba8c47db98b9bab8a7b99597887897c6975597b679
col19:   49456874644286884a7983b8a58a9796b8a6cacca8ea8b89a899798ab5989acdaba7a9db87aa6977
col20:   89555557764475a9a7aa87ba7575659aab4bca9bb794b9ab867777ca69bc8b7aa589c9c887a7a666
col21:   86674846664944569877a8ac615859589a778a6a76467676ad977788bc69d88a76883884b988987a
col22:   6737949c98978985745c5a68995955a5a9c9869b9aba7999b6b9a596a98b6997aac67ba7cbbbc9b6
col23:   8365983e9781777b687655b9b9985578a6875869a9aa888887b85a66bb989ab78663899b2aa8976b
col24:   8464576786879589d7b7e7a776a29ba9885689869a86c89bb77987a9c86a8898967879a978597887
col25:   41155a759aa36167495c599bbb5887a98ab56b99a7c79a97b689c89a47cba88789a955978496b8a8
col26:   8884969ba797bba97997bdca87b5acd9acccd9996b7acac7f899c9bbbaaae9c98699bb989aabada8
col27:   599475b68a677ca867586bab5b58ba7ce9b9b6a2799b98bca79cab99987c7c9787abb786997ad85a
col28:   86897a98b8672a69d7298c89c997bbba78cb8fca7edabd8a8bb49aacabdaccbc998cb7b9adbfabc4
col29:   b69bb785957a8f67c2c98a9c6debabc7d6d9ddaa995cbb7adaa99af9b6bc9cbdadc9b9c9acbc7a83
col30:   78a7a7a5a7a96ab6757a8df888aaabdcab8d9ebddc9a9c87cbcaa78abcbba8867ba89ba9ab87cd98
col31:   87877a97dce4a788a789ba8b9a9ce79aab8baacad89bbc9c9dbbedaacdcddd85aaeabdb99bcba59c
col32:   b698ac798ab699a7998fbbdc9bbbbbeb9b88a7ca9998ca9ba9bb8c85deccbaa97eeabadafdca7cdb
col33:   8b99739b99ab78adbaa9caba8b9dccb7a8cdbaaab7c9dbb887a98bcbc7bca7bdafdabbe7b97abb89
col34:   7a798a78db87c997a4c98c8795ac7aaccbbb9cbb9de8eafbdfdad8adcbcaccab9cbccbfae9b89989
col35:   2859ad48bc77ac88aacac998c98b79b588bae8bdcafdccbbba998e9cea7b869bbab89b8bba5eccb7
col36:   b9a7a8a777aa95b5c8a9bba9cad875adaa8e9caae9deaf98fbaf768a8b8bda9dddceacb99bbbda9e
col37:   998c8b89cab887bb99c9cbccfa6b9bcebaaecdbab88a9a78febffd9dbbcccacca9e9cbbe89dbbec8
col38:   7aa98986b768c6cb9a9bbbb6bcbbfbd8caaac8fcabea8aeaedbcdfebfcb79ccbbceacdbc8c9aa998
col39:   6a8a8896976c848cc9cbdbcaad6cc988b77ac6c9d7daaccb89b978fcdc8aabbbbbdbb7cadb9cabbf
col40:   86758669e8dcda9acabb8c89abdbaebbddeb7bccdcbfbbabccbdeabca9daaaf9dec8d99cfcdac4bb
col41:   a97b8877779b99a7866987bd9da9c889babbabcbcdfdbcbf9f9bb99bdcdacd9cabaecbdbbabc8ebc
col42:   94d9ac859ca8879a6bbcbccd7cd88b8dce9fbecbdabbaaccda9ba9cba99a96ddaccbabadd7db5e9f
col43:   8a7d8aa58a98afab8d799999ccdc9decebd8eeaacccbebcedccb9fcadafb8caabfbcfdfacacbedba
col44:   7aaaaab6b89875a9998afdbbbecfbbfea6bdec8bfbdbdfea8cdebec9c97fbbddcd8ddcaaebddcdbc
col45:   69d6979a89a8ca88ba989b9cabebabe8ba9aa9cdfceece8bababbfea9a9bbf9a3edabeacccfcbfba
col46:   4799978aba9a7a86bbc9b7daac7ddcbee89bdc8a7efeda9cefcd3ccccbbba9accfaebaacaebbeb8a
col47:   b96bd7863aa589a8acdb7cc9c9eed9eddfce9eeadcaca8fc8cbdfcabbc8fdfeaac79caaeacccaadd
col48:   5ab9898be98bbba9e6aacaa8cdea9caabadacbacbbbaecfdb9bdabc6dedbdaeabebbfb78aa8aecd8
col49:   75a989a7aab5d79d78a98d8beecbeacecbce9bcbeabdebabcffbdb9c9aedadbb9dbbaadcaec9aadd
col50:   ce9aaab68c8cbaa8e8dcadd8f9acaedfcfe9dcaddabcddcbc97aaabefcdbddccbbbbdbabbacdcbab
col51:   6956c8a586a8b88797845c79aa9a9bb99bd89accdabdae8edd8acdcb8d8abd9bb999a9b8c99a8988
ROC:	 BPix_BmO_SEC8_LYR4_LDR30F_MOD3_ROC3
col00:   579659a47a75465989989b38739758889b699b69a998898aa9aa886578d778c77a7a78988ab997b6
col01:   7736666a648724967867a99b68598686888a7a6b7b9784cdebc7a7dddeb9a7a94c977aa9ac66b8b6
col02:   8158668589877a59896b79ba7768bc69a7eb99ac69c7b9c89fa9a9889dcca97ddaa7e89aa8886b74
col03:   3566b64695666b865c77b959698aa8a8a76abaa7bcac9aa7baf78bbb689a9bc989a7a8899b9b9795
col04:   696785746a7598b878b6d8b8c68a5ba9c5895f8899995b99faa7aac6abec9779a4aa9abbab69aab6
col05:   6687946625775563a677c749aac783897cdb78b8aa6b7986869b79767ea88b8979999daa6d786c96
col06:   5559698c783a9337687b76b8b89dbcbbbc9a9babb9ec86bae89bf89c9d9b9d7b9adcb7d6798aaa86
col07:   665887549788c73a5ab66596678967a988c75bac7978b8ca99e99bb9a99efc776c8cbab8869aaad9
col08:   42636778a98896895778aba73963cbaac8c899aaad7a9c9a6a9aa686b95aca7a6a84ab9b999cbab7
col09:   575776779857a9b56aca5e5acb6bbb598aa9cc5c89c8aebada7c78abbd99bb8a98998aab89abbaa7
col10:   86656924b775ab9778946b968a8abea9b4ec9d8b99b9b89f9ab89b8998cbb8b985b88b8859cb9c59
col11:   35465984689c8256856688468947a889a9b998bbaba699d4b8aab8a7cbababb7779ddbb9e98c9a9b
col12:   856563a585b76881ba6896b759b7adaa8adadad8888eab699a89b5b9c8baa7bb8796aa89b9a8a8d6
col13:   456679875a6483866a8a88996a8c779abb9b9b8879a895ba5a98a88e8ab9a9998b8988a969a68994
col14:   365557396866987a98ab987c6a3998695b97b8659a998a9887a39b8a679a6858777bb76799486a67
col15:   44675472883666896999a3a8ca7a698a76769c9bb8aba79cabb898aadab8a8bcd87a8896b99dcac7
col16:   864a6487678589845b78eca97b87798f97a7985ac687baacabc9bba99bbaa9baababb75b8ba97997
col17:   5465657762678579697866a8878768798a596b987d86aa696899aac9b797988b699889a998898b7a
col18:   45845544649356928569ba66b88b9796999686b4a7a9c98da76c87a8d8a9a888aa77a997a889baa9
col19:   7334494577a965a8879774959a997667678db88b68aca5a78a595a8a697acbc98989bab99c77a8a9
col20:   26879259a3556685546c9757877799b98882aab779778a7949b789b87c8aa9c7b7a659767588b98b
col21:   45a566286486876585b68895aaf39c9a7a96a8877a998979999582a8ddb778ab9b8b8c8aacbb8a67
col22:   573462534366777366877899b96a687cc797b8959b77c997a39b84888b876ab9a9a7595a6ba79a67
col23:   54773645a57784945565aa677a76789b85a6b96797aaa6ac9b97bbb53ba5c8789998da99aa896ab8
col24:   31547747377a8a6a82b62a55a8cb8b7659adba8a959ba996c5b8a998974894aaab68a88a4a7985b7
col25:   55668a654c7777a798587768578685a8aa78b7ab65b9b9d758ada78cb68b3898a97ad9688a7c5c86
col26:   577982893c989689b79c794a9a8999bd9ac969d968a9baabdcbbcb96baba9ad5cbb89ba8a6a998c9
col27:   49287a539668a675b6a9bcc9b67b688a87b8c8bb88cb9b77bacccd79cadaa5c7cc9b99e88a6beb8b
col28:   485999a955a7b7a88a89d84967aec89dab8caabc88a8bcda67faaddb9cdcbbaaadb8a99a689aa6b9
col29:   64368665a6977a7a775a969967689989686b8ca9a876babaa8bcfa9b99cd7baa8988c9aabb89ada7
col30:   458594787a77477aa5dac99ba77798b9cc7bca97a8959c6b87a9b969ba7ba8bbbcb998acb99ba99a
col31:   8717975688846996b99bb885ccbba7aaa88b97b9aaa76ebaeac799be6ca8b9cadea9a9abba78cd88
col32:   c48776c596abb68896a7ddc69adb6889499cbac9bac9dd9ed958cb95b88bcfdc76b89ecbd9ccb799
col33:   5557a579898a8994796a7b7797a79da9bcb9b8acab6ddc9aa9dbba77bc979b979eaccacb8cccfa9a
col34:   57436a9aaa998bb59ca8a9a8bb969cbdc8d9ccab9c89d8a8b68bcd9cb8babacaabc7c8879dadbcca
col35:   45978878847676885986aa997b99979b5c98dbdb89baaaa997dcc887b48cbada998bbb9a8bfbcd89
col36:   277188c8cb9798a77b9aa6d9a9b69aa99bf48a7aa889ac9a9d9999c6acfcdccd8abaaa9abb9ceda9
col37:   74996876589ccd659b9977b6767a79b9897b7db8a9aab7ae8eb9c7bb7993c8cda7a9dea89cf98a88
col38:   98b5489767a9ab766a97949cad7d69a99d8ba88b85ae6b7bb8bccbacedc9ebccc9eda8bb996da7aa
col39:   54c6aa888899b986888b5769c77eadaacaac9adc88b9bcecba9bbb9d8c9e68ac9a869b9989679dab
col40:   7a67aa5aca886699a6a5895a9acc7b98a6b8cad9bcabdeb9baba8bdccd6ba9cbddb9bc998b8acb8a
col41:   9889959ab89788cb77b97899869dbab9c5b6ad7e66afaaa9b5b9a9b88dc88aac7ccbacaabe9d9ceb
col42:   a845ba6b88b7888ab9699a88cbb889ab798a5798a8998b9bdaddfcbbaccbbbee9abb99adcca6996c
col43:   a758a24888ac6588878c99bad9b9ab9db997afcda9bba8bbe7bdabbbac9bcbedbcc9aabad79ce9ea
col44:   87a579c669c88997be99774b88abd6aa5aaa8cf99be9babca7cafbbb9acab9ccc7ccce78cba99ac9
col45:   937556387a6698653578859dbbbc99bbba89b876d9c49dbaba6bbbaab9cdeabaaacab7bbc87ac8bc
col46:   65a8479c578a798a88a88aac998a9ab7bcadaa8b75ab7c8aa9d9b9fcbb9a888acb8bbabab9abab66
col47:   34a9c86a9597874bda76787747c98878aca9be9b7a8caebcaba8cc8ccc9adaa8db4888d8bc8ba88b
col48:   9588b38978797882c98975b89c9aa78ee8a85c8db889a8aba8d9abb98879c769ab8cbb8cca9afad6
col49:   7567aa9959486b77acc78bcbabcad975698ba799ab98bc9b8ab3bbb7999a9cda98bcc9bd6ac9cbbb
col50:   89765ab5a6b9ca999a79aaa78b5b5976b6dbab8aa8ddc9aadfac8ccbeb78d9ccdddbbda9a98bd9c8
col51:   46988795626a75b75659544a678c9a68744b7677b6788969969a67c66798a75b899b98786697b9a8
ROC:	 BPix_BmO_SEC8_LYR4_LDR30F_MOD3_ROC4
col00:   a5569486985577785584598869a768894a6a986b777b696869ac568869a3bb89546a6a1aa98bb8a7
col01:   551555455498657b66996788c79a95c8879887d6786a688a7aa889696ca958888987c6bda7b7cb5b
col02:   3873475b74575967a68867958955a8a888a98847679a969e788785a7a9898b789bba87b887c7c8cb
col03:   77486958885858d46a589c9b976d68b987a89a57cbc999a8a7857bd869c7c9a676979abbaad79aa6
col04:   65692955936678a7548add576a497ca77b7c899b87a8b7cd9468ca699a9ccb9bc9677a79b8a9657b
col05:   886757b8694676b58988847696576e4986c6869a6b8b8bdd8ac779a89ac6e98ac5c6886ca6687688
col06:   3a787375758765b7a96a689c48b999976897376649678aaa88b849a968abd998d9c9baaa8aca8d7d
col07:   778a376b67963872c867a4b878b95677aaaaa9997b87caa987eb78976887b9a69ca5969b99adcda8
col08:   7555849923c667ab9895b979798868a8999997ab8ac7f9b8ba9b6b9a8899869cb59a8596687b7b87
col09:   765724b968a67863578887a8987ea35a89b9a89977db7a8a8ab89baa86a99a89da5997ba9998a999
col10:   4155855a74888877c788a699c97498c8ccb689886c6a87b8e859876bda8a587b899b9aa6a779aa8a
col11:   862677a8878b648664888558a878b988c9a9ab7b5c8c986a598a997aaac45ca999c67c49756389a7
col12:   4676788c4776685786549767b8a879997a4b6ba9a99aa98595aa6b87a5b7779adefb898db7cb7979
col13:   794865678a9793bb7998969aa6a89acb38a969b69899c68689d9b87986977468aa9bb599d6689a9d
col14:   3665a6d68b8b68c1c676b488957dab877b299aa5caab9ab5b69fd8899cd9799d9bc4b7a968d99996
col15:   898777948a859b98836894a288cba3778c8bb5b6976c8a9cab658ab989a79685779aac75cbab6a9b
col16:   884763788736568975a49875786858998aacc97dcadac7a97c78a9767a77a9bac7d6c9bc898779ca
col17:   5879664992b97a5546969957aaa98ab779ca66b7a89a94c5aabbeabcacb9998baac6b99788a979b5
col18:   453395784765682767666877558996a8c888ab7abba8a98a5a68879ab759a9c7c7ab8857a898898c
col19:   45a558aa888a98673c89c885a8bb8d8759cad7699adb8ba9a8aa9a997bda7c89ba99ccba896ba978
col20:   655998933597646685cd9b887a96749b96da4b6eb96779bbb9d9594c86b5ccc9aad8795877a6d959
col21:   16375833592645b6776866a75386b85aa6a8b6778d96adaa3db5b9ab9d87a989bc8799b988aa858a
col22:   846695648775667978728ba95b87ba8675dea69bbcab9b6baa9857d88dcaa8caaaf94a899a9859a6
col23:   74b2456798445888676978778b5995786688aaa76bcaaac7dd6c9a98a95baab8a6a8ba969a987695
col24:   1583595965978845d5677c499996a789c9996a5cab677788a9a9b9aada9cb8ba999969b799bd68ab
col25:   654647777a7977a7a6c859e56a86a86bba9b695a9cd99cb779ac97c79a6a86cabaa98a867bb86bbd
col26:   878876a96a89866b96969898aaca9989ac89afa9b99dc79cab8a8da89ac989fcaaf9b9adabcccadd
col27:   8987456775785988a95a9b68a99baacb77b99bbd8aad89a98bde9b7987b96c58ba9588b8baba8b98
col28:   95794b48ab99a8aaba8969dace988bc89ada979a9b9ae7ccba898acbe9dea9acbb9c78bbb69ace8d
col29:   6a99c8779b8999797479bd96f4babddca89b9a9a7cb9ebbd99c9ddc8bbaeccb8abcdced978ca69fa
col30:   797999b78a8667ab887ad9aa8baac9bccd7cbbbfcbcad9cb8ac9b9dcc9cebccbc7b7cbf999abdbea
col31:   3a77985ac9969a79eacaaebca9caa996cab8ce7baeadb89ab7caa8cbbcdabacadcbe8dbdabaab8da
col32:   779c3b779c78aaac8b79867cebabaaacaaacaca8aba9dbeadfe7adababe9babc8bccebe8bbded9e9
col33:   79689798b9b8b7a9ea9666bbabcaa8ebcacc9ebaeafcc9e9cbf9bc8a9abafbdad89b8bbdc9babbcb
col34:   9667aa86b8ab88aa888b68b89daacdebca89cdaecbbbfaaea9bcec9cdccb9acecccbdcaaabcfa8b7
col35:   9c96b88ab497a8869897a9bc8c9a9a867acbbcd9dcaccaaaaaaccccf99cbcdcb96adfcbdc8bcddb8
col36:   98b9baa596f7b46ab9b8b8abcd49caaa9cedc7bbb9ad8cebec9db8dd8eec9cc7e8ceb8d8f7e8bbbf
col37:   9a6bb7a7be9a4c77e8579acf8baabc9bc7abbcadacefbca88fccbab9c7ecadac9e98dccbac99deda
col38:   8a5998ad7c7abaaec8bc8cbceb9c9aa9abea9deefeb7dbcba98cadcb89ed9bb8ec9ecfcfdb99ecbb
col39:   66a8a9a8a877c8baca77da8bcadebcb9d8f8c6eb8cacec88dabdebcaabdab78db879abfbfacabc89
col40:   98c86aaac8898e9aa8a7bec6aebadcbbbadb9dadee899dacfebcb7cbabbcccb6cba9fefaab8bdbe9
col41:   95a98a7cabaea9a7cabaaebc97db7da9ac8abbabefbcab9aedccbbedefcded8cfebcc9ed8dcecacc
col42:   9c6699d7aab7ac9ca6bbb998eabaa77eeace9a8ca8eacdbbeabac9cccabdedddcbbab9dcbdebbbac
col43:   69a679a8b999bcd899baab8bbadbab6ab8f7bf68788dfbbbcdf98ecbfaecfabfcdedecafedcecacd
col44:   989bb7a9a989b89aa68abdc9caadcdddacadedce97fcaebdaecbddabbadbaccbdeaab9cdbedfbaca
col45:   889a9ab69c899a88a89cc9c899bdbb9aaecfabf8edacf8dfd9ddae8cceddf8caabaabcbaadab7acc
col46:   a698d8aa9ba8a5999b9abc5eaebabdcb97a98badc8ac8ebdbbbee7abbfcadbfacccdfaaacbfcabbd
col47:   6a7b786db5799c685c9acaebbedeeaeabbde9cccc89cedcbdededcbebccedcbdccdacc78dfdcbaed
col48:   7b99a9a887ba7ab8a86aabcebfaa8fdbecc8cb7ceccccadb9ebbbcedafdcbccfdabdb9adbcadbdee
col49:   8786c9c9ba69e8c78ba9b9a9bbd99ccbdbdebfc9ffbbc9fcbbab9bbaaabcad9bc9bbdaaec9ce9fdb
col50:   987ac88897ad9bc8a9a7cbad8dfcaae8acffc8bbaddaddcade8aeffcbfcacdfccdaddcad9bbdcaec
col51:   96755875b785756787b8cc787996ab8aab9a998cc66bce9bb9cbcabc8cb9f7dabbe9ddaabbca96ab
ROC:	 BPix_BmO_SEC8_LYR4_LDR30F_MOD3_ROC5
col00:   55466a856c5698ab78988ba368abaac9a8987689989ba79b5a7bd87889c6dc77998988798dbbc9cb
col01:   7869aa544d665799989786a76bb8c7499938d84bdbc7a8cdba9779bbd8899ce68a9bbcbbac8fbdc7
col02:   4179889898a778a67aa59b6a87699966b9abb9babaa98acc4bcce9c9b8a99a66d79caaecaa9998a9
col03:   854298788a699b8aa6987a9a89987d98cbb9acaa9bbcabb788b7cbb6a9c8a9a598c6aaabb9a7ba9b
col04:   3273b38547777996aabdc989a6b9cba6abb8a6cd7a796ac76eb9dbabded89678eaa9bb4b8a96994d
col05:   8a478aaa2a9887765285b979aa98caa7eac999e8998bcabda8799ba99b67d99886ba94b8c9b8bcb9
col06:   76668367b644989bc664d7bfbc9a8b7a9d7a9bba7989e97c96a86c88ab8aea9cac9aac9c89c89bd9
col07:   59946747686b7b558ba9a87979aa974c9ab9f9acb95c8998daaacba8cab8cbaa7b69da7cdcc99a99
col08:   5646987a98acb89488a6a7aa8bcca7889aa779cab9c99d97bacb8997b8b8b86668bbbace9bebad5a
col09:   3f79a7aabaaa85886a56babb8ce7798c8c8c987b6d78994889d9d98bc9a8aad3aabea9b7acebfba7
col10:   796846a8878b665496897599a87ab7a89d89b999aa99ba9acbda8ababa85f9badd98dce97c7cdaba
col11:   8944abb476887645989969b9a978d77aa987b9c7898abdb9c9aab8978aacca996da8959bcb7ad799
col12:   a26a9549a699568adb899ab6bc878878b8e6cab6a96bb7a878c8ad9a9a96986779a98bcad9ba8b97
col13:   966a84669777399978bcbb89cb98b8aa7ada8b78969a98abce74dc5b9dbbd99c7a8bbbbdac8af9ad
col14:   8755599856c88953b6d69997bbb7a78a57ac8abb8a897899a9997bd9cfc7bcbbd8aaac97bcdca99c
col15:   98677799769a78b98a9489cb8a977ba8a8aa999cd88868aa9f9b47e8abb996cb88ce98cbd9bcb997
col16:   339699b98a886678a7c989b8a8aca89ca6b8d99f9acb68da9dabba697c9caacebba78c99aa8bd7ba
col17:   857925968a468b827a8887b7a7c89abb95c96cc89b85d99dd7c7b99a78786979da89b7ba9cc8b8a4
col18:   64457755855c7884b86964ba9b67986cbcab9ab9a8baaa9aaa77b9bba88acb999883bbb9998d8c88
col19:   3557979777634baab6aa9898868486b7689d9baab89cbbb9889cbfa8caa9aabdbbb8a7aba9abb9da
col20:   4676787668848459738879ba967c87ae9ca9c8aa999aba7b77a8a7ccb8a9bba8a8fbe8d8999995bb
col21:   89c9744899476954779aac7cb9a9abbbb9d5aa97998397abbcabc7dad9fc7abca8bd9abaaa668ba9
col22:   896997986a8c6988797abb7a99a8db6a9e979aa5ac79ac9b9cca9caba8c7a8baa9e6ec7be87bbdcc
col23:   75873a77887482448958b686d96bd6a897a77b898aad7989ac89b988a6abaafcaddcacbaaca97978
col24:   52669864965a9386b889999abacbaba8b79ba8db9ca7c9a9ac99ac9bbd79bb99c69db7cbbb798d5a
col25:   88968966a77c9781aa95ab65a9d78aab9ba9a9a6889cf698dbca9b96ba8bba889a698cb9acac9bbc
col26:   a946b87a96ca87a7a9878baac88bc9adcb9cebdbb885c9a8bfbbbaaadecbdadca8dd88dbcddbba97
col27:   9877968b9c97a9a9a8a999aa9dcb8bbab8aaea9998ad87fad6fda9eab9dbce9ebbca89dee9ce899a
col28:   66ab7bbc7caa89bc59987cab7b99adb7cddbbacbec7ce8ad8be8cbbcdcabccbadccbfeababdcba69
col29:   87ba54abb78b43ba8cbaccc8c7cabb7e9cbbe5b9c9ba8bf9eabaaabdabbdabacfb9b7efbcaabecc7
col30:   9b97489cba79868b99a7aeb5fc9eda8d7f9d8daab8dce8cdaad9cacccda8ba9c79bccbdcabdcdfba
col31:   8a9acbc8bb7ac79bcca7a7acbbd6bb9ba9d7caafacaafaebbc9cccbcdfcceabbe8baadbddbcbce9d
col32:   8899ddc9899aeb9cbc9699a8a9addda8cacc87cbda8accaec7faffcbcecfcabb9aceedfafcfbcbbe
col33:   759b8799acbbadacb8d97d8c7bb8acdcadbad8cc9eabdbd9cad9abddbabeacadbf8aab8bb8e9b7cc
col34:   78989b8bbca76ac8acca6ac9abb6ccc9ababccbbcbab8cbcbfcccdca8bbeabbdead9dbdbccbccbce
col35:   97a88989c9a78c89ba98bcccacbcd8cc9caedccfd9ccba6ddf8dcabeaad8bccddfbbaabedfb8d8a9
col36:   87b5778ed877c9cdbc9cbbccbabbca9cabb7cddca8cbbc9bcbcdaddccedbaabaddbabdcdccb9caaa
col37:   98a89b8cc96cb7c99c78b989ad8adb8bbebd9d98c9ececba9e9feebdabadddedfbddbddbdeb9cdc9
col38:   c99c7b8a8adc699b8bb9eacbccceccbccacccbdaddafc7dfbaffdcdcaa9dffba9fefdcbbabfebaba
col39:   898c9ea9d75a9b6eebcb8ca85bdbca6dadcdbdcedfc9fdacdd7ccdeae7fca8b99dcffedbdfcabedb
col40:   9a8ab7b8daa8b7da5b9acccbebcb9bdfcffeaebbbcebdbd8cb97ccbcbecafcebbdebcdefcadebbec
col41:   c8ab8daa86b8ba8abda9c68ba9cdae8cc7bcebabbdcabea9aba6cbddeaa8ef99b9dbfeabaee7bfb9
col42:   c787d4a9a8be689ab8b7dabbb8becbdd9acdbdfcb9fccadedbcacbefbecdcefabe69ebe9bae9aeac
col43:   999ad9acaac989a89a99cbc9cedaccc6cefbcebbcfccfaddddabdab98cc98eeccbbbdfccdbbacef9
col44:   aab99a8acbdb87da9ab9abaadcd8b9efcb9adeef99caacbcf8b99bb8fdcb9cfc9bddecd9ccbcdccf
col45:   7987a79b88b8eba6ac8ccd668cbdc9fafad9badd7abab98c8afabadecbddf8ca9cb7c8bdabcbcaed
col46:   5b49c99a7a987d8daa8c8cabe9ebba99accafbafdfa8ecccdf9aecbe5edd8edaffebbbfcbecadddc
col47:   a978979a8a7ac9bdf9a88caaacf9cbecaedb7ccc7badfcaadcddc9ccbfcc99caceeadfabcdfaeabb
col48:   65b99da8cdaa8cacdcade8bbd98fbcbcaddcbbaccdcabbdccdfeadfbbbc7acffdfedcddf9acebbfa
col49:   8b59b83ba989ccb6bbdd998a8e66cfc9badbcb9cebb9c9dbbceeacecaefebc9fb7baeeccceffe8ec
col50:   75c8c8b9b78ac88cacfdbece9bdbeca7bcc9bcd88cbdc6caaddedca9ccbcadccfbdafebbdeaae77a
col51:   66766a776756ab88998699ab8a97a9c8967c7b9b9db9889cc7b5cac96c88da98b88bcec99bbcebaf
ROC:	 BPix_BmO_SEC8_LYR4_LDR30F_MOD3_ROC6
col00:   24376844556762949854588494955765b3b79696696877658644b8488699aa9878764977a688796f
col01:   7445844469778665aa588a675978a76997a9b897689a994797aab87d9876ba767b97b78cca789ab9
col02:   3547637778b76767598b8974b9b7a5d8b96ba888b99999a3a79b928a8599686bc9b59a65b9887a8c
col03:   4686958668c767566777a58866bb99848949956677579c99b697bc79997aabb998aa877a9bc9c8c7
col04:   2554868786646ca668997479b7996cc88b494998a7a8d9648898748898dba78b8a7bb797bad6a9b6
col05:   4586544877676785846a8988c9d698a99a98899a87867b6aaaa977bbc98879b67caaa4ab87b9a488
col06:   64775598769ac7767698786a69a8aaa7a7da979a8684a99a6c98468896879cb889c89bbaa68989ea
col07:   249a5a59788879468b888858658975da9999b9789a99887aa77b99d969ca8999a9b9d88c76476888
col08:   825788686555475776759b77a9b677a6a789497a89b8e39677b978c8aaac8cb6a8cba9aaab7ac98a
col09:   65244977877a3a74b869967a88598896a897596a69b78b98886c98ca8769a99899889788b8a89b79
col10:   46566548779586468a87859b89a7c99a7ac8a77a9c99d6b5b89787c96aa98cb99935d79d98a7b9ad
col11:   7546a558498a7b95b9aa77988998a6c5bb98cb86688989a947bd8969bab8a99bb78ab99aab76a9a5
col12:   45935969776665abb87764a877bb58467866998996bcb499abb8b9cca88e8bca888b789a99bdaa78
col13:   6735736b59588a8b5958947aca69a7897987a86e85acbc7d88aba8bb8fa8bacb9ba8c9787aca799b
col14:   866356778588879799899a9a897bba8bc78c9aba6bc9ba6b7bad69aeabb8f8896aad6bb885568cb7
col15:   756765787554666766898876c8b87aa75a9baa98bb7abd79eac6debaaa9697c89a98799bb499ca79
col16:   2644893a66888aa637a59db6aa36a8d7c9acaab7567d9896be879dc8a8cbc7c898a89aaa787997a8
col17:   554666995649c7a787987575cb6899a8799a6979a877a89ab8a5a9bca8a9ba6c89cb8a89aad6b95a
col18:   5667446797998565a993bb88aa86778879ba7899ab7778d6a779aea857cbc8aab9da8b9ca3998d89
col19:   57885685789875949677578679a8689798a7988695fb968d9a9a8688aac588cdda8aba69a9a9aa8a
col20:   56837557b9783a8596878873796978b9b79a6b8f99899b7b87ac898d87a9ba9abaf6cab6b97a9baa
col21:   6a6555545976a45598787a6b7a7a5b6b898589aab79989477b47b9898887a769b6b95a9489c8b89b
col22:   734637579786a947a76699679777bc95b6988999b99b9c78c7a679cb8a8afacbb97dd9c9aacb9b9c
col23:   a7838637666993949975b7689a9679899a8ab866c8a89bc79c76888acda5bcbdcbbab8bd9a998bc8
col24:   4858a386a7899a6996558899989a5a9c99b887888c67c6989abadb6b9db7dc8777cacc9acabca997
col25:   67533757a748686987588ca678aa9b8b85767b9bb8a6adb79c8def8c6adda9b9b8accd78aaba9ba8
col26:   89a84a9b8aa9779bcba85a88997c9c8b9dbda9a8ccdbe89f7ce8ba88e8a9fdacca8daa59c9bafbc6
col27:   5694788a9a797b69e76ad58588ac78c6a88acdb7aabbef78aadb88bb9bcb9e99b8baf8aad7b9bdbd
col28:   59a96988a887aa8b8b4b8b7a8bbc9bdbad88ab8bdcda697ca99acfd98a99e9dc68bbe69daddb9eb9
col29:   37b8a49c9999779a99ba9a8cb888cc9ac7cb7e8f8bac98aaaabbeb9e8cbe998ac99d9fc8ccd8cba7
col30:   d6779ab998a79cb99ac69b869b977ccea8b9bcbaca9ada9dcde7d999dbc9c8fb8a79cacfddcaaddc
col31:   9387885aa6dd7a7aa9daaabbd8b7bb98aacbb9cd87abd88abdec9cb8dfcd99abcbadcbbcf989edd9
col32:   57769b89998bc77c7a9aab8abaabcb89b99cbfdfd8caab9a6b8bcecaeabeedb8aebcaddcfbb9d9aa
col33:   6667b3a4898dbc7b6baaa8cfa8ecacb8ac7fdaaad67cabadc9976cba6bc9dabcf8aa7abac9abcee9
col34:   c6c6aaca869967bcabbab9ac9c9aaac9aaeacbdecbbfedffada9cbebcacfdcabcddaeec98aa9ccd9
col35:   973aa7b68979a9c9cbc9bbaa77d89e77dca9c9bbbaabbbd8a98eaadfda8debbbcd9aacbabfd79bc8
col36:   6b79477a88b9a7bc8b899b8bdcfdfabbedb9bd9bbcaaeaf9addbefacccceccea9e98bfddbad8cebc
col37:   77866ab69b88ca798ab98b6ad5ab9ec9dca9bacceadccccbcebdacbcadfbaba89baebcbdce98bdfa
col38:   584ab69bce768a6cbf989bf9d9debbbbfdbdfbfeb9bab9accdaeeea7bcacdbbbbcdaaab9beabbdc7
col39:   8aa87bc7a99cdca779cabacb9aac89ab9cfe9bdccb9badcaa87bd9dbbcbbdbdb9becccc79cdddbcf
col40:   57ab9cbac7b89cacccda9fcb6bebadb9cbcafbddc9c9dcbcaeaea7badbcadcccaea9bdecddeeae9b
col41:   89878d8ca9c998dee7b9cc98ba7efcadbbcccddabcaaadafbcbe9bc9adc9a9cdfdb6dadebacbdcbd
col42:   77a99cb9cbf8bfdc8dadb9ab7cbacecabdbcddbbf7bdd7dbdcd8badcbcdaaebdccdb9bceabebddc9
col43:   9899a98babea97d9bdaaedacaca9dd9afdfddcbbdeebccaeabfaacbdbdbd9d9d9ebfdfe8dfca9dda
col44:   a8c7adc9abd7bacab7f9acb9dd99aac9accdcd89bbebee8dcafafeebebedefef9febcfbdbbdaccdb
col45:   8b6b9b9a79bbacca8a8cbccad89af79b9b9afdcabbfcfdb9bcccddebcdedbbac9cdbedfbcdcccadb
col46:   7b7a5a899cb8baba8ad9bfbdcecc8cdcefdfbc98c9bededcdbbaeddbfdec8fcebcdcbeedbecdbfec
col47:   a89acb59accbb9fa9bf9fdec9d8fb8bdaeebebddded9fbebdcfbecafdfbdefdaefcccabdbd88be9b
col48:   9759ba6899c9c68c8caada68ef9bebe8a9cbbaabbcec8be9addffddedbbdecabffaadfdffccbfdde
col49:   ba889bdaa6db9acbd99d98bfbcbbd99ebdcbcec7fabbcbaacbfbeac9dedecabeecbbefdeffaaabac
col50:   99bb9b87a9da9b9abbbca7c9aec8cbcbdbfdbedfcfbbc9eaeccadded9fbedfa9fcfbcf9cbfefdbbc
col51:   688b87ada79693a7ac8b8688aa88caac9cacca8bbbabcfc9a99a96aac88b9cadbbbbe9cdbbbdcc69
ROC:	 BPix_BmO_SEC8_LYR4_LDR30F_MOD3_ROC7
col00:   67785527497566676625876489a9bc77bb66998768588c79b57978758cb71aa8967d89c7ba94c77a
col01:   48b46684669888759689464598ba88a36a788a9aa85a7aaa9c6968dadb6a86c9bbbbaabda88cbca7
col02:   55864886576a37759c79388b46928b93cb9caba6a87e87c9cba968ad67ababda7a876bac7887b68e
col03:   78953866597578541bca941a89777aa9b99678aa97997c9ac87ab7babb87ba98ab78b9bae5797a9c
col04:   757675a773786b799c76875a7495897aa879c9aaa8a99aa9baf788aaac977a89c8b8eb6b8ba9bbe9
col05:   774645b768a7a789a86678b767a6a7a77797a9b7a7dba5b97ea9a6a9b96b997a8bbbbccc68b799d9
col06:   274447788767b88895998678a79979a86b9997c7aa8a9b998c88aa5878b5cc9a999b9bb998b8996a
col07:   68b372887977787267989877ac596498cbaad9d79b7997c8bab696aab8bc88d9bb6a9d4ab9ba89a9
col08:   42a12489374965677879867a866666a869986b77838aaa99aa3abb9b9797da595a99aa65ba9a998b
col09:   3567756a58757997887a58c89a9566788c96b76ad7877a98a69c97a878eba5adb9689aba3b8cdbcb
col10:   36889486bb86a968aa99c87a94a9b889d8978a6ea79a85878ab9d5c9a9a9888bac7686c8b8a5b89a
col11:   55387573867667589476968a1652a58a598887948b8986a97aaa998cc3bd87aa9ab9c9eb988a89aa
col12:   656a667845734689769b9b99a7ba49688898799799c89bda5b9c89c987b9c99e9cac7c9caa99c69a
col13:   8558a64899655777c6a97988a667689a987766c9dac98cb9a5767aabc7db8cc9a8acd8aaa7c886ab
col14:   75667956a778754286669a969983777bc85b69998caa9889ab566c97cca9bbcca778b6a95aaa8999
col15:   46876ad837759989e776bb788a537bbb5a898b97facbb489f5875397de9abcdc76ea9b9598adb89a
col16:   7556836a5a9887767387b98d83949879899bc6a6ac85aa94dbcb6aa9ba9885a96ad9a99884975aa8
col17:   75887586543745b983866776a89cbaab7579a996c8db987ac6a83ca95c96bbdad8abab9e6c9dba98
col18:   7455483767648146b7968a99bc88887889cc986898a58c7b345cb89bb9dbabbaccbea69a798bcc86
col19:   668746689a666a5777999a876888a674888c3ca8a8b89a898bb9ac8a8b9989ab99999caa49caaa75
col20:   48558a6a56464669567595686966b999875e8687c89bb8579b7aaa84b569c7cbdc89b7a795a77a7a
col21:   7375777958756758795889b486c86869ac769a8977d9a86b89bceb5ab97ce9a9c97d5cd9ccac8abb
col22:   48b9865767975889777597b9699a495767a7ca9abaac8aa9bab88789a6a8eabb7898bda79a8bae89
col23:   656747741478582698885a8aa668ba7aa9ba99956859b7b9da9b6ab71c9ab8bad9b59988968abe69
col24:   5557788466885a376649869979a9ab989b69b8a899997c9a8799bbe99ba89c968cababba7e5b9779
col25:   85637767786c788385896858797678bc97be8b89a69a88a99ca8a8a98687cc947ddabb76b7cbacab
col26:   89474658ca8a7abbb7aae789c9b96cabbb9baabe8cdcd9bcc7bca7a9ec8bbbb8e987cd9dcc87cceb
col27:   58477a9776baa55973c587a99669bca8bcd9bc9ba99dcea7999b99dab9b8acb98abacd9acdaebdad
col28:   8889ccbab87bab77a9c9ab8a69b9c7abbae9b89a8acbdb9ecba9ddaedabc9caaf8ccaaca99bcabdd
col29:   6a5a888746aa88869b7ca9bdcaa8b8c587b9d7cabbb9c8bceb6a7d9b6a98acc8ab9ae7baba97acc7
col30:   97488b64599b8b8777779799adbbacabdcab988c79cd9acbc9ccbdccb9bbcaa87ddae9baa89b98db
col31:   3d67c995b879b98abc97ccf666999fd997dacad9b95db99a9da9d5abbcdecea7bb7ab8aad8badadb
col32:   5c848a974a87bb8cab9a4f98d98cbdea8bbddecda99ba7b9c88aca7cca8bbbdb9aceaceadb8da9c7
col33:   8978877b7ab487b989969b9b9879ab9a99eabdcaebbfbacc8badacbdcbd9acebbcd99ed8dab8dbfc
col34:   77a9c8b8b9c935bacaaa8bbb9a8a89cbdd9afbfc9cb7dbd9c8d8aab9ddab9abcb8aa9a9cd9fcdbbb
col35:   9a99c489aa97c96c7f8acd879bbbbbbcc89a89bb6dcbbcdadbba9adca8be9bdb8b78abafabc76baa
col36:   a88a797797beba7aa8daab9cabcb6bdcbfbbcadaa8cd9c9b8cffeae9da8eb99dd89dca9cbaa9a899
col37:   9aa9db489a8798b88dbce6979ba48a98a8da5ad99ecdaac5ecbaaea7a9c8fadd9ced8bddcc9bcc8d
col38:   59d7666898549987dbad887a997bdbf8ccb8aabdbfeeb9b8ecaabdeadadbbdea99fbafdccfe7aa9b
col39:   a56ab35b5a98a65a9d69fac98bbca9c997ff8cedf8db7c9adaaacbb6bc9dbabddc7bbbdcacc8c9e7
col40:   9882b7adabc9b4c9bbc88cd69bb9bbb9fba89accb999cbbabe7b89bdf8d8dcdaebcb7c8a9ddcdcec
col41:   6968897aeaa88b7bb9768d7b7cb7dcdc6abcc9bccdcacab9dceafdedcca9b789ab99c9cda8eeaacc
col42:   3869678b6887988dcccacbb8b9adabbe7ecacdafcfecebcbecdcbcbdacef9ce9ccebbd7ab8ecef6b
col43:   64796b8b9ca9a6aa86bf9acc8ababcbcbcdc8babad7cbbbffebcebfbbccdfbcbebccc9abbcbddebb
col44:   73739b7889d5ae9aaa7c68cbcbefbbfebaad98db9be8bdadbafdfb97bfacbdeddcabacba8cc8dcfc
col45:   6a96b9ab876b96cc9abb849ea9a9d6c8b68eccb9a89aacc7dacc9aaee9adbccccbf9acbfe9babbfa
col46:   8845a598679ea897879aab8dd99ac9cb98cbfd998b6daababceaccfcc9fbfbabefab9cb7bb9b86ca
col47:   778a89c6dba89c789c789bb99ebaacaabcbfbacbbcc9eddbcaaaabaaecbb89cdbcffac9adffc9de9
col48:   7576b89ba9b99699cac8ccdb88a9ba9eacbaf9abcdbbe9dcb749b96db9cfabbbacabbb98c7acdbda
col49:   a7ba7687b95669789bbc9bacce898b9a7bcc9da9cc6cead9bbccba9acbbccac7adf7bb8b7eb8cfcd
col50:   788a779887688957c8879aab7cdcdceabcacbbadcabacefac96ccabacbfcc9bcec898afaabcdce9a
col51:   8597768989469a794a47b9c47cc869ab8ba7d9a7789ccad8bb8bc9a9978a8dbacab7ccd97babecad
ROC:	 BPix_BmO_SEC8_LYR4_LDR30F_MOD3_ROC8
col00:   361477237875836446779977678857779697aa895655a8986a878776967b968878a8b68a6aa9a996
col01:   54695968857977597984658a878998799b57676a86a7998a49a87a678886d9b6bbb886abbb99abab
col02:   a39546585487844b8694695876776668656c8a865a897b67a5889587987bb77b9396b889aa9a7bb8
col03:   34454754847568b76585882a6677856796c79b99652b55b765c9c8b9a7bac6959895b897bca57ac9
col04:   7556a97667674293985747a877b7c878876b68a7999b9498bb99a978ccaba98869d78797a7b878b9
col05:   76774571756873a89687a7a87897a9a68777ac86887bb77d787a88cc9aac787667ab9b9b8999b996
col06:   4755539a777865394ab3956664aa999889b99c788aac9c869779886bb899b89cb9b67575b8779bab
col07:   a845677979953b6957577ba99967669bd5a98776b799cbb89bd7c899a8cb777669885aaa78a88aa9
col08:   697469a48a98975b964b766997ab87955946997969b6888a988b4a857b8ba8b8ca6b98cdaba879ad
col09:   7565668844676777a8569599bb85888987a7aa9997d8889979a8aabcca99aab789678b88b8c8caa8
col10:   277465566a66797666b98976628777869a7a5899da6b8b87a7629946989aa69a9bac88a47998b8aa
col11:   1346386998888679b9c6797376699a3aa97a88a84b968b746a9a86798a8a98778a699749d879b7ba
col12:   864767975a7959b6989984d6b79da5a7b8c69aa9787b96bd6cc6a978b99a9b97b92b6a99ace978aa
col13:   692547a68767487a67a5786799788a87d697b8c9a96896ababb99a5b77d98989b98b97a5aa976a79
col14:   846492777ca8786689856898899b898c9da8daaca9b8b36757b989aaa99aa68ac9a989a987bba9b9
col15:   724579768884946b89697996a9695a98986a986176599ba8a6c9a9578a447ba9768987b8668a9ab9
col16:   46867678848677c78668589a787788baac7abbccb759aa6aa6baaab978b8a79787c86c8aaedb99bc
col17:   83568667867779a8169688598ba798aa9a79a86b998ac6c86988c82999a976ba89bc9b88a988a8d9
col18:   9284c7772a6a779745889697875a3a68898bb7a7ab699796a85b898c7978845589ab8999957aa989
col19:   843877638974749979c77889ab777aa79b78b79caab89988eb8c6bc67cb4aac8bb87597e987b7998
col20:   556485687764565757a47767c88a66736c8a98caa9a8a89b769b7bb9b796c59ae8d97898a975c889
col21:   86475657999a47862765879ba8b79daab6b89898a96c7c97a9c888988cb8d7a9ac9aa78ca59a98a9
col22:   1537749669868975b68859887bbab9896a6a8779ac796987ab5ac6a97a8a8a8c6a958b897588979c
col23:   844765768b627686a84568a6c66b66bc67a94b85898898ca6bcada99aa886a967aaba5aa7ba9a786
col24:   465984858669995698697997c9875a6a9868b7869a98a9c888998ba89a88bfb9a8d999aa88a9a9a9
col25:   386468aa6a9796695a789dabaa878b759ac79b99a96979a9a8acc88989879c979fbc78c98cabb996
col26:   976895698997898a88aa7aaa9b7ac999e899979a8a7bc99d7ac98dc9bc9bbcdbc99acec9dad9acba
col27:   859977a76a79657aaa8b77b9b96a87bac7b7ac9bb69b98ecaabacd7acaaccacba9db997c789dab96
col28:   8867988cab98569da6a9a8a999e9da9c8bd8ac6a8d8b9cccbccba8abcaabbdcc7a99cbdbbbadcecb
col29:   8775a6a59ab75585bb598ab879bb7ac8c9acaadcc9c9aaacbcdac9cadba9bbccb9bcac979b589ccc
col30:   6595aa698687b899c7b9ac58aabbb99bc9fabcab7ca9ba98b9c9d9ca6c8b9baecab9ffc7db8acbad
col31:   7576979797aa98a9abb8c7bbdbca99a8dceaf9dac9e9dbeadb9ded97bab7dffab9aba9efec9eccf8
col32:   87a99698a96cca79cbcabcc9aacc9c96bafbc89e89e8dbfcc97ccaaa79cbdbdadbacb9cdbcbbbabc
col33:   acb797699bac988997adb988a8b6c9c7abae7dbcdc7eadeaac9da99ad9adccbbbadb8cebbbc9aab7
col34:   76b9dc9bcd7ea6aab6bad9ba9c998d9d98ae8d78ddccfcacded8b7bbdcdbf7eccdbdddf9cc89bab7
col35:   8979c7bcaabb86cbb99baba9959c8ccb9dcbddacbab9a9aabdcaadebbeb7dfaaeb97dcabaaaabcca
col36:   7c85798c9aa56ea8abcbb9796bb6cc9ddf9ddbcddad9abcbbd76a9cecccdc8eb8acaaccbfbcd6cba
col37:   898a79ca8abc7ca8a8bcaadbbc9abbceaabcbadc9baccb6bacbcadbbcbbfccdebeaaabcdbdaccbbd
col38:   97d7badac9b6aadaeca9ac9facbdecbbdcaca7a8bbedbdcdda8ddebbaeaddbdbbdabfcceedebfdc9
col39:   87978aada88ba98bcb9aa7edbdbbaacdaabdafccccf9ceacbd99ebce89cdaadababbcaebccbfbcbb
col40:   99699a998ba9bbc8a6cc89accbb8aecbd9cdddbccdec9accbddf9cbdd8eabbbcddc9fecbecd9e9db
col41:   99abbc76aaa98a9da9c9cacabcdacdbca8ca9ecbdbcda7dadbfdcbabfca9cabaffdedecddabaeb9d
col42:   958aad8b886e8abbaca9aada99acde9ebdadcbbd9dcdbbcecdccc9cacd89fabdceeeafaeadbdacb8
col43:   68696cbabbab78a79d9dcdac8aecafecdbbabccbdfeebdedbbccdcbcbccedcfbcfdedfeeebcbcec7
col44:   789896caeacb6bbd8bbbb9cb9bd7db7cbdcbfbdbcbec8ebee8fbdeadccfccbccf7cfacdbdbcddcae
col45:   9ba989779cab89b9a69c9d9cafcacca8ddcbb9fc8cacccecaaccbbbedfccb8ebbdadeeb9eedbebe9
col46:   8897b7aab8aaad88c9de8bb99abbbcc8b9bdcdefddbbaadedecbebababbdc9eabecdcf9cdab9eedf
col47:   898b8bb8ea99aab98d8b97de9dfebcdbbbfbeec9dcafd9dcbdc9ccbebacbcbc9ecbadbebdbbaccea
col48:   67aa9b9bc6b97b8bdb99db9bbccb999caefb8cbac9cdcafbbfcdaacdc6cafced9d8acbeedacbbdda
col49:   7899abace8898dbab8ccaaec9b98ecadbcdafeabefecedcaabc9bde9bdfddbcdabcbcdecddecdaff
col50:   ac78bba9cac89aebb5bebdcbaedbcdcabcddececddaece9a7edb9ea9ef9ceefabcd8cedbcdbceeec
col51:   6877385aa9b9799b8a99ac89dace9aa9aaedacdc78cdbaa6ba7cdac8cdadbfcec899bc97a99d98ca
ROC:	 BPix_BmO_SEC8_LYR4_LDR30F_MOD3_ROC9
col00:   7535656846675483a4296689c574a62d7a77947699db7a6678939a87895748a957597a8a8775894a
col01:   5248472694879747b564738757876ba97b8a766c7769789c352d876a99a97b99ac677d969a86ba87
col02:   5432387665655b566758378596a5b787987a84b8b9966676b78e57a83a9c857997899c7788796895
col03:   457ac5669585c597a89786797475a4a69968ea68498974a95987bb98a989aa58b6a7c89797aacc89
col04:   5353568644378476588679c84a67a95bf99dba96a9a989a7a6a97c7cd6cb36a7bbb9b6a79779aa79
col05:   8266947486467773776d97a7a96967a77988c8b6878bbc787a9646a8bca5776a6977c6658daa96d7
col06:   116786856a3455958a889a7a779b79998779c97aa884a99c9b9879a9ca9ac3b878a37a7a7875b6bb
col07:   64747643a976856495b86db8776a4898897787d67aa7caa78ea6cb9583899b57c5a888d1b789b889
col08:   2a277675655536556d6767bc754677a96a7987a88595459a968e9879b883a698987a8875a967b694
col09:   516795895b847896848699b87ab56968bb89a668799a49ac7799996da877979cc9b969878786a996
col10:   a7859759767678a55ba85576c5a5998b9a89a786878ab68b698abca9b88d577aa8a7ad9d96696887
col11:   448944765479775a757853a48768b7b8a9799977d7b9884999599babdda76a4995897999a88a7889
col12:   462473652495777a69d7879a5a5887594b77b669b587c9849585878875aa84aa6b87768a89486a98
col13:   5664853869a8576556aa859ba89967bb7e77995c386a7947a6a688a8a8ab9c7b974a7a9773a5c689
col14:   852398758462498a88b58aa46a9a9c459d6789a99b689e975b75cab9a4a8daaabb7898a6b8bb7977
col15:   38966548c779c78799c697949a59899b8798bab777b889cb9b5aa99889989ba8a67d69b8a99bba88
col16:   2a9683979a5877867a68758b7a79789988387b6a78bb698acb96a699d4879787b8ba78997a967a79
col17:   4763553878766a68a89876363766a5ca56da8a7c9a9ac39695cba78879a87d796999668766a9866b
col18:   468915bb44b859676865b858aaa888aa66969895668bab959614ab7d97588a789766789855769a7a
col19:   578585a458aa97b88478479a4ab6b789958cb93ccaaf7b88787a9b79b69b6c9498bbb3aba87aa895
col20:   8439a629837999d87a83973599a37964858985aa8ba86a76767c9a968c786a687e96da8ba98a86ba
col21:   6353895738985776a9789877b7ba9c89a78a95a58559497c9658a7a586c75a9a78a99799878656ba
col22:   4457674188955597a87399c79ba5a988a77aa4c85a68e988a87b967e79a766b98a8878666967a998
col23:   72669257768696887689b87797499aa7978638a5579866a86897b7b65998a7757dba9949cb968797
col24:   5777387878567479b6a97d79b4a76692786b66657d737778a8b8697c9bb8a7abb87999a89588c6aa
col25:   566564a9786597c86978ba58d987b7557bd99a85baa6c86b8aa8bb78a5aa7b799598b98b58dd97b5
col26:   3697974796a8c79ab929e95aceab8b8967bdc99878eba97dbcbcaa7c9a8c9b98a6bbabaa69daa769
col27:   77899b6665875a9c878cd7acbbc7acc7aeabcda9a8889c9cb9dc7eb8d9cd6e98a97c98b899779bb9
col28:   85569a7899a9779a8b9d9a8c5c9cb9bab999eaadb589aad78bdcabba8aeaa896e6b9acede99db7a8
col29:   774478a5689976898b779877d9999aacea79aacbb5cbfdb5dc7a8ba9b87dc898a6c5c899ac9a9796
col30:   6288cab49a89979986a87b6a8bab9a5bd9ad99bdd997c8bda9ac5bcc9aaa6be7ba98cbd989b88ba8
col31:   39647aa8bba466bd9aab8da88bc789dcbc9a8a9a9ced97a7c99bcaa89b9a9b99bbbbd9bbdc7b9a67
col32:   a77796bbc678cbbd7afa9d97ba9cacad9a996e7e8a789a9daccdeda69eada9baba9aadc8dc99ab67
col33:   7775b59a8897dc799cd86ab7b7dcdbb9aa7d99cbbeb8be69b7dbbaaabbc9eabdc9e7bba7dcf8b8eb
col34:   6879b398acaa7a9c99bbdbbeac7bccbbdba88bc8bcb8c9bc86badcd67da6dfbacdb9bbd99acca67c
col35:   9399abb6ca6757d89d9bcceaedceac989c9b9cfb9899dd79bc57ccabaafc8babeebea99ad99ddbe7
col36:   7568897ba57da989ad9c998ccaa9b9b9cd9bfb6b9d99c9aca8daa68abb9cbca6a8acbacbc9d95bac
col37:   6c857acccc298885a8babc8c8bd8ebdfcc98cabbaaa8ca8aaeea9bbcbab5bcac8da9b99b9ddfbceb
col38:   89687889b66da889badc7dba9dcda8cceefc9bbbacadcec9d9bddabc9adaabcbdb8bcbcafaabdbaf
col39:   6788babcb88698aab9978ac9abc8aa9c87898bdba9eda9d6a99ac9baad969cfb9cba9afbdcadd98b
col40:   89a68baf79dcd89ba9cbababc9aaadf9adddebbbcbaaacdde9ceecdfaaacab8aacba7eeba79cab8d
col41:   b6b879a8da97d8aab9b9999cb9daadaebaadbcefddbcbbbcdd88bec9ab98faabbcacdbbeccecbbeb
col42:   79acebd97c877c8abbe8aaacbca8d7a9fabf9edc8da8a7cffb7abcd6cb999c6959d99fd7eb8ddb8d
col43:   97b9a5d779dc98cadc7b9c7a9e78dabadd8aaaf9a9cfbbcbdfda8998bc78caceb9d7cdbacac9eacf
col44:   b7c6a7a8a8db9badebdb97b89ccd6ccbceadeee9ac9fbcead8bedbfcab9cbdbdab7ca5bb9dbeaeda
col45:   b6ebab6b97a6cb7bdbaa9ce9cdcabfb9daacddececaad49accceb9c7a7dfcaec8ebdbaa9abd9cccf
col46:   b9a4b9bad8a8eafc5aac978eeadddb4adb6cecb9cccbbccbbfebabbecabddadaaccbdebcde998aa8
col47:   38868879da9abbedcac9bbea9d77afcaacc8afaaa9ea99bbf9babcd9deab9ba99e999bcf8bba9c9c
col48:   b898c799bdb9a98bba9bc9ba8aabbaccbd9fefaedc96fabfedbc99b6ca8f897ccb8ebe9a9bbabeeb
col49:   4978aab9bad34caca9bbe7ca97bf8c99ca9e69dbbaabb8ada89cbbabcbdca9cacc8c8bdf9accdcc8
col50:   57b98aac98b9ac9fb8bc9eddbdacbbc9dcbbdcbcade8bed9e9b99ebccad99edeccce7bbda9be97e7
col51:   56a65a839895aa79b6a99899c748bc7a9bbc99d9898b8c7d8c8a7b9aaa8c898bb28c8e7a78bc5798
ROC:	 BPix_BmO_SEC8_LYR4_LDR30F_MOD3_ROC10
col00:   34846569645988779a65778776875a6768a79769788576795686958779897845b9997776999a4767
col01:   49875278984648969a9caa6a9877a79a9789a9968476777858998879a796b879968ab67b8ab66a85
col02:   2685715978873698997676787aa89a7867896679a8a87795599978c793b872a4479b678c69879988
col03:   9a7658878466569898ac686796a78b77a666aaa65baca6caba8ba749979da7ad9698a987c6995968
col04:   75975a665d5988a67759776a88788c5787598966667a88788b76869da8a88a8ba79abaaa5938a978
col05:   664488785696368959a7b798b68a89765687c89c88ba4a8a477ad6bb888a97777a66c77b896677b5
col06:   62698889a64679a78b86869946ab9a688ba8c89668988b8a98898499b99779aa5a749869aab9b999
col07:   6786a959887989a9c7a989997c9698abb66a6aaba8876ba9c888a998c7a5ba7caa89a998aa9a9b88
col08:   56478656a54b29bb9788bc9a588a79867988ba8a86b9ac679a8a989aba88c98e6989a79a786a9aa7
col09:   8bb64877585759979958b66788a9a769a87c99bb7986888479cd799b7799a9577aa867a8a9b3b887
col10:   668a8676978768b49969989887ad8889aac78aa9999bb4dba6c68799988758a79968986ba6989787
col11:   8676a867874968a4a89ab97688689687a9a968b9aa686bb78886c889ba98966989dc97a7aa9b785a
col12:   6869a8667697988a8a9a9a878d6ca778997697abb96d9a79a99896ba7a8979a489b7898c789b8886
col13:   95978a7dc98574888688a98bb588987bb899a66998baac97968baaabac5ac98b8babbaa89c99b87b
col14:   6949b87ea5679978674a899c8a99b8a7998aa7796a999aa6aababb999847a699e5689a5abb678699
col15:   785a7777a7aba749989977c97ab8a89c77758b89ca9974c97a88877899ac59b999c6979848a8a78a
col16:   8b89649888969978989a9986ac99ac7769a97c98aa9b798bab98aaa988b9db9a6a5588b88a888788
col17:   88489b8b96799789aa69b9985899a886a97698989a9cb9a99767c8678c8799b6aab98ab8a92967a8
col18:   5745b788a996aaa988969b866ba7a9b4999aba98ba5da957aa78887aa887a9a6796886ab8a98894a
col19:   4798b579ba7969ba76b9b6799a96788bab8788ab997b996aa9bbd98a8a7b689ab7979a89aa6aaa97
col20:   669657a6a99667c79898b99d897bcaa6a88be89877d87abab97abb8a89898897a99a87cb859a8a67
col21:   854894ab497898887bd97599ab879997ba8bd96aa79ab99bbabb86757cc78b9dbc47ac9b7ab79ab9
col22:   57667677894b8999b9aa88777898888a7a8bcaa6babea6b7c8a698999ca6b9ab989a9a8889b8a8a8
col23:   6768867796567a8889c99a88a68acba49cba7899d98a8c589a87c9c7dab67a9869a997a987b98697
col24:   b8679489878687ad87aa7799d99bd989aa8c8bab88ab88978689b9a89aa6a97b7679d8799a99b9bb
col25:   7437bc87689877b895b948aa8999abbd97baabaca8cdda7997d9bbbaba9999bcca8bba89689b7a99
col26:   8698a99a97bb89a979889b98aa9d879a9dc9fbc9c9abbaa9adcbdba9ba9bdb7699cc8ac68986dcb9
col27:   668c8b99ab789a99c76a5b978abb67b9bbcc8ba79bcdd8d7acd89dac8bb8bbc99abdcaadc99bdaa9
col28:   a8cb6b8cb6d689aadb899c88ba8caeadaec8a9bb9cddda99e9d5aeebebbac8ec9cbabacab998a7b9
col29:   988aac989aaadbccbdb69bbbdbdbc8bbccd8b8abbcbbdbbdabbdd88bb8a8addbbbb98addaaa8cab9
col30:   9969b98ab9b899b98ab999aa9aabd8d99a9adabebdcdcaabafa9ccab9ceb9aa9cacabba7aace98da
col31:   778b8a59fba7a96abababdd6bcbcdcfcbaebbb9bbebcf9dbcfabbcabeccb9dbacebba8babcc8bbcb
col32:   bab95dd99abba998ae9cabcdbbaab9bb8c898ab9e9cdc99ddcd99bcbadbdcacaddcbeacbcabed879
col33:   9a88bbba689ceac98bcbcdbcbbbaaa9bafdbbccb98ba9acacbccedaa8fddabdcccdecbbacdcdc997
col34:   d9abc8baaba99ccdca9adceabcbbaccedbeadccdaceeecdbba9bcabbbadcdcaf8dcdcdbabdabade9
col35:   889bdbc9ab99ad999ccccfababb9cacbb9ddcadddbe9988ebbc9babcbdeacadd7cdcb9baccbbdbd8
col36:   49a7897d9b98acb6bdb9cacac8dbdcbbbd7dd9bbd7cbbccde9fabdbd8dbd9efacdbcbcfccfadcbeb
col37:   bbab99ebabbccbcaacbeac8dc9ccddacdb98afcacf98cda8dacb9ea7cbdbcbfcebcddcefd8cbdccc
col38:   89baa8abbbaab9a9befcbfcedebdbcedecc8bfeaabdcbbedbcb8ccaddcbbbdaca9ddefeceddad8ea
col39:   9a7a98aaab9abbbdd7d8afd8baacbbaecedddbe9eadadddbbad9adceceacbddcabc8ebd9d9cccddb
col40:   699dbbb9bcacbbdbcadbebc9fae899adfbbebafbcecddacbecafcbd9fccceacccdcaaabb9cbeacfc
col41:   aa7b96bab9cb8bebedabc9ec8babcfbdbefcbeabaccbcdabaeccdc9dccabddcac9bbcdedaafbe7ac
col42:   8ac6b86aacbaababababca9cdd9ddcddfbbcc8bc9ddfcbbacad9ade8dc9ecccbbbadcbadcbabcdbb
col43:   c6bbcdcdc8bd98bbed9bcafaaf9fdefdeedfecfccddddeeacbdedcedbedcefddeddbcdddddbccdca
col44:   daa9eebddababadcacdaacbaeaeddfcbcecdef9d5cdefdabdbbb9cbcacfcdecabfecfbfbddaaadff
col45:   89787a9ae9aacb9b8becbf9bbcfdacaeafefcaaf9caddbabbbdadeceeecabcaae7cdaebacb8b9b9c
col46:   acaa98d9abddadd87bbbcbcdcadcbdcd9ede9fcbeedefdebbbdccbc8cecddbdddcfcdbbecddacbcb
col47:   accc89a9aac9ddcabcaedcdccdecdfddfcdccdcdafd9ecafeccedd9bbbeebcdceddddbaccadaabcd
col48:   b8cbbb98cebccccdcededfcacbeedacb9dfeeebadebbafcdddddbbfcbcdbbddedadacdcdbfccdcab
col49:   dbbbcbbccacf9ecbccadafbebaeefecccedeffbdbdaeccfcddeceebdbfbdddfbacccd9baccabdcfd
col50:   aabbbc9bbeaabacbefedeeb8eddafdf8cbebdaddbddcbcdafceabfcadecbddcceadedfb8bbbb8ddc
col51:   86b7aba89b8a9ad9ac99abdebbbbbb898eeac9ded9dbbbac9bbc989aeda8d7dcc8e9dd9d9ebeba9a
ROC:	 BPix_BmO_SEC8_LYR4_LDR30F_MOD3_ROC11
col00:   c56579885458688472b473a75667569a87b5e64a7a888c7b9a8aa778daa44774b79bb7a7c9489939
col01:   6468a3497cb5a85667666e9bccaccd97dbbfa776ad5bcbb7896bdbec695ab799e88a9c84a679b7a4
col02:   7485619364479965bb8a8b737b4cf8d9c99aa8aa9778485aa5a699e879ad99d8add769d885987bab
col03:   a796858a5a77ac9b7975b88387697e9d49b69c87997eb7b99998aaec7da8bae769e89aba9955877a
col04:   4ab89737ba79aaa7978c56c695aad9b9b7bc9d997b5a8789575bc79bd95cd9888ba7cf768f94ab9a
col05:   7657ad466b587ab799d39878789b6bd9684ab99bfdd9bb95793c9bbb9a99b6a77a89b4769ea97964
col06:   79ac8c5ca9a595659683a688aa7abd9a58a6a7bbaa699e9ba59788cc99a5a87a6b9a5974a9689b67
col07:   3645a86cbab5abbabbae983ca867e959896eac8b48cfe6d967b9dad77b985a7798c9989898997b7a
col08:   585a86595a7c79d6a7ba9c9e4b4cdba758b8b9eaaa778ae6a8c7b59fa888bab784f9a6586a87cb97
col09:   566a9554844889c9877a89a87895cc8ac77e9da879cabaafba38697ea9bccccbc59988a9a9ec77d9
col10:   b48a887665595c6c67b97b9b5ccac978c9dc9eaa8acaeccbbaf7ec9798d7ea78bd969896a9959b8c
col11:   7755977668349869a378ab8979858b6e8aab9a5677d665bc8bcb8a9b98b768786ce86c588b8ca896
col12:   3377766d5a8c77ca98b578c7b7cbbdd8c8d888c8c96a68a8a98cdc7bce99967887cdd695a886cb98
col13:   6556757c68a96349a9a8ea3c9caec77b5adb9589c7a69ca737c9a699bf99cc7aa99d58798bec9595
col14:   645a66a238867a45ad85c8687b77c66e8b7eab927c89c9c7d85888998b9a9ebd83ba9b5b9a8687bb
col15:   b45779759379499786b499a989b8cb9ada9dbb9db79a8aac897da6ab97778fb77798cab8abaa499d
col16:   67ba9888766667b9bc79a9b9ebfabcb995d9c5edb8bac69bac977d858a9b9abbb978cc739cb589e9
col17:   986866ab4a6488b6777664689358a89da887a895c74a7c9885bab9697496999cb896a8b797a8a95d
col18:   8a5b687a7b657577673c924e5aacc9c9b8aa89a7499b89aabcb99dd98676a5bb78f8d768a9aaa5dc
col19:   6469c96477795994938566bac66b5c8bd95b88973a9a886cabab9ba9ebe79598b77bd76a7a99a8a7
col20:   3786b652a7997687a6a894c88caa98e998a8b9878997674c4bbb897a7a97a9a88c4a998a8a925977
col21:   95879967ba89589b678968babe6b8bd359ea98c898b7d59aea9f9c9ccd9c9c87a87858c6aa8a88a9
col22:   4a63b48694a9768a676849a9bc99999ba5648969cd89ca58a8aa8a69aabd88d88daa67764476878b
col23:   38549378bc83765a588779966a598988acaa97f4799cba9ac2b5a8aa9b778bd8a7ab69889a364e9c
col24:   8457688b974474ea769998aab85d56d995bba8bbc89abc9987acbd97aabb86899969bb8987669fa5
col25:   74979668aa6687755759a88eb7c768999adcbb9b7fa7e887bbeda9c7898969579ba98c8aa9c777da
col26:   9ac78c97cc7ada888baea999c9c9a9978ac9e7ccac8d9db6e9c3a89ecaf9ecb9cb8b89facbe9d7c9
col27:   6a567887858a9a4c9897c9b8fab776abcbb8ecab7bdbdfcef578e7feccbcbecaca79c9c5acad978c
col28:   4a6bea6eb999e99abedbd8da7d9cdbd9cecb5ab8ac9fdb6dcbacbe7eabdc7b9db7aaca8cb898d749
col29:   b4c799898757ea97bb997afbceeb6a9bd7d66cdbcdb9ab5895acd9a7bcb8abe8cacae986a6898a97
col30:   798ac998a75adc6778c8c99f88f9edccbb8cfadc8cc6e8a8acdcebcbaccffebbbbbca788b98d9889
col31:   c586888c95bc696ccba79aaca9fe6bdeba7aebcb79aa8fcd6aebccdccef98ccfdfaaec8ba97b6c17
col32:   bbedab9eb9c99dccccaaa8ece9dbacbaa3d9ca7dbbcaaddcc8baddecb9ecdabb7abbdb7bebcbd7e5
col33:   cb7abb968dd8a8babacbfcabaacebbfbccc9a9ac7ae7cd88ccc9bddf75feadfffae99f98d879dae8
col34:   a6c3798bbd69f89bececcaafdcccfacffedf9acccaecdcfac7ffeaadda8fddc8bcbc7a99db6ca89c
col35:   a79ca97d79a99cfab9bb7d9babcecbdbcbbc99bedc99c5fba989babdaaa9ba8addffacc8aa9b5adb
col36:   6d5abdc95a41e387e8aeacdeecded69abbcb8bcd8bbca59bbea9ddadfdb8cd8a9ed9bbaf9acfc87d
col37:   8ac7eabd9d9bacabb9bdbacab9eabbab9bfcefdbcdeabce7abd9fde99edcda9db9baa8fdbbf787eb
col38:   8ca66c8a99b9a7babad9cbedda9dfcceefccdfdacbbbbbbbddee9cafcfdbbfdeefe9ac9e9edbc9bd
col39:   98ca8a7aad678cc79bd8b7bfecddb7fc8dafac8dfdfcecacac9c9e9b7ce99aefadbc7bcccda9f9f9
col40:   79a97b8acce7acf9cb4fb9bc9bfcacfc7eecdfdc7fcdc9fbaadf9cbeef9cbbcdafafbd9bdfdfcd8c
col41:   7b96b7c9978b9bcbdd8f7d8cb8bd89f8ccdbbdaecab9ec9ac79f8cfaecefeeebbbcbbafd78cbabf7
col42:   966cb8a8f78aab9b8dadbce7aba9edcf7defacfbbdcdfdbdfdaceaccfaefced78dac99de8ebdd5ec
col43:   bcb89ca9babbf79b9cbe98aacbdefcbc9f99caaafbecdbbe9dafbef67e69dfdeccacbdba9a85cfa7
col44:   5a9cabae9beebedfa9dcdfaec99babd9fcdfdfebaddbffca7aefc9dcbadcbcbacbdadefe4dcdadea
col45:   dad8bdadfac8fe8cbcb8ebfaedcf8cbafebfacd779db77daf8a88aedb5fdfc99cca9cb9dd8eac6f9
col46:   acabcedeb79b8ab5cfcebb7dfbc8b8cdceed9bdece7bf5adbccfccaecbda79cbbeccafefcacafc6c
col47:   a78c869aacac99dbce9bbbb6ebbabcfcccbfbabd79daf9e9cabbdfecabac9a8cd49a99cbd8ffcf89
col48:   ad99ac7bba85a7e6c96b9d9e8a9aaedca9deba97befc9b8c7fc9a97ebbecd8ab7aeeba7ea7b6dc6a
col49:   98baeaa9cac7ace9bceaba9fafe8bbca9fcabfccd85aaacaa8acebcac89cdbcd8ccd9d9b7adbdc98
col50:   6da89aa6c8c9a9689cfba9ddbebadeffecd9a9dcdcedeafea8fddcbecbbb9b99ef9cc8b8a9b7ebfd
col51:   a578c886b99c9485c6baaba8b598c9fa4ca2696f66889a9dcdc66aeabbea8b6788694b96a99b48bb
ROC:	 BPix_BmO_SEC8_LYR4_LDR30F_MOD3_ROC12
col00:   48387676765574827648846965947768567895365494553573995326656189455263871525445431
col01:   95bb5877797ab9aa98a5768887778bc9899587a768a77a3696789357575857754369666475627171
col02:   84877945997769c7a8359757975a78997688897a56845966687855745874632576b3657674741661
col03:   983698948697566985665989a678d9aaa84599bacb649546776c5989868686577746846741555873
col04:   87b6ab6988847a5395998b98b46569a7375aa8a8a4b8676533458599876498766991525415845535
col05:   a7b58778766873968576a77a774777898c7a745997368d8666487487758429547256676445628664
col06:   c49657786526834989ab4a89896b876bb76818498b795ab98897b585579768766854253747455735
col07:   77678977b57999686799a976984a8b996587698985968a6986886678ca8648659963787486778474
col08:   d7669766575a596c966868886986774887a7aa9858667869a7676b78747499543a88466536435837
col09:   5876aa8776689ab7aab9897979896888986776b86999756a8784a74b758957975576547873844297
col10:   68b577689b8a89688977b9a8d5a99794aa65973b88a897885878aa9b487677835749587445485773
col11:   a69866a896769989a9a77868a77a9a67888a768b37b98a59876875724453968a36b2789824944457
col12:   c65947a57898a998ba576a79979866c9658c5878ab9955979886998688a467797744744254663876
col13:   b9799889b7976b987ba7a68a7798a46899b6a957c86785c77d799c96ab88865a654945777a861655
col14:   9b9ab796a698797868a5aaa68879b8879a89887988ca977956957866356a57758565675646556967
col15:   58986a6789947a55a96989a885879a9899d9b8687967779688a9a669a4a775985465768449667666
col16:   78787a866767a899779778bc8ca975797a9aa9b8677999789b879799a9875666b578854785789434
col17:   9a86cc8788887bcab4b85a978ba959667898a73a786a998778967a6856a7778878649a7479595657
col18:   577366896a78c88789688679a78b7a5bb88aaabaa969b779798699746488a9633754876447644255
col19:   6786998cc97c69c95a6b88bb47a9a7c6a9789abbb879a75899a78668867a7466567856b6a96449a7
col20:   9786aa986568689976987c839778aac8b6a89ac6ab8a858976a54887b76875988946797873881a46
col21:   78ca89b3a477c7b89cb7a68b889787aa89889b886bf95b757ba76a9897a7ab57897b8b7745643356
col22:   9777a8a879999aab7b65c6698c6a787aa9a889b8bd989a5897694769955579977a98745565957315
col23:   ada87b7788924c898666898e4cba8da88786bbba6c89874666988757866794999887967569273457
col24:   c599ca7587c4a88889a986bda877887b84b7d9da4a8677acaa7499b7763889689369866647745623
col25:   aa8665699748b899acaabadbb54889e9aa69a989a9b8988888c8b8a8a9b86b988883a87865959735
col26:   9be97a99a7cb97b99699b99a9a9ab99a89aed98ada9e99b988baa79b887c78a978777b77aa5ca488
col27:   cc6cac9aabc79dca8ca999aaba9b7979b8bab97ac97dd9b889b9b86a98896587b757976597958866
col28:   8cac6daca9aaa8caaec8bbedb9ca88bbcc89ccad8b8e8ca97c9ab8ba797b9b88e9a6ab896b637878
col29:   ad9abdbbcebd9cbfab9b89bdaeacbcb8bbd99d9a9dabbadc8bca8ac8b99858796989c797aa788a75
col30:   a98babaab89dd8acabe79baabd9aabc989bcdcbbb7ce8a9899b979badcc89aa98a76a89966969693
col31:   abdb9addcbaaac9eaddb99daa9cdccbbb8ad9cdeccedadda7c8aabdbbcb66e49a8a87698b8b8b698
col32:   aba8aabbaee98bde6a9bdecdacca7b7dbba99b9bbc7bcbb87a99ab9cbaca96ac85ab8ae55975936a
col33:   bcaa988bcbcbceb99cccab9bcc9bccc7c8bccdb9aebc8aca87cddbbcbc8a7d9ba9bd69899679aa78
col34:   9abcdaacada7bdb9acc8ccbd9c9daacbea9bbcdddccadcac9eddbcbbbbc9c7789abcac798a8b8998
col35:   aa9daacbdaccdccdaebacdeaaccceacbcfceaebcc9b9dadaa9b7baaa9caddcdbe6c9c7a979799bc7
col36:   dbaacbccfaaddbc7c8cbaedaccabcbacadbca78aaeabebbbebcbabadbac9adbec9babab7987b9868
col37:   dfedacc9abadcbceecaca99caecfaddcb9befbceca9cfdbabcc9ccbbdcee99acbb5cb79ba96776ac
col38:   caaaaddbfc8bbabcfc9decdcbb9dbaefcd8bbc8daadbbab8eff899bbebaecb9ca9aaaa9bcb98bba6
col39:   cc9ebaa9dcabaaddcdcb9dfbbacb9caadbbbecfacab9d9ccdbaace8bbca9badad9885ba976748a98
col40:   c9cbf9fdeeadccdffadccdc8ebbde9cccdebdeacbecd9baa9eacccc8aacbcbabb78d9b9ea897ba66
col41:   cbebbefdadffe8bbadcccbbda8aacdaedecfdcbf9aea8bacbcf8feadcb5bdceab889b98e9aa78888
col42:   cbcaecbacbd88acbdf9dedfeedebafaccfdafdadacd9cccdfcdbdcf9d798ababcbb79a9ba9948ba9
col43:   adecfd9effcdccdaecfdabfeacfcbdcacfeb9ffedd9defbefdebcddebceeecbdddafbaaab9c8bba8
col44:   bcc8dabccbcd4edaeccbeaa9ddabaadeedfabc9adfd9ea9dcaceffacb9dca89cbdd7abb897985ab9
col45:   cb8eeeadcaceabdcbaeadbebbdac8cdbeddbbccceadbce99bdea7ccdb9ccacb9cd8b9898d9889879
col46:   bd9cbadcddaaabcdd9fabfcaecbccddcdebedcdedfadcd8c9eeac8ad99c9cbd9d99b96c5ea9889ba
col47:   adfcfabccaaebfddb8fefbb9ebdffbbccd9dcdaadffaccabddcca7bbddfccbbbcfbcc9ab99b9d997
col48:   ccfdeddbcfbddddeedcdb9cecafdeeecfbdedeecdfbaeacc8acbfcbddfcd8aac99aa9ea6db98cdab
col49:   aeddcbdcd8bcbbe9dcebcecbebcd5ddedfccecfbdcbcbccfcedb9dbcddebabbbcdbbcbaac9bcbaac
col50:   ad9bbbfcbdccededfebedcdcfdcceaceffeebcecbdecebdfdcec8b9adcdbdcd9dab9a9bd9cab9c9a
col51:   cbbdcecb9ccaaabda999eecc5bfddbfdbbb9dbcdbb9baceddb9ebaaab9cc99ccaa9896baabaa89a9
ROC:	 BPix_BmO_SEC8_LYR4_LDR30F_MOD3_ROC13
col00:   9888384546725646788677773577385b754888639a78857a46869675974675683449693533664622
col01:   a5277a66586677478995ca8987a7949a6d577b28aa977c76789b377768a6958716557a6381656636
col02:   875654678787689868738884aaa9986a5895a5977766a8792a958474656696a86668362441975865
col03:   975778a7982a59988578b8679b8546786289a6ad6948b5da8a51786b83675a45a46874a457246749
col04:   6a39889b89a8a67779766789674ab9abc697ba775b9ab8b369a45878699874299983414654947674
col05:   5846898b886885a768794a834bcbbb8b659a8ca9587874c69569495857779985c797578137674672
col06:   524385869979a9796a8898479a779a7a99a668975b986876286b68a887779a677774b77a45829155
col07:   6a679796447c669955586484a4ab878688995b9786a487a87968aa88665737877aa9663744653521
col08:   2b67899d596b487a7658898a569656274a9aa786966779c77386842a656577558564447595756844
col09:   887768473997958551a88979a657a664bcaac457ab73bb69bb98455aa589ba876a8533a642687958
col10:   8544387b7c257781666aa5977584c97a943b5199b6877c84755978c398a94687775aa85976683561
col11:   767759756955795688a387a898768599646786a6557a85a75784a82667b957773496578844784375
col12:   884767ac8a69b7744445948a7b7999249a88899a8a6a58776a669875694866577964695697752676
col13:   97987648989877696b57864a76a6acc58989aa788b8b67e278665a7296da7939cb89796853486344
col14:   a459867378a464876948a9ab775a96a7b6a79357697767676774759aa87b68b66667b88887744336
col15:   547789a797779a987965aa59a7bc98b7a8a3b78b77587a7756876957983584a8785655b75a8c5484
col16:   5787589595743a49a79a8975e678ba868aa8a7a973bd659b7b6858a8667657a5757b856657386573
col17:   8659a2637b7a6b4a288998585769c7878a777899a98837b4a82788ac76758644662877613a415553
col18:   6848847575a494c877776598a695ac888a675786b6a897b7a98769679a818b4495586657b2687555
col19:   69575894679c6b868867a8ac78c756aca868b6ba97696c6976a89a4a6c99589a6737478a53783762
col20:   8873568794a838b3aa67998457957a9b47993a85b874a8887867258386a74997587a854588386755
col21:   37946aa4859876ac66b77a8878858798ac6bb6588999b959a78897a687489473987c574655781266
col22:   95ab563a4975749a456b59859758757a993ad67ba7b9a76587999a86888759b45876179575559454
col23:   954598a87416963a88898589688967588668ba9a77ab37a94576978898733618668a969378748649
col24:   44687755786469a8b77876a566767a78a68699aa98376cc4895684797a3d47a859578331367a5474
col25:   696b68797c4a6d878a88aabc657b768869c89d88bc748737ca8c996868a546349ab4476357a54956
col26:   958968a989a959abaa9bc9a858ba9b8a57695da8bc9fe989ab7988a9b9779a88d969977473975634
col27:   a7686676787a87c9878899bc588897a8baa6a7b7d7a9b99a6ba9aaa77688b7cb375e767624a66578
col28:   97bab5ba8c8b767a5c998e9c9a89c9994aabab67bbaa8586989a97a99c95689a7a77798643698646
col29:   88897a987998b77abcbaa96886a89caccb89888b6ce8789aac8c8cb6fbcd8c8669997747a396c7a5
col30:   575baaa7cb659aa87a9f7ecb89aaa9c9bb9addb7b79ce9b9ac858989979c9ab8887596a8954a39b7
col31:   798ab6b8989778dbb9c996975b7c9ea9cb9bddc9bac6cd79aa9da99add878c7bbbb5a5c9b8695934
col32:   d9a688cc77d6b9abbbabd8bac9cab9a99ac88acc9bbbcbc597c6798aac7b9a7ab95ad7a7b9864889
col33:   a68c7aba78898ca789d88e9dca9ab9a9e68c9fb59a9ab7d9c79a586bca8ca8b9b698b9777b9aab88
col34:   abaa9ad579bb7b9b7a9bfaac99a8d6bb6baaacdb9cbbdc8a97b968a69cabddb796b87b77957697aa
col35:   89a897c774a8bbdcbabbfc89bbab99e8d99bd89cbdddf9c8a9ca69ad8a9c89d88aa6aaad584a68a6
col36:   67fab9aabbba8a589bbbc98a9bd8ee89dc8aadabbdbdb98a7969a9bd9bbdb6c4cacc7b76798757b1
col37:   59a985786cb9b7a9d9b7d8b9dbd8cb8ccbbafce79b9b8c7b6a79979aca8989999b69889769a28595
col38:   b4f86b86a9bd697abadc98cbccbdc8998effbaca5bca7b8bf8d8b59c8cbabacda3edae7b79b89688
col39:   b977b97c759c9a7ac9dcbdcb99cb8dfbeaadbe7c8f98babd9accbdaa9b9adfc79aaaa9a7ba796c7b
col40:   79ebb8bcca67ae9ab99bb5eb9cab9bab88bae979cb9efca99aca87d9da7bce9baabb9ce66afa3b69
col41:   8b79a97a7aab8bbb99988998bcf9bccbbcacbddd88c8afebb9aaccbbca6a9d9d8aaa5b8a874868a8
col42:   b79aa989797ade7889babbbcbebaea7abdeb9cdb9aa9b9bbb79cabdcf999aaaa5cd98ab896a77aa8
col43:   9bab9878e79eab88aa9ccd9a9ccabda9cdc87aacccbeaa8caccbabd8adc8a96aab9c68aaba7ca969
col44:   a9b7a6bbbbc9abab7acb8dccdcbbdbbdeab9a8b9ba86cbbba7a9e96abcfbc8bb9b8c579be9887988
col45:   ab9b69bbe8a97baa97dcaa9aeabba99cfcdba86eeeb8fb9ac6d99d85ba9a9ced9aca8a98ba688999
col46:   c6abbbacb88b8a8b9dafb9ab8d7bacbbbd9acbbbfd877cbbdb8bce7bcbebf7ba69a9a79aba87da9a
col47:   aaa77aaaa9d885ad8aabefe5acaa99ccdccb9abaddacbcaca8bb8abc998aafc8abdacd9b5889beda
col48:   ca79ccacdc8bb8bb8c9bb996dbc6bb8aaeccb8cadda8df999cbb9bbbbaf998b6ca9b9c9968aac898
col49:   5999a798c8aa9878abab87a9bdabfbe8cba89bbbbd9ae9597acb8b59a8dbaa699ab9ca8aaca8999a
col50:   6c8c99a8bbb9bb9ebbecebad98a9edafb8cbbb9ce9cccdfacb8fcbdcabd8cbbdda9e89a78c9d6a89
col51:   8a7959d56aaa78a879a789b89cba7c78daa96c6b597c8a98b98ea89a99b5bb95bb6a8888a745b997
ROC:	 BPix_BmO_SEC8_LYR4_LDR30F_MOD3_ROC14
col00:   35541652b5685397184568485765386493765554874a686466895564764659957474378151644171
col01:   3618959a765886866bb7766788828a7666a4a9796a9c29a419869a889a8659aa7684848224478574
col02:   7955d56856882a495b566658577584a56679566a664767777748a787885784648575778785542143
col03:   98679453667a7787596a4778736665897488987377438a884b787888765574487676466657273765
col04:   1a6a958548643598986757aaa8daaa46473886978cab9655766899769b8669c77964537a35562763
col05:   2483b32889443576575679747b778b798789a794d6a6a68c35466d6875746a267956a35575447756
col06:   4876435157561561a59a847778694559aa9a856798995a678686592796577636a466375568656666
col07:   781a533654b7379a986a94a3585896a4c97b898c996948aa8894939757895a9d67768aa437538574
col08:   47656557547887784766a889a5894b74ab9758788846791aa9ba978a55866a6a8875a89587758476
col09:   294856666855699698859596b97aa65a78a6a8796729771876b695548ab7694443a6466541296a64
col10:   8858854874c857c87257a6477757965487898877a5798549aa78939ca77515884573a65487843744
col11:   5648596791544556487869b6579a6769d869967799a759b9787675a5964666597345a87979785466
col12:   6656445625988724918689747d999958965759957937577589aa957b5aaaa8277889667673337823
col13:   7757787693667669b67b9c68793577a769a567685c79663a5689a789ac88647869d77a6677967767
col14:   869755597985784748a548a6b863bb59a479a6576578a8c579984a8aaab59c954619853268646977
col15:   96465687546765dab7a89876865b6ca6479589994a787465834b96496758a79b96a83468a6786863
col16:   7845864671756655a826c8799b4a6f68696d868b9ca558ab9a889959678d89988598597596494576
col17:   535665956449459a67457c799bb57aaa8c69a94556779864a8777699a458a978659346a955355246
col18:   77456146b854886998964879894a7838a88799a88858b88894968b7475ba85587698974525778935
col19:   aa2a636882bb886656667b3b788ba4689b7a69a58989a8ab99a74847996a88255883688956859355
col20:   459886568857b97664b799a79789b78c6977ac56946897b257897957762883988777567cc8458587
col21:   6885539776897aa698b79759bfb896669e859798366a7799a99d6583a4943378485457a968732643
col22:   574696734b952a777868856a968a8767a7898b97694579b768b64556697675845568677746886436
col23:   5557655a64946aa57545a98ada7676b5a559987aaa487983866c5976a788aa946838774548529876
col24:   1965877987455c4778588687247a789799659895c87a8393668a7987c68767ab8985488545865743
col25:   57b76697c9cc56a897476789978a68997a8ac6585a79b98a884797999a9d667959789579955667a7
col26:   988a988b89a8468978fcca988cd97b8a999c7a5a9ba88cadac58ac8699b8679986966a59a8789bb5
col27:   968789959a569959a99aa6876a8a67a8abb888a98786a88cbb7a889a8a8765aa9467c55a97469a28
col28:   96ab9997889b9c9b9a588b8aababab88ba9d5abbcabb89dd7a89886b8dc88ba6895b769979583697
col29:   988c645bb998ab89ebbd7bcabb69caa9b8a9e9be8b8aba9cb8baa7c9d99a9dbb8996797bd7896364
col30:   6776a969b7b9877ccbabba9ba9c97ca96aa98b87a8ec67baaaa98cc6aa759b6858887983a7686867
col31:   79a98b95ba8a4b6dbb9dc9cddb77be989f8bd7e9a8adacc5bbcaaa8dbabdb99b99ebb576bb77a894
col32:   48abbab69999abbba9ca968b96bba7ad8acae9b8a8cd9ccaa8b98b7b8784a97daccb8a9b78887754
col33:   6bba9ab4984979998acaaca899b8868b79c9bddd99b87bc9bc5bba97a5cd6c28a7997677b8697999
col34:   688b87a9acb9ba899abc89d87bc9bbadb7d9a989adcbb9b99aa878a99b4c7a77cba8a88eca5a9d89
col35:   97bcaa79ad88bdabbdc8c9ea9a8adab8aa8bacadad78da9c9a9aa76a4b69fab8a696e7bbb4cdcb7a
col36:   988b9ab898999a9a8cabdc5accccbb76bad5bbabdccdec8b9dd97abb9ab996b6bca999a885958559
col37:   5b779b68d8bc787abdc89cabdcad99bcc99dbadccada9ba6a8ba5fb9aabc8b989a85a7ec87689da4
col38:   7c899868697a8acdebd7fcf88a8bd9a9cb889adbcccf9bbc9eddb8bbab99cbcdbabbb9b8995a7a93
col39:   ea6ab98a8b6abcbcc9abbcb77eb79ed9ccecba9accbca9cbbbbdcbae6b9a8e9cca59978689acc689
col40:   999be9b98b79bb889aba9abdda9e89fd8fdcdaccdd99adca8cccabeca8d6fcac9aacbb78da97b87b
col41:   ddf7c9aaaa9c9d9b8baaaf9999b9d8effa9bbccb887dcadda76cbcddecafdc9fd6cd6d79b97cdcd4
col42:   bb79eb7c99a6b97cad8c9cc7bbbeba9a9cba8aaa9daaaa9daccc7e9a9cbbac9c8787695da7788995
col43:   a9bbab988ab99aaecf9ce9a9bdcbaadccbcc9adcaccdefccafcddbb9ecbbc9d8abbbbab99bcbc878
col44:   fbacacb98e8a5dca99dd9ebacaffb9acaecbe9adfbdbdaf9ccdc97aaacbad78acbacf6db8ab7b898
col45:   c9b7b6cdbe8b7da9a7c98eaeba6afacaf9ddbdebb7dff5bafbba8b9c99cb7db9da989aabbaba9cb7
col46:   9b8aa6df9e96ea98abb9b98b59e8dcc98bacea9aabdabcbe9c6a7a998ffb9fc8c7dc99d99da69fa7
col47:   7abaaabb8bdbecfc8cbcaadbacf7dfcccac9aeb9e9fbdacbfde7c9b9fabd8ccbd9ca77a8caebc696
col48:   b8da9c97b5dbbbcdbdcdcadabdaa9cd97ecb99ec79ef49dccfbadecc8dd8abcddcd898ac9dab9c99
col49:   ab9788abbd88aceccfadbbafaadaadbdebcefdfeccccccbfab9baaefd7ea8ba9cad97ab9b6bcab92
col50:   bdf8ba9dd9e9899b9c7c58a9fcccbaddc8ecdafcdaab9beccaec9afc8ba9adcd9df68c9b96cebc59
col51:   a798ab899db88a5899c6f56d77c4dbcabdb578a8bcbdbb7c77bd8bcb78bbc888985f98b696c88983
ROC:	 BPix_BmO_SEC8_LYR4_LDR30F_MOD3_ROC15
col00:   aacabbbbbbcbabaccaca9c9baab9dbdbcaadbdcbeacbbcecbbbbc9ccadca9cdebcbabba9a9aaab7a
col01:   9bce9dacdbbc9a9aadb9cecddd6ebabbdddedddeedcc9acaecbccb8ceabdadabaaaaad9bbcba8bba
col02:   9cadbcdba9a9ebaccbbabdacbbdcfbbddcbaecccecbbadbccdbcdccccccbdcbcbaadcacbbb9babbb
col03:   dab9ae9bbbcbbddbaccbaecfedccbdfcccbcbcbcbccbdaeabbcdbcccceccaccaaccebacb8ac9aceb
col04:   bbccadabdabbb9cbcdcbbbbcbcccbbecbdbcbccdbcbebcddcfcaacbecbdddbbcbbdcdbcbabcac7bd
col05:   dada9baeddcabacc9adabc9bcda9dddcabcbacdddbccdccbcbcdbcaadcbbdcccebbddcbdacbb9c9c
col06:   d9bbccbcddcbccbccddabbdcbbcccbcbcdbddccbdbcdcbbdebbcbdcddeecdbbcbbbc99dddd9bbad9
col07:   abbdeadebbbadbaccbdaccdab9bedcebcdccccbcbcc8ddccbc9dccc6cdedbaacdbccc9cdabc9ca9b
col08:   9aaabacccbabbdccdeebecbcccddacdcbcecdedbdbcdebcbbccabadcab9ddaaabbadbbbccbcbc99a
col09:   bbbdb9cadabbddbadcdeecabadddcddcacdbbccda9afeabedcbbccacdcedbebbbcbeaaaecbbabda9
col10:   bb9cbcabcadacdbdeb9cbbdbccadbbdccbccbbcdbcbddbcadbecccbcccddbcbbdb9bbbbcabbbbbac
col11:   9cacacccdbabcd9ebbacbdccbccbbcdccacdcbbbbcccbee9cbdcccbaeddaacccb8dbdaab9cb9bcdb
col12:   bcaad9cbccacccdebcbddbdbbab9dabdeaeebcecbbdbb9dacccdbcdcddbeccdbcbbbdcbbcbbca8b9
col13:   caa8ccdcdbcbabb9adabdbbbbebbcdddcdbeddbceebfccbbddbdadcdddcdccbcedaabebabcbca9bc
col14:   accbaaacbcaacba9cdbabcecccbba6fcbdeeacfcbadacbbbdbbabaebceadcbadcdbcbcbd9ab9cca8
col15:   b9bbbccaaab9acdcbbbdebccbbbddccedcccdccdbcbecabccdbcbbddaddbdfeecaaacbbba98babdd
col16:   baacaabcbcdaecdcc9db9cdbbddcbbdeeeddddbccbcbccddfdcbcdccbeddac9bdadcaadccccbcaca
col17:   bbbdcabeabba8cc9c8bbccbbcdebcbcdacccad9ccbebacddfbbbcadbbbbecd9bdca8cabbada9cdab
col18:   bb8cceadcbaeccd9cbabddcaddcd9dcdb9c9efccadbdbcaac5aeafbbcbccdd9bccfbdddcb9ca9dca
col19:   baaa9abcbaca9bebdcbbccccdadbdcacecbbadacaebdcadbdceccdcedcbbcbadabacdda8edaccdcb
col20:   ca9bcdb9b9aaabbb9daddcbdccbbcbcaecad9cebdecdbbdbedcadbcbdecbcbdcbddbaad98ab7bcc8
col21:   b7cbca9bcecabdccdcccdbcbcedceeddcdcecbcacccdcbccddbbbaecdbcccbcddbccb9acabadaccc
col22:   b9ebbabbbcdabcddccaccbbabccdbcbdbcfbcbcbacdcebccdcccccadacbcc9bbbdbcbbcbbdab9a9c
col23:   abba9a9cbabc8bcb9ccbdbfdcacbdccbcdeccdccccecccdabdcdcdabdb9bbcdcbbacdbccbdc9cdca
col24:   9cbbaabbdadcbecebcbdccccacddbdbececcbcdbcbacbdbcbccbdaaddcecaaecbdcbcdacdbbad9b9
col25:   bebbccdabccaacbadbcac9abdcd9acadeeebadeedbddcdcacbdcecdadecbecd9ebbbddcb8bbbca9c
col26:   fcbdddcdabbcccbcddbbecceddbdefeddbeecdddccdbfececedecdddecdcdcdddcfdbdcccbebaaee
col27:   cdeaebbdc8bdbccddbbbccbcdcfcdddfecdeecdddcedbdededffcdeeade9aedebbccbebecbdbdcd9
col28:   cabcdbcdebcabdbcebfddcdddeaeedcfdcfcddfcbdecdbbedfcedddcdccdeccccdcdbedbfdeddbcc
col29:   dbcdabdbcbdecbafddccdecfceebfedddbcbdbccdddcfecfcecdcbcaeeecccdddebdcccde9bdbccd
col30:   c9aebdbbbcdcbadeddfdddcddafeedceceeeedddbdcddcddecdeceafddeceedecd9cbecbdcdcbbdb
col31:   ccddccdcdbfdcecdecdbdfeecfcfcfddfddcdeedbbeedfbceddbdefcbeddeceefeecddacbbccddac
col32:   dcdbaccbdddceefbfbedfdedeeddedaecfecefbceeddfdccebdeedcdcedecdccddbcebdcdbb8cddc
col33:   dcddfcecddcdcbbcaceddeccefccedec9ddbdbfbfccededfecfbcccedcedfdfeddedfcdecdcccbeb
col34:   ddccecccffbbddeecddcdccffdbefdedbfdeedfbfcacddddffdeeddbddcdebdecccedbdddbec8ddb
col35:   cbccbddcbddcddcbfddcddddceeccedcefdecffdfbdcedfedcdedfdcdedceddcb7dddbdebcfbdeae
col36:   ddedccdddcdccedcbddfbddecddccbdeffedddfedccdeddeeefcfebef9fdddcfedebddbbacccacbc
col37:   dececdebcccbcddb6efcecefdefdccefcfcefedbfedcceedddbfddefcccebeddadecdbcc9ddeccc9
col38:   cddfdbdddddedcedecfdddedefeeededceecfdeccefdcfededd6fdcedfdecddddcdeeececddddcbc
col39:   dcdfddededeeeffddefeccddcecfedeeebedcefccdecdde7dddfdfeceee7ddeedcdceeecdcdeddac
col40:   dddecbedddefecfeedeedeaddfeffceeffeddeefddeeefcaeccfbceefefedfdbfdbccddfdcbddfed
col41:   ccddedfdfbbdddeedcdccddecbeecedcedcfbdcceec6bedcffeddcfebcfcefedeebcddfedfcceccc
col42:   eddddacbcccddbdcfedafdcdccdeecdedefdfeddfeeddddffffdeeccfcebdfcdcbedfeadddecbcca
col43:   eedccceedcddcdeeceefdbccdddbddeedfededff7eddeeeccedddfcefdcccdedcccfbcafcadecdcd
col44:   dddeedfdbfcefeeeccdedfdebdccefddeddddfefecdfddecfdfdffbdcfbbcfbbcbcdfdcdecccbdde
col45:   ecdfddcbcdcdccfdeddadcadccbeddfdcfedcfdecfefdfedcceeedcdeefdddfcccdfdbddcadedffb
col46:   cddceddbecddcdddcdbbecebfeeefedfedefddcddfecffcffcdefedddccedfcbdddcfeccdcdcecda
col47:   fedcecee9dffcfdbbedfdcdecdfcfffaffeeeedddecdedcdeeefebedefedfdcbffedebeefefdccbc
col48:   edccfcccdeddfececddeddddeeefccfedefeebcfcddecfbcdcfecefecefbccbfedccdeedbbeddabe
col49:   cebfefccddffaceeeecdfdfddcfddbdadeccfedeeffcdcfefcdebcffbeedaddcecdcedddbeeddbcb
col50:   cebddcfddceeeefcddeeddcccfefdeffeeeceedcedd6edcdbedefdedebbfedceeddedcceeecfecdc
col51:   bdddeccccdcccedfbcebfdcdddbbbdedddfccddcdbcccfecfedbbcbcdebcceeadccdccccadbacbcb
