ROC:	 BPix_BpO_SEC2_LYR4_LDR8F_MOD4_ROC0
col00:   6485696478888567c866659558778788a889b9b8a9a7c644ab9ac9c979ba5997ac8775c9b8da7968
col01:   8695bb798a7a7d6ba78b896c979add99899bd899aa9bcba7b99cbc7a98aaaadbadb694beedacdca7
col02:   57a83b8679897676bb99a7b79c9ad79aa9699aaa9de99b76aaaac6bab669aafce9a8c989998bcb8e
col03:   a6a337a5b989697a79bb97999bccc9dbad8ca5afe7c94cd9cf885aad58b7bca87a8a7de8bb9ad8b6
col04:   a969b878b868b5bc88a88b87a799759abbab59ccd7499d9a9be7abba96979bf9eb7eaab959a8cd87
col05:   765866855b3866a68dd8abbc67bc8aab978bad9da7c7bb9abbacabca9b6dcd6ae9fab9ae7cbe8bdc
col06:   88558949baa599a8bc88baeada498db6bec79edac79a99cd8899adb7bb9acadabdbc9859b8bac9ca
col07:   9c77b9678898ad788baa99e9a879ccdcde97cb9dcc88b69b6cbb9fc777cba9999abaa9bda9e79aab
col08:   566757859b4a9a988aa9cadb7ac66669d7ca9bbacb7a9aa69aaca9e5ac77acb59abac98ada798cfc
col09:   85a65555b778579c758a75c8aa9a86a5c8c7dbbb6bafa7ba7abb7ab9cdabbc98aad9bdadc8bbbdbe
col10:   5b9855ac86c9a99a9c8a9ac87a799ba88b8d89aabc8dcc9c7cdadc9b98acdecd89aba577b5bdd9a9
col11:   66585375b795966b897f6ba8ab9c95b78b96fa968bfb8bab48ada9a3a9afb89cc9b7a9964669dbb6
col12:   675496a9a7a77d7898b4c8c9ca9b9c79bbebd6888d96a9f89e958acb9aabb8b7bc8dc886c89b9c48
col13:   7887439496675997597caaac88aae6987aa99aa9bacb6ab985b9adc99b8cb9abbabdb9c9ba898beb
col14:   16764697a758879dc974899ac9abc48a8cadaa79a88598ab99788999bc9ac9b796cb699aaa89a8da
col15:   68546a9479457c8a759a96bbaa688a96ab9cdcfa9aa8caf2ba7aaab99bdb69c99babfb7c99aaca7c
col16:   76547a66a88a88b7f78a57a5ab8c7a8c86899ae99dcad87c487a7aac87cb98a7ab899799cb8aa9b8
col17:   736484983ca3686b7c4ba9589884e5bc88699999ba5a7ba88b6acaabc589c86ad9989aaa49a6db8a
col18:   7a64b3865667c966c3578757a77b7bc9dc78ac9bc7bd75b8aa8cabca96d8ab8b8acb7a599789977a
col19:   768599793c9589849872998cb89b986ca8ab9a9a4bac99a7a866baa8894cc9d8baaf988e858bf7ba
col20:   35975856988a7b88bbab7888b697c979a77c58a7ab99ccc89aa98d766766a9cb559cdbd9cbd9a9d9
col21:   7574967495a59885ca88b7988b8b78757949b88c5bdc58b9763b7aa8bc9db7ecbba8aacd9b9c9ab7
col22:   55868a73866a9d47a84967858ba9a89899caaadb9a87bed979a7b89b8999f8b8a8989dbac8ce8bb8
col23:   7876a467482685b39779a8b9b9c4b8b7c6ac79b779b9a89b9a6aa67fbbbebb7998787dc78969d57a
col24:   87568468697874a777ab765b9a688987ee8bbd78ac999779bbd78bafdac7bacdd879cbba9ac7daca
col25:   3977995798599895869776a98aacbebab9989bbcad7a8b7bc999798ad9ac7a8a8c8b6898ad8aabbb
col26:   47a966798986b7a99aa87cebda69b8c6cdb9eaa9d97a9cdecbbcacb9ff9dbaeb99dbdeb8dbcaaad9
col27:   b6ba947aa4889aa9d9a9aa89b79cdbb8a8bba988cb8cf8bfd8e8d9bdcbcd9cdcab7acabac8bdd6cc
col28:   b5897abdac88bb98afbab99bbcadcd8babb8ac9bad98bba89ea9cafc96a9f8a9a9ccf9c9ecaab9d7
col29:   64b5c676b98acc87cbdd98ca3c9868cc9abcbbcab8accfa8cac9dea8e6a8e9abe9c8db79889cb8a8
col30:   a34647c9acaa6e7b76cd9eb9adbbdbbc7ccabdbccb9dddcab98aa796f9cfabec4a9dddbf8abcdac5
col31:   8798ab87b7ab9aebcbc8ab8ca8bbaefbf9b9b8fb9badcd68dae8de8b9bcbdadacded9dbc9dcdd7ad
col32:   96da5bb8c87bbbea68bdb9eaaacbf9aaece998dacbc9ce9b9babde9edbe9dbcb9cd798bea78bd9cc
col33:   b49899b6bcad89a99babcadcb7dca9cc99bbeae8c9acccb998eff9edfabfabbebfdcad9ceffdccf8
col34:   8c8d7aa9fa87b777aaabaacbacbfcd9c9cffbddc9c9b89c7fbdcccedccdcb9db99ab5ebccbffddac
col35:   79ab96b6beba998a9acdaf8bc8ddc9eab9b9ab9daf9ceadda9edc8badced69ff98aafb7cecdbbbc9
col36:   acb999ca9ab1a8c9ddbc9cbac8ebacca6be8acca9bdfd9deb8ec8c9fbefeabbadcefbde89cdefbfc
col37:   b3a78a9abc678c9aa9acbecabef66abbfddbadeacecdbebc7cdaacccdfcfe89dbbbcddcadcdec8bb
col38:   a978bac77b9addaaeb87abdabeced9dbddb89eccfdc9d9cabfb6ddabaccbbbcbbadbffabafb6acec
col39:   883aa959bb98a9bbdbcfd99aac99cf99bbecbcdfccafeefb99b9addaedcbdcdaacdbdb7ddbfadfba
col40:   84978a7a97e9aaba6eab9cbccceedf7accfbbdd89bacdca8b7cbbcfbd9fb9ac8cfbf89cbdbfeebfb
col41:   9777ba6a79779a97dadeab7bacdcb9dcdddbc9d8bbee7bd9bcc9feedcdcfbdcdcadfdaaacdbbfbbe
col42:   d3a874b867c83abae8bec9b8bbabbbadfe6ddabcb9cddc89fafdacfdb7cdcdc7cabcabbfe9aeedda
col43:   bbaa8c9af5b9b65eaa98b8cca99e8ffde8bbc9dfcdcefcbfdddd99dedacdacfee9dfdddca7effdcd
col44:   a9b9a7887798add9bfdac9f9989aacbcaedbbd8efc89cbfefc9aa9bcacafffaaacccbbcbbbb9c9ef
col45:   caa76b8a9a7d6add97aabadcae9df99c7bee9fa8de9dbfcda9dec9eabcf7ebefebdcd8beb99eadfe
col46:   97c996979aab79c9da785c986c99cbeacbcedcacdfbbbddfecd8f9cfc9cebdeceb9dbcfccc9dcebe
col47:   5a79a9b8a8b8b579dad9bebcdce8dbf8ddddebc9b9edddb9befefabbbfb99cafb8b9bfe7ccd9cccd
col48:   978aa5c89bb7979acab9de89aadbaec7bbaccdfcbd98cfd7fddb89cdaddcdabf9c9fdb8bbae8baba
col49:   98a6c78adcb88baaa9cabdc7cdaddaecb8adeab8eab68cecfad98cf9ebd9bbbccbebcdfcdecec9df
col50:   88a8c85969d8daccabbc7fabcbcdeaba9a9956b89accacdbdbbdcddbcfeceec9e8bd8acbcefbe7fc
col51:   75b7856c896778aa66a87589cdadabbc9b989e7bf89aa8b6abad8b77e8aa75dcf6a86dbb9bf8b9c9
ROC:	 BPix_BpO_SEC2_LYR4_LDR8F_MOD4_ROC1
col00:   46715543674665356667568581445693a656468768964a5987555a7968cb94867896586978689969
col01:   6765587885798767655957978688694998ab68c898a7789977968885b9798777aaa788a9985b6997
col02:   4564586558867a56569b596776aa875868b8a88598758446469aa9aaa87baa9a77a757545a78a766
col03:   6757497674754675557895b897a5b867675557a76c865ca968a7aa86a49a7c77797b5757a784bb77
col04:   626774699b9a54759986a96568c9ab798a7ba7dd6a867987c9aaa8678a978fa86799779aa5a658a7
col05:   366184a45237636689777898967a85c88978578479aa969a796757a6997589969aa879d875a8a96a
col06:   55795658866762976758836968797aa867a89689687aa668879679987996aa7878c6987586988a95
col07:   772367779266767676d7798879a89757ba8967ba8b9876597b99cb9c7a897858986799899597696a
col08:   466666556665836986669a77b9dba88869789887aa8a9a759ea9a8a989dca756c77a88aeba959876
col09:   55418554378856973e8896989b8c566a89a697888b988879ab88aa77ab99698b5c7a796b88a599a9
col10:   9686745775977767656287ba956b866c8877a869c87a896ca9aa689a697687787758a798a84a8787
col11:   8547647768276a75856a66a56b8687a5b77ab8879b8a99a9a9dca99b69a7999a896ab9a669a6855b
col12:   4863a7a55766879769647767977798b79787a978896987b99b98787b6b8867a888b6988888895966
col13:   5614b7a796746958b8a8696476b49ba7868779a9accb7b7a7a9cb7ac87a9a376d96a798789868aa9
col14:   9657776746649a56a7689b89abb7a88678599c8599ca9898b998ac889ab9845798ab6b67b7ac997a
col15:   78174757a6a48a676964976ba7989a99aa8677b7a78596c879ac98989aab88b98a9abaaa98795687
col16:   87437465977889958a68599868895698777c99a98a7a988ca97978999a867bbc89a7898c986ca78a
col17:   237a84755736957953838a8888b9858aba8979a98959a8d9ab66668779a77a8a99c6a9967b8b8868
col18:   5178757844864b8568bb79594689977e86a675ab69999a86a96997778b6659a778a5a899a836ad65
col19:   654486668a76a66985b996b8c849ba68a7895b5c96db8aa8bca9b7a89a869aba77a969579a586796
col20:   32697652865499968974b8b6786887b789aaa99a8866986c8b6c67a988acb9dba888b9b576878b9c
col21:   15565977858654778a676789687c8869789c96895c988676bb7a89a8bba58777a6879ab7879bb997
col22:   59667797775a7776aabb6a9b696767baba77b78aa9a78b896a95ba78899aa9a9c69b8c99569ab99a
col23:   7767384678577737ba6a557a867996969666778697758aa76786a6aba87868766579878b9a7a9aa9
col24:   48575657478a9797796b66777978699667989889ba8c888c587a6997b897a984658888b77b7a9a67
col25:   467a546a838977bba7887ba778676899589b9889d656e7657956b9b9888bbaa96a95a59869a986a6
col26:   5766467556a568a97867b6a8ab9988b6aa788ab889a9bdca9ebba9cb9aaac98b7fbbc9769997cac8
col27:   657969738697774b798789b78b88b8b6abc9ac98988ba988a99879489aa69d9b8b98cbaaba5d98a6
col28:   7578787467895a697999abab7a9a9aa7c6b86caab8dc9cddc8cbcaa8b89d979b896ae89abac8d9fb
col29:   35589878a89797da8a889bcd7b8cba6db7a985a7769aa8ba99fd7998cb98dabba89cba9a99d99a99
col30:   88555c7998a7b76a87b6799aa8cca7caaaaca9edbc69c9a8b8bbce69bbaabd998788bc9bbaabecc6
col31:   75696a789888b7ad989bd9ba79aabc6c9bbbea9b9999bb8cbabbbafcbac8a8d9aadbd77ab8ba8ca6
col32:   66864775a788b9babb89a5abbc99d28aaabc8b9ab89c8b89bdab9ca9d9c8c9f9aba9ac8dbaadbaaa
col33:   788b878687a8aa859b8baab67b9cba789baab89a67abba999ca9aacbcb979dbfccbcc99a798dbcb8
col34:   a7997ab9b56bb989abc8bbab9bc7bc9a7aba599aa9db9ad9ac8bc9cccadbe9b7adeab9daabad68a8
col35:   845997a798bbb9cba7b8e98cb9cd8acd8dbbbabcdbbcc8ccadac9d8bd9abbc89cbbaa9cbaed7b8cc
col36:   8879a8764799a778bcabb8aaacbd8ba9aaab7adcdd9bfa9bbcaca8c99c9ca8d97a9ccaa8c8caeaa8
col37:   6896a8a8bba9b9ccc977a6b68dc9ab8da8bacbcdebaa8dd9aa8abbbabbda89b9bacbaccdabba9bb9
col38:   55998a7ca7999cb9a68a8b9acc9c7abba8aeaaa8aeace8a9aaea9ecdc9becb89badddae9bcbbaaa7
col39:   89886679a96bc7bbc789aa5dbe8bcba9dcd9a8b88bcaadab9a9db97bc988bbca9baab9ab8abfaba5
col40:   8996799879ca988a9adaaadaabbcdebec9abecbcacd8998da9adc7c9eabb9ccb99d7e7ccacaad7aa
col41:   8b79b78985e7c89b78b9cbc98c59bc8dacbbc97aebabbcabab9dabbbcbacdbba6db9cedabbabc9e8
col42:   9585da7848ab9949aabbcba98ab997cbbbac899ab9dad8d8e7aa8ccca8bc99cbbcebbb9a7c9ba7ad
col43:   866769b6da8a8a88db8bb99abb9addbb8abb98a7aefb8bbcedbbbdc9aadaabccccddbbdbaadaa9c9
col44:   486a6dba9b89bbb99a7fbdb8a9cbcecebccceb9a99ccda9bb98beaecbbbdbecc8bdbc8abbdccbfba
col45:   a8bb8a7989667c9cb98a9b9b8ce8a7c99baaacdbca9b98dacbbccedbbcdba8ddaaabacbaaaa6acb9
col46:   5c897a8b9b99d589cd99dcddabcc8dbd9b9acbceadbc898aec7dcdccceeccbbdb9ea9b8cbeac9dce
col47:   85a77989c9b7c99a8abbabbadaaacab9bc9d9daac99aaebdcaca99cd97cbcdcdbcda9bfacbabcbb9
col48:   99a4a89acaa87ac8edad9dcaacfa8bbbd88e99ccabca97b8a9cccdcbd7bcdb9efccea8aa8d9cace9
col49:   a857ccacb97accbc8aadbcbebacbccc9cc8cbaacedcedb79be8bada9acda8df9d8d9eb8dcbccaaa8
col50:   baa8aa9a99a8677baaa8c9a9da99bc799baaaacbc9ecaaa8cbaaeaecdadbbed7dceabdabbbda9cda
col51:   28469a68b77b77cbba7cca7b8ca9b5acb98c7bb989cabb9a899ad998888b9a6b8caabbbcbbdbab7c
ROC:	 BPix_BpO_SEC2_LYR4_LDR8F_MOD4_ROC2
col00:   244557436735697847178da887798688a96791576c4886145a6a7827787563887784b7a66a558368
col01:   55558665a97796799688676bb86d764979879caa58949ac8d798999a78b8994b65e758da969a58fa
col02:   6486969b4958666aaa939ac9c67b78788978748aa989b88a8ac734a858976985b99a8868677857a6
col03:   1897a4886a789c6796468bb687b9bcad67887774b8ca46bb9c6aa868aa98595b77d95a5a99b7da87
col04:   5a326689658588999a898bba6b7bcd67c9a9ab688a8ba6686acc978876a88a67b9ac7759877486aa
col05:   7573667966a88377aa42a769847b9b9ae878496d7c989b8bb79c9bdaca94aa97b86adaa398658968
col06:   75949486a897b9767b7987e97bbb79797b7b67b98cb58d7b87b9856b8956c7a7c6828897aa97876b
col07:   a51773536786b7788871c8abbba89ba599a7639b5b67b9896b7888a9778b7eb588789586eba69797
col08:   65658896a6465c6baaaa6ac6a8b777badba98baac57988bbb977aa8777b997a89bc887855a69876a
col09:   67a67545757688e957a7956bac67a679397cb988b88babac874899e9c883cbad7996d785699aba19
col10:   92748776c794867979688a679b96adcaa9ab987aa679a96b8aa97779a8698678998bba559aa785b4
col11:   98288697754a66753d66348899a88e99a9aac69767ab9bbdaaa97a698278897686884795bba6a786
col12:   597987458a8a9736b68bc9868a897749db8b995967a97ba79899e687599c5cacc9cb97c6ac779686
col13:   253689936988a85687a6397b8795c97cb9665a949886aca7c796dcbb79b6aac5c6b8a8c8745a7468
col14:   3638758999ab497788bd9b9968ac9597ba59bc9adccabc8a8b87b85a878cc97684bb8ba774b88c99
col15:   65784488387559a7789875697ab85a8577ba8b9aaa9ab69aa99bad7a83b8b9bb57ba6bb5a667999a
col16:   8765b5998a9a889ba9d46d88ba87a69989b8c6caea9a97aea76857993baa73687c6989ea98b78796
col17:   8587c5969dc7996799587b764886d8a7a87aab56b6a879b7c697a6acb48da85a9989b55b8a8c7975
col18:   b27755a48a98877678a445a7b7949718daa989b86888a69ca7979997b6679877596687e967a4976a
col19:   8968a669994946b848867a87ac48ead989b998a6c98a9768bbb88ba9ad8ec744996b78688b859898
col20:   1532655c684a77579887978bc97a8969873573c7abaaaa8b9b7a9a9a959486c757b78775674aa466
col21:   583856493843944758b77493c9a97876889a7b9965799b67a8877b89779aa865679798886a477774
col22:   384864778c4aa73a6565bb8b8ba8b89b6989aa8a364caacb9589979bcc58a58a7a8789599c89b5a9
col23:   8977668888227a75559796a776a988947a95a868c8aae3a9a87746885977ea877ab996b969667879
col24:   66558795589625aa9877a8ca69a99ccdab89da96bada797788596da9796a897b96994b99496868b6
col25:   86795766b75886bb7378c885a7aa77a8ba778a58b779c6ec9c66d987a88888b8aa48c8ad77caa6a7
col26:   549573778ccab89aa8dabd88aababceba79c4cbb9eab6ca8989b7a79d67dbbb67888aa9cc48b699a
col27:   a676548a687378c6597989a9b9bb79b6cab9be9fb89b6c97aca7567bacaaa8b797cd9ab97a899b7a
col28:   55a87a99aaa585b786b6ba897a8cd9cab5de9a9bd686aedb5999a777c69b87dbeab6c89cb579c798
col29:   988697a87db79a95cc6aad7aa997a99ab9ec89bc8dab99bedababdb8a87996c879cabda5cca8cac7
col30:   998875ba9a9da9bca6c87998664cbc9aa89888c95fc8dcacab6cbc79cab9cc78c89cbaaa8984acba
col31:   99699bc99b7b89bb99b9aadb88dba7b89dada5e8cbc9ad9ada9adaacc6ecca8dbdaa8a9caadcbcc4
col32:   7797baab99a6d79bd6aa8bf77dfbdcda88f997a9aadcb8d9d8b98aabc9acc8a9dbc88bfbcaa9dcc8
col33:   767799778b88a97b79b9c9bdbbe9bbaa799cbaacb5ea9edb7caa8d8c9d8ecfbbacabc9da77a8dabb
col34:   78daa695adab6a9bcb98d9bae8abbbec9accfaddf99affadabc874fbaaaaecee98aa9aeebbdbfbb3
col35:   8a796a9bb77ec779bcbcb8ecddfdabc7dddcbceecccbebc989ca8b89fbbcbaf97dab68ab77aaaaea
col36:   a96899a8c9aaaaabb897acbbe8bcede9a8ccbbaad9bfababcadc9aa9bba889bbadb9899ba99976aa
col37:   a87a7bc89b7ca87aaa8b9e9aca99bbcb9badccdeccbb6d79bbaabccdec9cb6abaad6e8cb8dbbd98c
col38:   a7b98b888ba8acabaedcca98badcb99ce7abcadcdaebccccbecb68dbaafaad9eb867beba8ddbadd9
col39:   677487487dadabfbecb9bbcbda9a7dfabcadeb8ea6b7bcca7a7e98cb6cbbab66cb8cc6a6bc9bae98
col40:   d8596abdbdc8aba889dffdcbb8abf9caacedadba9aeca9caafba6d7cbcbcdaabb98bbccaebbdac8b
col41:   76b9bbb989ebabad76aadaaeb9dcedd9dadfaac8aafd9befa8accdbc9bbbb8c8dbbc9fcfdabafc9b
col42:   99c8b5da95bba68bbc9f8dc9aabfbbedcdca7b599cdfbecbabeba8a9cccddbdad7a8ffbccbebdfc9
col43:   87bad8bab98788aade9acdfeba9debacdebaacbddceeadbe7cabadfdfcdbccbeadde6ebb8a98cd8c
col44:   a9a8bacd79baaa9bcefcafbadacbc9da7ecaccacdfabbfcecbefadbbedafbaeac8bdbbceadcbbe67
col45:   469897a49d8ac89ce9ddccbabacbbdfcdabed8cadedcafced9cfa98bc7cfa8cadcbccdbcba9aba8a
col46:   9d7bc5bc898b9ac8cdda9bdcf9bbcaed7eda9bcfbefcad877abcbdeabcbd9badbd9ab878caccbc7c
col47:   a797a5787bb9ccad96ebaac8bbbe958cbecabb9fdddca8edebedcdffdc8ccc9f8cc8bb9e9bcda7ff
col48:   a8c9989baaa78bdbc7bbc9b9dbe9adebffcccca8efedcdcedfbfbcbb9a9cb8fffadeabcdb7d8d8fc
col49:   b698adccb8c99a8abdeab9cfbc8b9ce99feb9ebadaccdfbefbdee9bdeabbbb7bb9d9cdbcdd89bbdc
col50:   bd97998dcaaba6cceaca9fa78fdced89dddd9cecacddcbca9defeafcddeeec8eacc9e7acbb8dfe97
col51:   87b69c78a99a7859a8abb6a7cc98ba7a8b8ba8b9698b9a799b77ab9aba6ccb9a7cca7cad9bb94dba
ROC:	 BPix_BpO_SEC2_LYR4_LDR8F_MOD4_ROC3
col00:   85475656c64489597a8db99b85ad6a99ab86946c89b8a97b67989878b95c8abba6898c86cd77a958
col01:   97a642a7b77a9659996d55799cc8dbb59faac99cad9a79d8cab9a9bb8ccacdc98bad85989aa989ca
col02:   9c67547617a98a96886ae8a76b7aebbab969c97aaa898aa98758e7b88a89a6899bbca6a8bcaac7bb
col03:   959b797a7477458797789c88a86dfbb98bbabdbd87b6bc988a8ac8babdaa7b98b7d6ba89aac99b88
col04:   4466a69987789879c8ab89887a9b779ccba6d79dd9bbbc8e8d7cc98bab95b7bbab7779aa7bc8cab8
col05:   78846885aa7a9875d69e6689789bd9c49f8b989a898aac8cc76885b6b8cea7ae78ada9abab9aace9
col06:   a5a936aa88a9c9bb7ea89caccaa9dbbbdb8acacd77a877ab9cbcaac5ebb98cdc9989bbc979bac89e
col07:   8899377758387967b987dab689b9e999ba898bbbbcba98eba7c798da78ac99c79bab8aaa8bc6bbc3
col08:   4377865867c975989687b7cda59aaca79ba88a8787b896b896db9789d96d7bd87b86b7c87b96a978
col09:   b8c77877a8b6c87ca7966868baaa8b9c7aa8abd8c87a887788b7ca687ccbcb788cc8c6cdcba8b68b
col10:   676ba97657747aa68b9bbab6aadc97b9cb98bb7b868a7d9cd7bbdb98bb995999869dcca7a9ac7cc6
col11:   a63567a5678583b66a999bb795d798999dba4ac77ba9ba6d999cb9a7baabab38cc96786b9977c999
col12:   9641a777759966366957b78cb7c787689598b889caa897aa8a965abb7bbabc9c8ca8a9c97c7aa8ca
col13:   1616a68c6a77487bc78a867b9a89d8a6ac879b7b9aaac888c88bb8aecbbb9c78a7aa779a7b59d9a4
col14:   65426d67c698866ba758daacb79789c8b799bdadc8c9b9b78cb7b8397b986788a6488bb6bb8ab88a
col15:   9858796a9a6845589697a6957bcbb784aa9c996d6ab9ca9aeb87a98699a7cb79aa96c6ec6b89da78
col16:   4473a7b865578661476a9abcbba58cba8a89aa9eea9a7aa7e899d987a9fa9dc7cab75a988a5a7878
col17:   536b35518498579d8767a7795a78d969b7a8a38c979cbb7db664777bba7785a899b968d8377867a8
col18:   61652b5573744aa76995a8a89b7bcb98a7cab89876cbc999ba66c69799aa948dc8aab8c849b77777
col19:   66883484a8789654c8e8c897a8ca9299649c9ab9a8bbba77aba9b97dc59dcad999d88c88b796a6a9
col20:   8579486897586769878d7ea69a9cc85a97676998baa9789985f799b679588a89657b78999b8876b7
col21:   885625a798878b3978b979989aa86a8bdaab89aa8ba8d8c85a87c888b968aaaba8aa499a899886a7
col22:   3865799658786564ca67da75ba87b8cac879477cabbac8769ca897988db976a6aa9a86869a868937
col23:   27775756ba8874589788586ab998a7964ba568bb79cb7798a67899ab775c84b887578a5697876389
col24:   3747558aa889838668785a983ab6a967bbb9baac73d79ba5b9aba998b6577dd588687d865337a899
col25:   3759b75568756998a85c589a99d9897a998ab6884b99c988b799ac66b9957d77dba4babb87587b94
col26:   b6987a788a739ba99da8bba9cd9aabc8d97b6c8ab78aaa9bdd9ba6b9b8a7a8a687bd99daa9baaba8
col27:   a59498c6c97866a796a8ba8a7a99d699cc76b7cef8caa9acbbb9cdb9bbb9acad98bcaae9a7fce7b7
col28:   7389a94b99679c79aab9dbbb98cca9bc9ada9cbdbabcf5ac8775ba8ae8b9b7cbebbb89b63cbbecb9
col29:   957697ab7798c8bc7b87397a89adcaa69c9cc8edbaaedbbab7aefbac9bace5a7b87b8789a79cfc9a
col30:   8ba8a96669d6a8ba96896bbc7ccfd58bda86eb6bcbbb99877aa9cad789dbaa99bc86bcb7b99a9abb
col31:   6654c663977aabb88c8dd6bba9cabbdccbcabebb897acddaabcbbb7ca9ad9c9cb885ad96da99b9b9
col32:   68b7a78b7ba497ab8b9a9b696b9c97b996a77bddfdca8adb86dcac9bc9aaba8eaccb79cdb77bfcc7
col33:   789a869baac7b79c86a78cfad9ccb9b8ccab999aabebcdafcc8a7c9cbaab976be8c8a9bbca6ecd9c
col34:   a6c786c985b6b99879dab9a79bcaabbdddbbb7dccbddcadaec7dbdcaa9c9bad779dabbaa98ddd899
col35:   8c79b97aaaa96d99aacaca7c7abcc88aaca99d8daa75ddcafbbbb97aee9baae6a8aa8acb5999b7ab
col36:   9ca7ba9a57a6c8ac7aa7bbbaa98ad87cbacbda99a98aa9ecdbeccb9b98e8b7abc8c8ba88bbad7ac6
col37:   65876b9795878a6bb778dcbc4c9abadbccabccdb8cccbdcfbdc9ecabacbdaacbd97b9cc96fb8bb95
col38:   866ac5867a777aa6b98bbacabdbeaa9b8aacc6febbae98da9fedc8ca9b69badcdd99f9ebddb8bdca
col39:   8d85b968b7887dba4b6cacadbbbccaca99abcbe9bcdaab79babd88bacbabaab88c69bd8eb9d8a9b9
col40:   787998996a6da8aebbbbcbaba99b9acedacb9c89e9bffcbdcfc99bbbd8acbb9bb988e78bbbaca9ca
col41:   657a89b757aa8d59559897c96ca6abbbd9dbab9cdbcefc8fda8bdccad99ab8cbb77aa89a8b58ba7c
col42:   b5a45ac8aa9a6bbfa798acbababa877dcbebca9a68799bb899bebca889d9cdeba9a9dccb8cb47b8c
col43:   8645ba8b869c8eababddb9dbdcb9ecbcab9ac77ccb78baddcc7bd8fbae86bd9db98a778bdb9ba7a8
col44:   9999c9aa6887cbb98c97b999c99c8bfd8cdcdebc8a878bdb98cdcaacadbe9c99ca8a9bb8aabac969
col45:   797b5a8977ab8aaa898b9b8b99c957cbcaadccbebc96db9ca7bb99cea7bd89b89adecb8bca7ccb78
col46:   6366ba6689bda988d6a9bbeebdaaa6ebbcea8bddd5cab9c8cdbbacafc88fe7998969d9bc5accc989
col47:   8999899297898867cc99769cbdda8ba7baabb9a99bdbb9ba8b8c7eba89ccdccad8c989c9ade897ab
col48:   847a6c97897a997b79b9a9b69c98dcedb8bb9fd57acabedc8bbcebbca9a96a9a599eba76ba9a98a8
col49:   768879caa79d8aa99ad7d988bc6ad86c98b8aadccd9c7aa8b9bac9ebc88ab99af77a9adebcadbb8a
col50:   baa66d99bce6d99a5a8eaeffddaeb7acceb9bbdacb9ecbada9db9d96a8efeeaecb9acc9799add8a7
col51:   557584aa587da5946977a689a8d6c79aa7ac88869d55c9a7a999998bb8cb8ac9875a876a99a88b69
ROC:	 BPix_BpO_SEC2_LYR4_LDR8F_MOD4_ROC4
col00:   814455753461717387519247579454536673b4726779467349566662a96559827575992796426813
col01:   a5768a734511d559848b77567b5757178b77e856b38676d7691988958a74775b652879597c69667a
col02:   67914a459877588c674938645ab6b6b4a9a99756469796946579767864c48b964a6498a947bb4998
col03:   829217574247a6447a8539768839b67c59768ac878566794b456cb568885a8a6678697859a9a9859
col04:   487454321436635659a68779775977898773576a48a9b967a988798b97a87688ab8a789576567995
col05:   a3192121735661631766973674798b8777555a66a78776b76a496967a98a69a68865867688546724
col06:   88715185468558827977a51d7768dd7c5386a648788aa65144656577669a74b67a81669764459a76
col07:   7534656665927aa6796388379ba7678b8bb6874a9a45b998598b7a49a987b69958cb987783999796
col08:   665286527497945795a74b45693ba4b9da897b687999997b7a58ac9ad9a696bec7b678a6a84479b2
col09:   18566684158496487899c7669866854499428769776ae6758888765a88ab574da9569ab97993a678
col10:   66874728923746645a5478988a864c9e9bb778993ba46b899687a88c488577978dacb8537aba6978
col11:   747921426564895656866475798349867699717aba66816b7886c57a7488b89b58866757a96986a7
col12:   4265768465c947678764699754caa65897cb9989c9d67cba9b77b7997b88acd877c7c76258965b67
col13:   633634614765757767959998678378a796568778598288776ac99b849a8bc6aa879998795a93b697
col14:   4446537581463a78b945898659a86b596a787998897894bab92a9978bb79ac9779b8999ba8715997
col15:   5465944467546a667579777679a997a68665a58741cb6b6a7ba96ca89d93bacb758664a78986d464
col16:   675567846548896b75a498464377a8a657aa75a7cc989979b686c996937875b8868aa986776aa587
col17:   4638155741548952976847827569a679b78a98998b778a6a9daac9a588b8b8a78747a88c96b86965
col18:   345663969618687454556b296788887564b9a77ab8c664939b8878ab484878d7759687442467b894
col19:   83865779367881596a489778567b84ac7597768aab97b987899d5dab98b76887bc8d795c7696aaa6
col20:   434472496647863678a41867b8b66d6a75aa78b595e55988399a8ab79c67d96cb67796a78b779674
col21:   28548359aca248766683a65a849a99a597799a8999a9d986897888a8a746b7966797c6576b687865
col22:   626297322666886a6568a5577a77782b7558877a9984aba5a8a8d39ababa9b778acca9777696a889
col23:   46336575674c287698759a697d838b569898786764a489a2b797bac8a8b578a78c7ac9a669a79579
col24:   35147667438369567873898797abc7978abd9c8d7ad94877db97a89b68aa866679db669a8e1b9b76
col25:   756466697a9759798777b5a5b7a69a7987bac9a9c8ab98a8accb7eae5887cab89b8898aaab68b9a7
col26:   335777976965b59ba5874a99ab7b7aabb8afa89aabcac78bacb9d8bea96caafaabcc96afaca9d9ca
col27:   3783968467578858cb896a96c6698f5fadfc6aa9acb9dc889996b8bc887984bd676a9aab6aa6e889
col28:   9a769a776c5767a7a965986b88a99988bfdaa89d97e8bd79a99c8fabdb76c898bb8ac8aaeadbcbab
col29:   976538586a777b8db58b9a7b69a9d8889cca8a9cba89b6da9dbdaf8ae7bd9dd9e9b89cbba9d7b7a5
col30:   837896848669b9a8a96879b87dd99aabdbc9cbeaaa96dcd7dbbb98d8b8c85eeccbfba66ad7dabd9a
col31:   778b78979655ab7796c7c976a8ebab5ba7c8cb69d9aec98c989aa578cb7a9da9acca969bcbadbaa7
col32:   6a6787687498a95a778cd8abb94e76a6eba8cbbabbd9d9ccaebfdaa9abc8b8ceabbcbcec78bd8a9b
col33:   24888667e76777a7989cbaa9b8ac98988a998ebce8ea8ac9cd8c7caaaacc99cebbdbabcb9ecdd9f9
col34:   b7354546786987ae97a964bdb8aaaa8a98cb8abfdcfeabedbbad99eda7babdeecff9bbabadcaabe8
col35:   896c5b996747a6a998b8ee56ddbadccbd999ebbabdb8aebd9beebc98bcaa9cccabbdcd9ccebc7cec
col36:   89a568a77b87859b99b6aab78886ecc9dba8ada78d8ccb67da97bcbccedadd9babaa8bb98acbcbd6
col37:   99888aa87989a7779a79fdca88acc8ecaadcaaacaccdeab9aecccc97bd9d8cceedacdcbbabe9e9ae
col38:   63b777e9787ab6648959bab8c8cb7bcaaafdacba88aabcfb9cbae6efaccbacaddabcbbada9cbdadd
col39:   96367659a77867ba8897c676c9be9998abd8dae8e9e8bc9dcbbe8cbcdeaad98a99bddbbad99aea9c
col40:   9a66866b585b9a8889a7ada9ad7aca88de4d9a9accbdacaae7a9c8a9ddb5cdcbeb9c9c9cd69cc9cb
col41:   9a74a577aaaa9bcf87accd8879bcaebab6badca9d8fb7adfbacf895cdbdebe9dccefdb8adafea799
col42:   9254b9555bb8a6eca8ca789b4b679a7eba8eb7ddcf8accdbcfed9cdbacf99ead4df844a9a68bedfb
col43:   95879a777a9cb6bac7ba9adba7ba9e8bbaaeab9cbdedbfefa9cfa9adcceabbf8dac89c9a8addb9b9
col44:   7756aab69b93abdbabbcaccaacae8ea8eab7ceccdaafddfbadacfbcdeaa7b8a7cdfb99df97ebb9cd
col45:   1878b736769b8c6a79ab798b8a6cb798bcaad96bac9fbddacabad8bcde4abcbe5da59cacddbacccd
col46:   8bad77687999999968d7adddca9a7eb8bbdfe9b8afeaeabcddbc99bda9ecbd9afb9decdca9bcadca
col47:   a5bba7785b97a5aea49cd5c99abb89d99bb9d9bdcb99fcce9edbf7bee898ceef9fc9cafc9bccadcc
col48:   85572d9b689c8aa89bababc6b6dda9dcabea9daceafcfddaa9dabaabbfc8c8ecdaaec8dc8ade9d8f
col49:   9869b96aa796ab98dddecb8dad8ab79fd89bcba8bbbdbbf7addc8bceaacecadeb9c9779db8ebbaac
col50:   74b4325978b979d75a97a8b78cabadc9cebaecd86acdfdc89ffafceaabcdcedbcc9bcbcc9af9fdfb
col51:   3768756baa777786abbb9998ba6d68889eba9ca8b9cc65c8a9a9abbcadcaac9bacdbb9bccdabaa79
ROC:	 BPix_BpO_SEC2_LYR4_LDR8F_MOD4_ROC5
col00:   57645855868a78834535999c8b65a6dbb6c9b879cb78876a996ca9ba9ce6eccaca977c8ab68b5bbd
col01:   76689546598bad5799baba99988a99b6889bbab9bc7bbca9b9c99b9996be8de95955ad6bd9ecb8be
col02:   714ab7b72a56979379684ac6759bb86aacca7a878dbb7a6a99ab86bac4b995aacdbc6d9daecda9b5
col03:   a8866966897a76a96a5567b6aa687cc8bbb7aadbd76b8dda9aabcc89da9aac89fdaabbcba997acc7
col04:   48c38a87aa8aa7a66a69a95489aab86a9cd9ac8db9a99afa7ec87e7abbd7eaf9ea97bbdbab8db898
col05:   82669479a666a589b776749a59988b9ba64ebd56b6aa9dceaad8ac699c7aba9bebcc6a8eaabaa66a
col06:   465989446777788a7babd95b975788a896d6a598ebcbbdacb59ab9a89aeccbcdfe78cfa8b9acabaa
col07:   2689445977775599b98ad76aaa68fa8855bbc99d9eadbbcd999bbbb85c5d8bdbbb87daacdccbcb95
col08:   966395889a75839937846abab6b989c873c6bcbbb7ca98a8d8b7b9cebda8b898bccc5adcabcad99c
col09:   456578a57ab599988abcb79b9ab8699999ba6995996b8b9a98a89ab7a79f5b5cbb997aaba78abeb9
col10:   6897856549b4499a894c7c966a6c5bacd9c89eb9b888b99c7bb98cca9b89aa98babbabcb8ce9aaa7
col11:   6645857967a8878b887685b69889ba5a989adaacb6899786a98aa979ea77b989ac8cbbcc97aa8bb8
col12:   a657785944929785887688869789c9bab7b8a6b7888bdbc98987a9a7ac699abaa7a89b89788aab96
col13:   5a886b2888a8b97657c79aaa7a4aae9aaaa7cabbbd5669c89cb6ddbba86bbbdcabbaacaabcd7bba6
col14:   31558a788889ab478969a7bab98cb767c9eb9c98899aa9a84f6bbb9aadcabb687ca9cb798bc77bc5
col15:   7488779757797a4a9b86689c978a7adb7a8879a9c54a86a99ceb8b779c8aac8b59b4ad88a9c9d8a7
col16:   589366567b56775156b7794af84976b94998cbabb7dca88577899c4a98dc88afacc7cab59b8cba69
col17:   3835685797768aba695a7736a4589d848baba979a9b78a99bd979cbabf68a9668a9757c596bca9bd
col18:   74694a579ac97bb77688c979886aa599a88bbbaa965a8be996a9c6699c8ab898bdaacab8bae8b898
col19:   455547784a6a4454888885f5aa8b998b94b7dbbca5a789dc79a7b5cacacdb866d97b66b9988aaaa9
col20:   6647b4587899563866885a97a9c467966ab876ab88bab9b95dc5a77a878d8aa9977ccc99b98ab8b7
col21:   8581b66b8547acb95957bbb6cb78a7a9867dabb68ba7884b9a98d59b9a9a98aa7ba9a9cbeb69b749
col22:   56436a8683a722b8889a889a88ba9b77989c8a8db8865cc963bcbbd97c59c6bb9b5aa8ac869bb9a9
col23:   7585448a86716887547777c5748887c99377aaaac985cb5bbabc789abc99baa66bd86ab96a697995
col24:   395777678a518a85879474887a77b98764a89b8b8ab9acbc89cabb58d797d6888b9dea59578ae969
col25:   36525466854487664bb48aab67988aab679198cabca5899388a89badc8c98d99acb965cabba89cb7
col26:   b6577ab7989bb89a678779bdca5aba69db9a795dbdb88d88a8aebb989fb9ccbcabb99dbbca977bad
col27:   7573745688ba57587c9677bb7acb769c9b9a789d777a999bcacc4b89dfca78edd9acc88a87b86d9a
col28:   8a38ca8a55999c78b8ccbac987a9ab89d8a9aa895abbbdcbbfe8bcb97db9a9ac67beaee9da98ea9b
col29:   63469a9b77b76ba79669a7b876aaaa688bbb87b7798b998c69c6adcfefbdaceaf9b8a9c8b8a78aaf
col30:   394468a79788bd7a77e8666ac8b8ba9c9d9b778cc9c7cdba9cc7bb8ecbc9a998cbbba8bb8cd9bdc6
col31:   2a887a69b8ba889989aabad9a7dac899c8bd9a6f3bbdedcbc8dcceb9fc9aadbbccfcd97bcbdbbaaa
col32:   548597997ba59d85b7988b9a66b9c7dbcb879a879a897baab9adacb9acb8cba6ab9cea89ba6bc989
col33:   36d99466589a9b887bda9bd9cac9be9c7b7ac89faccbec8cabdabbbbdccdbddcbccda5adabbcdcd9
col34:   823a6b8c86b8a4b77aa8ba8eebcf599ba9ecb9ea9b7a7c98ba57bbd8b88fc5e8daac899c7dd85cca
col35:   45ca66889a89aa99bac9a9a897b7ba889add9b88b9e99bb9e8dcaeae9dfcfcfabbcfc888ab7ba6a8
col36:   6485686899a7a7e79ad899a6aaabedccc8bcd74aacbbcb88cde9cdab9aae879cab8beaa48bfaabbb
col37:   83579ba9c9c68a6bca989cba9ba797bcd88c9bdc9ccb8abedbeddb9b7edd89d79a7cb9bcfbcf97c7
col38:   a9784a989b7baad8ab7abecaf8a9a9bbd99abc88aecbafac99a99cbaa7daebcbbdcc8b999baad9a8
col39:   a9a79998c66e7bbcaab8999c9cbc9a7ddddab8dffc6ac8ba9abdbcc9fbd8cbfab978d88acbd9bdf8
col40:   58889735e7bb799369a7bcbbacde9a7a999adc857f9cbbcd5eb9bbc9f8bbaabaacede8bada9bfacc
col41:   576468c98cb8c77c8aecaaedaaba9cde8dcad78ac8b9ca8a7ac9bbbccfbaeecdea7ccaa79c9a98ad
col42:   57749869886cad9a99b88d5a9de899c69cadbdacb9c9eafb9effbbafac6edae7dcb88fb8a99fedf8
col43:   aaaa799bca999857a69bc89a9c9ecb9c9d8ab98b9db8c8ebadbecadcc7eb8c798f8cad94a9e8eabd
col44:   69e68967876ab57cea88baa75b7bab87aaae9c9cbebccbdcb98acdc999ceabe7d776eacbcc89babe
col45:   6a9a76b89b7ab9c9ab5dd9b997ad9aaabb9a8cd9d7bbb7df9fc9b9bbcf9accce9bb9bfacc98abae9
col46:   89646388569958aca95dab8b9f679788a8bcac9db8aca9a7aac9cba9f8d9fcd7bdabdea7967bcbd8
col47:   a955859b9a8aa895bbdab69dc8d8c8cccbb9baacdcaacbe7d8b8ef9dbbb99afdcc9b9cb8db9a9b7d
col48:   5755999a86a96cbbcb5c9bb7bb6dd9c78eae9caccbccba8987daa8cbe9ca9cfcb7acaecdcac8bbf8
col49:   7a96c6797c79cdb7d99a796bbc99dbefda99b7b9b98da98d69bbd9edaadaac9accafeae7a7ebbb8a
col50:   948a588ba598b7887abdc899b7b8a59bea8aab58b98bbabbbc9bcaff8edd9dab8cbeab9cebbae9c9
col51:   762548957a82ce7689a5bcb8747875aba6787a87587e75998bb9999ab9795e99b66c7d6aab7c89ab
ROC:	 BPix_BpO_SEC2_LYR4_LDR8F_MOD4_ROC6
col00:   85472955a86a6877958977a7a9695987487698988b75679898988468a78a898799888569796a7a79
col01:   768658868a88679b7968da958888a6bb89769599ab7aa669b8a8959a59b6cb87a9d99aad97aa8a66
col02:   355697876b7998bbb8785a665797996b57a9a786b9a6744a79bc97aa77ba8b9895b89896c88b8c77
col03:   63545a86756a88c6a6977b9779b869689a89caac8aa968c877a7bbd85bb8cccacda99a8d9877978a
col04:   68a978a6697c79b9869a9a75959999788697b86b9a6b8b8997a7aa8aa9a787b8ab8abc9687a659aa
col05:   4656796a838998788888a9775a8996c99a9888887996a999aa8797a98a7aa79779cd8c7587a868a9
col06:   46b67997677ac6798995a8679856aaa9b7bcab8a977c87a67897b9985b9a89b96879999897a9c7b9
col07:   8988897998a67a7c9a6498a7e99b989c7aa78b8dc7bb9ba8bb985a87ca8b9789bc89a667ca779aba
col08:   99755679696697aab6b9bb699a9b76677ca99aa9a78a5969bc9985a9b8a9c9c99de7aa6985b7797c
col09:   68737677889998a699a99b958da7895779b588884aa78a886a9abba7c7aa96a8b688999aa5d99a76
col10:   997a8a8758a78768969a58c8c8a66888aa889797968baca7a7988ab5a7786a98bc96999ba997b98a
col11:   97b468998979b877699ac9acb9c78988b9769cc9c88b687a967878ad98ab79c86867b966986bb89b
col12:   7859ab96a86a67a9a7679ba7a79cba86ba6997a8eba9aa569c7b9878b989cb88a87879aadb9e6aa9
col13:   67bb67967aaa849aa88a7979b99377acc78ac7ab99868ca97b99b97a989a9aa88ba987ba8a9bbaa8
col14:   65878677ac598a8968b9ac9aa7d899bbb9b9c9988b5ac8b8aaca48a9c79b8bc88aaa99a9a7c9ab66
col15:   4666b7866899957a796ab7a7968a7aad667bb9ab79a6bb68787969b9bacb89baa889895998a7997a
col16:   69686858779789bbb97978ab66e8aacbaaa9aa98899c9ae89ca5cca689bd978a899b9a998558da9a
col17:   26797a9899c778a5579aa8c69aab96b8966b97acbbd569989a9a9997bab8887c8bb8a98785a67699
col18:   795668458999a6c99eb86a699aa7baadca9a9a99a98ba9c7a9b99bb9a7bba88a9ba9d8baa8c87a77
col19:   7689a898a9757ab59a89a8ab76d998a889997ab6999b6888b86976b9a77bbaa879bc9bb89799bab7
col20:   276349b647a8679a88aa98a5aa999e88a8967d99b79b7db9a8daa898a99bb9ab788a649a986a989a
col21:   956b88a9aa37c9a976acac9a7a9ac99ac7d87aa9b99969a5baaaa98aaaa9bbeaaab6d8a87c88aaa6
col22:   78c7967787a7997779a699899a9b9998a6999acbb897c69abccaa8aa8878996a9bc9878a87967aab
col23:   686296478686789789989acd9aaa8a7a99b88a9ab9797a8a5b978bbba7897ca9cb567c6b7a8abb58
col24:   98758a7877aaa77ca8879987ca7b8cc99baab8b7abaaa8c9a998c5b9b79b958778d7aa869a56c9d7
col25:   9488ac799bcb8777ac69b98dbbbd999a9a899c9cbc8ac8c8ba8a899b8aac8ba5b9b7a7bab8b978c7
col26:   9777a678a88a9886b98687a9d98cbcdddcc9a99adccb9d69dbbdda8aaaf99ab7ecc89cc7bd9b8cbc
col27:   956d8c696ab9686aca6abcbac87db8acecabbbcaa9beabdb9cbababc8cc8caa9ca9a8cab99d59ad5
col28:   776a7cabbb8be98a8cdb78c9a7dacbbbebb6bc8d96c7dacdedabcab999cdcc9caa899aaa8a7a9baa
col29:   86669cc9db9cc9998d7eb9b8fabf8ac9acbbccecb9ba9ab9eebf6b66bdd9c9ecdcd9bb8ba9cb99aa
col30:   98e7a8e9dab8da9ca7a8b9aa9bbac67cbcbdbdeba8acadcd8c7989bbbab9dbc9eaa9aa9da9a8a799
col31:   caa69b9b7cba8caaaadabc99aaadca99bac6ddbebda9ccead9ea79aaacb7baa9aca9b8aadb7aac8d
col32:   999aad9bb9c8b9cbc7b8ca7dbbcbbdbbcd9d9ebabbcbcaad999cebdddcbcfad98cabbcbccaab8dc9
col33:   bbbb9a8ea88d8bba99cd98ccab9babbbb99babbdbbccacd997bb8abc6dbdd7ade9cba9cbba9bb98a
col34:   95a897bcccb9ca998aa8cca9d8cceacbbdc9bdbfdbacbd7babac9aacb8baadbacbcbaacc7cd8aa9b
col35:   ca999bcbbab8cb99acdaa9bbaabdabd9dedad9c9dcd9acdec8b9dbebdbf9bcd99e6beda9db88ebab
col36:   b9a8b9d7caad97cbabacacfbbacdbf8caccbeb9dabbfce7aac8cdbac8beeccba9adcc9accbcdbcc9
col37:   ca98caaac9cbc69abcdadadb9dcae98caac88ccdcddcfdedd99bd9aada9adbbda8b9ccc9adcaab9b
col38:   7aacdd9bcbb99aaad9ebcabdbcdefcc9dacbfadc8cedadbafcdbfccdababcdcfcceab9acbceabbba
col39:   7b89baadeabcab89caccdcb9b7dccaabcbbbdcbde9cb7aaeabd89ce8bbcabac88bd9bbdb98bdabba
col40:   ac7a6bcfabb9d9abbeb6daaac99abbafdc78bbfddebacaadbde9ed8abdbdbbbdbcbbcaa9bacdabaa
col41:   c99a97bbadaaa8bc9aaecddcaddebbfd9bcccccfdbcedeccdeccdbccdad9edfb9caeadccd9bdbbdd
col42:   98baabbdcb9dcdc9abbbbba9beedcbedabcbaaccddcbbbbadbecdbecdccfccdbacbebfd9fbbddac9
col43:   98bca76bdb9eef9acaaccdabbacbaadccbcbee95dcbdfacaebbcdaccdcecf9accfbecdfceba9d9ca
col44:   e986fbc9dc9bcbd9aaaddabcbdbdbfbcedcbbecbfbb7daafbdacbbebdcdb9edacddcd99add9acabd
col45:   aa9bccdaaab9a8baccc9badd8babcaceceba9ae7bacc8bccaff7dd8ea8ac9aecfafe9cacebccab9b
col46:   8cabbcbca9dabbd9fabbdaeac8dcebadcdcedcbccecdeccc9cca8abecbcdacbcdcdbba9fddecaadb
col47:   a978addacc9daca9cfc9ae9ececb8cbcddbcbdbc9cabbbaeda9debacdbddeabcbbbcccbebccbcdec
col48:   b9dabddb9ec9cfdbbc9dddcdcbcccbfabecadeaab9aecdddcdc9cabfccfffdb9ddffdeda9cfdccfd
col49:   db7dbe8dcbcbbcacc9e9dbfbcbbcdcfe9ceda9efcabbbdad9adbbebcbcbdddeecdda8fbdaebcbbda
col50:   bada8c9ab9bcd9b8bdbdcacdcc8aacbedcbddbbedbfdfaddbacad9ddbebbecdbcbdedcbdaf9fccfc
col51:   7b9acba89a689bb9aeccc8aaaababdb87eddbc9adcbc9c7aab9ac9adbb9ddaabbbc8cda9b9bbb9d9
ROC:	 BPix_BpO_SEC2_LYR4_LDR8F_MOD4_ROC7
col00:   d64288735c898749859b59595a74c6818759369aa78a582797964fb8887aa69778a568b57885a587
col01:   5b46469a3a8a866679bc69ce97896a97a8b8ab76a679a7b6b76ba99d17687a959e4857a79bac87bb
col02:   889568a56687a98a85454a796b95cb768baaa69a6c8adb8683ba9b88b587ca98497a94a96ca5b8b6
col03:   61a5d93a9a98989b7468974b88a6eb8a84a9798569b68eb8899a687ab8ba9c88867986896ad9caec
col04:   76146395a247f4549ca979c93b9e89b99578cb8e74db48caa99638a87aacb965a98ca9faa788969a
col05:   55925766996896632975e5867737fc9b58aaf9a7a9857abf99b9989aaa89a879d59386c8b1657588
col06:   896b9793495a78a7978db95797b9a7d8cb9879c6cb979b96966498e2a7afb8987c49faabca9ae9f8
col07:   837514a4599544a8978a78ea696f9dc899a929ca89ca857711b3b4c9999c7bc55b8888a9a99798ac
col08:   5645546a79763a67867a78795a888a78976a5a78db8cbbd9959798977eabce851b8a663857bbc8ac
col09:   79abbd58e8a886c397d86797c8a5aa9e6e87dbec58b9bc894e8bcbd98aa69beaa79848ba6bcd99ac
col10:   5a6a774c9768a517a67aa6594d79c9bae8aad5be87999c8697bb67c86aa98cc8c9c949e69898bad6
col11:   b7959a864837a87a56967dab4d799b99bda94979b95c9a6889655887c88a8686768b535c731d8866
col12:   476484967a6866867b66a98bc8896a9b7eada9b7aea9d8a78689774877a986e56a9b79798b95a78d
col13:   a65a6a87bab99747c7657aa7db875baa9cdb8486ba9dcc999db85c7286c6d97abdaad967a97a79b5
col14:   7353599ab7a8ba646abbd869b98c5bd798cadbf778c9b8785b99778b898b897e769287d999ab667d
col15:   7675b968a7cb85a97946afd8acbb7b9bf687cd497aaad9abc8b67aaa87779d9977ba6ad3d86ba987
col16:   5746866597877a8ba89bd9ae8a88659879549aa9ad97999d9978a3aab98a8cc889c779b694ba8976
col17:   651458d678c569b6ab84a6acaaa66b7ad7a5b66927a44a789889f6898b989c798297a943998ad653
col18:   664b6a9282c358a8a85accb978499a977b78897bb9a8985a99dd87778876af9e97565976b828a694
col19:   75886987747a99e5b7aa6b989ac9a97abdc996da9b68a987a8bb7e84b296aa78ac6465957a695b78
col20:   94468723888849966966a9a6aaa7eba6a6ab6a645c77a79898a78ea98988bb8a778a69877689b885
col21:   46c4c59869b269146475b7da729bc756be999ab678a97898c99874a87f8c7c5b8d6a888b66d7aa55
col22:   a445669b8688a9add8c96649cc8767ac5d8977bac998da898a59cc6b8ba868ad458b8567378aaa24
col23:   755756a674786aca979775965d984bb88cd6c6aab67caa999867789e8bca8a7789a3796737ec69a9
col24:   785c478a869a867465b9a9b87b97b9996967a8ba8f873b77d9bb888cc8c83daaabc7668a37577777
col25:   87db8b7a787c7899a8d8aa99c98874db8859589f7989c6c975969a6baa99c9ecb6669a8a979999b5
col26:   5879acad9889b8b98acecbdcf7aa7cccce7ec8a697caaacbfacaa7bedac9aa99ab8cb768dd8c7ddc
col27:   67b5fce98a6fd668b6c7a9c66cfabff9b9fcbae8ea99b8e8bd9aaddbba8faba7aaa579c8b57cce6c
col28:   898c87cab59b878b8bbadcd989edbb8ccc9faddc97a977afcdaacdaa9d89aaaa99beaef8b96dd9c9
col29:   77a67b97bcbb88bad9ccbb897bbfa7a9b8f6d889a9dab8c9d7dc9c9aa88979db9ba997abdcb75a67
col30:   977679b79a8897678897eb8ccc7debaefdc7d7b9ebb8c99c8afa7f9a76bbabcaa76c9ab8a6b3bbc9
col31:   d989ec77c9aae597db898a9bec998cfbdfbad9ade9aaeccbdb8aabbbad98bcdbc9ba7dda9cc9fc78
col32:   bb95b7dacc6cdd7a8a6aacbffd8d9a9fbfcdcf7c989a96ddaad76fbe9da8eae8eaca9beddf89caea
col33:   7fda99eb8cbe5d9bf9899a8b77668d9eedeaba9bf9eeabed8bdcdbaccfcc8aaba6cac8cda8e9a79d
col34:   aa8d97eb7b88a79acbdabcddaeed99deabbe9fbbfc9a6cfb7accab5bd8bc979cac9bf9c89ea5c9b8
col35:   a9b788cb7e5a9aaccbb8aabe9fbddfedcddda7afb9beea9eafbbb9cbcce979a499bafa796ca98da9
col36:   94cbbc9b39c9ab8d86d98aafcbddabfbcbfd9fbfdbcde4eb8fbbc8efaedceb8c9abacc8bb6c99aac
col37:   c75adccbabeecc9d4abdc8f8c6c8badbccbbafd8cdddabfa9bbccba9daabeaa8eab6aa8a798dcddd
col38:   beaab9ab9adbcaea9aa9d9bdbcf99dacbdccbdacccbdcc9c9cda8ffafdadefdddfebcabb97bc89bd
col39:   cadaa5caa9bc668cdbbebb89cfa88d9ddd9b7beec8dabc8cffe8c7fbbf9eea9ecccb9bdaabd9a9a8
col40:   4dcad8a9bba87aaccac987bcbef9dc9e9fdabf9efdcc9f987cbc9defa9adfd9baac6fdbdcbab95d7
col41:   88aef8f78c8abbd8aeab7ebbacfcdafccbe9eeccdc9adbc9adaaebcdaeecdfb7f8b8a8cddb9be66a
col42:   ca8c9cca89779b9dc9d488b8fc8a99ddede8daeebdadc9a98afacdfd9dbcfaabdaacbeabebddeadb
col43:   6d9cdabcfacbabcdfa9bbefc98ae9dddf9cdea8dbe9ccbabaebbdfcab8dae8d9cafebca8abdcfcb6
col44:   d6cbb5ec6cbe6bbb58d9dceaf89dadebbefdaec8fcddeca6e9bebfcfdcfff9cc9dc9dcaa9a88caab
col45:   bd849b88aa9cabbaabdd9bbbbff9fccbf9abbbadbfaeeb8f8cfeacedcdccec7badbed9ce99999bc7
col46:   8b6ddc7badfccdfe9c9beeecca9fb9e9b7e9dbde8adddfb9bdcad9cea6c9daecacc9cbc98cb7ce88
col47:   8ca4dcc99ccbdb9b7a8a7bfbdbd88baad79bdfa8be5ba4adbb8ffbdccda9aaed9cdf9bcf8abbeae6
col48:   789be9999bbdadabbcbabec8fc99ee9caccaacacbac8dac9ccaaabf9dca4a8cbdad9bdb89be8abb8
col49:   9a9b8aabc7c89cafea8dbcc8bf9daaebe85fabecfeaccfacb9baceeeaaddbba7ddd6dbc8a9ddabdf
col50:   d985b98a9ccf8b8dcdcadbeeefdbcbda9cfacdbc8acbcebca8e9bda9aeafddda8aafe8bbc9da97f8
col51:   b157ca9ac97cb4de7a9a7bca7d67acbbaecba9cdd9bddbca8ab76a99a9f8bd8799969be76aebb969
ROC:	 BPix_BpO_SEC2_LYR4_LDR8F_MOD4_ROC8
col00:   959a98797877a58598b898b68a59b99bcb87baaab5adce79c7a997bb778b95d7a9a778897a8a9ca7
col01:   76aba89c8dba995b82aa7da9a85998a7c6bb999acb598b99cc587ce8a89cbb88a5b88aab8694cab5
col02:   89c85aa7987a58677978d67896b4c58acc867c97eb999a78978ca6cb9aacc68bca8a8a9d986bad96
col03:   85997b9d69359376d7dab8b56c9797b8ac7a7d76dccb8a7c9985abc98a7b9a7c889a7a6a8aa8868b
col04:   9a98989aab998eb6899a77ceb949beddceacbbb7b9b9bb99a69cc87ecfbaa9c889a58b955bdce777
col05:   877a99c7a8bdcd6889cacc879e9dd787ba38d6ac7ba98689bcda5799bfb9c788b99948a67aad79c4
col06:   8799a67af979cdbbdba8b889aaa8889ab8cb9a95aab5fbf97878dbb8bde9bb9ad7c69b86c5bc98cb
col07:   ab6abaaab6a7a9a6bcba98a9969bbcdaaabb99aba8fce9cb569aeb87697ba6aa8ad69a73979f589d
col08:   ab56888a97ae99de98783968cfc99596775a7e9cdb7c9dd87bb96bd8b8ac8cab99b6867ab87ccbb9
col09:   ab597499a88879aefc8978a97695aabadcb78c9a7959dae969c8b7adeaafbf9b9bcb9babb8c9a6af
col10:   a686a788a7688686895b99a7ccbcadc8d7e8d7ecbcb99a68988c9b889dc7a95a36abaaa8678b999b
col11:   6977488ba9b9a89986b3896a665b77b89ca55a888ad96aba6a6ab8a598b9a79a6db4898b8b89a78a
col12:   a6658879aa96a9a9a7e9a9caa98adaaacac6e68d7baf95cbaa6baac87bb59dbcbc7dc58789769aa8
col13:   89a8bab998677aaf76dc78abbae7c9a96bc8dabb8d97aac9cada7fbb7a998cc6a9688a8c89aba784
col14:   67763674576b8cab88b779878999888ac768bb39d6ca48d9a7b9c7a87877a98b69b5dbc99eb9a897
col15:   8a87c6cc667ac559887ceaaac7bacc8b9b89ebcde9a6b9b8c88bb8cbdbb66c9c7d4aa8b7b7b8bb88
col16:   78cb67699aabbb795589aab9a9cb9c8aa77b6ccad77ba7ea8c9a8abdad67b7f79bdb99ba7a6a97aa
col17:   57a969c6b585858898757797a86796aad9ccbaa9a96868a95a78988b9a886c8689ccaba798898859
col18:   76b6aaa98b8786d6768cba994cd7a9bc98a9a99997e7999ca977c9addaaac89779a68c89af4899bc
col19:   769a858d5a8977b99767b9b6cddaa8ac9eabae9bd88ddc8f899a74ab882ab99ae7c6bc66d8ec8498
col20:   cac88ab4a5986bc8a987887ba9c8bcac7ad799fab8b9d788c978998b86bc9b6a72a99a77b987a6b5
col21:   789b68cba8a769857a9ae6ccb7ac8b8b9c5a8988bc8b9ab789e79869bad97879988cc846b88cb79c
col22:   79a9ab6889b85b7868998c7869ea7ab6d968baacc8b79c6bcb66a8a8978ac989ba69c9d77a7a9aa7
col23:   7688539757a36744b6998cb7e8bdecb6799cb8c8bf886aa798ebc8abaaaba7b79c59868898c5a898
col24:   967799189c7b76898bcba9adb7cbae85c8ba976e87aa9d77a96688ad69b99c8b5b9ac756a7987755
col25:   148499987dbaa7cabc889c89bba87aaaad9ba7bc976bbc96879ab945b99a44b8846be978d8978b79
col26:   8c867caccca9a78b9b7a7c9ca8ccbba9ddfbd9dbbcbb99ccc8cac9ecd6b7b7bafdba9a8ab6d7cd78
col27:   78b6ba98bbbcbca9aa559b7babfb8fbc8ad8cccabaeebddaab7abbe89aaffe99bcb79cbac9ca98b9
col28:   89ea979bb15bcdb6cb58a7ab8cabbc9bcca999abb8cdbb98bdccd9ddeabdcdbeeccaa9985b9ec8a6
col29:   7adabcb99babe68a8a9fad5c9abf89cccaedbc9a8879dbbca6dccde9cbe8cd9d49af88cdad37b94a
col30:   5b9b8a88a8d9a7c68aaad7ccdeb89baaadc8de7cf9bacdbcab6ea58c9cbdbab2b9bc75daaebfdbeb
col31:   ca97bde97da9b9cabbadbb8dcc9ac9dbbdb7a8a8eb8c98bcabbaeedf7fdabbbdfafc9996d97a8d6b
col32:   ab98a8cb97ddba8bfcc9dab8cd9cadbcbfd89fdaebcdcbdfcb6bec77dddabefac6a58bc9dcca6bb8
col33:   aa997ba9ac8bdba5aea7ea9ba9e9ecdc97aaabbcbbecc9a7acece8bddd9989ccdd9c76afcba9a987
col34:   a9ac9cdddbe89bcbabdce9bac8dfddf88adebebbac8ebd7b88accb6cd88ddedbc6c978dd9a69bbc3
col35:   7b66c59ea9e6a9a84d99dbcccac9dca998fb8a7adbdedec88aabcd7fb9faabbabdba89bbbeebac9f
col36:   95d8b77e97898b8f6fbd8cbccada9cbeac9daa8acb8acfe9d9dc7acaefcdfe9bcbe7abbddbdcdbbc
col37:   899d7caaefca9acbab9edbe8ccbdef9a9bfaabcaabdbcafccbfbaccdefcbb9cafeaaaeaedb597a9b
col38:   86cecfc86ff9b9cc6ddeecbef8f9cbaccdafbc9cbdbbee99dfcbfeacdeca9cdcedf98e78edcaade6
col39:   857995eacaaabebebaacae9ffdbbbc99cdcaeebcddaccffa86ec8dfd9adf7fdbdbada7ccd98aa8bc
col40:   abda8acbb5bbcf9c7eafedaae98ecfe9ddbcd8cdedc6cde8b9ecbfc8d99eaaacdcba9e9de9cc9eaa
col41:   7bcdc99cb9e9ca78db9a5a9cfac8bfbecafedcabbfc8dcdda9bdecffc89cfd959bca7de9dcdcdc99
col42:   abbbca7baddcadec9adbe8fddbd9efdbafadeabaeddddbba7eacacdbcec88adcbd8a8ddaadcddcc7
col43:   abba9d6f9cddea9cea9ddecacebcbacda9df8bcefbcedb8eb9f7fbfd8cefaccae99df69c8acccb8a
col44:   8cbd6aa8ea89cbaf9abcdccddcbcbbffebdfcfacdcdcfcdad9ddfbacabaceedfcbabcdb9abd9dded
col45:   e9d9bcba79cabaa8a8defbbbceffc9baadbccdfeacdcfebadbfbab99beeedbfaedd997b9f89ccbbd
col46:   dbcaa7eaaabdddcc99ba8abbcadf7d4b8dabfc8dd9cefcdc9decebcfd9efbcaebadbf9daf9aaddfa
col47:   beaaac9cdaab7cdbabaafc9b68a8ecfeebcedeecccdffabdddfb9fabfebebc9facacd9dbfbabf97a
col48:   998dacaad68daeda9c7ecccbebbdaca7dcdcca9bd9fcaeec9faedddbab7a7dedfbbb6dda9bbbabc8
col49:   dda78abdbb9b7aac9da6eaecdbbbcdbaec9cfbead9afaeb9bd9dfccaccbcc9beabeafcc8dc7fd999
col50:   8abce8dcbacac8aab4aed8afa9faeedbcfdcddcbbdcc89eedfecbda8bccc998ccd9bedaeb89edebd
col51:   7769a9aa79c9b9a98c7cc9cbbcacea4edb9bcbb9de9dac9ec977dcab7abbd9efcb7abbadbbbbd9a9
ROC:	 BPix_BpO_SEC2_LYR4_LDR8F_MOD4_ROC9
col00:   2557376557668c478c9b863369387948b5658a9a9979b4a9898b6675777e89669aaa955556627774
col01:   8779a78a7599a26c699868bd9babaab7dca67577aaaac68c8ad7d3d866b898a8976b57167977683a
col02:   a7a76bb86753a797a8aa67e88c858979c7a94b9886cc8987967878b797aa7775aa555948a8968815
col03:   4a929a6987a88cb896ab777977979e88a9a9bdaa776dac8b998a8ab666556967c8c8888679a78265
col04:   79a649ba9aa66a699789caca68a9a57e86789c97aaa97a9b85c9c6aa9c778aaac8b96985b3757152
col05:   7aaa78586696ab9ca9a8a7a679a48ba89b8b6b9865c688b879a88c5a865da699777b858749566968
col06:   679b898694948a7a5d9898dcba5ab999999a8347a787ad7bb8b887a6ba8a9aac739643c448629549
col07:   79a996aa78799cba768b788cabe8c89abba7ab788bb7ab9da9ab98a99ad98b4a7ab68b88679a5b77
col08:   8b88a74a7968b98c66768a6b79b7bc8baabb7fcc9eab9677989aa6779acb9aaa8b9a738867854929
col09:   c6ca97b589b8a8679a998acacb97da88d9a696a87a8989db7888bbb789a47b489b647766b6a75883
col10:   a68b9588597a798798797bac577baa7d78e95997a656dac587acda9587955cb968c6b865673959b4
col11:   a27b9698aaa8a8d8b858c7b7978b894b9db98aa9c9aa685669988575a8b8b65ad7b8779959859769
col12:   5966856b9679586b489bbca6387697b8d87d99976ccd9b9acadb78e3b887b668b57487977a88c578
col13:   aa9687856b8aacec7a499b99aab9abadccc9dc7a79b69cac979aaacb8a8ab89a9b79b5a178778683
col14:   76386b5698799a948a9a8aa9d9a9c598deb87487b789a69888c698579a898d984a375644669a9874
col15:   786a6988a77863857aaa9989b887cca89a968979caba987b5aab9869a6cc888aab668778669d8662
col16:   8687b645876b85de297958ac987aab594bad9ccadbc9bb7ca6a7768caa97db87bc83d97688985987
col17:   a79587ac796879b977998aa8a69a6d966cc9a9c7ad78a8a858e9c74857768b36b969a87985769836
col18:   886889766a95687b798988987fa8bb99a77777a7aac9999c98896bb88a6ac78bc648a8767696a257
col19:   579ab898858748ab988ababb7bb59ada98baaabcb759edcc85ba7a896c784868978a88aa88696299
col20:   48569a57777cb89868899b895bb7677b7a9beaa677ab77aa89abbc98aabc877675564676a7966886
col21:   868577aa757aa9989897cb6ad8aaca8999a99cac99aa989999887ba779bb8356969a896847843949
col22:   7875739796848a888ad6799ab98aa6ba59899889896aa8d886b7569999a9b8a8898da799968aa63a
col23:   6868a668677a78a68997aa86d988698a9aa86548abbc96c7a999d97ab88ad67b9a37888838683377
col24:   786a679a4c789798d89bc9688ab66eb9f97aa7a836b97a838a4969ccb978ab776e7b9a7a678d9755
col25:   7584987676ab96a7a77ca8b88ab97abd6d8b8a9e898cc885b8c98c8ca998bca898787b6a45a63238
col26:   58899cab68d9a86bbdaaca9da9bb99cbbca8cddaaca9bca998ae84b6cbc977bbba7d7b966975c878
col27:   798a78aaaaa9aaacadb4ba79ca8a8aaaba9ad7c7a7acdd9bcac4c87b96a5899a8a699ab67b78b497
col28:   5c7b7c979ba7aac8bcdabbeecaa9ccfd88c9a9b4bd9b9999aeab9b97cdbad9878aa9b69c89a78c7a
col29:   aa8a7a7d8ba8be9ba9a9b5ba99acdbcaba8ad79e9b9eabaa8bdeaec9cba9a8dba4699da756789a68
col30:   7846bbdd99886ace67abd7a9fca9a88b8edbf8dd8d9aaebbbbc85bceec8baba99894a46789b6897c
col31:   8abe9b7ba7aa98cd9fa7cbdfd698dbdcabaacdbbcb8d99b7ccb6b9a9abdeecb7b9fa69ebba497e56
col32:   7aada889bbaaaa89baccbbbbab8dab9addbacfebbccccca9cdd9dcdeaaab79d7c9a88c3b87755a84
col33:   beb99aa997db7dbbbbcce88b8ebabcacfbdd8cfe99a7cd8dcacbbba8fc8bada8c96aa7bab6ab86ab
col34:   c7b9baacabc99c9bb79a787dbb9dcee88fca99bcdad9abace9edeadab69d85aa7dbb86796ba77678
col35:   8ba795bae5abacde7aecab8cc96accbfcbfcdaecc9ceadcc9dedcabcba9da6cbbccdaaa9aa7bc687
col36:   a8bcb89cbc8dade8dba9daacbbebbefadc9bbabfbfbccabc9fadc8d9b9cf9fa8adbca897b459a787
col37:   6a7b78dabc7cbfb9aae98fddba9bd89beefbcdbbbdadad8987dd9cc8c8d9ce99dbbca9b8aefb9aaa
col38:   b8ad9bc7cbbad95c9bccdeacbefcecb9ddbdccb89cac6ceaa9ad7aac9fa89aedaab75c8aafd67c9c
col39:   9baad7a8bba9b889dcbfcb8e8ddcbab8dabddcaa99dbb9a9cabd79aacab9d99b678b888db6679aa5
col40:   dbabaca8ce9a7ab999b9bcce9bdce9a8faabdacaffccbcbbbafbdc8cc9bcbb6ac798ab8758ac77bc
col41:   b9ccb8bebca6bbc9fbedfbbfceffeffcdcdedfccdcbafad9cddbbdfeccbcfdbaf8cd9bababa6bb88
col42:   bbd7cbcc7e8acbdbe7fadc8bfcc9bc7dbca6f757a8bdbdcacaaca7bacb87eb58acd7bc7bbaa8666d
col43:   b9cdfbeacccbb9cccdfceaafdcbcccbdcebaceefcf99ae9cdafebbdad8eb6acca9fb89be678ba777
col44:   bdc89fdcbcdc9bebfccbcbfbdef98bcfbfca5ccadacdfcdff8bbb6cebcab7ccca7976968bc7cb76b
col45:   e98cdd9aeccccbcbdccefe9bcacbe8dfbccedcbb9bbebfaf87a6ceeebddccf59ab79789a89d65b99
col46:   a9ccc97a9ba9ac8c9cddafe9a8ac9c7cdd5cc9aaddcbabcddc9baddbb9cbaacd9a98caa76a995a89
col47:   9c8addbcbcc8ccabcb9abdcfdefde8ff9ea7d9fcdcbecef8effabbbcbb89ca9e9efcbbb6c69a89a6
col48:   aad9dddddd99aecaddfd9ea9cba9dbaec9bcbbb9fbcadbb896b9edebc9adbdcd889dbd6d88c8a89c
col49:   98aeebfafaa9eaffe98cba6fe8a99cbecebcac7a8cecffdcebdcdbcbcdbadc7eaeb68ca896aaa955
col50:   9caadaac9bcdaba9afde99cb5aedbbcbddacba98bbbbbb7f9bfeed9bdff9ab7986dd6568ccbc6b78
col51:   9978c789ad6b99a9d77abb9bb9d6bdbaeacdabcbbaabdbcaa99dbc9a8b79b99aa99966b957853779
ROC:	 BPix_BpO_SEC2_LYR4_LDR8F_MOD4_ROC10
col00:   c883ae6aa9977cabb96796a5789b668e56678a8677ca74bb998958a597a968676759547c75479335
col01:   8b98a67aab9bd79abb88a9c378787a7d79a9a9ab88bb69a756b8889ba68598977b35699765945543
col02:   aa86979f797d79488998b6bd97877aefd5aa8cbaa8996c999b7989a9e87679b826694a3656736727
col03:   9887ad6ab7b68bdc8a7baa39aa5d6dca85ca7baa6e99c8c8bab5776b7794a698b646929663888562
col04:   78789acc7a5a9a5b5878aa8ba8bc7bc9acba887ec974f89778e977aaa3a99867975525b474896735
col05:   ba5668b7a775988bd996aaccb8b998c898ab5899898e9a699cc7d8789d86a7897a8a767853687658
col06:   8676b795c9d9d9acc6c5ca8ad9aa79dad9ad8ac7e79b8c87bbb7889a99ba7597c693a84288766867
col07:   8b74799d5b7ba89a8895894bc7a9a7cd9869c978594a989a8b5c9b9919cab8688989697a57944553
col08:   5d58b3a572bca9889cabc7b9b8ab8ace7966979a4aa96779957949abca798a4ba6686a6b65365983
col09:   a9c988a5a9bbc9babeadac9ab7b768ad99b9a6b99bab65afa7d79279e999798a8888a77684378756
col10:   967a687995797897ba57b798a79ac9b976669aaabe7bacb9a77e798ba9a97ba9a7496da746697641
col11:   79a879e686a588ad7aa48a9c7759b8d96ba79bba9b96c7a8698679e8946ba6777439b86337778481
col12:   3776886685a8997d7bbcbea66c7c78a97f896dd9ca79b85b87498e638c8aa75778989554a9973276
col13:   6999756cb9a9979a8cacbca88888ca96a9a9f558dbc9caab777789979aa98b9a969a676876c87648
col14:   768a898977884aaa967b6a49d8c9a9a7a5b9a8a8babaa7b99979887797b87a6a7983ac65776a7746
col15:   6c594788cbb7aa788a8aca7bc6ba9b3a988788a6a8a5bb3bb5688b9b737594bab7a876549a948154
col16:   66ca879bc8aabfe88b779a5899c887da9964c7c8939c98bb8b9a5b8d7c5dba986865a485ad643553
col17:   9827bd87b975a396689a9ada66a9899a7a88658ac4aaa9b7793a89a8876a76695877773646176652
col18:   588587779aa77b7ba96d8bc678aa785da85b5999b68979a877989c9b7b9fa94b8a876c7386573824
col19:   9878979997a88ad874ba8ca7699b589a76a876b87b99b68c6599aabcd697783b6c7a97a8995a5366
col20:   3966783fa599caa575c8968888537ba89a899bb7695756bb968429a65668ba6a8977397754747392
col21:   769757ba9db5c85aa8a68b668c888777aa8ab886c899c768886878aa9ba988678d85388865785575
col22:   754c8867953b8aa76caa5888787a67aaa97c6abb76688b69d5cac8b8776b76779ab5857685769535
col23:   99ac856698787277aa86a89d4b6b858999ba88b595adb88bb67695b6576668a328995a9a88664644
col24:   4898875b69ca68885a59ca5ba64689c4e85997666da5d648a9da88bc949759888a64a7814a537a43
col25:   94655787998a8795967eaa8669989698c988db9b78ac8ba7a878888caab9a8a777857a79667766a9
col26:   3adb8eb8d987b6bad8cbddcaabe9dc999b9ce8eab8889ba7cd7b8ba99baabdb7db9974cd798b9855
col27:   7c995766987d97cb7b96caf87888b7acfeaa9aaad8779c89bac9869d69675a7b79b764b57775c6b7
col28:   56ab8b7aa8c79a58a97999a967aaecc9ee9aada8dc989cf9b9bbba9ac8d8bcc7a998ada8a9569749
col29:   67b7a58c99a9bb8bd7d99978c8987a9b8adcaabc9bb8bf9c9b9adb8a486899ad58a5754656978896
col30:   58875abd68db7da7b898adbeaa998d98bddbc9adbb6c79ccab9a9c6aeb6d988776aa49995a878a58
col31:   bab9ac89bacb979bd7bacab99ca9af888dcc8ddcbda5badcfa8b8aeaaa78a9b99b9c9e8579857973
col32:   d777aabb884789ebbb98cb796b97ab9f8dad989beb99b8bb6b869a89aab7a8976b956ba7c84986b7
col33:   c9a98a86aa7c79b7ecaa8e5cdaa9a9c9dbbbcbcecb7bbcd97bac9ccdcb9b8c8bc998987c896a8888
col34:   8c85bc8998b9abab9cc79d9dac9ba9baaebacdbbb8bbab99a9e9bbbdcc387dab86dab6aaa6aaa8a3
col35:   a878cc8ba5985a9bb978b8accdfac7abab8acd7b9bc9a7bbbc9cbdae98bad8bb99ba675993957978
col36:   6aaa67ae9ca8b99badac96a6af9d6e96b5f5babbaabd9c8dacbbb9a9cf98eaa79cab8a75678b85a7
col37:   c468beb97b858b59db9cfcb879cdadc89ccfbca999deb98d7dc97eb8b9aab8dc5cc86977cba665a7
col38:   899babacabc887bd9aabbe88de9ddfbeb7ecbdd9aadbfe9fbcbb76eabdcef67baacaa588abb75866
col39:   e9c9bb588b9a9a7dbaecbaab9768cbb769cbdcfcddd8b9aabb7acea9aaccbcac79c9999be8bb9766
col40:   e8dc77a98caf7acbd88a9bcbad8aacfa7bbcbbb99cc8dcdbeed88899db8bb9bab9babda7986a7974
col41:   999aaba9a6c8c9da8caabaaca95dd9bcceabcdcacaba8cb8c9e9acccbf8ed68c77a6aaa99b8a8967
col42:   b87cabb85aa8c7ebdbab8b8cbb9b6aabdc9ae8b9bcd999d8c9bbc9cbcbbb7bb8cab8aba8ea77a974
col43:   9b8a8acaac9ba8b997ca9aacd778ac9cf9aaaadabdceb9a8bbcae8e9c8c77fcabaeacb59aa7a67a7
col44:   c6c899947bb99d8cabdabab899b8c7babecedbd9bca6b999a9d8c9ee9eedab9aebaab88aba7a9aa7
col45:   7a7996bcb769b9999e9999bcbaaabebbaf9fa8b8cb8aaf9ac9ba99bebccbd9b79b9a999b9aaabc87
col46:   c9da93c9d88a9acbabbcba9b8adb79bcd986d9acb9ec9bebe8eabfcabb49a88acaa6969a9a697b39
col47:   b9b789a798dbcc6c75da9b98ba9cba98edaccaaaaacc9ebc8d9fba98c9b6ac9bb6f5a8989caa87a6
col48:   999aa78a4cbb586bc7d6b89a6beabb997c8c89baacecc9aaf99289d69dea86bf9928d9a997778a97
col49:   56cbaa9699db67aada9bb8adc9dab79c9998c9cac6eb76cfb88abdbe7ecbb688bdc9d7aabc77b997
col50:   6889e9c677cb989d5b899f7a9c9c8ae989c7acbdcb9acbf8babddaddb9d9ab8aeb75aa897bcc6ac7
col51:   9c56a8a78baa8aa4377b899a967886c8b899babc84bbca9699799988dab9777a79b757828359a567
ROC:	 BPix_BpO_SEC2_LYR4_LDR8F_MOD4_ROC11
col00:   9898a899969cab66866869998965b686a697b76bbabb78ba6656499696a669735a76868976766a66
col01:   878a77a7dc979ab8b87a9ad36768877a78be9bcc9b9ad9ac898888d9998978a86a69a9949c63cb46
col02:   8ac9679975b6947a986b8898a554baa76a98bc689699988a89b866c758b7ab8768494a888566aa68
col03:   a5b7464a977cb9abb777777ca846899ab9757b79c79b4da7b7aaa7978a7a959b8a897486a9486884
col04:   674a65a78a865b599a996ab7c9aaceaa99d88789dacab6aa89a9baabbb7a57bbc67667988a6a7793
col05:   5a77548a7696d976798ba8a9aa897976786ea68ca698b578787c798d86c796bc9aa8b65758849747
col06:   979b9a775b879795899a9788c88ac5b8864a97bb8977b5aaca9767b87975a6a6989a86a798474a68
col07:   8958aa98696a9969ac85c78ae7adc9568a9ab7996aacc9ca7f99c9687baabbb8aab8868da7999698
col08:   85b5975c7778889b99a887aa998cbbb9e87c6ca98abbcd9899899ba8dc86aa89766979ba447a4672
col09:   566867bda7a896ba6999957aaa7c7abcaaa8c98a99aaa699788b7dac94aa9bb87699a89a7a966867
col10:   69bb8d75a79a8589ca9989bc5baa8b99a89eaaa8c98d887b6ca7855aa6e77953897a947a6c666777
col11:   a6bc889989984b7cb7786a99a69cabb8eda9b569ab698b5769a8db998a9b95a5a69aed777738d698
col12:   7795a7a78ab7986ccc7ac8d69bac8ad8aad9a8a9c76b786a998ac89958c869768baca996b858a896
col13:   db677ac7958aa979e888a878cbace97bb8bd77ba8e6abba9b5789769a8cb49a5a4b77679a5ba7489
col14:   79a9bb99946a9888bddababab89a9a5bcc98898cd998aac9ba77778a979a698a9855999595878a58
col15:   477889bda6b79989e859a979c994a9b8bb9abb9a958dc6cafd98489ba9ba7a86ab989a86a7499a86
col16:   6baca98a776ba697998ab8b778cc94bab98888dfbcb8699a79a99c975aae9a679387aba588585965
col17:   97a6b88bd9a5a7997b9b89a278d58bf6c78d9c9d7abd86987ab87965957b97687777ac7bc4678824
col18:   84a5ca8c867897b97b877caa79aa79bbaa79b796899dc9a69a5d47a6ab9be8d7788678a678875964
col19:   9997a98b78c99dcb9ac8ac7ac9a85ba926a7cddacac9a7a78a689b88a98bb96c8cb98599996a585a
col20:   9b4487599a8899769a9588a9ca7aa9b989757b8a7b7aa9a79d6a6a947c88b9685b858aa373859889
col21:   88b6c967b86aa999cb9989ba7aa56a498cba968b9a58589ac9a99ca69b839887878977699797a514
col22:   752798ca479c9c92b5dad99ba988b6779c989789cbaccb6aac89b7bb5799686a4aa8a787b58a5839
col23:   78988ba97794ba859b8c9c889876a6b84a97869b79d7957787ad97b7ab9668b9a8a8689162679265
col24:   488ba9ac7899491a788787a998a99979c9accb5c96ab987b9ab79a7cab8688576988993468676688
col25:   b77c8a5ac5aa898a8ea9975b98e886b8babaa889aa57b799c9c877ac996c3a97658a99a89767646b
col26:   a967bb9c98a9aab99bcbabdba7cabdbabcdbccca9888c6eab7abc7abc99bc8dbba996a2897977aa8
col27:   d96786a99aac69aaa9aab9bb7babbba9ab87bba89dcbc9887bedc6999cbaccb98b799689b8c795b7
col28:   c8bb9d99d8a999a9b885d8fc9ac9ba4b8cbabca98bbb9cd8cbabba89acac989d68a9a8c976bb6497
col29:   aa9aa9bc3aba9bcaeb8dda9e97aad9b969d9a8aeacaababcd986dadcacb9c9b9e9b7aaab88e8ad68
col30:   daa8aab7d99eccd9c87b8bc9b8acd9ca9d7d9ccfb99bbcc7ac9caa8aeaa9a97bcfb9abb979ab7d5b
col31:   bab7b6baadbdad9bccca1da9ddeba7dbaddacafaecb9bc896ccacbaab9ac7bac88c9a886e9bb8974
col32:   cb9bae88edebca8eaa99abdbcdc8ce8bdc8a6bbafaabdbfe8c8bcb9acbced79baac78aa9b8b96669
col33:   d8b7b9acfecdaecae6d9b8ab8c9ca9bcbf8bc9ce96bbba9eca989aba9cb8c8999fcaa9ba7dcb7957
col34:   dabbbadddeb8cabaadaba8898bfdea79fe888afcafcd9accbbabee9bad8c8cb9aa88b9cbc8a8aa98
col35:   bdc8d79abdd9bebdaeccdcdccacb9caccedc8bab9bc9dbdcceaabab8faab8da99baca8cbcb8a66e6
col36:   cab88baabacebe79ddddcbb2cde7bca975bcda7bcdaaab98bb9ad8ad7cb9d99b789a79aaa88db9b5
col37:   bdbaf9ddcebceaaba9db8becbcecddedb7f8ebe9bbb9bdfec9dbadb5a8baac9ba8d9b9aec9b5ca79
col38:   db6ed7bdcb69bfcdcddbadecbdddcadebdcefcb7bdbccba9cdccc7cdcdcecdc9d9acd9cd887b9579
col39:   dbae9cc7bcaeb9cfddfab99ecccbfaeabccdaacfedccdddbdedd9bcdccbb99a86f89d99baa9baa65
col40:   b6bdaeebccaaaffeeabb98eaecbdadff8ddcdc9ecdcbeeabddbcbdbbbbbf7cbcbaa9d8fec9aec8da
col41:   cd9eedacd9a9dccadebaccccbedebfbfcdadc8f9cdbbbc99bcbd98cbeacde7c78aad8cafda98acca
col42:   abaecdbeccecbfa99afbdbaccb8baccecaeb99ffa9dcffcdaedbfceebcded9dbcca5caaac9b8baa7
col43:   edabadadafbeebacbafdbfcffbdedd9dfdb5dbededccbaabb9cabfcbeccaa9fbcb7f8b8aea8a6e78
col44:   edcacaad8fcddededfabcdafffebbddfcb8dbcdfbaba8feadfcabccbccda7cbbcdbdcdab9abc9f63
col45:   efbdcbbcd9ccb8788cdbccddaacadcdcbbcadcfd77edabb89e9dad5cdc9bbccf8ccbac9bdc9da7ab
col46:   9bddc7ada9aeece9efebaccdb89dccdfbccddddddcbbdb9aefbebcdcfa9cca89bdbddfc8aba857a9
col47:   bb9adb8c9ecdc7cda9dcfdbdebbeedc89eed9eadabcdf6cdeccbfdbfebdd5a8d69a99bbaadb99d84
col48:   cac69ba7cfcfbaad8bcaabbfebacfbefdddaedfddcccd9ecfcb5eedacbbc8eced889babad8db6886
col49:   ecacfcbcddb8dcacfcb9c9cdabcdccdcccf8ccedafbcceef98cdfbfe8dcebfa8cbbadbab8accdc97
col50:   b7ecfcdbabbdbddcbddedbdbefcedefedeeeccfbbc8fdacbbecbecffcbdfaa9accacde8bbb89bba7
col51:   ccbba9e97dcabcaebdacabffcbdc9baadaccdadd9ba99abdeeabfb7cd8fab99ebaa7bb9a7ab99789
ROC:	 BPix_BpO_SEC2_LYR4_LDR8F_MOD4_ROC12
col00:   8946666b99985565869665768bc6678876cb47848565b85855786898785457a894368b8978689771
col01:   787798776754adaa7b8c95779b8b9a7956699887689a6a99ac88ab9c8ca767766b94857837797561
col02:   a6a9a6897978689a577aba6898ca9c699c976587c7b98b786bb8c86538a68a688688755194774754
col03:   a8978837a9b4baa977676b7aca8bc79b7aaba979d67999a5a6655678b57799ab8769679547888695
col04:   478588b5886bb888eaa779ab8689aaf79ae99ac9c8a7c8d54993a78ba95678889a4a9956b5757882
col05:   39a67877c89c79c7a39a48cdca96c7886889baaa84498998969879866b58888966656586b2848687
col06:   a595a7696c9647968b668ba7aa89b79caba9a99ab67599aab4a767c7bc89ccbb6b848a55a7835575
col07:   8c6ba9867788897859999caba9787b589ba78b59aa9bc8966ab7ba89896965988b87a65766573474
col08:   6976396888676b7aa87647499985a98b7c97aa8c8697865885b9685c777478a87627491697695765
col09:   57ab97a59b989caa8976a979a86ba9bc89a9db7a89697b978b7bb8a886976ab76986587769354755
col10:   77797a55a79b89b8a676b7769a79598a7a88a9997879ca987aa7c767b997a4a995988a87a6663966
col11:   775979cab9b77638754bba79c77898a7869a97b8accaac789d888993948b588aa6a67737a8795535
col12:   a9499856686ab8779799697899cba87c678759a8a668a7b558978a7697bb4568787893693a657672
col13:   85669778648768868c98aa9989a3bb9896889ac4b6679a78aad9aab7aa7786996575a459c3487957
col14:   876875694aa96596696978a89b67698879c987a7aab779ba5a979db8ca7788857b48465955466967
col15:   a6a56997c9a7777c8978d8b8b86874879a88ba96b7999cbcba8779c89b889a8775a8a68785738642
col16:   6787776993999cc87bc7ca88b7a8999ab9699898bb968ca8a58879588b967677873694b845686777
col17:   879697789988b99ca345897888499c8496636896aa8788c998536999887548756874845745494445
col18:   6867986b567a97898aa5a997655aa78a89977ca99b86986cb9998987b7a87968a567a54b58576981
col19:   6499784488a685a5769ab79a89a8a9967aa9cc5696aa86b7abaa8bb696899aa48697876656455546
col20:   3875958858a8b97775b8ba89898cad6ba99789878c78777ba89b4b9956836a89858457884844827c
col21:   5187679a7a8987781b77bc77b78c9cab365ba95988798a9779ac8966c78948aa796956734867a469
col22:   889996976955a77a8779699b5bc88b88b7aa89aa4899469696b99b679489768a5666717756848373
col23:   56775967758776873888a825878a8fc65688658888c97874b3579a8ab9a63a6a8969864735577541
col24:   67999596597a57987c8c8899a8c6b86a9abc6babd9a5899a4b8ab887c67978898895a8855a641257
col25:   96764867596a979a8e9b88caa977d7ed9c87888ba68557bbaa87b87a8b5ac477767aa734b7637672
col26:   47e9a7a897b8b688a5d9b97998c9da878acbaab78da99ac6cb9a98bbab9ba88a9679abbbbb488764
col27:   c7bbca8976a9b7a8a99c6ac77c8dab8fc99a89b5a986aa9a888c878ca9b7a687c9987898837b8a57
col28:   86c897ba8bb8bac9ad89bcb8bb9dadb889a7accabcaa986ccabb896a788ab988cbb8bc4969676687
col29:   79b7a9997ea79a8aa8788cba88ccbac78b8b898a969ac8ddbb7989a998879975a868897a7ca72596
col30:   9859889bdbb7c96779d9bbdbdababccbba98badcd8cdccab9969b8dabc8bb9add9a5bb6a796973a4
col31:   b9659c89aaaac999ba6abb97a8b9abccc8b7bb9ec9cc9eb858bb9dbbbca8ca68a8ccb77586879a66
col32:   887d9abbc8aa8a8aaaab8ab8b7baacbc99b79daaabacfacaabbbaaba9fcbbc8c987b889798797288
col33:   7889b987aeaada8598b669adcbecb9b89bcaeaec9fb9c7bcccbaadabadd99a669cda8ca765935675
col34:   86d87ccd8bb79a9adb87a9aab88789ccd88cba9bbbb8c8a89bae8dba9b9dbb997a9a8599698a8a58
col35:   b6a98c7d9abaaccb8998889bba97adabf9bfbad79bd99bad998eaccebcacba8b98aa757caa778897
col36:   be9a8a9bc7bbc6a9ac8adba97aa6cdb49bada9ac8dbbc99cca9abca7bebc86a9cccaaa898a888a77
col37:   89a696b8dcabaaaa7abbaa8c8c9cabbbcbbebddecaabbaab99a6abbab9998bc7a899cc696ac879d7
col38:   8a988b9bc7cac9daac89abbabcb7cdbacbbfdcacd9cabbcaaadbdcbcca8cccabbce5b6997997b79a
col39:   ba99abdbbe9d89c9bdaad9ced8aa8dddf98d98bcecbedacbbbebbdedbca699aaab896a99b9ab996a
col40:   aa89bdbaa8997ba99a8b99e79acbdb8f5cf8bdbecefcbacf9cba8aaaa9dbcbbcbaa979767968e7b7
col41:   9998686ecb89b6bcacabcabb79ffcc8ecccabb8aad8abecaccdd88ddbb8bc9a888d8aa96ab768797
col42:   969b876b786798b9acd8aab6b7adcbba8baddcdaabcc9aa9cacacd79ac7cb79cb9cd7dd9baa48a6b
col43:   a8c7c99c978c6dd9cba8baaebcbdbbaafc9e6ac7ceebb9bdc9cbbaaabdabca88de8cb75a79a787c8
col44:   7c9eaaaccaaec8ab97bb9a9aabacedfcecbbbddbbbcebccadd5eeecc9b9b897bbb99957aa78ad776
col45:   889a79988979b896b98dacbb6dcaacbcb9aad86adbbd978ca88ccdaccadbaabb9dca87b8a87b8888
col46:   8b99958baa8ba87a968bf97a99bcccacb9abecadcdbbdaacec9aa98ab89cd9bbabb9ad7a979fa9b8
col47:   a79dbda9bb86d8abacdbdfa7bbcadb9bb9faedc8caecaa9bbccbeaabdccdad9a89bbc79ba967c746
col48:   9dbc9a9da999d889cbcb9bdd7bd9bb9eafcceddccbaaeadcab8c8baa89bcbb8d9b78b8b868aaa716
col49:   8a7acb9b9c8a579cbbac9d8e9c99daac9eab7eecbbbcf9bbbdab9bcbdbabc9abbba999596a8a9c79
col50:   995c88a97bb7dc9a8b9cbbcdabecfbbe9ccbdbdbbccfbfbcaaadbadc9badda9898a88ac7889846a8
col51:   a6799986aa848aa898995dc99a98c9a9bd9a9bdaab8d6caa7abfa97edf9e8896a9aa7b4774467874
ROC:	 BPix_BpO_SEC2_LYR4_LDR8F_MOD4_ROC13
col00:   6546283b6884976a5776baada7797799a8bb74bbac45aaa8a7969a77d8986cbc7755557878931854
col01:   98b888888c9a99983b65785b988a498bd9896e887799a9ac8598b98c9974378467ab98895a96b878
col02:   987689b199bbba5cd799976c9ab87b9d3767d5d79673687ca75c878aab9d5b986e68995968757344
col03:   8cad487a7da7a7aab78c86cb7b94aba9bd849ab7cb995bca897a6abb9c567aa5b89994c73477b599
col04:   7cba7cc835588d8cc786bb8857aabacbe66dae9bdca88aa948889c5a7b994877abb5a57658533521
col05:   4697597977aca877876a5ab9c759dbba9c79ecaac8a997a8aadf49a79db98ba8648ac975866d98a5
col06:   5688796c9eb94ba9cb979badadcc898ca8a5b9cc5eaa9cab6a588ac98c897ac985995a86d9ab6197
col07:   7a939666884a65797caa599829abaa8a9d3e67d9b99ab939969abab79698a9d99986a86477712776
col08:   988a68986798b8c9777af9975a889abba586c97baebc7ed7c94757aa78687a6b9c6bf47899c47565
col09:   99ac658bdca899bba57bea8ab9656b9abf7cc9bcc79bc94cbf9a9878a8d6ca598c4c7656a8b7a616
col10:   9adb576a9b89374a767a7ae996ab988f8a7ca6baaa7bb9799d68aa74b8aa7cda9958559a716a5596
col11:   786baa9cc7a8468b9a7b7b567cc97d7b7889c9f999cd67ab798c91ca97575a6739c85f566a3475a9
col12:   9d7bfcaa87bb968869a9a8997cb946bec9be9789da77baa6b69b79b7a8a899868383aa746848a551
col13:   9a7c7a98a86bb8a9567acb987aaaca7bc79a6fa85a5bacacb8b9dc9b5dc9876b8b7499a556527723
col14:   c79bc5db99ac78abdc876c7967aa84967c88d9897bcb95b769aaa71b68a878758699855667957278
col15:   788497b6bab797b9b97756cca96ccb899a7eacba99d9499bacb3a577779b59aeb9ba5a49889888a5
col16:   5877bc8a3b7b7c5676a7a859787a965bac99da99cadc8a8787c77ca8ad999cbb79cd9985a8467857
col17:   957a9a6a7a468b9468c9b29aa7bea7a9998fb859c889d78c4a4c7575894c892cb41516a596687988
col18:   679b9a8baa9688daaa679ba8b99aaac7c9d8aaa7a7b9babd9af497af559db88969c74ca656c49656
col19:   599545b795c88aa6dac9776bad76a93889c77a99679b99daab5a96889576b9886369a69748956a38
col20:   555a69677897b9a798a98e8a8a7a7aab7469b978b7ab698b75b78adc46a174d4bb668653287a754a
col21:   953756bb89b7acd66a8a8bb99c79bac679996bbfbbc87d88b87976c77c9889a69b7699ba57756374
col22:   7675a7a978baca9c7796849958dbca879b6df987ba6778a698998987f7a98439b68548788657a991
col23:   b667889b29c9693b948c84a79bb758a78c89aae57b968aca6cabb88c6484a5778c98486658677686
col24:   36a9a79b8b77ac787e8b9cbbe857b8bb9b8ae9aa678dcabb7b9b9995986987565c468a5592948388
col25:   698c89b9999773868caa8aacbabb789ba89d995dadca4c96873b89ab8a7871957a8a84a947995474
col26:   bb99ccba7bba87bb9a839d977ca6e99dbdceabdbeedb7edb9dab9ea9e5ba9696888bb994ba99bbb5
col27:   7b769aaaccaab79798a79ae77a98b8bbb9bcb6bcceec7cece9b78cadd98bddabdbb8798659587ab2
col28:   6d96aa9dab9bb79ce6ae8ca9bea7accb7b7b9fee8b9bcedb999bbbbdaa6bbc7d79aa8abc64779aa4
col29:   787b698cbbbb9ca9ec779dba7e87aa79f8ced49b9c899a8fa9aaa9cbd9acb68779b95a8b694888a9
col30:   d5b9997ae996a99ad69cc7ab88ad79ccfc9a7eeabfad77bfd8db9bdc9e99d8686b7c6cb9a955ba97
col31:   869c9abc8cdb9b9ca7c8bdeacfd9a9bd7ef8df98fcaf8bedbebaa9fcebbdcccf8aaedafba8ad8837
col32:   89ab9c5ba8a8be7b7cbbf9aaadcc78dea9b9ba9ddbaebc8bbb9c99b9adfcbcd8dba97aacb7994393
col33:   bae9d9b9c8bebdafbc8a89abf9c9ccccbfeacb5bdcfadbdfa9bc6abfbeaabe9dac884c89bda8a689
col34:   4677a819989bacac7ec8da87de97b9aeca79e98d7beb9ffaadbcdaaffd8da99e8cac6b766a78a664
col35:   498c6cca89a9a9b6acdc9cccdefba8defc86d9cbeb8dbbc6d4bbdddb9b8a99c7bc9a9aa38abd9688
col36:   b79fdd787eb3d89ddca7bab7c9affcbbacccfdaf7cecc9dac9acabbfc87dae9d99ca4a9e89d9a889
col37:   84996aad97cbbcdde68ca9da9b8e8aedfcafabb6eeecbe9cedd9cac89a8dacaaaba9b789f6b66788
col38:   97c8b8a86bb886e5ffdc9fdaead8cfabb98dccbea9ecccfcd7adaaefabffadcdbbd8a5ba99bcce99
col39:   a79789c6fabebbbb8abfaac8fdebbebea89ed8cb9bdcedf9aeebaeccbbbdebcbaf4dab8b55b94a67
col40:   6856a85db8ab9bcbadacabefa5baacdfcefccfffceaabbceceff9b9cac7abacdfbabdeac74baa9b8
col41:   c959afccaadbebdbcafcba78dadcbcdfdfeaaec9dcebd8add7dddab9cabd9cb78aba686cc5dccaaa
col42:   99badde97cbacceccbb8b3edcfdddaceab8ddccddce8fddddcddad9add579db9e9cdd9ccaaaa9b76
col43:   cbcd773ceaaadffadbdd88bcdfbbecacbba9cd8fafecfd9decafe56bceab888e9e7fabcbf8b9985a
col44:   b98bd89dc9c7c9dbeb6799bafecccbc8b7dcf9ef69b7c99faecaa9db9b7adb9fa969c9bdd9b7a9cb
col45:   a9aa7bbe99c8daea9accbfbcac7dc8cbffcccba89cdabd85ccdc8cdf8aaca999bc99aab9fe58b997
col46:   d57bdb89baf66ed5afceabc97deadb9cf9bbecaceae9eafdcaad9fcfccd6acab9acedc7abbe9dcc8
col47:   9bb5bba8b9a9999ccaaabce6fbabcab8dbfbdfeaabbdd999bdfaaabd9abb7bdcbbc8c68a98dccab7
col48:   a689ab78a96b7cba89cdc8b799eddcdaabe9dbbfa98cdb79d9cbd8bb9dbd9eca8bbcae8aa77967db
col49:   95c7b8cb8a9ed7c9c68cfbdbbf9baabfcaacfdbc98fba9bd8eabdbaddebda388e8a8c8bc8d4bbc7b
col50:   8c88cc99ab9697c5bac8ddf8b6bfaceab89dafcb7bedcbcebcdefcccc9bcbbcccb78d8c689a67c98
col51:   6589487cbd69a7ea7b3d9bb9cc9a6db9fbbda99dccacddb97ac8eb869968b7baabb4bb6a89546b9a
ROC:	 BPix_BpO_SEC2_LYR4_LDR8F_MOD4_ROC14
col00:   3444573244486a69aa7658c5477988686a5786848a75887a2b58637696285638556d785684926867
col01:   68b658a5ac787da7a96a6b9ca9998aa8c5bed77d68987546a99c9979a98776aad87928546684b694
col02:   27b6865ab9c3898778a9783986e87a6b8b8a7977c4924e8877a9a87969a57a6a66b6874794652746
col03:   62599783a48caa64a758a7ca8a88957a976fba995996caa4a96b8a779999658888a65588517724c2
col04:   8a79339c87577c53ba6b8a98b77e98a9a8986b94785788a69ccba7cafb97a96876977b78b9645aa6
col05:   b463a873979a887b36779478c7a6a998887379a758ab97889a57868a859897789879874666186343
col06:   3564c9649a8ba97b759779d88db7698a89ac96b8897a855999b757574a4be79556766a9498236576
col07:   46659876b65b79ba5eabb9b7cc97dc89bb887f9894ccb389798849899c98bc8b8a998459a59785b5
col08:   55856539967b879796b9d869bac99bf8e6846ace9b99a48ccb816994bc8a9aa6967787b996836635
col09:   7794937bb9989ba95bb995b8c8ab77bcb8b8aa9879b8983c6769aac98df6a4c577888747a7778b58
col10:   5946477865c585d8aa766aa996a4988baa67699dc69cc9a8a9da5a51898c7a94c9f67a993a934774
col11:   6275685589bb5497a4bca86ab68cb76fa78697c7ba9a5a9c6b886b57b6997a662785b7869a587876
col12:   6764566747693b2897a5796a8aaaaa7b9bccb97a2987a8747966a577897668897a56844896297848
col13:   a844595a89999598a57b98aa67b6877caaa988cabcbbd578bba99abbcad67a98998ba43847595967
col14:   45826c87285a2a487c3a69ba686a78a96dbb9798a9998a97799e968495788888c579a6a68446764a
col15:   934889986666b595799b9a678a6b89697c679c499a8777ab9997a7ab676da9b78888aba1846448b5
col16:   a98979476c89a5775a79588a5f7899593ac5aba98c6994da9aca9ad8bc858a9887799995a7545476
col17:   a76276f773b9949488899676a97b8a9989cc998ab4cba7a8778696ba5a89868ca6aa329996649847
col18:   58655685874a68728593ab88baad8aa59777be99a97786d957b9b97979e9698877a237a7668c9887
col19:   7672c68ab68779a784267a479dc57ac8b9a89b58ce93bb96b8eb34ab888c58c986698a44a676975b
col20:   6758889996865c4a76767bb87cb7aba83a7ac972a9b9788829677cbab5a859885965457986757392
col21:   4538b9867a9a6c76ba698b66786a8a987ca5b9a84a9b98bb98b867a76aa9999a6663b98755879443
col22:   7567665865bc6898767aace97b58549d6989b993a8a73b7ca99b847778a7843b989b8a49a68b566a
col23:   45555752869759a59c759863787b787a6bcc77a58aa74699bb7b5a69bb4a6e769b7976785796376c
col24:   9a8939bb943695689aac4a7cbd4b978b958a8ba635778a87cb9bb9ca8b86a86777b6a73491793986
col25:   9a9bb584a5b987ada887ab9699679d666c368796b6ab88cb9b589a9cbbabb989d89aa41987656854
col26:   9c4c7b5b56aac99d9a7dbac7b9af7ba95bdcb7cbc5b8a8baa8afcd9cbaaaa9867d9977aa7a959785
col27:   5577b78a6e797adc7bbaa697c9678aa7c95c69c7a8a896bba9a8cbbe9988a4ab9b96879935a89a67
col28:   5b89abbba97ac89ea8aa99ca9cca99cbea9ac8d99b5debfc795a9a9b9c89bb96789b9487979f9854
col29:   7a879799b5acd9887dc9975ba9aab698c7ab79aa7b68aac9e999c8d7beb9dba98b556994e98e9985
col30:   479b8a97965acba99badfdcb9bc7afa87fdbcd9b867999bcacc8bb7877697caa7adaa4959a5996a9
col31:   c999ac97c6ca8689d8bc98ac9ce7c7efacbbca9babd7abbedffa7c8ab5ada9c897a8cb84a8b99978
col32:   ad84ba9d88aba8baa8c9d9bcabece89fbb9a8bb9bac8ba89c9fbba9cf87eba8baaba9acadbcaeca3
col33:   7a44898bb7be7879996bfadbda98b479bbcabfabecbc9aa8ac8edeacba7adb98c76abda739797849
col34:   a78a8c98ac898a868bee9a787c6cafb9f9c99d9ddba5b7a9ad9b88ddfcfae79ae976aa968cbd1896
col35:   88acab9474587bc986bb79acaf98bca87b89d8dab8b99ecacdcdeaa6c7c9deacc99c8c8ba9558b68
col36:   75878abdeb96dcac8ce89eeb78b8dc7b99d87999a6abca7bcc5d7bbc9897b869a8dd996bd69949ad
col37:   bdc7c7bba9b8cab97c49dcbaab9cab9dada986db7fdbcaa9d8a9ad8adbbbc9e79ccc9dd7966acb77
col38:   7999bf8bbf989baca864b998bf89bb879ad88cecdcbd9e9ddcfcc99d9cee9aaabcacabaaaaa8b57a
col39:   b8878b6bba99ba7c9aab8b59cac9ecbb9a7dfc7bdbcb9bac76a9bcacd7b689ac99fbb8a89ba47788
col40:   bb7ad7c9bc9c9b8dcce98bde8aacbcc8dcadccab969ce9ea9b39badaedcccd9dd9999c9a7ba798a8
col41:   879b798b7aa9aca6f8dcbdababdba99caa9989cc3b8badbfbaaadf7bddbb8cab6a5dd97b98a69ca7
col42:   f6a8578ca836ac878fbaaccade7dcbeb9f9cb99eebddbccaabfdf69d897bddc7a99bb7aacb78c9a5
col43:   bd57c8aecbcacd8faabd8ab9fa7e8a97b9c84879debc9e9dbcdd6989e99ea6a9bba9dcc8c8d98aa9
col44:   99aa83cdcc89999cb9beaadbc99ebbe78aa7cd8dd8fbae3fcbbad9abccc578baaac7d7989489887b
col45:   9efa968464d99a8ba89c86cb87bdbdc7a8a9daab8cfdbd9dabc7d999cb66daa5f8bbaba9a69bcaa7
col46:   e97f9cbba9cbaac4abe7ad99799caa8a8fa9acbcae5bdcba9bceaeafe999bd7cba7aba7976a46395
col47:   877cac88b788799cb689e69bfb989bdcdbfaacd9a7baaaa7dcbbefac9fe7bcbcab7da789fc7baa89
col48:   ac9da699cc9c9cd9d989aeef8bba7a9cdccb89fdd8c99a8af9ad989dea8bbbe5acfb6a8aa6aa89a8
col49:   88eba6ebcdcb9ca99bbbaebc8bd96dac9deacacca79abba9cba9a9b5eab798aa6e9a99895cb8da77
col50:   b99c8abd89aabd6aacdfebcdcaab7ebaad98cbedcd9cc8b7c7c9fad8efbebe8f79c8ad45b968cb67
col51:   7678648bba8968896aa9779b74baa997aba9ba67caa88b7bbbacabb976c8cb985a9796b88997a896
ROC:	 BPix_BpO_SEC2_LYR4_LDR8F_MOD4_ROC15
col00:   7669b677c6a7867789bbb699a68369ba5866899c78a9b599b7aaa698788b988aeb8777bb69687566
col01:   6b78a79d7c8a7a97799cb6cb8baedabdaba9dbccabd7b8ab6a95bb77aadac69cbc88959ab9689c95
col02:   8a98977ba8a688877aca8aa9bddab8a88aac989ab7dc9ccc796bbb88b9b77989899c898a988a5879
col03:   8aa97a77bb88aad7c6997bf9879aacd9e998c9da7adadb9a9c8ba9a8da879ba65ab8898686889ba6
col04:   99b788a7ca678796bbad85b79788dac9ba89bdceb7b3bd77b87d699a5bb997bc58a799a899794389
col05:   59976c8d8aac99b9ba8c8f9d8989e8899a9ceb8eccada69cada98db8a8798866ad89c7756a8d88a5
col06:   8a4988a8b66c9accacba8aaa9bbd97bbbb6fbb7bb9a57ab6b879b998cb9bcba9b99a679b8d998895
col07:   88a8a69a6769adb8878bb89bc8cbae89b47ad7ba79cc69faaa9b9a6e899a9b9bb899677a77899699
col08:   b8899979aa87a69bb9b88ab9bc8caa6bcb8bb6888baebab9ba397a798a967bba6a9c98da9b89ba9a
col09:   98888ab8b8bcb97bba7b77c9baacd8bbf8bbee9aefa79bbb9ae89cc8a9d88e79adc98b98a699a768
col10:   9aa9b8aaadbc676967778e688a9acca9abacd56cac8cebcb98f79bc8888e88b96b788a9887598b95
col11:   a8aa87975a89a957b9ca9899b6aa9e9b9a8aed77baa989dbc865896a48b9bd7899989d98a786974b
col12:   998996997cc777486ac98aaa7d9c99aae95b9b8dab9b89c97ccb89999aa86878797379a767ba38c7
col13:   98798aa998aeba8699999bc98ab9bebbdd98aedccbc9ceeabda9dc6a999dc94b7bb36a36a78768a9
col14:   987788a5b7a8ba87688aa9bcc979e6a9a8e99a9a9b67c97a87678cb88dbb69a6c6879a69b8798869
col15:   879a78a76656d8b7caaa9b99b97ada6cabb8a9bc99d9aaa69ac89cbab7aba7bc9a788b9b88a89998
col16:   acb7a68585a8978a69c98a67b89c8b6decbdcd8bc5ad78bc9a98bba78b9ba9a88896666b78848958
col17:   77787376b8fa89d98ba85ada8b89acdbb7b7898a98bc88bab9a899875a7b4a97d97a6a817865a595
col18:   96898989557699aaa96b97a597a9998a8d85abaa9a89b96baaada6a8a86bbbbc9c9a597a66a58893
col19:   9a87ba8ab8acba6bc9cc7babbb8b8caecdaacb9c98a7fcc7ec9a97db7997db59c6b8886a49948675
col20:   8c58589988ab9a67a887896db899bcb8b8c8bb8dacd78cccc667d9abe9a98a98b886786888789986
col21:   7934958ad87bdb69adc87c9ba9ad99d7cbd9c8bb8dba9aadc988bca97ac7a788979b8db975888996
col22:   8978aa68a89877ca96d8996b997acaafa49c6ab8ab96c97986abad98dab9a978988778575a7a5665
col23:   bb67a55999c89587969ca599d9bd9ca8a79da99bbb889cc89bca8a9abe6e6a66bc8a89686458d474
col24:   996aa9865baabb4c9a97ab96c9b69798aa8a9fabb89cabad98868a5694878a9aaa677a8a7d83a995
col25:   9a88bbbaa7a99aac879bdb8ac8acdd99aeaa987bac8b77b58dd7aa89aca9779863b97688bd6a7976
col26:   98db99877d6bbbbab9edc99aec99aebdbbcabcabaab59baccbab9ed978aca99cc999796799a75887
col27:   6bb87baba6edb99a9ccbac9aaaa9bcaedecbbabcbba9bba8aa6998cbeaba8667dbda8a7899a898a8
col28:   9886bc87caba78baebdaebaeddbbaebdca7eccdcccabc9d7a9a9a9cea7bb7ccdbaaacbc9ca9ba685
col29:   a8dd87bcdb5b6acbbcaababc9acccacbadc9ddbabc68d9cbcebbb7c86abc7bc6fea9a8aabaa9959a
col30:   8b7ccab9fdeedbdc9e5adbce79dbbecb9b8d9cbde9dadcbad9babbf9febbca988cb89688aaaba986
col31:   9bcaa7ad7bdfbec9bececbe8acadcdbdabbce8daacbaab99aa5cc6eca9dabb9dbc9ac8ebc8aba9aa
col32:   8bccbb8aea99b9bfbdba9eaffbb7dcbfcbebeba9cbaaebd8dc9faec9cdcaaae9acaaa8b59bc9b9ab
col33:   97daebcc7abacbfba9d9cdaeecd9eaddbcbefca9dcccbcbcbaabec78dcbadac8aabbca8bad8bc77b
col34:   b99c8adcacbbd59dcbccbcabcdcb7cfedbcbacdcbcdcebebffedc9daa5b9b9ca8a8bca9ab977abba
col35:   9b78abfabdd98bc7caddecf9bbccccc99dfccfbaaed99ccadcb89aaadfbaaca8eb8aacb5cabb8a68
col36:   cb99fadca9dcabacbbdccab9bbbefacecbfdcccebfbdcafdadeafcdcebbddbab9bb9b9cbca69d887
col37:   b8ddc8a7ec9bc7ba97abbbfeafadabfbbdfcabbdbc9debdec9cedbccbeccbcabeafd7c8b9cb8c9b8
col38:   cb8cdb9cbadcccdbbbb9bceae9bc9daaeeabedeeddffedcfceeeddccebfc9dfbbefc8bb9b6d8e99b
col39:   fadbdd9b8b9bdbbbddabca9d9da8bccddeee8bfdcebcbeccdbacbbde7bddcadbfbb899bc9cb79ba7
col40:   cbcbdeae7bccabbdecb9bdbbdf7ccccccdbcfdbbaaeccdeacfacddcded9cdecabadbb9cb9ab97ab8
col41:   eada7caeebabd9ac8c9cdbbdcafbdcfcbebfbceeecccdfeccd9deddacbacae77bc9a9accb878cbba
col42:   7fb9cadb9baebaadbddcdddddaabfcddfcbeafeddbdbf9dcdbe9adaeddcbecfbe9dbaaad7a9aaa97
col43:   89baa9abbfedcbedcdcdd8daac7ebeddebd79dee99deecedeebeebdcbddc8a8acbfb9b9796acc9dc
col44:   ababdfbdddceefcecebedfddc99bedabcde9fdebcbb9ccdecdddeaeceddcdeaabc9db7bd7fbdbd88
col45:   c9cc79bacd79daedaedbaf89aeaebaaecbdcffebecafb9bdaceecebd9aaccfcbaa8dab59cb98c9bc
col46:   dbb9bdaadab9fabcbcb9ad9debdcccbffccc9cbadebfdeea8fd9acfdcccac9acdbbccb9cfd7b8c9a
col47:   c9fbcaebac9bbbfbdb9cbcbbe9cdfdbbeddeeefdcfdadfaafbeecb9bbeccaaccce9c9a8abcaccbab
col48:   7d4bcbacceaccbdcdcfbdaeaafabbc9ebebbabca9d8cbeb9b9ddc9ddfeae7ea9bcaea7adbbb7cb9b
col49:   ba7cdacbc9bc9db96faaaceffcbb8ceabccdfeecceaefbbdeeeddcbabdccacaafea69bcba8a79e8a
col50:   ab8cbdaac8abdaa9bb9dedddcaaacfbacbdecda8dcfc8cfceffaefba7eabeb9bacbeab7ddbccbbb8
col51:   9b968db77cba8cdcbf7ca899beb97c9cefc9eecaa8dd6ae8aab78b89f9899aa9bccc6ac79a6d9a79
