ROC:	 BPix_BmI_SEC5_LYR4_LDR20F_MOD1_ROC0
col00:   66375855937658646745757867958574b7a8784766587565567b9a4494b679966754985676479b34
col01:   538399657688764546847766a9b978598869699676979576759a76b8788a99a767878749977989a8
col02:   42686457684a94578996648866997b8aab5a8663989886659595866957a75685a677a89658868887
col03:   65797a54667587667a6a89668788956a9ba5665976679899a758b69789497776898988887886765a
col04:   87753a3696764281a778a689688a556999a68b46868696764a68b5698796896b69588687b9898899
col05:   5867827847778677888289968887b98648855868a469a5a7897c66a7887b84558969a997546a796a
col06:   58767646685487899b687946767786a98986998a8897977878779997969779868668c669b8575b75
col07:   465688697aa678649b588777896679c878899977ca9bba6b98857a54a79aa96a77788a89a598ba7a
col08:   836896655559979a57a79677897877988ab89b67966999667c46a79778976967b9d667a8899688e5
col09:   76779b777a688488c5679bcc998855996a7bb9766b5a9b87758758899797697667aa9b98ab8a9ba9
col10:   638795357786a4667798a757a987778677767775967a98a759957a7ab8ab869873999b77888a7aa7
col11:   586755a877797897787a88b688758ab8bbb5a97b879cc96b5989779bab977888ca866b68b88859a9
col12:   46567887dac7a47a887977a9688aa9bb6969a9a999b4a6795756a69b768b8a565689739978b98999
col13:   7977866685a767a9667b997795987889a86a988cbd787799767897779ae897788b87a7b9aa988868
col14:   56677466a7978568995a86a8a848985967a969899a99a96a8889a6978ab9a9aaa9a997a988a39896
col15:   6997699b878888866ba767b87a8a9898bb9977789898846aac85bcbcb5bd79a9b69979c9479978b7
col16:   75695b7978496aa8aa6a8577a8b598b789989799b9759a76a798ac9a5aaa9ca89bab6797796998a6
col17:   6667767836b58798aa9a8a88a99679ca8958ac88aa89a7bba89a9c9b8b89bbca998bc98898939968
col18:   845ba79a866aa88799999b888a9b998879a7c9a8a9ad9778a699a9b8b5889aa6877b8bb8a98c83b7
col19:   795998767978b7a788797ca9d56c79598b8796aba8aa6c7aabc99696aa9ba988988a99aaab9b9cc8
col20:   85475858688b9ac7978ac5a8785b98998a9867b97b8a88b8a9b78aaaa8ba7796c887989878d96a68
col21:   89957797888a8548a886a78b7acb976b98a5ba7a8479a9baa7998a7a7999b689978a8ba88b9b8879
col22:   774786b7a8a6989a7786898988a98b69c7a8a89786bb9c57bb9b989887699688874a888a8a9879c7
col23:   6995867597797a9769487c797778b8a77688c9b9bada797baaa5aa88b6899ab8a58b9a58a9d69597
col24:   5988bb697a98b66779a99776aabcb8aba89998969aa99b867c989b5abc8c9a9aa8887b787697b988
col25:   86987878b6c8c9599a985a7aa999889a8b97ca79a5aacba9ba8a79baba9afba7ab86a4d697788aaa
col26:   985b7a9aa99b6e8adb9a9999b8dabfc7cb97c9cbbb99daab9b89878ccbaaa7b799bdaa88bb98ba9b
col27:   9888baa88899bb9cb787ae79b6caa67c78bad9a7c68aabb7899b89babdcab867b96a7cb9bbb9bb99
col28:   b98b8799aa99ad9ab9aac7cabac9acab9ba9b98adbbc8bbcbbacdaecb99ac79b8bb7babacadaab7b
col29:   a9aab9acd7a8baadc9accaabbeca6bd9acd8ba999a88ebaa68adbbaedacadcbadb8f9cbd8cdaabdb
col30:   777aa79b79bc7a999aaaccd79aa9bcbc9c9cddb899cdb99e9bdb98acbbba9bd7bbacbdcbe9b99da9
col31:   9abd9c8a98cbba8dabacd9bbbcb9899ccac9db99decceeb9adbaccdadae9aeabcaecaab8abbc7e89
col32:   e979b97bc7abbabd9adbbbb8a8abbf9ccbdbabb9bbccddabaabcacbcccde9dbab7bddbbcde9bc8b9
col33:   aa5aba9aabacccb9aa8aaba8cdfaaacddaaeccdb9ddcbaabebb9dcaaadc9abbbcd898acebadaeacd
col34:   a7a7baa9cbdcdcaac89bcbdccdddadccdbcdbbeabccbca8abcc99bcecad9b9cd8c99ca9bceeadd9c
col35:   abeda979ebb78bd9b9baaacbabcbdd9aabbbbabd8bcdbcbdaecccb7abdbfbefaa9bbebbbfdcaddac
col36:   aab9ea7cdbaba9ccccadcbd9ca9bddeabfbcccedcdbbdbaebeb8dccbfedbeabc8bdafebadabcdecb
col37:   a97baab9ccc99abca8caadcbb9eeb8eaadbdebbcbadcb9aeebbacbb9bddcabdbecbbaebbdec9aafc
col38:   dabcdbcbab9bb9bcccbaaebfcbddccfdefecdeccdafcddbebaaeababacbbeccbc9ccafdebeccaaba
col39:   abacac8baaca8db78cbcb9abbaaa9dfaabadcdbc9dadaeccbcbabbedabcbdae9bcdcbdaafbeed9ca
col40:   a8bb9afa9cbcaecdcbcc9ca9becbeceecddeccbcacbfdfbbcbcddcddce9adabbcdbdcdccacc9cbda
col41:   788c9b9ebadcb7cadadddcdbcddcddaca9dbdeaebbeeceaddbfcdbdabaaccdad9cc8fadcbdbdab79
col42:   ab799ed9c99bc9cbbbcccecbacdeccfdcdadecccdedebededbe7edfceb8bcdcbecdcdbfbcc99ab9a
col43:   9bbbdbcbcbe98badacdeec9deacdbeaefacaccdbbcbcecdcdecefeeef9ecbff9aacccbdbfdd7ceeb
col44:   cacabccdcfdcccbaacadcfeefdcbeafcdfbdcecededdccdedcbeeebddcbcdeabedcdbcdfefbcdcbb
col45:   acbda9babddacaadc9ac8bda9acbbcecbdcfcdddccbdefbeccecc9bbdc7cddcbbcabb7eedbcbabf8
col46:   fcbb7b989adbcdadba8cdddcbceebbade9fee7cbdbcacdbefacaeae8dcdededabeedccadcbabfbbe
col47:   ecddbb9ca7ecac8cfdbdfcfcddbcbcddcdecefddeeedefedbeccebcdacedbacdadacecccbddcbded
col48:   9a99be9acc9bcbfbaebaecaddeebadadbebdcecfacdd6bbadb9cfabcaeecececaacaccbbacbbbbbb
col49:   b8a9bab6cbbebbbdad99cedbfdddcdcc8dedccfcfdedbadafacbdccadddbebcdddce9bbf9be9e9cb
col50:   9dabbcb9ada8bcbbcdbabbbebcdceddddddcddeebccecdeadbdfddbcbddddcdddcbdbeeeaccbdebc
col51:   ab8cbc79a98baeebbd9caa8babbdcee9bacbd9faccabc9a8bcbcbbfcbd9ccbd98ecc9bd9bc7aec7a
ROC:	 BPix_BmI_SEC5_LYR4_LDR20F_MOD1_ROC1
col00:   3333343368343176396756747555668a867b7586672566b454645254775379798a43624655444642
col01:   7422457359568454967898635998784787969569627577585cabb7aa7897894378a5885736969778
col02:   6136464575777374765927897595796a784899676684a72a7878786166884868887655c758677767
col03:   36848667566277436576796659898a76b6776985a6788a776746676a77988996747aa65766795598
col04:   549636494777865767767634a47587569a38a988598b8648568a6a798b76467a256755b6957766a1
col05:   367678486466766578749699568998769a5787759687879867988998788499858687897a76548a55
col06:   35555675688666567765c76697979957899557b79aa5844788aa67789626b286766949b569875985
col07:   6374556476578a46995766a47677679a896c8765768a89a8959589a7a68384a5696a4677b758634a
col08:   352214356487686646869944758a665b77977766a485689576992b8965678a5c8657479487737767
col09:   8685557669896689b569777686a78796aab9797d8db787a977a76777899776795a87885968878593
col10:   756875786535975435676655977549846a94bb7997588a998877889a6667b7656687476775865995
col11:   1646657667a57767682796567797a778868885846567878777aa42699876a88a7644576445578475
col12:   27a356557796885a69a568686866b3988b9998a97a98756dc88a476635896b289a68565998666967
col13:   78744526564565b77887657789a78989976a9699867b958a77a9888688747868689a686597896936
col14:   573468575675548567783569654788ab42766669766659a84a58788785788b667654495787856957
col15:   65947359544549446967666797948974a7b495a59a7caa6797a4759897a697836a5877799a868357
col16:   758176745787747676766ac79a867a7798967856765a95588a7a667a979c89998648a48787b69865
col17:   2868345475768548577486873796b79576688785678988a6968567a88b4787796695633a94876835
col18:   37326545617967b7567586a8569949579a79a4665663598ba8a96778888997b47966576736785987
col19:   767553646947897967779588796aa9c8a98bb698896797a979aad86b977a959b8976587a977a6665
col20:   6863665355644555767485796484948645574569788986a75967b59995a474a63689896a77757555
col21:   939466b87445769b6a645787aa7c5756c8a69a8587a6896579a7757ab98886665b954a7b7799a986
col22:   1568a43564248848777666793a699558996787795b75776766a9667885856699a65664856694a774
col23:   87449753856662555688594658884888655c88b6978886787996487685a877992a68b75a765688b8
col24:   6554776876667444848566768a76878887799996795564a87998963777879667788777a775967373
col25:   5556633237a6349576a87554526887a86b9985ab9cb4aa889b89665966ba784ca46868787997a747
col26:   6857666b967bd8a8b49798667988ba96a99b57a787bb8a89a88a875ba979786b7ba7ba7687a9a955
col27:   8476977687d78677a68868ab7989a7998bac8a5a897a7d89b8ac999bbc99a9a78b78788a77ac799a
col28:   89b6b8587679757ab7a67ab7899acb86a9c89acd999698a688daaab8899b8c88bb989a6787b79ab7
col29:   9838c59966b98a577857889a99a7b9899887b9b7c68c9a9aa7c98baaa88c9a86a78db96a77a775b7
col30:   958a9a54777678878a887799b768b6b79a97a8a989ab9acb9acc89acca769a89b7bb875ac5b77977
col31:   787a6a8748786c88799988bbaac99acb9d89b8a8a9b7579cb8a9898879ac99988b799aa776989c66
col32:   9845b858a98886a57788799a898a96ab9b89c69996badaabcb9c698c976978856697a9aaab59a97a
col33:   68677584a957877aa9599a58699bc7c6aa78bab9bac9b9a9ab88cb9ac858ba9a887a69a88a89899a
col34:   74a9659979a8536799b8a9a676a99599bb99d56a7abb89da9baa9ab9a999aba8b99a9c98bbb99b9b
col35:   8479659887679999a9ca7a7a9a8bba5f6897abbbba9baa9aaaa99dd89a7b59ba67aaca988aaabc87
col36:   798789977a887a7bad7a989c99888aaab8bb9bcc7cc8cb99c9888a7e8a9c7a78789aad728a6ca895
col37:   887b88939c97868ba979889a8acbc898b8a9dc9bdb9ccb98a98c8999a98acc9bdaba9c9b9da7ab99
col38:   657976867679c9ab68c987b7ca7bc9ada8adb798ac98d9acc9cacd9ac98bba99997ca79a77b9695b
col39:   679baa7577988699b678c9ac9ab77b9a9bbbac99a9b6d8cca7cbaaaaaa899caacaa989abab88889a
col40:   579a788aa8879995699978aa7a99a7cacbcbba8ba8cd7a6ab9dacd96d68aa7c8b79d678b74899468
col41:   7946b5b89969b559588797b78de7a3bb8ca8b9ac98cba99ab6aabb9b9aa9d9a8abac78d3a8c8989a
col42:   a38577889867aa8a69c368a9a6c9cdcc988bb8ace7978a9baac89a89db678bbba6abca889b7aab99
col43:   8579986796c99999a977aacab9bb97999bdadbbabb9abc9aadbb9b8cbbadcaa8baa8ca8baab9aa88
col44:   8589a779998a799bcaab8baba7a9babb797ab99dca8aaab9a8abbacb869978a9eba887eba67b98aa
col45:   7988a788567bca9aabdcbb86dbbac99acca89d98adbadb97a88abcbbadabbcbbcbaa688a8b9ca7a7
col46:   99989697ca8a879a78b778668cb9a6b98998ab9c8cbbcc7d98eabdcab98bba9879999a9ab975bc88
col47:   6b9aa867cc5b4a988a99679a98aabd877bc8b7bb9b6ca9b9998cddb98c9c7cbc8d97ac7bb87699c8
col48:   986779979a38d78b99798a89a779abb889cbcb89ab9bba77dab87ac7a7b887bbbb5a79aaa9999b96
col49:   778856c799a8b8c6b889abbb9999989bdb9dab9a9acebdccbd79caac9bb8f9ab9aeaaa77b6aa6abc
col50:   6a9787b674b9a976b6988a8c999c96a8aaca8beae8aaa9a9c69ced87cbe678998db9598b9bc99a68
col51:   8567a79996684748767958b99ba779c9955aa867648a7879957a98998aa7a6897b786a9a77986586
ROC:	 BPix_BmI_SEC5_LYR4_LDR20F_MOD1_ROC2
col00:   1655994a65257b154896577755475a31778a7347a59ab5a6ca684477b872aa537a9a769121635541
col01:   465894c89387667797576a598b586c468a9b7ca557b79698c789c8688eafd8588c56776859666846
col02:   3a57587828557776a2b8b65aa7a9ba6bacadc774a997b9b758a9bd9585a86779b847277471668475
col03:   4aaa46b8b8a596b67789998b7bc97b4bb97c99a78aa9d7c7a898a8785cadb39275985a17ea656565
col04:   b9a568146556a89379a859899678978ca9bbb988acb768c9a886bbbb7b97b78b45896756aa6b9342
col05:   5a828678688779b7765c77aa9969ac7a87886575bbbda6e698668ba8b8677bab477928b849597738
col06:   5586a86597768b79666966ba967896b8b7b5be557b657899978c86ca7a945578ea566aa536764647
col07:   6567c95655bcdaca693c87539b86598a6aa9a8c9b86a7ab6899cbe5bba5bb6985b34697489976195
col08:   74ca98b7577b66551895297ca8ace88b7ed66757b67b8cb4aaaad799885acb87ba99a5b873387726
col09:   481777a889b6fc9ba79d7b68bfc989f79d7b99dad9876bbc8c79aacceba8cd7b98a98b78797583c6
col10:   94d74996887a985747978917886aabc6eb8868978b995ccdea26964b9494ab878bacac86985a6745
col11:   1465359856da876a97a9a67cdc8697c9caabb77dadda5b797d9bb9baaa87d4c9a2735c9577845a44
col12:   7374782645869d95a8a9979697567ac8697998698a9c77873798a4d75d86a6a7867a854755178844
col13:   6b6886a6787967889c898e6979baa79bbad7e98b9cea8de73b9d8c9b7e6adc28f9d747878b657932
col14:   4786578986b97ca77788b879be39798bb8a9dc98d9d78b6aa8a8b3d8d9878898578e79ab5567625a
col15:   3477687c9347787a2687d7a8c95ac3d9737bdabd7bc8bba7ec79bb97cb9aa7986c687aaa53854b44
col16:   588a9668b69ab9a5bb97778d796588a9878ac5aba87ae99878cabaadbda4da85c7a97986398a3998
col17:   ab39976586546a78a7497b7b79978be75c99bdabbb9938fb7784c897cc79a9aab8a897dcc9768568
col18:   275634986674c875986bba4547789a8497b8aa978897636d89a97a8788598494666865a7c8736738
col19:   57b67764869768f996e5b855d89d59bc7ba8c9cba6bb98ba997a58699aa9d5bb788a7677cb666655
col20:   84755487176da9aca9b797ba8b8a6a9586ce7db6784888d9bbb8b97a99b5a83898889547d2979959
col21:   77984a63b655aaab6a867e9aa5c87b8796bd78c9db9bca9738ac6bc999cdfd8db958989b69777b96
col22:   574284356b9a7bc82783a99546aa46c78d878b7beb9cc78a56a87859cabc9989a5b7ac959a66449b
col23:   776973338a8a59987946a5965aa8d868a5ebc896a8baa89cb79936ac9f759dc699da764b94738936
col24:   57a75434647595774a4946756b76b755c7789976bb9acf88ba8c97baab8a9bca7843b73a56696997
col25:   58748159a47c9896455beb7a9acaa7766e97a8489bbeb97cab7cca9baad766c5b984995863ba58cc
col26:   8b576aaa6a498978b767989c69a9c6bbd9889bcaccecddcdecdd9cbcb986b99a9cab7b9c7c6784aa
col27:   5b77479f59c6797caaaabace6a78cdaa699aacbac7b8bdbbdbecfd998d6acca9feabd7bd6c99359c
col28:   6877987a62aa9989bbd7bbdddbbab6b7acb98c879bdaaad9bb97aa996fd8caea9ab8c9f3ba5aa5c8
col29:   6b86aac8a88b9baacad86b9cca8a9bbcfccad6abc9b9b9abaa79bca8b8b9b9bedee769bc999c6b86
col30:   77d88887a9fb99daaa89d9b6c89a9ac8bd98acbbdbacd99dd98c8a9dcdbcadab8885c88a58789758
col31:   99a867acccbbff998c5ab9cacb9ffbcdf98ecbe9ebfffdbfedaa9cfb8bdaad7b9a69b8cc7c8bb658
col32:   baac79868eb6e9aa98bd89ebbca9bdddcdd8ffbddbb997ced8accd78cd9c8a785a9758ac9ac655b7
col33:   85ccb7978bbbceb8eec89bdade9ebdbcab7ccefcfbd8fdb79acedef9be8ddecaabad56a7ad9ab877
col34:   78b7786a9abc8799cf98bb8ebbededbe9dcd9dadffaeda7ebbbba99aa99ab8aaf8abbe55d87975c9
col35:   b6b98e95b9a6acc7cedddd9ea9edadfdebbdeaebe9bcbfcacdadbe7c9ccceebb9a79bba69766988a
col36:   796798cad9ddc9dbdb98cc99ceb9bf97efdecb8accbacc7cbcf9aacbafb9f99a87cb986abe96765a
col37:   8b8debbdf8bdcd88a9facca7fbadcab9afedeffbcfc7deefcdbbed9ceedcede9aa5bbbc9857a78b8
col38:   bcb78c9b7b8ccbcacfa7bc9bbccdef97fb7ac9eedfefbebacd8dffbed9bdbcacc9aefc8aa9c75aa7
col39:   9a8e98bab98985aacee99db9ddbeeb7caffeff7ccfeec9b7e9ace9a9ddac97cdacdd98daa796cbb7
col40:   8dca9699ca5eaac98ababfbeeceedffd8facbfdccdcadbb9a9fc9aba9c8babb9cac8b9d9a9acbac8
col41:   799ba87ca9acad7abdcb9deef9fdb8abacdecdd99ccdbfcd7ddddcdd7cbdaf89aebafaa6dd679985
col42:   8b9a8aa7fcad69dcfa7b8a8cfad8bebeecdc9bdcb8adeedbdcfbc8deab8da78bbb8fcd9a7ba689a9
col43:   ba7bf8b5bc9cbcdc9addfbdacdeab9fcfe9fecaf7fcbcfcdabcfcbceecbedb8dbcacbe9a98babc99
col44:   5968bbdaebcebdc76cccd89acdad5aaebaffffddcbdcaa88dcebbefcdd9efad8b9cfa5a9ae8868e9
col45:   58ad8da879f9bcadbaebcd7beccdfdbeddcadcdfabffafbbfa8cefcdbe9c7adbcbfbecdfa9d8bdda
col46:   7a9bbeafcab5eccfcbfbccdc99dbdccbe8ccdaabccb9f99bf8ddcacbfdf8aaaafab757b9afabc7ac
col47:   6b6d9bdba7dac8cbdcfbcdac9acfddbafbddfaefacbffbfcba8acedbecbeed898b9acab86ccedcbb
col48:   c89ed8ab79ba58d78d9b8df897b9bebdebbaeb9cfdcdaeebb97aaaaecdb9fbcda9dca899ba8fd897
col49:   a8573979ac5ecebbeffaaf9cbdffeaf8cfaeadcefebdfdb8fbcc9ebffadcc9deadcc889adad9797a
col50:   928b877bacaccb99ecddd96d5ac8fdb9caf98cd8ad9efbdd9edaecedcea8d8babab99a4aacadcb79
col51:   a4599d888abaaa66ab69b6ccc98959ad7b8c68a4ddc87788b8bb8db8cc589cb7c7386b5cb7b8aab3
ROC:	 BPix_BmI_SEC5_LYR4_LDR20F_MOD1_ROC3
col00:   21111112715814215335163342738537796443546749763669676535455664243732854552835743
col01:   5317662574437452356836274657578979882835445938986715a8769869889573664642a6888586
col02:   4435534225765477357597454769539627767a656785776577637545784747644685554467666423
col03:   43226455353567586775767166769848558547865a666698651799677757788b9677697a54575359
col04:   254643449564685551736a6577678668489788546a9aba65576468355786698577953697778a5969
col05:   3347346642324a9652385887365276397a6967756656877896a7856695785969976b4a7566886639
col06:   752383537576486945833755345474b45356868759968776a796c97b587885554365796474868517
col07:   41122742673559449493546656819674558798499789687688768688496536a7866746a747366861
col08:   7472353487366776925764795686a8787556687437276666869879668544c64976575aa557784466
col09:   17446365554a384948b7748745668896aa57765697535754674a897678697846967c6786649a7796
col10:   2722255555315956a66655757559794b956976a86666b98676a6868668553345437b777368478a35
col11:   45456457883673335546879963867458636789546458885a799986567768778688a74576a7678566
col12:   545343765426746825557774678577564672a5776856688856834677b9784699579a835887796479
col13:   55978461356967a935577575ba8986863a546568768aad7767966aa96a7b89b5aa4588aa86a76897
col14:   527352765884473457246a988688427a786b758885784999658a799835b7855469ca466794376a93
col15:   475554542353766995589947685875b568776568989879889285778a7b4a55789768779799776674
col16:   55564563175673567388874b565875868b5697698579799a57a878685a8397965677976674765654
col17:   24633323733748a5646648325477766574b65a7588779b7859b997885c8866869697869866875866
col18:   18465565351556568967b575888b75693444a789965876b95898e666459895997578586678a79365
col19:   977263827586788497895563a89477a7685787a699577a868aa88668b86785897a75956798a8a749
col20:   4816761138454589577796669688855897957787948a5846c5da886668678779797a687566737799
col21:   573966422656624356588394977756846778b8a88875677988979797885b978653a4584587567995
col22:   59235771225665884916678697636a6588684a6656a697b7678836a487696875576448978986a799
col23:   6357466287965684869666596547d8777879a8996a997b66956766985a56875777757994a97375a6
col24:   57598748466a4356967866a778689894975ba25a897949a78969b569569559766a69978a69675688
col25:   51516656659778687478cb59688846b64ac9a896a79899a87a8655a8b5977886568986a5787776a7
col26:   29455869765865568a7897a59b98c99b686bb97cb9a7a89797aba788b9a89a47bcaaa998b8a66899
col27:   3959865676b8987a63894568886897a7579595a88a88868aaa99a798a988496578d98aa8a9b8c894
col28:   86655876a9a684a986cac689a856788aa9aa859a9a788d8c997bbc89d6b879a9988bba97d8a8b78b
col29:   a8764927599696978979479888996a767c9aa7295bbacaaccbabd8678977bab6a998d7a858a779c8
col30:   5685555968866998659b7a97b76a7eb9a8bbbba88959ccca86a97bcc99b7a8b9a979786586ca99a8
col31:   5699596a778da48a8c6a66c9b888b89caaaab676dcab96aaaa969bda8cc9da9979b98999ca9da9a6
col32:   95468798858bc5ba4a7b9b8aa9bb8eb887d9c7e99b8b98999cb9ab9bc8ca86989978b7989c6ab5bc
col33:   977a78746b99daa69a579757b5c9a7cb9ab8a7c9aaa9cabcb978ba8c7c79caa8aba9abbbaa8978ca
col34:   76977889bb8a56a5b6987b877bb9ab9beaa8ba87cb9aa997d899bbbbcbe9d7895aa7c9a9bba69cab
col35:   a7968cc9568895698799798b799baaca99a7b8aaca8ccaa8b8bb79b9aaa8b9a6acb78696ab6badd7
col36:   6a84878877988877b87a7989778ba8a99be98ba999976989bbdcb5bbab8aa8c98aa9c96689ad6b98
col37:   8578898359dc889866c9a8aa7999cd898cab9bccaabd9debbcba99ae8b8aaba5a988aaac98ac7ac8
col38:   a776958aaa8779dc8a77a7a9ba99bd7ba9abacd69daa8bb7a7caacaabdc9d89aabb9b99c99aaba88
col39:   a657958a8aaa8896b99a9b898889a7a99d9abb8b98c8aab7b8aca9dbdb9aad8686bdea898ba8c999
col40:   99968688a78ad6b6999697bba6857ab8ab8a6babbdbbab9a98a97bc898ca6accb6c9cb8cbbb9dbbc
col41:   97579646879aab7b99a9b97a9bdbbd9d8caceadaaebc7ee8ba88989b9dbddb9abc7b6cc8ec9a9dc6
col42:   ab774a4699959b9a4a9aaba78bd99979dca5bcedab8a898ddc9e9a8cbad988bbabc89a7b9dcba8bc
col43:   79789986caa898a4bc89a78bdaaaeb8abbd9b89dbcb9c5c9bcac9accbb8b9c88a7edcbc9bac799b9
col44:   6878c696969c7a798bbaa98a9ac899ca9bba8cbadac9baa9b88963c99abab8b9cadecaba67989bab
col45:   77488469983b798998b89dae998bbca99eac8ac9b9bb799ab99bb98bba69bcaa9baccacbb9a8aa9a
col46:   58879778878d878ba9ca988b88b9b9797aac99ccccaa7baaab9c89a9aa78aa95ba9b796d79aaceb8
col47:   757e97a5b9387aaa8699a7bbf989a7bb889abb7a7bcabbbc9ac9dbcccccab99b98a9a9848ccbc999
col48:   da69a98abcd6859a89b998bbe9b9bbabc7aaadccc8baccddcbcab8bbbbcaadb6cd7cc98aaca7aa7b
col49:   868588b8aaa97a79a97a7bb7abc8eabcbaac8bcbcbaa9dacc9d9acca9eb657a8b9fcbcb878dbbbb9
col50:   967a88aaa8a957aaba9d8a9a9cdd8a8ba7dcbbdbdd9bacca98cbbbcd9e8bda9aad99cbb89a8b9aaa
col51:   98895895797a8767a488989a98aa97cb8995ba89ac69d8a9d8ba78a9bab9986b79ba7568a99a9a6a
ROC:	 BPix_BmI_SEC5_LYR4_LDR20F_MOD1_ROC4
col00:   114133432432225965962ba65315463644785888855875236558656857562566974c8785654965a5
col01:   386265644654651ca67534aaa734767597999676389889959989e677a758ab57999a8988a2789a77
col02:   671244755296482584862545a968a94b8699587b8795b99558766a856b47a586686684a657497864
col03:   57861875748788c9987743566a66948876769395578a78695a64998a4a969758379799598a9aaa68
col04:   38517735a4836796967857b255b3a986ab566a685866868b97855864c6a488b88768748747664995
col05:   44642543763823566876778a769577b56a5a75588a75b78a3889a8846a7a59777a79c7a969bb44b9
col06:   2543516663676693539879674966897a75897a8969869949ac89a4a75a8a7789aab756a5b4875757
col07:   4454353678597479699676a96869c84b79cab77a9a8589dd7788986ac8a778a589aa9aa7a8989754
col08:   242465575678449176362947865d8979873ac6768368a8ca89d7846ca99995a897928966867a366a
col09:   85488466747c43676a797689857478b66a86ba57aa7bac957b7467b5698a6968da7855b998a66a67
col10:   1557433917775443598765789699a87579895b987787a38b98b79b8abb7ba58a9b5d956967594986
col11:   645386765a898667a8599ac676768ab896a789a4c7b696b5b7cb8999a5ba978778a94aaa8b83a9a7
col12:   1444693756378376928359885a876653697768a79a9ba67d352979886897c5a59865938375799954
col13:   9568b5564777788798a76578a5a6ba8aaaa886b58479aa7987599699c85799798baba87886858aa9
col14:   a477457668689859763aa4867a698a7c9766bb788699885aaba7c7ea95b69887679956aa9699787b
col15:   65a8876a768574b6985874999c758a8a997aa77b99b767878cba9a4b4f88996358869767aa979815
col16:   677a746747195b589659a968899757a88b4a677b98b95967886ab9b7b3745a6a6c89a68782769856
col17:   3566995376888788747758d546a9879b99878aa7995878a569ab9c958b9798c56a97696aa866778a
col18:   85524685947487566647678465898753989a477995969899959b869a657795a9636967887489b445
col19:   585a65865b675978768a7695b898a69799959898a9885887b88a5f7a9b9c99a9ac7ad99a79795781
col20:   4156444386476795963889595ac66aa868c8958abb8a889a67774abe5b88689888a74976786aa57a
col21:   2747845676688789685a556578c8796c87656995a9765b3a5777b89878689c957b959b7885687777
col22:   495a828687995795867467799969458546aa79baa8a5b885c6ba78784a56748886876a5639966636
col23:   3536565776668676558b9c55acc85695a96b67bb77758879a8869bb7a7aa48796767574696789468
col24:   aa57444a664a39863886daac6b884a197659896878c9a9888c69aa2a559c9755c985a89679666973
col25:   4585588688b98779796898ca7a8876bb9a88a9ab9dbc95c94799b9a7669c84a9aba8965758689759
col26:   778aa5887c7b8aa5a9d8b979adb97b768af6a99c5c7a959988ab88b879ac876bdaca989a957aba68
col27:   77886997a8957a996979bc8db8a98a7aca99d6ab77b6aea99988c8adcba79988887c8aa9b66b9891
col28:   896a539a58aa7baa4a7a88a67a8aa86897a9ba857ea9aabacaa97abae985cccd99876798a79a7ab6
col29:   b79486775a6dbca86aaca88baaa989be9dacababaa8bbafe9aa99acccb98adb6aa9bdc88a9979a76
col30:   977886858a69d898cd9487abf99cfd9cb99bacbdbab8c7ecab5d7ca659babc999bb9c9b9ab6a9b85
col31:   6e79995189cabaabb9d8db978bcbdf998eaf8ddba9bbdb8d78cdb9cc77fc9cca9d978c6d7957b899
col32:   777178aa7987babacdad9a99a87ab9cf7bf9bbbb6b7cad8897cbccaa8b97bba997a78889d8bcaa65
col33:   5899a5a9ba9baacad9ac8d899ad6abbbbcbbe8dbdd99cc9c7c9ccdbbaea8de8a6d8acbd87b5979b6
col34:   9aa6638bb879a98baaa78798afbb9f88d99baec879dbbb9bb99bccbac9bc997baa9a978976bbbcb8
col35:   9569597aadaba77c88b9b8bd8bac5b99cacaccbdbabbe6bc7b97dcceba9bbdbbcb8c8a9aaa5c87bc
col36:   9aa7ba9b9856fa7b67ba8bb9ea9aa9fbbfe9bb8ebc7cbc78dacaa79ba97b89bb7d96d999c75588d5
col37:   9898a9b878cacba879addbbbcb9abbdab7cddcbcdcb5b9ac9eca9ccacba9baad9cb8eabbaa8699bb
col38:   757786aaca99baa7bbca997d8aca8b9dbcaabbcde9dcbecbab98edaabbd99aaa7c9b76b9b989d799
col39:   bbaba6cdca7abbb97ab9b7ad9ac69b9ccda8dcfb9ecacdc89adbaf8cd99ac9dacada98bd8c799886
col40:   8bbf869cdb86a9ce8ab89aacc77d96acccb8dcdb99c9ba9c58b9ccdcacdca999cae9ceab4b79a988
col41:   8898bb7da57db8dacc76dca7b97dbce9dbdd8da9c9f9dc7ecbab99bdbccbaeba9aad78978bc9ae9a
col42:   8ba679c994768898b9ba89a9e98ba8aaa7cca589cbdbcdd8dbb9abcbba9bc99ac978a888b5c6a6ac
col43:   babab9cb88dbabdaa6acbddfbcb9dba6ecd7d7eefced9aecedabb9b6de6ecaadbdabccbca7b9876c
col44:   888d598c99bc9a6cb99aadcdedac8abacc9bd999dddcbd9d9accccaabbcc989999ae9aebbabcc98c
col45:   88728957aa7ccbaaeb89efe99e7edbaacbfabce8ec8a8acdcca8b89d9788accaaac9bbbaa9bb9b87
col46:   c6b777b7a99968759f7b7d7aa9cc7aacdbbdccbb99a99bbaeb9c7bcaacaf9c8d6bb98b699abbb898
col47:   8a9aabaabadbccac59bbabbb9acdfc8df6eddad9fbcbaffbbccccbed9bbeeaacacdca9abbbfab8ca
col48:   cc79bc87999aa7a89aaadda9acbdd9ab9b8ccabbb8c9ceac7dbbdcaab78abcbadcbd5cabdcdbca9a
col49:   56999a97faca6aaca99badafbadaef9cfdc7cfcbb6cf8bbeabcceccf9babebcdbbaaa7ad9c96bcab
col50:   aaf77b48bdafa9aabeb89ebdcccebc8db9caab8dfe76b8c9acd8f9bbdfa9cada9d7ba7787cbcc9a7
col51:   766c4979c6a8a9588968dbdfbb9a5c9ca8cd6bad6d79cbb8a79babcb6db7a97d8ab6ca5889ba6956
ROC:	 BPix_BmI_SEC5_LYR4_LDR20F_MOD1_ROC5
col00:   46645535946638763678597659779556a898c6865aab68a6d59829a5879977b8b4769263b49a5a75
col01:   57944687883417878caa88b7bbb859a88abbaba86bb9889794ab8984ac6cbbab79a69a6971c55745
col02:   7951881484966ba8785528b98955aa344899a886997fc7759777a5b4a987ad7898759a5445476678
col03:   74955996544729b78868679c85b5bbda6995b9a969787f88a85ebaaa6db49b77b9abacb9abce9772
col04:   5753755626678a7896aa465999d86b9c99769bc76a7a9aaa8866dd36858ae8b56888a99986387c83
col05:   6832b676827377979847587999aa78cb8988a69867c88ba99dd7894ab64887986697b83da666d9c5
col06:   64437996776846c98775a99a5a79c8a379a8b6e867cda77c77aa86699698b989bb7786a8b5557a54
col07:   865b2a3436877695ca99bc9999748b7aa69c87a9dca8b898b787d8ab9798999aab6c5bbc8a485826
col08:   6877a5b158587c9646a66a6788aa9a697aa7cd74e9c968bb9998b5b3c7aa791b67aac84588a3b576
col09:   4667887963768a68c7a36acaaaba96a56d888c88ac85c9aacbadbc89a79ba8b78b8b97cb396495a8
col10:   569476a6569b8997778e958848767575a78a976aa9b89969acb69b64c777a7768bd88984598587a7
col11:   585465778766855996958cc697b6988a7875c78576a88aac8abb79a569b8a988998b54b958697595
col12:   94559268797944797b5888a74796776bb6aaaaa48b8487ab879ba89a76a98a8c9b59888364665a98
col13:   9645546936776b876b77659b976a6a8b89b9a9cbad79979cabc9a9cad6a7c9c9aa8b89b9a827daa8
col14:   a784784b776684ccc876788ab72a6b6689d8885668817ab8c787a7b699aa9896aa7a889699cb3776
col15:   63989473b78856beb4cda87b89788a987ab9abb9aba759bab986bc77a9889dc94a8b6887ca73bb1a
col16:   577455778a516d789a869679acb8678aab9a9987599d7867a9897a79687c89984d8795699b4b9d7b
col17:   6b81586299a8a79ad766885999889968b6669ac8aca87aac9ba8894c778b697ac9c768b77a9c4758
col18:   8858374664268579989869b776b79997a72b768aa8766b6766b88779987968aab868889b78863587
col19:   5887a7835a45864648698596b87a978669cac8abadb7aaaa77adaa5a8ae9c97a7b9bc6a77c677986
col20:   55524998573977469577687895664d5a7597cc66997896788cba798988789a758c4b48a664363894
col21:   373768466869793a8a77c4757658baaa68897a975ba9a95aa86b6c998888c6a77b75999b98b87875
col22:   47343a3654392676997ab7346b599895787aa987dea8da68c889978ab7a979b8826b76b678588a85
col23:   7883a7a86696445b5489aa4ab777a8b989a88caaaab96b98856a97569d88e8799a8898978a978975
col24:   37266376987977cc28a6876d94b8b5a687cab8b56615b85a9688775abcaa7a59995683858aa88945
col25:   875654857a868a88bc7887a69bbbb99a83c659775b9bc8979aab9999988cd49aca7daaac96aa8397
col26:   779a7ac7565a84c5d867d79adcb8fad9878a8ab79e9abbc9bab79acfdb5c9da8c98c9d879baa8764
col27:   9341688847c87774bc9d6747875da9bd99bdedabcecddbb88c8aaca6eadab988875a9c9a85a8c7c5
col28:   6376b874d7739977c8b9c7ad8b8a8cce7c8cb8b9b9ccd8b4fe8fcb7cbdb7b9caca8b99a89a89a7aa
col29:   a8678997ba9a6b6c68acd9b7b589edd8adbfee99fee99e7cb8eaaabaad5997679c9f9e9d7b86c8b7
col30:   7a9e7d965a59b9767699a8c87cabc99bf6688abdacc9f9bb9e9a7f86b988a887abc86997a7742977
col31:   8797a5cb98b8a9a7e7bbba9b6b6de8689ce9dced9caafdbaedcaaaadfab9abca9db9aa9888da9966
col32:   9998a3787a99b9fbda888bba9ac89cfba7b5ade5fdeabcdbcc97db7da7ca8acbe77c8a7cb89c68ba
col33:   56ba888b98bb7a78c8ad779a76899ca9894cbecbb9aa9cb5b9cacb9e97aaaa9dab9a9aaadc68dc98
col34:   679a76aad9acca8977b77beb68bebcacad9a77b98d99dfaaba8f8cdb9cbdce678babf96a4c6b8797
col35:   a87a5db7b79ddc7bbad98aea7dcdbc9cbcbcacada8acd9e9b89a9ddcdd9be87fe7cbba7967a58ba9
col36:   89699b9a8999bc89ca879b89bcad9ca63fead9f9e9bd9e9db7db9b6ba86ddbbcea67ea9cbc94aa68
col37:   b79b8aa6c7968baba65cb9aededaacbbbb69f9deaacfcbcbfbbea8cccb8ec97ab7a86fbaa967dcd7
col38:   aa6d8789a767a9acda9c7abacbdb7acbea8acdcdbbd5efdc6bbdd9c79e8f9ab88bc8dbbb9b699bd9
col39:   87a5a77886cdbd57d89ac979eac89accf8babce7ebcd6e78fcbc9bb9e5ea7da89ce7a7b9a67ac595
col40:   b677b8af9ab88798dcadd8bb9ca9bfbbbe9ceddba999ffaa88bca8dadb8cbca8a7fdbb956bbbe7b8
col41:   7bb698a6dcb99ad9978ce9acc8bdbdcacaa68afcdcbfdbeaeba7f9fc9cbc6bcfcbaa7a98da78bcbc
col42:   78aa96baa9a97a89d8caa977bb8abb9ccf9bcadcaebccdc8cca9ac9acd6b8b96bc6bc6fb8da9cc9c
col43:   49adc98e75bca7a9db8de99bc7ffbbbbcbcaffdaaca9dbecacc9adcc9fbccd9afbb947ab79d8baa9
col44:   99896b9b564aeb8ca78b6bab9dca7ee9b9bbebdcbb9fddcecbbda8ac9ef9bb8aa9abcba6bb79ac89
col45:   9b8aab8597b97e9b8a7ce9acb9beddafc9ecbba7aadf7cfeaecfbaacbdcba98cbcbda99c9eb9bc79
col46:   897cb988abbdd8b89b8c9afa9a97c9abccd9ddca9aecaab9998d9aba7bdcc89cd889ac8a8caac887
col47:   acaa788c9a9b99cab9acb9ba79beaecbab9abbbc9fbabddabc89a8b29eecabb6bcbabc96bada7aa7
col48:   9999cb989a6b7299899aac8cbc59cc87ba8cea6cca9ecdaaccdea8becd7c9e99a9acc7a8bc9d87b6
col49:   5b83a998acb7a89db8bc9c98acabe7dfb7cdddaddaeab99dbbb98bc8fabbcac798ce9deaa9dcc6ab
col50:   a86d9976b97a7a7aca9c97abcbbe7b9aadabcba988bc9ccb7b8f7ebdbeb5b8bcdc88a98a54b6d878
col51:   72a6899c5a6a8655666be9a598bd97bbaa9cca6b88bcaa7caccd97dabadaaa7a8795b7a716b83ba7
ROC:	 BPix_BmI_SEC5_LYR4_LDR20F_MOD1_ROC6
col00:   7455654678469665779673467497b885587788849378a76575979448477874b36736667737559729
col01:   93185b785587b979c869469c776ab7a97ab8866ab8a5847aa46ab888bb929da573864997a56b8457
col02:   6746756867473843b279796749a8689a9af4986ab7aa79b979679ba8ada7c453a68a697787689475
col03:   36569948827965a548a7568867a5b1ba634689d7486b95174786588999b6a6a874a9973588977579
col04:   78797971598b7967975887579738579675879b799b9d9abc7894774b67c677f78574498987858686
col05:   745257586867b6386768827b774a959aa9768b8768686794a7a8857959b7567a97a8a5aab6867868
col06:   6337585884687967893c68879c75989cab788c8aaa84b96bbba984928a58788377579a98877a7767
col07:   9487d38859a785a6ba6a97b6458688a8769ac84689c88a588badaa997b997aa8ac87a6785489a8a8
col08:   867a88596945b9b689cba54a6866a9b297dbc9a866869975b58974b8986a977775a8a87b8796ba86
col09:   6686769577776889b6956a8a878c688888a77bc99ca7b7aa6ca6a6a769569b758897d9a878648866
col10:   8896953769b6869866a5686c85b5a99897ca9ca3885a7bbc8ba879568cc7479766675b99c4b79665
col11:   784549477765745a9544b8aaa78aa56ba77628a5ab8a87b6a8b588798747885a76a8679737998b73
col12:   7498926465867459c7787a4b9b9bb676b96983acf7b694bc7a96aa6e9babb967c6859577969879ba
col13:   8aa87675685cb6a661ca777968b956aaa7796ae674c58abb9879779c6a88bab5c596a78a6997a7a9
col14:   6878298c37a8966666aa8777c8a7a9888b99aa675baa6ae88c95bda876856b73a6b7959586899746
col15:   a1556885a68874a5a859889989969bc86a5896cc76ada48abab8bca9bb588896aba6889a9736e566
col16:   67987884b457aac7a7aa58b7a8a95a9b7aabd575c698b26e67ab736a956875c896a9998aa68588a8
col17:   6a5865892668576a574a89cb76a8659c7c8ba66869ad99567ca8769bb698ad87b976849779a6b989
col18:   84bac546c7a986679a58a869468a57da876b7ca935ab87984ba995a98c46ca8665a47983969a5c57
col19:   9669885a866788668667747d8ab6a8ee58895b7a46ae69cabbb77a8878988ca77d9a78a7956878a5
col20:   543786568759a88978489878b76aabc8aaa73777c96775a8cb6a56658ab4669854969b9678daaa9d
col21:   555b58a6877b884779478a5a7a669ba2b86b99b8d98cca758d9a988585a99a84398c98a878986867
col22:   53892b66746a89a7aacab97889cab9bba996939968b97b97d7a7a787487657ba4ccb83495594aa44
col23:   849597396141a668a865a5a678798a898b99a8a5a9a79786aa875aeb7667b9aa4b64689787d83ca5
col24:   5754557a8946a548ab6735d78ba889a7b496d989b9d99c7aca79e8cc687b55a78a6992b59a6b7492
col25:   4685cc989a778b88ab79aba9c968a58888aabaabb79889dbaaa8975b9ca88c887789ab9cc999b557
col26:   7a6cbc9978ca58bd97b9ab99afa8bccc8a999d9a9b3abba88dea75c6c998d7798bd9a8a79f7c8ba6
col27:   c788d9a69a7998c79a9c598d9bb98abbca87d7dbbbc8badacc98bcc7d9878a8aaaddab89ba93d99c
col28:   7899ca9a8c79ca58979b7abec7a99aadc6cc7addd9a989b7d8ac7dbdcb97ca7aaa9c4abaaa8ab9ab
col29:   86a898abab88c878c88ab6969bdbce9ccbacaaabe8acba99f9cbb69dbdb99c97ce79dd7ba8c48ce6
col30:   899653a87aea88898a9b9899c798b88ccbcbcaa4a8ebdce799ba8bfc86cba9cd9bac87a7b9b996bb
col31:   45ac87c89cdbadab6bccfa9ccdebcadacdfadefbaba7d6baefc8be7bebac9ddc8daadacc6bbdccc9
col32:   9999cd9aebd88ebdadaadcb8deecceeaacbcaf9dbac9cefac8dbab9cfa9dacbceaddccc69be9dac6
col33:   9bb1cbac9789958c9baa865a9b6acbccdbbc9aae8cfbbadaaceaa9edf7efdabbdde9caeb77f9ba9a
col34:   67b7a7c9aa9d699aabd6feb9b9ebbbed9edbba9dbdbdbaaecdcaf87bbba9aaa9afcadcdfc5aa9b99
col35:   a996baeacb9abdcadb98ecc9ec79de6c9db8bbdfceabfbdbbaeadaadbbebc88babdcbaef8faeace7
col36:   c38e7a686c989cea7a89cfc8f9fdedc98ecacbdebca8bcbacbccba8bc9abcbc5db9bb9b7bbc89888
col37:   98bbeeaaa99b7aea97c8badbbdfbbacbdfd8cdbbf986fb8cbbdcffaa8bd97bdcbeb9cddaece7edba
col38:   a7bbacbdccccaaca5c9cbdafb8ceb7abfbcead9dcbafdd7dccfdadc9bbfcabebdcbabccacacaedca
col39:   398b7896cabb8dfe98c99a9d7bdb9fccfbadf7ddaaacceceacbecbc9bdbfbfaeeaabbedddcdf9bd8
col40:   88999babbdcb9fc97a9afbbb9ab9dbcb9bbdbbebdbbc7aabacdcffcccaebc8aebbedceca8bd9d8f4
col41:   7cbc99deb9cbdbb8b99cdbadcdbdcddbdcbefcfe8cbaddeaadffefcdcdccc9ebbafbfc8d8ffdf9e8
col42:   7a977c9ac988d9865bb8db977ae99d58a9debbcccddbdeaabaabceedfddbefea9cbacddba8a89c99
col43:   8cd997c9a97ceab6bf78eddcaffaadfeffafeeb7becbadcda7ecfaccbafbbaadacdabebc8cdadfa8
col44:   bea997a8b6b9e89b9aba8cfbb9f9b9fbbedbcedaffabbccbcdcbdcadfdceedefadacf9adbefbdcdb
col45:   bbc4cbb9fc9addafcbdca99ba9c9dbf8cdccecfddddfd7f8ccfbfafaceabcfddafbcbbccaaaaa9ba
col46:   5c8db79b9a698dbadf99fedbcff9e7fbb9bffacbdaddcaeccebfbdbeffa9ce9dff9f9daceadbbffb
col47:   c8adb887b9b9bea79adaadfc7db8bfcfbed6b9b8decdafee7cac9dcf7daecbddcaecfbbf8aa7e9da
col48:   cb7bb9ad97babbcca68bda78b9ecacbedcdadddedce9e9cac6ebadbcdcaffaea87dcbfcdbadbbea9
col49:   bc89fdada78addc5cd88fac9d7bededc97dcecfd9dfacddcecbe6ad9beeaddadefbadcbbbabcdad8
col50:   c4bc98aeb9cbcad98d7cbdcb9eac9eccdceababdfcd9d9ddddadbcbfadfccfffbe9bcdfdeb9d9cfc
col51:   98a87abca97598c7d1b8baab57a7bd9a9c87dbb9b7b9b87cffca8bbb9cbf9bacbddb78cabcc88a97
ROC:	 BPix_BmI_SEC5_LYR4_LDR20F_MOD1_ROC7
col00:   13846697767113151541436244331862674575574752533953456652847575567244875415716153
col01:   363565476615755436577675676646b68855543998676a9696565988687769948746455721669363
col02:   6355455736955554175756b4486986437a78656915b37536856497779879a9521976475754444555
col03:   5445668435576666694845675561653457879978554786993549694894654595a61a183558369449
col04:   343437466323673831664584586474757767664446595897899898ab674667375675648714838573
col05:   736547653645468386767878296762485583884bc588a766855567b6787553659539668558686552
col06:   465453675355745552a635734957654373478985779b887866685498b378566458634b7799433355
col07:   976a59754673575a7a79476579776685876a55455a9857688878a87988887477a746555766577354
col08:   76565655855655662347445999668439579947555758659657469771535479758756462253325366
col09:   53576696977a6573852644888747474956866866b7676395777998968837997739775a753785a454
col10:   53754779436867667881777868479675757988788667467556a66756789687878785483694447862
col11:   836437444777665a555677789aa58982a897a9788876787978a864758755669896a4584647646574
col12:   733587a254588774666587777796799755a8787979a66a55a8798496587554478185885795367652
col13:   698768538754697a94578aa67766386a97785768888aa69aa688988969a8456796b765634927568a
col14:   5748666775a358545878a756366686579899669869965c79b97a7597a7969958a96687a595895856
col15:   657677536836658a587436578778a8989899749b878acbab385ba99897969a662576975568865436
col16:   52b38665a66846568666876698876a75886578756c8874498666797a48566b767595677768645922
col17:   35776588873387986628857797877879a38bc8668997a86aba7a56648779696966795a4399787557
col18:   3347666865537979758476b476493778a76976a6887848965b9aa98b289929546976769366645531
col19:   4879874789646876495a959499999a3846ba997959a78ad978897aaaa8766698689b7a8586866668
col20:   35658447787a96549a8477689677a96aaa8a797877986938a695896668bb8976775838778a646655
col21:   658436739635855a6978a6558779779779978ac87c98b37456787a67655866776647567359866855
col22:   969564758868676695888b59865979796b77958687786858c976897976aa66a9684767a54449b857
col23:   4563697795697743675876599886787855885898879689a8b855b976876886777994497443665568
col24:   69a36837766569785a855578857856697987778b5a89a988ccaa567a968a65777674b74866866495
col25:   546796536568a66679799977b9ba9a788699867b9c6886c8998aa968a5a897469865758749988584
col26:   3668678878a899789697ab8a99aba686a6c8a6a94ca6db468b7a98a9c968b6b9a4a8ba6a69467784
col27:   77598a57766898a538795567887a889799ea9a96aa9b88abaadbba97d8989899389c7b7a888ca986
col28:   968786986a87b789aa99acb599c79e8ab798a6adc77a7bcbb8abb9888ad98989965bb79c7a57b9a6
col29:   6999b89ba85aa8999a5a78aaaaaaa6789a87aac9bb9b8aaaa88db98cb9b9bb8887a98b6a6a598689
col30:   5a956569bbaa88ab76b8a89bbd997baae9b98896b7bb99c769988a8ba9baa78d8838755d79778546
col31:   9a99ac867a8aa8ab799888a9678aaaadc8ebacb9cbb9aa9cdd9faab68a8baba6e88986bb788a79b9
col32:   8a98a9ca8bb66a67bb7799c8a969e79dddbb9bccbbbcaaa98bcbaabcca9b69cbc7b86a867b8998ba
col33:   779a979558abaa9986aba98bc8abad8b99e8bcd87a9acbaac9cba9c7c9efa6acbea7a9a4a86baba3
col34:   98854a8a98c8ca9c7b8a6bad97a98a998b8987bc89aaacbdbaaab7cca697a6798988aa78ab6a9797
col35:   aa7b979c68ba99ab858aa79cda9a8a88bbcaa8cadd88bb699ababccbbbb8d9c9e8c998aac947a8b9
col36:   94a898999b6ab9a9a7aa9f8a8bacbe98ab9aa7cd8aab7b9987cbaca99c9989a95cc78cb7a8a99596
col37:   b978ab6c87989ab9b8d9c99da9ba87ca9dabbcc9d9e89cad9cb9aaabc9bcaa99aa98babca9aaca67
col38:   6a8895a98b89a99b8a999caca799c8b9ec9c9d8baa98a69dcb9c8cbabbbaccbcbab987bab9aba637
col39:   69979866a6ebb95a9cba6ba8ba897878fd8bbb9ca8ab8da9c8ce9ab7bbcadaaa7abb8b8ada7b8b8a
col40:   b98888b96bd7999aabb9b9bc9bcda8c9dcebabdccacdbcafab9bfbe999b6cac6bcc968ba6ab943a8
col41:   8899aab986cbba8bec69bae9bc99bdbbdbce98badadadbc8ccbbc9bbab8ea9cb58c89abcaaaa6987
col42:   79a7668ca97978a8989a9aaad7b8bb99fdc98dba99bcaaaacaabb7aca5ccba988c59699ca7a7a796
col43:   a88a7baa7ddbbc9a9aaa9b8ca89cccacebdccabdedcbabbeeabaaacdadadcb99adc9dac7bda9b98a
col44:   779989bdbbaa9bbaa8b7b99cb89bcba9a987bbcce8bcadba8cdfbabc97acdaac9d98ca7d8679a878
col45:   3a9b9dccca95a9799c8a8caa7cdebb9cbabcdbdba79ec98c99aaacad889cdacabaadac5d7a599aa8
col46:   cd9aba789acabbca9bb9b8ca979cdb8d98eb89caacdbdbbdafbdba9bcafc9eabbcbcb9a6b68a8aa9
col47:   899d98e99cb9a78acb99aafacca9e98aacdcb9baaeabfbbc989aecc9cc9b9b9ae799ecdcbccaca7a
col48:   a899897a9cabbcacbc999ca9c9acc9bbcfa98bbacaa9bb99ac8aeecbbebccad9a89ca8ab9cfbeb68
col49:   bd89989c98969cb9cbdc8bbb89be6daccccbcdfbccdabdbccdd8bb9cadc98ccabbeb9daa98a89bc7
col50:   99cad6dd7db9aaaccaa9aa8afbbc9dcebcdba7b98ddbbbdcbcbcaacbe8bb6bda9c9fbdcca87a79a6
col51:   5759763966597a69698d67a6cba9ac6caacb8b7ab999aac89bca5ba75a796a998ba899a5576878af
ROC:	 BPix_BmI_SEC5_LYR4_LDR20F_MOD1_ROC8
col00:   15636356763674852376469636479844864875737a995779666694995a9878898b46965686796895
col01:   55346657555484787369384796765aa96886a8b8867baba6866d7969b99b966497755a97757a78c1
col02:   3464655537285652485a546a58a7889a5599a78789b997876893ab6999c67658688a9985676898a9
col03:   45497666728585688555a859a67a879698978666896b9acb8973a47aa78b8a88cb959aa6889785c7
col04:   335645a4a378713769795887846985833776878678a966599cbb86b869787888988b9692a8aa9b85
col05:   5674796618343849646766787a796978a6b6988488856a586766999b79787a75ca96679478a7b767
col06:   6214666896466657687674893557669554b8baa9bb86587c8bc8964993b78957b97b7486b8676997
col07:   55654656848688779759586587ab27985ab88965bd588a96aaa9accba889c86896c7a9aa89697ad9
col08:   564654455978986556585442a65578aa9778e6699789756b69aaba7858768c848978daaa67787876
col09:   26424357746646767988b699897a9489a8a897b7989a4987a88888b987787c9687a47799a888e96b
col10:   72466566495659453796774b9477598a8894a69848a7878aa7a9a87869a8bbca7868baa6a58c9b86
col11:   56466677537846779386868476b99869bba967a9c599875aa9956a77779a897aa7796b7aaa9956b7
col12:   54625848ab4548a665a4b773898b85955889a79a997c958579a877698696969b6a7598a58b5a8b4b
col13:   657955586764a7897ad5847969868789a8898d99a77b95b78d5bb57ac87879a69998a88768b798d6
col14:   14676264628a79455b677786986987aa8689745bc9a9a888baaaa987976d6cbaa7bcaca87bacac69
col15:   175489b6935874697878876a8aa285989a67698899a7b9aa966b788a5a8a77a98ba687b9db68aa86
col16:   639545958776488664476a9688aa898869868a859867a666d8898777898b78ab888596859aa79a89
col17:   6385974355486957487957954579544d7866a6cb7899998787838ab98688ab888a85979a847859ba
col18:   64934a64875738775a858579784b979a9aa996b7779aa9a9a7aa95ca8758a886a7a69a7a8979a785
col19:   686685686888698a7846ca99a96ab5a9886a8b8a7669866899a96bba7b9aa97b8b7a965b98abd997
col20:   57667327796657475788ba89b784648889ba87789a977d688a9ba8c7bab8b588b75a8bca8895799b
col21:   5374868775538674889887797ab7986a68ab4ac8b9a6a8968b688a6a9ab6b9abb68a788a8976aabc
col22:   4726476688456837666b848a88a48b577da996698a7b57a88687aab989588477acc8a7e89aa97885
col23:   747956776659b645646696885665b8a799a78b957b8ab969689a78aa8768b6894c7b899885976979
col24:   71983564587767766aab5385a99a85b88dacbc99a698a4babb9a9a997aa8988a58cd87ab9c9a7b86
col25:   57749c965886b78877a7b6999b77a7aba899bab8b8f88bba7ab99bbaaac75bd78998dba8b6889ba5
col26:   5784785b868768a8379b9ba88b97ad969bdcbab8abfbadab99b89aaa9aab7a88a9dfa7aa89bc9cba
col27:   7956557778d586a899989db6a9b8b7aab9a9cbb98a9e878baacbc9bc99899e9da9dbb99bdacac98b
col28:   65687aa889b857c99aba878878899abaaa7ca9799b9ab9bbc9ca9acadc9ab8bccaacabac6b9dcd9d
col29:   9a9a967798978b9889aa88bb9aacaba9a9cb9b7bbabd88bbbaaa9dbb9a9bacbbdaa8abce7b9c89cc
col30:   a858698bac8897a7d8c799986a799b888a8acb98d8a9cc7b89babebec9cd9acc7abcb88c9b9a9bbb
col31:   88a987459b7ab7b55a5ab8a8cbdaaab88ebcbc98ca7decc9b7baabb99eb988adc6bbbd8afa8bbc9a
col32:   646778b758b6b2686bb9bbcbab86cb87aca86bbcc8988dbe9a69adcdbdccac7dabbda9caacbbdbab
col33:   86798b57b9969a9aabb9ed7b99abba7ab9cea9acccbb9aa9a98badbbabb9edacda895da9ac8bc9bb
col34:   b878a77a6aba78b9b9599b7aba98ebcbb9bcbc9cbcdc78bcbc9e8968c8dc88cbbeca9dc99d7abdc9
col35:   4a9a89bb989ca9a8ba7ac8a79ca9ccbbaccb997b975c9ddcbb8aceaaab9adaaebab999aabbaa9af8
col36:   7b8898ab887ba979baae8b5ab897dcacb8bbb8acaecabdaedacdccccc89bccb8acab9c9cd98bbb9b
col37:   9aca77baa7a78aa9ccbb9adacab7b8dfbabbbcccbcaaabdba9cabcdbeccecabcb8bcbcacdaacf9fb
col38:   ba8a85988ea9aa9a9aaacbccb8acdaec9abbcdcabca9bcce88bcceb9daccd9addcfcc9a8aaccbcc8
col39:   7b9e68b9a8c7a76a9adbcb9a8aaa8a9cfafebcabdbecccedcabbdcedacb9c9acc9cdbaeadcdabcd7
col40:   57987999699bcabb6cdbba6bac9cbdcaaadabbd9caccac8dabbcccbaadfbcebda9adaabbbdbdb9de
col41:   a6b79baac8cabd7bfcbbaacbaacecad9d9bd98bfabdcdcacdadcbabaf9bcabbcbebfcbeddadedfee
col42:   987daa485ba979c8d9ccaaac7ba8faf8aec9cbaac89aabfceccab8bfabcbaccc9debcacbedbacaea
col43:   9cac8aacbaac9dcbfb9cbcabbbabdbdbbdbdebc9decceadebdebde9ecebbdaccc6debcecdcdccfd9
col44:   798acbba88c99cdccacb7eb9bbcfbcbaeceb89c99a9ddcbafcb8ccbaceebfbbcbaabdfedc9cbda9f
col45:   9b9ec8adb99daa7e99a7ab9abadbeaacccbcdcad7ccabb9bc9afbbcbbaa9fcecccafaccfcbacb99d
col46:   baa7a5bc8b9ba7b998cabdaf988beddbabddcbbccd98cacbbeacccedcbccddacebcbe9cbc8bbcb89
col47:   bbaaadca9acbacda8cdcbbe9ace9be9defccddedfcddeeed9dfdfcfeffd9feafdfaecccccbbfcabc
col48:   9ac9beb9c88ca99cdd9aaec9bdcbb9acbcebefeeaafecabeafbeebeed8ddbdbceeddbceddcbbdbdd
col49:   75aebbc99a89abc97baccb6adcbbbdffddedbeaedfaacdfcbb9cbdcdedabddbdbbdbaedee8ddcdeb
col50:   cb9998aaca998bfbbbcbdd9afeadceddeabc9cdcdecffcdaecafe8cefedbcfacbdfcccbbdc9a7bdd
col51:   a95858ca78686aa8b87889d69888cbda99badbc9be9dc9abb7dccdb8dc9bdac8dbc87aebedb9ebaa
ROC:	 BPix_BmI_SEC5_LYR4_LDR20F_MOD1_ROC9
col00:   fba746b694557c99681a57c748976b5a9b195769967266c868b7598528bca9657756635895927155
col01:   677b575797947a99b8bb78b8799365a589b68787c668559888576a8988f5a74758967223661a6541
col02:   98ce878a59696497768a685978656a87ab6b976c768b7aaa897a387599579877b87a898544754865
col03:   b9a749caa8996ac759a578678989aa4ad46c795a67aa66a7ab748784d666b9688277895a89434981
col04:   999b88a9c6985a97988b78797ab6c7b797aa8875a684989796887899b8b46777763ba95948867673
col05:   6a777aa88958787797878ba889878b78baa99bb998dc666993a8aca9696687bb5a5a56978a896741
col06:   a93898686684bb9ca9a7ab8ab87b7ba789ba869a9c78cda5b99b9979998b5c65b98a27a466476565
col07:   aa8945a968a647d5c989699977b9898c7698b986d7bb6aaa9a79b93786b599a7978a855675757766
col08:   569c698997ab685b78a7876a895a89ba685aa8d7acb8d8aaab97ea9575b96767769ab55556858713
col09:   88a9659a6798baaa986aa9a97aba57aba9daba798ca786a579acd99a796ca7466a85c8b4574a9375
col10:   a8a866989968a6aab887b79986ab8c88a8c7789aacac9896ba8697889899c3b287897a6188845585
col11:   b5988898777779b888a599979ba7677a58696bc7a677aac8a5996a58789ab77a8a64479964957664
col12:   b667a669aa99ab8699866a9758dac88b9a9dbab8988bb98cc99679c667ba86986b59669496556551
col13:   b89979c9a897a976599ca9a9c875ec8bcaab88cabcab749779699b7678cac887babbbb8648775935
col14:   97668a77798aa8798c8d7879ac9989da877996a696da75b9a798c56b8867a69c86a958797965743a
col15:   69768a999bb99a7a9689a8c6afbd8a88cb8ca6a789a8a798a4575b5ac8abb9c9a687776866a62634
col16:   758b6a989e5c985957baa8e59a8a7ab7697adb7addae776baeaa88a74cd724569b78a65675966666
col17:   5873999a97a789958c5878a7ba3587996ca9a69c8acca895b688869b9d8b997387a6868767355193
col18:   bdb97c69b7a778866aada887b99b998b89b8997ba87a987a98d4989a799d958ca4a77c9774457466
col19:   aa699a9899cac59a759c67ae87b84ba9a88b9a9d768b8b8ab89997a8a78997785687796788978967
col20:   77a475996aa8aaac86eabb99677989ab9ba26966a5688b997a67575b66b6ca5686ab56a658717886
col21:   35e596789689c5baaaa68898a777daa8b69aa8d9b8bd7d9ab8972979cb6699c9789b6ba6975577a4
col22:   8afa9b79b8979a969ca78266888a9a9b9db79bb2ccbab99978aa8ca996c9898ca676576666a96871
col23:   88b5a867879a95938aa85c585559b88bcbd8778878ea9caaac67bb69a7ab63687758555754877255
col24:   c987877a876baab398aa79acb399a88bc9aa99c6ba97ca7d9a77a697d8879ba7ab86d67999666592
col25:   b67a769995977c8ba8497db5aa98dae89b7e7aab788fd6eaaa98abb8c8a99a977a58677987872776
col26:   5a97879bb99bbc779b9cbcdbe9acacd4c7bbd98cbb894ba8d6beae8aec7bfba6bd75b776bb9784a7
col27:   cd67d79bacbbfab997b89aaba879c89aacc7d8fabb9bacbadb99bb7b88d5abaaad89d96887588998
col28:   9539b9dbfccc6aafb9ddcfcd8b8ea6dabffabdadaba9bacaddca8eb9dcb8e88cae9b74785a9c2753
col29:   b97ac9abb69d7988b9b95a8b9beaccafabebc798dda495ddbb9abb9d979c78d8776b875a97e88877
col30:   ca7c88a9bea879e7a8bab8accddababcbcdadab9b76ab8aedb799fbd9a9c9aaaacae8ca67788a657
col31:   8b959c7eababdbbcbbebcfe7bacbc7adbafabccdcaae5dc8ac8becb9dacb98ab99bc89798a48a7a7
col32:   c98a9a9a88e99a9ade9bd9caabebfecb9dc9dcebdc7bab997aac8ebbaadaabd9bdaacaa7e9599867
col33:   cda9aab989bbacdaa6bbecb9aabdb9bee8fd9cdacbb9dec7bbad89ebdd9a87b7d7aabcecada99785
col34:   7bbdbcbb8e99c6adceeabb7dbc9bcbb9bbecebde9a7be8cbccb99ccd8bba8ababf7af7999ddde579
col35:   a6ca7babbb8aa9bdbdaeeabc7c9b8bd89fd9b9f9dbaabacaebbddab4bde7af9a9898acc9978ca8b8
col36:   b7aeaaa8bbba9edffbe8fcdabdfec9a8eacabebd9bbffbd9fd7bbd9de9d5bc6d9c99dc88daa979c9
col37:   bcbdabedca8b9c9b9bbdebdcac9a89ecbecfbcacdaedcaccedbd6c87dbcbcb9e8c69bdad997b6c98
col38:   9b99cc99edabd9dedc9cebbcedcfbbccabfdacdfbaaecccaffafdb879db7dad99ddbabdebbab7d59
col39:   fbdf7ed7caae8acca9d9bcc9efbcfcabadecfaecebb8a9ccf9bdbaa97efabbfc7ccaadcad9b86a97
col40:   fbccbcb9abb8dbabacbbaafca9ff8cfbecdfcabbffffb8dcfdda9adacaedc8bcacdaec86acaaf967
col41:   cac9ab968cbeaa9adaddcddbc8f9c9aba8decbfb9fddadabcde9edafd9ec9b597c76ca88dc9a5c6a
col42:   8ccaacaafab88baaee5dedfbbceddcbb9bcbcaedbfbccc8ceddfbccb9cb8b8bfb9b9d98bab9a9bb5
col43:   dc8dc8ea6ebd9aabacccdd99aa6abcaeebccd8cfad7feafcde9edad7abaaebbbbb9ca97b8aba9ea5
col44:   cdacabc9acdce8dbecbfdedccfaffdaaecbf9efbacbdbeebbcbe8bced7bba9bbdda9ad9adba76c73
col45:   cac9eccdbdfe89bcfbcbcccfbdedbeddaeceeddcfdafbbebeb8db9fbeeed99ccdbdfbb99ac98da87
col46:   9cb7bbead98aaeec6a7c7cadcfcbac9cceedcdddcac8dfeedcdaafdbbddcdc9bcb9b989abfa8c9bd
col47:   bccbd9bcbcd9bfcae9adabb9cbabdc9dddceeeecabe9eadcbebff9aaecc7edbcbacfcbabcc8c8989
col48:   99ebeb9c9bbedcebbadaff9d9bdbcd9beffbdebecadcadcabbdcbbffbeccbcdcdacce9ea889cb7bb
col49:   cffccdbdcbbbdcabeacee9fc9bdafdacddc7bb8cdedbdc9dafccddddef7dcdcdcbc9a6caef565d99
col50:   a8b5eaedfedb9ceaaccdca9caaabddabc9ce98ccecef9cac7cccbf8deca7dafccd9ee87b9a8cab78
col51:   a75b8878bb6ba899d8abc5aa7c899adab9aab76ad89da9899afc7869ba688bc69abbb7ab97591769
ROC:	 BPix_BmI_SEC5_LYR4_LDR20F_MOD1_ROC10
col00:   5664877793a1a86a98683476878668775b8b949884a777879a7a6896656967a78d77ca38685897a7
col01:   697a69699986de5e8acb7936a989cac9ea8987bc8bcb9b997db986cbb777c994aa9947b55c6796a3
col02:   a976885a8aa98b59a86895787a986bbbb9a79778ba7ebabaa79888a968ca77b7976688adc8c38c87
col03:   b576675746858abb6e959999c688b5b9ba99d869ca8a476adacccaacc5dac69caaa9aa878459998a
col04:   867769765893679cb67989778e8a8a8d7b887a5769cbbaa9c8a9b8aa6c86bca78c88988a8c996a79
col05:   66254b96a567d87599a3984b878a9bb887999b6ab88c87c6b88aea99c7967a67bc9baa89c89c9593
col06:   b8664bb8788998a7a7c8788cc698aac99aa9c9ca9498a9bb8674d7ba87ba6a88cea97b7769767a58
col07:   b7a85475a86ba836766a8de8ba666a8d8a7c96c89ca99be9abbc8c8c97be68caab7869897abb5423
col08:   436a25bab9546678aa75a6a86b8ad6a6c9d966bcac59797bac87b9aaba9aa9da889b3c9d768ca763
col09:   9a29986aa896bc8da993578967d9599c8dbc9bd97bcbe8698c9a97bba7cbb9ebac767adb78ac9865
col10:   8ab774997a84a66b997c7ae5bd7b98679aac7a9caa5ba8d9a9cab9ab77b788babda6db7bb6bb7985
col11:   7a49a2a889754785737dc79bb977aa73c8d9d8988bd87aba9acb66c8aab9a64aaa9698cbaaa6c6b9
col12:   94b688975a7999ab79679b77cab9aaab86b9b9bac7a9697ca67b8acb978c698ab6a8b98aba877b9b
col13:   a55878756ab645a88aa8eb75c689aaa6a7b88c957a96ca8a9799c9aca8876ac9889caca479c86cb7
col14:   1582877658889aa6b79879a994a8aa88bbab769b8c985c99b98e96abdc9e9ba95db89dd9699a95b5
col15:   3485856a8658876777b7a995c977ae9c87a7aea8ba88baaaa8798af6c7baababa98ad7888c87ba78
col16:   785b5967989899936aa78967a8499a5cd9d9a8a7db9969b7a9b9aab898e96ba8c88acda5969da77b
col17:   636767646196a7a26864bab7b9aa984cb8ac7aaabb9986ca6a8c8255986aba9bca65cb6699647abb
col18:   677a6da987897aab8a8b99aa6ada93b956dbc7c879aa8888ababbc875eaa977a8b7a85a888986997
col19:   865647a9e35397a676a78d9bc3bca98ac97a88adbfacc67b79aa596b5aa7b986ac99ab9a7698a6c7
col20:   375864669a8645c4745a8ba897ca8ba49797c895c997b7b175985aac85a478bb68848c868cab8a53
col21:   8945777793885a958598c987a5a9ca7c7eb8688986a899c978dbd696bcbbd96a7ba9a86599c5eb56
col22:   667b9b4a9a9771792a97cd7ac3a49baab9bb7b37a489abb8b7bb99aac87dbaa9c9aa96b7a96ab764
col23:   55357623889886997888b99644c89ba89a9a896479aa9a8a6a6de59ab9a89b88837b67f8a9b77958
col24:   485654567674a2a53aa9acba7649aaacccaad88d8b8748b6a7c9bb9c77b96879aaa889496bb8d843
col25:   66363b77b589789857a868bb9aa977aeb68b79ba9754c7cb598ba79869ab9b887987799fbb7a67f4
col26:   665998a69996a8a9999a9bbd98a8aa7998aabc8889bd9bebbacaefb9cb7bbb9addb59acac8e858a9
col27:   a886579868b6a7acadb96eadac6b88479b9ddaacb8dc9db7bdd88bdbb9d978bbababc6ccd9bbaca9
col28:   54c8aa67c7aab9b999aa9e89dca5dbb9edba7c978a9bdb9b7accb8b6c8ace7989ca88adadcaaaad6
col29:   4948a19dbb97a9b765bc799dbc78a89fab98e79cac869cbcb9aaba69d9e8d9ba89caafab797a7987
col30:   969879a68aac9bb9b8d98bbab9cd8bbcdc6caa79a8acbca88deb8bccaade96c79a8cc78dcc6ba87d
col31:   49bab9c667a753babc99babce8993ebdcabc79bcca9bfdcd8a9afbcccbdacaf9badbbd989e7b9eba
col32:   ca9aa8bfc788ac9cba9b9d97dcae9b99d9bc78bdf7f8babbc8bcbaccdbfaacdaaeaacbbedc8dbccd
col33:   63a686dc7bd89a67bacbbd7dcc6ffda9ebacfac7a99fdfa9abcbbaeacb9afce8bbbce95aada5ecd7
col34:   76999aab98798dbbfc57d7ecb8ada9abcb89baeaaa99deabaddcfeeebafbb7bedfa7cbdbc699cc95
col35:   7957968b6aac884c8bcfb7aadcd98ce9ac9ccbf9a7c8ece9cbedadadfeedadccafcd8a99689b9cfb
col36:   9898bdc96da7a7b8a6cd89cbbd69ebaeeafad9aeddd7abdccb9bccc9b8bd88edebadaabcbccea8da
col37:   aa87fc9adeb88cf89ba9aac69c8bbdeec998ddbabbacecdecdbdfaebe9b9dab6baeeebcadd8b6999
col38:   6a7b948abaea9abbcdad9ace8dfddbf8dffbcbfdc7efedfbfadbdb8eafdc9c8feecbcafbeaddccad
col39:   88dcb9a8b867bad6d7bcc88caf8cc9bbfb97ec9fbedafffecceddccbb8bcdfbaacd9b95d98da8bdf
col40:   6a78b88bdabab9e9d98ca8aaac7d9accfddecffedebadcaaee999aeddbdeea9dbbebbcaa9c9b8ed6
col41:   cab995bcaaed9dea9d9aebccddefdb4aecdcd9dccbbd9deddcb9ab8ababeac7bcccbf98bbedae7e9
col42:   85b9d959ca7ac6dbc7cc9dacbd89bdcfbfbcffccaede9dcaedcaddfabaeddbbac6caea9eedcdaaea
col43:   7a58c9bcbd9a778bfcac8ba9cecabcfbcdfaddcf9cc9daddab9bcac5badf9cefc7cbabbdcac9cb98
col44:   db888bc98caab9ebacacd9dcacaaf9bd9beccbddacae6bbb9bb9fbadcccaa9be8fdbabf9d7accccb
col45:   89588768aac67bbe9c9d8aa8fec8aabd9ebbcfeccdbd97afdfa85bfaffb9ddb8bdeadcc8ecbcdc6c
col46:   a77ab59adca9caa9ea9aaa99adac9bc8cebcebadeecefebf9beeecaaadbabd98a8c9dfd68b6babb7
col47:   2887bc8865eca67ac99cbd8acdbab999acb8acdedcbcbfbb9e8bfaedeabacff7f8aecc9a8cbbadba
col48:   9996a689a8798b87cbcf99a99fc6bcad7edbab9ecaffb7ea9dc9fbbcaef8babbfaab9cca88cdc995
col49:   a6a6a9bc9aa9eceecb7aeca97ccfdaad8bfacbb8dce8be9cabcce9ab77cbaabbf8d79c9b8ca98b48
col50:   aaa8e8a3a6ada9cdccbdbbbbcd98edac9eeecacadabb8aadb9d7dbab8dadcbadccd9acabbabc9c88
col51:   855568758a47949a865789bb99cc479ba7a88ba9b9dbd886826dbf997998a9bd7c877bcaca7c6a97
ROC:	 BPix_BmI_SEC5_LYR4_LDR20F_MOD1_ROC11
col00:   52836756a6365c6488866986568a4895788867569a89518aa86b497878495589765297b669681857
col01:   669a7955785684546976aa7889a7899c47689d86769859e995caabb7667a98666ba5792499665765
col02:   9775944a9564688837687859445ada8c95875aa66978ba7948ba5a7a39797b4b566a799746696187
col03:   6583a56a94a578b985857cb1cbb8983c6468dbd6d9b999c9696796988994999aa59586885692bbb2
col04:   8a8798579b54295898c79579c79785ab9a78f8b9a85a679489789466886687657984776877955654
col05:   b5667926739aa864793789ebb8c6b9babded8f88589789cacb7c8ca8d99989966b965889978894c2
col06:   6965567676898469736998a56888b98596bb9ad99ca7896b9488866c9695688bc744bc769779ba93
col07:   5647788927a7685a9bf6b757976bea7299a9796a99b97ab9c9a8dccaa8a79987795752764b848a95
col08:   84585d88767649c5a7869947b7a6ba8938b86ab849759647697536daaa9d7b77598989457a688575
col09:   2366677995a4e79a8a58ad3a86a9875767c7895878fd936b9a8f9b8c79f96a6586a759aaab76a577
col10:   6568718889385786d86aca97b889a573a94aa7868788586989a7a48678b6888a5d26977859897aa5
col11:   75896836719974878a7776c66567778796a88a39948ba6a5853b7ba767787896735977778ba88677
col12:   5457642a366493874aa8997767a6abca35a9a76887ad88b8a6a9c979ba9796d2a87aa6663a785757
col13:   25588947b89696769b8ba9457ac898a76c99aa7ec64aa96b7bc96669a566a476b69789878478b974
col14:   a452b47877a83695539aa94465a76893b9995a647d8da4952967779699a64736b9a6ab4995697846
col15:   766794981367476bb7975b66cb4868aab6a9aa78bc99c7ce8997b9a88ba9b67c946889aa288656b6
col16:   4754385358696a6973988788697da89559cc56b9a9c67cd44a8a59a7569c69889585b87775995366
col17:   738661614a5365577ca55987b5692499a9788bbab85a3949cb6aa8ac778bab988869599c7a435553
col18:   455564425768568864593985367778a66b756a58963585e4977a99c848aa77aa8689815b8a947539
col19:   3764862647775a5646688488759346a4797a9baa68b8a9794965a8999ab79999aa79a34688794db7
col20:   55614748587693379698725aaa6688675aa65b6979976a9a4599a97b9b59647a695a754594945596
col21:   5345448c56b839454128a85a8a6a89b59ab878966987998a7a9c76ea3a68667799839ba558aa6836
col22:   4997996375649869857574936b76b7b777b9a79aa96bc8776a459b77b74ab7793879b7839a968893
col23:   5654769b475731649858986aa458c598824a469ac18c856a9a8cb9b9b8a989abb35144938c598557
col24:   5365276898b655c455789b769a96a69b775a7c969d57c8b6685b6964abaa7a758576866614533867
col25:   66686697488aa6655a3966b6ac2897b7b9757a88867a76abb9979a6797ad977475bc648665287672
col26:   7c77666629b79644c9cb7b787865aa7dbba9a956d76ca889a9d7736eaa7e96fc89b98ca688897647
col27:   678663b87688d669879a9ba87896887998a89bb67a8cb756a9a9dba8cf9caadbc75689a65b896534
col28:   798a355677aaa7627ba7c7999bb97bc8d979a79aa98b5a9af9988c7c8988cf6abca7889695a87c75
col29:   2989686aa649c7976c6b4974968b7bc8c8a899ba6aa9b8969a958a98a8aab7b899794979779967a7
col30:   76876654a2aa7a8668a899c9a89569faaae76aa6a7b997cc7ccb6bb998dcf8bb98d8875eba879559
col31:   7b4689ba8aa993aaa898d91a99da99b9cba9bdecca797ab8ac88fad99bd9aa6b976bbc6aba679c97
col32:   687757da79a8a895a839887793678cabb9b89b9d8d6aeb9ccb6caac99b9bbaaaa9483a7743765835
col33:   7a5a6759a6678858787b775ed446c8d799a875dd7b7ab868bcbaaac97b876a67b98c97ab78964b83
col34:   36a3a97a667b97a989da58aab8759989cbaa8bced8cde889d7dbc57ca93797aa9acab6c6a7866884
col35:   8857d76278568a8b66b8a8a9ba7868dbb9abc9c999cacad4d9bec8b96a799c969758998c89838794
col36:   86784466795b9794bb79754bf8cb55a99aaab8acfdaab88ba9bba9bdcbbc889a8bba85b847a88a55
col37:   b6c5695467a6585779849c8abc8889ba9ba88ce8aadbbe2bb8c9c8ae8cadaaca95987ac8a9ce8c85
col38:   89a8646aa98b98b8eb95b58c7adaaa7c4a8bec9a7a9bb9699be89797bc89869cb797a56aabbb6675
col39:   4a665685767ab88a8aa6b959bc77a5a6d6985bbaba9ab9dceabe6689dcab9a9bbd9b7a9d959a69a4
col40:   455537cc2a6a897679cd9a68b9aa9bdb5ac6caa4abcabc79fa8b69c7b9cadab9abd88795a9985b87
col41:   696c95b687a68557abac388988ed88adb999cb99ac9bccf9adacee69ddb8acadabaaea9c98685576
col42:   a889b86998c1e86687997db899965b7b66ab9cb9cb9e97a9cb9798ccc8b6ea8caba899b583969ab6
col43:   9a67c63a5a997799c6a58c4aca9a8b87b7bed98e6aaaee8afbbdbad97b7ab8898caa7a898bbb9868
col44:   75674579a9a6766aa96a9c4b7cc8dc8cb9799c9bacda3acae9b6dcebac9fabcb89dbb74cba79a6b1
col45:   9869a5987899b58bac86a69eaab8d9e7cdb7ab799dc99798abdba6e9ab7bafb6ac9f9eba7baa8998
col46:   375969998488ba95a844985d879db9c9c9589ba9e6bd7b8b8e79dc8dba9b6bbb9d9aa699a8479557
col47:   969695796977779967b9b899b89c96b9b9e9998c988995558e9cfaca99adacb49998a958a76eb786
col48:   366825967a7a7675b8988ac8895a89b97a5c6cde7c9984ceaab9bceaaceb55bb88b9877778827776
col49:   6b776782a9687397b3977989bb7fab9ac7eb79a8ab8988ba98caaa89aab8d86aeb956797897769c6
col50:   75366a9956687aa9687588799cb57acea36a9b89b9eb889bab9ab8abcca9b787acbc9c66bcc79798
col51:   3736849559743a7442a17195b4584788db477694aa7554a687876999b7c88ccb66d6584188a62485
ROC:	 BPix_BmI_SEC5_LYR4_LDR20F_MOD1_ROC12
col00:   154755965434c77788a45a57298a9656976b79194a769de44c98a7678b9858798aa86b4ca954ab66
col01:   7636d87627b7867aca37d99899898c9a79996898cba89a87468987cc8ab6785b88cb9b88787979aa
col02:   947562a5ab8879b8766c349667a6cb7a8e6cc89698bbb97796898ab3f9c9a9f546c79b897a797692
col03:   678747d5b8958599d5663767fb9968dc6b7c7978aa6d79a8b74994a77daa9a8aa8aae9a9cb4a8975
col04:   4878879b6694c688c4757a9b86c8966b4b9ba6a468d6aabbb89b89ac8d9599ad75897ab8aab8c78d
col05:   73a5964689a9a7d696a8797ab7a96999be68a869ba9e9cb89a5abb8669bf9abad9a9fc9947aaa87a
col06:   6364962559a6685176d2a8c68756928f69c9bd98c9bbcad9a6865ea899c6eb7c9be689c8b559a6c7
col07:   499877795c7578444798cc6d67a77b8a89aa7c95a7a8797b87bcab6a8bc8ac86cbc8ca6daab7d875
col08:   9647216667876a877999a8ba87a9a9b7b699a7b29699a9abab9aa8889a88c9daad9a67967b966a68
col09:   a6aa895a6787a47989cb5bb769c887769bdb888b8e8859ba8b9adaa78c9a5c7abfadbcc96aaba6aa
col10:   176e56846b8848a75e5d499194a79b6ba9cb59a9e7597ba8b7b9a9e999a9ba666a9cc7c99ba96495
col11:   326682498763a87842c7966988579785c65eac7996d9c7697aaab5a985baaac5b8d6ba6abc3c78b7
col12:   5685a7357959883436c8b77c3ca79778c398c7b758a6888c2776accaa9c68c7949c969b87799cbc8
col13:   9668588598867698a78b5a867aa74ac8c869a87c9a9c477d8556ab97856bba9976adbdb8a8a9a594
col14:   53a567678786658a764a87cba98bb29d6da78545a8b8ca8757a389946768567cb697956569988a85
col15:   8314693188a52a3a955938638da686a8dc9c58992ab9988b7977e8a88a6cdb9eaa6ba9894555a796
col16:   5622769356b4439698865487c8a3b6878ab6d7846bc876b679b146796beb7ab8d876c3cba96a8665
col17:   477a94474a8a9287958d64b87b8959caa9dba796c6a545c77ab697988b9aa87aa887896579865a98
col18:   47217499874aa857475757e87779958bc89946aaaa96a657a88785679a97996896a99948b9899498
col19:   9886966464669586b46455b48899b7c9879c999a7848976b8697a8bb8c8a79baa999ad899b839a85
col20:   85265ba726793655444c79777558879a7b889a7699466b88b7a4887959979659ab8799abab696765
col21:   23277331b7876555b46598b8b67957aa869c7c9879bba9b98b8bc89996ab98795a7ac88a584be679
col22:   458686448975969472466155645957454999a44b4aa857c7c7a88ca79a27c8b96bd88978578987b1
col23:   a7944958351818593b9759d6885959676ac6a838c366a3888495a975a8b5aa77586ba57a877779a5
col24:   648665b7595286777747b6379366a68e77857239788958a98b979aaacb98878587d976ab7899a596
col25:   875464353723697497c6987e56a4a56a38768e7a9a886898a793a569b5589a7956c866965c8999c2
col26:   6565a67576e79bc9a7a79a98acbab677bbb9aebb589899aacad7a4869ab96a7bc9a489b9a8949aa5
col27:   89416945a8956a46e59ba66f8b479d96b8cd8aaabb8ac6d8b78a5c887a6677967bcbb9cabaa87c78
col28:   1836c9868caca97468e87c869999a879ad7e56c6b688aadda6bb99988be7aa98696aa48a788b79a9
col29:   a285766349a788c58aa5899669b8b998c7a88994a9b988bb6c9b9999aaacc77988bac9c5a9ba888a
col30:   6186695727a678668ab96a9866899b699e69677a979bb8ddcdc4c4ab889dcca79b7c75d9ab797a79
col31:   2469bc979a79a949ab9a99caac6dbab7c6f9baacb967aafaec8bb969fe75b9ab6d9d9d6a5d8bab67
col32:   967ba7761979c83349a9a7a96895889a4799c7a4b8e7b879b48c9aa5bba89895d8a9a886a7bbba9a
col33:   68865e9ab6b663247d659a7bad67bd9b9abe9addb797b8b7ac998798d8ab5eabaacadb59b87dd996
col34:   79a3a37d7a93b97974a9a6da9cc6a8d7cb7aacfb7becb99ab76698d9a89b7c9b819aa6a9aac9c9cb
col35:   8769367837a69696a59ab9b576d87bc8dd5bbacab7cb56aabb8c89fabab99aaba88db79899986d59
col36:   3846829cda7a9848b88ba357c9a8ad7698c9dacb48c96eaa8a9668aeb75bce679ca6b9987ed8b6b5
col37:   76c4786788a78c9ab788a8bca6cac898c7889c8af8cde9686caa9ccacaadaabb8999e99c78cbb8a5
col38:   c969977496ba8b9667786c9b676cc899adbc6aedb88b7e989cdaac8a9c8d9c9b9adba6d9b8ecdbb9
col39:   455395599b6de888a6a9addcd52a9c99ac769bc9c89ea7989cc4b8a96ea98c9b978a7b87ba8bdc58
col40:   8a6978669679968699ab77874c67bb8ca78a8c5edbe9cca77d94aacbbd7abbacb6d98a9a9cbc88ac
col41:   844884b698a66b4888596b9c968a7c5559d99c89ac7b99a98a638b8c9a5e985ab6a87aacb6b7b854
col42:   977a9865a7599aa889cc9a6ab67a99774aaccb9896cabb877cb69cb77db69af7a9747ac78c6a9d87
col43:   4851c9c9266856aab69a4779ae9947b7998ac665d9cbb9ca97cb8bab78ca68bbb594b685b77ea57a
col44:   82d447c877da6898a95878ac987b9babbac7de94c684ba9898a8ab9e6aaebc8a97c97b96aac4b796
col45:   79a6b995528777768bd7959b8abacca9acc89bc96be889bb9e77b8cbb98bce8a99d8c995797a8ddb
col46:   9856b7775b6a66975a84cb88aa99899ac9988b9a7b55a9d5a86bfca5c56ec858a7b8fb5eaba79788
col47:   2598a7586988a6a98898a8eb69acaccb8a8c5d95a99bec99bae889586ced579899a8e5a8a88a8fca
col48:   837488496a69c5a97c587789c684a8ea6488d9be5a6c4aaa8a5899839cd8769caf79a89dab887da9
col49:   5742da96d649776986aa88788d5689b69d8898947a9b8a9a9e98b8ac87597d984b4dcabb86984bc7
col50:   88493244687c9aaa97baac88d686c2a95da9c9c9cb7aaaa8aa8eac898a97883bcb986b8d96698dbd
col51:   446647761a417689633776a57645a8489a679d567aa5968c9587557684b497774685a967257584c2
ROC:	 BPix_BmI_SEC5_LYR4_LDR20F_MOD1_ROC13
col00:   354564b74937686745d689966c67878a9b987a9a9875984d9795557b79cc48b6973677aa2239436f
col01:   94a456656379789d4b5a9ddada59796abad788abbdb89cbaaa8aa6bdd88889bab4bb96a5871878a8
col02:   76744b78a4647b688c88a7c8b6b7ab7f9b8da78758977a89b7bcabe97abd9a7c87679378e5778859
col03:   a7967869d9467439cab68989798ce8b8ae5ab7b88a5baac8797aaa689d74d99e9cb78b868b779a85
col04:   8caa77873898d88247667b49c89b699ab8b88d78dbb9899989e79549588b9c96ca9876d84ca69684
col05:   84878c639486976879359885679aa88adbbbb9a845c89a66ca5fbce196a898b7595589c88b8887a7
col06:   556a853a7b859783b9144998db7b7b6c6888beac5c88ab769b938a35c5898b678aa3867aa9b99777
col07:   b5a456759956856c96875569abaa968a98ab555bcc58aaa8b89b79a8fa6a8a666a8867689a9c9394
col08:   85a3a8878a576a67ba985a4b8259bc756579b9699977bcd468d974ea59b5adb478297a8849a3197a
col09:   646ba658a8c8b69998aa7b7849475aea76bbc867b2a89a9c686989587969995599685a9a9b6a8c62
col10:   ba53675863988788a5589a9b7a598b8bb5c7ccca7cbac6d73b668987b9e9aa75e48aba9a676b2696
col11:   57479857b75595699ba856788679d869c7fb47ba87b87bab7a9caa66ac785cb8387b915b76848657
col12:   54293135778656589a9a8a87d97876b918a989c738997e99999a77af3654c966b8786986a4854888
col13:   737aa78ca5b99588a96987ce9b98aab55b999a8699a5ae9863d4297889528d77aa67a86836896965
col14:   7a3664679e17689279286977c94a99796ab5769cab7877cf88b8d39589c988a464a6684197655713
col15:   49366988853549667ac75985cd888a77859a67cb8abb62b88a486b7a6678797a989957a769473579
col16:   3747476416542c87aa675b627aa99e92d59b8eac88b98a89a7465a665ac76b634b98aa5498654577
col17:   29936566432a839975939177368858687cb699b39878adb79877c7b68ac586636778a6939a736265
col18:   957339667895869a95769778785596fd99886a6748396baa5373a78b8a657658d8b6b58b76b25646
col19:   2372331465652887739b5677969567198dca9995d9ab6749cc438b87a46286a784a6769587876475
col20:   516455477247778933aa65a88c5966a97a8a699e9977b9a6a84c4a4bd69583d8455567699a974c87
col21:   331667267655a7aa99babd5a994d779ad7c779769d98ba788887964baac464c5c978c91758898c93
col22:   5326714854164566676b896249b68ca999c8a8865547989ac5788683ba3886689991888984b65864
col23:   6226135379635974664783a43979b68762683985c89b6ab86374bc4e458a84968927667524956631
col24:   46562451639267665899469457775a24b946948987c736843b6696379aa4a738996588a63a873896
col25:   1543726428a5869a39a439695bac9964a875a65ac666657596a796766c569a65c95534bd673c7722
col26:   6a976658a8448bbb87957ac9652577c75789b7b99ca98a79867a39957e5888aa6885ba857b966362
col27:   49423376432886b87468a5a785a98d8677b994788ac967cbda9aa787b8973887877989c4ab377596
col28:   6863655164b694bc68c7693c6bc779abc798abad99dbbca789aabbcae7c7b6d75c978438d8888621
col29:   7754a97a639467a93b89989769b399da47ab579b47b89b7b898bb87b8aaac8abaa766a758e769c94
col30:   4846879997a9a713677787ab91777989a8bc9bb89a5896fabab94a49c28ca6a8756a73bb8c88a641
col31:   5a476758588a69537a85ca747a998949788aa7dab8d79bb8c87788b897b7ccc99c99a88aa9997a74
col32:   8684857474e479c86a466677786b3ca6a9ccc959f7846c9aac7878b8b6bcb99ab8b7c663bb599983
col33:   652874197c8696967986484d67b8c9ea7affa975979cdeb8bde7c969fc4a9bbb95768a58b7849983
col34:   753983587588958a6a695779c58c79b6c799b6fbba887f9ad5fc9c5dc4fa98b8a338ab988b5869b6
col35:   55a8a8862c38975a6a7aca8b4a1e9bccac87babbb7cd9988ad97bca9678999fdae87957c95788368
col36:   968d751a6497a85c797a97999769bad9553baa8b77bb86b8969a7bac9557aeaaa8c98c756b9c3945
col37:   392988a2a6a587b9aaac9439bda79bc7a8b8b5aabb9f9b97caeaa9bc98b94467bc7c99ab69865a57
col38:   3587a7796888ca879998dfab9d7778b5399d7f7b79baaa96e9997e8e9c8a9a798b7a9a98ae696d95
col39:   4578787698858677977888d5942bbb97dc8c76bbab99e469a88dbac7c89c5959665b4bd7b9797578
col40:   5a547797d87a63e8bb8b5887a5ad8977c87e979ddcbb9b698baabcba9c9bbb89ce5ecbd85d58bac1
col41:   68a28358aa447aa76b48d55aa9d7a578b76c8fcc9c9cbd728acd9e56cedcaeb7787f6a98879a6799
col42:   6262b917b76b68849ac4779847ba98babd8be7a88ac8a6b5b7a8a7acc7baa559c8b997bb9ba288e3
col43:   ac569784696585c3a919d78bfab9cb84ac758ba79ab9cb9e776aa9bba679b78c67559b56bd9879a4
col44:   9a48b7596b7977b9c9478a78eca78b6aaa8aeab9b8a88a8b7aa98bc8b9a4faaa8aa986a49777c7c9
col45:   a78a6985559c8bb6abd797b9ba8d99aa9bac9959d68bac8c68bc5b6c9fa58aba19a8b989ca558ab6
col46:   4546c775b6466b6564897c35949a968b649adbd868b8644a9a89db7b8a6389a57c96be69a4784365
col47:   aa48555a88847b994b79fad6ac797397582a374d83bbac76bc5d89aa9bdd689a6cb6689be78aa879
col48:   65a63785975b7c97666b565c89b9759b89c87a7358a8bb78b6979a986daca9d969b9baa6889b4393
col49:   66887c6c7629b91998bb76b5a86b778da6a8a8cac77b9c5a5f8c4b47e967589877d8a95b7787ab97
col50:   c88799c7529966cbd658788d6875b8aa9daba66e97f84ca597a768887887cab7647866668aab5a67
col51:   9114254352967694a2549a885775b8897a4227736564b17774b36b6962457378739858761866c674
ROC:	 BPix_BmI_SEC5_LYR4_LDR20F_MOD1_ROC14
col00:   5566667469271964978474cba7a179892376b995a96798658587883778894aa64785a32656975861
col01:   4265a867696866867e9b89a8a599cada6bc76aa9bcbc99a8896998aae48c8aa98774873646375437
col02:   5b794627188b8c3697aba36b868b8675a87a9697a8bd69567674a99a7989b647987a586856462768
col03:   c8865a285659664978867f9989aa987b89ca669a668c989a9b9ab8ce5c4867b775468987937a4568
col04:   69468698698a9c993b5777a5a9866b9a55779aa4998b8788a89ba76b6b97779786777ab6b6557463
col05:   7b63b8ac7797989bc9895859699aa9a7a7c9789aa7bb86aca8e9a998a67a4ba867e56b9775827671
col06:   85969597829a86684ba69788ab444ac766a989b57888c88698f787889b7997965b7bca4789a68632
col07:   65aca7a58a6a98889a56f88a4a89a6768bd655dab8781889c9a789188999d6774749b6877697546a
col08:   9767a9584788847abc79578a87968694b99a6788c969a8cb6a66a8b568b96c57a749ba8a47256765
col09:   9a993a6796659798a99994eba98b98b8976a8779a8ca9798ab7d97a867a9b46774ca599ab6c7a574
col10:   786859976aa8998996764aa87bbd498d966665aa889c696a699a966ba8aeba568a78a58349891578
col11:   96975775ba75794aa985496685a946c79bad5563ca7834ca647bd779aaac8c848a49a47568988567
col12:   87465895a586689b4c665759357856b7a7858ac987bb8a9b7999a7787c495666a473a39973666135
col13:   6676a7575766739c8737b6b896b8bbb46b89d9de58898aa7bdcc9fc89bbbac999a98ac6748175536
col14:   663773876a9769286784659876b78bb9c79986b9a95688a599998566d48b6a5487867818523c4645
col15:   6a8676a65b7c997a499a8a8b68ab76b89ac9997a69a999baa686ab987c6985d9966677862465b684
col16:   846a965699476a956a47175578b3a958c886968a8b7d89a5cc876669b5996c8a9483aa5a37844859
col17:   5669b7a669965a88b9a8669994925aa9b7bb7a979b9b79aa588976789c6ab795e99737a757724c53
col18:   46b8947678619658696775a5b8679c7d47565ba84849b5b49897737b7a6a69a5778ba5a877426853
col19:   848479a963987666a8ab7a9b5a9dd998d5abc9888c8a67845c5bbbb98b8577859a98aa9a77634564
col20:   969466774885538878277a376287798869587b646a9b696a56769b8a796698684977938ba8516921
col21:   8a59629955794856988555a8895a678888a597797b78a7998a48cbba99b8488853647b6376489565
col22:   9538d6496984ab49b76768a58476677a959b67845969867a86667564c85cc8269a56876678a65524
col23:   7c869583237657346a8a42ac87897398388b9c87b98ab957457b667a397774877454e54745488761
col24:   27a628a687695b99a47759b767b6a9a466359b88a8a38788859949695a6457a86b59666934886643
col25:   765586638676a14897c77c79ac67898aa98698b78998adbfcb2acab89b976798688b984667847662
col26:   85472549a496ab96d79b88a8a8b849cc968dabeaa9babbd9bb96ad9d98bcc7d8b86a9abba7b5c599
col27:   c979c6e77a926b799b6a8ca8ba9d788f79ac69ec8b9ccbbca58bd888a8d8779a19b5c99a5c875ca5
col28:   ab448886a7886bb57c888fb9b8968b9b8899dc688c8cab89ad7ac68bdb7aa9ca9885695957853956
col29:   657768a88b689c679989a989cb7766ca7ac8588b6a89ba8a999889bc6b98b78aa4a877a7565578bb
col30:   9876c668987978ca8e9b889887a8b78d798ba9897997694c95a79baaaac5bbb97c777b34eb97b734
col31:   676d76768b959bbbcb88a6c985eadaab9a94d9e9aebcbac9aec85daab9fa9b78ca7363678a6548a4
col32:   7bb567896b99a7bdc8d748e89a6795d8d9bacc97a5b6cb99a767599dbacaa74b9a9a8676598a54a6
col33:   99487a955a7bbba6ace98b9dacb99acca8dbd989a58d7bde989abc68c9aac78889dd3db37b45ca86
col34:   8baa9a9c969aa9a6ad6c9596dbd8969bc89cea7d8d756e9c899c9c758ba999837bd66aa597592539
col35:   a988797698549bad977b77d989bdb9ab79ba9e9b859aba789a5798b9bbab8b866a57a4ba69a77587
col36:   8bbd7859fa8a897a79a6bbb9c7d8cb6c6bbc53d99ae98878abaccac8baba8b9546c6a7795b67b784
col37:   65a9ce47b8b5799e97cb9e8fc8a9abf98c9a8adebfdba56abb7dd95b8ec9bd68b6ca98db8c96b627
col38:   aa768c9677cc88be7ccbacd72cbcadcc7ce8dbf9c867c99beb9c7baaaa97d9979b895849998a9887
col39:   9785b765ab9787bc798899cbdb9caab6b78f989bc9d7a85aed9aa9aacdaa9ab83aa9ddcfb75649b6
col40:   7a6887a938a89edb98da9d8b997777c878aa8eba6ba897fd7c7aa774ccca87b973d7a88854a67a94
col41:   74ca68ccc54baea68a7b9caa8899b9beb9a8cab87aaa6b77e78adda5cbe87b9d78b769aab586c886
col42:   7c679968b7ab99a7867b68bac6a79a76d7ac85ad8b97bcbcb76af888aba8d6ca76394aba9ddb848c
col43:   84a5551c8d67a8b75a6d899a589bbbbcd9687d6acb8eb898bb99b9adbcacb99bcb7b8da7dda89989
col44:   a45a999c8abc9b6789958bf7a95bbb897aac9a8dba7d8c7ba8a8a8aa9f6ad9a9a87b956a79a759a7
col45:   69887959bbb9ad76bacabaa8cfbc8facbcbab99a7ca97bcea9be7759afd898bbaaba98b6aabba69a
col46:   8b567a79dd8698a9d58ea79a8a799b6c984dc69a78eaa8a99ad7a85c7cd677a7968a6aebc7689435
col47:   7a79c8ac7c679b8a7abbb6a8a8bbc8c7ef6cabf9468abbb88b8a9899adc96bab668bcab989e75793
col48:   987ad8886b3ab7bc9585e5d88a7db7666a898679c8baa95b77b7cdcbda9828887a8ab8ba8dbca933
col49:   86a87aa97a6c779978b5798d979d9bab7c8da9764bfb6f9a99da89ca97be8bbababa887b88b6c551
col50:   c9ab97b328e889eaab85de736a696a97479db7b8a6a8aa88cbaba7abb98bc864b759c7abb875cba8
col51:   b76546185672754569778173743767367b9a9899653a867c48e65b8856d8747bc87ab3b65a877839
ROC:	 BPix_BmI_SEC5_LYR4_LDR20F_MOD1_ROC15
col00:   3335758562957777a6a9b55b46ba937a5849a9c6cba7766cb89b9837845595b66656539847843572
col01:   6888659ba4669b9d89995c9eb977799bf98dabdc67669987b988559795969743588539a587776865
col02:   8b77965757a968a79978883a9ac948aa76b588a98c67687799ab678978989845a4696788285c39b3
col03:   87489875a98c8b8369aaa9889aab5a9a787a8d7ba8aab6a8bb68b84698987aa59974668854683856
col04:   539848a56965a9a67a95a6a7b988aab7b746abdbac8a9ba99a88ba67bb96d875b846973154979659
col05:   773687668b9695b678a8aaac3488ada597ab8c9777aa9b7898d756a8cab5b6976a92565852463544
col06:   66a759667bc8976a9858866c7b97988a6d79aa7a5b988b878a9a969c4a7586a5c744169b574485a7
col07:   9574688699758ac37a47c67899ab98c75a8bda96899a899787c97386968b9788a796756819836344
col08:   657777b6669d876a59b88a6776b89caac73889998a97c96a76769aa7777645757a748a6419485991
col09:   3ac75966899789979799d686ac77b389c8577e9499689a8b797bd96c794978997565968555796684
col10:   557678929485a985b746848a6bab979b9858cb6cc68c8acaa9659b4a89c75b796687a88987897643
col11:   467799656b9acb8986ca5798aa79a79666b5ca7a9d7d3aac8c7886567a65a8767577765577156367
col12:   697775a858b95a6c96eb4b7587b9b89b9baa6b66abbc9a5a6659659b46863c798658692377762441
col13:   69468b65398a976d988da9a59b9b59796abf9a598ac788896b37b5aa465d888a7b76889789694745
col14:   8895496787887a9b59b599987b9655764588b95b98786c58558a9787968688415b55577789861151
col15:   7455798684a9876b9778a9a87a9a6c4688a9a88b8c8a789898599a7aa8aad96696a3778834687553
col16:   746a5885778b9658499a37ab977b789b9c6c8596b796ab696aba8b8a398d65475769c66587637156
col17:   7b868746b437857a57785b867ba9c7998a4b77a8b9b667757c7a39889944397b6574976774267256
col18:   67379b73856989b5878767b767c8b7b58aa588589ba897858a755a77866897844846c97113297667
col19:   a987587765688ca9bb78b4627596c865cb99a7899a6884aa8d9b5d77c4d98197777a7a3693578861
col20:   5428477657767a8895767aa9848b9897888ab95595468a66a6979ba6a58866562567425678448798
col21:   a75aa532954a99656a99959b7f6849aea89cb9a9aa8a7566b98baa987a689b86b558959995566358
col22:   a7678397969952765777599983c7a6abba796aa6698bd7b87a6b64897a948765649a529771254642
col23:   784765579599a99a8b8969876a8588b6ab5a9bd8a798379879c8a757bb86a6445738766685843795
col24:   397555688a8697a935b897898598a7cba89a98bb958ca97b46a6776988e678877654735266514541
col25:   5768b5a85668878a97a5a97876768b98b848776a966c64b886c5567d99798969a67754a6672b8468
col26:   64a5677cba688777ccaaa786ba7aba976898c99c6ae7caabfad697777c9dad87ba569796577f8987
col27:   b89b7cc6888897a88c5997697b9889adcaaad779abb9a3b8aa6798ac8678d989d8947659767c4a74
col28:   8a98889a78b99a989794aba6abac8bdace6d6aaca7aabc99bc75ccaaaada7b79c578667783975c82
col29:   57987a768998ab9b846787abac78c998ccf8cc6bc48aa87da8bca7a77ab7b879b4928a5776585673
col30:   786a89979c987ab8aa4aa69a9b8a88b5779acdcab798acccaa89f86d98b97ba6a898b86a96988ca7
col31:   bb65786ac658e7aa897c899cadbab9d88baabaafd7bcce79cf8bd9b99a986779cba9a79cf768aa7a
col32:   8a757c7a95e99ec9c8cc7988c9a758d8c99d97a8faabb8b88a76aa9a87b7a89a9888768a978c87c8
col33:   b9744896b8a937c789cba9c9aa8b8bbbed9a8c964dab87c8a9c8babacb8979948b68756489998975
col34:   955b5878c99acca9a89bcda8bba99da777bb99ced9ea8acd7bec7accb69987cb699a8495348aa864
col35:   77a788ab8da4b9a98b9cccc9adebdb99b77aea8dba988acdcabbbe9aa6a9a98898a9579b8788ba58
col36:   acbaa5a74768aacababc8a9bac6abcaa7ab8d8dcb9d67cc57aaaa98bcc989ca7885977d967782c45
col37:   b6a6c6a9bd7da79dabaacc47b9a68bcba8e98d97d9ca8b87be69cb794ed9c9cd8bc98abc9b889878
col38:   ac7bcc98988d99a98aba98d75cbcda9bcacdcbdadaabbbb9a9ca98a97beb9969a98abb957798b788
col39:   a77b8a87668bbbb7be88dbaeebad8c8deab9bcfcdf8c98c989aabce99a79bc98aa9d89a9884677a5
col40:   99bae9db955d98aabeffceecedccf89a9b9abefa8a9bbbabc87fdccb8c89b9959aaab8c79c9b9b64
col41:   89c98798a97a8dbcdcacaca6a96976fcacba7bbc9b9a8eb8dbabab79bb4a9857c959b69566724465
col42:   88a7b95c799c787bc9b6bdbc9bcabadbc9e7d9e7daabd9cbacc968dbadbdba9779a9a8769b5888b7
col43:   bbd9a7a787a9d99679b7898adb97ab9dcabc8ca9a9bbafca8bafc7ad9967bce98b9a997969975687
col44:   7cb6a978798caab8c99bac85bd9aabfaaebc8ccfa7a8ccbbeafd879c7c67aa999977d65855648395
col45:   a794cb467996798cc78978aacadd8a88b9cccacd8baacb78dac9dab9b9c9a9bacb8b77b6887a6668
col46:   8bb89d87e89caaa6c1caaa9a9cbcba9daa8bdaab8c9dcaadedb987b8a778cba95a975abb589a77a4
col47:   88885cb6999c79aa988abbcbdb9aacad6c6cdabc9cca68c98a97a9cafb9898a9b99b677c7bb959a5
col48:   3bba8bcd69b587ac899ac5a7876a7cb8f8a9ad97ebebda3d96cdbc6cd8dcb9688ac8c5a998773b73
col49:   8e7697aa998d8cadaa96ca8a9a9bddcaa8bfb8b89abb887a99bba9a9edccb8bb8b76889b768a38a4
col50:   a65ba9bae9bb6885c797c979aa99bce99aada9599bbcad8b9b989b9ab9a6ca97a74baa876b99a799
col51:   997767a5ab88c6b67a79b6af886b485c7a856a87a7738aa985968cb3b86b7346678459a49933564f
