ROC:	 BPix_BmO_SEC4_LYR1_LDR3F_MOD3_ROC0
col00:   473787844647555568553565b958958798975678b657b85aa78c7cabb77768b8cbbbabcb889dc786
col01:   665854c68b75649975597798699789ac6a9b79999a8c876cbb9c79b9dc79799ad9cbde9bacc9768b
col02:   377766853483475846588967867bb8b8744a7ab869566bccab8aa8b6ccaaba779facb889cbb79ba9
col03:   93464666775498458c87798777a97778859b96c8757976999a888a6bd7aba8dbcb99c8b9798785b9
col04:   36986977643647755567696959979897a9aa97967ea4a98ba9b8b9c9bba5a9aabaeaa89aa8aa9d94
col05:   667b2785561668773b4935aac986998a8a9abc787abb799cabdbc7bc8b8adbb8bb8dba7bea6d9aaa
col06:   86a78574757786a56894576889689597b79e9758a986869a6bc99ae99ebb95b8daa9da99aa9b6886
col07:   755b8c9577665868498767b89788ab9a798dcbcdbb6ba78999997a7999dbfbdbbb97d979b79bcdaa
col08:   64956892758668875a67785596aa89cb9c889a98c8a7a698cdeaaa7aaabca9da9b498b989e98bb9e
col09:   869766935346164478178869589a8bafc96d99be67bb7a7b8b89a9ab8ae68bc8b6b8c9ba8bbccd6a
col10:   575547876456877876568899a98d9cbcba99aaad8b47ca8b88bdc9d897babbd9c9cba8b9becbfbcc
col11:   1445b544856644688976899d8999aa8bc67caaacb99b8aa799b7cabdccccbaacb9aa9a9b8abcc8cb
col12:   583767886124796785987c469d75ba8a8b59b9999aaac88ca6a898a89dcbacbbaa9abd78ad9a9d99
col13:   38778197897b867c589667589696a799b89aa9ac798b7cb8a99adebcfbcba9c978d9dc579a8798c8
col14:   971984956776979646a868946878b9ba8689aaa878bda97d8a7aa9bb9ccdb88cb9abbb879e9bb987
col15:   8553363685758485977775369aa8b59ca99bbacb9cab99a98ab7abac85a9aaa8acb97d9977888967
col16:   44444b8815ba58876999998b7a8c988c7d6a895ab88e78e9a9a8aeddb9b8ca99bbbb88cdb787bb9b
col17:   1158546676646a4b95785abb6998b58aba786b8aa87999a88bbcc9cebc859aaabab9bbd6c7d996c9
col18:   7443735582667848789a877896895647478a6a7abaaa68c9a8bfa9ade98d6aeca9bb797c9c789a9a
col19:   1155878656854b652a85845867956bb59b75aa94acb8b68c9b88ccaa9ad7bb8dbb7bbab998cbacbb
col20:   54517966566c777788b5688797ad97a9d968b76b8c99ce9bca8daaba8b9ab78abccb9a9cbca97b7c
col21:   78a578855a8957895a88947653885aad8bb8e8aa988798cabaaab98cbaabdda9868aaa9ad8ad8cd9
col22:   86d76786448788893465889689aa99a7d766899ebb8bb98cbb9badccbfcbcbdbdb9cc8eabac9baeb
col23:   83488a6873798a8a736a8778b986abad697bab898ec87bb9dbcdaedddccbb8ab99d7dacaa396caab
col24:   755a9aa867759669976788778b654c9a68cbb9adb797a8babf7facaccb7baaaac888eabca79abccb
col25:   798598766a88798876888b8aad788ab7a8bb9cbcb8aa7a9bacdcc9bcbd7b8998887db6aa6bbcbbbc
col26:   59aa6796a989678a89854c87998baa8a7877aad9ca9b8cc9b9ddcb9ebcd8abddb769b8abc8cbdcba
col27:   76b8888a9b7b79879889758cc9aeaa977879adbbbd978bddacafcbcc9bdecd8ac9cdecaebcdaca99
col28:   58897a69987b65793759bb9bc7986b5a9b7bbb7cbbaa47bcbacef8bedacbbc9a6deac77bbaaaeb9a
col29:   677a49947687569585878aad9ccbb9acc8cddbcb86bbaaa9e8cdfd7facafbddedcfbab9dee9fbd9b
col30:   679684aa9b7a9569867887899ea99bbb4c9aacabad9d898edfdccea9f8cdedbddeeedcbccdcabdb8
col31:   879a8885993b897488786aabbcbdabbcbccaeacdab9dadb9cbbddbfbfddbeee9fdccbdbbcb9bacbd
col32:   577867578d89867aa898ba96cabeabbeadbfcccbdbcbabdfbbccaffefdfd8dbbddccbcdcede8b9ac
col33:   45885778aa9a897b869ac98a8b97b9cdaceaa9db7aace99bbbbc6dcb9cdbbcdbbebdc89fe9d6dcea
col34:   79548268585a67a8b89a887aaa99dbeddddcbccb88a8cb9aabfdabecacca8ffbbdaa7bddacdcb9af
col35:   638959755967897988bb8b989c79b8ba9689caccbdeaccccacdbbeccacdccfcdbdddcedfb7acdccd
col36:   78599688a96ac99869bba8c95bbc89cccb9c8ebdacccdcdbdcaefabcafaeebddec9adbcbcbbbecd9
col37:   29758896578948a5986a279ab98b7aaab99ca6b7cdc9baceccadbc7beaddcfbcdbccabbba9bccdf9
col38:   6a6a8563a89b739a76759d778b997c8e9bbcabd8daad9c6ecdd9dcfdacfefceba8ccbaccbcbcdda5
col39:   48477897488775a97aaa9daa893abacdeb99cccccbe8ebb9c8dcaaded9faeebfcbbb9baacbdc9ceb
col40:   9855c99b368778b4466a6793c9c98c7cbad89dc8edda9fdfcefeaeaddcb9faaefaacd9ad8dc9cbf8
col41:   787a96a4786b46797778ac98aa8d9a7b9dcbcbacde9ebffabcfdedcbabcd9bcebc9ebeccbcebcdad
col42:   68779b8889587598879d78bbc9b9bbbeca99cdebcaaadaadfcfbbab9bfddccdaec8cbfdbccee9e9e
col43:   6554b8a7967879689757a88b9c99e7979bbdc9bdc8cbbfefcff9bcbeddce86e9ddfdedbdddcfedce
col44:   b46899aa8979757785bb8adaacbbaa9999eeccfdbadd8cccccddbcddb9edcddbcddbbbadbdccbcce
col45:   8588892777754a68887b89897a97b99bb9cbd8aca6a9cccafaddfcddbdeebcdbbd9debaccedbdcbc
col46:   7856996a87488a9996776a8ba7aabcab9baca8aad9cedcbfccfecadb8cdd9bbddddfbcada99bcda9
col47:   9567c76ca9b4559a7768b89899689cbbbabcababbcbcddeeccfc9bdcbdacdeb8c9badbdc8bcaf9fd
col48:   87577a757a3587685988cac97acc7e89bb8dbc99a79dbefeddbdfdbbbbeaabbebdeddfdbbea9e9fc
col49:   67868496cb9668a879b74baad9a9abbca8bbe8ccaaedaebfceddddecebeceb9bd9bdbe9bcfdedcc8
col50:   896596888755967896c697bb989cc8ec9cbbfcbe9dcdcbdccbcddedc9dbafdadda9aeecacacfbdde
col51:   453546556878b9a7c696776a98b9dbba9b9c9acbc8bcaa7ca98a8b9db7ccf9bcbb8bebb9cabdfbb9
ROC:	 BPix_BmO_SEC4_LYR1_LDR3F_MOD3_ROC1
col00:   422761636535b483755875758376b5c94848669b876b69bc8678a8bd97c8b6bdc9bbbb9abcb968eb
col01:   632465317799367526aa7a9994647938b68aaeadbb88dbcc797ebbba8ba6aaceb7b8ccd89dccba48
col02:   76479633614576675887889b79897aaab99789da6e9ba7db89a879db978a9bb859c8bab9aa9bceb7
col03:   4346735368774565564b6b878667b7569a79c796cc8b8ad7a89b8bca97b79ddde9a8b6bebdb7bacb
col04:   7463343785699877585787876747bcacaa69b7bb8bb77cda6cd8ca7f68a59fa968a799ad96ac9aa6
col05:   9677786455588576888685789ba9cb97bc78658ba7969dc7bb6986bdebabb9cac9cbc9989ccc89ce
col06:   653667432773645637377a6bb68589a8c7baaa69b8b9b789b78bc8dabc9c8cb7b9cb7b6ab9a7cca9
col07:   61467c56764744776647a846a7b967b7898ab9a7ccd9b7b8cb9d9bacbdb9bb97cdb6a89a96eb94bc
col08:   25757584663571365a9b538759bda7b6967ac9b78cdb9cbb7dacbddbcdac899b89bb85cbb886887b
col09:   47767963a5464767c4469a9a899bc89cc8ab996c89d89d98cbac9ab8bcdcd9987ad9b9d9acb79b9b
col10:   1965555715b4658958b949989c86bb7d5aa75899cbab78d988db7abaaabfb7dbc9c89b8bbbabbb6b
col11:   7356557845587546769b6b887758bb8b7a7b96aab5b78b7aabc6bbcb89bccbabcba7c79babd9bb99
col12:   77865465b69866b55a8ab68bba8869b9899b9ca7b599ba9dccbb8abb7b9dc98bc9b9a8ba6c994bb8
col13:   65775852634865a7748a4796697a9599765b99a8d8b9c8ccbcdbcbca5baba97abedc6a99b979cc79
col14:   494574645264886a8448666956977a7b6d5bca5bab9c8a98c8cbdbfa9b9ab5cb89abf4cab7bd98cc
col15:   457954756679a93412a978ba67b9aaa4869878abbd989b9ac8cafbcacbdd68be9a8b79cbcc7bb9cc
col16:   6845665613617475776658866678688988a8ca69b999ab7cb97ca8babbcc9ab8cb87bbb989cc9969
col17:   917676654975b987a58539588b75a9776698b7b9acac9bcaebc7989a9db9da7cbcdaaddb9d7c9ebc
col18:   66458546668b79986755c87876aaa8a987558daaba8de9bcb9aea7aba7ac89cb9bbdbada8db9ccbb
col19:   b114457554426778cb698b79a9679bb886788b97dba9a9ec9bae99cadabce8baabbdcbdafbaa8997
col20:   44489722995938877789b8ab779777599799cab89baacaabcd9ba7cc8bcbd9eccdc9bbd99bb99bbe
col21:   565666875669458778968849985886aa4a9bb8babaaa9c8bb8acafd8cababcfcaa6abb679abbabbb
col22:   66687845967758594c94ab6bd7ac6493787a96b9c77abbebc9acbb9687a8bba8be9d657b8dd98bb9
col23:   75476447656786aab77a99a978ba56c898c587e8aaba8a8ec898aaacddfcd6b9accdb8eba7db5fbc
col24:   487967a668a988cb587598b746775c57a77ccb7b779bbbbb9a98abac8dbbbaefd97cccddbbe8c6cc
col25:   5774a6a914958c978a7a88ab8bb9adbacaaba6aabcdb7bb7acabdc9ad98cffdcdfcbcdbfbcebbbbc
col26:   22266a972787894aab987abbb97896c7778a6a7c698abab869b7cc999ac9bbebc996cdbb9cb8b9a5
col27:   a56768794986639989b487bb9e8daf99dcdaab6cc7cc999fbccbdcddbdadaafcdccece9adeb9eade
col28:   6cbc536776586a886c8a999a7b8b96869bacb8bdb9acadc6a9bbdbbcddbd9cd8bdabba9bac9d9a98
col29:   595a778759476789abb8a95b9ab9a8db9bda8ba9abdbc9dcbbabb8c79ecaad8ddbbc9fcdadb78ac6
col30:   97b675b679787a69997a6999a6bc9cac888bdab9bcaab89dedecd89eacdfbbdb9cbb99dcfbdaac9b
col31:   976a8568499679989b6b79c97adebcfa78b9aab9bddfbc7ccdcbbbcadedbdcbc9aacdbecbacedbfd
col32:   7876a27788b7777567599b67cdbbacaccebbb8b9b9aeb9ccbabaaac79a98dc9c869cdb97a9cbbebd
col33:   7886a7655998967a69ddb9d8899bb89bbbc8adacbbcde8cbe9decaeb8ac8ed99ec7abcda8cbdadbf
col34:   58675a767977d67a5766b8baa8de8d8bac8dbb9dc9adaad9abc99a6dadbdcac9cb9ac89abcba8ebb
col35:   9b657894a5c98778a896f8dab8aaaa978babac98cdcbdbdcbe8cddcaa8be9edb9addabbd78cbceaa
col36:   47436a8677678b999b9beaabbb99cb7b7b8bd8b9a9bb9ebdcaed9bdaaeaccaad8bcebaca9acbcdbc
col37:   5756a6a868a8a5cb57dc78a999b8c789d9ab8bcccbbdacc9ae9aecceacc9abaa79cceabccaaccdb9
col38:   7868887772797698a7b898899a2ab99bcb8cb9dacebbbfcccbb8dae8bbcacca9aabbebf9dcacacec
col39:   67789886e8ad98a8a9bbb987a88a898abbaddefccba9cce7ecdc9bbcdfdabac8c9cbcdb9ca9afcfc
col40:   778bb96866a9b9a6678a6abcab79996ab7899cedcbcfbeccfcbcfcbeda97cbbda8acba9abafaedbb
col41:   86d5564a68969799aa9a6abad8abbec996caadadebc9efd9dacb8feaf9ccbbaccadbfcccdbabfafe
col42:   ba6879b499896a6dccb6ccab7d7cdaa8ba9a99cbbcccbaaebddfbccf99adbdadcbfccd9bbb9bdbea
col43:   786787978796798ba878bba3ccb95abdaabb88c8bcd9acbde99edcbeeeecb8cecabbbbbcbcbcddcd
col44:   a866886abb9768a78b7967b8dbcacbacbed9ebbbbacbda7ac98cadbb9cc8cc9bfbbbc9bbebebc9db
col45:   488795a87789a88b8499b9d7884cbccaccbdcaeacdbbeaeafadeccddcdfaccecbcdcbccbbceadef9
col46:   974799a5296767a8889bb87a8ab6aaadabedcbdcaac898edbccccca9ddda9baaff9c9cdbd89ca9db
col47:   9858a55569a8ab856999bbb68ba69acc99bb9cddcac9cfbeccebedba9d6cabcabadcdefb89c9d9fd
col48:   8a89799346488a958a8b965cd66998b9cba6a8bdbdbdecfd9ebcaeacdaefbdcdccc9b9cfcb9a6db7
col49:   79b7795b797a9abd88c7b88c95bc9a7a9dcf9ce9acfbccfbfdbdc8addabd9bbdfacfddacdcfddccc
col50:   6aa887aa4a778b996897c97bcc6dbbd88d9bdbfe7b8cdffaa9a9fbef9caa8dbdc9ccdc8daf89ddcc
col51:   888b6d9bb8878b6b7999b88cbacccbbc9d99cbcdeebbffeebbedebecdecbbdbdbdacee8bceebfdbc
ROC:	 BPix_BmO_SEC4_LYR1_LDR3F_MOD3_ROC2
col00:   5172554b567b7515d7b7518db7fbb5b87fd77bffdd3b577b79bf377b757bb36b6d5b78b8778bd525
col01:   68455665446d654776647869bbb7b8685bb7678bb596bbb5dbb6bbbbcbb9bb8bbb59bb77bbbbbbb9
col02:   4334566456756b65d8567717b99b8b7874cb6b6bdb89bb6868b77d7b56f8698b78b878b7b9bb7bb8
col03:   47584266678b57757b66b8b58b88bb7b76687b7bbb58bb89dbbbbb87b6b7bbbb6bbd7849bb77bb9b
col04:   4627726555656478778634576bbb5b4b76bd85856d66bbb6c8bcb99b976b888ccb88bb6d59779cb8
col05:   122484687b475db566755bb55b558859bbcbb9c7bdbcb8db9bbcb889b7b9b7bbbbbbdbc8b887bbc6
col06:   46545757876b64856867b774546686587bbb7b67bb4b7b7b9dbcb8bbb89bb75bc58bb6bd97b9b776
col07:   b67644577d7b6b8667b5db5bb76bbbb88b6bbb8dbb87bbbbbb8bcd9bb9bb777bddb7bbbbc8d7995b
col08:   5574656b5777666b66467bb6b677bb476c7b97b889bbb9bb8bbcb6bb7864bb7b98b8cbbbb5b8b87b
col09:   db78777553568755676b57487b896b88d86b7b95b8bbbb77bedb7bb59bbbb78cbbbbb7b76bbb8669
col10:   477854584877985b7b5285b357688c4374b8bb7c86785b8b888cdbbb6bbbb78d7b6cb5b8c778bb96
col11:   45713654564867386b6b5b68b8887bb489766bbbbbcbb785bbbbbbbbbbbbb8c6b898bbbbc7bb75bb
col12:   5437147836b4368b637bb566b4bb6596d676b8b78b7b8bb8bb57687bcbbbb7bc769457bbb7b556b7
col13:   281532557676636787b3bbb8b7b8579b6bd6bb9bbeb8bbb7b8bbb89b6bdbbb78bbfbb9bb88665c87
col14:   633566427b4596478b5736989b874b9798bcbbbbb86bbb598bbdb9779b6b7b88bb8b85696758657b
col15:   84624557766663887bb8789b97bbcbdb75cb8bbbb779bcbb8bbbcd6b78cbb6cb75bb5b888b774bb5
col16:   1251743816b356683b567666b88bb8c89be98b6bb8bb8b8888bb6b568b27bbbd5b6bbc77574b768c
col17:   53663456315886894853989888bdbbbbb67e98dbbbbba7bcb9bb8b7bbb9776bbbbbcc7888b87bbb8
col18:   34346362175664b4557435287773bb8875bbc76b88b8bc5b877836956896bbb67bb8b78b7777665b
col19:   78655666b5344284d76b89b669b66b7b6c788b68bcbb8bbbbb7bb9bb7b8b98b8cbcbb7bb67cb8397
col20:   3423457476767b5586786b96589c8b756588696bbbbb88bb978bbb8b578b8b7bbb59bb677745b76b
col21:   b55656855475b659bbbb975db676b5786bbbbb7bbb9b8bbbb9bb5bd76bbdb68bdb8bb8b8bb887bdd
col22:   34254b7885666896765587875bb6b77b97bbb7bb757bb878cbdb97c78679878b8bbb878886689bb5
col23:   592565bb885586b9bbbdb897bb9bbd76883bbbbbbb7bb886bdbbbbb99bb8bbecbbc989bbb7bb8bbc
col24:   33744b26b5847b9b45b666568bb85666687878b888b9b86678bbb89b98b777b9db9b7467b6cbbb6b
col25:   458477b76868b85767b86bb8879656796b8bb577b8cbbb83bcb786bb87f97cbb7c8bbcbb7c7bbbbc
col26:   45676577455746b8b77b748b6b9647776bbbb77bb8db4b76b8b6bbbb858bbb7bc8cb8bb87b5b79bb
col27:   87b897776b688b7988bb47995b889887bb879dbbb88bbbb7bbbb8cb7b6cbcd8bfdbdb9cb77dbbb76
col28:   72767566568bb69bb6bb66789bb8c6657b757b78b768b8b78bbb7b7bbbbbbbb6e99d8cb8b97888bb
col29:   bb64b87bb7b867b8789b5b888b89cbbb888697b86c7b7bbb7c89c6bbb99bbfbb9bddcbbd5bbb7bbb
col30:   5b6645bb8588b8858b578b8b7785887597bb6bb989bb76b89b8bbbccbbc9bbdbcbbbb6bbb9877b75
col31:   8685bb4869b557bbb977bb5c8bbccb9bbbbbb7bb56994bbbbbbbebbbb5999bdbcbbc9bd9b8bbbbdb
col32:   6b9897b7768697b87bd89b7bbbbb8c79bbcb85b9679cb79b9dd89bbc7bbd7bbbcbbbb6bb99cb6bbb
col33:   867768797b6bb7b5bb988987bb99d7bb8b8b6bcbbbbb9b77dbbdcbcbdbbbbb8cbbdbbbdbbdccbbbb
col34:   45674bb73b7658756bb6bb8b9b77bbbb9bbcb4b7bcb9bbbdc7b7bbdbdc9e8bbc8b9c9bb9bcbdbbbb
col35:   6b47b6774b8b6bbb879699bb8bbbbbbb7cbc999bb8bd9c9de89b988ebdbbbbbdebbfe9ffebffbbbb
col36:   8877976748bb5b6b84987779987b99b98b585bb669bbc899bbbccbdbbbbbbbbbbbc767bbbdbb98b3
col37:   bb695787399874b9ebbbcbb8bcbb99bbbb8deb8b89dd9ccb8edfdbcfbccbccbbb8dcbdbebbeeb8bb
col38:   b86548688b5767679bc64b79bc6cbb9b77bbbbb8bbd9b6bbc8bdbcedbb89bebb9bdcbdbbedbdbbbb
col39:   8575bb78686775b78bb57b8b6b9bbbbbbeb8bbbbdb8bedbbbcffbbdccbccbbdcbc9d9cd9bbbbbbcc
col40:   c78555bb64b8b877cb8b89bbb988b78b88b87b8bbbbbcb9bfcf9bfbbbcbbbbd87cbacd9cbbcb7b89
col41:   8b7877b88dbbcbbb9bcbb8bcb9bbbcbbdb6bbbbbcbbfbcbbbdcbdfddcadebc9bcbebbddddcbcccb7
col42:   bb65775bb98b9b7885cd59bd85bb8cbbb9f87cdd8bbbddb8dfbbbebbb8bcbbebbb9bbbcbeeb7ebbb
col43:   b75b9bb88bb9dbb8b9dbbb7bbbcfbbdcc9bcbdccbdbbbbbbbcbbccccccbcedeccbcfbbbccdcbbbcf
col44:   bb8bbb9b98b9cb7bbbb879b88b9bced8cbbebbbb7dc8ddecfbbfddcdbccdb77bcccbcdcffcc9bdbb
col45:   7878b86bbbd6b79bb88cb787ecebcb7cbbbbbbfbbbbbcdbb8b9bcddccbc98bbcdb9c69bbfd7ec8b7
col46:   7bb776bbbdbbb99bbb8b6bbbbbbb87bbbebbfcb8dceb8b8bbcbeedcc9ebbbd8cdbbccdc8bcbfdbbd
col47:   735b9b8bbcb7b9bbbd7bebbbcbbbbb8bbbf9bbbb8cccbdeb9efdecdbecfbcbbebbfbbbbbfeb8bbbd
col48:   bb89657bbbbbbbbbddcdbcbbbbb8bbdc6bbbcb7bccbfbb6bcb8dcedcfddebccbb68b8bbcbbcb7c9b
col49:   b9bb6b8ebbbbbbbcbbcdbbcbbdbf8b6deddcbb5bd7dcbbbcbbddccbdfdbcf9bbbbbebcbcc8ddebdb
col50:   5b6b776bb8ccb6bbbb8b79bcb7bcbccbbbbeb8b6c8dbebbebfcbbbbecdb8bbb78b8b7bbdb8bcbbbb
col51:   426bb9db7bbdb8bbb7bbbdbdbb48b9dbbdbbb7bdbbfbdbbfcdcddbdbcdbbe9db8dbb8bbbbb7bbb5b
ROC:	 BPix_BmO_SEC4_LYR1_LDR3F_MOD3_ROC3
col00:   65b31646434887327b6975775187bbc4867b774889bb8c87c966d3bb5b9bc7769bb598859b78788b
col01:   715834754a74863bb69b44d87b639b97696cbbc8bb978bb8bcbbd896a9bc9dbaa87b7ac8bb818b7b
col02:   56752427b3526335588875b9579b638bb77579897769859b8686886b969bb8897b99b7989b9849bc
col03:   465747655669777768558b58593938b797899579888dbbbba8bbb7cbc6ba89c8b8b89588b59c7bbc
col04:   6463565488786898776485bb77898b8c9885674b88255859cca8b876b6d87b7b9bcc8b9777a5b654
col05:   12b78578668a5ba4a5785766778676d66ba6ccc77986c8c9977bc9b6997c8bac7c9e7f7f7b794935
col06:   563977575697374c569b6856525bb95b7899a7bad86699b79899aa87878b86b9b9777688b7868b75
col07:   48488754668b4b859738787b7a97c5b8abba5d6878eab8cb8b89b7bc6bb9896b69b7cdbc9ebb99b8
col08:   75687818868597a885cb4a9ba8a4969bb7c8bb98459f68bab5bea95a98b99697d9cb9b49ba8657b4
col09:   246563698555758795777ab59ab97996b99988c9a5579b6997bb7bbba899c475b9b69a9977ca5bd8
col10:   887548676b444788db5584968b96978b9869777699ca9756dbab89999589a86db89b65ad7c988d8b
col11:   3266515768b888678a9cb8785bb8675866769bb76b98966679d9caedcbba989ba789ba58c49c7588
col12:   79644646675964867765b479ba9829589665998cda79d8b4b76b9a8cba99773868b869866b459588
col13:   2586821638344255b9a6bc5b6ba79bcad857b7bbaaf89bb6869b9f7bb7bcc98bc887b99bdb659c7b
col14:   767b8976898898a54c9b98c58d96999bbccb7498c6c6caa4d6b75a8cdc98496b9598469b6668b847
col15:   14485745b336b6888976b7845786abfb98b7aba89ab9b88999abcbcbbb68799c6b9d86b8ab78b6c9
col16:   2765666355477944857675fa8ca99b8889c88b769d9bb57bcab75b79788377b2ba6775b6b8477b65
col17:   2665651a77998887ab66679b888b9cbcd9bc87ba85898bbbaab778ced9954bd98caa975668886b59
col18:   8857715644476597a7a986775757ba8c98887b887a96eba978b4778879674a586cc7b538d6766487
col19:   573376555741a78577878cbba79bd7c7b6b9a9aba8bc76babdb8accac7988b869d999abcc85794a9
col20:   5668449a7ba578877547868988789b87a89b79779d9acb966ab64598955449bb796b861789bb377c
col21:   4247358a6586a77c96758a7978594a7abf6b8aac99989caceb7b9b6869a7a89f9b87874b88689947
col22:   36676966388bab8898d66c6689d6d6899ca9b9688dbd895cad68897c78988579899779978998b376
col23:   67558685897674b6d789885657876bab678c88ab95bdca79dabd9b958dbb6c8ba7a58aac8bb9c867
col24:   57549779878898778646b499666b996acaa85859a8999a76b7b6ba9a8799a99695b85a9b4a989687
col25:   76848875795767666a6aabc9687a6786a88bb9556abb84899c99bcba8cbb9b8acbcbb8d9c9ca56b6
col26:   557b985b66a899abb58eb87976bc9cb9b69d9a8877c5679bb7b98bc7cabd8ba87aaba88bad8cbb48
col27:   8986576ab988999bc8b7a8bb78668d6b9e8699bdbb9ac9c9dc99b6abb9b5ccabbdabccbc7b7c9c88
col28:   a69bb8b68cbc8b99769b788a78ca99c768cbb5b599bab86b77a9db6cf6ddba5bda8aa7b8ca89b677
col29:   78aa97bac88896ab77b89b77878799baaa8c68767bac879789ada798ab7a999868c7da895aaba8d7
col30:   bab7b7799859886c888a6ca99acc798b9e69ac89a6b5afb9c7caaea98b9796cbca89becb689c79a8
col31:   78798999a5697cd5d779669c99eb8bd8cffcbbab98dbc98db9999cca89cd9ba8bcabf7b9789bcacc
col32:   8886797c668879a9ad77766b97978abaca78c89cacce1da8759b7bd9a8d8b9ace899d46c79e8b499
col33:   a7585567b88777bc9699cab8a668bb97c7a6c6c9c8d8a799b988a898baadc9fea9fbdb9d9dbcdc9c
col34:   a467696b99768b99ac898a98d89cb89679d789c49d9acb9999cb9c8dcac7b6baba7bbaeabf9bdbdb
col35:   499796849a99b797a99c98c987ba998899a6adac9b87dcc9abcbbccdedd68cc8cdc9d98bfabbdbb8
col36:   c7799b9b7a79988b6b7ea7dbbdd678ab778c86897cda6aaaebed8789ecaabd5cd7bec7bdeabca9ba
col37:   789f58b87b97bbb67b868b5b8d99ab9baf5bbbabaa9fcb85eacbdbdbddb9ecbc9ac7a9ccebbdaa8b
col38:   8b88999bc78847db68b76ab7b9cfe8b677f89ab9a4cecac9bbeeebaf9bc798c697b88ebabaec988c
col39:   98bcb6bc577b9779bbbbab98ab68dbb9c9989989dbacdbecfbaab9a9ca9ebbf977b9afbdcadbabcb
col40:   b7c57ba89678b957ba97a499bc7c79accaccc988cba8bfb6dc7dcb7cbbbad9a6ab77cbb98fc7eba8
col41:   969b79999a9dbbbcbb8b8c7bbfababae7fa8b8bd99b8d887ecbbbbe8bb8ba8edcc9cafccfcdc9cab
col42:   6888979db8adbb8cb87ca8797ab79bbbca9baaaacafa7a8bcacfadd9cafcc96db798d89babbbd9db
col43:   db959bc9977db8bab8878ad9cacdbddbccdd8abfcbfd969dbaddaedfb9df6fe99cdc6bcbcbca6caa
col44:   86ab9c9b97c99cc99ba85c84ab8cb9bb88edb9eacae9abcaeac79b8ebacbb88b9bcaa7ebcccccb99
col45:   7889b9b5b9eb89c9bac98885a9abcc9afc8b798ccfbcbbfddee89bc89bafa6df9c6bcab9f9ce8a99
col46:   7dc8bbd6b8dcbb9b8bbba5abaefbba97bcc9c89ba9dcc7caababaabad9b9eac9dc9cda9abbcaa669
col47:   95ba98b9b988bcbbcccdbb99daccb7dbeb9daeb999b9cbd9cbd9e8cabbbab9be997869c7facabc9c
col48:   bb765db87bbbd768cbc969b9bda7a99b86cbbb869cabad8acbbdb7bdb9985ccc9aa79d7bdbabcb99
col49:   ba968a6b888aadcbbfcddbb9babc98bbbb8cbecfbb9aaddfbcececeebbebcc8a99aa7b6ceedaacc3
col50:   95b96b48887a888b97bbceab89a9c8af889b9dacecdec8fbeba9bbde8be8b67cac98aad99bb6ac97
col51:   bb5767bbb9db8f8b6d797b7c955c94bb878b6bdd7bbcbbbafbc8bbfbe8cbab9cc8abb7bab88d87b7
ROC:	 BPix_BmO_SEC4_LYR1_LDR3F_MOD3_ROC12
col00:   8379675b84b8b656589c9bb8bb6bb8b8bb8c9bb9f868bbf5bbecbc8b99b798fee8cdbbbfbbb48ceb
col01:   b846b97a7a4b6b7996cb8bbb79b76bdfa3c5a8d8b4ec6cbbbbbbfcec9be7bdfbf88bebbdc8bbcde9
col02:   967485767b9788965288bdc9b4699b88c994896fb87bbc9ce98ddcbbbebcf7cb9bc89cbbbbd9cbb8
col03:   676599679b76869b6887b997cbb8cb8c97759ac9bbdeececcbc8debfbbbdccbe9c6b8cdad8ecb7bb
col04:   67968788887889a85865bcb799ec99b8a78c7bb99becbb9ebcbb8bbebbba8ccbe8bcdebdbb7cbb8d
col05:   76977abb699b64c8c6567cb6c8a9d8787bbd699b79bbb8bbd9bc79c9ebbc6bddbcbbdb97997bb777
col06:   569b79b99b38487b9786989b78b94797bb6e7db9cb87b9b6bceb6bbfabd7fcb8dbcbbd7eb6c8b8b8
col07:   966b9686489b8b558847b7688bbab8bbb3da87bbcb59f87bbbbb8c8bbc9cf5b9b8cbc7bc9ccbbcbc
col08:   6794a75765b98855c358836bbbbdabb9b69b8d8acbac7b88d8bdb9cb9cd9d47bbf8696b9888887bd
col09:   6698889965696ba6c8ba5b787e8b6b8c6b5cb7dccbbdbc7b9d9aac87ebc8c98976c9accc99b9bfdb
col10:   b985965667a8635c9896cbb7798cbee68b8bbb9dabbb9bdb99bfb8b9bbcc99db8e99bdb7dbbbc9b7
col11:   71497b953b7858658696b79626559cb9fbb8999bbb9879dcc95eba98899ebaf8d97bbb99c9b9d6e7
col12:   9575856a7a6676c46c56ab676996bbc9bb9ccb77bc889baecbbadb9abccbba9c9cc9b7b9679cbbb7
col13:   4744974856687a277586a7696b75666a88bcb5b8998bccdbcfd9bbcbdcedba79e89b78bb9897f5bb
col14:   4688687355855b868859a68a6458b9ab7b8ba76d8bb998b6ab9bc6cabc97bb778bacbbb8bbd99c7b
col15:   74465597264464589bbbb7c58a8888a9cb88b86bbb7bbbb9c5b9bb9db8bcb8dcb779cbb8978bcb9b
col16:   1974264176846478694478776775abb96bcb995bb79d77cb8ee9fbc8b9ccebbbb8bcb98895bccb8b
col17:   56775188865b4b566593b997a88995bbbbbb988bb9dbbbbcfcbe87bbcbbdcebbfb8baccccabbb9b8
col18:   388446652b4887448aa986788ba6984987879b8dbbbbd888ab9bebcb9ceedc868bbbebbcd9b69878
col19:   545315827b37771767a2876698b963aa8873ac97987bc57bbcba89abcbb9c8bbfabbcca87d9bbb78
col20:   7866436493935689a879d49876cc889959ab6848b7ba7cbc9ab8bc89c86db75dc9bec598b6b5988b
col21:   55364782566533779892974b7c88d6bbb99bbbf9ca9bbb8c9cc9abd6bb8cdfbbced7ab99b6bbeeab
col22:   483957b334568574599b9899ac3b698987bbc65db5bbb799c8bb97fbbbcba886e76b99c4bcb78ca5
col23:   66b448b8743487958b79775a5657ba5886bb8986c9a8a89aab99caccdbd8b99bb89b87cd8cbb87c5
col24:   636376746959777654695677b55b8db99c886b9bdc946b8d873eb7bc8bb9eb9adb9c7bda98c98beb
col25:   275777468667b588a6793687b98bbbbabb6b884a678bd7e98c7ba6cbc9d9dafb9f99c7df9db9bbc7
col26:   5826466797757a629775788875b86899957bb8a8b9bb9bbfe99e9c979bc79fdceb9ba8c6bbbbb195
col27:   44748a85864a65b69c2895bbc94bad95979487db8bbb9bbbca9b8bdcb9c9bfbdb89e7759d9c7c88e
col28:   68436673b58563b99a57bb6868bcbecb9b78cd8b8cacb5bbbb8bcfbbccdec9dbcd9b8fbe998b8bc9
col29:   869684575b55668884b977d9b77989bd999e8a7dedcc8dcdbbabba9788bbd9b6ebfcb8e9c9fb78b7
col30:   7679858a594797878698897a8d99b9c9ccebe7cc7abd68bcb9c5ebbac9cbb7bdddb49cadb8b9b8cc
col31:   78477676a5676957bcb7bc8bab9cb8eab888ea8869ecc7bfbbbcc66eba96c95e896ecb8888bbc5e9
col32:   67795795767c596798b979bbc9b89bbbb99b9cbb8bcdbbbbc98ec9687d9bb9be68beb6db8b69c9b9
col33:   b455b6a76868658a8bdb9bdb695bbbd9bcab9cdbbbc9c679dbf8db9fb88bd9cdabcfb88de9ebcbb8
col34:   18787738158676d8b8b8b8b6b8989cac8c879be867accbca9ccd998de9bb9bea9eab9b6cbbb9f6b8
col35:   79769577977bb59b9579bc8bbbb8bbbc8899bbb864c6cddcbdcceebcffbdcec9bcb8bc7cbb6bbb5c
col36:   439849b657998c88c7777dbba99bbccf896c5d9ccbbcfebbdf9ccbbacadb8bbb9b6db8f9bcbb9bbd
col37:   9859b7997c797a77b8bb9b7b87b9e678b9bad9dbcbbbbcc7efc98bbc97c9bbabdcbdbebbcc8cbe98
col38:   56a877bb6c799bbb99dbb8697ab6bd86bbabbdc9ebb87cbdbbbcccbcb9bbbb9cc86bddabfebadb7d
col39:   75db7cbb9cbbbb7b9ceb6a7acc7acc9cc8d9b9bfbbfccabdc8abcdacb9bb9cbbad9cc9899dbcacbb
col40:   b862c785786988b89587b97b99ba96898b8bbbd8cbb8d79b9cbbda48e9bcdaddb8dbbdbbbccb99cb
col41:   c79c16689bb6b6886b7979bb8bebcfbb89bcbbeccccaccfb9ffbe9cadcdebb7bfcfe46cbeab9cfb6
col42:   cb8944bb7967a77b98b98b88b9b99e89b9cbcb78ca9ab8a6fbedd47cbee98ac7bedb7bbecbbd9bdd
col43:   b54a8896949789c997989c9bcd9db99bba7cbeddcb9d8d9dbacbb8bbdcd8ebbeded8fdc9d4c9bddf
col44:   966c7887a68676869bbce89bbeb6ac9d8bbbf99cb9dc87abbbbf9bbebdbedcecfab9e9cfb8bfabb8
col45:   7687b93859977bb7769bd8bb5aabd8fc8b8adb7fdbbd9bbdccf9ddf9debbbbcebacbebcbfeb4cbc5
col46:   4985bb7b89998c5777859bb9c8899bdab8df6bdecbd87b9cdbbedbdddbcb8bbbbbcd9cbafbbf8cbb
col47:   7459cbb97485888a986865d877db9cbb9b8bbe6bb9bcbbdbefcbdefc5ae97bb9fd8fedcdc39bdcdb
col48:   bb98999887789b9c57bb8eb77b58cb79b9cabbbbc798fedcd97dccddfdcf9cddb8c89cda8bfecebb
col49:   b58cc9648b687b85694bb96bbb9bb8bbca7fecfbdbbfbbeec7fcd98bfbc8bbdb9bafcabd6f9ccdfe
col50:   7b9cb9b984886bcb848b7bb8878b89cbb8bbabb8bc9dbbabbb9c6989b8bacf96b8897add8bcbe9bc
col51:   bbb7b766b54568b77b44787b9cc5b5cdcbb97dddc9dbdebdbbdb8b9b7cbdf9bebdefbccbb8f8ddbb
ROC:	 BPix_BmO_SEC4_LYR1_LDR3F_MOD3_ROC13
col00:   7b475585764362734b78427bbb9bbbf789b68b69799bb8799bb8c98abdb99b8d49c99e9e96949767
col01:   4636a7a7885878b6b95686bcab9c6acb9cbcdae888edaba73becadd8bed9ddabd97dfad79bcaccbe
col02:   64675678489556387988996a95ad8bbd9b48a99979cebfcababd9caaacfcc94ae9bc9bbb8966ebb6
col03:   2775776976997897768aa7bbaeba9b78bad998da8acd9a98ebbddba8bdce69ca6dbdbcabba8b979c
col04:   3a87b98888947a78d669c97cab89b8a9b9dcbd9cc78f8b8bb8ab6bbbcac8a99cb9c9988babb8bcb5
col05:   7357a8b776a68974a7989c9cbcaaba9f99abfc999b86aeccbbdbfef98cbaa79fdbbdceecbc98aaa8
col06:   888878a9a8cb865859793558ab78b9aaa8a8a9b9b887dcabbbaccabbbc99c9868aabbbab9aa8abb8
col07:   b475888996d97ccb6ba9aaa8bd8bbd66ebccc8cbcdd9a6fcbbeeecbdc8db9bcee9fda9c9bacdf7a9
col08:   87965886757979c6996bdc77668669d9987bc98c9cab78aadaceaabbaa998ca89aadbbcbcba8b89c
col09:   7787785a68482ca9caba6b77afa8b96a48a9ab89fbb9b89ee9a5beacaaba9588cbbb97bda8aabc8b
col10:   88557a66668968998c67989da8ba98c4acaa979a99bbd79ac6cdbbbdbaadaa6b9b89c998acb88a6c
col11:   39476938586777b77bb6da977a89a79a98adb8cbcaa96c7ba9bbcca9ebebac9a9a79cc768caa7987
col12:   5486675867879686d69a7b7a9cbb8ba88a79a897daabb6a7a9acc9b9afeaab9dbb9a77c88bacb59b
col13:   95674a8574a87977bb5a6b98699797c9bcbd79cbcba7abcb9abac88bbb99978ccab563b9aba828bb
col14:   4546375566487685774974a8c6d769c499978a6c9ccb68b86a6889aa8b8bb889eabc579c9ca85d69
col15:   73468551748768878b95889abb8b8aa899cda97adbb89b999abaf898a98abab9cca899a9aa6aa9b7
col16:   8756172488766b84877658cab7bb79ca8c799dadc98c999ab87b9b8bd86b768898999998b769cb89
col17:   65466486975688ad7787bc9bb57c599c8acacc99abcc97c8c86b9bbcb89dbecba5a6979b7ca98894
col18:   5148464a1846679696676477899ba876496776a9899bb9b98a876c8b995ba759739c9acc66b7856b
col19:   77455475897ab699a899776598a7c699cc69878b8cacba9bc899bbdca8c987a9ab978a86aa99bc68
col20:   4644594569576996c3b75b9578899caa8a97a9bab9cdbdd99ab9cabbd9beb9aaa9b68bacc89b879c
col21:   614343974385aaa9ab966a89a99a9ba889ba8989abac9bba98bb9a7ca88ab7dbda9c8a17ca8b869b
col22:   9546774777cb975986a6596b8899b779a959a97bab7d9bbb77c99cab9bbb9bd9db8999cc797cb886
col23:   3666654888748a9b7796764889b6a77898999997aacaa94ab79eccabcbf79bacb7b7ba9d757d99b6
col24:   423682372a49b67a9adb87a67a7958774549655987fbb7b8a99cb8baa868acca897898799e688a9a
col25:   5767b867888864898697495697998867aac58bb797ba8b9cb98bbbdaa9c6e99cbd8c88b6ac69c869
col26:   434734785b98668b887a689669a867c7697ac968ab7a78e997c9bb8f7debabaac9cdba8e6a87ba59
col27:   9586769628c769978a8767979b97789784a9a98987b8a8aba9edbbaeb88aa98cb9caccab8b9ad89b
col28:   67aa9599769a7c88c77a878c8c999976667a75c6a99ac7b8a99a9bbcbbc97bdbb89bfc6b8a989cbc
col29:   a68b79798c59ca86a67a8866a78879788b989a4aaa7caa97c5bdcaacd8a8b98ab7afcbc7b8baeaad
col30:   588999687559ada8aa4969c9268b95976476baa9966cb7c5b8eb98aa8798b966a89bc89897a77a38
col31:   85535869798c7d887c76ab898999aa8a9a8c898ab9c98ccac98b8c8c7ca79abcab89a9ac88cb88bd
col32:   85677a8788478ba85588b997789a7ba4877897b7868588978bb9aea9b99c8badca8c9bacb9acf849
col33:   86565885597958557686977a9ab9a9949d7a87987a6bb9878bbd3baa98aa68abbcc9a99afed9bdab
col34:   8873447568565cb798a8698aaac7e9b69c677b58bc8a967bc699cbd989998aafdadb76dbaaeaa98b
col35:   79776879977a6784788b86b749c6889879dba84d56879caabb9acdfcabb9499ab9d9bcdcbbbacbb7
col36:   5677278875b7b928a87a8777986b57a8c799795a6c6977bbecf8cacaacb87889aaabb8a7ddccc98a
col37:   5886678266734598a6988868459986b8a889996998699b9f9cebbbbbfb9969a759b9bbbdccbcf8ba
col38:   958751676b56585969b658387697665968a7689778f97aa9d9bcb7ca8cb8ab7969a8b8ec7fdda4bb
col39:   8765698859a786a5a72a7a9978765a96b9788a9baab8b6cad6abaa89ababa7975ba9cc6fb9bad9ab
col40:   4765a898597b9b89875778497a7c9b686397889cb7cbbb98bcbd9aabda9bdbb78b9b8bbcb7dc8ba6
col41:   67897778a45aa58a898bb86a7588b899778ebcc8a99aa8acbcdbbbaedb6b5a7c67ebf9d9cade9cbe
col42:   466757a96486c64a99777889588b79ca979ca9bc679b7ca8cbeca997a59b9a99a9caa8d9bcbb8e9a
col43:   a86a8a4764b76969b7a76a888cba687bbbcd87a89bb8a8cb8787fa9dc896dad9b7db8ad9d999c77b
col44:   9ba7585899767888597175a875a4a98797d97b86c88dab9ad8aa967bc6b8bcaca9bcbadcdabc8966
col45:   449866889ab7ca78b798638c68b7798c9bd9989999bbd7a9d9b98ad9a7ab8aacb7bae989b9ea6598
col46:   699597768979a649a8cc488bb868768aeb68ba9d6d9cb989cbab899ad8a9a948ae838bccca8cbba5
col47:   445658785997b9bc8899657959776775978c486a89beeda8baa98b97caa897877b867bb8abccaabe
col48:   453476485799668545ba866aab678b287a9bba67aa89677b6bba88eaa886a8c86a98886697b99377
col49:   3475694898aa97778989888a8a5794886a986a795bc8bdc69c899bcabaad86b9a8aac996dd8dcba8
col50:   63584549766b6437777848c47786a789ad676b9979ad6a9a8bad9a79c9ab6a88ca9878a577ac7e75
col51:   442444856566a9174b765467769558c8996ab536b966a5497788b9ad565c7b89b6b68aa8a8688785
ROC:	 BPix_BmO_SEC4_LYR1_LDR3F_MOD3_ROC14
col00:   7758a538655a86695869966b867ede6674a9da9c8859a9877cb68a8799e6876ab985b8bab886aaa7
col01:   47624b68793797a5589e93acad5da7ca966a799789cb6dc8bcba97889e6ad8a7dcef97cebbaa7d8c
col02:   268991377787898a6878d8e7598c97ad977cba79bc879ba8c9e89e9a9ea6b9a9a8577ab778888687
col03:   ba66789cb87853dc97bcabc4a8c969ca79b8abb6dbfadcbaabf899bc77b79bfcc899cab7b8979c8d
col04:   77b998a657789bc86a7c1978c9d68b776abad9d99eebe97cba37b9faa5c69bac4a6a887b8aa88a8b
col05:   88aa9c64667c8596a848b6d8adab99757c9b58cacd7899c6dfcbb6bbea7b77d7b79e7ef9ab6c9479
col06:   7a987a766a6a8988b9c36a9add9d76e98b989b89c5f8db9aafadbb9acdba9a99fb9baac9bb67aad6
col07:   a7c5d9959a9a2d8887d95ab2bbc7dbacc9ecc9ae96a989d7e96c89a8aca9728bcbbd9a8f948c5997
col08:   8a67668779cb7655717a96799b86bddb867ba79e98c8b77d9bb9bb8ebaabcc7889c9b383b5886a7a
col09:   96897ab93b5966bc7a6667a7896ccbc5dbbb8aaacd9bbbecba5c8a8bd8caab8b98896b95c868d899
col10:   87386967888c8bd7b7bab788bad9abacbaac9ce5c6cba7bdf94aebaaaabd79a89d9bb7b677fc9dda
col11:   6789a7dbaabad66b8c89a8ad6c98b9a4c8cb6bbbc96ad999d69ccca6bdbdada98eca7a9a5ab769a7
col12:   877b348588469867b7dc69b769a8899857aebaa9a9a7bbc6a89cb7ace8b7c899b856975486b8a674
col13:   758b6898258e6487668c8a6c4b6cd58696db97b996cca8faceb9baa7bbdbbdaca9d6d9ba87787b85
col14:   b8688c7aa6b977689d39c98b69a8696ca679bbffabfa5b99bc98b5fc88eaaa86ababce49e6b68ada
col15:   84d765ad67987364a9677596664b998a687b967cbedcb99bccab9fb8efa87b6cc88ccb7855aaa774
col16:   37d8a556798a997a9aa7b9ba487caaaaa896c8b98cafa9ef8b6c88baccbccbeb96ab8caaad8a7a95
col17:   7888a78176885674bf96877d7aca859d8b5ad7a99b8fbda7c98f9a7b4b9adbb9af6cc8c8b87b7779
col18:   487a96972627643fb8859b8d55bdc8762acc9ab879c9ade86ddcc7bb8ccb8daf4bdaea7a6bbca7eb
col19:   3a59586477aab767a988aabbadadabaa997af96a9f867aa9aaddb7adba6cedba9a8bfcce4e8ba7d8
col20:   7636a54a75a558d98b48e779b8867a88d58979cd8aa8a98cbae7967cccaabdc976dc99b8b9b899ba
col21:   8749ba565aa45b67979ac989c8ce97bcbbb8ada9497efbacca6a78856ea574cfbbbba845589bca37
col22:   88972798aa746aa8887bb8d98dc7a4a9d89c8a9acdeb9be6cb9dac8ce9d9c89f78eb7b8b96c7a894
col23:   57a7885988192b59b865b7abaa4979a9c9d48ad7b387dacc7ec99f78abbabcdc96baceb796da8998
col24:   57685987797589a5397d6adbb9c8e8ac77759a786cba64d6abdff7ad987deb5aacbca98db9dcddcb
col25:   78958892a879688a9d857e959c79b9b7ac678b878afbc8daf978cea8bccc8fb8a8ab98cbba8a77b5
col26:   65ab667ce96c7a8738477bab97a9cd95a8a6c989cabaebcda7b7ace79bec8cecea9e8cd7bd77999b
col27:   945857b96a7b6869999b677dd9b8a76a7bcdcb9bfa9dbc7bfbb9c8dbcfcae9bdb98b96b99c69ad89
col28:   8a89ba669ab27657bac9d8acc7eceb95ba9bacafc9d97fca98dabbbadccb8af8de9dcddcb8976c9b
col29:   6b8b54766ab868c7b9aa6d6abca9aa8ccbdbdc96ec7a8dcefaacb6acbafdcb6cf96fdaf9b59daa99
col30:   9b8aa95b79997a79c98b99daabd6d7acbbcbe7ffaddcc78ddbaccb9eab79caebb8ddda89dca7baa6
col31:   6b9587964776766777ab69aebdbfcb9d86f87cacbf797c87b97bdb9c6acbfbeaedd8a8dbbababaa8
col32:   9996657ebba8896a6767c7dc9fbaebcbdebeb89a9ded8a7f9dcaebbafbbb7bbbfd9acab79bc99a85
col33:   8abba9aa99a96b8a69b998d7bbbcccdc49aabadeacaf6bf8eccbbfbcf8c87cabccbbbcfbd9abd9e9
col34:   878b8ac84aadb9aa686af7aacad9e8a5dde9567ddafacedcddabdcdfafc9cddbb8886d9dcc9a7596
col35:   7c95a9a7657cadbc7ccbacbbdaab8ca8a95d8cef7da89bfc99739cf9dd97caeeb8caaeb5b8ecadd8
col36:   7c97b849c7a8687aad6a9b8aaaca9deb8eb7efafef9eaccac978bdedaab68aafdae9d49bf87d8ac8
col37:   876acbd998797b8a8b9d8acbcabcc9abddce8eccdd7a979becda9d97caa7cb8cacdcfdaad8cd9ced
col38:   7aa7a8c69c38a6b8c7acc97d7a789ba99bc9beddcc9eacada7eacccb9cddad9a77adbdcaca798cca
col39:   7a986cdc89bcf77c9ca779d9e78b859acba8cbe97acad9aac8bdbdbceeeb9dbbdcdad7ba9fa87fb6
col40:   665bbfa9ab9f9ca8d9ab6db58ab78abadabcccbccaaefbcd8eeadd9c8d96ad7898ddb9aba66f97fc
col41:   a8f877686788877a8fdacbdecdbcb9aab7bd8e9bd8edddaabecef77defdacaad96addbadd9c9b9ab
col42:   b8a898b8d9a69aac87babcfd9ebe99c8badb9bacfebcedcdefddfbbdccff8d8eba69cfffcafae7cd
col43:   997baaa49b7b7a7b76bdbbb9aacaadbebbbadaf7cafb98bbdcad9fddcee8cbdde9aca5cd8dcca88c
col44:   68be7658ad397859883b87bcc6bfabbbcace99fbfe7bea7bfdbdbd9ecc9ca875cacfc8a89dba888e
col45:   589594baa8bb7978a798ccacbababfbbab888bcedbc8daccfecddddeda8c7eab8ecf8aaa7c9cfbaa
col46:   ae9587a7b57699acbbbbb9daba6b7d9bae8cd9eb9dbca8badaffd9f96b6cedcdbcf9a68cd9e86889
col47:   aa6a97b86a789dcab86cbbca8a9e6a677ba9fe9aaedacdddccd8f6fdcfd7bbeabbcdebd8caeadbaa
col48:   a9878d79877989497aafdc899a8b9f9c7ba6c8bbfcfcddedefecdbcdbcbadac9fbbb94ebc9a799c9
col49:   7aa8c7b9bbb998a6aa49babba9a68c9ccad9cadaccdfefddbcdefcde79bbed6f8edabffabbeadbba
col50:   bbcc99aa877cab3c7a9a59787696889b9b8dc9a9afebadb77dacfbbcacc999b9d7afa9b68a886abb
col51:   78c767a956a78aa3cb8c7b89898a4b688c9ab9bdcac8ceeadeedbbaadcd9b89aba7bbbaebc4bc487
ROC:	 BPix_BmO_SEC4_LYR1_LDR3F_MOD3_ROC15
col00:   943975764b87383979781667a6959c57d26aab6bba9773db9d8cbb9555ba9998a45ca7aa97785991
col01:   5815a9667a6887599897b766bbba7aad787db8dd9eacbb78c79bbaba69a8fbb7a8c6894934b98997
col02:   767955a6784888767a93a4c7ac8976a699a7a6c9ccaba6ba78a5fa8d989b6689a788b89879597737
col03:   8779746a794347886b767c693a95bbb8b6caa8b77b9a9b9958bac967badbbbf8aaf765cc4ab8ba78
col04:   b83a87a998c89457aa5b99ab99768aaaca997ae79b887775769e5a9bce8d188aa9c896a8bddc7787
col05:   68855935a9aaa97b6b67ad68fb9b97bebc98ada97cca6b95ab969c6cbc8c798aafbc7c998ac7d7b8
col06:   453a838787a5939792b4ca8889c9b8bd8979686ac689977989aab8a9c79a988ab9caca98697d88b4
col07:   55856b9a585a6b59c9aa98d896a8799ccb9b99e6bcd77bbb5dbfc89bbab9dc89aca969af6ad9bda6
col08:   aba6474ab877a858aba9989a98a8b88b7859b8ea866a99ab8babbcb4a59acf69998cfdab9fe876a8
col09:   4636736567897768a8bc8a89a9cb677b84bc8babaa69c9b97a98ae6a98c699a9cd79987986b95ba8
col10:   9b696956ad78d758a7858a67a6a8ca4aca4754c8d87bc9cb87bdda8a996c6b7aa99b6baa8897a798
col11:   852744868a68562769a68b99a9d6a89a9adabaaacab99659c7f7f9bae9eb6196c498749889be6569
col12:   683885465968a64a857a56976bdb998cccb8889aa869a79c9db999a6aa97768d94b7958aa6658756
col13:   66645576324868787b8667bcda98ca9d57b887b7548ab99ac9aaa599c797bccab9bd6a83db539678
col14:   aa64899b51798a8997777b89a87a7b989858a74a86b7cb6cc8a8b9ba498a7676b596a87b778775b8
col15:   61565973aa7857a7997ab7eb599ec88a74d5ad7ab8aa7b89c7aa7869b688b898a6dba6b773755376
col16:   7475646445b96a78799ac4799a89697c7b9ccbdabca8595c9b8baabd868a8596988535b5da854a26
col17:   9643c68796484769aa7a588bc886aaba9a79babadcb94c999a58769d57847c959a9b7a9a9944a987
col18:   64591787614697b4b65f996bb9a6a9d96a7da8c8ccc989d9899ab99a77c6a89578868885666a9752
col19:   5665519c588958b7688798879c7aaebab9a8ae9c89f86b9ac99bb6c7edb97ad6a686878784888899
col20:   3577a65b46735cbb76947677b4a89b98c8bab89cb9a9d7dcbdaa777aaa9a8be79558d778c6c97926
col21:   97785579774bab797a9836aba987878d9a9a9cadbb96a7e6893b9787eb1ab999a69b968888758a87
col22:   6676359858a9997a835a689a8ada694996bb7b6cfec9efbf88b9daa988b7a86d979866779a9ba989
col23:   39979825e73855585cb9a6789a78a9689dd9ac8969973997699c985576b87886fda5db98a3a96768
col24:   958577587b67979ba9b89449a767a94bb37cc6d779bbc83fd7fcdf9b98c8958c76bbb79a588858a5
col25:   856869797875a8577679966a9ac597bbca99d7a85bccdd5c9b9ba6b96d9cbafdceb399a7a7cb8584
col26:   9a8942698997c99979e759876b5886889bb6a9c6a997bbbb6c67e997cbda889a88bc989ab7778863
col27:   899398a79a7b7879a98987aa98868acd878d9c7647bb877b89bccaa989dc886ac978a9e889be6898
col28:   996c8668a889a93bdabc2784aa86b8bbc5db8a9ccdc7787ac69dcf8fa9d99abaedabcca6b85a9887
col29:   a7a77bb968a9d6e59c789c6796aa9a7c8e89a99adb9b9ddc78dacbca899b78997b7bb889b75bd99e
col30:   843b85a99a9aaa4cae5759ca9a7db67b7476866a97878b98679abab98c9b959c88cabadb7a66e798
col31:   679a58cb7857a5bc88ab969bbb8d8ccbb9a8aaaa9bf9c7d6cbb9bd7b9b8afe9d9abcbcccaabbb6d5
col32:   74897899868dab69966c87cb898aaa6abade87699668586a895897aedda9a69dacbcc9947966dd85
col33:   5b89b63796b9c496ba8a7d78b899a85719989799bbaa6a9789b68aaa9b9dcad9cbe7d6cba89bbeb9
col34:   aa8388a78689a7bbabba689a7c6aaa88ac9dacbeab8cd6986a8fd7bf8dbb9e6dd7c7687897f9abe7
col35:   ab89c788a6898786bdb86afda757a7adb8e8a88998ac85db9c8ccdded3aa6685cd8a8cedbcc9bd49
col36:   9a89e8a99a77b7a89788887cab6a75bc78ebbcb9a7c99bbdcda9abaacc87aa67e8aaada9adbd9eb4
col37:   8ab6c98886984cc77a88cbba969d99889acb6b959cde79cfdcddddb9db8d9a668bd5bd9bcabaab6c
col38:   979888b7877899d79bad8e988b6fcd9ab8a86a967bdddc87dd9bfabaa9ba8bce9daaa798b9bdcea9
col39:   97ad58cb7a7e7ca93977a7ab7869ba8accb9a8bbdd7af9ebdddffbcbfe7c9977689c997cb7e8b889
col40:   9a7877d66b98da989c858697a969a86b9bceb6c898f98b9babeef98db95c7d9ba9cbacabcf9fb8db
col41:   88b79beaabacca7bca5b3adaa867c99b7c8dec86937a75bb8eced99fddaaacbcc7b8faa9bd989a8a
col42:   797878b9577bca9b7da8b87a679bbddbb678cd7e97d99afcbbf9d9cbcbe95e495b9c8acbb98bcd88
col43:   b9a7ba8b8a998a986bc9b99d9787bc9aacaabbcfa4ebb7cabbdcabdab89cbc98d6b9aefcbbcba7ba
col44:   9c5bd9a99aa6b6c5f6859ca49c86bcebad58becea8bdca7dcb8abbf8ddeadcaa9abbc7ca89b8b9ca
col45:   397799ac99cba799aa87b77a7ad7a7a998b969ccbaabb5acfbac7ac9abc9746bbccc96b9eb669ba9
col46:   8bcdacaa78a9faac3acb6cdd7dd9d9a7f9fcbbcabbccbeb9eccbdfdbb7cb9c5a9dabbaad5d8cc6ee
col47:   7e4a9a96b5796c9acbafa94fb96dc97ac8abb9a8ccac9b7cb8699f8cfac9abb8a8a98965cccf9969
col48:   9458599cdb7d958abcafbbaa6896ab5689ccbac4aed7fe7c5ae66f9afbf99b89b8ca796a6ee98968
col49:   4b834b9ba8b587a8ace6ebaa97c99a9a8aacbb77bcf7cbdbddbcfaff979a9da7bfb78aa97dbbb888
col50:   aa97686b9aba9c7b9d9ba8a8aa93988c6bad99c8abf69baec88cdcadd8a8e9e7b9a6b9a999c8b6f6
col51:   657393b446799868659a7786559a7c887bd9a99acc59aa87aabdeb77d89bc8cb8c9c458c9976dba6
