ROC:	 BPix_BpO_SEC1_LYR4_LDR1F_MOD4_ROC0
col00:   d87853bac9b7668b75999c98778c997b8775aab7bb69a68876a4a89a7b989a69a936866935496528
col01:   749799995b999aba88bb88ab89fe79bbdbc8bbd7b8b9eac9687b95a99da7b97c855a347b69898b96
col02:   7c9658cb679d6c8ae9a6a7eb86d97b6cc77a5c9b7b97b9aaaa6cf7b6babb9b7ab5b9896a4b879797
col03:   8799a99dc8b638d79a78cca693b7aab9d7dfdce9aaa5d9bb6a88a8977d6a6c996b9987887784a987
col04:   44896bb88b89979a9ab9c8cd9ae9ac6bbacbaaa897aab26a9bb86cc7b9a849886a59a75678949a99
col05:   c86b5c7b6974aa9b7bbb8a7cdb9adbabeac95a7bb48a989b77b76789b8ba79984b4a49a776dd87a2
col06:   76b9adb97bcc9c9d2988a5a99c9fa898985af9ab9897c9da698c6dacbc97b97b8ab67798a6c88396
col07:   99956acc9b69887a9baab9bbccba6ddbb7ca9bd8c789cfbad99ba8eb96b6cbd78798d937667b6988
col08:   47a8b6a9a7765889aa889676aab957aacccbac7c99dc769b88a8d98ad7a97999a76a78966b66667e
col09:   589da3e5c88abeba7e68ccab847a99bbebb66c89eb9db8aad6bc9aaf9dbcabbf7777d8a6786bbc75
col10:   ae8979ccda699a88bb867ab7c88adaacacd8c7cc7ba896aa88aa58abb7b7a89b8c5587766858a898
col11:   24988b6cc88bb8ca949abb8ca9ca9aa9889a98c97bb8aa8799ba7aeab9f77b66aad78a5959658666
col12:   7a86bb889c79a3a79a95ac8bb7e8baa998ab5c588a8aa9cabab86a9a67bb86e5a8a6a496b867ba66
col13:   86b79a4658d96b9b989778a4aa97877eb9cbc9d78ba7ecbbcaaba9ecba6cc895c8c7888da9a86995
col14:   8a739b48a689587c5ab9897bada989a8abaadb7999c9c89c7a76b6c889a95bb855688937a4b77564
col15:   aaaa56b5965a5b8badc87a8b8adc9eaba8bf8aa5aca994a99ac8ba9adbaaa58989c67878a77677c4
col16:   9a8a86a559c56789588ab7cababb89cc8beb9c976babac8ba997a8bab67c9e39975d4975d7858876
col17:   a7c867797c77b9a6898bab6989b7a999abb9f7796477879aa6a788b86e8bab6bbbc887979a64656c
col18:   4a858aa688a4a3799878e897b8becda9e9eaa89986789bb9a8496abb89cb589ea9b87967d8995464
col19:   7567a7789aaca9959a749b8edac49cdaac6ba9b898b9d8aa7b99a6798a79e9b77e7a9bb849857476
col20:   646775c897886d698a678ca9a899c86c7c77da8caacc7bbab6997b876778ab9a798ac6a9a5b97613
col21:   6767686da4cb9b7a789a999db766979cbabbbac9bcbb9799cacb8b95abac784b8b89387747a97895
col22:   8b75a9b7a56988acbaaf7a6cda9a98bbb8bbb7a88aa9bacb89a89db865b2b7b78ac8615c7478a779
col23:   7286587866a77856988a9dd7aa76cae8cab6bc8aa865779aba7dccb79ca88a69b668947865788498
col24:   96a38a79a99cbf58997996b4b7b5bdaa4a9779888989a7a89da77ad98cc898b686b9c58849794679
col25:   74767879996a67dbbaca689c7d7a98aa98ead9c8bc97a99cbaa79797cab79a87a96996b78a8967a5
col26:   8e99977e9bda667adbaa988a5d99a8bbad9ded8cbcceafaedc7a6b7e8c9b678d6cd3c89696988aba
col27:   b99b78bab7bbaae8ba9bebc79ccda9cadc9b6acedaddcb8babb6789b8bbbce9fc89c7cac873bbd88
col28:   bac8679acc7ab9acd9eeacbac9d9bb9c979abdcbbe8ac9cbadbaccedbc8b7daa9a9ba87ba899db9c
col29:   bb8cad7989996478acbaacc78a9abde8ca8ebacbac9dddc9aea7c87aca97bcbcdb8a9bbadc899698
col30:   839766888a9a8c998beb6c4acaa98dcaabb9dcebf9eaba7ce9abbd8b78c979de7a8bcbaca7adcaab
col31:   a789aa9aaababacbfacc9eabdebc8beabcaddbabcbccb9fcbccded9ca867a8cacc9cda48b8b98975
col32:   c6b876dbd9999b699baf7aab999a7cca999ac9b9bccbbacbcc9add99cbbb99cc6a8adbbb99aa7b68
col33:   978966dddbabc99a9eaaaba6bccdcfcb9cbcdd9e7ac9dbaccfcc99af9c7dbbc9aaccf7baa686d9c6
col34:   7c9ada6bbba9c9bbb9afa85a75c9abcf9bbecdbacaccf8bfabe9aaef8a88d87ebf7c89aa89c58cb6
col35:   b979ccaa67c897ba8becedcaccafcc7ebbe68f6ea9c7bfb8bcae6cc6abbc8b7bac8a6aba8cc5bb59
col36:   57a959cc99998bb9abbd9abbaeeccbbedda89ccab9cc9f7c8ed89aabcdbb8accabadab6aa7abc77a
col37:   f69bbcaadaad989bdccadabdfedc9bee9eeceddd8ddcfab8dbddcdb9bcbbc7bcdddccdbc7bab89a9
col38:   6998b578aa8bdbfffe499f9acaff9debcffcfbbbfbd8cddada8bdddacfbbbba9bb794dabda9cdb9b
col39:   c7bbb6dadac6ca9d9aaddb9c8bfbcddeeb99dcadb8acca9b7fdfcadddee97b9a96cbaa9aeab9aaa9
col40:   a8ac89ab9767a9ebab997fcccdeccbdeabbacfdeb8c89dccdefcfcdcddebc7e8baa7aba7cc89aa67
col41:   e97b8ab78a5baa778daacaabb76bc9bbc857cc89bbcbbccedacaec7cfeaeb8b9b7a9b97aacc69ba9
col42:   c989cc988c8a9e9c97cbb9beb9bb8ec9beabcc9baaebefbc99afbde9b9ccca9dbc5a9c9a38cadfb9
col43:   aa7bf8c8c599aadabbc98eccecf6bd97bcae8aeeaaa8eaccdccbbdbccaccf8ccccd59aaba5e78c97
col44:   bbb5b9d8cb887bccc6bb8c8cd99b797bbbd9aacfd9ddededed99ada89edf9bbdac7c9c99daaa5a8b
col45:   8a68d9ba7aabc7b789ebb9d7eaeaebdacbbad89ececdcfb99ccadbac9bcacbec8ac7badac99d9b79
col46:   99b8aa8d6679eb8dadb77ccc7eadee7aabafebadcacdddadbdcbcfceca87eddaad8c99caba9c78e9
col47:   b9c6986888aa8daaaabacbfc8abdbbab8adbcdead89edd9bc89a8c9dba8dceacd9b8aa6bcdacb98e
col48:   a6a66d57b8cba98b9babceccdfbe7bedca8c8bc9c9a98cadf99eeacbbadaebcadc9cadcb8da8a8ba
col49:   b85cb6a9aaabb89cbebab7da9bfacafddacaedfddeebedfb8ddddddcda8cdcabdabfcebc89acbbbb
col50:   9d7ac7b789abca9e7b9cca9ceccedbbba6ba9abeca8eaeffaaacbbcecc8fca9c5faa9b769b88eaec
col51:   9777797885aaa9989a7b979c897da9ba9ba8cbd8ca9ac88bdab9c9ac89b67a56d7977b8897689688
ROC:	 BPix_BpO_SEC1_LYR4_LDR1F_MOD4_ROC1
col00:   7458964778a5c6a788c5746a8559a4b6a937b778ca555898a5a8b1767999746892788687c5858481
col01:   788779ba87955a599787abab5abcd774688ffc6e898aacb6c7bac9aaa78a6777aa95839669c77686
col02:   99cab968a5675a68bc89aa8596b8b8bb6ba7b78bfb9cc999799b7986d9a798b89c5a9ad768d38767
col03:   848899868a868cd7a96578a99b4a879a7ac898db88cdba6b87c7ec8bac76c766957b69a776853b84
col04:   9a649b788d656788c96ac7b999b9baab8b89a8b7cacdda6cc89bad45a85b76a867a9b7867958b561
col05:   4778967a9b8457986a8b7aa79848c97c77899788aa85988c859a9a79a59a65467c64b67358838754
col06:   b97bb8b66987aa9c9b66857b9b7ba8b8aa68bdfcbaa6ab79a69b7aac88a55773765bc78796598553
col07:   c6899886aa93a639bc6698a7696aca878caadcaa9dadfa8c83484a8fa98c8568af998caa77578979
col08:   5696a589a98b673887d6ea78b6bd9ccbbafc66c7aa89ecc8c6bba5da9aa5a98b5a96954ba866dab3
col09:   457774a679936675b55c8a466499a9a8689ba8b5c9888c66ba35b947c377d69979a6966944a83654
col10:   56a4b7a7b88997798a8d58abaaaa8aa4bcd555b8a8c98b83b87ad879d75ab7ca6d6ab6b768987968
col11:   79697b6b6b979dbc9875ac8996aa6a79897768889c5aaa77a94799bdb899c8678967557287c68696
col12:   b95b797f5975b7bb798ea8ca76a7ab987aa7f96b67ad87a894bb9b6a8c49ab76868494c88a657a79
col13:   67596779928a6b5897cc9ac99d9b9aa77c7fd7967b9c4b97887a696bba69a48b7a654a477c794652
col14:   7663a58b9a6c976a99b8799359db878a9aa997abb9da889767aa8daa7cdb7ca9aa42878597968891
col15:   6967263957759557877b99caabb98987cacb899b98796a86a6b869c677a8665b78aa6764684257c8
col16:   2559678696785779bb9587ccbba97caaa1acbab59ebdc99b9866698ebc7b9998b66574a68a7695aa
col17:   66677551b8b8968a696897a679899da8bba88577ab688ca8c86c97478b66998ab597c55c77787994
col18:   a7688946a89a77a8798b9bb29bbd9c975a8d9646987b68679985b5b4bbb5c7383ba544c768677553
col19:   8858a77b5879ab9b955c9aa7a9b78985a9a5a698966acccb787abaaa5b9878685a3875b789988678
col20:   45a68849b86bcaa367a9763a956d8d8c8a88b65a89a88687a84887767da77e896467772936417444
col21:   973197685766e6daea578759876e89cbe687677899855a7ac6aa9859b66ab7c89469449657a82878
col22:   a8776a65da8953a6745da8689a9c77aa6896c5d88b5c87a86869a865add877986b77a3879798767a
col23:   23858477889b676a8995b5979957985baa5a9b9a6ab76aa7a97996978667aa775876774873856778
col24:   8655967668748888f6aa798a855b95999988cd9b7ba78668859999c58a6c589a84a775d646657892
col25:   969a89a8b7c5aa76957dc7dc987caaa859db9b986cd999589775c9556958a8b993caa5929669c8a7
col26:   798bbb768996c8bac9bbfab988b9b88bc9bbac7ccabe8a6c99a89aa687c767f899a9b78b87b68a68
col27:   96896969ba89aaa6995598bb7aadab69b9baacaaa7c49e9c597a96957b988a78798ab69759a637a9
col28:   99878bd68778cb97b8b7a8e9d99b89ace6c6a9bb7b88b997b9cb7bb888c9da8758ba49a97625b986
col29:   8aa989b88abcb8c8c4d9ca799ca6ba99ce9aa99aaaab9e9897f8a877cb89c7acb68796b58b46c674
col30:   559899898cbcaa9a6bca79cd76b9a9ebc79898a8c8c5a8a8cafa998cdd7fadc87aa96a889749e888
col31:   b6875bf85b8cabbabca9bbd88b9b9da998b9c79a98ea978bcdc98baabcad8aa79b8e87b6a9aac896
col32:   8d9dc7bb77bcabbbcdeaea99ebba9cec999cfcbc9fba8acbcdcb88977be6ac8ab97958a8c859bb76
col33:   a888876dd5897edcda9a8698a8c9dbccd9a8da8ccae9cef4959abb98adb9cc79a7bbabb8854c89c6
col34:   db978a9a8cc8fbb8e8c899bd9acdaa9dae7ad6c9a7b8ccb9aaa9f9ae99da9ab5988aa9b6d8ba86a5
col35:   a9a9b69db87cb8aaaabbbd85a9ab6bdaadbda98ea98a9f9aa8aad9cca6ba56a897cbca9a8baaa774
col36:   7a8bdba8d96ab96cd8daabb9cbdaaac9e5d59997aa87c8bbadc7a8c59dc9ba976d6b99a8d8ac7a77
col37:   b569db99b5ea76bdabb69dc9dac8acaabec9ccbe9a9c9cbccdabbacea5d9ae6c8ac9b9bd98b9c9aa
col38:   967ac7acb9ac9cdeaacabca9cbacc9bb9eb9db9d9c9b8ad9d9ac9abe7ba9eaa6ac89c8a9a6bdbca9
col39:   a99689bd99a6c99d8d8bbbbbcbc6cac9c899aab8bcb8ddabb9999fd9eb6eaab9ca8879a6ca4d9599
col40:   c977daa8d89ba6aacab8fb689bbbac8eccc8abba9dabadea9a9ce76ccc8b998a895a9c8bddb8978c
col41:   9c7ac9976acb9aab9a9be7cd9be989bcfcb9cc98bfd9fdbdacc9caabcfccc89b8e777bcb8da99abc
col42:   96ccceb8dc9bbb4b8ca9d7dbb9ca8a9edcbd79dbbc99ad86fd8bcbabbda8cbb9996b99bb7b9dcb88
col43:   87bfcad8ab78cdfad8cadd8ca95bd8dbdbbb978b8abdaaaaabbcafeb99ecddcc9aaf9dcdbbbd79c5
col44:   9fb9c9fceb8add9babbbbd97bdcaddc7cf9caa89caba8cbddfcdc78bddad8b7d8eacdcd7b7c9dba9
col45:   8ac79bd8aa889bca9aa99ac97bbdca8aa8bdaaac8b9aab98bccd9bebbb7bc7abebcaac657a66857a
col46:   7c9584b5b9969bfba75b8fbfafb9d989bfaacaacaac98b989cd5fddeceeda7aacda9cac977959dc8
col47:   76c978ccb7bccbb9e57ba7fda8edabaa8aa6ddd99bffc9dfcdb9f8c98acdba68bcfa9b8cbb997a7b
col48:   ca8a999bcaa8cecacadccfcbab79cb69cdfbcd69a98999cebabbc775bba8bcaab69e588bc9b9bb9e
col49:   8cdb9ac65caa8a8b88b7daccdbda9bfc99dcdd87edacfaafb898ce97da79a9dcebc9caf99dab76e8
col50:   b5b9cab88bc979b9adabbafb9dbabbbbacacdbbcddecd9daedcccd87abbacaba9aaad8c7eabaa99b
col51:   669ec99b668b5a99a35bbb399dca97b6aba9bea798cc8ba96ca8998cb8adaac7d78977857a999996
ROC:	 BPix_BpO_SEC1_LYR4_LDR1F_MOD4_ROC2
col00:   878888669694aa66999968b989ab577a946a8887cb5a6da948a9d89dc97789856967589696786883
col01:   9997986967d8a59b79d8a8768fddb79eba7c8798647ac7969bccadda9c98aba9b775997688997bc9
col02:   7575b98a7b99c6648ad9aa8e98d788662988bcabaa8cb9a7d9b9a88a9a8a9d989bab68a928579777
col03:   5679b79766ccc78b99d7d4cce569db6bbbbe9d5c9a8aab7765d56dd6ad6a784e6b96cabcb9bd7998
col04:   6d887b69796946babc9658cbaab8c8ddb76878989b8b99ab8d988becb9b78a98a9a8c7b8887ab89a
col05:   9a6dbc989dad879a86cd79b7969faaeaa99cedcb8bb8b5e7aae87996ca89aa669558796c78b862ba
col06:   c65169a697979877ad6dddfc77b7dc9cccc7a6cbb978cbb98a97cb9aab47cb85d7588da89997aa69
col07:   b8759678eb8a878889f7b99a8a8acaba97cb8cb88995aa84bd778bbb7aaeb5b88878c77a9abcd684
col08:   8766c75788866677c667cdcb794963798aca97aab8988bcaccb99a8c8899a8ab8aaa8da7bdbd9a14
col09:   bb58798a99686a87e96b99a8bacd84f55bbc885c98cbab7b9dac87b779bebcbb999bcc84cac79bac
col10:   266a87eb969797bb5dba69bb69baa96ea8baecc8969ae999c7899aa89a78b9a89aa89dbb8daa9999
col11:   8874a8859a996c969b9b81699bfa9759b88bc8c9dda5a8978bbdb65889bcbcab4989aa879b44c555
col12:   987979573881a8aa79b889c89b9cbcd7ec8a8bdca99af6e5cea9d8a87a8989799796a988d475869a
col13:   7599977bab76967b66a866a87b97c8878684aab9cbbcc7abc787bcca4aa5a89bcac5a497b988a699
col14:   55356346b969863fb9ddb59bc67aca788b8bb6788b9aa88488988978ac78656b87999a988b9a85a2
col15:   799485b779898767e6687897a98a95a9a989aa78c66bbd7bc8d6b88bb96acd9886a79b889a6b9775
col16:   b698849779ea7d97898895ab9b9b98bbb9c99caabbadcb8887a7c7c779b79877e78a87c887788a98
col17:   93457589b794b97b67a9d7889d995679bacab68b7b96c9a96ac8c92a7b85968a858a8a184654878b
col18:   99875886855ab59757b6969786b9c97aa59ac99cbb7997bb968dbc877876878998686873c6997cc6
col19:   9665c743759897aa579585c7986cbb77675b49cba8dea8ba997d8c75dbaac998bb99899748859889
col20:   6599b9789c9277869a7a888ac79c998d8c89998aab6bb896889a79697a86997a6a7c959e6896cc67
col21:   a97476763aab6a7d6be4a89699b78765a978d79b9c9666aa99c875c88cab76a99ad979379bc986ab
col22:   a77b19c9786959b9949a33989a98b6ab8dbdc9c68abbcb98a99aa98999579c8ab74b67469ab86ca8
col23:   569778a38766879475bbc857479b45a7999d5aa8a5d9964687d9878a99a9ba95999a5a8c8ac9ca76
col24:   77548a4a6468ab37a9658897ba8a89886a5dba69b5c69d9a877a77aacc9798a98788e5c79b986b77
col25:   58699888b98696a486abbac68a9b85d657b8bbcaa6aa79cacbc99ed69a79abbcbca85b7ce68a98aa
col26:   b884acaa6b9ab6b9bd839b8a9b9caab8ab8a8accc7b7dbe98eabccaacb9ccd8cc7d9bbda8ebbbaba
col27:   9768c8aa99ab87b99a87d96a9b96beb8b679d699c9679d9c7aabb99caaaad9d99c98b9a9b86899aa
col28:   777a8d59aba8ad68cc8ce5acd9cadb8ca99cbd8b9c8fba6a7b8fdaecbecdbacedb767baadabc7ba7
col29:   8b9989ba8b97b78b88abaaacad5896adc6cbecabba87c78bcbbd9ceae9b8dc9ccd8bdaaaabbec7aa
col30:   56b987a59e9a7b4b9cc89abca7b8b9bbea7d7ca87894f88bcbccebacdaa78dca9eca9c7bbacb6b78
col31:   8b8bd968689878699b9dcc929ba9eb9cc6c7b89bfc8db9dacabe9fc9b9eed788bdcbdb89ace7a999
col32:   ab98c8b86b7accb9dea8ab9a7babba7dcc9a8aaabcabbbcd8b867899ff7cc9ba7c6758e9cb9cc7bb
col33:   b99aac9989dba997aabbbcda96c9da9dbbacaaaedcadfd9ddca9b9beb9a589c78a79ae89b967aab9
col34:   999cce97aa7b9ad99abcdcabdc9b7bbdbbfcecd8fa78db698dabdadcb8cb988cdac8dababa7ab9ab
col35:   897588ba9ac8baa7b7e99ac7ba8fb8b7ccdb898bca8b8b9c9abd8adedbb999aadacbb9a8bb6a9b9b
col36:   ac8a9da96ae6bb88a8ecdca7d57aaeceb8ce8cdbd8a8b757aaabba89ba6bbb98adfdbabdf888aeb4
col37:   d977d9aba9a6da7aacc69bcc9acfedca99ac8c999bba99dbdaaccecb998cac9bfd6a97a7cb9b9cbe
col38:   dacc9cb86b98bac96ceb959afbbebbb9a7baa9cbc8baadd7bdd99bcfba9da9d9cddb9bcaa7fb9c95
col39:   4f88aa779989ccbbaaaec9baeccad7a9bbed9bcbcdaebdb88fbb9b6997bc975d8bdccea9cc788b9d
col40:   9aec9bb9da8acabacfa8ab7bbbbbc9fc98aabe8aac7e9bafbec88eba979b99b8a7c8babce6679a5a
col41:   7cca99db966bdbaac7bcc77ada89a9dbeba8c889da9cc97bbdccb88acbaabc9ab96c9b89aa6aab88
col42:   977997acc8acb9c76d7bf9b7a7a8bcabbcabedbedacccdae7a9dadc6f787a7d898b9baa78a9d997b
col43:   cababa9adccaabf6b9aba8a98eb8cababeeab9df8aabccb9a8db9bfcdcbbacca9bbd9ac98dbc79c9
col44:   9c856aba89fcbcbfa9c9b7cc98bccacdcbbdcd8cdbcce7b9c8acaabc8a79c8a89cbaa765c89bbad6
col45:   778abbdaa6a89896caddba689cd9bbea79e6eb9bc8b997ddaf8badbcad9aca8dabe9badedb78eca8
col46:   7865699bc997da9b98b7c7ceaafb8cab96df8b8cecacabbdd8879a9d9a9f9dcbbebadba6ca9a9bba
col47:   c88abb5abca87db5bba8a998fbdd9abbaeccc9c999abdaedcabaabd7b7ea6979cda7b86bcda6caea
col48:   79aa595a9cc6a8aaa98cae97afacb7d7bcc979adae9bfbc9d788acabcc9889cbaabda9b76c6a99c6
col49:   aba8e9badcc7a9b8b8cb887c9caa7c98d899cdddacecfa9b99badd9f9d9c9bdc689c9aabb8caaaa6
col50:   6baaeaabb9bafd8babd9fcd7cbc6ebddddbcc8ddda7fdbeddcc8abcf9d9c9eb8c8cf9a94ba886688
col51:   87cac5986a988b569b967cdbc789b7ac8b98b896eab9c96dacb9826976889b87aba5958a8b974785
ROC:	 BPix_BpO_SEC1_LYR4_LDR1F_MOD4_ROC3
col00:   74bb278579829a89796a85c5b6bc7989a77898847bbb64899b78a654ac975442758899897478667a
col01:   b977adc9a669d97bc7a77ce6ba9879d7b7779487ae96dab9c9a9767aac999768aa99787777949949
col02:   9cba63ee7bc8aba6f469a4776788449b6ca9d8ab8376858879accb968bc95abbb985957a58b678b5
col03:   a76c6b5ba7996ba9588a78bba588dd58b59bb779a687f868a51d9c88275b4b98c77945aa99a7bc7a
col04:   89b9b998a99b9679bcaa7ac7aab9c988ca99bbbd98a9796bbd869ca8abda898da8ca99d9a9858b81
col05:   db389899b9889a55aa777fa8aca8ac6a99b9b979c958ca8a86943678b756c96a7a8377976ab99a47
col06:   777aca69ca6caf96abc897e8a886ab9adca9fa9b98d4c59bcbcdbccbb397c6659c9cbc3886967666
col07:   88be599baccec878cb87aa9779bda799fafacd9ac9badbb99ebab86b997ba78aacd7a96986c8a8c3
col08:   8aca7d65ab6c99a7b889aabaa8a89ac9aeac79888c8a8b8ccb8adcb776b7bb9d66b6abc9b859b465
col09:   6768c8687a696d9e98b679e9aba8b839abdb8ccc9b789a6678968c88ab8dc695686d7a874496a868
col10:   cd788aa998acf889ca98c67bfea986d98dbbcf79abcaaa79dc9ab97868b89854b8d2aab5a8da8ca9
col11:   8787a88a7ba5c7b597a9caad8d89e79b8dcaa95ab88a6969cbc86699aad99967c7a789a62b964a97
col12:   99b8aa7c9c86ba8968a77a7a7eb67a4bcde3797aaa7a96f895abacc48983a8b7b99aa985748756b6
col13:   95879b94c6b8cbaabb95cabcbb899dd679aa9ba6869b86a66aa9ab86759cc97ac6968b884768b675
col14:   686cb6b69aba87c9d97d9a89cac7a89a79cc8ad9c8abb7d98acbf8bb5599b9ac958f9d376a8686c7
col15:   949898aa6a57bd9d8b99c79a4679cab69bd7abaea7a9d8ab6b79d9b79999c89996ab82c6678894e5
col16:   768ab877fe7777b77c9bc896abacb8cb8c9a9588fa9d569999a8a5999a77a87389abb59557659967
col17:   97868949a38c877e98bbbaa958966cbaa7c9c7daa2bb9989677cb68b98d899a6999a99c95abb6ba3
col18:   54b669867a55988b997a8b87c9887a875baa8a6b7c978a99dc889a7997b6a7595bb888b589a98867
col19:   b9a6828bd6b7daa76ac7acdc88c6ebb89dbed996dc9a9a9b8abebbbb889797d58c9abaac8b98a69a
col20:   8696b8ab8abc99996b86abb36dc8968968a9ca68bc7b874f4837a9bc85b968dba995a79769967585
col21:   b499982995a848baa8b9bddabbeab88ed9b994aba99ca9ab5aa6dababb6d7bb79a7676d6a8995871
col22:   98958881a95a9879878b5bcc7a878a6ab999b77978c96996de9bab998978897ba77a8c9987889ab6
col23:   47794acb668aa9768ca99e98a88ac568789a749799a8abadb989ca8997ac4a669db87f9667637866
col24:   aa8747ba4773d9b8967d959b88c6989dbfbca999aaaae9b89657aa7b99ebab5b7ca9bb95bab78885
col25:   988a89c5b7949377bb97b5aca79a9cb8bba48ba88cb898aaaf988c758bbb7a967d95b688e467baba
col26:   6a97b67b8689acaab49babe98ba7cfbaaecc9bd9fbb18acb9a7bbaf7c5da68959998a99b5bcac9c9
col27:   99a78a9da96b9987caaed7cab9cacae88cceacfcbaacabbd8ccccbada9ac98a687a48d8697ba6996
col28:   76d6abb8b88e8ac7949acecaeab8edc9c99ca8fcadc6ec8bb9affcbccabab9bd98cc99dbba9bea87
col29:   8886cabebbcc7ccaacbabcbaebd8becaaa4d8fb7fe9bcabfbfdabaa9d7da799bdab7caadf8ba7b9b
col30:   5e6aaa8af6cc98ab9899dbf9bcc59debd8ba9adcfdda9acd999dab9c7bccb79aa98a998a6ab9bc88
col31:   aa996bc9bcaabbbeabac9e87899fe9dbdd8ccbf9be9ebc7eb99cbafa3abf88a6dbe5adecabb96796
col32:   7984c8b9b9a98caacbcfbcaccaba9abceeccdadacedcbcebdceab8acfabfbcda6ac87779b9cac8dc
col33:   a67b99cfcacaa6cbbdc98ccb9cebdddfefddcefb9cccbbf97cbbeecd78d9b9bee9dadb78bbaabbab
col34:   68788cbc9caa9fabcbbca9a9dccecdc9bdbcfd5cc9f7fccbccbbeedbbd7bb8ddcbafabecbdebefea
col35:   679b8989a9aacb6acf9bd7ecaddcadbb9e9cfa95ebbec9bbecbadbddcdcefb58bbc9c6dc9cba88d9
col36:   7ea99de88fcbccdc5dbdffa59eeacabd9fbfebcacddbaecdcbb9cbecacb9d8cab6799ada89bea8b8
col37:   78fcb9cabcd6dbaeb7d9acacccfadcdee7dcbcbcb8d8caadaabfbbeaecbebbdffbc7acda7b8a79ca
col38:   aaaacfcad8ffaaddedfdbcbabe9acbecafcaebafc9afbcfeccebcfbcb7ddcab99accbd8c98dabbda
col39:   a875babcb8d9b9c9cca6dfdefbac9cefff69eacacd9ddbc8dae9b9bdec9b7cfbcdbbceb8a99f788b
col40:   9b9cceaecbcf999cc97deacbc9facaecefbcabfdf8bc8fefbeecf877ecb9fccebdacb7abd9b6fb99
col41:   9ed7e569b999ddcb9dbcbcecbfcdbe7cdfefef9bbebfdbaecdbe9ccdbdaa8db99f76bacdab79b8ea
col42:   a576bbccb6febb8ac89b9bacbcadcaab9bcadcc8fcb8cdbacbd9dfcec9dddedebb6bc9ea9ccbbc8b
col43:   aba8e7af9dbdb6a87d89ccbccbecf8acbc9fbfdeddfcbc9edebfef8ccfdbf6ea9addfd9edabecbd8
col44:   cc9acdcaae9dbcceaecbcead87fbeeacb9daeeefddacd7babb8ffbbdca9b9dde9ce8adb9abebabbd
col45:   a7aaaaad9c7a9b9dacbdaabbca8afbd7effccafababf9becaaacccc9adadbdabb9fbdd9dbb9daae4
col46:   99bad6a4aacbbde9c9cdd9bcfbb6bddbfdf9cccda9b7defafbeaafabeddcdcbdbb9bedfeedeabad9
col47:   a8d99cccb9ecddabdbdccfd8fccfbccffbedfcbed9ddfadefcbceccacbdacf7dfdefcdaaebfca9a8
col48:   a9b88adacd6ea9d9aabccdaceb9ecccedbfdbbbd9beccccaeed9c9becbbbbefbcffbb9fae8abbbbd
col49:   cea9ddfbdedcbeaabacbdadfbfb8fddfbfccccbbcffbbadcaeddefc9cdbccbdf9b9bacde9fce8e7c
col50:   887b9abcebdd88f8daddeacbaddddebcfcbeacfbccfdacdddebfddbcffadbdfdbbd9cfedccbacc99
col51:   c97bcb8997ab768b699c98ae8f9ccda8adbba9edccd9f9c9cb9e99a6cba9bdd8c8ccfe67bcaa89bc
ROC:	 BPix_BpO_SEC1_LYR4_LDR1F_MOD4_ROC4
col00:   77565857564787866b857657baa6954c88777a68b66b8584dc85b497a58b9442a857aa3674657587
col01:   6787887a98489767856986686776bb9a79b8bb77a86bc595978a7b766a9a587a5699b8b79854ba53
col02:   57977687a887a79683957597689985af77a9a6799885b6887947ab8786aaaa977ab7a996aa55c789
col03:   344b787999659756a98969b76586cb4998a9a9aa88b388a97a867c6c99a76ab6bb7789a368568a99
col04:   987785697986877795979a8c8bd9b7aa8a8b777896a6a776978b8abb8664a868a67779b888678977
col05:   47637894e7733955974a5888a685bb77ba6797bc9b8787a8ba679988879c76b8946887778b98bab6
col06:   798c85648ac7a638896aa8973d49c887ba96bb969489cb9a887ac999658a6a98989a7ba599897876
col07:   57699695a6a566a869a776a856886c4a89a88c6d89a98679886a6a988a8767b999b6859576a94789
col08:   458567988978a69a7966a9a689687ad7b59ca5a9986889588a979886894ab8c7b79676a48b95c6b5
col09:   9868998b457a14a7b8868ab98b7599b7a88957b876ba9759b799b7ad9c967a98aa77a9b68857a785
col10:   55979897a6a76356978a6a9b6aab8bb86ba77893b9a8b979a857c8b9897a65476949898157686aa7
col11:   7a9886677488ba878489a7879d9b5889b9589b5c8a9799bc57579979387a77d5b4767369a8769885
col12:   9885889a77b89459586969d78acaa798fa899978bba79875999777d69b97a8b776957858a9667868
col13:   78898896997669a4a7a46b9b79b999aa98c4b79b8aa87489895998b9bb877887c996969787886ba7
col14:   7778956999b7969a35b9aa9ba88988aba85d88999ab8697697789789aa9b877458b8a8b4766588d5
col15:   798444766747648bb9459c7b9b89979c7797a896aaa7478c6998999a8b89bc9ca789597957874b86
col16:   6355377995978979babc849a87b98998a96a967797997699b99997a94aab9a8968a57769c8579865
col17:   a569638969548a9697765489a9699778ba988697577b5a869c79666777c689698848478667b43785
col18:   6779979757558a7a5a897869c5a79badcaab76a9c797877ac8886999737cc8864c82757774773558
col19:   b5a82587b4a7a99999aa7a9aa88a8a7a779cb59587b856888bab99b9c685ca7a868ab88b7976669b
col20:   5898636a9bbca775598ab6a8a79977b7969aa5c99ab69869bb9b9c89b7a79986878967b8ba667549
col21:   786697a579a2677779aa977a98597cad7a89bb8ba8a9b9abb8b6898cababa568c754766979885798
col22:   478697766896386995b9a96b9ac89a98ad9898ab9b88a5ac9a97a69b98c8979a9769667797799769
col23:   88a469877899a9796a7696a878d9aacbb99978a9799886a9da86997baa976866a895749268797b51
col24:   68968766a98a648a498a8698a9bbc8a9769b7868aaba8a762988799768a7887b9babb66c69c75676
col25:   5667866c785a959d7b989bbdba7897c98a9b88aca7da5a98bb88a78744a68ab9a97bc74789a8a867
col26:   65a99757acba77b7b8a7979b7c7bab9dce8daaadb9abcbbbbda9aa98bbb8fbea79b5b9a76987588c
col27:   6897a7a95ba77b787798b9c997597baaedbbabb999fbb8bbcaa99b99bb8a9dc989ea8bb8588888ab
col28:   a878baa9b6aba9b8accdb9abab9ba9bcabb68ceaf8b87c7c9afcaacb8adb79b8a9b8899cbc9cebba
col29:   8999978ca6ae9fa78cb898caab8cfbc6ddbcb99bcbaa7cb9fbb8beacdbcb8e87c688bbc8a99c9a8a
col30:   66a7b89dcbaa7bd7889b799bacaaab98ada9a8bbacbaa9eb78cb899a6b8c9aba79bb9898c9da9a9b
col31:   b79d8dbab898cae9daedb78b6cbbab87aaa99ebdcac9ec9abcbdaba979ae9dc599c7c8aaab78dadb
col32:   4a79a9799a87bab89a8cab8caa9bdbdabaa8bcd4997b9c88b7bcb9c989ebddcbababa9aa87ada798
col33:   968bb9c69ab6888baa99ddab79acc8cacaedcb9aaa88a9a9abaa9baab88a9ca8a9cacabb8aae9fa9
col34:   997a999ae877aceb8daaacb9cad9dcdbda88cb8dabd7b8aab7dca99aaaedbbb9bd9cac89baaabbb9
col35:   b59b9cccba79b88a97b8a9acbabaadd89cb9e9c8b9a7b89acda9dde8aacccfbb89a997a9bba9bbca
col36:   989a98ba98b9a9aab5a9bcbaa98cecdba7bbbabdecbbccf7aca9caabada9c989bcc9ec969b86aaaa
col37:   9cabb998cb98babcc9ceaddbcbdaccecdcbadad9ca9dcea9ba9abcabda99fabe9678a8cbdc9c96cb
col38:   c999aa9a99a7abea8ccebab9dc8cab9aceacad7abebcbecbcaddc9bbc8ec9cebdd9fbab898c8dcc8
col39:   b787a9d9cda9dbb98cb8ccadca9aa99d9abdbd9cd9abaab9dd8bb8d9eabb9cecbbd9cdbaaca9b8b9
col40:   88d8889bade89d9adaec9aa8cc89bf99bcabaa9aabdcabcabde8dabea9abbea9ccebbabcbede9dd7
col41:   a9b7c97ffadcad9acebbd8ccfcedd9ccbccadacfbddec9badbcd8d9fc8bbaebedbcaafebbdccfbb9
col42:   b7adac9dababadb8abceecdaebbabaaecbcbbe9efdfabb9bbb9cbbdbfcbdbbadcb99cacb6bbabaab
col43:   da8bbbcbb8bd9a8badbd9ebd9bbcafbcbab8bddfbfeebcccdaefacaaceedfbccfdacbcdcbeaabcd9
col44:   b7aaba8abaeaaadeba7ad7ab8dbeebdbbdeccdfbdafcbbbebfadbaccdfbcabeab9b7bbd9bbfbded9
col45:   abf7bc89f97ca8cbbcb8b9bcdab8bcbccdbebada8cbeaacaebbaccbdcbaececdbd9babe9ca9bbc8b
col46:   7d8a7a9debcabdabacbaadecdbdc9cadd9acbcdbaecdecdacddbdacdcaadcbbcaaab9cdde9cb9a96
col47:   c8b789babbcabca9baaa9ae79eadfccfccafadefcbcfbd7dfcbcda7fcdde9edccccefbc99e9beeea
col48:   8acadbbcdcbaaddd9bacfc9bdedadfacd9aefdabedb9fbecbfecccadbeccdccbe9cdaaa9cabfaac9
col49:   d6aa9d67cab9aca8cacaadcbe9edbbfebaaccbfdccecde9ecfebebbdbccacbcfcccc7cd8edc9aded
col50:   9a7899e9a7dbbbcccadbcbc9dedeecddad89cdb9fdeccccecfddcdecbdaeddbbbb7fabdc8ccacbbd
col51:   8a78a8698a9c8c8aaa8bbab7bcbc9ccbbd9bcaeddcd9bcbcba7acdeccbabcbc8ea7cbebb9bac99b9
ROC:	 BPix_BpO_SEC1_LYR4_LDR1F_MOD4_ROC5
col00:   9678675659c446cb676a58997b76b89769959787a75779675744b856c87a88a756b5755583773657
col01:   892476174646898bb87888a6ab9886bdbe8ba77a976f2788777b86599d7969a6aa9968769a77ab9a
col02:   893384a38c86568c8757b88c7a86deba6b99ac9e97be37a9a88789d88a9b69a878a788a58888889a
col03:   6c84959cb676788897876a7aa98c9bab6667a98ce5d38a979867c99a8cb73a8969797ab847849997
col04:   93958b9385a9b7799978ac9899accbbabb998b8a8a998aa9879c9aa8c69655a76699ddb96893a896
col05:   58a976b759786786588689cd87aba97a99aba59b899c88b68a8b76697a47af99998b796ac6966976
col06:   4468839d59a667847888b9b69778ae8895aa9b7bb9b9889779ca9c4a867a5567b8cb7a9675a74746
col07:   67546b886766a77798695abb957987c8797bac6999b9dc79969b697cb88569ad7665cac69886778c
col08:   3a86676a785847a8495a978daaba788ca8d9b7a86a8b567899da8b7a9b99a97758464576889a7a67
col09:   444b955a67c6919b8889988894a599eac9bd97bab77957759a9aea858aa8897ba8ae78695878b756
col10:   97a78986765569b75c896996698c96c7b98b76a56a8d84c689577899a88b67b7879ca27b36738a9a
col11:   41886987587aa7829784986888864aab99b599786799b9a78aa97acb9687a8985785987576366576
col12:   97a87896856c469ab7b87a8b6b889b9979a8788aab689889585b9b6ac6a7888b988857aa734a6a88
col13:   36897568ab9c499667867b48b7a6a6877b8b9a8aff9ac8bd67d678cb69a6b6899bbcb5ab6988a885
col14:   413656a69778528b879b758c99ad6caa689bec8ac8b4898aaabcab86c7487888a676a57bb9779b64
col15:   96745668b67795868aaaa9eaab8ac4779a999a4bd78569ba8a847c99c9bb8c9a9b5967a9577669c6
col16:   259788a4a787697b9a695a8b5589666a9cb89787884a8a98bb87a9ccdba98a67997b76a8c68559a2
col17:   977744a287c68a8494a8798859daab995caa7aca5a97977669e786a799a8b79a993958668b967953
col18:   36767588798a94d8697486939696cc9958976a8689888689a97ca767b8b8a786aa7995866a8b4a89
col19:   764799be764789979878a7696b399a679aa9ca8cb5a9898a8a98be875da7a68ac899a8967a777979
col20:   776777748c86727a5ab8bc8973689c6a87789cac6898899a86689889697ab789627aa797757a985a
col21:   868756774a65797ba98586b698aaa7866a969adb8b98a9988b76799c7967b9b99bb7947a97697476
col22:   748194569947456d8866885988ac7a8b898ba999a9ba9a8a7d9586c4966bc877bcaa8aa466958a76
col23:   a293566b8765879a8654989279759789897aba868998a3aa9994786895a894975cca9a887999c697
col24:   9288586558588598767b7589978b98b9b6688c9b9769e99ab5569bc888d7599b6a9886a79b859765
col25:   4869a3856886a8b687847789c899b6ba999c9995cbbae58988bb5e999c9b98cadaa6b6679aa79995
col26:   8875b67a69377a9a7abbb7b799bba9baadcb8c76bbb76cbbc9aaa886dab9bbcc955aa9588bdbaaca
col27:   85856a9a4aabb9a9abcdec7bdb9c8b996dab96a88a796baada7ca9baab7b99ca8cbada99aaa66abd
col28:   667976d898b958987b8ba6a98ab7da8abd7bbabba8a8f8dbbc98c9ccd9cd8a7aab9c8c977bd47967
col29:   7989a9799bcb899e98c7abbaea9b9ad5ea9ab699b8aafb9abbfc998b978aaabb89996977c7aca7a9
col30:   886985a878a88879997a9b9ab8aacccbdbbbeacc9bded5ec8cac88d9e8abcd7bc88bc89bd99c8cd5
col31:   69798a6b9a89b4aaeadcb9a7adc9b9bbbacd9a8c6b9c79ac8edc98dddcc7bbbba8eab997d9eafbb7
col32:   7679886ca88ab979bab8a98c9ab9b8978ba9c999d88e98bb9a9fb8bdbcacadacaa9accabcaad9999
col33:   888ad948aaba6bc8ada5c8bc8b8db9b987ca8adccba7e99a9ad8d99afaaabae8bac895a9cdec7bbb
col34:   8869bcb997c9c9bab999aa9a69b9daaabd87bb6a679aca6caadb7dea9dbcfbbdac79a8cbd69c8c9a
col35:   877689b6a689ab9cb97b7a9bb6ebc988bbbc9cceaadccbccebba97a7deaccad9ae8dd8abecca9ccd
col36:   a73c499b8a966c8aa7cd9bbba8a8d8b89dacdbacbee99aeeaa9b9ddbe8a8abcd9dcabb9cb6caaf6a
col37:   d797999c78ba8bada99db7bafaab568ccac9bdbaadbbc9bdc9ac8bea8ece99d9ebecc889bdc8c8b7
col38:   69b78b9a5995c989a8bb7c9ab9dcbc78cbbb7acdaefdbdea9afbdafbdadbbafe9a98dcabaccbcbbb
col39:   8b88775998b697a9ccd8d8aa8abcccb99de8cadfafbdbabedccceafbebbaadc9aba8eab7c5cbba9a
col40:   b9a79a897986c8ba96bedb699e9daed9b9abcc8c9bfecabadbc9d99ccdcac9997caca9cbcbaa8bea
col41:   999c8bc99b7dcdbb9b887ddcdb9baa9c9b8ababbe9695b9c8cc9dbaaddc6cbadab9eaca6acdbacb8
col42:   2699aba78c69bb8da8bba98e8a86d9eaac9ca98abcbec9bd7aacc9ed9dcefcda8da9dffbb99b9ce6
col43:   8a99c9c995a9a9ac898bb8b8eceeaebbdbeabeb9c9ccb9b7eccbaba9fbd899ca9bba9aaba99ae8c6
col44:   9439ab8aba7659e9af7abcb99c7be99becbae7cbcbcaba9deaebffbdcccbacddbcbbb6aacacaeae9
col45:   768898846ba888899abcabccabe8cbc9ccd7baddaaf8aba8f8acbcc7dba76bdc9aeac996ebcdcb59
col46:   78aa77cec9b95ab9a9ac9a6a7abcaa98ccdbc9acbcdff9a9cfba9cbabcfba9bbcccabbbabbcac66c
col47:   a773bbb9baa89a89b7aca7bcbbde8ababc999cbb8bbeeddcd9cbcbeaf99b97b9beeccbafd88c9abc
col48:   863447899cab7b67acdabaa6cb7acd89dccae87c8dccdb7bf9b9da7998f8a5cc8bbcebcc9de9bad8
col49:   9a7796bb87b88997a8a9dbca97bcbdbbb9c9adbccc9ebe8cbcd988b9aaa6d7bc979b9aadcbcabaa9
col50:   8689cd87899ba788abc787bdecedde9bda9ac8baac9adecfd9bcaad7bdbcd97adcfc9eabbbe9cc96
col51:   5557663945a888688a595d78bdaa997998b9c8bcb7678dc9aa89d8b99ad6aaca6a98996698a9a983
ROC:	 BPix_BpO_SEC1_LYR4_LDR1F_MOD4_ROC6
col00:   489899498a9899d47a4b6c996988b8e6ac789b66c9a898a9aaaab688a8b9897969d7b7acd8ab7b6b
col01:   57777479aa6a5e75597a99a7cadabb7bcdbbc8abdfbddaabcabc8bfab95caabc8c9bd88cbcbceb8e
col02:   5749c68797a7a9879899bcecb7ea7adbacbaea47af9ddcbd9fbfceb8a9aab99cfbd6dd989c9c89b9
col03:   855648d5869eb87ca77899b8acbcd7bbdb8acb8bcda9ee9acacaaeacacc9ccaafbbc8aecbddb9ecc
col04:   8458654899eb893bbdb7b9ca76988abccbd8b99ca9bbab9a9b9addacf9eecc8b9aba8fbdfbbadcba
col05:   5764b6774a947875cbbabba9bc9b7bdccaca8cdbbba9ca9bf9dbeae8ebcabdabc99abdbceb9acaa4
col06:   7b7679a88a3ea777a9a9ac8aa789b799c8b9b8bb87a6b9adbfbbbc9dfbfdbea87cca7d98bbade798
col07:   7c583555ba86979aab7a68cbeb9d96accc79eecfabbbc6abada6bb5ba8dca78cd7ba9abccbb6f9eb
col08:   8474aab9ab78877a7a7b86cbfabbb87678f9b9ab79becda9acd8d8a8b6ca98bcdc77b8aa8bbc8fe9
col09:   4796896a696a76cd55ba87aa79caa9cabcb9c9bd9bcae6bfbeab8b7decaceccbb9f967bbcbbcbbfd
col10:   9a5838aa878a869884caaa8a95db95c98976cadcabbbcaabf9aac8edaa2acc7bdbcc86bcab8da7fa
col11:   473296579a6696969995a656cd376a78ca99b9cb67daed9c7a99add9a8b9beed97c8abca6c9bf7cc
col12:   a8868a9c998b489876698a78bab5cbbb6997c997d9ca98bafaabc9aab6b99c9b69d7ad797b8eaac6
col13:   745747a76b89a4766959b858a8b6c9acdcbba8ec6aa989bab6d9ccfaaacc9aaaa7e9b9ac6bce9de8
col14:   82786729837685547b9bb897a97989799eb4a8abb979a67778e599ae779c67a996b8daa9a5a99ba7
col15:   275365ac7c48a697b69a6699c989a96c779cde8dd9baa9bc8b89f8ca97bacadfb9abdaacca59cca9
col16:   231625a7c64977568897a387b8ab769aca8abb99a8dabac67c9abbba7b99bb66adc7e76da9c7dea9
col17:   4165362a7859aa94867a675b785bd897a8dc7b7bc86ba77b98adc77ababcbbb9cccab79b9aa89999
col18:   564576896ac97c7668868a49776988575a97dc8b9aa7a77bdba9bbbb69ab9ca78b8ba96c96887bb8
col19:   54192426589469b7894a48a86d58978bb7777aadbd6cbbbcaa7cc9a6cbb8b9ab9eca96a9bbad8c75
col20:   5663678749c886c687866976aa999bb88b98979a8b8a7bbb7678ca9988aab9ba7acbc6a8cbda9d55
col21:   556b46a64b3266699466c676cdda8ac98bf8f9d89e933d98aba68596aabba9ac9cabcb8c79aa9aa7
col22:   557247759568685688885767998ba89baabbace78d9c7979aa97688a947c5baeb999abac999b779b
col23:   7a45749565763556756178779a59aa88bddacc8d9799b7b99a89c8aa9cd8ababe664789aaaba9979
col24:   137457865749584559a1daa6788776a7b7db8d8689a589a777677c896bd7b899997c999b8cc669a5
col25:   569897864b9a447987babc68b396a9cc98bd867bc683c7a988aca79aabeab99aba7cebaa7b589cc8
col26:   54768654a945c64999cbaacd59cbacbd5ebaac9868ccab9caa9fcdafb5aeebdac8b9aabccac8cd76
col27:   76b6754b379477a857a79bb999c88aabba9cb7cc6bbd8a7ceb99a8b9ebd9fbf7aad7df9cb8f8dbd8
col28:   75964988b86a86db7ab5b84c3caafacaded8aebcf8d8899abad7bcbeafdecadac8c95ca8fcdbdfb7
col29:   96888333997783b9cab7927aa7bac6b7a8c8c97e9abbfbc8c88dbc8978aabcbb6b876c8bb9b98cd8
col30:   c78832b7948499a586a87daaa7d998bc7bdabb8be8b9ceb8c799d6adada8d9e9f9a99baa9bc9ba77
col31:   777b669969c6b998ab79bdc9a7bcdbacadceab8cdbddcdddb8da96fb89ccbc79bb977ad96adceac8
col32:   5a758b95477a89a8b87ae8baa9c9f79d98b7b9dcba98abdcbcccaba8bdbadeab8bbdbda9db9dc6bd
col33:   84988777398a8bacadacbaacacab6aaa8cbca8ebaadcaeaacbaba987b9ebda9ccbbcc69bbaec9b9b
col34:   845597582788989a7c8b6bdaba68f89cb5dddcaaa789f9aab99b7aead8fcabfab9898fa89dcab977
col35:   7c3847899ad6aa88979b888b8ca6cdc89aabcbabcea8ecec9babcd8acba8bdc87cacd7cacaa78b8d
col36:   88687579ba69b89ae96798c66896d95839cbd88ddcaeea9f9dbd8ecc8aaabeec9bbbd9b8b9a9c69b
col37:   966a6886ae9a78c97eeed47f9b97beccd8bfb96ff9fdcaeac9cddc7a5ab9beddcf8a9acdbcaa88aa
col38:   69a5895a599b976fc9f9a69bd79bc5dacdd8fc99bbb975beffbbabcf9b8bceb9ebaa8d7a59abaebb
col39:   978b8a86acea888c87bacaa7be9fca9a989bcc9bc99edcdabacebcfbadd9bbfdaa98c7a8ecb98fc8
col40:   79a4a487a97768857cbab8b9a8cbbd9ab8ad8acc998c7aaadcd9ddc69ace9cbbdbbbcb9cde9cbaa6
col41:   6b8899b96792d79b89a9dbc795b8ab68cb89decbaccbb689ca9baddabcadbbed998ad98a98cdba8c
col42:   1437b8796a886687bb5adadc6e99a6aca998f8faa8cb77cca6cbe9cdbd89a4fdcd89cac8b5bba6cc
col43:   87385695c9c7568a8adac7586a77e99ad8d5aa9b8bcfbacd98cda7d69ab9ae9bcd7cebbabc9889c6
col44:   267956878956ca9b99abddba9b9a797aacd6cbdbdaa6feed9d8eaccc9eab9e8cc79db9ac9cf9b97e
col45:   a9337996aa98ac9abbb78babacaafbccb8b8c96dddccbacb96ccbca37d99aabfdc7ccddbdcb59b9c
col46:   9a9875aaa4ab79ac796696cabca8ab98ada8cdbb9babd9bdb8bcd8cbb6cab7ceca9bac8cacb8ebc8
col47:   8536a73798bb98684b6c57c967b976bbadb9beb89d99bbcaf9bdbccc7abfc9be8cc8679acabddace
col48:   62b4b65a766a4888669549598f7c7a7bab75ebbcc9d9ab79ecaa6d7bd99bad79aa9bc8fa9aabca94
col49:   9458c79b6a99c35997aaa76a96b988bdca6695e7abeabacbc6acadebacbdbab89ac9bc9dcc98ba96
col50:   78aac77457d797788a47c69889bcca9fa4b9d89abea6abcaccded8ba8ca68ab5c59dabab8dc7c7c8
col51:   863775659636b5ad99a565768887b8678568a977ad999db5a695888a689a78ac6b679b7b987b9d6a
ROC:	 BPix_BpO_SEC1_LYR4_LDR1F_MOD4_ROC7
col00:   53685988693176c473766698659977877b87638b94677a9776a7996a485e55763778773386a75618
col01:   669789ca5b7699abb87964976a7a489779bc69a968c9aaac6f89acbdcb958a896c5698979b8a6c94
col02:   895d7859979749989884976a48caa7a897abb86b95bbc7967d689c7badcabb9464b7b889a7a6678a
col03:   8857a98376baabab79b8897a4abbb8f9daccdbab85a7746ba9b9a7bc6aab879ca896ca8a9859ba97
col04:   6995498986988a87cbcab878bbb9c999dbcaba9c78aaab85b897b99b59964779a73b987477687777
col05:   8968866a756b97aa8c9bc977a9b7bbb58899bbb89bea7c88a58ac968c9679a9d8a98c95b87857854
col06:   4686aa9477856888b697b79ac987b7678cec9c7bca7aefb7a96aca79d8bab7eaa5aa88786a6d9a69
col07:   9736b861899497b9bba979cbaa88ca68bbec9b9b9d9e8c779a7cc9aa9e9bbb897d64a97b5358889b
col08:   aa768497b579697ab797a8b98c796a9e89c6c999798aab8a8b9d9a658b8a89b79888998e47da8839
col09:   a8897bba9b69a765887579ac994a8ababa8aa899aacaab9bba8758b7ceb98b6689d868b6b69a8653
col10:   3a8655966799c78bd865779a8ab7a867dc88cac8b9ccba9bb7a69a958a786ac77aea9aab6b756674
col11:   449647bbb7a96a9856984a9887a99d99bcaa94dc9b9bf97aacbd9c8988aa9bd7b9887668a6b99b46
col12:   a9b84a56996a989c886aa9baa86998a88acddbbcb9bda879ba77b85abb96a8b788978a18869a8daa
col13:   69869b59a87bc88599aab6c8b9ba65ccb8989b8ac998bab88dba896b8cd7c7e7a9756689bb378699
col14:   a6bb687844acabc888aa69989ac9c87bc69ea7b48e9873e6ca8695abcd7a8ab8a7899a49b47aa46c
col15:   c74aa988acb988a9b589468adc9ddadd8abb3dcfca9a87ebb9cd45cb7abcba7a768a6a75a6a7ad96
col16:   95a68375895785ba99b9879a99b98876c98c7987aaa87bc68889ac99a875bb89c8979a5a97baca78
col17:   9a7aa7968898877878af89a9dc8b9486577bc9bca9b9babd8985bdab87b9979a8bb58caab6d97788
col18:   ab5844a8857ac7b974a77b99b87ba6a98babc97a7cbb686799677e6ab69ad8a6988996a88a668aa6
col19:   75488797989965a88a7cdcb68aba6bcc986b988d7dcc9b699b7e7b8b7accaa7bb787a8b9aa8628b7
col20:   88758c479936accac97b97aabb8b6978d8a967db98c87ba6b7aa7649ab959a6a89796c9c89a8b964
col21:   8a7b65aa75a6b5988c999887ab9969bb9b8aabb78b78c8ac7cadeb89aa679a5cbc876889b7af9995
col22:   99778198972886a9a78aa98bb7bb679c979779bc8c996bacc7a5c9a8dd7b8a9b67a8aa798798a869
col23:   47866c778a69a18aa8baaa7d6b87ecbaa8a96aca9ac98aac79b9c9babcdabba6a49b9995b9469786
col24:   3b686b97899bd49a678b9aac76bba5a78a9acf77ba7d96a798a8d5698e5cb858a78ac84d7865a579
col25:   b66a888b7baa9a6a895c97ac9986ac9cba97dceaaccdd995d9c68bbccbbbc79aeba67899a6877976
col26:   5a29b99ab87c76fa9cccba8ccab9a877aabd98bb8b9b8aa8ba89b86fcc8db9bc8c8a9c9aba876d95
col27:   86aa8d99a9a9bcc7bedabaabaa779a9cbaaca9bafcdbda8ab9abca9a9cabcb9cbbacada9f7a7b9a7
col28:   bb967a8779776a98aa6a98a9b9bb9cbaca8cd7bea9eaafc8cd8caaabc9dcd896aab9aaacbdac9989
col29:   8ac8b9abcaa7b8faacbb89b6dabaccacd9cefbacaade9fcba9bbabeacb99a9abbaaa9ca9a4d4e8e8
col30:   a765bc8588d4a98cc8aa8aaa9a9aa9aea8ae8dbcb5b6accbbcbc99aaacbbbde8c9ae9b6ad98ab8aa
col31:   a5ccbc9cb5aab787ccdbeaabbcdec97abbcec989cbc9dfcecc9bcbfd7ddeeacfbcabcadab9aca9a9
col32:   579879aca899bbccacba98a8bccecacd9d89d8dbcc8cd6b98caab99fdefbc8adbd8aa7739dceaa78
col33:   b9aa9b869b77cabbc6abace96cebb8cdcbbbd9acabcc9aad8edbeaabadbd959a6cccb98cb9bc6bc9
col34:   a89ba779dbb88789d9abc8adc9abce9aa99bacc9bfd9adcbbdaa8b8a9bcbcd6aacefdd8fa9ee6757
col35:   9c969ab7aa7e89ae8b99cca8cc77bab9eb7aad9e8bcfbbddababddedcf8da8baafbcdadb887abccc
col36:   a699ca87a97cb89ab8cc9d8bdbaedeb9edbfce9ebccbddeddde9c9be9cacde999dbd9a7997aa89d9
col37:   db79baca89ac9bad9a8dfbe9bdbbabecffdbdcdecac9b9bc9fdbebfe9cdeadbd8cfdb88afb9ca97a
col38:   d77bba7799b8a9aca9ada7bc87adb7e9bdcacdeeabcddceb9bbbffd89cbbc9f9ba8ff9bbba9babb9
col39:   d7979a97998877dc9acacbbdaeb9bba898cedeb6c9ab9abbceacca9b8ac9dadd8dc9bb789bbec9bc
col40:   8e8bb7daa89589adeaccdcdba7deccb9bc9dfcebdefbccfbfbdb9abcdbbc9b9ababaa8ab6a98cabb
col41:   b9d9ebceccdacbd798dfac9b7a99aadbcfbfdcbbecff9efdfeccbfdbfffe9bb7cf9f7c8cb9aa8a58
col42:   9a678b88adcda87faa667aaea9c8ecd8ebeba98aacaacbbbbfba9c9eaababbcabbcc79abab7e9ca9
col43:   aeab7dd6c9aaf9bcec7acdaed5ddeeeebddfecca9fafeeedabaccdcf8ffabde9aeabbd7dacc96967
col44:   79baa86baabadd8bfba8cb9adcdbed9d9edececccbaf9bb8dcfcdcafbbcbf9bbeebddeaebbb8aaa7
col45:   9ba68bc7a7bb98ab9cb8e9dbdcbcbbabdacacbafbadcb8bfb9cbafecdcee9abcbf6d8bcb7cbd87a7
col46:   baca9bb54baadbbe9bbbda7cecbdcdcf8bbcaccdfbecacfdadabacddfa9cd697ccdabaae79bb89e8
col47:   8baa9997969bacaacfe7cabbcdecbddce7ced9dac8d9cdbdda8eeeedcd9bbfeceaddcdbbdcfdbda5
col48:   aa9aa6a79cedad9ac9cba9d8bacddfbfcbdacb9cdfecceccefcddfadfdffacb9b88a8c7d99b869b9
col49:   a98797fcfdcaa8c98be6b9fecdcca8bcbcfafdefcde79dccdbdacbadbb9eb89abfbcadbda9d8aceb
col50:   d9bc86da9bbbba6accbb9cb9eebbbaddccaefeced8faadbabe9dccecfc79edcebcbac8b867bdb9a9
col51:   959397baa8ebad9c9cadaaaabbc98addaaecdca99b9cbaacbac6ebb89a8b9b65c777ac988a96ddab
ROC:	 BPix_BpO_SEC1_LYR4_LDR1F_MOD4_ROC8
col00:   aba63684995778cc43675a6dca8668a6acbb99976a8a8e8aa6c9a85b97c867aa8a65617aa8947376
col01:   aa87d98caac8a6c7cc88579c8887c5aca6c689b7da998c7cbeb787cc669977a8aaac7999a7597498
col02:   9799c5b7978bba8aaccadda778899c5ad8c9abb89e89bba8b9b8c8ab889cbcbe98b8977978a58c66
col03:   cb9b9756a9a89679abc8878892bd99bd98c9c9cdbd887998ced8a8bb66bac8b999599a7ca5b57ab4
col04:   c77a79b98abc5c8687b67bbdc5577ba999c98adae9c98acad86a97ebd9998967d6e8a9a7abb6aaa8
col05:   484c998a966888a88787a258878dcda9aa98a7a9a8dc7f99ba8bb89aa9975a698ba388a7d97ac965
col06:   77bbbc997b8788a3789aa9a7da8ca9eebaadb8d6c9dbdd79b99c9989c6c899a882c867899885656a
col07:   c7c9a8abc7a989b9d589d86a92a9c7d86accc788898dc8a99aedabd98cc99eb6c6954a98986eb98a
col08:   998dc989999a786ec88a49b99a57b85ab8c8ab8aa99db7ebcca9c67aba8babb97b7aac988669a7eb
col09:   a59aa8a77676a7b8a895a9985a489c699d9dcccbb8a489689999a9aa8c97c5ca987a9c6972a7a69b
col10:   c9776796ba8b99a49aa8baaa749a9cb4bbdbae3bbdbab79ec97d7a799768a6a5659b986798a998c6
col11:   976779b9a8d8a6a7898888879e57baccacdcb9aa8fdc9c98b7a65aba9d95c788b9c95998a79b8738
col12:   866679e858b7c98aa78c6bb58c8ab88ba99b9c798b597bd7c9bdddbadc8ca97eca8a7a78567ab972
col13:   7e697b7886867aa9877c7abc9ce8778dbb8c8a9ea9a9af99bcaa67aa9c97c9f6b7975793ab5677ba
col14:   b99a6aa795aa896759a679956ecd8c8b76c778c979ac9bb99cb78eb9c2b9cb99b99a96598989913a
col15:   9a77986889b87add885acabc66986ca8c8b8eeb9aa68e8cd88abddbb8a9a9ba98ca9b8b76a575896
col16:   998798a97547a5aca97b66af9878cba9c6a8ba7ebaaabceb58b9da8dbcc7a9b578a89a86a7954b14
col17:   5846baab8ab9bb79c6aba66b8c8bc8a8dbdba79cb678c699859bb79bbc799a996ba8899789a59589
col18:   9c66b9ca976aa888a99866899768b89d8cabb98997bbb8badb96989aa7bb88aa7675766778835a86
col19:   9786a27e998ba696d7dcc98bb9badebaac98b9c89b95acaec9eccde9a99898658b9bb7749746d6bc
col20:   5ab9bb678aa88c79a9b688cb6ac795da7ca959aa9baaabdae9abbcb8898d9caa788795b66987bcc9
col21:   a887587769a7bf996b9bbb69d87b989d87bcbacbac97caeb7799bb6c79eba8c9998ac5da48768955
col22:   9677685dabb687398d895c969aec7999abb9c8cbcb79af9b988bc9ea99db6b7bb78696a854a63744
col23:   78757888999679a97a7a9b976cd993898a985baa9978cd9b7cc8bdac97b9b9aa96c7787999765645
col24:   a47878679958896a6caca9bab9b8cb9b98aaf99aabdd9b8b97b8979db87a77aa896aaaa6aba79545
col25:   a78bb6888b9a95a7b56cbc6abdc599aabacab6eeb9c9abcbcc9aabaa8cb97d9ab88c5aa98a875225
col26:   ab7cb9c9ad88b8cabcab6ea9b87cddcd9b9c9cfbccbbdbbc9aca9eb9dbc989a7ae75979a999b5a99
col27:   566b97b9a888edf998bd9aaeaccbbbebc9b9b99d9be979adcacbbeeecbacba5bb89a99c79985a9a6
col28:   c88778bd79bb7d9ac9ecaabcc98abec89dbfadbddbe9cbde9abadea8aaab8dbb9958bb6cf8b9bb7a
col29:   79b9b7a8c6dcb98b8aefa87d99cd9acddadeecdd7c9ab9a7edbcadbb9a9d995bdca9baea887b9895
col30:   bbda599ecbad9bcbd8e7cbfbccbabf9c99bebcbaeddfacbdd6cac7f8ab6ad9ceb9abb7b88999a994
col31:   9b879c88987aaeec8dc9fcadcea9cbdaccacbadddbabaec9cbe9dbcebad7bca9a8f8a9acd98a7ba9
col32:   cb9dc88dabbcbdcccfbafcddcdfcb8fdbc8deb7ecacfdabadbcdbb8cdc8d8c9cac979bbbea8aab99
col33:   c99c8ca7b6beaedabe67f8ccdc9cacfcdedacfbaffcabcbccfdcccc9abc98bc8adea9b669c6cda57
col34:   ec8b8fd9699fd9aceacbbb8edb9bacfb9cda8daacf9bd9a8a9dfdd8caaaaf8ccccbdd9bada6b7bc8
col35:   89a8b7cab8eba6e89cb9dd9cffbfcdaccbb9cabacaa9abebcebabdbefacebbebb7d9fcab9d498669
col36:   7aaeb8fdebbce98dbbebabbeaeed9e98fb9abac7bcbcbeec9deb9aacbfbb89ebcaddbab1abb8a6c9
col37:   9cebb99ebebcc7cbec9ada8bdfddc9ccafadbf9dcbacebc9dfecbcefba98eb9b9d866c88a78dfbbe
col38:   cbda8c98aac9bbcdccd9aaccdcbdadcaffd9bdbbdcfcbfeccabcdcfaccc9bebab979a996988b9386
col39:   8bade98d6acc8bc8dbdadcaeacbcaa8ab8dd9ce9dd6ecabbca8dbca9abdcc9ebbedacd7da697a6d3
col40:   ce9aabcc8c7abbe9999cad7ac7bb8fcdcaafa9cbddcabdc5cdc9dbbbebfbd8babcb7cacbbd76aca7
col41:   dc6bddacc5dca8bfdadbdaebcdea9ffdcabdd8fcdbedcbe9bfaefebadcaabacadcbde9ac65dbc798
col42:   ec69bc9d7ac7ecbaadbce98cdfbdfccebdddcddefccddd8caacc8bafbcdccddccdb5cd9a86988c79
col43:   faaac7acce9cbdcaacaddccbfdecccfbdfedfadfdfcffbdbcfbcaf89abbdba9ccac89caeaba4cc9a
col44:   adbce9fbaededbcddaedca98baeba9bcebbebcaa8dbbade8acbdccb9cbbc8b8fac9de98aab8d9bc5
col45:   ec9abbc7abbea99dcaa9adcabccfbadefabeaadecfbddcacdfbfeccbfb89bfb9be9a9caa6a98ea78
col46:   fc996eadacb8dfeb3b8dbcdef9ccc9afdcbbd9cbbccfcfbccec9fdc9ddafccfffdcb7bb9d98ab669
col47:   aaccb78bd9bcbdccdf9bb9bac9debfdeccccefdafbae9f8cfdffcdeddaddbbbdacac99cca7a9e9c9
col48:   8b8b798bbcd9fcc7a9cadbfdeabaffd8bbacbeecfe9dfacdaedbbbbdcdbffdbbcecc8d9a7c98b8b8
col49:   ebfd9dfeba9eedccfdabfbccd8dabfdead9bf9facedccfac9ba879bcd8cfbddca9c9da9bb8e998d5
col50:   aebccdac7bdaf6dbbcfc8fcb9ccf7c9fbebbbbccddad8eebb9cddedfcbba8c9b8dbb7baab99dd9d6
col51:   adad8cabfc8887dabb8a9aabf9c79ccbfe9babbb9fadbc9baad9b99ca98abddbaab59bb878879caa
ROC:	 BPix_BpO_SEC1_LYR4_LDR1F_MOD4_ROC9
col00:   8c7747696737857766a68b854b77978667867d98c85b87a97a9a4a769d9a5aa6497544799478472a
col01:   7c97c7a5689a5cb9aaa9778ca57bc8b798bb7d9a88c98889bb86799a785488cc859877c58aba6598
col02:   c7798ba78cdda6b9bac896b7bb858ab477bbc59897a889667b9ab69c6c9a68a86a66777458728384
col03:   96acc78ca68c7ae96b79546a9a7868b96d9c9ab89d9cb59776e5a97c8699cb7a579c4987b887a833
col04:   776adbb78cc96a6ab9b57a9d888b98a9e84aa769a8d7ed5d7b989cb6b8acb77aa8759689368989a9
col05:   8869899aa9a798a6c7ba79a7cc6cb96999adaa6a9dc58c5979669a69c79caa7c9898c97aab359286
col06:   a68998c767b98ab9a67bba679898b66887994c679cb57a8d8a9f6a5bbba9899b5a49988c762547a4
col07:   58697876c7b59996ca7bccd788c8c89c4688aa89a86b888a98b97b6a5786a64a78529a6577594474
col08:   7bd968d97a7c87889a588ba98398bb9c788a9e8c9a998bc89bc57937bbb998a99765a85967873753
col09:   76b7985c777c9746bad9d99c6679e96b9b7c9ca87ccb687ca6c8c758c8cbfaa85c87b39a98849776
col10:   aa4acd7ab86b9a4a977cc9cb6dbcc8966a99ba88cc95caaaba968c76b5da7878a778c95477616473
col11:   9a97a676d6a796c85bca7c996ba7b65aa939aba88999b88ad87aba983bba968787ab5989998a7745
col12:   9ac885298b74a5aa9aa9ab74b8999fd7bca9abab78b4b8888a697b886aba7a998a79557674757541
col13:   7b76889bacac8d7ab79c8c8e9aa9cc99ae9ba77988babb59a659a88b8cf779a85958598736a67655
col14:   4b59999758bceb5bb99799babb7b97b687c8ca8b9a6aa9b4899c76768a95a8c9778418858769a457
col15:   88a9b68b8aaacad88ab5779b8e6b79cbde7579c87a99aaca78798995bb77adaaaa64a73768669ba9
col16:   ba5756a8647c993f58cb9aab97ce77ac9bbb9caebca7ab99aa6b939bbc7968b875c8ab6878974873
col17:   675c9a7c9ab6ba5c9dd6aa9b886979b7866c7bac6ac8e8bdab588b77bb7ac559a687688568967828
col18:   5867995baa9a89678977bc9573a8abab9976a8ba9598aa99986b7999a86adc78c93b984285876915
col19:   a5e49988875b87ab76b798799a7b9aab99bc89a69a6a9cc758cd8789cbc9778a6856666794866685
col20:   8b65a669c96a79baa6749b68979b8ab9c899c899794c7b7b3bd98c88c79795589497535754725679
col21:   7577ca66c99595db699a696cae9bcad7b79a3b6978d89777b779ab4687898679a6a5977664268144
col22:   9567757a4b9b689989897a988bdbc989896886866ab89b8467a99448977999ea9a4537886657a559
col23:   77556de799789cacdbb47aca997a8d786d969b8ab88aa39c89b8788a8dba8ac86788b66737a78844
col24:   569bb9ac77f9d99da886a758c78a989c9dee985a7abaaca88787889d997a5854955b797769488651
col25:   8ab68b7a8bb66aa9b8e69e9697bdaade79c8959a97777aa6ada9aa79a88868c99a73a99a86496459
col26:   bbbb99baaa8d5bcca895dcb9b696dcaa98b8acabcad9bac9a6ca87bdbac8b89d59a8ac93999ab484
col27:   49c8c777a879a9b8b9accabfb78aacbcc89eeacc98a78bb987acda7b7bc9a98b9989489ca8476556
col28:   5adabb889cccbda8a9a787dcdab6cbabcd9b899cb9ab88aba8f98b9b9a998c8b998cb8a687ea8793
col29:   b987a99ab96a669be98cabacdc8aaadabae7e7cab5be97cc9ba4aad6caecb7b78db976a769ca87a7
col30:   be79a7bb77a6d6d8c8ecacbccb9db9b7b955bb9a9d89cafd88e4989bb9ebcd49ba8977b695879957
col31:   96c59b9bb9a4ab88c99cabde98cd9befacadb7cdb8bad8bc8abbc7389afc79a8ab8e478b96c79567
col32:   ba758997bcbcca9abdc8abca9796cbbebbb8cda7cad6abadbabbc9b5b8adcedb9a44bbbcab4baa68
col33:   9c99addeacacdd99998acd9acd9db7bcdcdcebfa84cccf9cbcba9bd9cdcab8bcadb98367a79a72c6
col34:   7798ebef76baa8a8ddbccbccfccda8cacbb9bdadc7bc8bc8ba7ccbabca8cc5a887bda77a9b996974
col35:   88ba8c9e9c5c9bdbbbbcbcbceddbbeddbc4ee97c9afbcdbebacabbcad8b8cbed8ccba98a9b69499d
col36:   a4c69b6cba9ba77b9eaac9bbefac9b8acbacbfa8bafcc8bcddfccedd389a6c68899b69a9b9aa8b88
col37:   aba9aada8a8aa8aaca9b8cdcdefdecfbc9b99dedaedebfabcdac8eb8cdadddbcacbabcdcabd5a9b5
col38:   8a999c8caa97b9aadbe9cdc9fadbbf9eeccbbfefbbbfbdac9fcadbcbeadecb89a9a9dbdb9d88c8ab
col39:   7eb9bedcfe9a8cdaafcbeda9aaccadcce8989cbadabec987d9dbb979ccc8d8db96daca9ac9c77b75
col40:   b958c84dabbdb8badcba99eda9dd9c9cd9ade8baaabd8bbbea8bc99bdfbd9a7cba9aa6a4985b8ac9
col41:   c9bcb67669ad9f8bababdccaccaceb9bac8cfeddcfdfbd99dfcdbcecdb7c9b8da98c9d89dbbb89cc
col42:   a96db888ecca9ea8dcfb9bbff9a89cbcaeebfdab99dfdbda8ab7cc9bcd8bb99bddcc6dd3b7ab9b5a
col43:   ad9799cda97de8bbb8cdbcbeac6fc7cdceecddbddedfebddccdd9fa8bdccbdbca6b789bcbdb89876
col44:   68dcaac8da9d8bfb9bcfdfcacfcddaa8eb99faedecbdcfe8cfccbddeedcfbe97b97bb8babd86888a
col45:   baacbddbcbdbec7efadcccd7aeadeeeedcbfc7eddc9adcdcdd9babbdeaab89989b9fd8bfbe667c79
col46:   99ab8bdab97edac9b9a6fcdbc9ce8c8bbbffaadbde9cc9cac7abbabcbedcbbbddcd9aabb97b79bb6
col47:   698b8997ccb7f8ea9b79aa9dcbdafa9c99cdcddcbeefafcfcfafccc9baa8cdda8959bcaad98b887c
col48:   76789a8a99ab8da898fbaac8bddbec99bdceeccbe99abbabdcabfbc9ddadc7ccdac7b7db9a9a6c5a
col49:   7d79b9db9db7aaaacdfba9cabadcbceffd898cbffcfcdcafdeb7bcb8adbdcccba9bb9ccd799b8ab7
col50:   6dbe9a7cabdf9a778cbdbbcb8aad7dfa99ff8fc9addaafdafa7acbaebc97cb9bac7aa5cb7d99a889
col51:   6aa79ba79d5989998768ca7c7b899ad6babbd66887babdac9db999778b99ca88ab55ba9546597668
ROC:	 BPix_BpO_SEC1_LYR4_LDR1F_MOD4_ROC10
col00:   14731a3446654c7656757275a9835259888975837886d84949679a48587877a44c76682867554366
col01:   5794787c765a769798799a6aa67891a9e89adcbb8a597996a68a569aba859aab76bcd57a585a7d98
col02:   6946767756a986c9d4a7568854b8896978578b657b8a787b599c88c9799799a76988a39897778c43
col03:   965288677a59a69945a87b858b197675848b7a7b757aa8bd96977f9baad8a967a996a77968679a84
col04:   7665783aa889643784aa788895b59499bb648679a8a94688b777689cab99a879aa758765a75a2a45
col05:   935a677a437687b585a87aa98bab4ab9a9c777689a8988b94cba596b98699aaca27975c598764376
col06:   87476798845885869837a697a9798b96c98a5c5a77a6b9468998b7a8c787774b698ac696aaa5a5c8
col07:   7a9b57458965a647b59c698874b9ab695996b98db69dbc993ad7ba9a78b86a69aac888a6557a6789
col08:   665956ad979a6b6aa7759889a678548ac6b7958a98dd5a944a9aa749789994ca97d9798bb57b8894
col09:   a7876b47857b66767a9b797b59869999abd99a98b8a8943b8c67dab66b4cab6388daaa7989963676
col10:   467a61897a98879a459bc866b8597cb8c659a589b87888999a95988a7988b66996b985584756a937
col11:   5379c58543886953778a5b6ac898a9bc86aa98baa699b88689d68875bd5d9766998a6aa898599465
col12:   658aab579bb979544689889999489b963b8a9aa77ca79847858a879a89bd3568924b669985877786
col13:   57167b6d8b99a5a6bbbbaa97589676a7aba9876aa81658b6585ada9c88c96b959a878984c89776a4
col14:   685989897b7a9ab95b898a7ab8a5b968a87a867898c7aaaa98795a6a78b9bbaa2497a78c887579a5
col15:   56676a9a8599ac7979799c863976787d9a977b57979a88789593ac98b8aa798c79ac8988c65a76a5
col16:   439936b85c59749abb99577bb8776c6987a8ad7b7a6aab5695b9ab5a4aac99b5a8768ca5c9995698
col17:   97778a9756388a8c85858c8799d7bab9a995aacb9b986b44b9ab989b9975a93aa57b667b7c7867a4
col18:   5a85b6899895974cbb7978a59556bac7caac787a88b88a99a69acaaa69678778988a74a758886416
col19:   66b89c78c79baaba9897c5b8cc8c98ea8b77b888baa99b976b7bb7bacbc8ab978889899b88964636
col20:   49b8886a58495688987bd65bab6ea86d744a96997949777a9865968a7cc9647a9465a984898a699b
col21:   8594a9b76788987aad569b8aaaaabab9698686a7da3a8af565695abd878a8a7ac7a8873a7766a779
col22:   677669976a69c988b7b96a9888b9a96da94878758abb69ab99a9678988c7ab78889695594888b296
col23:   9787686a899c398786884a88ab89a69bb8bba77577aac68bba698a8f978a99977888549957375463
col24:   798996c477877d676a7565a88c6b956789bb9869ab746b999be876699a49695796658a564a585953
col25:   988a55698c9878aa5bd88b88ab9899a7a9cb4b748b9c98e9cb8a98b89a8b7a859bac777d9876a797
col26:   cb97a5987a769b9789bdb5c9ab8d9babaad9d879d779a9caa9ad9c6cde68aab6a95877777c897974
col27:   878b37a8b9ca9bbc9bcb5b9688c959bacd99cd9b989a9aba86ed897aad9aaaa599bbc8476ac7887a
col28:   7b8a7a9d477babb879b9ac9aac8889bbea99ae9cd7abb7dba899bc7cc7b9ad8769baa9dbeb7ba5cb
col29:   9c8abb9896c868886a8a999a899dbbac7bbdece99dbcb9badc9aadfd8c9a5a86acbbca8697a7b9ab
col30:   77a8969cb97c9999bb9ada9657889a8c9a769bdb48bbacbdc9da9bcd9cbae98aca67d7a6ab7785a7
col31:   d8d9bb78c8a6cc6cba7abab9fe98cbce9eebddad9ccbcdac9e9eb8d8cacaca799ccceab8c9caba89
col32:   c9b9ab95acedccbec9ccaacc9f99bc99bd7fccd9988baaca9bcd9ca95abc7ada8798adb89996aa75
col33:   c7baacdbbdcb9a88acbbbb8cd9ca99bb97abd9cbb9bbbcc7bcbc7dcccdabb9cf8abbbaca8866a87c
col34:   abbbc9baaaa68b8b8db9cbdb79aad87bccbbbba7abfb9c8ac8e79e8dd8e9b8ac98aa9cd5959a8789
col35:   dacca88a96ab8ab6ccadc76babe9c9dfb6bb89a99cdacce9cbdfb59ebebabbdc9dcbdcaadababbca
col36:   bfbb9c97a9ba9ccbcdab8a8fca9fb7d9c8c9abd9fcba8dabba8bcbdccbcdebb7bc8899aaa9aa9477
col37:   b8ca87a899d9a88cba3a9fbcadaaeaefaddadcadc7c7acabeccaabdcdf9ecaddcc3bbc8ab9b99bc5
col38:   6bd9cf79adaccdbd997abaeacddbbceffddb8ccfccbbcadabac9bccfcbacecdbaacb9a9abb7abda8
col39:   bbb7ac6cdb9a8abda98edc99adb6accfb99accafcbdbbddeec8be9dccebfa8cfbcbb8cc788b9c7bc
col40:   ceddc799987aced7bbcc97d96abbabf9bbbdcccfbbba8bdf8baabcddddccafcfbe7a8a99ea99b585
col41:   a8ea9ddc6bdcddefbdb8aafafbb8cbdedeecfbeefedcbdabafefdcddef89b9debfcd7ac996dacaee
col42:   e99bf876a7d869bbbe898b78bb69da9c9c99bbdddd8aeadaa6f8bda8ccffccbd9bbba8a9bcfcbf76
col43:   adadcaeba9dbadc9d8c9cccdbdacdbfedcc99fe8b9bbfbcfadbbedbefeecfaedfea99da8dbbfbc7a
col44:   cdbc99b99dbdcacac9fceabaeefcbdcdbabebdddcbc8afeb97ebeddecbbbadccaae8eabd887aac97
col45:   acbad88dadcadcaba79c9eceac9bbddbeccceadaecffbfdefcaabe9ffebcecb8bd8a8d97f9ffd9aa
col46:   5dfcaabdc9989cdb9ccecadacd8da9ebacafeedcaedba9bfabaaadcabcbbacbcfbcbabfabab9fba8
col47:   9bcdd99edbdbe9adbc6cbcadcdcf9fdafededafd9aafedcdebd9eacadfdadeccafdfebbd9fa9cbba
col48:   b79acdec979abbe97d8ffcb9bbbbcfeabef9f8f9eaaedccfb7bbbadcbdcdccaabadb7acfba7bc97b
col49:   bcbfbfbc9b8cdccccc9bbafdddca9cecfcbfedefdccbffefadecccdbecc89bcbbdbd8a99baacbcba
col50:   eddc89ba9ceaacddbdebd8deb9ebb9b5cddfadceaddbdaadee9edbbbf99faabafccfcd87cacbba96
col51:   a879ad76a989b888877d98abaea997bc6dacba799a788cb8dbc6ca9aba9bdcbcab949ab795c9aada
ROC:	 BPix_BpO_SEC1_LYR4_LDR1F_MOD4_ROC11
col00:   776825b936496671753884c97c877965b8999657865837955454989889b863a6a676667177b56775
col01:   8b5847676364b474497999bb77aa6999a679967ee4b6abba8c39967ab689a9569976469a89ac7791
col02:   36997a579656768a8455ba85789aaada89bd566aa77ab618a755ab666a98aa5958968766b89c784a
col03:   777a969888989aa885879bca9aad6486caab89969a497865b9db988ad97b79598b56679ac68847a6
col04:   56737a8489945477a5a9846a66d678b6c9bb898398c887799b978b9a499965b978d9878866b839b8
col05:   bc777449777875a479655759c697a97846ea5e6b68886ac6b797197dad67958949487a5487758455
col06:   879547b64c6674b6a8686b177b939bc797a67b7ca988997aa88977a89568aa7ea3878966a9866585
col07:   861985685a9b86797d496bd9ba8b8c988988786c99c67a8a69b4b67abb6a68bb8689b9265a4ab8a5
col08:   5b4ada2b14a65888bb99adbdb7cbaa8cb84a7a96acc58b78c7a89917cb8aaba79b669a8b63b85685
col09:   49929a8696a48a8855e69a956c8627a5cbbbb8d986a85bba6b7a97486e5699797977877728c97695
col10:   7a769399879a8366a78884988b78aa566b87b78bdc879b79a86688888aa5b69ab889787996d27683
col11:   8778367894687b397c93989795a99bcdba9b958baaca977b9b6659c769866a779787948688bab176
col12:   1768659768b55627c8977aa98957c7897c8e78a48c9579da5a9648968cb66488cc68b985d4889866
col13:   556688c4a5848885858a796dcbc7ac9b957b8798beaabd3b65cd9ab859a8899a576c6b76a99ab979
col14:   5a597a7a598bbac7897869673dbda9bd588a7ba878adaa4a868b9698bb889984b829aa486559a764
col15:   9619769a755896c9957478bba5a5cd4bd799a6a868bb7ba5c89686978886b894b83b597b54147a82
col16:   788489947959978786587d786a9965c968a7b5aa4a8c89ab6ab98b798e48737887b97492bc968ab3
col17:   796687a777897589898b8b477798b9b5a978e8bbb75ab76d7877a778886b8978882a542299867a43
col18:   16578774c566578767a65874a976b489a7777978bbb95a4b9a7da8b77896883795635a8797956887
col19:   4a56597a7b6c87a9b96785878bbbdc56a7a7acb77b888587baa98aaec875e98b6747b96375433695
col20:   989b69b968455b69838c6667989a7d9ba76b9c9a7878b847988a69b9a84aacd8a648b597799937b6
col21:   1567885aa739a456788879b867b78e5ad8a7ac7a7d67dc4a86a87a7549aa45489b88d8975a786526
col22:   89a5367b478588759aa768ab99a9b9ba5a8b88ba9c969969b86aca853a5775a897989c7672e783c7
col23:   6a8939a6c74ccb689a5a7787a99b8bc976cd8a99a3988b8989c6c6926a9b6a6877e96379c9858967
col24:   ba7977477a6a79858669b856997b56ba77abb7979c7685c95acbc967c8997798759dbc84788987a1
col25:   a895bcbb774679b7b9862cdb659aacbb7d8b9c9abcbb9d9ae388bab59597a7a5bb8675c887398864
col26:   b99c9b9a987787d8add7dad9eb9ada99f9bb7ba8bac9eba789b69c99cc89aa6a8a87bc6a8997ba76
col27:   99b79db99ea487797bc9ad9bc6ca687c9fefc4969699bcba8d6da767bb99b67866a9975e3a9486a6
col28:   6d677898299d79adaa7b9b9bdd64aab7aadcbbaef9abaabba889ccddb5a9caad979a99799b49aa68
col29:   7a8a9e668e8c8bcbaa7aba8ad5acdecfdeb8adf8dbab96aaa9b7597b78b97b8fa99cc8986a89b998
col30:   96d8a8c9399897a95a6b8ecd9d7f7e9acc8abdc9acbd8dac9a5c999b978d9769c856bba9a7767b69
col31:   4acacb98edbabbc898bcdcde9cba8d8cce8ccb9abaccfeebbc8dceadccc97b9a7a8888b588aba87d
col32:   8aaabccb9a789ac8d99dc9ddaf9ccbe7d9cfdcbf99aacc97c8badcbd99fbaad8abaabeaabbb8dba9
col33:   9aa78d9baab9b5dcab886bb99bbfdfc5eabacbac998bbb6cb9f9bcadcfa78cfdc8b8d89758a57c85
col34:   93bdac75e6fa98cdf8c888db9ddccd9aceda9b8cabdc6dfcbeb9cadabbdcab9ed3adbc795c9667b9
col35:   c89dc8bb9aacb9b9aabbfca9c9becdd8fed9caecbedcebab9d9fab9edeaabdbb9ae9abb99baa8b87
col36:   7e8bb9baa8da8b7b7befc99aee69b9d97fcff8cc58fc8bfb8a9d7fcdfdbbb5d9cbb7c689bdb8ab7b
col37:   b98eeab7adac879dcd9ac7ecaecb9bf88fbabdbfbc9bbedbaadcce7bf9eba9ccc8ab9a7ba9c8ca99
col38:   99b7dea9ceae9aecbeeabcebc87cafdbdaab8acd9bcfffaefeebddb7c758dceaf6bcbac999d9abc4
col39:   7ab8f8aadc89d98a8ea7e9eddc9daecb99cadaaa9dbac9f8c7d99d96aac9bbcdd987a57ac98c58ea
col40:   98bacabdacbb9a78cf9b9aefbdbfaafeab9efdb9cbcfbcbced7bebdb7acacdacccc8aca56994a695
col41:   dba7dad9897ef9ac7dbccbadeebefefebefddecefecf8aeedeebfcbebfd696e89dc96bba77bb7aa6
col42:   ccae9bf9cc8bbb9bc87c8eabd9cedac7cd9ccdcbaaacdbbaf8ddcbc8ba9d8f896b7a9baaabc88b78
col43:   e7dadf9adde8f99ecaceadcae9e8ece6eeabbedeaf79ecdbe9caeef9bcddb9cb999cabbbb9dc9a89
col44:   bda89d8ace9ccaecd9d7dccfc8caebfbcafdefcacbfe8fae9cfa94badbcfc99788ccccbda8c79d89
col45:   cccdbb8c6b8a9bba7fcbbadaaf99f8cbdab9a9dcaccebe7cfbfddcaddc7baefcf87b9cb8c7a67ac7
col46:   6b7dbcaa7cbbccaa9bedb9fbdecdceebfcadec9dbbbea8acdcc68ded9cbbab4ccabbfa998ba9aa67
col47:   fbe999eba8bdffa9bddbbbabd9edbafdaaddbd9cd9cdbbd9cf89a79acccdbbb88dbbfaca9bfa8b99
col48:   96dcdba89bdcabe6efdbdecb9af99bb8eacfefacfebcbfafcedbca799dfe7abecbcc9cb99ea9da9b
col49:   8caded7b8ccda8deaafecbdcffa9bbcfdbcbcabddb9bdbbbebaedeab8ce8acdaaca8cac898cb7dba
col50:   c9ccbea99c9ebcda7feacca8afedf9cddfdfbdecadfffa9dec9fb8fbdebc9ac8f8aaab7fe8bad6c9
col51:   a9986a6daf9d89a98a97cbb9bae99a7ed6ec8aa8ab6c65cbd9b9ab9788b98b8ea8ea58a9b9689a95
ROC:	 BPix_BpO_SEC1_LYR4_LDR1F_MOD4_ROC12
col00:   3a657748c667584676968789678486a67489a99676b43688884685979796765a7867876654475744
col01:   663666766b6758a653478b7994ba9b8777aab98769a96a7c998cbb866979aa5a9577974a85b9a737
col02:   45365849a7888899a7a7a9c56a76879996969967688a87a9a787847459587766a5558b5426696b65
col03:   784658987b97999847798b79bcac9c89ba6a6b999c8888785a78688a557957786a8885a588724397
col04:   633b964985978868aaa57b89a688e7b987acbb779c9a77aa96779aba789a447a7645966938684b95
col05:   9a76454a787a57a5986887478a37a6c7986bb99b8a8787758678ba5a89a8797a86435765596a67a6
col06:   5578679989c7776899aa39c76a866588ca99689c78b777aac89866a8888ba7785594b367c5757745
col07:   475487994b5587a78979a89b86b37797a64d9c78886969939b9899aa87b6857679684a6a99667562
col08:   6833717367b576dca9677b66fc868a8996ba98a6577bac9c49738a67b6a983848985a74867275835
col09:   764589a9586a77959ad866686ca9d7ba96ba6b69c9878a6d69867a3888d9766a869a55678a447765
col10:   9874695a45ab467756684897867967ba79958999ab9c85b69876bb978a88a9898967788769965946
col11:   5996826a794a6a76586b488888b666b5ba77785486b888d69897a998867994896466236796766736
col12:   9a7a88a6598758b6b97955597a76a969997e79d9b96c7848a686e9b9758aa7b9568a277353585265
col13:   699968675586789cac678b77b5c89bbd86ab98b6a7a48c798b9988956964a7558c5b596543936656
col14:   7855897aa889579b6787998a699bbac58b4869c8997975a897899a68b8a79c997897765c74675565
col15:   867a6889744877797596979789b5aaaaa698978aa7867797c668b77849976d6987a673586b846486
col16:   67347ab97686aa74c74cb79747b6b698c698796b9b9798aa65a7c789baa878a8756b376775898a66
col17:   756689978955687c6a688bb77b76a65a88bb86a8a6cd5b578aa666676a768878747775a96a658574
col18:   89478928758c67a77a8ba9b99dab97b9bd96a98759799ba869b67a66ab89894ba58ba55a64745a75
col19:   8672549978864a679b787b76d99779867a789ca99688a888896b89899b98495a84a9777947956657
col20:   65567b35978997a6c76279a68b798aa8785a977bc55987576886c898879877388976877633491572
col21:   8675977b96ab769a886689877999c88a8ba8ba8649748a786977a7876b9777986a77b78878a89864
col22:   8925a9b8768797888764b8986875ab698a9a87d76ca9abc9a7c8576b8697b98a87a9785884967665
col23:   767696877498ab996846a6695a9cb89a7c9777777a76989b989537a6bbaaaa766898588776774543
col24:   59796886535698978b5577858d9a4aa9e9787b8a77ab77969ac77a37aac77a9a45a67667965aa549
col25:   8697964a798826798754896979ab7b97ab99b7b5a88b69a9b8a77a7a6994798663467369a6664866
col26:   86c88a59767739b9ba6ac96baab7b888f9dcabdb59a9ac9b88c9c9c79ba9aa88487579b858a8649a
col27:   879bc6978a699898a975c7869b9b8ab8ca9a79c7cb99c7aaa8c98a98c9a98ca7a77879789a888682
col28:   685b69a968974c69bbdaab7a7959aadc7caacaa8cc98cbbb9887aa988caa98999a8a678cac689737
col29:   999898a79a898b779c8a8ab6dca58a9cb7a5c96fcd9cacaf77acacab85b997aaaa99b6a777848956
col30:   79aca8a7d788b999b69dad9aaa69bab7768d8bbb99a9cc88d8bb7bbcad9ae6cac86da7b9387aa844
col31:   d6c89a89ba997b88ab8ba7caea89c99ae98dccbbbadbdd8eac8ad78b9c8dbc7ac7c8bacc77b68792
col32:   a68577bd7ad5b8797aacddccf6aad8ac8aaaada98acd78ab68ac9acbcb5897c7a99898baa9b78878
col33:   89b9cd8cc99499cb98a9fcabab79ccaaa7adbbbcda7caeb89caaa9de8cbeb9ca8c7eacab887b4a95
col34:   a5a8389a99cb6f8aaa69ac9eaacc89dddbb9bb8a8eaabb8cabaaa8ababda8aaa7a75a59988ab4aa4
col35:   aa7cbc7c99b8a8c97bc9ad9bab9bd6cebc88ccb8bd7eabbaba99bc9a9b7cac8b9b89a6774b6a7886
col36:   49b98b99b789bd98c9bbaaabdaacecaacbadca9ae9fddb8bc9caa89dbba89bd9ac67c7ad6a6c8874
col37:   88b7c979ac989a8aaccc6bddfbcc7bdbecbbdecbcbaaaa9dcbcd9ca8bfdab997c9b8e99889bc8989
col38:   a7c97dea6a989997c7bb8cbcacbadde9bd9cecedce9ccbcacbbbbbbc8dd8abaab9ba788b8baa9879
col39:   a84b98599d9d898ba9b7babaebf8bc8a9db7dfcabdfbbacdd8ba89bebcb9aab99cbcd978c99a9986
col40:   dc6b88999d9af7a9aa9bbcbaa88dccc9b689bcdaccf89bcbbbcadabecbcca9acdedabb97b98ac9cb
col41:   a9a8cbabcdca7ac9b9bbc99a7dbabbdbbdbadebcaafbdddedf69999dbc9bab8ac9bbd9a7ab8ea789
col42:   987ba89dcd99b9c99bde89d8adcceedccdcdadbeabccdaddebebade98e6bbecbbcbaec8f8a8aa9c7
col43:   88989c99ab8bbbabda8cb8bfaeccced8acafe9adcebe97bfcc9bcbaddc8ccbcca9bc87d8b8ab95a7
col44:   db899c9ad8cca7adad7998a97adeaca8cba8ddbfadabb9baadbedbcbd7abb6b8acabc99799c89b77
col45:   9c98d9c8ab9da995dea6e8ad89dbbc9ca9aeab9faacbbb8bca9bbaa8ba7c9dccc99978a7d9aa7779
col46:   bb8aa8ccc9babaccb8cdbabb9ca8babab9edbc9adbca7da9e98dacccac78ed8c8ba7898caba86aab
col47:   99ab9aa7a9b9b6baaaa6b9bdade9debdabbb9bb6d9bbbefaeeccabd9bd7b99baada9ea7bcb9ba9ac
col48:   99a875a8a99bbaac8d7c8acbc69bb768caebc9fb9ebb98bababbbdebba8e9db67a97c7b99abc9ab8
col49:   678c7b78b9a8997a9b89ca9b9cdabbfcbaca9cf9fdcad9b979ba9d8ca9b8c9fabdbbfb7a7baaaaf7
col50:   c888aa79c96ba696abaeeca9ad8da8cdbce7babb7bcbb8d79cbaeabaccfdcc88abeabaac7c9bdbb7
col51:   988b6989889bf6c9bba8699ca97ba98b86dca979a76aa88babab887acabb84888a97898677875758
ROC:	 BPix_BpO_SEC1_LYR4_LDR1F_MOD4_ROC13
col00:   6894745667254753864238483a7857a7a3776878599777876798d763467776a57277857767496856
col01:   19aa874965959a48586975a886857988779d6caea598ab46a87a4a97a57723b58c9785ba6855474a
col02:   7b759699b75b566957784649798c8578a69ad9ca4d966ccb554798395977776a7789879367897762
col03:   777839a996798897897a897a599b5b77ab996b79ab54ac96989bc777866a98738389859286295826
col04:   768a959976882987499957868b8aa77a974b98a599a5ad97c679bb9668bb99779a686587a8269755
col05:   4795369b4656a66466b1ba7783ea75baa68a697aa888db887988aa65d7737984599495858919664a
col06:   9558888583966ada9ab969653988ac9aca975d66b75bb99b98579586a68997b8c643478898354772
col07:   99986796a9886988b6b98b6a897aac9a64a659a8bc7999997bb968997a7a989489948b9b797a8759
col08:   656a78875459866a8867b756687b75ada8798a877ac9a7c998c857c77978b8789976478956886766
col09:   95677a5975567baaa279a68889899a9a9b77b26a9878b7a78c8b5779c5a7c955ac8b958567567246
col10:   69575d6b58888998996977a6aaba679cc699878da576a9aa7b6c97899a66566888a29a8778888757
col11:   b468ca868368e9898998a639c67c65bb878aca99d769ba998a6777956c979947666a65939aa59173
col12:   6895577c7a66aca9a6b938797ca8a9989cb6989bababa8888c86698d8c8877879988aa697747a357
col13:   69a28a5bc376c7b876ac58cb8caba89a8798a9a77aa9acc8a3988a987a69c787987a788867859869
col14:   a667ba478cc589879bd76999a69a5d8a67a77b87a8b969a78877da777895d999778869a726856667
col15:   86574a6686a989969bbca997c5cb9899d9679aaa87d9cab979c679aab89b6b6795969b4949537676
col16:   77785d959952596b868a774d6a99b879b8b94aa799897ba68e97a9b84aeac5685a86598739855a54
col17:   7766965779b648a5abb9d9b786798a68b9877bcbc6786bb8ab9acaa78cd779464a66c9745497a576
col18:   943796747749a9599baa5886b98bcb996979ac7aba8ad97777b79976c6c787957957995a67657882
col19:   769a96a99aa8878d676998a88969979999ba8a9a9e79adc6abebbbcc9bb7ad6866b887a586989865
col20:   9b976b95ca87a86b8bb89994a8c6c5a8a89abc896aa797788a9a876786ac67898c764b7989647467
col21:   9879a955b8894c7a99978a8a9ba87a677cc9aa95896bca556b98c9ca27c8b8788a67881978758636
col22:   a89a8596597659a7867d79b999b9b9a899d8579a9596b7a6ac9879b996a8a9977c79777575776676
col23:   449b7858776886979ac97aa88a88a6bb48cba7aad59abcfa687597978ab8b76b59a7885687577557
col24:   9a87798897c886747aba88a98ba86a6a785a79ab896b7c8b89a99998daccbabaa88c584469856858
col25:   6b97aa888a878a6b5886879cdb98a8b8ec6b89c8cdda79ea8b7c9aaadba868b79adaa815b4854697
col26:   599ba899989babab88aaab97c5aabcdc6dc79c98baaab99babd97cdbccdacb9b97be6a7687a6b446
col27:   964a9bbb7adba79b68bb8a3bb89c7a9c7bc9b898aac7eb66de78d8fcbb9d77879a799a5799979aa7
col28:   abaaaaaec9998abbabab9cc88b9d9f8b9abcccba9cebac89dada9bbba6baaaabaa98b6897ac7a296
col29:   68abb698a98abbdcbac889aba89ab899c9afbbbcbabbca9babbe99bcbc9bc9b5baa9b9b8987ba88b
col30:   8baaa998b589bac9becb7faafbb9a89cbb7add8cad9ba9999adaca8c99bccbba7bb5889ac9b96b57
col31:   578c98ab8b9ccc86cefcb8dcddbba8cadbccbbdcabe88dbadb9f8cfadcbaa9cb8ca9b78abebaab99
col32:   aaeba9bdeb689b9dabc89edd5ab9ab8caaddbcf9cac9b8bc9bfbd98f8b68abdcbca59b8abaa8ccc6
col33:   9ee8aacbdcdacdab8bbddfdcbcbafd99aaaadebbcdaccbcbbd8d9edecfdace9acaadd677ac97aa89
col34:   bbc8c86c9aacb9bccb9acbaaa9cbbcdfb9e8beedfcbbdbdacaab6ebadbaa9cdbaaae9cb889ac9887
col35:   ab99a6b8cabad997ddbdca9dcaefcaeaebebc9cfafeccceb9fcff9aace7ecedaaab79ba7886a9a97
col36:   dbc9dbabaccbcfbaaba87bcdbcaabbdedacebeca9faca9bddfecdabbcdc9c97a9bca6acb899787af
col37:   cd96a7a79d9dbccdcb9eeccdabcbbcdfbdaddbebbebbbecbfadcaaebeccade99ab8ba8bb8a99b978
col38:   cbcba9bd9cdca9abbbbcfacdc8eeaaefebcf7edbffdecaedcddcdbb9cccfdbb9eaa59bac9b99c559
col39:   bbbcc7ea589bcfbbccdbc8ab97bbecffdcaddcaadefafbccfaac9cbac8c7bfcbcabaa8abba9bae85
col40:   c99bbaadde8dd9daae8eb8bbf9e9ebbc9fcfcdadecfebbbbacefebcdfafdbbe9dbc79d98b8c888aa
col41:   8ecea8cb99bcaedcadbc9decc9c8dcdcdcc8fac7aabbddfedbdaccceaffbbfeeccaafabb9cd88d9a
col42:   caaabdbbafddcb8bbcc98ce9bbcdecec98cdadcdcce7ec9dfdcebbfcaadccfbc9fcb9cabc7da8bc5
col43:   ccaddb68cbadbebbedcfdecfa99ddeffcde9cdafcffecafcebfeaedebdeadefc9cabcbcbaaadc699
col44:   cbdaababc9bcba99bdaeaadddcb6edfdddc9d9bcedbecafebe9dfbad8cccbedbbb9ca9b7acc6c878
col45:   ab9dd9accfcdac77dbade9efbbddcbad9facee9dcffddcfcfcadbe9dcbcfecebdb5c9ecaaa76ba99
col46:   a8eeceadcde9dcdbbacbcbbcdcbbeecffefcffdacccbbecd9faddbdcbad9afabbca9bdb9c9aac685
col47:   cab6a9bdfb9aabf9eaedcdbffccdeffeddadbdedc8fdfc9dd8ffbbbfdaccaacaa9aea9a8cb98d989
col48:   bcb7c9dcccdedaa9b6d9aabdaddfeeecafbdddc8abbddedcfbed97fbbacdcbebdc9d8aa79bbbcc97
col49:   d9b6feddbbdcea99eedbabbdfbbc9df8efbbbfcdacebcdddfefdaaebefeddcecaabcbdbdbad67bb7
col50:   beaebf9bddaaebcfadaedaceaeedcffcdcdddf8bccdbcebd9dbbcdfdddfebeeddca9ac8bbcbaa8ac
col51:   b99bba998c9ab9b7d898ae97eaaae9aca9bddeab9cbaccecfccc6a9a7c6fdcdbc8ac7aaa89ba78a6
ROC:	 BPix_BpO_SEC1_LYR4_LDR1F_MOD4_ROC14
col00:   7682594569a869869b7a7667b99899b5a6b7b9996d97acd42bc8688b66cd666d2737214655674253
col01:   978947788b9b959c7a97aabbb7c786e88dbcbe99785b69a9aab7bb874a868886babb7a7854977767
col02:   59495c7aa978a97e4d5684a7b88c96779c9c89cbdc8aaba6788c998775a3876b666c6518839a6a75
col03:   5c987a4789bc898ba8cb9b688ba8f7b8bae76b7c7b6ba9ca5a69ac379c89b7ab695a1b6c6a778973
col04:   9969da978bac8d8ac37a9ba96bd69c8786acdccaaba88cbc68798868f8a8a9ccd54768648a4c8b85
col05:   594aa79c4788788c6ac829a96765a6fc3da79aab7b9c5bb9c6a68bda66abca9758aa76b774575578
col06:   55c9766ba9489fa67986b799aa883cc6bb97c9bd889cdc987684aa88a997b8457995783656787783
col07:   6876196678bc84976a7999a97da68babba7ca9746a9bc7a489b98b9a7756b8cbb9aa88b8a8b5754a
col08:   256567649b576c865b97aa9869c8995aa78b5a98abada6ac67bb7a838bbbd8b9499b96a79678a432
col09:   b97699a995997daa6597ebaccaaba7ad7c9c98eaaa6d79bb9a8bc5bcc8b588c9a9899a57b6aa5791
col10:   6aa8cc4526885686999697d89568bda9ec998b46875ba6987da869e778c759b7cb5c9bcc8a975438
col11:   66c62b49999898786aa977a98c967b79a5fe699a69a9bbc9aba4677a688aba9877966879b6366353
col12:   8388954493a768758b57886a7a8cbc89a87bf79a79a89c79ba97a8bc97aa881c366bb5b9ba974781
col13:   878169975c8b5a988c9a6baa897ca889dada9d88a995bc98d779aaeb9b67978a8b4988a8e6777a84
col14:   66974895697c8888ad98c8ca9898ab89979ac86c89cd7b7f7b7da9d99b73c9d4ba768b8b76875467
col15:   189558887b98b7cbabb6c78667987b99ca8c68adcd7c9988a8e8b8bc49c7aaaa763879a5888bb849
col16:   79b89b98b46ac8958c7a5ab8babbb8bba7a9878a98c9cc8999b9957fabba7eaa9a5c888469455993
col17:   884c95879a6a8a89479b879c96888778cb9aa9c99b4c959bc8477b78d79cc7ba675864c6b5657b55
col18:   4a66a813bcab7c6a8a89b8bd98e959889a66ac9cce9a93bcaba898aab86889947b7a5b3989996854
col19:   76a9b5cbe8cb97b877b6aad9869d49bdaa77bbcc89d9aab99e9a8a8ab9588aa79888986938672756
col20:   a7659aa36b6565a694865899bb9d57d8aa7a9557ccba589596a397a4aeab8b898688ae4585c5a785
col21:   6579998b79e7887b9c3a5bd79b9d6887da97689d5bcc7d997c7b9997a9acb9f8a8849866a97b7b74
col22:   a9ab8798887a845898a589bb677b7b8c99587558888ca7949788aaba9ceb345e87c9668866657598
col23:   751a764a7a69b66a79599a998a99898dbbbd6a8a897dbbbc77ac8cc89aaab8a76756969a7c567689
col24:   44b84673678a9686479b988aa8cc9a9978b65796a7a997d769cb8a7bb89a7bb998673a2359a967a6
col25:   5766498788b34a5b7c95abcc67fbc89fc5cb988a9988a97998ca9dcb998eb8efab795b4986995b96
col26:   c9c7d9c98b578a87abbae7eddb9edd8aeebcda9cad3bcbd7a8ccfdcac9baa8967cebc85d96757889
col27:   d699b68a99aac6b88879bc94be9cebd9cd8cd97daa97cdace988cecc9cca9b867a9696887dbc49d5
col28:   9a4c699cb5898b89adb8a9ab6dacc89acdbac87dbacbdcb8acbb96baabcf6d8a9f9ba699e998af98
col29:   a88269b9b97ccc86c89ebec5bbcadece9eac688bddefdb8ddb9d6c78c7e5b78a98d9aa8aac675d86
col30:   fc99896767dbb4abbdabccfeded9bafc999bcccabda8ac79cb9bfd9bafd899ed6bc9ac7879c79c66
col31:   958a7958ce89e8fdec7bebaaf6a9cadbffbdeebf97dabcfafd8fdbbcdbdad8dbb87d7a8f7aa9aba9
col32:   97baa98ccb8aaba7cdeb87dfbcbb8accdfcabbe96cfdfebec9bdbacfca6b8c889b9da8cd879d9aaa
col33:   a7aebdcaa6d88bdcdd8bbd8cdbfbbbc97ebf8cbfabddcffbbec9fffcccadbbbda9cba558b7cc7997
col34:   cc9dedc7f7699dbadbabefece9dabf89f9fedacbbd8be8eccbdbc78ebdbab6eacbb999c947df9675
col35:   aba7aba67ce7cba8d8fb8cfcabcdcfedfcf6be9beaeecedccfb9cd9cb8cdddbd8a9aa8869adcdfaa
col36:   cb897ade89b9ecaab9c9dab9dad7eecdcabf9bc99fbcc8cbdfab8beccb8cbaf9fcdcbb9c5a89b999
col37:   cec8bcaabbac89999ace9ecb9fbb7abc8ec7acbbbfbdad8bddbec8ffcd9cbcb89dcdbfaac9bfeb9c
col38:   acd79aa7bbaccbbccfdeafbcefcacfffdfeefbdbdcbccedccca9dbef9facfbc8f7cbcd7dcb6acca3
col39:   bc8bdabb6698abebdde9cecdeebbbdcddccbbccadbdbcdfddefcbdfdfcbbdc799deaebc4ad97a799
col40:   d9afcb9efb9aaedcffcd97bacdecfdfdecdbcfcccbebbdfff9cdbfc9dbeccaebbbcb9c8a7879dc87
col41:   da8a7888acca999fc9bdffccebbcfebdfaefefdccbfcfcbcdfeeccccd9abadeaabdcabfadad999d8
col42:   d9c98c8d9aabdbbdaa9bbdaffa9bf9cc8cdccc8beafabdaaccfbafcffd9bcdba7bbbda9ec94aa9ca
col43:   cb8ddcfbc899bbcbdadbdfadbf8deeadf8ffcfe8fdafefed9fdafead9fa9fcaee9ad8efb9beaaddb
col44:   9abe9bb7baaed9c9efdbdbeebd8ffd9cfcfdffeccc8afbff7bfdbd8cddcbcbcebb88bbe7d9bba9ca
col45:   a79d7dd9ba8ecfbaacccacdefebfffbecddeffbfbfafeddbfefbfddbfccfbaeecbabcd9cacbed8a9
col46:   ccf7a89ddbc8f9b8a9fbcbebaf8f9bfbecebb8affbacdddfd8cdcd9fedcdbcce7e9acb88ac77a8b7
col47:   9dcdcbcc7eaacaadbefbc9b9ecefc9abca7dbfb89cedcaafcbbffefdfcfeaacacfe9c69caab8d9aa
col48:   b57caabbdd99beebad8deffb9febce9fdcfdc6cefafbcd8ec89ccdeeeddebcea6b9c6edabcaedaab
col49:   ebcfbbccc9d9debf88d7bdebcefce8dfedfaa9eeefcbdcadf9cb9ecc5c9abdcaddbf699fadde99b7
col50:   8a99eaddd97ccb8e9dddaacadeeddecfa6fceab8beddffebbcaeffedeffceea89b9879fd87b99998
col51:   98aac7db9bd7a99cadcaddc89a8accfe8bb8ead9c8af96dbdb9abb99cc9bac6888976abaaa788878
ROC:	 BPix_BpO_SEC1_LYR4_LDR1F_MOD4_ROC15
col00:   57457536878794376646767545377686886787489925577568884974844584774c76745636941363
col01:   78784664744867a939746a9a977a897a8a896cb846997a2b8578bb896a69887459878796a5838565
col02:   547987b85538776498789468ba587878898aac989647766952b875a9889b789b679878398b467c64
col03:   865655a6c7588774b86529b87a8537987975a8a9698485669789974746a9a9985726697654b56878
col04:   49377857aa9b54b6aa778875546688b9b87aa8874998b664687aa9368c955997958379a555155785
col05:   6348867586466229949867968be728a77a95876a6a9b8a59b7567d6968979a633b835a9557778477
col06:   88639865265666976677c7b7998769a897677a687bb85864a9986958b65c8c527579995473665376
col07:   98667985543a67c97798cac8983aaaa9b5b8897987baaa8b8979c7986ba88b58886467668554a484
col08:   2879a79868376696575b6798cca96c5a5ab7554789865899a7b897ae79677889778785a6a3565944
col09:   97989657587898395739c7d84bac97ab77999a79a8a6698b7a798b975889986856648877765668a5
col10:   a63b8a75167da796958756878a477a868a77678a9ba649b9976999a57a865a3b9496326968864a66
col11:   89678a987989a779989ab7a7b57a8667a698878aa849aab975897787ba99b89986a5995a84787857
col12:   79959a686a4a54999a8b5a67856bc87757ab997a9769aa997d6748999c7a987c9599969a547a5856
col13:   aa7647736a6a779636897a999b6769a949877aa79a77455a78aa88a894956caaa887653797763266
col14:   7798b7877b9885986799c749897b9885a7aa6ababa98aa5c7bda68792ce775a669a776a877584677
col15:   98875a887976988c6677a89966bb9a688a9c49b8bb797d737ca69a8976a7ba88788689a4a7a74573
col16:   96b78997599a96897ab8b868a8a7a75a8a767b9a6b898a798767c7c9caa8798827846563845567b6
col17:   94a78768898975c8879777976898ca887c6a87a8ab7a89989aaa5c89596ab8565a99a49587564426
col18:   679aa5aa467469b95b8e96a8c79b8a77a8899a68b7b875799a774897786a66a9854488945868b845
col19:   77897977b777697578a94a5a7aba8ba99ac567da99adb68cb6796b69b897aaaa7998978686669a55
col20:   9574758aa6975378776c68b9977998aaaa76ba79adcb976b4a4a89a48884ebaa7b9aa536a9857888
col21:   a8a998688ba649699a9b7544c88a6bc8d78b87c67b5ac99a8c6a99799a8a8a899577ba9989a67876
col22:   5b3a9559774ba93a8ba965979b75bb7c8d9b9cca8a899897da67ab6cb9888859a967b93988693785
col23:   7889a5654577997a5896a48aa667c9a5b9898978987a887bd9a6688868a875c36889c77957a58986
col24:   aa58a897b95b9899785a775ab99bb976c99abb9b978ad97bb77786aa9878758a6b8468a997669a15
col25:   c34586aa98daa79ca89bbcaa9a78988679baa9addbf77c7e8bb8bdcbaa7a8aa9a968787d764a5856
col26:   a8a3878bba7989a99689baa9cdba78cacdaabbcac97a8abd968bddead689b897bb9c8c47a67aaa85
col27:   898a7b786aaa989acbca8c9b7a9aaabdb7bacfab8aabcbca9b9ccdbb9bc7aa8aba888bb7786bb867
col28:   488c6bbb87b879978a86b897bba99c77baccda79dcae8bbeb8cc9cabba797caab89adce76abb5978
col29:   9dbc99b8a9a79abae98ae8c9bbbbbadfc9ff7ececadb7baabbbbccbe9aafaaacc6aeaa8bca75896d
col30:   89cc8bbca7a69a9cabaae96a9cabc8ab98a9d7daafb7cfda7bcd7b9bcbabab9aa67d6c5ac49cb9a8
col31:   8dbcb89caaaacee89c7c9fbc7ac8fdec7bdabbdccce8dba6edccd9b8cab5b9a6aa89b9c7cbaab6a8
col32:   9a8daacdfbac8acaccd8c79bcca9de9bbf5adfaac9ab7efecc8afbadbbcac8aaaa9bcada8c79796c
col33:   c88a999ba88cd9b99adf9ccaafccdda99aea8be8c9bb9caaad9badbae9babaa7cb9b4bbd6a998b9a
col34:   c6999aaa998f898eba9ad8ca97acab9c8d9baff9ddddddcdbfcd5cbdc9abcaacccbea99bcdc7ca97
col35:   acb98aabccbb9cbddbcbdbaeb9badefcfcbcaaacfefc9edbcdddd8a8e9adcbcddc89bc9b8dd8afc7
col36:   a898bba9cfa99abbacc99daeecababbfce9aeeedbdbbb9fadfb9cfbcdddaebccbadbbab8896cb9a8
col37:   be9bc6cb98dabdbabc8deaabddbebaeaae9defac98cbadabfedb9efffdb7accdcbabbdc9bbce89b9
col38:   cabbaccbccaccbdafdccacaddbaddcbdbacd9eedaebcdddcdccccb8cbfecefaa9b899cbcdaac97aa
col39:   bc99d5ecaa9cdbcbcebbaeaddabd9ac9ebdfabaeeafecabaadfbefdc9aebbabbbaabcbd9cac7cbb8
col40:   dca9bcaa7c8cba8dbca9da9acddaccddecfecabddccdbdffeac9acdaebedbcecdbccdbbc9b6bbad9
col41:   da88ccaccddbabb97bbcdd8efadcaceeefdefbfaaebdd8ffcad8bdcfeaddba8afccab9aaf9cacda7
col42:   cbdbdcbaca7a9dabb8bc9affccccdfcd9dbbcc9aecacdbfadcedb8abfdcbbc9dcad7b7bcc9c79cbb
col43:   dafbfbbbeedccdedbebcdcabcfdacfddedfdceeaeedadfebcb9dcdd9ffdcaecbedafe5afcbbbdbfc
col44:   bcfbbcbb7cccddacffdedbbbe9bcbbae9bbcafebfddcbdeddbbdadef9bf9aeafcdbee8ebbc8deabd
col45:   9caaeaeedecbdbbbf6dcd7cebceedcdcceedbcddfdbccfbc9dbab8dab9bbeadd9ac9fcca9fb6a85a
col46:   8accdbbdcdc99ea9ccc8cbccfdfedcd9dfccdbacfcddeeaeefcea9abebec8bdccbbaca8d98cb88ba
col47:   bdbedbccddddbbfdaddddacfefcbdefecfccafdfbdfbcaacdfcae9cddffd8edcefcf9aaedbe9bcad
col48:   bc9aabfbcccf97acacdebbe8cfbfeceadbcbccfbfdfffbecfebb9adbfedccecaaedbcb9cb7acafad
col49:   ecabdffd9daedfbbadcdccdfe9edfcdaebddffbdebdfeecedbbcebcaf8adc9cbacdaecdcfdabfd9b
col50:   cecdcbeedbeddccdccebfbacbaeecccecdbcceadfffebcfbfecfbcb9bbdbaadccbcdacdbcba9acdc
col51:   adaaa9cdf97aabbeb9888e7cd5babdacadddcafc9bbcbabbdf7aeb9aee98da8b9d9c79c98dbbedbd
