ROC:	 BPix_BpI_SEC4_LYR2_LDR7F_MOD1_ROC0
col00:   544767466383746748597959854975975a556365978a57a8876a7493737745467856657638542521
col01:   53b355883838766867596aa959766638a78bb7976956888897a69a9c569686688857579298365376
col02:   335839ba577958664966a6457678aac9554a9c885898366767878866d78d66888864568746565432
col03:   5568477688277227a828c7a77a85559cdb7798a9a9a7786898b765b98597a4577966647544559527
col04:   826545b9855879a7364968958b99aac9a5dc8bba778c866a678c65a566b896778a37439663361755
col05:   6645668759a57878697559856796879867766a6a76c788539a8588a979aa6895a656883656651442
col06:   745634415a9499858a6d8758897946a698a87b888457b996589a86696969676a9678579284253641
col07:   bb939a639bba77a784968b89894867577c5a89a8abbb785cab49a7bbb69397967b55a8666669b588
col08:   7676865677369656a68879788966a8a797b779a88a6a9cba88c99939937a5b744777798669739865
col09:   64657495957689b7a65a86448884ab98778ac7b96876ccb8c99894659696765a86599b766954a662
col10:   4767679749866b76568a9871aa9897999b8795999a597a68588a795957e568669393986795256854
col11:   78455a468578678567b88b86b676d8b97779b98a89786847789896668c587b99685a8b6686a54793
col12:   676367677368746649999b3a866688aa9a5a789889568976486b5877c988a5965546a7548436768a
col13:   76875a7b999699a58a958987686ab85a99ab775a9a9a6946687b6a9994977d866678586467744654
col14:   9667a4769a4685aa367877ab689a76a98a8baa77a9a68e67a488587bb7b659767487757898575832
col15:   a788876495a9c976a579576a8776a959b9d74aa94b688a98b9485985b99568969467a7977466b445
col16:   6a58563867739948998bab7b8a9959a9a987b86a987179baa79968569ab7888766996a68699a7688
col17:   63668976878a5649a67a697b9bb9c898a48848978698b89aa2a945687878a7679552654736654471
col18:   7555574b6788857379988778788599aa658697798a6798ac87a6786a879d88488888567553486545
col19:   55746576788ab64b688888adaa99aac98b7999ba898b9a98879688a7da9d66b9a58776479bb56565
col20:   66674366777a8a88777896ba798867a98589a798658a88ab7b937a4d7987d6aa9676868a85745765
col21:   75968637866c869c78599b8566acac799797978777a9cc49769a789879899a999857896388388771
col22:   48777948775688379a8777a6793a8c999a9989b98aa6a79bda97a8b68a686986687a17633257a423
col23:   6688557839768ab89b893c9949679aa99a99979c5766979998b8aa966bd8a677a9588a8675655442
col24:   a576568778ba877b59db7a89aba7bc6a79a7a8c9889baa8796c8b8bb576367795957748597765676
col25:   7668856b9b93867998a787a69a7c889dba5b9e9a9978c97849aa8b97bcbb96899b887954a6875993
col26:   689888a8abc86badb9abcc9b9adb8aaabadaadbe9779dba979b9a88868b8ab8af9bb96658a7b8978
col27:   95789699896998aa9b59a8989fa99babe6b8ccb99acc89bbabd99a78ceeabd9a487c488bc7487777
col28:   998877a7caa8b898e9accacbadd96bdbcb9caacccb9b9cbb8bbbbc7cbcae9879bac9aac87a979768
col29:   79a9b6a789da9cb8697a9aacbcd9c9bfaa8accaba99ac99ddbaaafaabcbcac9e8779aa94baaa8c84
col30:   997777b7a69bb98bb9b78c89b879dbe9ea8cb8abdcbbcbbcabadbcabb8acdd6a8b99b8ba94896ba8
col31:   6b99eba7c89bb9a998bb8d79fdddcce8bfdbac9b6d9dbb98dadcaa88bb8bbc98a678b9a6bac8c698
col32:   5986bcaccb97bab79bbbbb9aadacaaacaacac9ac9dcdab8a8bec8be9ebe87aba999b9abbd9b87795
col33:   8a957c6a9a8db798acab8dbfc9baaa9bcdbbcdbc9d6b9bca9e8de8aadadcc99d8897af97ce8798a6
col34:   cbc96d999ad6d8489bca9adccba8afdbe9abd8dbadcadc8cd9dcca9bbbc6ac9d9a88a8b8c9b99b57
col35:   898ca8eeb9bcbcab9c89bebbcbbbcdddddc8cdb9e8aacfb88cdbb9abcbc89e8b9cbaab6baa97aaa7
col36:   96aa8a9bbb7fcba9abcba9aa9c7f9aa9eabc999bebdaadc7acdcabdccbebb89acbb98ba99aba6566
col37:   abb8cabddbc8a69acbc89b7ceab9bbccccdcdc99ccc8ccdbdabfab9bccbbacbdcbb57bcacbb89659
col38:   bbdc8aa9a99ccd9c9b7baaaca9cb9da99becacebd9bc89bdbfd9dcacddcaabebad9caea979b8d888
col39:   9b7b99bcaccab9bacab8ab9abbabcaddfaebfdcfaaddabacbeec8cdbbbebbd6bcbbaaccb98a6baa9
col40:   bcbcbb79aab99dbabcbabadccccfcabfebbbcfebcdacbf9bcbcbfbcbddadadcbbeeb89ca9b69c85b
col41:   9a79899babcbdccacecfd9ccccc8adceaafbbadecfdacfdbe79dbaabcadbeddcdfa89ab9b9c8bc89
col42:   ad9cbabdb7b9afabcacccccbdaa9ccddbcebecdc9edbdfccfbdaccae9c9daaad7e9a889bb9b987ab
col43:   98dccddbbb5abdcbcdcacbdbcbdeddabbcceeeeaeecebbfcceccccdcfbfacdbbecffbacbbaaabbb9
col44:   acaa8ccdabde989eccbdcacbceaedbedceeabceadfdcebcbaefcfbbecbbedadf8bbb9dabb869a87b
col45:   bafcad8ababacaabcaedcfacdcadc9cceadeedccabfcccdaebcabccbbdcd98abd9aabc796c8bde5b
col46:   8799dccc8adbbcdffcc8c9bdd9ddea9cceeebf8dfdcd9ccbbdefcdc9aedcaaeedd9e8ca988968879
col47:   9b6ac79aeadbbbacfaefcdcbceaede99edecddbffeadbdee98bcd9da9bcc69ed9bedeb9aaacae8bb
col48:   adaaacbfacab8ccd8ab8f99fad9caabcfbb7bddcddabddeeffcbdfdcfedadabcfaa9adccc7ba97c2
col49:   db6dabd9badecdc9bbdddefcdcdafcdeccbbcefbddedecd8fddecbdaeeacdafaabac86cbaeaaab8a
col50:   9bcccdf9dd97b8bca8adccbdddcedbef9bbe8bdeaeccfcacadcbcadeccacbbfbd9f9bdb7eca9ac9c
col51:   b76a95ac87baaab7a9cd86989c7baabc99cc9b9becababbbbdabfb7ab99aca7bc88eab999a8c9bc7
ROC:	 BPix_BpI_SEC4_LYR2_LDR7F_MOD1_ROC1
col00:   35226515757346348537849467656546886636683688681874386775748866455456426552454624
col01:   54577664549335a895483546748c8c8627858ba76699765bc9662947788b97a6667877a9579c4865
col02:   6766479859a76684644885687786a5656c8897967665656698869543674795488884984482755957
col03:   36136462657574ba677686528b6577774646863687998a85688aa896756664658778757855767562
col04:   17615276998c7a7887967933b87787678a4aa77647789cca755a877479568c9aa76346769374a663
col05:   446665827798657745aa9658998a6697a8659457835aa86757165666536786756a68988797555633
col06:   735356758775865368b958a8689696279b6685a586594665c888967696888c547765675777733455
col07:   664494675575966799496578947678997a7c98c49a75a7b59aa6636578876959878696787657867a
col08:   2666686a8769954c7859837a6465377c5882886497b779444656a775656a9ab744a77a7585773762
col09:   8567644b97c87993785e78765675654755a8968859a68868aaa9846785a768478674b6c426676685
col10:   237c6656967a827577b79b996666d9674b8598a99764976b977ab78a67759566786598a695998765
col11:   843436555767486aa6876a94bc984689879a99a6696858a688a89679698499ca84689859a7776774
col12:   3766864587678846a9b77897a57a75b989798cb5ba99a8b7a75cc74988c87875a76a76755866a585
col13:   866867259a5aa56558558b86747a9947a749c98a9697aa858a86a897c969969a9b6773b7a5867a96
col14:   5263668a876576789857ba968987a6948a7887a6bab59a5598c6998a97679a89a8958897a6a85597
col15:   454785787a668778677466479799abb9bbb9c668868758c47877bb82886a67b87775768587578543
col16:   6256666377887a86655887a9a67967878b786597a679588b67b78ab75b565a948567a68546847387
col17:   655357757966685678699769585979a758c8999975b86756957879b5a6a69677878677aa67985476
col18:   525a86789868566ab899a6669a779895ca97d77997698ac7574899989294a589b767269764aa6844
col19:   66795767987b859773a486657b7a75d88aa9eda9ba68789b78978b885aab87865a7877689b987876
col20:   357747a876a57964949998a7a77a9c799999aaaba789b1777878896b47a8dc9baa9ab742a6794384
col21:   746856457b95866938a84b65b9c9c7579a6698b69866994888a9a88597687899887838a497964673
col22:   336643744589a896969a787bb888a7458776886ab358ba87b777677c97b66996988a996977768576
col23:   94a365aa6584a398a8b677968c95c97c88a9995bbcc7467ab99668a58967679aa58776b8977a5957
col24:   69598884569a6177689978aa86b6a858879b7478a86b8664596b68a676da8b748699896577659386
col25:   66677767a66b8b57a7b5a796a879a6a7a7787a88865bc57768a89899a9abcbb87da9a9a8988aa774
col26:   79478798ca88aba5b6aaa9dbcc87c98cc6a6b8769d9caa6997cc798ac999889aaacdb8badaa9a6a9
col27:   787bf6977967b799b8b9ac68aa97b8b9cb988cbbac99aa8bab8988bba8987da964da9ba879a8aca5
col28:   568469989aadb9bab9baaccba9cabeab998c7a89e7bb87a7c9cbdc9e8c87caeba7a8d6aaaab86bb5
col29:   a864c9a8a9c8989985c99cc8abbcecbb99ccaade9cccbb8aada8dbad8ebbb8b87d9b96acb8b988d8
col30:   7888a778a87799a9968b98cc956b7b7cabacd9e7ebcbbbbca898dbca79bbaceac9b8c8a79cb9b5bb
col31:   6bb9d967baac8da99aaabbbb9b77aafafaecd9dba7c9bb879bbabda9ca9a6bdaada9ba8abb98abca
col32:   7baeaa5a977beceab9dabeabdfcdcbcd8dc9edb9c9cbdcb9aa8ccc8bc9bbccbbacc8c8a9bc8e6ba9
col33:   7b89baaa9b8768a6dd98bebc9aa88cd9f9bbabaa8c99ca98decdeaeaccbc89aababbbbbabcba8baa
col34:   bc7977a9c898dbb8ccaaf9cdcdbbcddac999bdabfbbbabb5babacabe9cbcd9dadcb9c8bbda999ca9
col35:   ad739aeabc8abc6db8aa88a9a8caab7dbaa8cde9d88dcaaabbe7ccba9bcaaaba9e8bbdba5bc88da7
col36:   a78b979cab85abaeb9caab9ade86bac9caebeaaaaac8cb9dc9c8dacafafbbcfbd8ebbaac9a9acaca
col37:   8c9ba9cc8b99ccd9cccddbbcbacadaebaacef8f8eceaa87d9bacabcbdbaacad8bbbfcbcccaccab9d
col38:   9bba99cbbbd9bd99cabcecbdbfccedbcdbabcab9acbabbcdbbcbc7cedbdbfedaceeecdabb9a7aaca
col39:   68999bc988b9d9aaab9dabacda97c9fbc8fbfec9ddad9c8cd9bcbccbbac9c8dbbcbcdbdcebacbaac
col40:   8799d8c9b9bfe9bda97cac9ab99bfdcbefb8fbe9beff999aaada99eac9eccbcfd8c7ebbcdaaddbb8
col41:   9a96ccaca9cadbda9caeebbfcdccdde9dccb98c99fcb99b9ea99bfdadbd9cdccccccfeb8d8bcacdb
col42:   9bda8ccbb8bbbcbb6dabaabec8abdc9abcdcfd7bccfbff9bba799dacbc9aaeb9aaab99bcdbd68bda
col43:   7bb7f9deadeaeabcc8dcbbfedfaabaecfceccdadbadcabcddbcdbd9d9bd9ba9bdfcdaecdabacaaa7
col44:   69dbba9bed8b9ccbcdcbfbcfccecfdbdbe9dbdde8dbcedadabb7caad89fdddbdcbdbcabad7dbedcd
col45:   b68cc6abbba8e9cbebbbdacd9d8dddcfabeafdeebba9cabbabbdb8baaadbccaadbeabacbabbd9bc9
col46:   abbca9ddecc98bb8ddef8dbbf8e69fc9cd8e9bdbdebaa9ccffeba9ce9cbcdc9eeadacdbbdbcd9ecc
col47:   ca9dcd7addca9bd9bfdfdaacebeadcdccdedabdfaecabdacaeedc7b7bbcddbacbcdcbd8cc9cdbfb8
col48:   a89bcafa9abdacc7ddbbfcbcddeeddecdbabbcfdbdeceeddbfffe8d9bbbbe9daaedcc9adbddbfcca
col49:   7db9dfc9dfa9cbdccdcdbcbd7cdfcefeacceddedccccecabebcbcfacadeddfbcb8ccefcecebbdfc9
col50:   ca7aed9bebdbcecbd9aebaefeded8b9cdcdbcda9edcbdcaddeccfdbbecedccb9cddb9dacabcdd8c9
col51:   a5974b8a99bbbb6a879a9c6b8ba8daabccabdfd7ca9afbb999ecd8acbc7ad9b8c8d89cbb9a989a67
ROC:	 BPix_BpI_SEC4_LYR2_LDR7F_MOD1_ROC2
col00:   5b57318457575462245886b747a6a859944771756773579464959857626665a8771188a1385a4763
col01:   676889a848a8368868b6875aa8477488869689547b9686986764674a89c46457b977a9a97a456627
col02:   4444b5875a9b779713358898a6638897987576898877676a5c389697ab7c76b748899b3497845653
col03:   635748873957a784b8e53997958ad4799a65858dabc77889c9b864b949987898ab876a57b2889485
col04:   767517545aa8947b67953b4388696798a77c9c96b37a97a4596ab6aa8bb94a38765cb95585666464
col05:   6776b85644498967784679b3787668c997aaa786938a676889598557a79858a7685575867885a7b7
col06:   55578464757793a99686a75865a697aa99a698957798a9d7868749aca776aa89a894a87349b9b565
col07:   78596572a63cb978a7aab5aba984aab8a7aca8aa95867bc598869a69a7a5b9a97a9698b864984775
col08:   896d88835774b8879369a989a794b5ac494738ba887d9969987a8b9796c65a89a7499797689a5244
col09:   85753a4664685666a878a638868788996bc979898ba9b7bb7897b8886955b559855749996365b551
col10:   218921595956a56547698756847775558b49b6a6abc69ca78a969b87c7598b588768788975718338
col11:   9584698459864568668663777b986a98988b767758e9a89abb777788c6667aa256b73468ca893772
col12:   8684445653a3778788784885276936ab9b9619b587997c9a534a67b7975b379886a456981c744732
col13:   48c8a49b819a67769a67864b877d994b968a89655876b4d9a86a8eba9879b5695867a67464a4b446
col14:   57378596988689593857685d7995a799b7a8a779abc998aa879a8898a64cd6398796858676875754
col15:   587877837619b689967596896c886898689c86a5da9586a59b854acd57b85a893848895b357747a5
col16:   538a65795b866778987886b67bb9aa3697c99ab6699987a89d3778489485695b6586712839468873
col17:   635534a6798a778976767ab66b8596a76e87a664994956a64a9495a678aba86476a7a67454374623
col18:   3367656696795778777898955aaa9878789a796768a6b7636aad9875a558a97678499c5685785456
col19:   68985a398ab835675aaa79974854868686898d6799abb78c986b2989958997c97a88d14584788624
col20:   2b6486596536788a7e28775bab7c8867654aa77a47ba8693a78798659a9b8757679a9a7977a65265
col21:   86b9a4486d9865c73773c976a848979b4848a87c9885667767679b8cc8ba957aa58a65865a994662
col22:   72b64a66474477b72896878baa74b87a846b46878a87974c786888889ab75a6497965447956453a5
col23:   437554972655748bb99a889d798bb897658485665d6a8c67b59835798684367979a4594563683546
col24:   983437467897a8877794a938bb89a4a985a698778579cb89b7a8788ba84b56587897498677542684
col25:   567639986a598b7b6ea848578b769a86a9989a7788ac99759699a676cb768275767878ab765888a5
col26:   59759a8965b9a8ac79b96dc668ab898899ac79b8887b89da8c9d8dbbb993aa766be4877487cc6555
col27:   7a635879968999a876778aac9b99878d99439689a9a788a9c7bc89ae9678ab569957aa5a89698825
col28:   97668a69449cbc8678b8ba9b6ca599e9aa88cbacbbebaaab8a9e895a9c88ba7ba998574a9aaa6a79
col29:   97689b89955778a689bb95979c785889a9cac8ae9dbcb8c8accba7a6b885998ad58788b87a857683
col30:   8c59b265b69799897b9a8abccb6bcacb9c9956caab6d6aabbbabc89a999768f3a688bbb967979973
col31:   9976a39aab978b968869a98cbab99a78cb9bb8fcbcfac9dabd7a88abaab9a679a99d69aa69a8c889
col32:   75a5d37b8ccabcb8bca7b99a99bc7a6c9ad9abba9afcaa7a8adeaacbd68a96bb778579578986c85a
col33:   68ca769a7b897c8c59aa877ccaa89abbb97aaa7aa8b96f8bbccbda97ba7b9a998e999c969898aa76
col34:   866ca6dc77869dbba8969cbcba7b5aabb69ecd6caafbcc8594b9dc7caea7bc79999b9c7ba9a6bb85
col35:   6b89a699d8cc696ac899b9aaadabc79987eb99d97c99adaab9b97bb9ac8bb78c94b999b788969886
col36:   94ac76b7ab89c689888c98a9a8daac7addb6d89ab9ca8cdbbbccd8989bbd9aab89bb98888ba37793
col37:   789bea88a686d9bcada789a9b7aaab988cbbbc99e899acbcbdbbadb94b98dccbcb9c9aa98aa99bb3
col38:   69bdb9b88aa78b9cc9a9a8adbbcfa79cd9b9ccc8c8d9abdd9b7bd89cacc88eb8ab6ea76a9ccdab77
col39:   6a9d996bb5489a8a9b6ab7a6baa89bb779799aa7b89afb9bdbbb7a9abab7a68b8b7856b6798aa662
col40:   ad67a8b9d7bbacb59baccabcbb885c99b9aadbabbdccfaa87bcbcc6aebcac58d89995aa96bba8a97
col41:   c9a5dd998abaa9acaa8cb9a8fc998cdcb87b89b87bfbb7dbb8dcccdb7a9baacd799f9a7988d6b8b6
col42:   a7baab5a6bd78cb8596bbb99a8acb9a6caffacb88a9bc8dabccda68e79f9a9ab8aa86bc9b799a793
col43:   b998aecaacb9cba9abbf59db8a6cddcdceccabebce9adcabebfd9ccaffbbcacad92dc6ab9b9bd777
col44:   a58a99caac83aeaebd9adabb899b899caa88ab9c9eceb6adbcaa4baf6aacaf9a8ca6987ada6777da
col45:   79988967764c9999a9bb87bb8c6cdcb9aa9bab9d88cc496cbd9b99cc8cdb69b99996ab7b49a79576
col46:   5aaaabcaab989ab6cac9788aafafba7bcca9bdd7bb6cfaa7b7bad995fcbb88997ca7a83977ba78b6
col47:   ac778abbf58bbca9c89dbbaacadc8b89fabcdacaab8bacbbbdb9cabcb9cdbb697bb9b83988a86663
col48:   ba69a5a9bb7bb97cc9b9ba8cecf98adb8eeaba87b7c5db8bcc6c89fb77dc78cad987a9bc8978a9c7
col49:   79a3c8b9689aca68caeb9ae998c99f7cefb7beeafc4aaae88aafaf8cbcdbfd4b49b9797baab6d959
col50:   74acbaacaeb6ac9bab7aeb9a9aeca8dabb6acbb8aabdbc898bddb6f78beda99a7aad9d69b7a89766
col51:   5557787aa95ba55ce7588a9899897a9b9b97cb896c79997775b8888696a8956899825877aa5979b1
ROC:	 BPix_BpI_SEC4_LYR2_LDR7F_MOD1_ROC3
col00:   5346675659799957b97768798593887a3599796579b876a56683998476b8777646b686a785645774
col01:   86586aa8cdc99b5a7b9698c8b7b7696ea37a9cb88d8b7678acb8ba898f6969a885c668cca8d8986b
col02:   76857856a6b9a7aa878a995995c88c85ac998c588da99b797dbb75cda69b7a9856c4b878a8a88bb3
col03:   4449948a97ac69854a87a7cb786dbcbb479b979656a989a7a2bc557c68aa7aca957e9959c864f89a
col04:   859978aaa8bb8a76ab95797b8668b8e9a8b9cabe69988d7776a9a99b9997857997478977876ab886
col05:   788677ab8aa8a887a48697c7b8c9a8cda5b98969c9b7d7c889a9baab7a7a9a65d769cb6aa7859aa5
col06:   958595a869a6776bb9b9a85abcea9c66e667a7aa96ba99976cc9dcccc6a88bbc79a6879b9aac8558
col07:   98396a7a997887d89abab9b899badb88ddca88cbd7c7cbc99caac5b8abbb9ba77a5967aab9b7ba8a
col08:   79598888a97c79b7b888a8bc98c9b7989a8c8a6ab7bba88aa9b979ababab688a98c79ac4ac959c96
col09:   78c76a6999a59b75db8b89bf9787696ad8eaaaaa78989b8a98ad6bb9d9bc7c99b4778c869d975aa8
col10:   7664699887b977accfb768ba99c79ccb87885c8aa47ae898aaac889bb6b8aca9bba98bb9aaa96799
col11:   879799f8aa78a8a47caabbd97b7e9589ac77baafe96896789a7a7787c9a77b7b9ac7a97a9a98d94b
col12:   659765a64587aa646bab9acc8a7aabc8c9abb7d9bdb87a96a7b7a76e9afbc6bd7ab9679adba9b289
col13:   455a6aa89b799ca689ca7bc8b8b6db7bcdedd8eefbd8b78d989a989ca7c79aca9ab8b8b8a6ba9d84
col14:   8686c847785aac9d689999966c99bdbbdbaadb9cb98a9adad8a8a8baaca8858dab8bb9e5e9778b69
col15:   4886495c788ac6767aa7a899a987998a7b95997b85b8a8ace78bc964bcbc9dcb8b9bda878ba599a8
col16:   7369a796dc68aa7a7a79a9db9959f79daaadeaac799aaaabe6ba8b9d899ab9b697aa97c67a68a5b8
col17:   9a86ba9796b8a866c6a8b8c8a76cbb65cba7c998b7b896cb97685889f9bbb5ad6989b8b9aa697e88
col18:   8895889876c8b8c977adca6dababa8b8bd99c39a89bce6958a99bb68abc9a7a99cab795a6ca2a9a7
col19:   64b97abb8997b7cb99bcab9b79a887a9caccc9fcdcacea96abba5acbed88999ddb7aaac9ddac9b77
col20:   6589a48bacc6ba88a7b95c68ac9ac68cc9bdba9c7ebe69afc8ba8abdb4b2aa989e67ca8aa7b8c874
col21:   8998aaeaa8a9ca87c8cbbcaa5bbbde87caccc58a8b77cc9ad7caa7bc7a4e87a9c98caac998cb8a97
col22:   5897aa857be8b679f577af9ce8c6dbccbccdddaed85aba88aaa9a99798cabe98abb8ba8a8748c78c
col23:   5599a8977ba86e86aeb59a99dc98edddb89a9bca99bc98bfceaac8a96bb87ca9b96a8daa96a7bc88
col24:   7a757a877ca8a69d8ab999bba9cbbba9e7abb6a8cbbc8ba8a78bac98acaaa6cc77ba64dca5488c98
col25:   88ab89ee9b87bbb9cc98a94aadd9d9898ab89a8ceccad8bdccaaa8c6869abce8b9ceccdc7caa8a89
col26:   9b9544b9abcbc6aba7abacab88fcbaeb9dbbdcbccb99fcceaabc9ccbc8bdbba89aacc6bb9bb7aa96
col27:   a8498a9a87799aa5e89ab9b9ddd8caccc7aaa99aaafabcbb9cabb7b9a8baaed88f9abbbcc9bdbb89
col28:   79dbd8babb9dc8dabacbc6bdedb89febdbfed8cd8cc9ccb98b9bbac7dccabaa9eadbc8bb79ba9ac7
col29:   b758bbc99fba7dc9ecb97a7cc9aeeeb4efbaeae8deaaebcccdcc9ddacc9df99a9cd96bc9caacc9a8
col30:   aaa7a97eba6cd9b9ddabdbacf8fcbdfaaadcc99eecdbebeddbbefeaccba8adaacbdad9bccae8f494
col31:   9da9bcbcc9cb7f9fcbccc9dcdfbedb9dfc7ecaccbbccccdcdcdf9ac98b9bb9accabdbea9dbbcacbd
col32:   c76cccabccbcecbdcbabadbbcbffdfdbfc5fcbdebdeedcbcbfddc9cdd9a9dbfad7bccd8abaecead9
col33:   87a69abbca9bcbdb9aabcbcbc6bcbd8ce9dcdbccacc8e88cdbbaa6efab9c8bbabcb9fad979dbbc96
col34:   a6bb99abbada99abc999db78a9c89adcadbedc9acccfacabbeeca7aecacbc8bb9b9de9eaadf8cebb
col35:   9a9acacd8bbde8e9e5eef9aa7bbedfcedeceebdffbabdddeaebecd9edbcecdccbaa9998dac9adcda
col36:   bca9bdacbcbeaead8db7ad9b9ffccbfdcf9aeacabde9c97facaaecfcdcdc9bea9bcdaebac8cb7bca
col37:   98788aebbeadab9bbddbbbccddd9ebcdbdfdcdfddfbdddfbae99eeeeebb9cdbdcbd9b9acbe89aab9
col38:   8cdc98ddecccfefb79bb9ceafceabfbffedbcdadbedcdcdeebfeaac9bdfdcccec8caf6bbfef995ee
col39:   8c7a9bcbcab7abfdaad9fab88cbc8ddaadceceb9ea9bdc8cd9ab9acbbcbfbcbaddb9b9ccbcdbb9cb
col40:   b7a89cb98baededc9ffadcdedff89afdccbfaccdbbb7ccebdac9cb9dfababf98bd9b9f9d7bb8d8a9
col41:   cb97bbbdccccbcafaba8bcaeaabedfddbccbdfbbf8ebbcbcbfdefc9abcddddfcdebbdabfdbdcdbe9
col42:   9b489abafcbe98dfebacbafccaaabccdbccbadbbdbefcecd9f99ccf6fbdddeecebd8adfbcafdbda7
col43:   bc6b59ecedd9e9fccfbfadcefcdddfccddcbf9defffecafee9acebcecdddd9e8afcbeddcbefbdafc
col44:   d577bdcaa9ddabbd889cccbbdabcddfbfdaecddcffffc9eacda7cebbbeabcffacdf8cdeaeeacc8ac
col45:   c69f9b4accd9cbcbbbbad9bdcabfccbd9fdcbcffdcfbe7fcdef7e8ce8badcdc9cbdcddaba6cbaab9
col46:   c796e9c9fcbbd8ebbabacccfafecb9dd7d6caeeeb8cfbbcadb9dccedeebe6cbcc9c9edacd9c9b9fb
col47:   bb89d8c8a8defd8bcabbbcdbccefccfedbddbbadcdeccb9bfaafdc8efaf9ddccfaaeeddfb99acaaa
col48:   8b8dd8bdf8db8ba87eb7bdebccfdedfdccb7aecca6ccafdcfcbdef8ede9bdfcfcccbfabc8fbd9fc6
col49:   a7a9edfddac9ea9edbdbdedcbbccdecddfdabadf9adcfefffaeddacdd5bbfdcefdaac9bbd99d8dcb
col50:   accaf9b8cecaeaafcecccec9dded9dfbdcfc9cbdaacb97ee89ccf8bcebccece8facedbdc8cb8bd99
col51:   c848b699a5ab8cbb9b799aa977ba87abb9acacda9a9cc9b9ca9cca9ab7acfb8aa9aaaac89b97baa7
ROC:	 BPix_BpI_SEC4_LYR2_LDR7F_MOD1_ROC4
col00:   754829648461558646985968a966b3a8598874469a668868479756685993b7b748663635b6678547
col01:   4536746a5c66b265c8889687b77889878a98c7d9559895babb819974869a9a66b783ac5c59b53886
col02:   595677a68764896a89697a9198777a887a8ab79983ba9867a667b4b63b845cb657c6967647445284
col03:   7819a68a67ac788b4766ab9886ba7799635b9b8c977588a4a9cc888736995b79889a488895776793
col04:   74823569a27aa6495986886a7688b7457d97e4ab87778cf76786daa98cbcb9774a9b5969463c8686
col05:   5666987399595195a5e5d86865a946797a596a44778967768a339a998a98989a5769748a56775665
col06:   856675484b7a49976b66966588c586895a886858b7b56688667b8a5a787576697ac8a799b98a8566
col07:   6968689999d5a5849837c498a7b694a95687bac979799a9ccb4c9995a7bb497ab968779277b8b9c6
col08:   766259776873747a8897596c884a6b698a35b89867597aa74599878c989898b47e84e68899685473
col09:   5a93867a976c577b8ab97aa859aa7a9bc9655da7b8b776a9d89ab7a9a77a96cbbba68a87b4957466
col10:   a86367a58696ba6a89a587a78876ba8b9a8499998a7b986787679b7697b7a7939959676a2559a454
col11:   7598b6556a75a7563a6b94a5a775b57588a57aa8978996ba9b59d938969c7756888729a487aa746a
col12:   65a7576aa949739557b788649a58a88675859a7b79b56b665ba8a9c78aa98d7738886769c5b73666
col13:   7a2c56358966576288b57c8b8bb8a78a9ba9a6949aa6da996959baa58799a8876778a889dca74745
col14:   5973a785795a46a587a8c584b89c88958ba667899638b9a99678d6a8c7b88796668b64a8a9886566
col15:   46869397667698938a98ba99ab59c7b998589997c39c9aa76bb99a9979ca9778583aa75956299576
col16:   4776773858668ad5567995abc776a99896b68aa7573b65b8884c8ba768c7786caa7897b7878a5886
col17:   9785a898357874687969d96a88a98bf899b84989a8a9868489899ac597cb7a6189b9896ab6597476
col18:   6955865766697a49978a6b99bb559989b5ae78a68bb928b797d97699aa886655b999b67b489ac787
col19:   95436a7a689958967b98897bb688a89b866665c59b9a9ca679b79d99a7bc799a79a7c86ad899ab55
col20:   76453477a99666a599858c9975a9ba9ac9a999a56887b8b55b7687476a9aa88c7b55685846547678
col21:   67b7986b86995874a7786769bb99b7a9a889b6976ca9959a7678b896a968ca681679a988979b9575
col22:   36489c659886988786a95998866baac76ad4b9b85797bb9bb597c97866bbc589578c975678c69aa2
col23:   6677b9966997b979a678a768a78868aa7988499aa78a9aeda9abaa8898cbb888b888a9a859698464
col24:   76976578879c39994a9975c899e7a87a7ac7ca7998c788a9796eacc9666eaa7c78669a54876668a6
col25:   3874a676889444777b8b764a88acb6b5a9c88b8989767ca777bb9779b4ac8a8995b887a5ab678577
col26:   8998979e9c7d68a798bc98999abae896aedaae8ba799cb9bbc888abbb8a977f9acb7b8898a8a98b6
col27:   c75a9984aab8998caac94b7b9cbb9598a9a868ad798b88aaa9b8cb77ab7ad77b88a957898b7c69ba
col28:   555a7c5acbe9a9b99bb8a8cb8899b9e9ecdab8b89aba7878a7c8ac778b8c8ba999a88997b8b9a999
col29:   85a58b9797bbabc574c978baceaa8beb998abdb6bbb588c69b748bc89db7b7b9889aacb97abaeb88
col30:   777a9aba99a9ac88948a8ddcc7bcaabeb8bba7a88bca9aeea897cda6978dda88bbca89c8b7ba9a98
col31:   c6bdb597999beaa7b976a9d7aacae7eb9b97aacb98a89bb9dd8debcccacacb8c9d9acac8bbc7b8ab
col32:   7c46a88aa68ba9d99dac9acabcbcabdba99bbcab9ac9ccc89989bbf6acab9ca6dabd9acaa6d8b8a6
col33:   8a77b9c9c9da88c769a7bba996ec7aadf8fdaca8dce98cebc989eddebcaabaa8b9aa7bbba5bb8ab8
col34:   775a597cdda868888b9cbbb9a7bccbcbddce85b89ccddcc98cc8f8bbbbeaacdab5bbabb8dabb97b8
col35:   b9a7cbecd9cba5cac6ac7c9bbccabb9dbbaaeba6dfbd89bb7bcccbba8cdab99bbbbdfb7bbac99ba8
col36:   46c957ecbea9889daf89cd9becdd79fa9bcbe9add7b99bbcaccae6a8bbbac9bb8989a9c88c99999b
col37:   8a89b9eaaabc9b8ab898aea8b9e99ceeca9edfe7ccba9cecbecedbdcd9d8ccccbbecccd8a78adea9
col38:   c989bdbc6cca989adb8faa8bd9d9cadcac8dcdbba4bca7afdbaeb9dc8ddbbacc76bc7db9ae99bec9
col39:   8c9a8aab9cacd99cafcdbbdecbb9abb8bc9b8c7dcbadbdb8bb99cbbcbddc848bd9c9becd9dcba8c7
col40:   98ab97dbaca95b59f8caddcdbbbebbe9acdeacaaccacaedbccbdacfcaabb6ab4dc8db8ad99ca9aab
col41:   bba98baaab9af8e798db8bacfcad99cea8aabbcadbdff99cbddcacfa8ccac9cccda999c9d8dbe87a
col42:   6abcdcb9ba9bfaaafdccecc8cddaddade89ccbdbdbbaaebabaabaadba8d8c9b8a89ac6b9e89bcda6
col43:   ab6b9bc6adc8da9aacaca99dfebdfadbcebfbbaecb4fadcccebdda9bddbccdbcbdcbcb85cecfb9a8
col44:   994988cbf67bbdcabb9ecc88aebdacb9dcaaccba9ccdebcc89d6adbabd99cc87adabacdacadc9aa7
col45:   789c9bcaad6acb7aebbabbbcbcbfaebabda9cf9fcaddbe99bfbdfdbbbcccbcceeeacc998c96cf8d7
col46:   889b997ac7b7ec9bb7cbab9ccacaaa9bcbbcbbfdcb98bc9bbcbb99bdfbdbfee9baaa9b86acdd99c7
col47:   aa8a79d9a9ad9ca9c8feb9cd88a9bc7cb8bab8dcb999cadcb99bdeb9b7dfecbeeeddc6cba68adc9c
col48:   aeaad8a5b9dbcd58cacabac9cccd9999bdcfe9ad9bbaeaaac9adefedb9adbcbceedda7adaced9c8d
col49:   b759a8cd85febccbb8ecdbabfcc9abc99a87fcddad9eeeca9de99b8e69ec8d79d8cd8cab78ac9bcb
col50:   68b9ed7eda889b6a9ebbbecbb8bfecabbcccbdd8f79caaabb8bfb9aabbe8cacbbbcda9cd9cacc9b9
col51:   a5797571d9a9dc9c6a6c988aa6cdac98a968b847b98ee8b998ab9baa8a8787ba6896896897697976
ROC:	 BPix_BpI_SEC4_LYR2_LDR7F_MOD1_ROC5
col00:   3368664999b895878897776a96aa863687aab88aa87a878a986bc6c857a767a56574936546367551
col01:   46776648768b57b9d7d9bb96b987874969a748889aaa95b8a9867c75b776c37c95a6a68959787966
col02:   8a94c78597976a996889787b96e8c8a79897b98aa86865886769aaaa9b7877a7a8aa58b686776654
col03:   aaa7bc9688788b898979aa7789b9cbd99aac9a9b9a5b7799b977b9998a79a588b7689baa68889be3
col04:   5757a8c979a589a799989bc5bab898bde8babda88cba9babb76aab8a893795aab56669a3964a8781
col05:   a6575856978bc69c97a86abbc6caa85ab688a9774aaa649a8ba489899ab8c8b93535987b94565974
col06:   7782a8a889597b8b988cc5aa78a89f8b9aa8a9ba98a8a96adb98bdcc788a7866caa747b896566756
col07:   675a7577b8a6a8a7aa8968d8c877c968aab88b88aabc87a7a98ca949a47996877858c97759877983
col08:   78687496b686849a98979988996baa784aa79b888797b6aa777a9b8c67aacb86c887954a86581685
col09:   8a937566999697697b77d9897bb9bd9aabac6677d7c686c958b76c947a986b678ba686879b989a4a
col10:   85775787c6a7aa8986acb8a986b7a8cad9ca78b869947ccc779a97aa7a7597c6a68787a58b871667
col11:   678c7a67a9a7596997a99a54ab89baa98bba85a967c7ab88859559ac989a9476aa5a788aaa69b684
col12:   45365888998a5d886aa889aba989aa9cb98ac8b88bbb8999c6ba589865779c9c799aaa79d99a4687
col13:   a8b66b5aaa8bb9e99acaa9ab8886c6ac9b75ac588b6a6c7b7c9d7789b9788aa8697b9bb769839755
col14:   87771467596986767b95d56b8b897bc79a6ab788969796b9187ad88dac95aa7499778797697c8868
col15:   6a78b8685786a8888da8679598899ab9795ab9a9bbcd99c4b8767a69bab9a88599966967b877ba64
col16:   3659b83888a87839975ab884bb77a4c7c988a8a68a66788aab9699b8d78989788969745873677a85
col17:   9787aa75984579a98988777aabbabace7a986859bb79bbb4588877aa987ba477875595945c688846
col18:   75767a7b7978a6aab78a78755b977b8b9bbc987aaa98b6b7a79a99c6987585a784766a95a6645876
col19:   85a7866aaaa8a8ab89a9797ac789ad7dd9aa7a77caa6877598a9a7bcec7888ab9c97a678b559a976
col20:   1a478a88a8868568a88997b8ac9a9dc9888ba779579a89898b4788986987757b7c97536645258a46
col21:   769b89976ac8799aad89bc769b79988aacb98aca7b8c9b7abc89aabb9ba6a8875b4ca6c888996664
col22:   787976778bb4984c87bba877c8a7aaa8698a99aa699777ad96976987779789979a2a875677883567
col23:   7a777348b8ba8ca5899b7c999647b7b97cbb99a9a9b849b789aa87688967a7a7a798579586797988
col24:   5684b676a6ab77598896769a888d6a877bca8a89a68a78a8b9576b88a9ba4698c9a8a73856752664
col25:   8b4578899bac9c77ad796cbcb6c949dbbc89a96bbcbca78a8a6758abc88979596983998b56a87776
col26:   c89987aa99cab9a98c99bab7a9bb9bbbb9abc8aeb8aa9eb9baac9ebd8b97aac74aaa978979967a57
col27:   97678c888a9d6d9b9daab8ca89bc9ddaca9cc9eeac6abaabaab9ac98ebc96caa9c78b6b8e97865a7
col28:   7898acda689977888bd78ddbbba9699b89bdaba9a8adbcccbbbcdccdb9da989d89797babaca97b67
col29:   6d99ab8a9cacaadbabd9a89ad889bcab9a9a99dcafdbc9ac988a9dfbbaabad98996ad899a667974a
col30:   aa6a6779aa69c8bbcbcbcdabad9a599c99b7abaf98daccbcc99a7ccb9bd89d9cc68aca89ac988766
col31:   8babaa9989999e7c9bb57748978bbee89ffc6afcccd9bdc9dc99d9aa99bf66999bab7a597a8ca688
col32:   c99888abaa89c7cb866bd9edaabbd9b9cdccbb8ebbabbddba8aebabd9becb998abb9c989d57846a8
col33:   7768ac9b9e9ab7bb989cca9deabcbaceaabc9ccccaec9dcfaadddcbc4cbacba8ba8bb97ca989bc96
col34:   b8b48c7bbb9eccbbabb9aeaaa78a99ca9cdbdacdcdaadcaeacc9bbd9b9abd9c7be9d89c6a8ab9b76
col35:   4998a98a8ca8a8cbcc9aabaaccccdbb7acdb89edebbccdcacac8ddbc8badbadbbab9bad58d875885
col36:   8976aa7d9dbdadaababe9bcebaccbb88edbacbae77ccabbda9bab58c9bcc8caaa9985a9dc699899a
col37:   98aaad9a79fc5a8d987c9b8cdaedbaaccb7a9ed7dabdb8a9ec9bcf7fbcdbab9ca8bbb9b8acb67a57
col38:   c89cb8c6edb8ba8adeddac89baabbacdbeccff8befcddcdce8adbebaadabcd7bb7b9f5ccbad98877
col39:   ea85c88aaca98c987d8aca88becd9bedeadbac9c8dbb8bc7bdcbcbb8dc789ac9cfbc876adbc8dbdb
col40:   896a9aab9b9dbb999a6ddcbaddbabbdadfddbaa9ddcceedbcda9cdcacbc9ef9acd979bceb87ab8b6
col41:   c77cdbbadbb8abcaa9bfeb7cc9ac9ecbecbfdceaeac8d7cabdcd9b9c9dabfa99babe899987a889aa
col42:   caaab9c8bcaa8fc79ea9ad98eca9bbac8dbccebccacbacdcfa88fabaacfcaccdbced89a7d9a8ac99
col43:   bcce9899aafd7bc9babb9a9bb89bfaada8c9bcabdcabdb9cad9ba9df88af7ebcd7ac8a888b9a8766
col44:   98aba9d7d9cadbcacbacccc8cc8eab8cadabbccdebaccedccdecbeaeecbbabb78accdd7bc87a6a58
col45:   87788bc98bcdbbadaccda9dafc8acdd7aabecdbbcaebab89bfdba9beaf6abed97ccdba8c788d9abb
col46:   a9db7cccbdd99a8cccccccebcabcaba9a9ebdaaacc9bbaaacace9dbc8eba8cadacbec8ac8c6ab961
col47:   a78cbea9ddac9dbcb98efd99cfebc8f7eacc9dddedcada8fcccbdcc8fbaa9c8d9deab77c899bb8b7
col48:   989d8cb7cbdbbd9deacab9ec8cdacabdddec8fb9bb9ccfcf9d8fbaafdcdc95dcab98cf7bcb8fc789
col49:   c87cbbababbdbbc5987dcb5bfaadeaddabefdfc79cfebcbcdbcecadcccede8ba8bd9c7aafdcba9d6
col50:   ad88cba68dbabba9d99c9cde9daeacdbbeeabc8bdedaaac8bbdcefcabc9aaabcbcb8ccbb997b9ca9
col51:   874796749cb98bb8badb87c78cc9aa9aaa88bccabaaccb88bdab9ca98caab9ac5b869988588b9869
ROC:	 BPix_BpI_SEC4_LYR2_LDR7F_MOD1_ROC6
col00:   36478186a77872bc59bd8984c96aa8a9bb99881a37857a48c37b5a77266566689a5cc8892673a675
col01:   3762874977a97ba48aa8a77c86c7aa7ac9798a7aa97bab9c897bec684c9886a8bbbb8a7a3a9cab84
col02:   79577a9ac9dca85939b79a99cc889cba7aea8a88b8a8cb9f9c898f696c789c8a7d85ae7695b7d695
col03:   6555775c96d89b999969bab475acbac7bbb9c89ac875d9baaaa7ba9f985a9a988b974769c7784787
col04:   88b988758cd777478b8dbada68aaa9a698c8b7988bb9859c8bba89d89a4a3ac85c8ab7b977878873
col05:   635786598599a6b98a795c9ba76b9bb6a899c8bbc86e7d888aa8ab867ba8688b97b8d5a6539bac84
col06:   875635499a7678b68da7ba9597c97ce7ab7bcbdb7bbabbae7eab9fba8caa6b8a9bb86a9d9a875683
col07:   562475787aa9b6779ab867b995c8dabb77b8a9c97daa8977c8ba999bcc8ac99ca6ba966be58a5a65
col08:   4a579a8854da37c978aa78b97bb9deb7b988699ada5b99759968abe66b8f879687b56699bb9676d5
col09:   744b65787e967aaa58ab775778d98ad58d9a9e99ab888998aeeb8c4884bbc896a759c662bd89e466
col10:   73617697aaea7a788759baa9a7ba99b9aa9bc58a967b98f777bfcba5979baa8697a59b7988772868
col11:   1364999a76897859984896aba9ac56a6598bad87978a7baa938c96988c9986b7d9cd57889756bb88
col12:   93a7aa4646758479759887abb968b4a8a8989c8ab946b9a8dc598ca8797b996a84b9b676d778d572
col13:   6645576947ab6578897488c97aa88c8b8578c9a984f7babfc79a757c4c8b98b67ba8889879c767a5
col14:   6787517a7788595b3cb9b59a87ca587b783b99a78a579ca8ab9c88a9789b768a985b789598895579
col15:   a5577c674685d9a7966aa8bb8cba897a6b896e8a7b7c7ac79bac98a995aa9b867767bad87575bb55
col16:   663786daa6965957a68699888d8c87a88d9a99a87aa99b9b826b98a68c935a97ceac9997865a6886
col17:   738635696363aa977b5b559a4a9ba8a9dccbba792a8b886556b85884a89cbb36c48a9b7699785975
col18:   59584889a5a779867ba7989987bbab6a886779cb88977cba98bc87a655b787967b7ab97a85977778
col19:   737785847c8aba769748a9a83795ab8d8645977ae9daaaa88768876869b368b86b877d49946ae426
col20:   8463588a92798ac6773667558dd3c798689967baa5b67b485885c75897a77998b6a7a966a3629652
col21:   8844b5969acaa888589b8bb4979a79b9a8d697c889a599f69ba69876978b7b8a78a895ba9b7c9991
col22:   687445757869459a8b879d5964a9b97699c9b8537b84b86a6de8b668a79857a77677b76bb8cc97a4
col23:   699675749835843a8a89588897459c9aa8cba6b65b6987c8786c667b869976765987bc3488ad3862
col24:   15618b795766c76c693cb9c49c7a97b7c5a76d6489eb8aa9686a9b7a769b9689687859477b68a565
col25:   3469545689a6aac545c898c9b98ac8ada4777a4cba6f9a78a9ac8588697e4b758bbb8597762646a5
col26:   5a89b7899ac96777999bcc8cabaae8da8baab8a7b9d9fbe598abaabb8acc7ba6bea8cab968b97575
col27:   89a797987a7ac9878ad9b9cee8b9bba9697abbdcab8b96a8a998989c7c9da9baa8bbb6dc6a87b774
col28:   8868a7e7a99baa8a89998c9bbd9b9aaa9b9c7cb988ba9be8c9897eaa9edb8cbac6a67bcb78879a74
col29:   a38763a9c5888b987b98dbee99cbc567db6d97bbcbaad989abe9678999b9d9c8b79aa9b57ca7e899
col30:   6a9989897879c8cadca99a6e8bac7789bb6998a8bdcc9c6b99daabaa57adbca9ad998d87488ea7b4
col31:   a8a5b787d39a8993baa7b4ecaacdbcabacccfcacca97ba9b8ab8899b9daa8ca9cababa8985887a86
col32:   4a5875da9797397578856ad9c9eadbd788ece8a99eba77aa798eac9bb6e98c7a86788a85879b7894
col33:   87b5c7a88aa9c99b99bc9baaabbec97cea9799eabc9dcbc8afa9b7879cc9cecbd7b886ba9a989889
col34:   8858998988b5bc9489da688eccebbcd7af87b98a9bbbfa9bcbb99be9bbbfa99aca9dcd9986a66678
col35:   9ba68aab9559a6bcc698fcbaacbbce7bd6dd78dd9c798ed588b89b7b99aad97ead9896c765a8abb6
col36:   5a89a9b59798974babba7adbabb8d97ac886ca7d9bb9aa97878ccbfd89aaac8ab88ba8bc95b64786
col37:   97a5c6799a8b988c79a99a7fcdd7c9abcaaccdc6c99497da6cabcabed7889dbb98a9aabacaa55898
col38:   77a8b7e8cd9a8db6a8acc9949da5babadbebcaccdcfbe8cccbbcbcccba4a5b6a4ba999aebe859abb
col39:   9a8389cba8a9bd9ba6aa97a89bbaccf89aaad88bb8d859dbdeda9b9cc8ca9fcbad6ac6a989b88dba
col40:   77c68868798b9a8bb97c8877cabeb8877baf8ccdbabc9babbca9da9ccadf889bad8d89b848dd87a7
col41:   77b589fab788999e99abbacc9398baa98a8b69b9c7b9c6d9a9fdebddeadd9ad89aad9b68a6a7a445
col42:   67c78999c277c7899deaba895daa898d9bddbaab8c99cbc9ce59a7bcfeb8b6a6c6ca9abb9af4b9ab
col43:   576a9eaaba598ec6ba9aab9cbdb7be78f7cdaa9c7bbac8a9c7eb9a88adaacc797c8bcbeca9a996b6
col44:   88bd969988a6ba989a99bdca7b8ab9b8a8ac9bbbcd9a9babaa99fc7997aa9ac7ac6cdf9ba49b9ca8
col45:   5579a699956972c4c9ea6d9bccb5cbdbd8cbba7c5bbbdbfabcd6d899bccda89eae5a5ca879795d8c
col46:   7a979a96865478889a7b7aaa68bcaaaab98abfb78ada8c7aa8b59bbaca5b9ab5cba9618d87999cb9
col47:   7999b9988bbab9faacbb8b9c8d9d8d6799c99ccd887bdaddbb97d8dbdbcc5bacb68c68a997abd8c9
col48:   87c58db5b7b67f8693cb8a79ab8c999bbd9c789ba68f5acb8acda8a9bca9e7998b99aa1a7c8cd875
col49:   65c7548aa78489b56bca79a9ba99d9ba788cddb58accb8bc9bc899c979a9a6dadca3a9a88b969766
col50:   178396a86a99587ab967e9a88ada8aaaa7f886ba9ac97b7c9a98aaea9bca77a899ab8956faa9ab68
col51:   5461428616377666566943996695875a4a956558b879799a97668885b46e5ba82356296975a77488
ROC:	 BPix_BpI_SEC4_LYR2_LDR7F_MOD1_ROC7
col00:   8a69899c78a67ba7b79a947abb8968865968dbba575a78c7e97b89372d7873897a5dc77954877569
col01:   a98445599ce97ca7a695996ab89866a9ab7caba9cacdde98fd99a6a9beb9ccb89b9a7b967b978777
col02:   3bb77666599688bba87a7e94ad98eabaaa8cbacd68ab988a979b986977b4aac59aa6587a85288aa7
col03:   5c98c9a7653a8b49dd9999c6c9bd78a7899ccb9a56785b8bbb7aac76aa7998489996c89669b26a76
col04:   918696788b89a895c99c9d59b7cab9a88cbbdeb8798ccaa6cd4b97c89ada5a698688976995c6aaba
col05:   7d5664648bab789887795bddcb8bb87a86a6797b97776c7c97c9aa99778b988c89a56a788a6a67a4
col06:   eb59557688aea9b8596a6a89a9b77bda996b6a9bbcb7b8668b7bbad64c69ba9c677bb759aa9d6696
col07:   aa475698c866799abbb9b7b989b86998cb96c6929b6796ad79bbbd999ab669baaca3a54695958465
col08:   b696975d47a78a5878c88a6799c66aaaa5b6bc9ccac98c98486bdbb8b797766a99786b668c834576
col09:   48996aae9aa7da97a4879a86ca7aaabb7bacb6cabddc8b9b8cdbbfb7ce979aa6b7acb9b9b688a553
col10:   57bbb886877576ab699779bea97e96488c8b88a6a6ce99b6e8bc97a8667b9caaa89675987a8a8a89
col11:   953788892b6c7a7896879898816c8bbac99998eaacb96baadcc87ab8b986485a9957749499947784
col12:   764a74a8778b86689ae69bba5c8697959eb9557caac9aca8aac9da88b9bb866a7c6857937a899776
col13:   bd4ad956a5798ba579a87acbe78aa9d49accfc7889caa9f9aa8bada9a7b9b9b8987984996a751955
col14:   43cc793b975698c9c8b9989996999a88a798aa6aac8aea877b9d7cc9c78a8669a659967576956651
col15:   93a7888aaba6aa7a4b869caa7aaab989477aac8af89bb7c8ce76b96bb2b8688da96bb9887b966596
col16:   6779a8ba89986c7798abb8787658bb4bca99a29aabb6a78ab9a9edd8a9c7c74a6584874d79aa6a63
col17:   68848d86ea3a795897d57b6b887c679786884a9796ba749b8896988cc79b798bb7abc63ab7886656
col18:   787972a695b93b986b99499b78978399cc797959874ad7d79989a87ab77bb8aa3c8785cb6c728c9a
col19:   85874869663a73834e665898a99586c696bdd9a87acb98c5b879897a7c8fba968878a73a6694a863
col20:   92963576659838877898c8ad77478ba48b9abec8899879aa8da88a8c9bb37caa9c8a986b9657a954
col21:   986c54aaa68b69867ab8cb9769aa4c6aad8ab57a989aaa6dcba95db87a4dcb778885b89795959a85
col22:   48859688d1745779398abca7ce797b98549b958ad7b59d3876c4be8997977655c927679b78954464
col23:   687458577a56a6a57a778b55a79799ebb46759a7875ccb599776a989986ad7528556855ab9875967
col24:   3497b685537b9a665d7bb87aa9a59ca9b88a69989a8bdb78688978b6a8b9c8ab869894979b7c5634
col25:   c7a95796768b6b79769c7b84874bac98c7fcb9b9da6caa98bc765bbb7b478c9b9994b964ae8955e5
col26:   a569746aa99a986ba96a7caaa6bc4d9ccdcca9dc99aca8b9accabe95aebe8ba69acdc28967675953
col27:   968958997869887bba9a7b97d795b99ccbacc8dcccab9c977bab7b87c95bd88a5bfb89b948879cc4
col28:   a6897a685c89c9baa989cb8abe8aab8bb6ccab99ddbadad8acbe7689ed8cade8c859b9a867a97886
col29:   788a87a779a3889ad899a3d79b9c9efcb7bb8fcc8cb8bf77eba89a84bab9da6cb9b96a8988b77ba6
col30:   678459a7878b8b857bab8a9bcab7dbafebebc7bdbac7b9beb9ed978b9c9ca9bbd9a8a9ca765bb6c8
col31:   5bbabb6977a9b9b93796f9c9b97ad9dbd8a8dd8ad978bfc7bfad8ba898baadc89bbf8ab7a9ada98a
col32:   a8677a9c9c96cfac9c8d9cd8cbba88d89fcc8cab9debd99bd8abab8a9879c9cc8bab8fa9c98d9286
col33:   b99745b7975d7777e9d876becbbbaa6fe89add9cb989c9abd9dbaacdbb97d8ba8deadc8baaa97cb5
col34:   9396276d878cc9875ba8abbdbeddcabbbdbcbfa79a7a5bd9d8899cbdef6abaabaa5c8a7db569bb96
col35:   aa4b9b5879eaac5d7cca8acc948ccbce8ccabbcceca9acddcabbb9bfec8cabfac89a77dbadaabcb6
col36:   86c75883b9aa97b958ccbad9d7c9bdc6ababd9bafa9aeaba79bbc9e9bad9bc499dbab8ada99b3586
col37:   b668bb8b88c9c9bb9c7b7ecc9cc9ebb6a8776ccbccacd9fcaab77c987ae8c75bbc5987a7a7a799b5
col38:   d997777a797c99b8d8b99ab6bcdda9cbbccbbe99999a89cededa7aa9afccb99cfbbbebb6c9bda81b
col39:   9a8899a899b9bea97fabb7a9ff9a9dcacceaba8dbaddda9a67ccccc9bc98b9ccb9c59cbb9697bb95
col40:   9885aa9c9bbaba97babc9bba9fdfa9d9acea7d9d9ebabbc6fabddb6ab9ecc9dbeb74cda774c89d97
col41:   9a658bc58a79aa7887a896dbd6ac8c96da98cfbffbac8d9dcd877889e9aecbca6c9dabc9cb687955
col42:   c5665a9985aa95475c798ccb99e8cd8b9c9aa9eda9ad9996aef9ab9bdaaac9cdacaa8e6868897d38
col43:   87a97789a7bac8adba79d99ac998b9d9aacdcadb9cd9aaacb89d898c8bcdcebb7a8597abadfa8cca
col44:   645958659ca779ab989baaba67bd7fabe8acbbbcbbbaac9aafdfeaafb9cadaabeb96aa9b999a9897
col45:   7a88664876869aba9deaca99bac79ada9acebeaddab8fd8aaadafdbbbea8e99b8dcd9c9e7a9deab7
col46:   bb9b96b768ac78b84c7bd77cabb9cb9cfb998ac9ab97ecba79ac9d6ad9ccc99aac96d976b9877796
col47:   6786995a6595abc8ab8bba9cccd6abdbdb8a9ba9a9d97ac986c79b7ddc77c9876b8988aac79f9a78
col48:   77599499995acf85a9ca7b8ac9e9dcdbb8ea9da6e8dabb7a6d9a88adcbdfe9bdf8699c8a9b9a9899
col49:   775399779bacab96b97aae898ba76bbf7ff964aa9cbbd9bc6bd9bafcaaafca4979eb7be544b3bc66
col50:   7888b9849b7c99a8babbc798dcea9d8ac9b959ebcb99cabddbaad8a89ecfad9c7aa9badc76877764
col51:   123567147847c85739889a7c9a9826879b7bba872aaa4758c9a9999a888b82c2a9caac9c65337942
ROC:	 BPix_BpI_SEC4_LYR2_LDR7F_MOD1_ROC8
col00:   66b3ba6946986b5a4e8ad78998d8ddba9bacba7ccb89e99a9c9b9b9d4da87d786d989c56546a4553
col01:   7cb979aabbb8cacab7caaaabedba59bbdbb88ac877aea8a8fb7a9ceacc7d7b7969d7685bc7a87683
col02:   7da5c6aa6a8a8599a7a89ba78adb7cd89dcbad66ab989cc9fab775989aaa988c976b78a499999862
col03:   8686895a98b966a7a6a8b8b8ab9b9ded7cad98ccdaccabc9cb87c9a7ecba9979dc7bbca4a6b3ab88
col04:   7abb79daa9c89cb8cab8cac7e889b89deb8db6a99e87b89ba48db98ae97fb9ca9ceb684a75986844
col05:   7586789ae8ca9bac78aa9a8cabaad6addb4b9ea9cc59ce89e579cb88aaa9edb9896c9bc65c98a762
col06:   8856b696acd98caea8b9ac9cbabaaa88f8b89cae9986b8c798b78ba9bc6b7ade6a8bd67887897576
col07:   77763577aaaacb649b8ac98aa9ce889ad7cd8c8ad9ab6cbbbb8a96abdbfb8d9ab8aa669999867667
col08:   956374798945b89b9c8a78cadba6ca98fca5adac688ab8cae8d99add89bb9b5a7978694856444669
col09:   797a695a8c89ab79adddd68c9e99bb8fbaafdcfdcaceab9ca99aa6fbc889a8b9578787b887a77565
col10:   a8cb4587b688c8a9a7d78aabdbba87bbacb999bdab89aab8aabc7cdccbacab9ad97ab9978889a57a
col11:   2a8687c7b7bb816ba69b9a8d6896e8ac89ddabb9cdb8a9bdbb9aacc768a698697cb897a88745a3a2
col12:   6977a78778988ad5eb6a5dbaf95e8fba9b85bea969897daf4c6a9ac988cb967777b86589b6e55866
col13:   68a7b89759ab797589bcb56aadad996c98dcda8a9cbcdb9cbbb97eeaa5b8acda1cbaa79788975663
col14:   568698869a6a8b976cdba8adb8c8b9b759bb866ac6aa99ec98bbaac4c68b95783385967bb9689c45
col15:   6ca869596aeb899ea9d2b876adabb9c87a8cca9adcd79acaa79b7a89b7a99aa697785597a894b677
col16:   779998899a877d789896caa8cccabacbac98c9b88d78a7999b95dcabb6b8a6774aaa76b665a95753
col17:   37575876a67aa765ea7478c699669b8bcecbb6c9ac4b8a9b88b89b9b7bbcc68a9997c63645a93551
col18:   846b769ba9aeb9789a6addc6e9986bfb97b79abaaf8859c95c9b899bbeb79ca7997677864758a665
col19:   599785789899a79684a6999696b988d6a68ac7babab796c98ba7e88b999998b958797c388a821681
col20:   76b5c78a798c97476d965999ddc7797989c6b6889c5c84888839aab89beedd8d6ca6a71376457666
col21:   49b28566968baaa499bb9a798bab588ba9abeab87faa9aa8d9b77b8a96d687a76a94892957b28523
col22:   b694a9957887989968c983c9ca788a597c6a6ac8abdc87a778449a67a878864aa497695757857318
col23:   69a9967676a68abba9498a9b977659aa9a9b69c677ba79a7c8bb9a95e688c9b68577586388a74353
col24:   8677828749678babd8989989b6abcc7a9bae98abc8bab98999aa7686784ac546a88a528642447793
col25:   6aa77cd5b877876c7b8b9bbacdb9cca777b99bc856cbac977b685995b89abb5a7869b7543892a143
col26:   732b7cdb89cb9b9aa9b5c78a886adcb8bbcbb9e6a8adba789ab7b9b9bdbd6b99a87d778b86498795
col27:   68778a98ac75d89cbbcb8eabc758acbbaaac7adcacbb7faab89fbc89d96b9c839b52a96b67557882
col28:   c9899a8988be88d9ca97d79ba6a96bbbba99a9baacc7c7999498db98ffe8abc5587bb6ac89a85946
col29:   a688699a7697bab4a9ada68bab978bdba9aaeabaca9ab99bc7b9996b6ab6da9887a86b6796993462
col30:   a5798cb8996a79b9c878b9d6d5ac8b8febcbb8987abab9bcbdbb9bcada98767ab8c7769887525875
col31:   79caba7b9b88b8a8eea87aba99aab999ebaeaef8aaebaba8897bdb8ac9db8b86b73669337b928833
col32:   986a9b9aa9a8b8bbc8c8bad9caecc99abcdaadcdaa8eec8fbccb8dc8988b6bf9978c46b794727756
col33:   98a6a96ad79b989b798b8c8b8abeef5b99eddd8edccbc9bbdb969a9f8ebcedb6a68aa79ab8c89538
col34:   9a66aaa996a89bb9887a88cbaa9d98abac9bbcacedaa9dcd69bc97979db77a9ba5cba87774766586
col35:   65aa789a959a97ac97bacbc9cab788dbacadcd88abbaa88b98daa99bb8bbaacb6bb9869957566751
col36:   9a469a57bbc67ca9a8a9dcb7cbad7e96988fe96d79ad9b66a999a889acbcc9a6cba879789864b966
col37:   587873baa9aabcbbdd895c8b8dbcb8bd6cbd9dd95edbcacd5d89c9c9c998b8878d4ada764f914864
col38:   96ac7a8a766ab9a6c69adbb9ea9baceba7a9ecbb877dacecbd8a9a899ddcabab9b8ab86176669481
col39:   a77aa998879a856bca6a7ca9a8beaaaba7cb9ca9778ccebae9c6b88dbe7d78479caca79a436a5558
col40:   5788ac887aa7f97bbbfdcadda99a8abb8a8dcfbdb8eb8ab7989578baacdb8c9a799d54698aa74686
col41:   a96a28abb9886cbbad79dbb9c9769c9d9eacbd778ca8a9aad6ddabcd8999a8aaa7aac879999b5934
col42:   9a767abeba98bcb68ae84bfbb77fe8aa8bba76c8acaecbeddaabdf7d8b9986c9a9c9a68a87d57b88
col43:   8a897789987869a6879a79aca9ee9edcc8b99daadc9c8c9ab9a9ecf7c966d98565a9847577666595
col44:   c99b6abbd99d98cc69a8a9c8da7788a9bc999778f8aedf79b9b87addd957964bba4979a8684795a5
col45:   559a8acba99ba9a7bb8eb8d9b88a75c75d5f97aeb9bbba7bcda5a7c76cb3ca688b6979488769a663
col46:   7a9a69a6b8a67ba858ba8b8abc7ac97ac9bb9eadea9a9c5ca9a99aa799b85ba88874778b7b457511
col47:   4a6c997918a99e76adaa89c57969789ca9abbc85dcba979b7a87bc6c9a59c488a9a8952689893572
col48:   5689978d8a59a77d598bb89b9ae7899ca7bd99fbbe896c7aca9bae9a8cc97968d795454b14683466
col49:   9776599a865c78aaa5a76aa39a698a88e789898dbaaa89cbcc9c8ba999786b896499a4962459a383
col50:   868698a7866b556a68f96b785bbdcadabac889a9c5cba99b77a5e9b96cc75c988316824886188574
col51:   28374767533666a8663666486489a786783777ca2959586283845664588842758567675614245462
ROC:	 BPix_BpI_SEC4_LYR2_LDR7F_MOD1_ROC9
col00:   b36385588875a6799bcbc8677d77c9a9795ac8899b97cca9bd7b97bc9bbf9a949759db69b7aba766
col01:   3a6492a9b2a7b697797a979b9dbcaa93ab8a8e9779c5babe6b8a9a6768c7899766c69ab5ca885cb5
col02:   755586c9c7c67c8aaeb9bb667aaaa38eb7fab6d68aceeacdaedfda8a696e88d55a87b39b5b979ab5
col03:   698716869696e5caa9d7e48c938bb7b5478aa9b6ec7bcbce868c766a99e85d66cd7996a66b5eb9da
col04:   848977959998a9d7bc9b5eccbacc87bba8abfdacc6aad9fb87d5c97bc9db6b99b88c6898b8b867b8
col05:   1266a7a888b5bd39a9b7699cb8bddac8ccccaed9859cab2a79b7a9ccac4ab977968bc99955668596
col06:   47996bb8b9caa987a699ecdd7aca4ad796aaa8a75bd7aa9ca5a6789b999996a7b7a7b877a8888874
col07:   53cb9668f599aca39875bd889b7a8b7bac6589b66bb77977aa69b9b9647ad7968a79aac6c3a987b5
col08:   56445994558785b8899896a89968b79dd8d7f67bb6586da86ead896a6add9ad8ac6546492a976863
col09:   8794689cdbbb7b559acabaa9a89daba3aebad79a79aa9bb7c9c8b77898bd6ea556a88daba5b82946
col10:   6897349a8766a99469578b65bac679a6b97bd5a9895d8aa858bbda8a8bac997a999a968865e83795
col11:   8755178a6b87796979679a4799b6c7a9bb4dcba699a9849eaaa6ca16cc589966a1499b849ba95748
col12:   967a84ca36daabb698a6788757f99bb9abaa57e99c9a997ad67d8a73c8be37ab86ca95da79673956
col13:   78384869555b95c877bcbc989b6bacc7cbdc9d887eb499a965ba76c9da8896d8796abdc6ca567747
col14:   66338546a7578986767b6776ab9a5aa9b7abaa88ba97acaaa7b9756858ec6b959797799bb8878784
col15:   647855887c98a78667947a5b89ba9bdbd87b9d9796ac9bb496989979a6d7c5969a52898788b84943
col16:   865475b89696b59489bd94b97a6bdbbb7987cb68c8acba8a59845bbb5c4b4696977c9a88c776d458
col17:   6534898a81994286b789b998aba5c69795e66799688ba96a8ac5d398499691967a7789539486a8b1
col18:   398485a6ccb89bc56996c888bbacaccc997a87aab99ba99e687aab6da53767da85a5a489457b5674
col19:   9317699496368887a81a897a96c7b95dab37ab7aa978778979b7788b668b83a898829838887ba652
col20:   9678553687b858a49b75b659cb5c7a7a6977baa4c646578858a1835c9b63746887869b4768479971
col21:   49a4778525b7b7d767c4a7a7a8bb9a94786886888b4ac7be7398aabbc636478a4d88ba98c5795494
col22:   8474a89594588bbac4889897b686a5ac5853b99b41abaa698b6966768548ad8789788665b8d734b1
col23:   449486d9857969ba89b7b96a68c78775d9a777a98aa6c497766547363a823658a6648a57a5965764
col24:   217a83569887756785b85774a7b98aa7899aac9788b99cb69977a899647492559758b68734ab7726
col25:   6557687a8b55c9889a4ac97ac97baa7b69888b76ba9969c97aa1a748955ab6527168f55643b58167
col26:   7578958768a7c6b96b96bcc97975e898caa8c8ebd9babf6bcb957ab4b9ab64b976c8d29a78b59866
col27:   8366c7a7a6cd69a774bababba698a57db889a8b89b79c97a86a59c8798a766cc6da395699a67da79
col28:   a53a767b78788769ab7abc89898bea8bfc978cead77b9b849bca68cb9bc7c99daa96964977699881
col29:   84b75478875ba69469c4ad8ab7babbc887b9d8ea5989c9c9aea996c9abb65a98b593683b4c86c796
col30:   55537fb9a6978bb46abb7bcaca9bb6978a9ca7cd7998ba76bbb977a67a8688a38797766468aa84a6
col31:   a24666a86987c9a79b6b99ab89eba9cd987987aa9695dbbe679e89c7d6a6b8acba83677e8c857694
col32:   774c9897ec87ad6e67e868882b69ac98a8dc9cda9aadaba886cac9f9a9a9abf4998b5978b6887687
col33:   bab36756a739a6db798ac6abd7ce5e89a8cbcac6d5c98598b6a99adf6bfe76c6a9a899b9b9b9a893
col34:   7ab899d99c99ccdad6c8cb8b9b898aaa97aad9ac9bc9a9d89baaae98a9cacaca77a7399973588a99
col35:   83a99988855657ae9a99999ea8aa89c8bcba6aac9abe77596d9c76a67d56a77a97b896aa47a36479
col36:   8968957ac9db8b99a99879daa8b8c4baf9ada6c7abacba88a7c9bb96699976a886a92659d7ba6974
col37:   c85696c85d95ab9d7cab7ae7a5dcac56cbdac9bc7a67798d9d6a69a9a7eca48788cf99a4a8978a57
col38:   a3c5a8849ab9c6ba8577caaf899cabeaaa9b9b7c8a76bc89aa8b9b6dd5a7ead8ccad989889b688c9
col39:   67b5879b677988a8c585c8fabad8a98b8f6ae9babadcbabadc9b8d99699d88aa768888bb998ba794
col40:   457aa97a767ba5879598c77abe5d7676aabb9abbb9a88ae9afdbea9bd496a9b898569ba99778ac86
col41:   8a39a387a788baa789cda6997bcbadc94bddcb99b9c7bdaadb8aba9ab5aac5a9955a998868859799
col42:   85a66b8c96944c6bb9cb887babd9bbe88b97cb9a9b8bbcbb8bea9cca89b8e788946da8a6a7888c8b
col43:   5927576d69bb5895a7bbaa6758bb6fa56ba88abf57b7668abbc889b7a847a899978a85c7a4969556
col44:   83564b88a76876bb87a7f89c9b1aaa77c47de8b97a7bab9bb78d949998396d78b979695bb5888795
col45:   8187a446e93aa98589aba8b58b668a5aa8db79c6ac9bb3babbe5c8ec6a7abc8696a7865586aa8ba7
col46:   5867a777888a89d6bc4896b6ebb88bb9abca8cbdaa98769b8b9783e8bbd9c88764a6aa866888a1a7
col47:   874745967933b888abba9bc7c9a97699adc89b778b697aad9d87c9b69b988b952b96b6678a89b737
col48:   8755998ba5586ca96978679979b4b7a66bc6d9caf777c8ab9cab77b77b88799bba46766696a54753
col49:   457b7625684698ac78785b9a8a4cabb7967bb66988999cb7a8755e8ab697c77cba69879594668761
col50:   666986458da966ba77779a9c9aaa99596cac8767e99f89a7899caa66a9475cb9a5d8ba6948a9d69a
col51:   16138163352646664666c397a55692a867654889a8964686a7382779a697936444186575a3361463
ROC:	 BPix_BpI_SEC4_LYR2_LDR7F_MOD1_ROC10
col00:   7738881675999895696a76ca97db979976b7a588ab9ca8ab8aaa6b9dca948b93869868652a693859
col01:   8a5b868858bba75e649ac3a8887b879d9a77cddb8abb96b778c6aa8ab8db9978798555b9a753b997
col02:   94768aaa6958a59968a9b7797a268ebaca8bba8da8d89a889fbbbcaebd797aca37ca887659667a84
col03:   e7a7756b6a7597a498b5bd7c8dd73c98ca8b879a7fa7a9ab8999788decc887bbba99ab97677ca888
col04:   598964a8886993897bd688678b98c6a999bacc8888b988a9e9fcb48cdb958aaa79a8cabda5966764
col05:   867571a846969856698699aba96989767cbca997a86979cb795a6d9ac7996b8c7844655b78879678
col06:   98879a87aa9a8bda6c77a4ba967b99d686a9a99cb899797c9a988bb7abcb8aad88aa798ea69da776
col07:   a2427888976868b892a78caba89686ba9ca9cd69c689aabc9d96cd8aebaab97ab457b8a78895666a
col08:   579b93a997747555c7599798bb8b58947ac93abc89a989aa7acc986cf67b9bb8b7c8a6b7998b8945
col09:   98949c66795a5a49ca7a89abbadbc98bdd9b9abbe79ba99bdcaa977cacbaadca7c87998d759c4889
col10:   95a4974969696a7b577868aa876b54bc9ba75a8ad9a9bb98a89ada9b6897aa9caab979a74a482aa5
col11:   28664535665968676a3496a79a749955b9a689c98b89aaa89ca5aa9c6cb976886b866b8986778491
col12:   7a767a686767b77695a3aac9b7dd9799a98bbc6b68e85bba97b8a8ba78ddbc99a9a8689d89db9984
col13:   7a798868c59965a769bc98aa9cb9c9bb788695cbc66b696c9c7a988c8aa9e87aba9979a99867c954
col14:   9284a4956b76885b6597788c99997a789a9b79b97c8cc88c4ab9ab649d8dab859ad8a98765485693
col15:   69765888798c79a88597a976878aaba9b7b797b76aa79f78999996ab98bba4aa98b9d6b7ae76b8a4
col16:   7688665b4796997688ba497ca968db78a9a99a7ab977aae88cacbc6a7b9a89ac8ba9ac7d88694765
col17:   775bb9559a656597887a6aca8977a5bddb777dbcb8dc8975ac9774aca586b87ca8a85a28a9566567
col18:   5885579a998794c58886a8b8c998b8daa989a89cc96ba77bcaab9889998c9543a6aa987c9aaa5ca2
col19:   4a5679699b77c78aba8cc5b8acb7ab998aa786cbcbb769989b899bc8cab98cba7b5998a7859a9768
col20:   67588856588776498797c58868999ba8ba77796aa9bad989668795789bc77a97e7977a7a37987476
col21:   747497b8587694756d4e98a887aeaaebaadcaaab6667faa9698a89968acacca6894b46a79b788689
col22:   5859b798ca58d8998db5688a7bbbb698948b6789abe7b6ba76bb994a9b786bd789ac78d9b978a656
col23:   79496497a697646c8696e8758aa99b98b6889db99a97ab43ba9958aa886c99888c56a966569b4a83
col24:   7755a897587968b55ca79468bb699a7a9ba788c67c9ab897c89987dbb6ad96b8a6c68797ba74a799
col25:   977a356959aa778a7acc999b888ebbaa8987bbb99b8ba8dcca8a9bbb8bb9966a9c7aa8ba56b3757b
col26:   b778989898a797c98aab8acabdcc99babac6b7ec7ceacebc9ebcc88d8ecd9b6b76b87a87a9b99e78
col27:   2b9ab8a5a4a999d9b688866be9bdcecc8abb9aeb7aac9bbaaccacb7dfbbb9baa79c97bd4ccaa8a88
col28:   918457ab99acc8aa8a99babaa9cccfbdbe98bdcbabcdcff8cb88cbd9dbcdcdc6fbc9a985cb7668a9
col29:   7796bc986a8b99ae87baa8cdbb8bcaabecdce87abbddbad9cafac8aab8b9c7eaaa888ccccb997985
col30:   9589a78b9aca8c9cc8ace7999cadabccaabdba9fccdec6fa9ab99dedb6cccbeeafd6cacbe789ccce
col31:   798676bbd9aac7baaaab98aaafbd9eadecbcbb9a89ade9afcddbcaccbdadcbfe9a899cd9b7b8a988
col32:   7776b7cba968bacb899abce7bceedfccccaaaa9c69baadc9aafcbf7cc9eeb99bf8f9acf989acbc55
col33:   8abd97559caea99b9a9dad7c9bdbbaecceeadcc9a98cd69bacbfcbfaeaafdbdacbd8aacaa9dcd783
col34:   9998974abcabc9dbcbccccacd9aa85d7caedbdbdffa8cddbcea8baba9ea99bbaad8a9d7cae9cb789
col35:   ba98886e99cab99dbdd7caedcdad9c999f9efcfbcebbab9accbbdcbcedbcebccaf9eeaa8ddb9ba97
col36:   6b79b99cacee8ea7b7e89e89bf9bedbc9aabcdacdccaaf9ccbc8cebcaabcaaadadb9e8a7899c56bb
col37:   d979cb9ac89ed6b8a9aa8bfaaf8cbccdb9ecdbccbffdff9aefeabfbcedabdbaccdbacda9ccdbab96
col38:   e987cbab9cd8bd8bd9ccbcbcc9baffbbde8abeadfafadcb7dcbaaebcfcdeda8caeabcddacdad9e98
col39:   a8dabdaacaab7bdd9eadcb9cebbbbc9c9bac8cceacddfee9debdccaadcdeb77dad9addd9ca8db9c8
col40:   de65bcba9fbadbbbacbacafccdbfda8cacdcefefecdecfdcf7b9cbefcfbdbddacabcc67faca8d88a
col41:   b8aac9b788babecc9ccbb6dacdabc8bddfbcddefafffcbedcc8fddbcdbbaf998fdb8acf8988c99b8
col42:   a5dd9dbb8c9aadc8cf9a9cbacadceee98ebb9cc9ebcc8dfaebdc8eedbaa9dcd99eadbca8ad9cb7c6
col43:   99aa769fadbcce88bcedbb8b97baabcd9fbecdcbadfdc6bfa8dbabacceaf98abce9ebdea8ed9a84c
col44:   b79afbabbcb9cbac9ab6daccdeba9ebe9ceeeeebcebfebeedeadabbed99acbcccccebba99cab8cbb
col45:   95d896aac8daeeaab9cbabcbbabaa9bedceedfbcdfebbddcdfcabd9dccebdedd9ebbfab7c8bac6b7
col46:   9639a79757a78caa7db98bcc659ddebbdc9bee9fceaab9cdaf9eabdfafcbfd9a7dce8fb99abaca99
col47:   67bcb3a8baac7e98abbcacccbbadaeaebcdddccf99998aecbb8bebbbb9dcfdabcdecadb9888bae9a
col48:   c9cbc9b88faacbabaa8adcc6dfabccaccfea9fdddffabcfcdecfcabfdd8bdbcab8abbba76f8c7ba9
col49:   ab9b6aaabacabbaab8ddb8ceadaada7cfbbebdbbfcdafffdcefebdd6bfbafaddcebf9b99ccb9a4b9
col50:   cbabcaa7db9e6ac96faaaa9aa99bebbbedfb9dbbdcefdcdbbfcabfcdedcccb7aada9bbad979a89a7
col51:   99b96968696a886766a989a78a57a59a765bbec7dad9b999aaaaa87cf99998aa7d9a997987589a77
ROC:	 BPix_BpI_SEC4_LYR2_LDR7F_MOD1_ROC11
col00:   683862677696876569679986979a9cb464a998857747679a8a9a8646a9e8967978779774959b7757
col01:   855668859765b67968898967975aa9a5999b7699cb596ca8936c6888c4ba76d7889b787a7d95876a
col02:   2935845463466857e869a8698869396b8b4d897977a8a7a88b99a59a869e98c666a4a7b86ab993b9
col03:   5454987867b97697d7a8b6a8479aa895b87999e89c9c89769c49a9acbc4888889887b9b9ba485882
col04:   974288295789b5872c9bac7bcb7b8977aacbb9998898a5766b8caad98788b6588c9aa86b7caaa776
col05:   68b8a6a658a695b99a866c8babc96999a8ea8a9a96c9a768bbaa77ab99c9a7c7967a96cba56b779b
col06:   696498a37c75b6c9ab69d8889bb8c9ca8d4a9cdda9a8dbd98d8bb84c79a9a8a99ab8a99a9658776b
col07:   566687a68875b77459589279bb8aaa88a2c7699969698cba9d68bcc96b88a99b795a55967992c98a
col08:   6838954686479699d77b78ac9a9967a69898958c8488979856a8dfab6898ab5a69b69a5688858c15
col09:   58649987b99699b78885b999da9b6aa8bba7c7788cea996ba86daa77db98956998aa69b59378aab7
col10:   667b89977897c39b55cb7b4b49989aabc978bad7a9998bc5c79858c669696586b5b79468aa799b79
col11:   945a865675a77b77877b69b989988bc8877866ad98a8a9b8a8acca5a987c78ba7a58957778b6ab77
col12:   799748a97a874679569c69d67aa759569b98a8a899bad68988c798c9eb9a3c985cbc8928e9a82995
col13:   6798459868a7688a79c888b9788ca49bbb9bbf8aa88689667b7abaaac7c8cb8a88b58a777b689bab
col14:   5273888588a886479b8b6768c875c8799669657676b6cb796aaa7a868abac8975ca1b939a85bc889
col15:   3553a77535b85a9974a457a989bd78daabb999b698aaccaba9aa994d646acb7699578527a8ab94d6
col16:   676487676683897587e577835bc78a9b9ad878aa578b7eaba9b568ccba688979948b9a7798b748aa
col17:   3739a6945978885856558c887c7dc8bab7ab6895ab787abad86a8a77a787a89a689aac9c4b9466b5
col18:   6957376757ec76b64897966c997aa9b9b6b59db9a385eca98d7aa879677967a8dbd9b78777599976
col19:   7897a7966877989686797ba88b897cba9bdb8a998aaaa97a9b6a8768a69aaba5aac4c545aa6799b3
col20:   7493858a89777957756497988a4795c9b97a857556869988468aaa8a967877777785788da5789463
col21:   7a86aa76677b5c6487b8866a96a688abca78db8978988c959aa5a7668aba887a88bc4496a8a97788
col22:   67a989a6796889658b9986d956a4caaa9484abc68b6686b9b7b6a96fd94d5a8bba8886a89687a959
col23:   4865857667b57d86875bb78c868aac85969789abdc9bb9c778779a5b8bb9ad9988c9467a5cc87986
col24:   667887a467978a69b9978859b8a647869aa979775b6d878997c8a486796a78cac677a68589a65973
col25:   254864b7a9687839baa87958a999786c7c68bbccac89976ab79da9b6b7ad78859b6b9656ba85a838
col26:   5977b78784b775759decaab89caacbc86886babdaaa8d89ba99abb9ac56bcba5bda9b79b95ea9abb
col27:   89b57976b96abbe5cda7a8a99c6e8acabd9bbcb66afbb98bb7dc8c9baf7898cb99cd9f999a87a444
col28:   87a48a869ea969a85676aa8bc8aca9dceb98caaa7a8c7bddd6adca9bb8dbbababac7bad98c97aac8
col29:   757695b98a995798a77a8ba99babbd9bb5dbc5caaaae9abcabd88c9ac8da9aaaa9786cad9bac95c8
col30:   86bb6895aa588ab7ba8bbac979fdbebbecba9aaccb89ab8a899c9d8cab9b98daa7d97ab9d6db79b8
col31:   55427aa8a979c68db7fa99b9ab9dfc5edd9c9bdccba986d8bbbbbdaabec7bcdabcb99997cdd696aa
col32:   89b88c9aaa9bd889e8ce7aa89ca8c9a9bda78fe9cc9bbbcad7ed9a8dbfa697acb579d88dc7ba6979
col33:   b98a955977b7c8797598e9ddacd9badbdf9aae8cfc9babc8aa9eccdbc97db9eb9b86b98bbf69edaa
col34:   79aabac8acb3dab8877abaaddc9a9b6cb88cdcdada9c9bbcceea9f9ceaebbbcb9cabccb8ba9babc9
col35:   57ab66a6ab9ae8b9a8effab8e988f895eaebc8bbb9b9aaa7b98abbcb77dbd8c9da9bba9dba89b765
col36:   b598aaaab69bca9b59ab8a989bdeabdbaedcfdbadd9baf9acacdccac6bbc78abdce989a9cbbbadb8
col37:   96589b49cca9896acbbacdd9bbc8ccb9ccacc9dd9898ca8dcc97cebfaddfab8d98ada7aacb9c9a9b
col38:   68bb7a9abc9badbcacddacbccbfdaa7bc88aca4a9da9dcabbfcfcadfec9baabbbbdbe8ca8c97d9e9
col39:   7885789c8979b8ddbcadbcbe7dbaecabc78dafebcbb9bbcba9cebbbbb6788ccab9ccbefca8ca64ab
col40:   89b974aa687ab97a689caf7c7e9bd9cdef97de8ccecdbdca9b7ecbbaa899cbb89aa97bbdadce7789
col41:   7588889c8b9ceaddb98abbb8ba87de8d9bbbdab7bcd9eadcd9d7eab7cac9abb9ba7cadda888abba9
col42:   aa57cc68acb979d67c86a73daa9ffcba8fb8dcbbabfbbceb8f99bca8edb8aebb5b9a9aacb9b8d9da
col43:   6a68686a7aba69a999cbacdddbcf8d83dbbfacfacbb97dd8dcd699baec9dadb9bad9ebdfabe5c89d
col44:   ab94caac9ca9c9aba8c97c98a9a8dddcb8dcfdb6df8afdfcbbb788cdb86cef9f88a6ecdbd8c7bbb9
col45:   4b7b84b9b9a89899ba8aab8bbddf99cbcda9ab8aaecba8bc98bdaacabbae9bbb957cbccdaedaabc8
col46:   a97a8a66bb7ce7aa975b6dc9bcbbbadad8dcbaa9ab99a9acbeb8bbfc97ccadfdeae87bfcb99c7668
col47:   8718b9ab7baa876be9b9b9abfa8abacadcdd8caacdbbddbcbcbf8cb6accbfaca7cddba888acbad95
col48:   7c9976ad7ca6c787a6dba9abe7e9daebaa9d8fbb99b9cbd79cfbdbcdca9bbb9a9dabaa5eaa97bc98
col49:   a3b77659bdbdbad88bcbbe8aabbcaba9cc9d9a8bebbd7dc9caeabaacccccecceb8bbc9acddace6b9
col50:   6ab96859d9bbad86e8a78bc997a9be99bb99ddfcdacbfbaec9b7ee99bdcf8f7fb9abae89a9d99daa
col51:   68663aa888bba97d9186a5cb5c6a8a58a89aa9d9aadba57e5abc79bc878b95dd88c39ca977a7b7b7
ROC:	 BPix_BpI_SEC4_LYR2_LDR7F_MOD1_ROC12
col00:   437782a659856683998486374a7875a5776b8548473452648685c22aa59425887a95748866944543
col01:   6646654628864c85687785ba8578748a585877899a56983cb72987958962977a54963a65996895c1
col02:   446748694646b6279a67856a859899b8786189b67678776569c5a6867d4ca67833a55a3388769ab5
col03:   8743b3598c4783a78dc58bc9b879daa48a7497e924b94994878387aac8d664779979b89748577c45
col04:   6495a8987659569568769866d5568778d59bcb64a88a4897e69786c6556a689546578a7736653996
col05:   6795965777b268958766754a59768573bb71abaa7565b639578c7b686297b8998657b88959977562
col06:   4365449816ba3678853779ab6a675ae9b9c67a66965748967748a88788aa7986888a664763747734
col07:   31667568636799b9abcaaa8896b9ba984abb9abbbb86586c9ba999b76be5c878a97c339264994ba6
col08:   a73259ac7854997a9a85765aa595c459895ad9a989a999a9aa8898b89767b8674688769892877898
col09:   878577a78777a479885785c8a58699b5ba798796aa65c89c9b8bb9699798489ac85ba75786768ab5
col10:   57577566a76968795897aa9ac7547d9ba988c9c8b7b867ab96678a879b78d7d96b678787a5a3a656
col11:   7459767663b575b49cbca8859987896a7a6b999548778c363878c99c897b97b75898538595a69856
col12:   7475768767d46cb76797a9b57679aaaa76a9be7d5999ac85b45d88baba89aa769ac65288478e7347
col13:   3973d77cbc597cbf8a8b7a7a94b7ab6d79aaa6b87ad67ec88a739b9a77855b6aa2da577682736a59
col14:   75463aa9a658899a7d5b596759bab865bb8cc37ba75458689a58589baddb6b869b88a5c46968a78a
col15:   742466a8a687a8859897558478a5889a87a69887b97a754c46cb79878678a778b776688a76479b95
col16:   746a79789646577977495ca899aabccacb84b48a3c585a99a98a9d8ba87a8bc468a799635986ac97
col17:   5576b1a89a86744958aba884d787787c977596d875699488a96b37358a246a46796a7776a8b69579
col18:   44554788587239889a6968936a6b94879d7ba985875bad5345cdb96c76a67ac65787b3b58b457853
col19:   693acb85c98ba89b7987997a8a7a8b6c678a69aaaaab9b896998d89aacab8986b69b57a4b548a6a3
col20:   68b6a87b6a5989357a69b6cabbb2d977ab2678684944b66bb5aa894a98b8ab9a9b757378b88885b3
col21:   34965878aa468967b87bc898989d578787a6c8979ab9a987bc865d7e9aa7aa657b8699b986b78884
col22:   76669a86a99b999869b74c85695a77bba99a5aa886b8a8c9a8b88aa9aab7aaa969c7876795a69868
col23:   266668689798a95a3577a685a8977a997c9ac8a7a6886a79763899889a78a6858a3a7868876567cb
col24:   29976979bb9377cc68995a4974bb79b85998c6469873da5a899689ac69ba379b36b9778789861b46
col25:   455a8978a586d59997689747a7b7ac8a9aab89a7b98cc87a85987cbd9aaba7986ab6495698499c48
col26:   c99697797c7caa9ab9eaaa8aaa3a899fddcb88eace9d89cccbc9386db7cb5ac98a99da8b95bcc963
col27:   a9895b97b68abb98ca99a949aa6adcf99accc9877ccb78ebdaacd9d9ccca9bb9f8b9b9a979b98aa9
col28:   a9869bb6b9ac88cc7a8acc5b8cc9b9e999ebcbcbbbb79baeabaa99cd8c4cbb88d9889aeb9ab988a9
col29:   7877b8c9a9abcaaaa9bab8abbdfaebb7a9b9bba7c6dce868cb98abeb7ad7caa8f8b997ba8bc8aab4
col30:   a89a98ba88d78dc9d89b7d5887ab7ae8aab9cabeb96bc988dcacc9b989c9aab7bcc5d98a98ca9776
col31:   88a78ba967a9a88abd988dabeaac9b9e7caac9dabcae9c7cf9bbcac99687bdab8a7b99c7b9c89bb7
col32:   89b89b89bd87bb9cefce8ab6cdb8dee7bbcafdcfedeeabadab9cbd8accbddeeeacd8a87bda8bacd3
col33:   4aa997eaba5bc5aaaaba9d8cb999cabdd9cce89cb2dcc5ff98eb8be7b8cabae7abcabad59dca9997
col34:   ab8ba77ccb8a9cd9edacbbdacbca6af9c9ce9cbcbbacccfcf97bfa9bb9d8b3a8598dd9c8a86e8bc5
col35:   967a9ca98c7ebebeacacd9a9a9dfbd8acaee7bfb8d9caeadbbade8ac9aaadbdc7ed888acceacedca
col36:   b6b5965ab99bbb99abcaf6d6aedf899ec9dbd9bbf8bba9beecba999ebcb9caa8e9bbbba886a58a56
col37:   c7b9facae89d8dcc678baadbbcddbeedafdbdfa6eecdcacdbac9f9cddcbcadb7be8aa7a8a7ea89c8
col38:   b8bb9cadc79c99eca89badabec9efbefeb8cccfbedaacd8c8fddab9558aadac9b7abea7dcdc6f9fd
col39:   ab66ccb9bb99b7ccbcbdacb8edef9fb9ade8abbabaad77aaea6bcdb8eadcdaa89f98bb9d9a8cbab8
col40:   95da57bb96fdabbdcb8c9aebcab8cfc9ed97addae9cddeeadaacc8ee6bd7c7abdfae9dd6bba889d9
col41:   79b49b99dfadceacbfdfcccbbaefdf9dd9bbfaf8ffdee98bdccbcadeda9eabefcedfb9fb899a6de9
col42:   99999899a9ddbaba7afcc7cbce699fefb7eb9aaa9aecbfcdbbc97fcdb8dfdb8dcb9dcbbe9e56ab79
col43:   ecbabd9bdbabbf8ebcdcdfbdcdcbfecbc8ffbfecedbebeccbcbebcdcedecdabebbabe8cffadaadac
col44:   d65c97dcebbbdaddaa9dde9a9dacbceca9babb9eedaeebccbcee69fe8e8cbab9baff9bd898acdeaa
col45:   b976aaddc8cbcdabbbbdab9a8eecbb9bfcecb8adccabeed7c9a7c9bbad9e8b9ed9dbddc97cd8967a
col46:   bab9bec7dbdbad88eabb9eecdacd998d9cddeb9acbedaaacfdd9a9c8abcbb7cafdab7cbaf789cda4
col47:   ad8ccd9b7b7bbdfccca68cfecf9dcaebbeafdc9fdcefdbdbacdaeadadbfdfbdd9ccfcabdbccd99a8
col48:   aa6a8e8ac8b8b9a6eac79dfc8edbfccdbdeddccbece5aa5fffca79cbdbcbd8bdd8bcd9ac5bbbabc8
col49:   985ac9d9afaac9d8bdecceec9bfeeccdebdfdacbaccdecd99dace6ecffdafea7d6ac8d8acbacd9aa
col50:   8996f7eddd8fecbfaebbfb86ecbcefbbfefbdeaeffeeeafbfbeccaacbcf8bfbfa9cb9ac8ccd8c8cd
col51:   7687798a88a8788ab78a8979dbcb8c86ae7adf8b6b9ba8ab9ccd4278c57a999886a566a549dc9489
ROC:	 BPix_BpI_SEC4_LYR2_LDR7F_MOD1_ROC13
col00:   5667979776787977a69857789b67788a5aba7799ab686cb7aeabc5a988aba854a69585667599a164
col01:   9987c996558aa9ca8c88797cad8b9dc5989b9abbadaab6dbbbdca9dabd6ac978c5c76968b7957a67
col02:   564a984a9757766868686788ba8b7ca59766b6ab7a99aacbc974bba7bbcef768b65ca4786a897b94
col03:   7668aa978a596589bbcc9777886dabcb9aca9b2dea98a84ad9bb8b9aa6cb986878b698586767a6a7
col04:   9569853695ca9986796c9ab8c99a989dba99cfa98cc5cb799cc89beabbbca8c9996d8a97ac768874
col05:   57956c77a7667a67d889c6b8b9ba9addb4278ba8b999eabba9a95c66ba859baa826a8967aaa68485
col06:   86a6a656a8b78aa48ba9c5bc9c88bbacfc5ba9ad8be9bbf9a7b9ba8dbc6798779aa68867a9aaa844
col07:   8a6a8a9d96ab8acb759b9a7cba996cab87b887796aa67aaaaaa6d5ac7a8c7b5a5a9ab96a98a57693
col08:   a77a8b8678586ba7587a8a89b89c4b7aba6fb5a8ac989cab6889d9ac8c7868c9a8747756775775b7
col09:   27d876b688d59bb78aecccbcb8769a998599a98bcaaaa69a9ba88b9cc78bcba9787ba7b8798b89b8
col10:   836a6a74b7accb6c789aa99bc7a78c999c78eecaeacbab999fbbaccb9a88ba7e7b59589ba7797886
col11:   b8858ac7b989869bba978a88e7dc94dcea7bbcc94aacdd9abf8ba9797c7999bba8b85687a6699765
col12:   46574a8579b9a797898889aa6e9aab7db8a98bae8dd8c69a79eaa9b88687a988ab8b84b7756b8734
col13:   8668ac9b9996bbda65a9b69ba96b89bcab99acdccb8b7a9baa2b697a6a9c8a78b69578767974767c
col14:   8654b5cc9c9667698a56766b9aba94b48f2c6acdc66aabb77b6dd79aa99bbb9ab9f69774429296a7
col15:   64488766989b9d3bada8686ac677baab99969ba99dcb9a7b89769aaa35966e766755975873a66781
col16:   66968695c885596a8959bba867b9997accec9a999a98aadacc96776b8b6859a99ab88556b8555864
col17:   7759858669885e689bc8b87ccaa8bacadb6a46b79c8bea8c9a9a6babd8b98cbc58c68657868a8417
col18:   57686584677b4a96844799b9ca5c87f9b9a9ac696ba9b7c2878cbca9a6dbaaa984c655a7994a9486
col19:   b785547996ab68696aca8a8beb7ab9caaccbfdcb97be9accebabe899c9c8589c88c57d9798a9d628
col20:   67977867ba888b97589aa78a8a59688d9998ab9cb99999c88aaaaa7c8abac9b88c88a856671466a4
col21:   a98a85648d5ac359b8bc6698dba9d9abdbb979b8a8895cb989896cb8a89a2ba576aa7718599a5234
col22:   d968d67785578699a98b886978bab7a7cbacd88c8a9d8a8968daaea6e78a697b869c98c586846775
col23:   76a9779899a7a68aba996a8a9bda998a89b9aabccbd7a87c7848b76677666989c68966769845a422
col24:   996b4879944769a5889ab79996bb89bb6a68b997acd978879cb98ca9baba78799794765968976571
col25:   b98969b8883e98cb9bbb98ca9a89689bb89db8ebdd98a9cba3ad949edad976cab969da6b866337a6
col26:   a4678aa8cdb87cabdb58df9dcbabbbbac9cbbbfeb9cbacc9a8cddb7ca9ccdcbca8e78a8b782a6716
col27:   969d2ecbb7abbc8bbe9a9a8cc7ada88c9beabbbcedad9ecb9e9bc8a77ccabcb7999ca7899a857b26
col28:   75a6879b7b96caaeafaabba9decbabebdeb7dbaabbcb8b9cae6cdcabbdacfb9ac779bb8c737a7585
col29:   a99b5b9cdba9e9dabbaa9ca6afaba99d98a7b6cbdbbdd6b98cca7dbab9baaba88a7c9bc8a8759873
col30:   94586baea7998aed9a759acecb8dbf7bcb9b9bc6c9abfecbebbbdf8adbd8778989868987865988b6
col31:   c8a7d9aeac99ab9adcdbd9cafa9db8aafbecfced99badbbeffce8caaafacca7acac988db8c9c8a91
col32:   7bb89b98a8bb6aab9abbaea9fcbbee9ededcaacabde9bbadc9b999fddbaccc8aeeb997ac4caa7643
col33:   ba888ca8aec9ced9a89ebbfc9ecabcccaa9ccadc9e9d5a7cbfcbac9bced997a86a99ca967b975874
col34:   aa9abaad98d96ccbbfce9bedfeb98b7dccefbbeacbcc9ececddbdd8bb9cf98aab9a9b6aaa685f684
col35:   bb7bc6c998bb9bacbea5999dadbdfbcbcae7bbdcc79cfbefe7d9cebb8da5ec74b9dbda68d5c83666
col36:   7b9cbb78ace9e7c8edacda949ec79bd98dbbc89abcbd9cdacaaa97ccadcaf779eac7c9ae83658a8b
col37:   a6dc9899ba9b9e9cbd8dcada9a74ccedbcbcf8afaebeebbdabf98bfccdcdaa8fa8a599a6a13bc787
col38:   a8bbfb69cacede8c8c7bbaa9bbadda7ce9abafcdfbcec8cfbf9aeeaeabb9b7bacabcdfba99daa666
col39:   7c68778a7cbd99adbab99bcbfdeb8cc9fcdebbceea8afbfdbbceccaeea9bbaa4e77b5966939a5674
col40:   c889bcabc9bb6ecebbbbdc9bc6ce9ddd8ccafdacbadafdea9ada8caa7aec9a8c8a8ab6a8a888b886
col41:   9abcaac7988cbb9cae69bb8bddabfbbddbbecbafeec8cccddf9bdeacfad8ea6cbeecbfa9f768aa9b
col42:   7b888ab8adab8eaadb9effcabdbe9ca9ccdcbba8ebdb9c9fbbabeccca8ba9b8ac8a6ab4cd7988773
col43:   bcaab7ad9cd9bbdcbc7ccb9bcbbeebbddaddffeebdcada9cbbe8f9fcdf89ab78b86a89b7ae8868c7
col44:   faedab7c7baeada8da9fadda9b5dcfdcccfcfecfceceefcecbeedb9cfbbb9ab9ab87b6abac99bc8b
col45:   abccbf58bda7abcca9bbacadeec7dbcbc6cecdbebbaebcdb8ff6a9aacacc9cd9abf89a9ba8b85ba2
col46:   799a8c9ccabadacbdc8d9deb99cecbdbcedfc99abcdeaecddbdcb9ab9abbbaabd9bca48bad8ac787
col47:   a7b9eab848caccabccade9bbbeaabae9feccdceb9baddcddaaf9ffccbbc9b8b9ba9aca9ab9c7a898
col48:   db9c9aeb8a99adfcd7dbceb8dd9b9bbfcd8bbc89afcdadceedac99cceaae49bca99a95d987ca5796
col49:   cdaace8998cab7bcc8addec9bdfafab8bbbec78fcddaaedcbbcaadaead89cc99786d96895a797697
col50:   cba989ba7bdb8addca889eecbaebdcddedcecccdfbd9b9eaaccbda99be8dfa79ba46aabbc6b69777
col51:   4666847c467aa9978b8dca7999bbdbca697a66ea8c9ebc77c8bb9a48a7ae5a9ca7458b627866b584
ROC:	 BPix_BpI_SEC4_LYR2_LDR7F_MOD1_ROC14
col00:   475777448686478565575678479854a86a6965685779a8649867866a976543647769666566656541
col01:   9967b86697868a9a99c999b9898489c95a9a8786a67de746855788768a87685a58a66a9a96965393
col02:   9778678998a78a4a887aaa99caa9c7a596a68769a795b978bc886b89997a96779789d745a646a642
col03:   9c736a99d528a76777459979769a786ba698d9b89888c9a9b89a68b68c889a98666b55c978997694
col04:   88a5a799b968968799aaa988c9797a87b7b5aac899a69a569766b67aba979a4988967899555bb677
col05:   7b975535999a97ab86499b8aa6bca594c7997b88ba9ed96a99a987986789a98788a5979889698936
col06:   67678695749ba79877694686488889995899a99abbb8858a9ba6968985b989b775a77899868b6864
col07:   6956b8995777659dc93a7b96b79a9a9ba9b87bbadc69795698b69689b56b9aaa87979a9a9bcc97a6
col08:   93c89a6a7a868a659782a9969798b7a7779dbbb8987c9bb999bcc69a89bb7878c89c9a687ab98898
col09:   9475b76b7a993a589a787b5999bb9b7b9e8979d4a88ab8985abc97a8a7989a89ba98895a898a8994
col10:   8773695687a3988c8747849a8bd5899a997c6ba7799ab6bb68b5caa988699a7996ca7785b76a3786
col11:   656556a7798a5c7ba6db5987996878ada8a7a9d7d667a97a8a97b975ba968c8a68a783799a949696
col12:   567a8ab4b8a5878896bcb7698776b7c7c78b989274786886ab759a597cb976787887797982a686a6
col13:   8363b49388a977687bb989ac9ab9dbc9a96b9969a9a8cb959aa7a7aa4759bad799ba78c78ac67cab
col14:   9849a762b87aa7ba969c678949897c85adb89adaca97999da9bac897c9957c7bae7a78bbaa693a35
col15:   765799576779686a798baa9ba879c9696699a5baba7b9a86c979fb298674c8d9a79a687949676795
col16:   966728aa988a9d9a578aa9aae8a977a9c98aa99a7c967d87c6e99a99aa9a79a677b8a686a7dc7875
col17:   677677b5865998a4868467b8bb8bcca989688aa97bc9d9d75eac98a7aabb6a6bc5b349ba987947b5
col18:   6a68a549998a498b978cb7ca99b8a7a798988ba8bd89a8ab7678cc9ab8877c8a898679666a767b75
col19:   79a675978869c88789b49888a7ca99a5ad9a789989ccaaaa979aa6a57c6793989b8d69bb88a97877
col20:   53878984976377877678abb8a7987b8989ab87b7eb98cd9cb89979a88b98a7b9c7b8958888847694
col21:   596959685a7886a6699566b846799999679ba579a6bcc79d7babcab8a7b8c86c969b76a7a88a9986
col22:   725892897ab5617dbb9b9877a98a58abcbaa8a89b9ecb8a979a9a89a98bba9a9a8aa99869a877977
col23:   79774899797797898a598977a88aa78da79e949a7b9bf979aa889986a6987748b696a9b86a797787
col24:   68a64488c978a9698ab97a95a9a568a7baa6986a4997c99a97879b678bc9a2889db4ab5875a76c77
col25:   a8a57979c5aca7ab9688979cbca879b8bdab97a9aab7aa69b9a78cd9aa99a956b6ac96caa7ba7b9a
col26:   c786ca9a98896989c9bc99cbb9a889a9bba49add9acd78c9cbadb8d8b99ad7ca8da5e9b6ae8baabb
col27:   388899abc6b6a978a7babbcbc9a8b8d9abacdcab97c89aa89f9cdebaabbecabc78b9888ba97cbba5
col28:   767d49aacba979aaad65b8cbbbc788ea8afaa9bd9c69da8cbd9ab98ddaeaba9ced9aebc9996aa9d4
col29:   5849b896c8cbaacaa9bc99a8dbadad999caccaabcccbe8bbb9caacacbbbf7cfd989c79b9b8e99da8
col30:   6b9abba9a797bb4eaaad8797cc7b9ba8aaaaaabdabccc9c7bdbdba8e899cf8bbcda999d8bc996978
col31:   4b98bad899ba6abcc8b9ac78ccbddb9bae9adbbb9baccb99ec9cdacedbc9bc5bac7bc99cdabdcac8
col32:   9b57a899aa8888bc8b8ba8c8bcb8d7c8acbc9adbdebba98bdadddbcacbc88b9ceacbdacdccaaba5a
col33:   9bbb6a9ba98a9ea7b9d8b8c8db59b8cbec9ebbc7b7dedabdbdb98ebcc8dc995bb89e7a7b8abb9bb8
col34:   88c7b99ba9c9a99bbdbabb8a8cc9acbdae8b87ebfedb9c9d99c9abac9ab9aba8dbb89aacd8c9a7db
col35:   ba579ddba9bda9bdb7d9badc7aadc789bbbdc9a9bbcc9cbbac8ca9bbffdabecbabadabab9b7c899a
col36:   9aa7cbaac8a99d989d89ca99caad9cccb8bbc9acb9aaccbdc9bbcbfcbd8ea899ad9a9bdbabfceb78
col37:   9a7cabaacccb9a9ccc98cafdd9cbebdadcce7ebfabcadbf9dcb7badccbc8cccbb9cc8d8caddbc998
col38:   b9a98aba6abdb9baa7bf7c9de8ecfc9dabadcccdddb9aabcadccdccceb8acdfc7ca9ab9bea9bbde7
col39:   896d7b7c8989999daa98aac9eaaddbd9dadcbdac8a99eebeab998acbabd8cca9aa999b9dc7b9b9b7
col40:   b89d8abbddba99caddd979addccdebbecdbcccb99fbc9bdccb8cbabdca9b88ddfeb8cdbbddcbc9ba
col41:   b6bcdabdc9cacab9d6b9bbccababdbeacbbbca9cdcbbbcdbdcafd9aafcbcdcc5acbfde7bccbbbdc7
col42:   879bba789bb8acdbcbac8abcdc898d9cbaacb9cbec78d8aacccdd8bbcebceab9ebabd99daaad9aab
col43:   a97c8bbcccefbbbadddcbdcccacddead9d9b8deebccdecaac9caecccdddecfadfbf9abacedfbcda8
col44:   a9999afdabc9cb7e8cccbaabcbb89aedbccaebd9edbb6ce9d8dafedbcc9abeddebaabdacfb9df9d8
col45:   89b9a6bd8dbe9a99cacb9bbbaccbbccdcbf9deeeabaebfaadacd9addc8dceccb789bbbbccddaef99
col46:   b99ba8a8b7ba8dcccddcad8abbdbcecaabedca98aacbdaaabdacbcbdbc9e8a999bebbbcaadcbccbb
col47:   aeaab9ab99bc7cbcbc9dfcccea8ceaaddeb7eddaca79bd7dddebbfbedccdddbccccebbcdfcaefc97
col48:   8b9aa9ec9c9d7cb9cacadcccccdbae9bddfcabe9bb7bebbadb8babadbdd9feadebb9aabdcbecdcba
col49:   98acbac9ebabecbbcc8cafcbbddbcceccdfedfacdfecbcccbdccccedcbdbefeddbeebfcbaeceecca
col50:   cdd99d99badbcdbdccee9bae7baceceb99ccebabbefc7bbccceafdcebdcdcddbdedcedfdc7cbbed9
col51:   a9a98b7cab77999ab88caccb7ceba9eadabaeabdbb8fbddbbce8cbfc99a8696aecabbabb979adcaa
ROC:	 BPix_BpI_SEC4_LYR2_LDR7F_MOD1_ROC15
col00:   a79251257881875727b69671574878997c7977a565836776775398c9a678977976a8775796ba54a7
col01:   16968476b487666a64656785a6669767a96d499c878c7b8287996885cab87bccf95798868b79a8a7
col02:   5a7a85566899784785686a6596a365a6a9a8d7685ba7768a676a6aac697a54abe1952387a567a998
col03:   8738b8564778969649b7dc7c7a576c8ba8a89c58767aa85e7a5a795a89a8e8766758798a59c9a997
col04:   76b79848a859458949a765b6598586997978889ac77757769a449cb97798aa8a6979678778999876
col05:   782555a37587786a49648d57997885a95978ea7b3a9adb6ab96977a8abba74887688898796574aa5
col06:   58569598536798978898359ac6ad8999a67c78895999a9888ab7879a89ab8849aa99a798b5774566
col07:   79888858793b684a99a3b78acd8ac88a8c9b88978678578967c9a9878ba6baba9a89ada8b7997d96
col08:   55678979647988ab85ab5d8a8a98988cb9caca889c589b989968ba599c997a9a68a82656c7a69737
col09:   899576488687568887aa77bcb98dba7a89a8bb8d76a77b97b7cba8a8ac58bb8a859ab9898a946956
col10:   5896767b8a978796ab7959587d58b6ab76ca77bb78996aacaa9aab7bb7b97bc7a5b88989898b6a95
col11:   965576886677468a979877a68b6cb7ba6ade69668b89a8986b9c6acbc9aba797776c9b8758a8ba55
col12:   45b6696776c66896a68799899944a6a78c978976baa76bab687579aaa995aab88b9a9a693b778865
col13:   6a927b7898a9889966c8795aa8979bc97a7ad8c5ab98aab589a6bb789a9ac989ca59978c99a878b6
col14:   47548a755c988998bc67886988595b75b87b98ca679fabe8949626887b69a8aa4ac858c988a99983
col15:   76956b7a99988aa6a5a99686799acca888b99a7c89a9896c898a9688d9b9cacc786a349599665359
col16:   477669589a6ca88b8c879a68bb68b8baa8b7accbd99d78aa896b86caa98b96a8889b898768289569
col17:   57a97a96c778a65a959acb99a97a999a999a9ba9a9cbbbaa8c76a9c76a8689c88a8a976847ca4484
col18:   4a56287865a8b858c48777a75ba9ab88a969889aba89bb979a8a9ac8c8c797697b69876b99868585
col19:   7ab496954588a99b68a588a8e987cb8bbbadaba6a8a8576ba8b8abbaba8a788c8aa8a77dc676989a
col20:   5667ca799687a697bb569986b779a988dd9c9f66ddc8a8599867dc7cc5b8a87a644767689988cc84
col21:   3c64998b97676489c888a786a7997774a4799cdbb79cb768788886aa7b6a59a99aab9a98cd3a6764
col22:   55b658997c986abcb4868c7679baaa858ab9b7aab79a967a6bcd9897b88aaa9baa688aab9c279874
col23:   8a583568abb886c9c96677a7a45579aacc97e89abaa89cbb6a98ca9bab4789ba77896477657a5828
col24:   7677875496c87486997c978bab599c788988aea9ba749bad6c8bc9a776969c795dbbb9aa78768a61
col25:   66ba67a9b574977a8a8baa9af89baad9caaab8d8889c99dbca88c98bac6aba9c7ec577898b97b859
col26:   a78a89988aac89ac5a9ba7c9aac97ccb9b8db88cda7c6cb8ddbfc5eaaacfa8a8b9a7ba4679728b86
col27:   766888b6765b8999acaa7babb988ddafbcabb989a87a9dabbb9dacfacfb9aa8bdc9b98597cb9b753
col28:   99cc8a6da997a99a8bb99a97d9dbccdb8cc9bac7c9cecab9c7bbcd88cbacbaa88abbdaacbcac8893
col29:   776ab879a7c5b8c68b9ba8babec99bd9dd89bc9bfa9b7cacb9b9baa9c9caead8bad86bb68fb5c8a9
col30:   d677697796798967caae9bb9cab9ade9d6bc99cbe8cacb5aacbaaacca899dcbb7bb7b9d9979a7697
col31:   5976da97996adc9daa9fcbeb7deaebcdbeceaa8bd8ccababdcc9eaa9eb9ad9b8cacb9b9abb898ba9
col32:   95a789b6acbda9bddaa9f9bcacaaeccda8c9c9bcbab8bbcbbbddbccacccaac6c9a7b7b999a66b9b2
col33:   8aa87a998fcdbd9babbaebbd9caedcc9bdda9e8bdbd7bc8d9cb7cbdda8c97daeaccaa8abab9ab8c7
col34:   788aaa87abaaaaca8aee98b5a7ccfccbfaddedbcd9ccdbbcbc69cddc9aead7dada8c9cb897ac8c77
col35:   6acb9cc8b9bd9cbd77deddbaadbcbcdbcaecdbfddcd8dccdcdcedadbcfb9a9baea9986bc9baac898
col36:   baa96b7bbab9bcb8cca999aabbaab9acdbdebdccae8baaa9babdbcb8bfdfabace8da9bc7cc9e8886
col37:   d67aa8ccabdabaf8cedeaacddccb9c7fcfdacbbedd9fdbccb9bbcbddefaecdcddaba9ccccbb8cbb8
col38:   8c8ba99cbac78acbdfccb879caffb9f8acccddddbdedecdbdfe9ddb8ecddbbc8daaabca9bbababa5
col39:   88d7bdc996b99bcaab68fbadecdabcceabbdecf9cc9ceda9cbdcbfa9cbbb9bceddbcac7bbfa8a865
col40:   79ab78bdbb889abdbbedba8bbdbcddbde8bcadaed9bbbeacddadeb9edfbabfbebbf8bcccea6aab86
col41:   59eabddad8dcb7eacecdebdddcfceadeddcbcdedabdcc9fceadeddcddcb7deb9a9abcac7ac7acbdc
col42:   ba8878ccbcfbdbda9cacacac9a9ebdebc8dabdecdebcbffdebbec8abb9aecdbdabaccabcb9be9ba9
col43:   97d8adc98cbbdbbdacddcbcdfcbaacbefbecfdfefdecbdbc9bdcfadddeeececcfda9ccedaeadd9c9
col44:   a96bacaafba9bcac8b79baeaceddfcaccceecddceaeedccccbffffd8c9bdf8aacbab9bcdad9fab97
col45:   8a9aba7aa8c9cbddabeeecd7eddebbadafe9c7cbcffcaeeccfccbcdcaedefcebaabdadaaddadbac9
col46:   ccbdfdab8ceba6decbec7babde8cdd8edcb8cbbbcecc9baefcedeccebfcfedabdabc9bbd9babec5a
col47:   adcaa87abacdde9beccdeefd9bbcdfedddcebefccefcbedfdbcfcf9decd9ceacfcdcbbd6dcd9aca7
col48:   b9ba8de99989cac8abcbcc8c9cdbedeabccbdacbccec7dadcabe8dadcfbd9dfbcbcacacbac9c9d79
col49:   8aa6aaccba9bbaddcb9ddcbccdddccdefeeefcdbfbeccdbbcdbcdccabddbdedcaea9cbddbbda69d6
col50:   98cbbce5bca9cb9bdce8cfe8cba9cfdc9dcaefbdecbdfeefffbfcfdeee8deabcdadbdbdabddccbeb
col51:   6658797c97898addbaab8aae9db8aaa98c9cbbafb8adcad9bccdbfcbadbecb9cba87ba9aa779bd58
