ROC:	 BPix_BpI_SEC3_LYR1_LDR2F_MOD1_ROC0
col00:   59568bb766bb7b86665b856bbb9b6b8685b89c7b658b7b9c563bb88b8864b6bcbbd5bb786b75b644
col01:   88956994587b66b84789883978a9bbb6e8b869bdbbb8a8b8bba7ac79688c9898d89bcb98bc494c89
col02:   8b7858bb3977b6b9868bbba6b6588bb9b8b7b748b86c98abb68bdab6854ecc977a9a89c757538795
col03:   b7b9892cc58895ab98b9b7c79a8ab7b7b748878eb678bb7a6ab99bb8cb6b6779b893687c66653376
col04:   b78d9b8b6b96b9bb7bb7b6789785bdcb5bb9b5886ab8c7ba6bbbbb7b9a6a5bb8876658b95b79887b
col05:   879829b9b78b8796c4c997b79bc677959a9ac987c7bbb8b8da76abfbd79aba26549b478285595585
col06:   c788c896999a8788bb89b969bb899cbcabc9658bbb77abc89ca888a8c7b8ba8bb8785b7459b86286
col07:   57b99a8858966986b89d6bb2c69db9cbb7eddb99c7bb58b8bb7aa8d5678b89b2987899896575977b
col08:   978997b36777b5954bb6b9d87c866bbb8cb9e6b6b79d77b898785888566a587a66796876bab8a488
col09:   75988ab67994588689796c6bedbbbbbbb89b99668c9e789889cb99a98b9cbc967998468b799877d9
col10:   757d9b88b96c769b876bc879b78bdbcd49bba7e99e598996b9bdb87e8c8c969b77777b5bc8bb5899
col11:   8789868d97668b6986a98b899d7b7cb87b5b89cb9c75686699786999e9a769b8ab78b49789c69678
col12:   9498c77565d788577757a879879adbb69c92b9b3377948b9777b689cbbd8a59798b756ab6a45a656
col13:   6b457354b789696988a95adb687c8bb77b47c9a7887b787979b7bc9cebbdba87859895cb47766796
col14:   4868899459a96b67957bba7797d9ba9b46bba7966b89b4d46aa66abdbbb8bc649582a7b886575789
col15:   8a679967796b4bb69b89bb7abbbcd8679bcb95b9c898e9a9b9a8bab79bbbbda7b9b837c768ab999a
col16:   5556787998b865887687b997898bc5dbd8b65bb77ba736be8c8b78678968bb58d8659ac8aa5b6717
col17:   5566856b3849a67779a883bc7d7987b9cbbbaba59ba4bb77798ba799b9b89c88967a9975bbb66a68
col18:   659c2769a67758b7676b7b8b7bac76c948ba8758bbabba467a896bcabbbdcb888b77b77b5896c477
col19:   6b7b778b6696bb88996da3b95bb7eb97aa6789b87c9a6c77a99bafbdbb9d99a69b98a9c777999779
col20:   8779b8a8869ba88abbb689b89b968bbbbddcb97775778689b7bb7abf9b989b7ad768d5b836ac9e66
col21:   26b8a689866ec69ca8bc9bacbb97a998aa8a99d8aeaad889bb57bdaeb9998bc98db89a757b9c799b
col22:   688b8d68a79b848997bdc7795487bcacbd979dcbcb996878ba5a66a9bbb89b89957cc8883a978889
col23:   beb59bbb989b88b8bcd98b848aba99db84a6ad57d6c88b8dcedfeceb9bde87cb898677a97767999d
col24:   969998899c9ab6cb64cfb88ea8baa93b989bbcfa7796bc7b98fb9beba88fdd9bba95b78518baab58
col25:   5636fbb99789c8dbb67978bbba9a996bc99cebcd9f7aab7d7e6abdcbccacb5b8759c8b87adac8986
col26:   5779cc95cb9babd9eab9bc86bb9df6b97a9a8eabab57abbb969abbcbc8ebb7d8b6cad3c7b97ad73c
col27:   668898aab98f79985a7a8cc9ebaa8d9ca8b9cc99acaabcbabcecf8cadd6bce89bcbdb4da89bdb789
col28:   99b98b5b6c9c9a8baac9ce9cac689cb8befcb867a9ac98dc86accb7c9b7cc698bab8e69b67d99cab
col29:   79bbd6b9879b99897989689a9eabcabbcbd8a99b799bba9cbfaabdceddbdca9ddecdddfddeccb96a
col30:   98b69aa9b8b896a7dc79678aecc9bcdb86bfbfaab5dcb6cbcb9dddbcfcbcb9d79cedcbbafcad9b67
col31:   79cac8b9bc97b988bbada9aedccababaeb8bb9c7b99bbdafbcccfdde9ddcbccbebcccbedb8edbbcb
col32:   59c98c97e68ab79966bbba8beceddba68bba9e9bac59c8ba9be9bbabbcebb8eccbad7bacbcdca9bb
col33:   abb79b889bba9855dbbab97cbe89ccedcbcbd6c7accbafbcdc9bbbddcbbcbbe99b7bbb8ccdebb9c7
col34:   78bbb8c98e87acd6b9ccaabc9cb8dacb8bfebaaaacab9deabe89ba7a77dfca79bd8ded8c9acacdcb
col35:   b9676d89ba9b7d7ccb96a96abbedacecbd88da589cad9dddfabb9fddb9dcbbebf9cd9acdfa8abc9a
col36:   996a8c6b8abaa87abbe9cbabbc9b8ebd99abce9dbbc9cfbacbbcbbabcdabddc7ebbdcebbbebdbbbf
col37:   bb8b8d79998acd98797dabacbb7baa9ccb7cbabcb9bdfcb9ccbbccafbedc7d89bcdabcc8ebbc9ad8
col38:   e8bbc8baea7a98e88add9c8cbbadb8d79abb9e99dbccabedbbfbecddbdbcaddba9a8cbcadaeacdab
col39:   b6b9b888998d8bc98b8cacb9debd9bdd9ff67dbfb9dcdc7f8ec7eeeefeecc8f8ccdefd9ce88dcca9
col40:   ba9aad98a8789bcf9dafb99c9eebad79bccad8a7b9eacbbdceb9cbdf9dccccdfccdadcc9dccbbed9
col41:   68dc969a8c79b7ebcabcbbcddbbaab9efdada9c8dc9aafbecbdaeabdcbadbafccddbf9deccbebbcc
col42:   699b49ba98987b7accacadcd89cbacbafbd9badafdbdf7dfcacfbabf9feadadcefcfedadcadecada
col43:   97db6d89b96b9adbae97bbc996cabca9bbdd9dfaedb9dfbef9bcd9adebdbdcfdbaffdd7deebcbccf
col44:   dbbdca9b7cd989bdd6bbbfabbbdd5dbfbdb7ab9bccbcffacbdaa8beefecddcecdebebdebfd9bdfb9
col45:   b699b89cb8abca9dceeefceb9c9bbc9dabddaadbbbadfeecffeeaeeabfdcfcadcbeadbcaa8dbfbdb
col46:   dcc9b89b9cab99babbfc7dccdbbdacd9999eabbddcfedabdbdfceaffeffcfac889ecebc9aeceacbb
col47:   7db8c7eb98cb86948caa8d9cbbcbacbeacedcbdecbcbbb8af9bfddfbdbe9c7fa9fd7bedff88bb7c9
col48:   898aa4eb88baaa9dabbcc9bdaa6f9abceaef8cdbcf9c8ebdb5b8deb9caaacbdecd8e7cacd9bcbdaf
col49:   6ccc969777b9bc3bec9ebfbbcedbb8decb9adbbebecc9ceadbfde8cffeccdcfbced9dbccdbc9ab8c
col50:   7485969e7b7b9f8abbcbdbb9cdfdcdbcbdcd8bbcab8bbedcb89dcedefcd7bcdfcefdfebfcdadbbd6
col51:   bb86bb99bbbbbb7bbfbb9bcbbbbd8bbdb8c996b9867bbebbdcbdb99b8bd9cbccc898bfbeebb88a8b
ROC:	 BPix_BpI_SEC3_LYR1_LDR2F_MOD1_ROC1
col00:   152662335465763657767f858666bb6c4b58786bb977875b648b76b4db97cd56bb4578bb98b877b7
col01:   74112773b65666447848857766b89b97b74845898588678bdbb72cbb7bb79b46b6b98b778b595b86
col02:   6637596344614189788b47bbb8b77579d96b9bbb79798699bcbb8b779b9745797f738838b7774bb3
col03:   8733374625676553898778599b786b7394b9985b5886b87db8bb6b87674524b7b7b7b8746649d8b5
col04:   334767638457337998266bbb69bb865c768c39b78bb78b924bbcbb88867dbb77b8bbc88737bb9756
col05:   63254b8795364bbb7887bbbd5688658686487bb59678b8979579776b886978b889cb988897815676
col06:   b5632b59a858776965467b99997b5b27982858b6879758b75797b8cb5789b667a87579bbb4a87877
col07:   966544695459548b57188759b74854879688b9987b8689bb778bb9758a2767b58d6b67787b5769b7
col08:   934756747897bbb74759b75bb5b687999888bb88664bb7bbdbb7b886b8bb8b48b7798877845b8bb3
col09:   5578b4531b4877bd9b7875839bb69b88c8bd2675894897885b6bb989848963bbca86ab7b57579595
col10:   4664455b58898746689bb74358685966b99b438db7b9858bbbbb8867b77859b88647768898b7b586
col11:   24734652577b7459767b65479b67648967bb57d9869b9b5b855b77ad885b768bb76346b575b55678
col12:   121458635162b66797b37987b8b745b98d685b9699d99557996b289b99bc459867b7896587bb6635
col13:   574b74755338578764763479789bb86899bc7bb9e789b6937b6677c69b9b9b6898bb8756648b3784
col14:   43684753596846858c3b37874b49777b9be89c7b96bbb477bc7876979ba999c9bb65789885629bb6
col15:   24b6745853746bb55737871b6689888bbb9b6b8bdb8689988589bb68b766c5736899b5d577457465
col16:   8646644186753383898b7855c88766b9ab9879b8ab9cb69b6bcbb65974b694b37c69b866774716b4
col17:   33257457634985865bb68885c885bbbb9bcb69ba99878bbd58bb66a976867b89869989777455b69b
col18:   156846563546269666956c8838bb8fc7b998b6b799b78c8bc78b7b7957948b666976bb68866b6383
col19:   27534676357874b6c49a985777b7b7b65759696b88897bb86b96b8bb63bb96b9d969b5867a647887
col20:   1641826b4698b7b7687bb9b86778bc8b7bbb79c98798b7b79b7bb8979699ab7bb6ab6868c89b8847
col21:   25513644b98b38bb986576678b7b883c578b997dcb9c95b994b7b8b4869599b989d6769b85a77748
col22:   54651566757796644a75986778bb797bb7899b6f77bb89cbbbb899ba8b9896b88897465b79466956
col23:   848161826777997778b645959b887b8878b8495b9e8b658b87be88c7bcbb5b898586c5757ba3d539
col24:   353454679974765655a515877b686969688b6a9857b796b7999599977b478b6a96a87ba6b8677794
col25:   55777b38688689bbb9ab57bd3b978b9986855957978697cb89bb8bbb79b9abcbbb6758b7b69c9572
col26:   b46648669a537b5972565877b69c6bb7888998b6799b9b989b887b7898dbb788797989789897868b
col27:   335366b796766985b8697b59b4877bb7996d9b596779b75b86a6cda9ab8bb4868b689f8bab78b963
col28:   55687765958a685cbbab6b8d8b889b8657d6849c888ab86bb7997cb8979ac9cbab9abbbba896b8aa
col29:   4998b7c8b6976bab875b989d79c9b688bb776669cb6b98b8d97999db8b79bbcd6878bdb9785b7586
col30:   586887976bb4b4b49387b8999899897b6988bcb8a866c7883bacb88896cb8665666c9d95b845457b
col31:   6c7868bd89966b68976a9b9c878b76a999ccd8dba86869c69db886cbe8998b9a9bb98b66788b87b9
col32:   b957877758c3898d898ba8c8c5c998b9b85b6978aeccba98aad99bf8a978998866bbc5b918c8885b
col33:   98857863b988bacbb7bbbbabbb9cb9b9b8b89d8b796a8bbb89b9b88877898887cba9b8998b6988b8
col34:   b786765869c85b876599cd8cbdb9bbbb6bb95a9b4678b9b5bb8a78bbc79869899b9b9999bc7cb958
col35:   4b98b668788bb86a79b9b98bbbc779b8bb97699b986b5bcba79998c76695b9c88dab8b6bcadb7856
col36:   b67b9786e96db8bb7ab9b8667b97b8b9cb787678b9bcb7687bbbbbc9c8a8bb9bbbc96c998c8db8b7
col37:   788b9b9bb96b989bbbb7c6b8c9bcfb799bbdb9b86bbdbcedbbfbbbdc7abbb98d98bcbbb96b8d9b96
col38:   857567a986b389b8a989dc999cb889ab7bab97bb76c6b99cbbabbbc989bd995ab6dbc8c6cbca479a
col39:   657887a98779b88b58c88bb7cbf89cbac9bbacb9a4b9b9bbbbf9ab8e8bb7678bc9bbbdbbe69d9a9b
col40:   657889b698b89a96a9c966bd9abcdb9b88bdc8a978ccbbcf8d6b8bebedba89dc98b9abb9cce8b8db
col41:   b86b7bd68cdbbcbbb99c799bce5bbcc9c9bb9cbe9b99cb98bbb9db8bdb9b8b8ed9b8bac4c8bbbc88
col42:   68b888a9b7ca9bc7a7b8298bb6c98bb989b98d8c9b8dbb9bbaebb9b9cc7bbb9b97b8bb89b956899b
col43:   b7d9abdb9bb987b7bc9967cdcdabb8b7dccab8b9ab79aaccc6d8bbde6f8bbcb79bfc7cac9bbccc8d
col44:   d9bbb8899b88a9b5dbab9cb9bdccccb9ba9bdcbc887bcb99dab9edadc7eca9b9cbab76bbbb6bbbcb
col45:   bc8b7bceb9b99bbbb9bbbceb8db9b76bedcbbc8dcbcbdb8dbb7a6899a79b9b79bc9c8984e8b98876
col46:   8bbb8b579b9abbcbc5bc79bbd6b8bccd8cbebcc8cd8ed9c8ad9baccb8799a9ba9abd8b9a7a8b8bb8
col47:   49b879998b88a68bcbbdbac9cdbbbb9b9bdccb59acbcbc5f9db9cbb8cbb7ab9c77cc95c7b94b9ab6
col48:   5899b86b89bb78bbcc7eb9cb9898bbcd8bbbccbac8bbc5b89cdc89d89bbb78a77797a997789999b8
col49:   68b8c8bb9cb8cb888cc97f7dc979bedbb9b88bbcbacc9bb7ba7e98cc9fb86d9c6b96babacc7b98bb
col50:   467773cbb5b887779bb879b8b9bddcbbcccd8b7b8cbbbc8bebbedbbbb9bbb9988b99ba77ec9c7757
col51:   b576559b8db6bb9bbbfbb6b8bb5bbdbb9bbdbedc864bb998c99b77bcb9bbbbb8645bb7bdb7c768b9
ROC:	 BPix_BpI_SEC3_LYR1_LDR2F_MOD1_ROC2
col00:   5b894a497858893c24886bbb66bcb575786765895976b8b969bb6c9b847877c79868657b769d6b93
col01:   87b674abc851b8876bb87698958bcaca5b6ac7bb6bbada9d9789b948b68cdbabe6569596ab837896
col02:   756788c6b9bac568767a77bb7e7798c8798d49769f77cb957a4997b969699b7f9686b9b94c98a75a
col03:   667da768d8b97cb899a879879bbb8ac88ddb998c8c6eb8ba7ab7adbd9da569ba6589e4774574c4e4
col04:   58a9887ab988c88676aa97b9aca9b9bdb8d7d7bb97cbb8ba985e4dfca7bcc8a887b8a769a698b361
col05:   6987761aaaa9666a8b97b9dbbcc8dabcbdb8ba86b8a5bc5a889bc998abda988a886796b44b777554
col06:   59359b588b5958997b789c8a96ccdba8ab5f5578b188b68b5877575a9854787b67c8abbb7c667893
col07:   618e79b6b835a6695699989b98ba9e9b89bcb88b88a8986b89988a79c8789d97a678566789b5b6a6
col08:   6c8c879b7b694638646b6895c6b8a778a9ea7b7b9aa95ba8779a79b969cbc7b9c9c9d9386c638976
col09:   76878dba47b9b7d976a7776c6c6abcab9b3d7cab9b7a8b8cb9685d58b8bc9dab39b797795b9b5868
col10:   4b999cb7d798759b589878bab76dd7cc8dc6b89ca99ba6b7db79998469ab6da9b7ab7189d77b9479
col11:   2a7a959b5b758bbd86996799c6bc6f9a7dbc78aa7dab9bd757bf98dbbaf776889b69746426988992
col12:   56b566a6976957b9b79594a886bb7b9886596a6a986d9986a5499b9aadd579a89aa696894752bb91
col13:   34886549a9676d79e889abacb9b8bbdaaab96668968a86a79c9788e7b6d9953987a99a87b5887596
col14:   888695a3698378695f9675b8a6998ae8f7bbcaa77b79a77d756a98a9cabc869587479a8965688756
col15:   a46699779aaa5958a9a7825ab96c28a79a88ab6ca8daaa5469a9bb86bccbb9b789b977699a8ea754
col16:   389a797759669a9e7d995b87a9a79899b8c8ccca9e8ca74ac99a8aa96a8bb9b7b8989a9869766737
col17:   86779b85547a799839a6ca99b9bbc9abcb7b996c8778994cc96aa9ab8c6da986c7c9967578998e9b
col18:   657676a9a997d7a6a8bb9a6c4adcb9b9b78aca998a8bbb955aabb4ae6bb7889899b7a4562669b9c5
col19:   999787ab698488c8b67aaba9766699c86c9675b8a974598abc69b7cc98ac887858b5a38968aa8697
col20:   664a968c7b58cb9b88ba99a9587a8e8f89998b28a75a9885b58aa99e3c959496685b4546a3898c59
col21:   9a49999c678b78bcd6ca6a99378aaab87aa2b96abaac9a9ab7697cba8cbc968b8aa498a7457a8ba5
col22:   7897768b96978b9a3a887ad889cc89a8cacab8998a5aad979e88b969c96aa89c9875459b87b7555b
col23:   638c887777b9b789997982abbc6858b8778957a856647a8f98e97cdbb7dbe679696637898ba9c9ba
col24:   6bb787c9a2677878b98b8aac98a8895a95c9994a5759a76a59a8b98aed97ea79a785946797855884
col25:   587b5a89a878b9cab78b7a98bd6b846b876aaa78a9778bcc9ba684a88968a7cb9999974a98b7cb9c
col26:   b88b78aa9eb98c9dc79a8aa9e7aacba998cda79c9e8aaa97dd96b989ca5aa78cc997687886a7b779
col27:   6ac6b98676abbabc889c69abacc99b9a77ba9ba85987cca8cba8eac9aca8c8dbb9aae869cb999d58
col28:   875b99c898d779b8887b579baff6d7db7d6b97b6b978b86a766be79dc88dcc6796c9c8ba679976c7
col29:   59998c9ba7cee795b96cb866bcbf8bedafab9b89c887a47da88caedd9cb8ccbef8acafdcccacaa2c
col30:   89b5888a9b8a9868b78a889febffeabc69b989c9ba98ab99ba7b6aaadcb8a9cab98cdbacabb86885
col31:   96a89c9aa8677c6abaa8b9979efddedc8bedabc8bbaea6a869adccbded7dbbcc95a8aae9b8dcd8d8
col32:   629aac959caa97aa98ecafa9eaecd7ac8a996699eb799a9a958c8db9ccd9a8cc8aba9adb979a6597
col33:   a579ac98378b8aaaaa8cbabb889fdb7ebbba8abca97f5cde98bdbcca98b5fcb7cd8ab8cb68ba7af9
col34:   5a8b679599b87c96c89a9c8c9abb87abcbcbfaddb8abad96ce989aae7dc9c9998bcdc8c498caac77
col35:   5759b69668bac99cead5b9bdabbd8bb8ab6bcf9b8cec9aaca9ca88bd87b88de8ccbdbbfadbc9d7a5
col36:   c7a87959989daa5477988a994dca8cb8aea9f8a99d9e8adaab99af99aa9a5777b888f9cac8a8c7a6
col37:   cc8bb99a99788aba99a5a8bb98bc9c8d79987bc889c7eaddeb9bd8dcba88f8979cdbaca8cbf7bcda
col38:   6678aa979a89bbc87d7ab6a5aabcbcbd8a799aca7a8a4cdab8bb8ddcd8baca9b8cbec9c8b6cda996
col39:   9a7abacb8dba8db5b8aaeab7bbc9979afea8a999cbdcccc9a8dbba9cc8bdbacabca8a99c8bccacb8
col40:   77698ba8c7aca98d9cc8bc97ad9db85a9cb9bceaa9c8abb6bafc88dbcbc7baf797d9c9cbbce898aa
col41:   b88ef86e66a8b9b9dc8abb7a97f9fd95c9baa888fc7ced98adedbbcdbfaa89aad9c8bd9b89bacbfd
col42:   9a8aabb8e8a889ea9ddae9dbddbbd7acbd8dabdb8ec9bababdaccddccf878d869cde87abefaae6ab
col43:   daaccb98df7aabdb9e8bebae8dffcdbbc9e6b8a99c6bcedbdbfcbfdfbeef9ecaccfafdaabe9befe5
col44:   c8d879c6987ba9d88783ce8a9997cc9acdb99dbabcda89ecdac5bdbcfecebbdcca57cbaf6cc8c9c9
col45:   8b9abbb99dba99a98a79d89ee9d89adedbbca9adced8eedac9fadd8ebabbcabacbadc9abc8c7ffa8
col46:   6a8579adab999a7a7cabdb6ccdb9acf976da8aaacb8cddecaedaeabbcbbdab9ae7bb99ac7ab9cbea
col47:   75bc8aab7a3a8eb9999ac8999ad7abec7dde9a89cc97ceaacdccd8adb9daeaaddabe7a98d4cb7c9a
col48:   9bda69997a9789ba78fb869a6dbaec8ca8c8a8c8cc77b8eeb9e87cbd9bdafbbb9aa9ae579b7a95ba
col49:   aaab77c99dcbcbf86cbddc9a8be797ccb8ceccbb9dbbcdbedfdcbacc8beacc87b7fa8bee9aa94c9a
col50:   797c4b85cadadb7d67aafaadcdcbabffc9a57de99daca99adcbdcfbcdccaaddac7ccd9acacebcdd8
col51:   96ba4778b96a7b886bbb894cbf8b9cbe98cbba7b9bdcccebc9caebbdda7bbcb3dceba6d8b76b5c9b
ROC:	 BPix_BpI_SEC3_LYR1_LDR2F_MOD1_ROC3
col00:   56576954738376657696b7a698bbc7cbbb99b4b8bdbfb87ccb5babb5b9cf9a868b5cbc9986b687b6
col01:   4628584877763b969ba55996bb97ceb889798bcbb9697c7ca98cd99c67798aa8b98878c799b86aab
col02:   64878a88a99378975a9b9a8ddba8bc95b995a99ebc5bb6cc489bbaedbc7c99afb9a89bbb878bab89
col03:   688c8878958c9aab8b67ab979aabbab9a8d7b6e7a8a68aa9aaccbbbdd9d979dbbb9aacc888a98c7c
col04:   d89576a98a98a76ca897b898a5c7a9a8a79b7a9bd999597a9988a79bba87abbfddb6596bb46ca787
col05:   3788869b6c8a87876aa88ab99aa9a9ab77bbac898c86eab9c8abb9d577d8888accbabb8dab7aaa7b
col06:   668789888987a7b975988989576b7db6a89e78cdcab8b6ab77ba7cad98ca6879ba9a9a7a8a7b8585
col07:   b83886568a6598788ca799ac7a8ba9888a9769aa8a8cbba8a9db9b8b68885898d6abcb9da5c88ab8
col08:   b6578888499c95a7989a9889aaab8b77ccbcbca996877ebbc699d8bc8a9d8a8799a7bca93b898bc6
col09:   4a7a56855c9a88aaa9ca559baabc887a99896ab49aaca899bd86fb999a9b8a9ac79aad588bb89a69
col10:   9448788aacb8799898889ab68aba8ca7ac698898b8da6979cab48dbaf57758b8a7b78ad98c879778
col11:   9557698b9799a79888b8979aaa7aacaa99b886a9e7aa89889acba8b6e8b99a99ab768b88bc698585
col12:   776677598b6a7977899a699c5aab8999b88789dbcdcc5a989bb9aab9cda7b8959aca64bd59a7a6c9
col13:   7985886878b87696989989b9baab7989b9cf9d8ca99da8ab78c9da989aa9699ba9b99999ccaabd88
col14:   76773786877795c8b59b769788dac7abac7ac89c89beb55bd8d79fabb9e37a89a8e97889887a7cc9
col15:   75a858759a76875978d8ac3a6ab9aaa99d9c98bc9bbafbd895c99a997886aaab89768a9976797795
col16:   78b56b83979886c79b887889adc8abebc9ba9ebabbb97d8a7abbaac997b9897fba8987baa2bba982
col17:   9569848777996d9797a9a7b8687ddabb889bb98b87aba7bb99ba8a7acbc589bdb7c87899a66497aa
col18:   8395985779a576a8886a8878897d9faaa9a896cacbc9b97a8977bccab79a68aa98a9a877a4784637
col19:   a36869767998baa5899c9b786afba8779dadb67a9cbb599b9ac996b9abc96ccfa989ca7b79967a47
col20:   656655a44b689767a798b87b98cbaebbaaacaa7eb9cdbdaba8aa6aaa949cb996b989a797ad979869
col21:   48465465a9b6aa8acb6a869ac7a8fbbc975cb56dd6acbb9cbb9898a8878bc5b87ab97b68b5aa978c
col22:   69735b97ae489ba9b9877a7b99bbaa77ba79799ec9acbadbabf897bda9b9ac9baa867789a9c5b946
col23:   65a2a86888aaa99ccb8a79998899dc987aaa889894b8ccc987abbbbcbaca8ba9899a9a6aa98aa456
col24:   77a447a6788a79aab9878b8b4ba9b887979a7b9889b8cd65ecaab8a9caad799c799cc85788cb8789
col25:   b6a873678ba8899a8aa8aa5aaa54b8b67dc8788789ad8c9aaa8cabdc78ecba9899b9b8a68daaa875
col26:   c687b8898ab54658778aca77499aa68a6667c97cecaaa3a85b8ca9d78beadd9bcbfdbace9bab9b78
col27:   86d9589b7737bbbbbab9b98a896ade99a999ac76a7abcdac8ba9cdebc8c9ad9d79d9e9a75ab8ad47
col28:   7899cbcb8cb8aabbd989bc4db9b9d5cac879a98cddbd8aebdbde9eab9b9db99c89ba7998b8bab84a
col29:   896bad78cb969b9899a9cd6d97bceeccbccbcc9b8bbba9b98dbcaaddaec9cac6c6bc9baadbc99ea8
col30:   bba9a8c886cbba98bbac9b779bb89959a9ba9ab6c878c8db98cb99acd9d79ac8ac8bbdac8976bc9a
col31:   8b8bd989b9cb7cebc6abdc5dfd7c5cccabda9ad8ed96c8d9ebf9a98d9dc9cd9dfcabcebfba79aba9
col32:   cb75ab9d9c9dec7ab9ccd8abbcbef9ea6a9c89fe99d897bacbdedc8adcbcfbebddad9a99abcd8abd
col33:   6aa8879aabc6a96ab7ac8cdebc9dac8bb79caaaacaeca98acaba8accb9d9dcaccfebb8baeefb9d9a
col34:   889879667bcc88ab8bcc699bbd9baccdfcd77bfbabadcbbebbbbdbabaaaa88aecdbc9bd9cc9dbeda
col35:   88a89ba9b87a7ca7d99c79cc8aabdacbfad98caaaacbbdc999dceaccbca9b9c99afb98cde7daa999
col36:   97a85ab969a7ba9867bb6cbcb79c6cac9bbc98bccbcddcada9faec69e8adbeab9cacb9dbbccc9959
col37:   878d797ab8a98798ec8dadaa9deadaaaab99b9ed9bfaadd8dbadfffab8bd98ccb9cbb7fbffecbabb
col38:   4c75ab85788abc98adcba8a8bbaf98a8aa8cd9b8b7ed9cbccbfeddbdb9aab6cbbbafd9dabbcdac7b
col39:   bc9ac899c98b7ccbaab868ac9a8d9edbac9ebcdac68fabdeaffecdeadad9dbcbaffdad9c9ddecabd
col40:   a99a8dba9a78c7db9abbc878bbcbcaadfbefddebdbddb8ccccbddaccafcbcee8ccafdca9caabedac
col41:   cbb8b9b98cafaaccd8abc9ebabcc9ccdd89bbcaca9aa9deadfcecfccdcddbb9ffdeccbedfdecad99
col42:   897cdcac9cbd99d9aabe69d9abaadacbbbab7cacc9ae9b9dafffdc9fbacedbcafaada87acabece88
col43:   b68dacaaafbd9b9fceeeb8d8cbcfce9ce8bbdfcbdbaafbedd9effcedda8acdbbdfcddceddf8aacaa
col44:   cea9bab9ccdd79eaa9a9cba789f9baaaaaecccccbddf9acddcdadedcddadfabb9beecbeaef98cc7d
col45:   bcb4f9dea8cceddaababbbbbbdafba9efdad9ddfdebfccadefc9cabda8d8eaacecfe9dddaeadcebc
col46:   abd8bebbc9cbbb9eaca9ad6dacabbbeeddeeec7f8bdace7de9effcada5dbdbecdabf8cdaaacfca9d
col47:   b9bb9ecbbcaecadecbadaeddbaafeaeececdcffbcacebd9bcde9baef8dbfeab8eacbaccbadcbd888
col48:   9ba36b9aa9dac9facab77c5bbbbbb8acddc8bef9ccefd7d8bdcefaeaadcdea7acad8d8ccbbbd8d99
col49:   98975c6aadcabec689cfedacdfc9dacebab9eedaece97bfecddddfcefccccccbbcddcda8bcbfcdf8
col50:   bbbab9acaa88cf9d7ec69aba9cabeb99dccbbfafaefccadcfadbbbbcdc9cebcacbfbc69acfdc7bab
col51:   8a99bb6bbb8b8be989bbc7dd8cabdcb9dbbbbcab9abbbdcaababbb9bdbbdcab9ebbbbbccb6a9dd9c
ROC:	 BPix_BpI_SEC3_LYR1_LDR2F_MOD1_ROC12
col00:   8715a659586bb27587bbabbc888496bb7bbb868b895c68bb55b99b69886bbc996bb8778bb988b89b
col01:   2747979979547755667959db9acab8a898cb5669c7b99cb96479ddcbb8e8e9db97a9ec77d8a996b9
col02:   a67b68a3ac7869277abcb8bcb87bbb8a77b89c6c46cc7b6a6badcb9b88ac9db8b48cb8889c84a987
col03:   716464757868b8a667acb78a8b8bbbd7a6c8b7d7ec7ba83bbb878ba88ac7ab9a7abba7d9998b9987
col04:   67585b696789785cb8b6b88bc779b9d6bb9d8a9baad78a9b8abbbbca78baabab9bbbbf399cda69bb
col05:   8358b9887b9ea69994b878b9ab9cbd98ba9eda6a87bc7a989bc9b7a7a8b97acbcabc8979c499739b
col06:   736379878bba76a489a78b79a8aafa9db9c68bc99bccb9bbc9abbcabc768acab8ad9897d98abbbba
col07:   887637aa966b7b989a9ab79a7cc95ba7c9adbdca99bdbcabe9c7ba9c979979bbbb7c89ab98cdbb96
col08:   b5678777683879985ad9b858d9ac6ac978a78cc8b999b88e9bc7fb699ab99abb776aecc6cb9776b7
col09:   957c6555ab8c799ddb89bb8b78c6ba9baaa8b688b8c9e94bc5dbba7ab8d48ebac8a8a8bb66776a56
col10:   a86b99b45766a9988bb97c96a99e868aab7689aa8b7bbcacccb99dad8698b8bb976a98cbac6b85a7
col11:   769749799b59ba956b7a9b9bbb8cacdd589ca9aac9a8cc8b9abfd99cc9c898a898c6cb8ab782688b
col12:   885867276779569a8ba5b9b6827d57777b8b8be7b89c589c9bda9bbca999bbbc8abb9a8778861f67
col13:   28685777a962637a999bba85abc79aa95897d8b8b9bbd85988a9cbdd9babbabca996c797546778a4
col14:   7493a9783468997888987a789daa8b667b9cd86dc9c9ac987bc87aa7ae7698aa9de9a4b5adbb7b99
col15:   76464a8b98397b4b6bb9ad6c8b8b8aebc8c9ecbb8668bb8cc67cd99ab676969a9ba9975d8a974c65
col16:   526666345b577399c669666c6b99bbd9b8a9bcbc67a75b989dc8baf88b9ac8a966bb99b5796a7e7a
col17:   697744499557c98b77bca4978899d86af7abec9aadbf96ddbdaa8bd879eb8abbb79ccdac79a8a7aa
col18:   2267246a367669c9b7b88a7b8a79eda9cbbabaabdadf878987bbdbbaaadeae88b6c57a9b798879be
col19:   8877489869459ac74b9bc576bbaaa6aa6cfadc99d6bfdd9eca9dbda7aacd7cf67ea8b99eb8cca999
col20:   97374a8629766ac87aa8579759ab8b998b88ddceb7accb857a8babb7ceba8bcbab7c89c8a9498798
col21:   757552685568aa668aa77dca88bdb99aebbc9cbb899beefaba97fbcc9bc8abfdfa8786abbb99477b
col22:   85a419b294c79c77c959cb79b9af969bdaca797abaf9e9db97bffb69888cccaec8fa884877a787b6
col23:   4a7d257b866b8c7a8a987c789aa688969aa9a7b68b68ab9cbabba9bb8a6b6b6cd7668cb7b79e7993
col24:   59995b7aca8877ac67b9976789dc9888a7e7cb78c899bbc89acce7dba7c66a6d89a579a6aad87676
col25:   b799457a8868788998eb9ba9898d8bbdc8698ab98d8b7b48e9e9cbecd6acedab8bcdacd89bbb7c6b
col26:   b447575987b9a79b7d4c7bb9b9788dc8b79aa5bb68bac8949f9acab9b9bcdac8bbab9ac8898aaa97
col27:   7996b69b7b7979bb96caabb8ca89adcbc9acc879aeccc8d77fa9aa9878c9aadaf3dcdbccc876a9aa
col28:   6cd86b76ac8b8abe6de9ae89bb78debdb999beaacb9d8d7999bad9cdbbca8d9bdbab6cb989a89948
col29:   f9acbcbabaab5daeb997799bcc998c8e98cdad9a6a7c9cbaf9ea99beeaa8deafa9aedaca9ab9ba78
col30:   998ad89bb8b5c8b58a9caea94d9adbcabaaaa859b7bc9bcbdacaeac8b8b99eb66acdfacaa9b96798
col31:   cbc79caca9b8da8cb9be9abfbcddba7acd8c9ac7ecae7ffcdcaececbaaccca7ddcef68c689ca98a8
col32:   c785a9d89b698abdf99a8cad9baabc76dc99ab9a9878dac6abbcacbd9da99a8c9cbab7d9b8ba8c9b
col33:   99aa87cba3b8b7aacb9ba6dcdf9bbfadbc9dbabca9cbe9bdb7d9cbadced8b597abbaaba9b9acac9a
col34:   89b9799b9bbbaaa79abea7abc9ba6dccbaf88b9cabbec9abe8cfbbbdabbb8abddcabda9a89bddb88
col35:   998a676c9877a5bab7eadb9bceb8de9cd9ea9a6b7caaac9dccdf9a9dbedaf8d7cbc789eabeada486
col36:   6b3b9aa9ab97a798cdbb8caab9e9999b9bc8abaadeb8b7ba6cae68ebc9ac6c899c9cc9bbdd8babba
col37:   f99c78b69aab8c999cbfb9dcce98aabcbb6bbb9adabb5abafcaca7abb88699cc9abeaabfab7ac8b9
col38:   cb9b9ebb8a9cbbbfddfbdb9a8dadbcb8e7bb49bcdead9ccdba8b9dddcdad9a9acbaa99cb99adaebb
col39:   bb78d978aad999acababddbadfcb89dac77acc7cd8bbcc77facaadbaa97dab8bb9ba98d9ceb78adc
col40:   b9bcd8ac7dafebb7a9ccbd8dcbbbea4ca8abbabcedab9cb99acf99ffadabcae9a8cfb9c9ad7bc687
col41:   bc9bfbcdb9edcfbdbbbe8babcc7be9fcabbebccadaafc7a76bcdaaaeaa9bbde9faa9eab89cdaba76
col42:   6ddaabacbcb8aabccb88aec99cdeab9bb8e8ac8b86eadcd9a8fedb8ac79dcbbf6a87dcccee8b9a9b
col43:   abbbdcbcccadcae79aacfc8d9bcdebebdcacbcfcbefaaddccdcbd9c99d9c6ab9aaef88bdd7c689bc
col44:   79fcccb8ded9dcbcaa839efbbe9abbbadcacbcc7baaafbb9a9accfdcbdd7dafcacbbd9a7badcb7aa
col45:   9cbb8fbabbfbc899fecba8ceecac98ab9cecfcbe9db7cdaacdfedbaecbe9aa899998a8ceca979988
col46:   8ac79b5cddbecb7caedbcaac9ded6b9bf7dde98cbcdccc7adaaf9b7d8bdbcc6bb9ab7997bae9ba9c
col47:   8b98dc7c9babdb88dbbfadb89bccb99bdcbcdd8bedb895fb9ecaeafb8aeabecaa786aab6bba5aac9
col48:   3a9abf8abe8af9cabcbcbddfdbada895a8eacdddebd9b999cbccbcac9cbbdcbb886a89a7b98b7787
col49:   8a8ed8eecd9fbd8bcc8dcbbbafbac9bf8dbd9d9ecdcce9eaedacdfbeecc9dbc9e4bc9dbaba9b7958
col50:   79b79beabcae77fabcbccced7b68ace8acdcbfcbdacc8dcdabdccfabbe98a9c8a959b6aca96beb77
col51:   77cb9cbdbcb88bba7bccd97bbbdb88bb9dbb89beb8c9debbcbb8d8e7c77bd9c84bc98bbc4877b668
ROC:	 BPix_BpI_SEC3_LYR1_LDR2F_MOD1_ROC13
col00:   968683758869a2697498989c9bcd5b4b99c85798ba59698ba8b6ac699957d8668b77c7c9bb555bb5
col01:   48a63896baa99a65a6648ba7eda9eac8ac3cbf29879798b7d8b6a996eb86d5cacaac688a8e976bb6
col02:   4854877966c7a9c94ad79ab8859699bbb6aeb78999ed8a5bcaa97bd9979a5ba99ab58859b7a85b79
col03:   aa675a889e99e636dabb87ad99a898868eb7b9c9bbbecb7ad96c9bbbca9c3cc93cfbc9bbb86ac887
col04:   58b896a67766baaa4575bb66b9b967784ca78c66ac7cbdcbbc9a7cb8bbd6c9a47998d787c8bb6cc5
col05:   56669698b8aa4bda89f899bce95b8cbc8c89b59ac68b798adb8bb9dadabbdd956f7aead58ab99852
col06:   69759a8539898aa888948cbdacdba978c7c7aa8cfd9af7beeddcdcecd8bb7b7b8bcfa97777dacdc6
col07:   da8aa7c8a8c1997889755bb6ababcc9ebdcab879bbd8acab7dc8b9cdd8b9fda7a58b6ab57477cc89
col08:   b87b4859689986889c7a979ccfec8569bacb76adedacabbdbaa897fbcccecb7c8ccab96b6a669796
col09:   aa87573797b86cac9c9a789bb9a99ab7d9a89aab79ecbdb884aee6abc9db899cdc67cd75acbad7a3
col10:   946697a7779698969ea89a88bd6d9bc9ba78afcbbc99ccd9bd6fcbdc8d5d868bbca99646e7c979b7
col11:   4b83ab86758ada9a8cada9ed785dacb8d884cc9eaecace8cdabdb99aacfba8e8cc4b99ef77edb9aa
col12:   6846b9b9a8857cacaa8788bcaab7eb95c9667da9c9bd8cd9b9acb79bd987bac9a4ca8b8a97765778
col13:   79a9bb8996595afd796a99ca9c4da9e8abfd78eacacbe89e9a79bed9dcbbe589d989ac9b9bb66688
col14:   59c56886b759484b8a55376e8a68cddaa7efcabb8ca799bb89acccb8ab6f9ae997689bbe69877a96
col15:   b885996964da9396cbcb799868de78677cacaa8bcacaba6bfaccbf9caf89979adb89acc99d9aca47
col16:   a88b7a648ac8b989a7a776a6c679bdbc89e899ac8b7aad9987dcb6caebd99bba77b9bccb98799846
col17:   7769a9b5a7869934a65a7788dafa99b6d7b99dbc67ccdbcbc8eaa87c6afe9c7dd5a794b7da8d6791
col18:   c8aa8479a5585987ab3876db99b87979bfa7cdd5b99afb8c9b89996f8caaccbbcc9ae9bbee8c86a4
col19:   d9cd89497c8a97b77aa9a496ac85ba6baacabb9aa9bbb986aba89b9aab6abac9bfbaaad4a5c49b96
col20:   7663997a8777687c65b6bbd879d8867b8e9addab92ae9bab9af99ba8bed9a8a8d6a99ca9a6a67bbd
col21:   789a8a5c13a3ab5aa67c96784dab78c98bffbaaecf88dae955bdabccce8ecca9aab87abdbcb8889b
col22:   86a9ba777667b95a9d6a97bb85568c9c98b9bf87ca886e8d6add98db8a7acb89889868bb79b69878
col23:   89778a995b9b69687597cab6998a879b88afacec7ad9eb7cb87bdb7aa7ea9b99cf7789b9e7b9ad48
col24:   397969b795b3b3ad9b5b87b98ce97889899cac5d87fa6dba8b8cdba99ab6acba8bb99969bca6cdbb
col25:   6bb79a98c9acfd77daaca8bc9abbcc957e78a7cadb9998b7bb98bdcf8c9c6ceadbb6d98d9b8a85c8
col26:   98a28b2d756aaeab6cd7498c69acdee7dc7cdbd6c89cdc97abbc7a96cf6af8ba8a9f858985abc699
col27:   e697b9becea69a6aab8adeccb9bbe9fcacdcd8bebbabcc98beb998979abc9f9cccbcb8a8988bbab6
col28:   7887aa7a99783b6accaa9a9aae88dbd9cbff58ce9ae99caeccec5caca7baaaabe989c98ca99a7779
col29:   d777586adbad8539a9cb978c7b7fdcfacccdaeebcdaa76ceccc5799ca8bd99aab97bd6abb6a98899
col30:   bcd697588a549a6a9d9bfbfa7e79adbac8a8cca9caa897aa799cf9a9b6ae97b9698a85d8adf777bd
col31:   774a59b975aca85b7bbb78dc9cbdbeebba8bac997abad9eba9e699d9ca78badc6abbb9ba99a874b6
col32:   89b9ba97ad77796ab87dad8bddddd999faabd9bbab99b675a78aa99c7cbc9a7ba8a8a59e9b774a64
col33:   995658318ab9748c8a5abaada9ecffc899b68e98cbc8bf667babbcdb9c7dddc9ad8aabaeca998b89
col34:   a97bbb6d4b8a579b89c9c9ebbbacb7cdeaedddcc8b6ceb96c99b78ad9c9578c9dca948c998d6cb77
col35:   65cc98a6a6bb68b8b8a9bb989c66f99e99ba9daa989bdad89aa86a7ada55b7cbacaada437eb58c9c
col36:   87b8c9a885d7bac6ab9c9fdc9cb5bbabbfcabcaab79b9b6afb7cdae798a6bba9799aa93adaa55ca6
col37:   bb78ccb79aaacbdda7abcc9db76a9db99bacdcbbcbbbdbcb78b9ab9d88cb9acb696f8a896a9bdc56
col38:   589977ca9a9a68c7cddbd7bcca8bbdaac6cadcbabbab88ccb9888c9db7bd76b995a8b8ba59697bc8
col39:   8b94ac9bc79ade7abcbad97c7ad4cc9a99daeb8dbfbccdacd9bbcec8c89e97ab89aba9bb7ad7aa79
col40:   839cc58a9c89b99ecabc6985876b6dc9b88b9c8bc79a8dac78abd88b89dd99597598dd78a3aba893
col41:   bb9897ac897ac4c6d78689a8dbfdbbaaa7ac7ddba89dab969ded99cec8d6759d97efbcfa49ada64f
col42:   795b68bc7acfc8dddbb9cb5ddccdadc7ffa6db9acbbccabdb8aae8f97f885a8abb86fc9ac89dbe6a
col43:   9a6ccda6a37aa9ae74a8ccbccaba97b99b9abbead9b8c88cd9db6c7dcbc7c7b9cbccb777b8d6a8d7
col44:   7976ca9a8bcb7c95bbc8a98daccdaec98baa99aeabfd69cbcbfcdaafbcb97667d6feb639b977bb87
col45:   3c7588ac99989baac4acefbc79baddeba99caabefa99d5e6bcaffb8baab96a6dc6ccacc98c9f9b8c
col46:   77985a88aa9ba9daa8babc89cbdbcd7ea9cdababcb6b9baaddcac9f9e8afa9ca8a887b8aa4ebab6b
col47:   79a5a964b7d6b79d8ca8488c9a8bebbbccc7baec3d9bc9bdaca8addb8b989a85c98b8c975b8986ba
col48:   b935bb598a68ca7d8ad9cfabdcb7e99db99c9ba9879cd9dddadaacbaaadcc9d9aac8a9d8878c7649
col49:   99599c6869a7b9cd757aa989ac7bca77eb5a9c6fa9a99eccbdb78aadce9a6d8aabbbbbabb9eb79ba
col50:   6c6aba8ab69a886a7c5b6f6957759f7bac899ed8b6e9acd87a47cdbbbac5b9aaa79b7a8b36a8a76d
col51:   b7aabcb8b978b7b66a8ac88a885ed997c789baa9c77bb9bbc9bab56d66aaa86b7b4aa997a8b8c9aa
ROC:	 BPix_BpI_SEC3_LYR1_LDR2F_MOD1_ROC14
col00:   27bb88764b6b8b667477b78bb86b8b788b87b7bb9bbbbb7b7f7bb57b375b8ebbbb9bb7b5bb7bb997
col01:   46697b75656b7658b487b6b5b967b7c9bb98dbb7bb579bdbbcb5becb8bbc799b78b9bbd667cbb877
col02:   6663988b99b37b6bb3b87bb8bcb9bbb7b8bbb7d94bbbc7cc6bbfbb7bdbb7976babb79bb59bdb6958
col03:   975c6e9bb7569bb8b8cb98977bb89bd8b8b7bb6889c98b9c8abb658d79688d9686bc957b78797b89
col04:   5b8898866487b7b7b76b665bbbbbb9bbc8cbbb83bb8bbc7d5b7cb8bb7b9bbb979bb77bb87965588b
col05:   6b9b87b85b8bbb678bb898bbb9bbbb5bbc9bd9bb4bbb88c8b98bb8d8b8b4cb8bd9f78bbdb97b7b8b
col06:   b567839774b7bb58bbcc5bbbbbb86bb9b87bbcbbbb9899876bd77cbbb7bb7b99b5b8b8b5bc8bb767
col07:   7b8cb7c8cb8876868666b9998be7b7b9cb9bb8bb798b678b97dd88887b8c8bdbbb6b88997389b8b9
col08:   688c9557bbb37b778b76899cbbcbcb9b8c8d8b4cb7b576c988bbb8b7bdbb65bb7689b787cbb8c47b
col09:   5989687b689796b8bc7bbc998bbbdbbd69b896987bb9bb99cbc8766986d79bbb89b98576968bbb85
col10:   b77645bbbb7871778b6888ab787bbcdcbb998bbcb8bbb7c8bb958b8e8bbb7cbb896b98d79b8495b8
col11:   b78885977b9bbc8bb8756b6b8b8bbbeb7788cb5cbc478ccbb6bbb9be9c9bb66b78bb5a8b9bb7cbb7
col12:   b539686878878766bbcb4b57bbbbb9bb6bb9b898b97b88ba6b9bbbf9bbbb7b8bbb9cb6b9b89b9bbb
col13:   4598b77b757966c28b6b7bec8c6b98ecbd7cbbcbb99b59b996657cdbcbfe9b6b8978b5b97479bb73
col14:   77b975469796bbb6b78b668b9b7bbbbbbb9b9a6b9978cb9766bcd9dedbb9bdc8b9b4786b3b49b987
col15:   b3789738897b779b99a7b9bb88bbbb9bc9cbbb5b8bb898b9878bd6bbb9bb9b87b69b687c3bb86bb6
col16:   9bbb6477588b9bb77c9d6b888c897d9bb9bc8cb48c6cbbb7b8b76bbdb8988b8b9bb8bb7b66b96987
col17:   4678777765788b9b6b87e9b76b67b8c9f9557b8c9cbbbbbd8cbdbbb9c7bbb98b6bbcb48b7bbdbba5
col18:   d7459a646b7cb887c8898c79d9b9c6bb9d6999dbbbb79bcb8bb6b8db88bb854bb876b5775b99b886
col19:   b157b8888b87bbbb9bc6bb89b87b9b99996bdbbb977bb8ce96bcad87bbaddcb9488944b7bbbc8bc8
col20:   bb89d67b99bb7bb6c98db6bc96bbb8b9bbb9bb869798bb5d8b9999988bcbc76c6797888698bb697b
col21:   bb88b47b96b5b88db9bbb89bbb8b7c7b8cbb7999b6b89bb79cb7e8bbd7cb6bc9785b49c5979b8bcb
col22:   8b88b8987bdbbd69898ed8ccd9599bb8bb98bbb68b9898788b9bbbdb8bb6cdb8be88b88c98877699
col23:   66bbbeb757bbbbcbcb89bc6bb9bb8ddc9bbcc9c5ddbbcbb9986dcbb989796bb8778b87b8cbbb79c8
col24:   9bbb68bdc9987cb99b9b7bb75dbb99bb9bcb9c7987dbbb9cbbbde5bd787768cb89a6b8768797b799
col25:   97bbb6b88b96bb898c9b9e76bebbdbdbcb8bb9c7bbb889e9bb9bcbbb68bbc7eb989bc8c69a9bbb88
col26:   b997bb9b7d68bddb8bbbdd9cbccdc6c8c9cbcb7db999c9bbbb8dbb987988cdccb9bc9bb86bb88b88
col27:   768c9bb9cb8b889d9bbbd6bddbbcbbccb4bbb6bb9bdbbadbbcbeccfbcb9bfcd5798bc8f8b7b8bbbb
col28:   8b9bb9bc9bcb8bbdb9b8bbcc8ddc87bb9b8bbbbc8b95cbbcbcb8bdbbddb9db8b89bbbcbb7bddb8db
col29:   bbb897b9cc9bb689b777bcbebce9cbbcdebdbbaecbecccbdcbebdc9dfcebcb8e9bbbbbcbccbb8b7b
col30:   c9c768ccdbbbbbcbb8b7bb9ccedbdcbdcbcbbddbbd7bbbcbbb8cbedccbcbebba698b87b9c8b968b8
col31:   97bb988899b9bb6bb9bb9cdebecbebdfbbbdc6cdfdcb8bde9bdccbb9cdbbc9bbbb9cddbd8898b8eb
col32:   858b68b7bb79bbbcb9fcbcbd9bcdcbceb9cccef9dcdcc9b9eecdebbfcbb8bddbcbcb9b9bcdba97ac
col33:   c8b78b9b8c96887bb7bc89bdbddccbdeebcbdcbbbbebdddcccb9cbbbdbccbdcc7c8a9bbcb7bb9c7c
col34:   7db9c8b99bb79b9b8befbfd8bbcecebbbc7bdbdf7bddddabb9bcd798cbbb9bfbfb689bcbd966c9cb
col35:   7b9bc6998bbdbbdbb8bbc9bdbdcccbbcbcb9bdbbbdbd9dccbeaa8b9ddcbccbbbbc8bb8bbb8b9bcbd
col36:   7b98cbd9bbbf8bc8cb9b9e79b97bbbbbad7b7bbb9bcebccecccbddbc9cbabffcdd3bbbf89899bbc6
col37:   b7b8b7bb8cb99abc77bbc87cddc9c97bc9bdbbc9cefcdfbfcbbdbcccabcbfbcbbc6b6bcddd9b9898
col38:   bbb998b99bdb9dbbdc46cbbbbdbccadcbcbfb8eb8bccbcfc9bbe6ccebd9cbb9f6bbcdbc66c8cbcc7
col39:   bb7bb98bbdbcbbbbcb9c9dbae7cc9bbdcbbbe8bbbbbcbbbebecbdbbbb9ebc9b59ccbb9bb9cb98cb7
col40:   b9bbcbb778b8d978bb7c8bfbdbecf8cbbb9ecb6ccd98cbebbbce8bcdc8bf9bece9e96897cbbb9798
col41:   cbbd8d6c899bcbbbde877c76bc99bdc9dd4dbdbbdb9d8fcbcdb9bcbbfbbbbdb9bdd7bbc896b6c9cc
col42:   dbbebbb9ebba9ebbb7bbbc8decdebbb9b8dbdbcfddb9bfdccbddbb6becccc7ed99cccfbc9dd9bbed
col43:   dbbbbb7db5cbbbfdbb8cbdcbcbdbcdcdbbcccccfccecbdfdecbddfcebbb7c8dccb9ddfdbd7bbbde8
col44:   798bb7877eb79bbbbb7bcceb9c7cfc969b8dbccbbced9dcc8ddbe9bcdabbbccdebfabcbcb7bbb988
col45:   8cb8bb99bf7bddb88ebbbbb6dbcccbbbb9cbcb9bc7fbd9becebcddebeb9ceccbbbc7bbdd7979ba9b
col46:   8b798b99bbdbbbabbbcca89bdf9bbabd95bcbedd9cab8eccbcdb99b9cbbebdbcdebabbfbce99bb9b
col47:   b688b9cca9dbc7ceb6bbb9cb78999bfccfc8f8ebbbbbbccddd8dbceb98bbbbab9cceedbde98bb79c
col48:   8bbbbbbbbb7d7bb8b87ebbbb8b9ebbd7b7b9bddebbcebbefccdbbfbcebfceebb7abdbbcbc996aceb
col49:   5bbb8d79d6bcbecdb9cbe9dbcf9ce8cbbccdbcccbbcdee8df8bdbdb9ebbccc898bb9bdbdbe7b89bb
col50:   b78bbb6b87d8998b7cb9cb889bdedbcbcdd9deb9b8ab7fdbbbddeb9fe9bbbfb9f8cbf88e98989bbb
col51:   85bdbbbb8db9bd77dbb8b77bbb8bbbcbc8bbebdceddbcdbccdbbdbbbbbf699cccbbbd59b9bbbbbbb
ROC:	 BPix_BpI_SEC3_LYR1_LDR2F_MOD1_ROC15
col00:   653b576bbb5dc5bb97688b7bbdb8bbbdbbcb86bccdbbbbbd9bd6cb8bbb7b9bb8bcbd7b6ddbbbb667
col01:   87855869854679686b4b8bbb7bbf85b6967dbbebbfbddbdfdbbcbcddcbebd8ebef8bb8d9b8bb9b9b
col02:   bb4268b89b66858b76bdcbb8ddb8b87bbbb78bbbbbbbbbbcb8bf999bfbcbb98bbb6c9d687b3bb6b6
col03:   46b9b668b9b9b8b74597bc759ebbcb57dcb7c69bdbcdc7b8dbbb7bac77bbd6ccecb76db788bbb848
col04:   777669b9bbbb877b68b6cbbbd799d8d8cb88cbebb8bed8b8c6bbbbcbb4bbbcbbbecb656c98c358b6
col05:   b795bbbbbbbbbc585b89888bbbfb9e7fcbd8699b8cbccd7b8ff7bbb8d9797c5bbbdfecec98788847
col06:   95476b67bb89b5898859b9b9bbbebcc8bb9bb9b8bbb7bbbcbdbc6c8d8e6b8bc4b89bb9bbcbd9966c
col07:   b769bbbbbb999b77d89bbbbbc67db97bbbedbdbb7bd9bcbbbbb8f9fdc8d89ccbbcd9db57b3cb88b6
col08:   bcbb9bbb57958db647beb9bc7bc5bd8b99bcf9bd5dcbb8bb7bcbdebbc88bbcb8bcbbb8c7b8bbb9b9
col09:   8b77b8888b87b458bbcc87b8786cbb8b7bbbb768bf97cbbeedccacf9cddbc7bbf88be798f4bb4bb8
col10:   897567677866d7b687ca9b9bcdbbb99becb6c9c77b8b7dcbccf986bcb8dbc777bbedbd8865bbd86b
col11:   688bb7bbb3b7674dbb8c7bbbb7747b4b8cbb889bbc8b7b7dbbef7c8bcc889b7cbcbb9bb6b577667b
col12:   b2894b7865688bb7bb9bb7987c68993b99bbc968fbbb8acccecbd8dbcf9dd6db9c89bbd5bd5b984b
col13:   d878b8b745bcb686bbbcdbb6b8b8db85b8cfbbb899cb7bebb9eb9be9bbcbcbbdd9cbbb67d8b67949
col14:   7954b975597686b69b98bcbbb9dbb7f9b67debddb97ecbb6bbbcbbbfb875b9ce8cbb49bd958bb9b4
col15:   4b3b64378685b8cdc8bcbccb77b87bde8c996bbdb9bcb6be6be9c789bab5bbbbc9cb888b86876ccb
col16:   16b7735889c46dbb9b9bc7b8bc5bb7cbc69b788b7cbbbebbbb99b8bbb7b5bbb9b9bb9989bb4978b8
col17:   475d8bb7b5bc768b6bc7b7fb76bbdcfcdcb8fcb9dbbfbdcbbbb9bbdbb6bb58bb9dbb58c8898b9595
col18:   462b5687b7999bbbb9759b8bd98bdfebbbb8c9dc89b8cbbdc69dcbcbb8fbc88bc8b787573fb7979f
col19:   946b88463698bcbb9d99b65888e9ecfbbcc8b7c9bbc89bbbb8cbb8ebb8b799dcbb689689bfbb856b
col20:   956b78b34787989cb688dbcb69db7ce998bbbbfdbd9ba9bc9d9e8bebbea57bbbb69c95b9799b8c85
col21:   56ca8b7bb89bd8699ec89c9ccbb669b9bbb68b8e7ebb8b9c9f8978d979dbb96b8b6b6698bb998799
col22:   6b5768bcb9cbdb8b67b8bb889bfcbc8cbcceddbbebde9f899bdbbebb8dbc8b9bcbb94ccdda27a8b4
col23:   6b647b5bb769bbdb8b9ccdbcdbebc9ec8db85db89cb87bdbebcebbdb86bbb8b8b78698bb8b9b8dbb
col24:   bb7b778668bb6ebbbd8bb7bdbb89b8b887bcce9bbbb9bddfbbeeb986794b9f8b88b79bb9b899877b
col25:   5857b8cb89b8bbc9cd9bcdbbc6cbc997bbb7beb89bbeb6c9ba8faccec6bcebbbbcbb97b8b6578bcd
col26:   6988bbd88b8b58bcbb9c9bb8db8bb9bbb89cbcbbbbb858b6f8bbbfccfbcdcb9cbbcdbcfbb894b765
col27:   78bde9b7989c5c8cbe9bb6bdbbebeccc89decbbdbbbbdbb8c8867ef89bebdbb8bab69d8bd877c96c
col28:   b95bbbbd6b8cbbb7cbbc997c9bdbdd69edbb8bc9dcdcbdb7bffcbbddd996cb9ed7bbd9b76eb776bb
col29:   8bbbeb9bbb5bcbbbdbd8eb989bcbbcbcb7ebdebcccbbbb776dedf9ecccbbb6adb6e9eb9eb9779b9c
col30:   d8fbbbbd8b78b7bcbbbab8999889eb8cb6bb7bb8d9cd9cbbbcdbbb99b8a7ddb9cbcc69cab886b7b3
col31:   b99ccc8d8bbbbd87959b6bcefccbebb8bbcbbcd8bb87d68bfabdf8beb9898dfcec9ecb9db8cbc8b6
col32:   cb7c98bbbc8bdddfeb7bdb9bebdccd8b84dfdbb99bbb8bdc7bede8bb78cbcbbdc9eb9b8bb7cdc7bb
col33:   96b7887bbc9bbbb9dbbadbbbbccecbb8befc6fd89bdcbcd8bb9cbbbcbb8ccdbb8bfbcbb7bd9d8cbb
col34:   9bbdcdcbcbbbb7d99e9bbb9ebb6bbdebbb7b87b6b7bc9cbc95fbabcdbcbbb77fccadb8dbbcbdbcbb
col35:   b8b9cb8b89b7bbbe7dbdebcddbcdcb8bb779d9bd69bbbedecbdc9ebb99798c8ccbba9bbecd9d9cd7
col36:   b88bbcb5796b7bb867ebb8dc8dbec9eddb89bb7cb9b9bbda9e9ddbfcbabcbbdbbbdc9acbe9bbcdd9
col37:   6bfb8cb7bba98bbbc7efbebb698cbcbddccdecd8bbbcebc997c8ebdcbecbe7bdbfce9be8bbfdbd79
col38:   dbb69d9b9b9bcf8bcbcccbcbbb8bbb9bb8bd67bb6bcfb9acbdcb9fececdc9db7beec8cbebbcecc6b
col39:   8bc8bb788bb9bbcba9edcdbbbb999bcebbbc9beb87bbaddfdeebdffcc7fbbb9caab99dbccbea9cbb
col40:   bbb8bb77bb8b9b9bbbdccecb8bbbcb6e7bfebdcececdfed9bfecdbfbed9cb9998a9bb7c9887c882b
col41:   98bcebfbdeedf89bbfdbbbdcdbcebcddf7bcedbfd7fcddbc9dcccdccd7bbd9ed9cbbebbcee9bb9be
col42:   ccbc8fc9489bedbfcd79bc8b8fabbdce8b9bbaedacbfcbbbcdddbdebcbcea9bdabec79cfc9cbbc88
col43:   8bbd9fbdf6cb89cb9bcecbfbcdbbfddfcdbeccfcfddca9dcdbbdfd9bfdbeebfbf9d9cfcebd78c7a7
col44:   c78d9dbbbb9bcbd9eb9cbcdbc8cedf8efcdcbbddbebdc6cbfbcedcdefdfcdfd9bdbcbbbbabaccae5
col45:   88bc69fbbcbaebbbb8bcd7cbc7cfdc8fccbbbdcefccbcbbecbbbd9bddbcb79b8bb9bd9ddbcbb8b55
col46:   d6bbbbdd98edcdbc7eefbd7cbbd8ccffbbdfecfdbfdaeecebbfbbeecbb8fbd8bcdb9ed8bbfe999be
col47:   bd9897deddb7b9bb8ffe8d8cddddb9bbddccec7bf5cbdcb7ecdcccc8cb8b8bcced7b9dba9abbbbcb
col48:   bbbcbbbcbbbb8bb9bfdbb7bb8ed9bfbbbbbcdbdbd8beba9de8cbbbbbcbeb7c898c8b2c8bbbdb8aa6
col49:   b6cdc7bfbd85dbb8bcbcbbdbbc9bddb9bbebbfcdb9cddefcdcbbcdebafbbbddb9db7acdcbbccb8bb
col50:   bc76bbbebb7bb9bcccbdbe7bddebbbbc7cbbdbbdcc8b9bbd8ecbdebefbca8b7bbcefcb8bebe99bbb
col51:   b7b6b7b69bb9fbbb97b7b9bb8b9bb7bbbbdfbd7bbbbbdbfbbbbdecb88bbec76bcbbbbbcbbb88bbb5
