ROC:	 BPix_BmI_SEC6_LYR1_LDR5H_MOD3_ROC4
col00:   16156623415548553a7949b75499a98cb77367483869baa62598b57a7b68ddad6b989abbb877bcbb
col01:   4587b5569578988857485495799ac8c878d7cbcb89aacbb58b979eea9d9bce6dda2f6cdcfeaac97b
col02:   4246859747568868856b5595a7babb87a8a869ba8d9e8dccdb9b8bce6889dabb8b9baacbcc9e87cb
col03:   456ab98277865796b6498ab89ec5b9879b8bc879ba859ac87ca858c9caaeabbd86aba7889a8b5bbb
col04:   8a675a49867658754cb5c678788a99bbe8a8699cccd9aca99baccdbbc96dcdedbfacf67bbeae65d7
col05:   6994a83a58959884668d8b65574ebac8a8cdd87b7c7a678f86eaaab97dd699cc9be98c8cab9c98c8
col06:   85986a9839697a8743a876975aaba89d9bccd9bc6c9b98ae986ccaa3c6ea6cd8fd8cb63acee888b6
col07:   8659997a66776747a76b98b57b87a7cd9787adeae888ccb877f76a9b99a9ea89dc9ebe79da68bba6
col08:   686737676483463775b2b88a999b9b7879b7bab395c979bb6c9999b987fbaddbb89a7de6daabaca9
col09:   54a696354358458878a918b8778bb7768bdc6c698b98b7ab79bcc9a7a79cdabe7a9795aac9d6a9de
col10:   8c839b9995589457759889a66b7a8ba6aaa9b3aaf7d99ccaa9acfbadaa6becc8b87fdaace899c8a7
col11:   4867743718a784a79776a789886dbaaac87a897bcad9b9ecd97bd9cebdaacd6a9e8587c7cdc876d7
col12:   44534876255a7268878589a5a6799bcbca6e889ab996a9a7aa8ed9aeb8e77b778cbd93a8bb8b9a99
col13:   9cb9648541a7468a579c4588a8c79a9b7594aaac5bbb9d8babfa95eecbccc9ef8aa9aaccd8cc88ab
col14:   264977557753563988c9969d4a89abcaaa7978a7acb8aa9a779ab8cbdf9cc6b9959999a9778cd699
col15:   7194985876768c85b5b857778fd49699c86965b7a7ac7d87bfb9bb7aa9d9c9db85cbca9b99bbcc69
col16:   5379776985877a79879d89997d78b978777a7b9aa6a8abeacaedea7cf9bef6a78acda9cdc7897add
col17:   247658618867b686675596a6bcca8b6944b7c9b9eb99dbbbab978999d9a986c9a6bcad6ba969ea69
col18:   53516395786275988648575b9aaab9acab79abac98aa794cc9ecc99ccdad7abe9aada9bcbcaab79a
col19:   841158968d796a65987b6896c4a7588b78a3a827ab8a74aecb699cdcaccfababa6aa5c976ccb5bc7
col20:   26aa56656855963a5788b9996a75459c5a897969bc5ab877c89dbbec8bc9999ad789b7ec98bda9ce
col21:   867ac5a6a8d56b2965235d96565498b695a5698e7c9cbbdabe5eb9ca98698acc8899aa9987a986a9
col22:   966666744789a9975b786a86999dd9689cab9b999bcccc7caa9fac79d7aa97eaa89ba67c95bc688a
col23:   3889b788576ac6844b4ab8b8c2875b5b7a9746689b86eb9dddab8cc9a47c9ac79de8be9c5b78bb6c
col24:   566a99ca84688ab858c7774c7aa44777a7c8866aa87a7c9aa8bbdaca7a7a69bb88bd677a68158aba
col25:   4d7a77b8b754c9a885bb5785985b8baa7aabcd8b89ab5a9ab9acd88c8d8e84fd899889a9d9a4c597
col26:   397aa67695a98844c589659889b789a767c8a78aa8adc8cabd6ccc8bc7eaebdd67cacf6a7b87aeb9
col27:   28bba956578668697398bd88a79a8a78aa99ddc5a98bcc889acbeabc9b78b7a8a98dbcca8bd8c8a4
col28:   769b8766bc9867694987bb99b97698b8a6ed8b999b75eecba9d9aedbca89cecaedbebc8ca8adedab
col29:   497b7958b78a95aaa989579c599aaab7b9bbbdab9bab99b9bbadbcddcabbab85cbcef6b8c8fcd9fa
col30:   a887c8e5c7ad94a6a7967a8bfd85cc7689b6dd7cb7abad87d9cc86c8dfcb99e8faccc78e8ddaabbc
col31:   b5a8c6b7b8798a7b6f39673cb9bafacbbd7c8e8c89878dddadceeccbde6ed6f89668d9c79bd8ce85
col32:   a789885bab9b58c94c89736de9cd9ecc9bafb666beb6f7ad9eaccdbddfedbbcf8acfcd6ecbac89bd
col33:   966ba5d88acd86c758baa9cb7a9bafeecdbc69fc999acbfdccbbcb9a5bbdccaabbaab9abc9aca9be
col34:   569ba974a97786878a877675bc9ca9a8cdd8abdbc6c76d7dd9afbe8fce79dbcb9edbcaa9b4cba777
col35:   768bc6a67bbdd6a5766a8589a7cac9eb8ea798b59d9e9acca5bc64d7cad89a7eb98aefcccaacda8c
col36:   55778a97ad99ac9c5675888c87ca9fafa7a7bdebaaa8ceba96eaab9d6aaa5bcdbf4aaddcaa9adb8b
col37:   8679a7ec898989a9ace7cf5bc46788a8a8abcab9abdc79c8af8ddade6b889badac69ba8ae6a85a69
col38:   6965885678657a8886786ab9b9d9a9acabcbd9cebb5ad9c879ccb9ebb7fbda9a8b5f9cbcac7ac7ad
col39:   2754856958a78e97a697b796bb88c7f9b8adaa9a78b9eaabaccbbdc9aacee6caad8ad96b7c59cacd
col40:   766b7d8587a879ae8857bd99aa98adbaae8b9cba7d5b8c9bbebb96cfdde9e7dbca7abe9ceecfbdcb
col41:   9a9dc8aa59657a854abcad8a89aa6c89fcfbd7efcfaea68ad6c9fdddcad6b9caa8cfad9bebcdccca
col42:   67ba999a7abb9c76aa788a899a9a74697abc9b9ed9badc8ce7adad5fbb9b99ababdbab59dbbeab9b
col43:   3aa88b8847c64b75797abdaaa9abc56d6dab6deabef9ac8fccedacdbcaa9abbcc8ea9b9bb8bababb
col44:   48ba856a79a8435822aab666eaa9bacd8c6bcaa83bc97aaacb8aabd6cab796daa9bdacc8aa88acb9
col45:   461a8865b958a92a6b79ce88abbc9dadbbad9a7adbdbadace99dbc8aabbeebbae9bbadcc98adaad9
col46:   6733984964539a9a6585569bc99bc8cb7795bbe568c99ce8c8edb9caa9a7ccccb88c9dabca9c6a89
col47:   682769343aa9b788b4c9bca98789a5caa9eb59dbbbac99ecfbc7b877abadbbcab9cc8dab65699838
col48:   555778974477969a876755dd4b9798aa76db6a5ba7aad7fcbbf9ff999b58aaab8778cea9a87a6c5b
col49:   48b8959a595c3887665798a6b89ad8daabcb89f8cfe9e9cbdbe88bb67abcb9aabb8af8b7c9c9cfa6
col50:   b45865a7a8959597c747d2869b19faeabbc7cdb879b87dfc7a9c68bbadacf8bd997bb8b7c99c9cab
col51:   359a8557796a589a55b4868aaca63b8c9ba8bb896ba87b7a997ea67987c9697a8aa66d567457ca9a
ROC:	 BPix_BmI_SEC6_LYR1_LDR5H_MOD3_ROC5
col00:   85661278984926479e775c775a5a87bca8bc6cba5b9879a85789ba8b78d78686869bcabc99bb8949
col01:   8638866db499559ae78996a8aaa57b876b878cbaea96bac7ad77aebbaabbdbaa9bbb9ebbca89badb
col02:   657a5456bb778779738619db7759cc9b98d8c48bb787a7c68aa77a87a69c9badcdc68aab967a5769
col03:   6867768665a76c7ba957ad57467984e779cc8abcbe98ccaa8bd8aacdc957a6acba9acab9b735e89b
col04:   235587a758a874897968a67aa7667c8b5a779a997a78558b87c89dbab99a7d9aa89ac8779988c477
col05:   3559a8788b8d84896b77948d859aa9bb8a9add95a8cd6ca979979ba98ba977cbdccbd6cadaa57a97
col06:   37177955a59986b6a899986a56c496575c7999ba97ccbfb9aac998d9a7656897ad9e7bb7a9bbb877
col07:   575a47695699898568b99976846abbaa97b8daa9889abbda99aa9af89bcba999877aac5988ca8a88
col08:   77847966649849995885a956558a8b75b96bca7ba7adcab7cca99ca8997ab9a6a91c98a7aab9d779
col09:   44777782869567888678b8baa5bb7b6589a7ba9a984ba7bad98ababc89ec8ecc9baaa78a97bb59b8
col10:   69751565978b875687b9a87879897c78499556cb7aaba79a9c9a9a879879b8aa8b8a48988896895a
col11:   665876a38947548798944869bb7a783798bbd98ca8adab6bcacff7acc9adaba8e9a79677ca55a777
col12:   6777676843a99652abc9a7976aa965a96a97bb79e9a9aa73cba99c7b8b8eccaaa868db6447a75534
col13:   5666878785457b586b983b8a9798947a89a9bacc9899bc8998da85d99bbb958aeb96b99ba798b6cb
col14:   23464675667773698c79995979759aada7d9cbad75ba95a58b798a8cd9dcaab7cbaa597777a95655
col15:   7658629546867876a694b75c9ac8babac77b8ddfbc9ab77c9abb886eb977babb6ab7c569996c8cd7
col16:   673544655647595a7e78b889aa6babbb69aa9c9cac9e7b7aa8a989c5e5c869689bb8965568669846
col17:   566653546869b9736545694b977fabba9a7cab6a9c4d99caa9bebeb4a77c8b69b69bda89a4a8678d
col18:   53753378a45497b549875b96689eda7b9ab977cc8bb98cb79cde777977d98bb6a7b9a97365baa967
col19:   31743987a56946e67757b9b776a99aa88c798a7ab7ce78c9d7fb8babbb9868bb9a978b9ba99784c7
col20:   36573a82584866c9844988a989bc99aaacba89ba87a7dcae85d9887ad5898da7c577c8d68799ac7b
col21:   36863626786955996648894866bca8579ab7abac9bbbca88ceba7b7bc9b7e8b9ba69a886aa7bb858
col22:   8349a69a66958996869b898b768da49ccaa9cd99b89dadab7ab9bb7ab7b87857c78a5ac8aaa76466
col23:   322734426866869657c7773779b8a99959a7879aa8d8cc4b9ba98dbdac6b866bab89a6a7b79b5fa5
col24:   598635686688bb9a7ca6749977c887b78597acb7baa697a6ddfdec7dcabbfd7ab99868885889e87c
col25:   47666666964679a9a6a9a9966c798b8dcb874c89a79d89b8b8ba7fd9986b9a956acdcb7bb9c889a7
col26:   43726a47747996aaaa74978b9ab47889ac7a4a658bab77a87acebb9cb8bccbcc8888b7c8776d87a9
col27:   8863848b4b97a94d997ab8ac978757a69babd99a7898ca9bcc69ad8bbb9c6ecab9e999aabba99a4a
col28:   55aa57668b98a748aaa6b968388c4c99b6b687bcbbaddccbbbaad89b79a8bcbc879bcbbba9a7c98b
col29:   ac68879a6aa94b9a77866b9baabc9bb88dbaaabd89ebe86ba9b9e9bcd6bc7aacaeda6df69799c9e8
col30:   846bba98885549ab847aa9a774859aabba5d48c998a96c779dbe89edcbabbbba7bfbcaa79ca98977
col31:   66795769767b58b688988baa6898b9b7b7badeac6c8aabcbadbaafed579ac7bcadc6bbcbca6fac79
col32:   7558739a598999a46b797199a79d6b789359bec678daecaba8dacdcdbbeabb9da9a8bb7a7a887a7c
col33:   816555b7976a9584aa885a8a49c78a7daa8889aabc8aa989abd89aadbbce9bbebccac99d9b9abd79
col34:   c636367779878ab64979ea8bcac9a5cc9c5da999ec8a7bdad7f9abbfc9cbbb7ce887c9bec9dbefba
col35:   86783927b97aa9997d79a76bcc78bcb99bca8abd89eb98cdcbbfa7aad8aa5cccd999f9abccdb989a
col36:   7999359797897b99b7869d7c987cb8c9daba98e9b7b6998ddaac69cb98b9ab6a6abfacebb9bbcb97
col37:   8a86b63a8a965787caa97386bc96bb6d8d99b8ababfeeda9dae8bcc8acad86adaae99a8bbacdbea6
col38:   89aa6948376289aa96ba7caaaa9a97aa7bc8abb6e98d8baebebcdcdcbccc989ca9d6b97edcccbbb5
col39:   597789875a96869777a76a9877c8aed877fcd8aa87beaafabbbbaadcd9cc9bb9c8b9cd8cccc8abab
col40:   99478b8772979aa5979c9899896a7a799a8cbaabfdcbcfa6c9caeacbad86d7b96bacc9dcaafc7c78
col41:   58787986785bad8b9b8834c668aabb889aca7f99c9cfcda9a97cbbbaba88bd8c8b4beaebdab599b8
col42:   497c4a75b5b8c6a85664a788a92ebb8987a89bc9998bbb7dbf8fd686a799a8a8dbcdcdcacbcebcbb
col43:   898bc7886c9ac9a986c9aa88b997ba7b9ad9b978bd8d9c6cbaa9cab99ddb9bd7cf9bacdbdcba9c9a
col44:   8aa69978eaea5a8a9ab7bacfc5bcbbdb9bb697adc7dcb89bc8bbacbada7ddea8cebbbcc8fbceb587
col45:   66898a78898fb8699a9a956ab68be8a7a8cdbebcacbb7abbecb7dbaa98dab79b9eccaac9ec88d86a
col46:   849678a688988796b986b58b9a99ab678bbb7acab9bb9ac5b6fadaaa9a99989b7cbdbbb8dbd9ab99
col47:   936688aa46b89b7c9b8dd89a98a8889c8abbb9cbc98aca77ba9cde9fbeaa7c96a8a958898bda99ab
col48:   8364754a769a9788a88d377769c9d56ac93999f949c9a788cacce9afeb867e77baaa7fa9cdbbc465
col49:   76757794a97a996aca5aabc7ae8b87b6d799a7aabe998d677b8adcabd9add7d7c7ecc8babcca9a8a
col50:   6598375896797498bc8a67891687588776a987dab8aa8cb9acaa9bddb98aef99c69babdb8a7dac46
col51:   2a453a6b778948a7a8b467572967acd66986e9e786bdda9b9f6a999bc979988ca9aae8cadb98999a
ROC:	 BPix_BmI_SEC6_LYR1_LDR5H_MOD3_ROC6
col00:   38651838b553866b643476cb8b899b7bbb8b889b8b7b7bcbbbbb8bbbb7bb976b78987bb6bb557685
col01:   785383898859774b596889bb9885b5bbabefbdc9bb87b8c8c89b67d9bbbd9c8bced9cdb7bbe67b86
col02:   54757bb89b69b8c687997795b65cb896ddbbb989789b9b799c599ded97ccb89f99bb586a7667847c
col03:   88b886b7887ccbb7b78b4869bbb97ebb87bbb79988bc7b8dfbe8b87abb8878edcbdadfbc6bb66cbc
col04:   75b65644568769a88db6be759b66d8f6bb7bc7bbcd9c99b8b8cbbac7b9e9bbbd8bebbb7d9bbbb897
col05:   b557567688bd84979b9d69b9cb9898dbeabbcccb668b8c8b896bcdfc68c6dbb8bbfbbdc9c7bbb6b7
col06:   359b5b669bbb756bb7886b77688be787879ca99bb9b9d8ab99b7bbb9bc94dcabeb7c98b88bbb2836
col07:   9653467779897bbb79b8d8a85989cdbfbd6c7cbbccdb7dfb9e8bbb7bdcf9c79c9da9b8bcb9b96b99
col08:   8bb86cb86778d6b6e77c96498bb8db999cbd9b778b797bb6dbdccbc87b5d9adbd5bbac876694bbb6
col09:   8bbb3bb7756645c6cbbb79d9bbd8bcee99d69889ec9cab97c9bd87bdeb898c9b8975776b48c5bb78
col10:   4987b5c94ab8d7b7d959b58599d798bbdb68a7e9fdbb8b6889bbbea997f4b77b7c99cb9b777cb8b6
col11:   8394b72b39787429b8964b8cbbbc899c979cbab6bb7a87a94bbccbcceca775b99be8c4387b87b6b9
col12:   46675474646b556685445899b765668b59dec76b8cc7884cbbdd9c8dd7887c5aa7798db69b6b77b9
col13:   7859a8976b789719bc63878cc7897b5d88faaabd9885887bbbb88cbca9bc79bbb799b98c7969878b
col14:   648748787a6bb855cbbb798c8b87bb99bb98bbb69bc9b4b7dbc8cbb6b83968968b5b38bccb665bbb
col15:   558229769456957bc386bc699bbabbbfefbdbdbbb8abbdbbd8bcdbbc8d95a59d9588d74678a5db58
col16:   75879238467968a4b99967c9b88b89b78bbbbbb9d7cb6b8a97cb8db6bb89b4cb879a8788bc999875
col17:   6396b49795e6a19bb798bab776b97cfecdbcbbbba89baaadb9b9b9b8e9b7f89796cbd766bcb78dd7
col18:   42284b4665569b59c769cbbcbbaa9b89978b9fdb7c837b8db779b678866978bbbbbb9bc6887bba6b
col19:   4577977a285b8b7cb878bda84467abe7e97c98bdbdeb9bbc7b8b59dca8bb8bac58caac54b7a3965c
col20:   b1655859967b6465987c9988989bdb88cc4999b9b6cb6c8bbccd789b8b98b9b8db7c878875b76977
col21:   5368b947b7c6696b6579cbc8be99c89dd9cbb97bddcabb677cceabbb9a994bb79bcb87eb9686daa5
col22:   46464785987c968594cb6896887dd9b69cbdbcc9abdbbb9b87ebddbba8db7c8ce8aa7b98bb9b4497
col23:   587b399a677b96c678ca7b98c8688779cfc99bd9d9bdb6d6ccbdbdc777b8789bbbcbb99489bab9be
col24:   67579b8b85ac6d68bdba757c9bb7b78b8b9bba8b898b86c7bb9d78b97bbc87bc779b86997c678846
col25:   7868bba87bbb3687b957b8be79775778bb99d8dbc78c8cb5998ecda7b7bbfbf79d8c8bbb9bb6c8bb
col26:   976b587b5996657be8c886689b65bfbbb5995bc799837e7bb8a9e9b9d6a9c999edbfe697db9cb6bb
col27:   b775864b6878bcbbc9db983c9bb8e7ccababbbb7b8acbbdd99bdbdbdecbbdf4bdb848b8bb648c998
col28:   b7bbb7bbcb8dbd8dbbebc6d7bb7bbe6cb88ebb9e98dccd9ca77b9fdcbadb999cdc9bbed8c8d8bbbc
col29:   bbbd8b7bbd7b6d58dffbbd9bbbcc5bcb8bbc787bc6fb98dbbfbb8b7de9b8dbb979bbbbddbcbdbdbb
col30:   b7bbdb98887b898b69b87bc7b7889ebc6b9eb8bbba8d9c8c6a8b6b7bc6fbbcf7fb6ccbb9bc8bb8b7
col31:   67b85b778b9baf8b85cc7cc89c9b8bbb8ebcbbb9bcbbabbac99f7efcbb9c998cbd6dbb7c9a85ebdd
col32:   b8c74bbc6c8eb9cbb66b5db9bcc8cb87bfe9b9969cbacbbac9b5eabbb6bee9b9bbbf9fc67b8b9e8e
col33:   9b7b8bc97cdbb98b86cbbab9cbeeabc998cbe96b89cdbbdc8cfc9adbccbaeab8dcdfb9eecbcdbb88
col34:   7b6967456b77687869b9b8d98c96b7979bdcb6ab6b96cccbacd97abc7a8daba8cf9cb6acdbdcb96c
col35:   d98b66478bcab69dbb7bb9bd9adcbbbbdbab4a999999bacdbbdb6cbfdbebb99d9bbdccddfbcdbba7
col36:   879665d866cbb97598bc7cbd87be75998cbbcc88c8cb9cdab9cdbbefccbbb9be6cb9b99bdbc9c9c9
col37:   59c7bb7867c8bb8bc769e7d98abbdbae96bb7da7bbbab9de8ccfadbdbde89adcaebebcc7f7ded5f9
col38:   bbd65db5bbcbd7bb7bbbbcd5bc87cbbb86d9a99d89bf7bb9b8bdccddcbdabdbbcaac7dedfe99b6ab
col39:   bbbbdbb87cbbbbc7b5b86b7c9b99ebbd8cb7bd59bb7fdbd9efdf8defb6febc9bac8dbe8fccdbbfcd
col40:   bbb79bb7bbb6db7bb56bbb5bbfbbdbecdbbbbefd8eddedbb9cbbecd8babbfc6faee9bbbbedafdbbb
col41:   7bb9bbbdcbbdbbdbb7bb67bdbb7cb9cc8bbd7ff8dcdbbbbcbfcfbcdc98dc9cecbbbfefedb8bbbdcb
col42:   6b9b7bbbbb6bbbbbb9598d87bb76bbcb6bc8bfdbcb9bbbaa9bfd9fdcd77a5cc8b8fdfbbda9cbfbc9
col43:   bcfdbb5bbebbbb9bbdf9bbbbd7ebebde78bbe89dbdcb9bb9dc9ddffbfccecd7cbbccdcefeeddcb69
col44:   ddbbbdd7bffebbbbbbb9d5bbbbbbbdbfbeecdcfcbbb6c8bbe9bd8dbbeddeccbbc9adb7bee9b8b96b
col45:   dbdddbd5bbbbb95bbbbbbbbbdbb7cbbcbbedbcfcbbdd9bdbcddb7cbecbcd98eacddb79dbfb9bbebb
col46:   7bbfbb9bbbcf888ac7acc8c9cbb9e878bfdeccdbcea9ddaeabbcbcffb8bd98acbcabe6ebfb7f2ca7
col47:   788b9b978bbbb6d6d99ddb6c5ac89c7bb4ffc6bbbdfe89fbabfdace98cbc7e8abcacac95a86ceec9
col48:   7bdbbbbb7d7b7c96bbbbbdbb7bbbb3b8b7bb8b67bbbcd9bdeb8cda8ef8b79cd7cd9b9bc9aec9b9bc
col49:   dbbbbb9bdbbfbbb9bbbbdbbbfcbbcbbbcebbe9bbc8bbbebcbfbdccfbb9f2bbb8978bcbdbbc87d9bf
col50:   5b58fbbbbbbb795bb4b896c8bb8cccbcdbbbd8cbbb5bbeec88e8db7cbb7a7dbbb6c7bb7b8bcb7cbb
col51:   fffcbd9bdbbbdb7dddbbdfb67ddbbbbdbbddfcd7dbdbfbebbb7db8ddbcbbbb8c59b95bb8bdbb634d
ROC:	 BPix_BmI_SEC6_LYR1_LDR5H_MOD3_ROC7
col00:   377275456265463514456b3b5b889869579667655762bbc6587e8596b9d89b8d7d7bb8b77bd9bb97
col01:   22b45148568565856147b466bbb7b79886799c5ab778888698b9b8c96596b68eab79a7c7dc98a9bb
col02:   585776671371633221684394461899c767b78b3bfb75bb8d88dcb98688c9789e7975b9c7a7bd9a7c
col03:   5653d3824725945876796a78576786889786684c3bc76b99fb9c8bda9a8eaab9b8d9a699a66a9c66
col04:   357497531798947846987253a3a799899d726b898b2a6579999cc97eb8d9c885bb8c987daa4d8aa4
col05:   56ca4a743637bb94278569668a74c87527887a6b48a797f4e79aebd9dac999bade8c75dd76799f8b
col06:   578b69615864526834c92b68d96adba95abcc6d7967738b6b8b7988b7ae997dccb84bac75a6d8a9a
col07:   78776959328666553798c569bba8489788b77a5ae99b96b998869ab6bea5b88dc73b27a998cb8b7b
col08:   448789627595853758658658b96668885ab7b7a6dd35b697987ba7b45cde9c79caab67bb998b9986
col09:   13355973572794576ad6658624598bdb966a669ea676b87c6ab6a2d9adedd86a986ae98bba56bca5
col10:   645a24766a985278728664187694a89bb777775ca59bc8529aebb679ecb8f9ec58dcb69b9ca8a6d6
col11:   565a258514538431694764a55aa87cac778b8ce9644c9e7ba6785d9db8caaba9596868a8ccac79a7
col12:   165579935213313485262638936bcc7b57b8aba859b768bc957eb7779eab976446cb5dba8b6cac66
col13:   6b16845233554748a7ab83647a23795ebb846b6ba9b7b6a9b747b77bbdbc98acab88c7e9c3dabb62
col14:   671766245856852758887877876778b5a7867b7a6c69ba6c378d69d9e4b6cc676c98adc5858a5869
col15:   341866595657744666568625d6c98728854878776bbc871686ba9cc87b484aaad979bd99999a9896
col16:   68237738775527963559833559a67589d6898b94da8b79d65966b8bacad8bbcab77a8e8baa9dbc47
col17:   768971313329753544a5a9a976fb7685978a75d77fc8c7cc9baeda9b9adb789d9898bca7c9958396
col18:   46477122571364474467479197578577758a4897b8dcd38839e79ef9dbb8bc88a4b956699cb84a96
col19:   6411686643b3834c488a987b76493946cb8b676bb9a6b69dd58d76cb9989d76976cc5996b516d7f7
col20:   9435b5845165b477b27b5c54747547668a8548978569ac79879b6bcaf9ae7ba67b488659c9ada69d
col21:   85677464299858c36649288b325a5783559c995789588db689989a8f8daca99579498b9c7a4a76a5
col22:   8757535681846a63a9987774666587a9a28b996cc89ab67c57979befb7bbab78c67859a1ab916ba8
col23:   8668859b873963797bb9ba575aac4aa89e69bb9aca7cc7ab6cedf8bd65eaa8dc5a6bb89a638a29c5
col24:   18999bb18242778a3a4579a66a219579b878c6bc5f86acb6aa9ebc8e9a99b7a9a8ba7bbb767b5687
col25:   76638d66837b4a84757962a7a87587bb8ab9aa85cdad9d6eb9bdab9ddb98ddaa7a684b5a998dea79
col26:   65b79cb3668798b8b57655a669778a6ca7fabba899b688fcafafc99eaac98bba9896b5ba87dcb8cb
col27:   696674657b65c97b66453e8cb9598b889c693fc88478f78dc9b497d9becc68c7acfccb8b8ccc487e
col28:   45648d74896b949395b45ad58bb677b79b47878abb8db9c78beebce8fbcafefbf7c99889cd6b7977
col29:   44c45a5b8978b964697ca8da88b88b889bbec9cdcac7ac9ccf7cdfb9ddccd7a8eccbebfcc9cffb8d
col30:   795984479bb76596998abb776cab4e7b8cb9abab97bb9b98ccaecdbdcca9acac9da77ebd8bbf99a6
col31:   7b759b67567996549aa8b9589d8ccbb9dd8b7cdbab9cbbba99ceafcffadcfbcdbdcacff8dcb9fd99
col32:   ab7267555597699778578a7bcc7cd9ceadb88b9f8ba4c8d8adcbdbfbedfb9c9dcdb7879f8fbcbbce
col33:   7866b9965aa84869556b77b876bbac8ba98b79cbc7a9ba9ecbaaeaab8ebb7dafddf6cbadb7baddd8
col34:   3395677b86622395b7a779778bacbd9cabbfada659ba87dcc89edc5ddabb9eefacd7bbf75cbdda78
col35:   47a75777ba7b3a64b5789a59a6bd8bd88cb69a998ba9a5ccdfaabdce9ff97ee7989acbf98eb8cbaa
col36:   754a99b17697a789e86bc7cc7c799da95ba98addbbddacdccceaea8fda69ecdf9bdabfd98b9a78cb
col37:   7a88695b8889db79879aa7993a98edbb8caecc9bbdecacdbe7eb9cd78e7f9b9fbcdeaacbd9b9bfbb
col38:   886a57ac979faa63e7957dba798c77cfdccad9bc9b8bcdcbdda7c898acdbdb889c6db6cb9a6dc7ac
col39:   76bb99678a678ad8b9886769cdc9a8dbdbfddcaacb8d7789cec58d899f8eddb9fa7bc98b9eddc99e
col40:   77898689898876997658b855798aebcac9b8b87aa9c8e9dc9ac9c8adb97abcc78caaccd9ca7badd8
col41:   898869c7a28991895689b6b697d8aa7c8cbdcba9abb9c9cbdb9b9dcc9fada9ebd6e7bdbccdabc9ca
col42:   a9886798796b78178c5f89b58da974aaa9bdb5ca78d99eebcb9f8bfdbfdf5da4b98cc9bfbccde8bb
col43:   488939b8b7a758279bc9c98d9bd8b69eeaacbdadbbcdfadcbbbd7ebfdb9ddbb8adef67ded49bc97f
col44:   58878498c7989759993987c69d9889aaa69a69ebad7eb8adfcdbaddedc98dbb76c9acc9cddacb9ae
col45:   834799c87576b6777947ba586bb999ac7599cb8b79d7cbdcdcebadbdd7edfabbbefeeccaa9e9bb9d
col46:   716866987677425545a9c74b77bbb7c79c8997e986ddfbacffdbcdcbbc8cbdbefba5cd6dfbaba9c7
col47:   39819a7f5877b4649b57487c5b987a99999bc4affcdabacd6abfeabfbdcddcab88aea9abdead9d58
col48:   514657653896434a337a59d6d96296ece6cb7c78fa9cfbaa99fabbbbdb89ac9cb97beccedbd9a8b7
col49:   6966625819876ab9ca49c889cd7a795c8868ac9eafb99edddffffaa9acccebcfccccedcfae8cafda
col50:   7267867581a9b88957bb4639b877cbf9986bc9cacb8ccd6b7daccabdcaeacaaa89ebebefc9c9a5ce
col51:   359665753b6498878c755bb84b8b8abc9d799d92cafb89acabd9dbb7bde89bcbbcace6cceb8cbab3
ROC:	 BPix_BmI_SEC6_LYR1_LDR5H_MOD3_ROC8
col00:   3345237566243435355575742676bbb8667b554b7b3786b766785bb77785b7b8bb797b85767b5775
col01:   377766b566658565696654bbbb5b8b987b55b9b5474778b79bbb86c79778696bb7b564b688696375
col02:   5478775324544617566657546487765b8458b7969bb8879977875b78bb7b69889b464b76976b7766
col03:   b6b6636775654666842457b6687768878855779b8685586b978658b7669bcb677777568559768b73
col04:   3798477837b57544657497387557687885b79786768646b757bb8789bbb899b98776788548bb675b
col05:   244c6888644777685574567887667886878794984997b77bbb8667b98b7b9b789688b72b6b865876
col06:   4278b5596bb99b3557bb7567b87b6b755b587979754699788666699b7b55b8497878669948788576
col07:   4659b6b47666776636b7b78b686b78749b8b89bb887b779b987588755789d4b6766c59b897998475
col08:   6778663b877868846667746797bb4bb868b7bbb6784b48b98cb8b89798786958887b6777b5bb789b
col09:   79b6557425496658847b73b568757cb9666597677b486bbb8896967856a7bb4887bbbb777b8b7bb2
col10:   92775747454658b2783587586bb9b5975c8b7dcbb6897578899b785bb9b6b6b746789b4b666bb879
col11:   57444675651665775445867b5b78b66b57885876b73287bbb858b89bbbe57987b7687788bb968b5b
col12:   5555588774564594b66666846b555c7b564bc587758763558568b78996cbb97b587961967379c666
col13:   6748665973356569958948b766875886b7689b96b75b969986b6b668dbc7789968b9986686946797
col14:   645666446325358765655969888698678b8b89b7646699878677978b78848bb578577bcb85b59b8b
col15:   785859772457568b8b773587b997978758788873796788957866657844999847996a876989796b8b
col16:   6639825bb6545b94685754679bb667cbcb4b49b88b6877c8b884bbb76cb85b87b74887b6b6797547
col17:   4657627b356757b856b79b6b538b866677789bb86779775799695bbb679b87b7bcb99377cbbb8568
col18:   37333474577b6885837388866b6b8865588987897bb488bbb7999b66bb9b97c98b85b85b89895786
col19:   7677315773278bb68655669979bb98994c459c67787b86b7859b878b9b7bb6858769b1b29c6874b7
col20:   874776467733447b687735884bb86b76267b79c78869849c697b89b679576b78b6b7b7878b767764
col21:   2569754b758849b7678c5788665b5b99654b98899979b6757876bc698c8bb87867529888276bb6b7
col22:   6b587875b7bbb6787976678b65568b8655985b8869769bb688b9988b8b8bb88bb857756876668776
col23:   4685464b3bb887b68598848896b76976a69889bb9b7b879b9b8cbb8b7889cbb8b877646678cb7979
col24:   655467777546986866647b76664987b76656b788685789bbce88bb7c697bb6789885b7b989988556
col25:   9758b6b546845b86744967778668cb8bb9b757bbb897886bb99bb68bb7b9698b5bdc867498778577
col26:   4977b788773589bb7b75837b788b9bc69b87cb67b8bb89b858bc8bd998b9bbc68c87b79976697687
col27:   5977668b7b967678898b5c8cb884b66b8869b96ba977ab9995c8bbbcbb9b9bb9b7c88998c7bb8796
col28:   66b66b778655b4bb8b9759686cbb977bb87a7b8bbb5b8778b6b7988dd899b9bbbbb8698bb5977797
col29:   7b569677bb379b77588b886b88bab86758bb9b7b68c9bbb9977788bdb8bb8888bcbb7979bbbb9448
col30:   48864bb5b85776887b7b8899b78bb98bbb987bb8b77b88bb9898bb9dbdb8b87bbb78b7b7bb79857b
col31:   3798768995b9689b67b77788b78bb8cbbbc8bb978b8b69bc889bb8b9b8bbbb9c8bb77e9bb9bbb897
col32:   466587675b9b8698b69bbb68dbb79b7d8b9cbbbc6b88e9c8bc7bc7ddec98886c9878b79c888b86c5
col33:   788b64476778b776979bc8bbbb6b9dbcbb8669a99787bbb6ac7babecd7975d98959cbb79b7b888b8
col34:   75879778bb57688b86889bb96799a9bbd96957bc9bbbbbb7779b7c9c78cbbbbb98b6a7b65c9cb956
col35:   6768865746678689b88b87bbbb886b9abb6b799998b68b6cc698bccab9879bbbd8b9799b877b78b8
col36:   b5b6666687877756b7978b9767b77bd8b996b899b8bbbb9b979cbbe7b487cb796879bd7b8bbb7895
col37:   88777b56b57b495b957b95888669bb9ba9989b87bc87b9bbb6bbe798bcbb9bbc9cbb89ab89688bbb
col38:   55b66bc88747857b7568bd86a966b899b9bb68bcbb7b8dbdb9bbbb7ab6bbb9698ab67dc6b99bb7bb
col39:   7b86848758737699b6887bb8bb979b8b69b98bcbbbc9c5c97cbbbbcbb99ba7b9ce98c96bb96877db
col40:   8d8b5bb66865467b79b9b8bbb8bb797b8d7bbbbb67bc97bb8bfbc9b9b8e8d98cc8bb8bbd899b98b6
col41:   566bbb77b77b767b87b97bb7b78b8bb66c8bbb8b99878bbbcbba8bbdbb88b7b9bbb9bdbc8b79b9cb
col42:   b5bbdbb77d78b8bb6b8b78b8bbbb7b5bbbbbbb8bdccbb9bbb76b7bbdbc79599bbb89b8bb8ccbb8bb
col43:   bdf96b3bbd89bb6b7bb7b56bb58c8bb86b9b8bbbad96bcbb8ebbbfbbca9bbbcb9c998b88b98bd8db
col44:   675555986bb667b6886b55bb88b888c97578bbb87b96bb9c9dc6b68ce7b889fbd9bb9b7b6bbcbbb8
col45:   5755b768458bb57b79b7788cb78bbb797a88b79b889b7cbb99bb9cb9cac7a9b9599cd9bbbc87bbb8
col46:   7bb8597267b7557b67b7bb7bb7c5779bb89bd976c99bd9bccbbbcb88dc898c9cd9b9dbc8bc8b8b97
col47:   68bb699367b86bbbc9875959988b9c886988989bcab8bbc9b8989cbbbbb99a9b9bc9b8b6bb88c397
col48:   bb7568bb675c9b3b856b587bb4798bbb6696b9877d78bb9b9bbbbbcd9776bbb68b7bbbbbb9b88bbb
col49:   8b775679559997b486b778b7bc97bb9b8b7b87b8bbcbbbbbbb7db9bbb8bb6e9b6d8c66c8799bbb97
col50:   35572d8b96b98b9b7757727c6bbb78b9bb97b97b8b9cbc889b77bb9db9b6b9db76bbb6bc69bb7b77
col51:   775d9bf755d457b76bbcb77b79b87997bb9bb55dbbcb7bb9bb59bbb8997bb7bb65956b8dc7bb76bb
ROC:	 BPix_BmI_SEC6_LYR1_LDR5H_MOD3_ROC9
col00:   6156877898b7b557774966bcbb3b598b7798bb89b897cb97b7b9b8457cb87b68b7c99688c6639315
col01:   8376b86a374778b378987b8b99a5bba89a988888baab7aa9bddbebb79998c5b6ecc8c979ac688878
col02:   625515497a3486b675d55c79ab97777bb68886ab9c92b9abbd9ba789cb96d86576ba4939987675a6
col03:   4515a5a5b189559aa7594cb7aa9438bb69ed78999da8a8b778a8bcb69778b8be7be89d9655466b7b
col04:   2536b965765c7818697685ae8b78a7abbcdab9d88aa69b8c9d7beabbdb77eb6a9ecb79765a7985b5
col05:   8844549278969678189a6b8b88acab67a8bb8e99cb8dedcbb599cb99a75599bd7cade99bb9ba6b69
col06:   615667a6666665785876b6a3b5789b856699bd99b8987594a7d9cd597c66687ba96bb6f886526869
col07:   a588a67478567464994998a8b889689bd7a989cdcb9c969bececaab9b98caca765599be5ad7b7949
col08:   837654968687153779b98bbae7da7a87ab5cbc7ca976cbb8bbf8aab9b9ac89b7778988897a5ccb59
col09:   7686337676a6545976974897ec95c75c9987865ca8aaabcaccf8c7abcc8b8bbd8aaa8358e7658546
col10:   35797876a55979996e4a69837c7b6789fb6c8998ba8bcd8c9abe8d7ba9cbb98a7dcd789a99756b38
col11:   9656172989b9c7858d979cd7ae68adc89d99ccc9bacb8a69a8c9b56ccd9699b589bb47aa99b76695
col12:   a566b57495668b6a7aa755d87dab68979c8be9baaa8bb655c9c889798aca448bac388b8c8995497b
col13:   7342a57276956897c9b885b7cb6bbe7bbeca8bb8ba7cabeb8cbbbcab96b97a87b877a7b86979786b
col14:   a464b667964a5978b7984b5afb6b99865b9a87a4c9de9ea8aaa8794cbf997a69b77856844a8aa7c6
col15:   4887675b78886c6578d9b87b8cbb8cb67dac8ddc8b98aaf69ad78779aa49769a8479b867688556a7
col16:   96589a45a78a358869e9778898688abcdba9bd7cccd6758a7cbbb9ab78a676c97bc9778496ba7818
col17:   2885924c5347999aaa39bb56969cddb8b7b8ca977adaff689a8ab9ce47959a3687fa497b8cc85567
col18:   3538563554ab7754698867b868cc88abcb999acba6abc8bcb9ab989998986b4b856776a4a7964a94
col19:   2765584aaac897567698a5781bba78adb7a9b99b88c8dbbd6d7d9bbb9b98a78c7ac8555aa59a7856
col20:   5557677876787c6698996874779a9ddc8abdbf8e87c989d9aab89874c5579b6b98a6547795366636
col21:   589936647a8a77797b88c78b9acb77977c6a8b994abbabc98cba77a8898bc659a89baba5936684e3
col22:   15577a8778969698bb698a9659b7ac884a976ad9b79eebcc88e5dd8878bcb8bd9946d476a4976888
col23:   688a879a4a7a547a6eb8c6a7ae988c7f59b99baad8b7b8f9cef7eb6ba9a97948999888bb79bcc965
col24:   749756473b58a699a8ae756549888999896dc59cfc789b9abcba9c9ab77c9ca9a7ab8889983a8683
col25:   876a5b6987569d9db8b7a996ba9c6798bacabcade9b89dcad8aad9ec6a79d9996b9adb9bc87665ab
col26:   76a67a7d4ab8888cc86c64a98ab8c9bbb5abc9ab99bb699989e8dabb85edaa98ba7e8b887a988979
col27:   585756aa8b7acb8aae8bba9caa59aaa69ec86c76acadbaacceb79dab9d99c88698bd8cab98897a97
col28:   5ac79a88b85c78baeed8ac4d9ba7baabbdbac9fa8d7a9d98b96aecde9baaaddab79eac9838baa955
col29:   58cb8aa9d6fee78c8995be8c67cdcfe84ce97ccbbc9ed99baaacb8bbe9aadb8b8bdddbf76a5fb396
col30:   88d98b8879c9bbb4c8a78868adef7b99a799bca7b8b8b8ad9a99b8fa98a597bcbbdbb89a9448a883
col31:   bc7b6abeabb78bc9c5cdbdd5c9eadbbac8eab89bda8dbbdccbfbcbbbd6dc9c6ad7a8a8d76aa9ecb9
col32:   68ba3a7acbaa8bcb7f97794c9bccacfad96b5c6c8ac9be88db89cc79b4a99c8785c9bb7c9a95caab
col33:   b673aaa7aa7988b4a99cac5cb88ecdfa8cdaa78cbfbcc9caccbe96be9cbaeabdccd7a8ab8c7d8a7a
col34:   799735567779ae8cbe775acbd9bbe97cbbe89b9be77dc9b9c67ccaeb9ab79bacf998baab9ddbd997
col35:   69978995a8eaa9d99b99b89d9daddaad7aac8aae87cd8d89dbfba8bbacafb8c7999cabd5ecdb89c1
col36:   b7ccaacb889b7a7969d88acd9e9eb7abc9bb8bf9cf9e6bb98aefbf9bc98c89999abd4988dbf69e58
col37:   889abb97dbbb9a9abbabeeda78699aabbbabba8cbc9a9cf8baccbdf7acba7c79bbd89ace9ebcc889
col38:   b96675a669a699cbabaebad8a8ccabbb8fc9b5daec8bbebf9dc9da9ccc9bdaabb6bda9bbdaf7c8a9
col39:   9ab837d8c9c997a97d7b7c989abe9cbb99ae4acacddfeffaafdedcedc7999a9a877b9e8bc9c895a9
col40:   a7588ad9a5caeadaab9dd78e9ca7bb9ab99db5dbac6d86bafdfbbed9aaefdabca8bcda9dbaa7e9b7
col41:   c8779bae8f7c9acdccfccd8c77dda9bf57dd97cbc8fafadabbc8ebca9abbbeffc8addbbcdcbb77d4
col42:   58bceababdcb9bcc97cab98e8bbddcbd78b8e9adbd88dbb7bdeafdbfc69dab98db7abd58cdb9e676
col43:   babd8a7abbba7abad9bacebf9c9fcdbedadffbcbafef7bcac97f9adbdcbbbebee9c77ebcccd979b7
col44:   ab99bdadadbefacc9bbb987dd7797cbda8e8dcdddceaa6eba5bbfba9c7b889bc9dc9c9cb8bbb7caa
col45:   b9c7cdab7abadc9eacac8c9c8c9979bafbb9bfede6ccade8dacb9adefcf785cee9c89a9ac99baaa9
col46:   ab7a6a9faacb8b5ab9bcbe8ebca98bdcbfcae8fb8cabdafecb9ddbaf9a7cbcbbccdd9acaaceb97a8
col47:   7be8bccd6ccac7bbbbecaacdc99aabf9fa8c9cc9cedeea97ccc99bace9ddac8abea9ab99caadffbf
col48:   46699dac78c886c9bbcbcebfbfee87b9cea96d9ad7fcadbabbcfaadc9b9c9abadad4e94cbdda6995
col49:   9996bbd9d8acbbac9eecfdabccabdaa8dfaefef8898eab8b9bebededfa98c9a77979c5899bf9c6c8
col50:   97852e98bd59b9e8c6bebbcbfaae79bcb8ddefaecbbcfcbdcedfbbdfeabbbc795ceadecb7d9c5fe9
col51:   67bb69bb9cdefb7bbbb7ab669979b99b98bb7cbcabbaacc9dbbfccbbb8bb7cbea88676ddbbb78b89
ROC:	 BPix_BmI_SEC6_LYR1_LDR5H_MOD3_ROC10
col00:   458163581773676b448b8b77bb8554b85b8788b4bf78bb79755858bbb95e96b776565bc77b8b57b5
col01:   9837956a7334636b5526679b895c78c9bc669bbb6b868b9bbcb76a4b998868b48bcb89adb6967857
col02:   6543947676398989584289b664885875a77b8dbb69a8b8c9edbbbbb9bab789987b76b6b786b65db8
col03:   251786677546257a663c8895779b98abc88b9babbfb8b78869b8989bb8b7bc99dbbfb95573885bb7
col04:   24638854978966835576a678a8d8867632b98484cbcb9dabb7b98eb59b5b8e8cdbd9b82855a69899
col05:   7349896527886595a8885559cbf699b8797b96cbbb97768b9abb85997bb889b5d7a9c6b56896ce88
col06:   663746546879868377979b88b9b949c6bc6ba8ab7bcc867b9bdaccc9d889b9c7bcb9b7b45b5d7bb7
col07:   236666b977574a8b7a76896a9b5aa77b8676b6aa88bbb769b777bbb9bb7a9bfbb7e9bb6886ba5973
col08:   352434866a6749b66336756888eb58d889ca9c5bd9ac7bc889b979b9bb9a9c6ca86a9ba976897691
col09:   65596677682849a89ba34986ad5b78bc9b976b79ccb9cd8978b9baf9c9bdb98a78ab5786b7b78584
col10:   696778647588677769557a49bd71ea79b8b7c94898db86999c8eb89cf7897989bbbbb8c78c56b68b
col11:   526b8487561856b846a8799377997da4bbd7867b7b8d78bacbbc9bb88a79b89d997ababd8a79ba88
col12:   57157866662689499b7988858785d8baa8a7bb4b98b7bbbca8f67c8f7c8788bdb64587a69b688bb7
col13:   b69738b867a876477899aa8b958679b8478bb64a9acb89dbc98ce7b98f8abcb68b8bb8b396bbb699
col14:   958677996384384668777487776abb88788ca7b8b68bd9888978dbbabd6cb7ea999b9b8c9978bbb9
col15:   27936777247b968464b857ab76c6abaa989ea879bb6688dcccb878bceb8dbc88849a6c77aa64bb74
col16:   29745558657a747386a7b98975768ad88c8765468ccbbbcc9b9cb99a8cbccbba8b98679bbb9bb777
col17:   5755866664687b687579a9c7997b88996bbdabccadbab96bcd79c9bbbecdaececd8bbcddb5ab997b
col18:   14345445448735587b7b779a6958978668b6c7b77bf9b98ccabcddc6888eeb8b98bdbb8b797aba86
col19:   546454a77936695755b9bca63ba646879aa9675ac89a9cd5ccc7a96bbccdf7ad77e7cb6a978bc8c6
col20:   5755645745575829995759bb688c7646695b7bf8cb79bbdd7a9b97778b873b777db9b5688876bb8b
col21:   78863794975a78da47685659a59969b988b5daaa8987a6ac57c5ebbcd8d8bbbc9a7cb9b9b8eb9bb7
col22:   534519624853676748775865d7a8975a9bc897cbbbacd877acbb58acac87799ca8648add68b998c9
col23:   665596a8667663677aa86b8a5bc8cc786a88779e6b58ee779b7db9bd8699baaaa9a9b8c37bbbbc7b
col24:   6367349757636975b83787837895776abd9b867756ab99b6b8a7dccadcabe9e788c9cc57b7978e7c
col25:   655783a767748c866979a6b5749898787db7d799a7889bcaadbae7ce879ba9bbbbdae9fdc998999c
col26:   755664775b7424398994b898bb9ab9b6599adae99e98b6877b3bcc9887a9cba989bba95d97b9ba99
col27:   8676878895538d9a4878a9bc98dccc8babcb9b9bbbadbceec7f7fde96bfdbaedca9e99bd869769c9
col28:   863996837a68bc74a435db696886bdbcb797c9799adcdbf78a869ab9eabdd8b5abb86aae789f88b7
col29:   b777c3a76759a173d7989c74b665b989b99deb7c8896d89c95a8cbbcc9bbea7bbbebe8cbc8fba7ab
col30:   5b8b79869a84956c7369cca996eec9b9c9b99cbcad978bb7789a87c7a6cbccddecabb69daacd8b79
col31:   74684797567855574bb7757beb9b4adccbdde8c9a7eaabca9c9bdb9acbcebcc87b9ce69baba98bbc
col32:   7b896744a9886796758878c799ab7ccba599d88a99bcb87ad7bb9649abbbb7b86ca9d988c9acc78b
col33:   87688673a7774578869bca88ffbdbcb6abbb8c976acbcdbcddbdac8eea8e6ddccb88bbaa9fbcdbb9
col34:   69a78a4738779686677a89a6badbec38e89a9cfddb8a9b6dabdcfaa9cb8d88bbaac7ca99978c59c9
col35:   bc9bbab97bb489c78768a4f98879bcdd7adea8ce9cab89bbcbcdc9dbb88ac7dddcfdbeecec88a8a9
col36:   4a9497ad66a885c79a5d57baba9bb8977accc9abdb8ccbca7998a8b8b967a85c9aa6fe5addbba585
col37:   943547a9a3b6babe99aaba9c995a8a8aa9eb9acb4ec9d979b9fccdcf9dab77ddbcd7dbbbdaa9a9ab
col38:   656758858389bac7689d36d875ac8a5bacccb8bba98a9b6f89daaceab68dda9b9b7bc9cb8b9cb988
col39:   887956bfaa88ba99b87c9a8b97597bc9bc898cecbbefdbccade8d8db89bc9cb6b8adbcb8ebecb6de
col40:   a5766876d4b7abb7a5852bf8984a9babab8cdbacf8d5beedbab8c8cdfbacbbcc67a9bd9ab9bdb9b5
col41:   5888666774599555b77b87d8cdbacb9bcdcbaeeeae9aaaaaea6c89f8fbadcbecdacdbeccc9a6cbc8
col42:   99a89a847776b8979988abb9a9a7b9ceccd79b8cbeeab7dabbcaebb9e7be8a89c8cdb8bc9a9ac7c9
col43:   86a6697526789897acb9dbaa8c9cd999a88a998a8decddcbbbdbbcacbcf9eebcecaec967badaba8a
col44:   766589358979b7738b98998c679d97799a99bfa5fbd9abeabc8ea98bacabaabbd88799ad997cbcaa
col45:   44678b7a4785668ab699cbca8aaca6aa9ad9ebc8bab6aebeedcdcdaf9a9dcb9aaa7cca9db976aecc
col46:   b958bc7b858888736b7b968e98796ddcbedabacacecb9dbdefabaa8cdc99e98bcdba8ccecbecdcac
col47:   6747b7948868897a75979acc6aa89d9d2cae9cfdf9cceacceabab9a9c8bba99cea8eb9cad9baaaa9
col48:   5567689873879697887ca98bb89a99a8d97ccab9b98e7bafcbbbc7e9bdbc97db87a6abdbb889cade
col49:   78674876374a466787cb789bb68bc8c9abc6e996bc68cc9b7b8b8ecd7ca98cbdb77aea8a9fb9bbac
col50:   5868749b78aa99597287cb78a787a79b99998ba6da89c9c9caaac97bb788b99abc8dccbdcb7cbb99
col51:   b798545bbc79b17b9277576b9be98b7bd7c8a89ddbbe58dccf9cc99bd9b9c8af9b8babfd9cbbbd8b
ROC:	 BPix_BmI_SEC6_LYR1_LDR5H_MOD3_ROC11
col00:   1511329131645436433944466696986984375497726b2ab58599ba165639778d66bb85c45784b492
col01:   349738a434673493457516a967cca9a885896d89785495bdadb77965b577ba9789d8b8798f8c67d5
col02:   785166e44939657771492453879bbb5968b5879969663e898576c967a97ba6559a6ca98987486996
col03:   7238776513946666391927c76678861acb28bbb7b86576a68c4786887e95aa665899a695275857a8
col04:   669a598456854a572578377948685b598576676a3927796a52a97a683786aba496c8aa78374577a8
col05:   2c699586436b4643758697594a9a9787586a6979a539a768d82b975b9b4b63598946abb6885b5872
col06:   36381369845574514594868ba6746a9887b7763587d66877c98d58a9d6a96a66a775758779a79344
col07:   658549b7682884311825596a199a7986778c894a47a665997982916aa6ba92946941a9a9b8b85b45
col08:   5448657684815135767357c8adcbab8a4777563569b88969697d9899e79c8676da7bc47646674566
col09:   279767651645947834968a62a9b998ca75c5a78a898865b687a5a66756a9daa9d699c6996979aaca
col10:   1345a5963842198b67a9488b7986ac996897c6854783958ca9e89a87a3967886984dc4588b877767
col11:   371489167364988a8874a695a648cda7779359cdaa7766b8b9867a869aa777994bb9679ca94787d6
col12:   799675851265c6892896955568966a78756777ec694a49886b47b36ccaba96a46a84696b7a958847
col13:   688864885415158355687876ba918c467acbf9ab786d672b66add8aeecc8c4b67ad58b7586597ca9
col14:   273425462163484189739824b64c58795c97aba9b998a8497874b9887ad7b5984a7d676589879b54
col15:   56558681161766565779a3658b87b658a96ba68ba565946a87697eb569abd767b8ac7c2cba6c9718
col16:   3686768763b79748679a3468a678b4c5b9b7aa5aa46b6a898a99c8998bb6ccdad66a887a8b668a77
col17:   35356428167536a733487a789d89a885a75999e6a7bc78cab6789e99a699a497acfaaa86abdc98b8
col18:   445251776821a9c48926b5ac6867a79c75667486cc9acb68d9a668bb9c96687759aa4566a88a699b
col19:   68657337989c2a9677a97981a9499c6387b945a777b8a8bc884856bbb8b59d95789e779a5aa68cb8
col20:   974438797743748868ab5a7a168878dbb8795b89e965a5539aceca899b9eaa964b7b689a96b7a6a5
col21:   435858652868b837977c67b99e7aa7b679a67bc69d3bc9989cae6dba969c7a8ba7657ca773dc97b8
col22:   775775198264b7857448786c81d97c7a4476b8898c7937ca7c773899c5ce896996da819d85857a79
col23:   46b77571a615a787188aac56bc3a78c7359b9bd77987c74d9fb96cbc977d6b898992898a36986b92
col24:   71359852a578958477892455379858b6979c7e9b8997783a3c9a6aa7a8c988ec9885c5f971cb8da8
col25:   85885878957666a4977997797bcc9c5c759689c82996eac9888bc8ddb484b88aa99bd78ab8576a95
col26:   459a7b6a28998cb6798559559a947aa47ea9ac8bc9c98a9bcbe95a8ba7e9a887599a66569d9dc7c9
col27:   25a788ac7678556a68858b8af8b96a49877c8ba887a5b85adb7db79b4d67b8d4bd6799977b89b7a7
col28:   1b7a4d797d87b876778a9aee9a7b97d68aaad89795bb98a85b8b99fbb77cadbf99e68a9a98dda749
col29:   42c889c599b9a775889479879a6c98a7d4e8b8ca88e7a6bce6cc8baaab8b8e8ad8bcd9a89cadb8c7
col30:   33c686784b38a7b754889898b7ab798897aabd8face99676a7bab7aebc9da7c9b99bcba9fbd5c897
col31:   664a5983577a74bb963c7a9abbda689bbacb6aa88aa9baeac39aa99cc8bcabfaacbc9bed79a9be5a
col32:   56766768996ca77957857a6bd9a9699acabba9b7c8d786c98dd9eaaaccb689d9ac9c997ab9aa796c
col33:   56529586b9b79c79aa7caba99a79d5b9efaab97989a6a9c6a98dacf9b9798d5a8dad69eb7bac6bb5
col34:   7736a766995879a78bca97de99f99abc9daf9c7db79bbdba8a798a6d7f9babbca79ddacaabbfaba9
col35:   a677756aa365a778b68bab856ab66c9c927d699bbbdce89ca9bac898a6aabccb685bb9999eeaca97
col36:   81685a64878b86ac567e769a6c8bd7b886bbecea88bc9aab9c7ad9d6ab89b6ad78669ca88989997a
col37:   6974a4bd98ac87f987aee886b89896daab89ab7bbeac9acaaeddbdcea7bca978aab8ba98dac9cfa2
col38:   862186761b6d59719cfb96c879aaaba99bcbb799dfdbc8a99e69abdb977dba8677aaf87b988ca9aa
col39:   d6a7b5ab8ba369aa576aba397657779ba8dbe6dc9cd5c9aab9dde6789bea897c787c897bc9cc989c
col40:   576b577847a698c78bbb75b75c7a998b9ab9ae9ccc9acbbdb7b9b9bdee9bd9bcf5a3d9ea99fd8a8c
col41:   885b778688ac766887a8c97b6ab864cbb9999eae6ea6afcacdcdacbc79d8cbbc99b7c8ba9aa8abc9
col42:   64a56a557837699a9998777abd75feabdfc89dcdbacc89bcfebdeccc8e8dc9d689aba9c8ccadceba
col43:   684b459969c9b5a798655bb897a99c97aa9a9bb79a8bcbe9acfbced8aadaa9c8a9ec797ccedd9deb
col44:   977b94473c89556b75a9989b9b97c6c98ba6ba9ebed4ab8bbd9ac9c8b7dddadbabd8ddadd8e8bf77
col45:   535576b7836856694937cd8984d7baa8bc963a8bbbffeaffbfdbbbdfca8bb98c8da8b66dbaccc8a9
col46:   8446753a7956776a4c6a99bc968b9ecb8ca4b7bcaebe99bb8f8fbeade7c4bddb9eed87eb8dcb968e
col47:   5456717a94c68766dc8ba865db498c7989daba7cb9accc988ceba79b896cb9ca6ae98d99777876d6
col48:   77535677877b57c4878959c969adaacb7b6cb6aab857adfaceeadbbc8987bccbb9a9e5cc774889c9
col49:   58887941a95687599749a75876bd898b3cbb9acc8d88a99797bc8df8ccf9b98ad9a9d8cbb9aabab9
col50:   75868a98555768526b9aa9c7c8bd48e99b699bacab6a58ee55aa8edc9cc99b8d5a98a9b8babc8beb
col51:   5377375b816166989498658b3ce4768979b6b5b868957a688a99b96adc29ca9984f4bccad87b9657
