ROC:	 BPix_BpO_SEC5_LYR3_LDR13F_MOD3_ROC0
col00:   6634756772952732569774843a775839388789564799873469556447617565c865c5655652587456
col01:   6456aa869a7567a8865755367999467588a75667376774b8a48897788794974878aa58a766796584
col02:   88736886894686668a75398a85bb97767899a86756b44967573b566474d87a937a9578b766794886
col03:   59896655bb77b94889c856b77786977488a966885a56846a79737889567739677194a9c7699b4824
col04:   656869899646a67b966839877797c45a99c7a69a787665923746868945867776956585b465367993
col05:   657a539877674b78468a9386754797ab7a7878568986d876d77754766a6175a77458564a63746877
col06:   4955a7448a5b56554ea88394458495a9686b796896b8a66766a736b7876976b57696566c9876866b
col07:   7781a54b9857725ab798984998a7677d89899797acbb5b8698a77aa8674c7558938576aa96a84775
col08:   859986824747b6a89576b866887aa77994287698754a888748c95933799866499668665b38ba8586
col09:   b58896675c867996a857876367797996cc9996a988a796aa997b87e39949b796776b74756bb68777
col10:   87366b79a7ab687584567676a5ac6557b28b9cca95746a47c786a699c79a86a969a776636a84a887
col11:   42254664878876c8958ab8897c7538a877887a776c838798b68796977bc6a7f6a7784a8764865945
col12:   3b74777476579654676b7a5a76a86d8888659c97b5baa4a999a59787486799388ca88676b966aa95
col13:   4665958559989be3695796864a9984b7a587baea9798789877648897a887a79a498768677b88c8e3
col14:   b74488a88583477ab6b686878795a76cacc8629a4acaa68aa7a98a797658a93a6476539589439434
col15:   663897a29a2a977585a77c8974649577956c8a8489cb6a989db359b89b799877547ba39788848899
col16:   9156766868887a6778499ab7963888899a7668785a5c978b746465a669bb5967bb76789895885751
col17:   a79636969667557647395b6994b9aa93a8c84bb79799bc68987785aa658888b4d35442795b767488
col18:   984578765a8388a79266a6766597767686b9978568777859898a77c64386747698588c96894a5491
col19:   a8588997867788ba9a7a858b6a57ba7796aa937459b56ba986ba89c7abbb69b8869a8896799866b5
col20:   78689488467656669aa674665a599a556a88769798769589c6bc9a76a59789769778899797866b67
col21:   85968557879a5615467aa877a3877ab69587887a9986a7aa6b79c887756a96568594ba8779596ba6
col22:   746a8a56978ba57985b35a856aa86a8878b595cb587aa6a98779657a9a799388c8a95aa847782772
col23:   563a976676565648966497bd866b8a6779996997a87bc67498bea878786ba86b59a6bb688b847752
col24:   568528694759795778996ab6567888a7a7675687354ac367559ab999a7c7947869776736866a695a
col25:   474a8826564596673c53a89ac89b95c894cba6caa4b9969c489baa877a98c9da6d8bbc9c9993a867
col26:   a4199a968b68799797dcbb48a896988997b98cb88c597c8b999bba89db9c87ba97778c8995959b79
col27:   58685ac96783c8ba979697c88af86ca79cf87dcc89c99a89a987bc9be8ab86aba9aa8aa76aabc796
col28:   a7856bb7a9b7996b7563b9bb6868b89aa9a767bcab999c99b7687c7da7b9bab6c5aa987ca3a79ed5
col29:   887788a7898ada888acaa99a57ab78a98accbbdabb8a4a76aca98bbbb9bbaaaa8db6aa77a876a885
col30:   556cc7a597887a9a6a59aabd86a8db7bc78699bb9bbaa7ba99a868cd77a9d8ac9866885b7a858bb3
col31:   bb799ba7bfc8eb96b8d8b8a8bcc8aa998cc5a9ec9eaabba7dbabecccfacd8acc9acdba87bcda8aa9
col32:   ca8aa68697898a5bab8b8d85b9cccccdbac9b8dbb8abaabcc8d9b7eabbbcfcced97c7ec89cdb49b9
col33:   c99d86ab9b858a77cbaa88ebac74779a787cc8c7bbab4daabbc7d9a697d5ac89985caaaac886aab5
col34:   88adb868896876da9aa9a5cbad899a9aba8abc9d9cbbbac8caa887bacb9babac9e6b7a97d98bcca3
col35:   f677994aa9ab9bacc8c6c89a85a88abd7bcabbb8d9bfbadb9acad6eaba97bc89c9b9daae99caa6a6
col36:   87b7bb6ca9978a6788aab89ab9b99aaaedaabae9da7bdaa98e7daaba9a59b9baaad956b7a7aba99c
col37:   8999bbab699998d996b8faaa99bcb6b9e85bdadbb9dac99dba9dab8baaab6bc9b7bc7acc8abbb8c9
col38:   a8bac867c6989cc599588f79b9b8fc9dc8b7aeb9fcccacaba9dda99c9bcbbbb9a9dfbd69dd76dc8b
col39:   a9684b888697caca788ad788fbaabccdaac98898eaabd9cda7fe8aabc97dcbb87b8dcaacdcbcb997
col40:   b8999ba9c6cba9c8a899c4cda8cabaa8b9bbecc89ba9ccdbcd9adabfdb8d9b8ea9ab7588dfacadac
col41:   9a7aa69b7a79c8b7dac8a95baabea99a8cfcc8c6ec9cbadfabebdc8b9bbb7eb6b7abceb8bc9b9eab
col42:   bbaad7ac9b9ac74bb9cbc9caabacc6b9daac9bb99abccd9baa9b9aba7bbc9cc9cacc7aedbcb6b9a8
col43:   f9a99999ca8a79abdbc9babdcbbbb9ebbcbecdfdd9e9c9bfc8ebd8cbccccdadbacbcdad8dc88eabc
col44:   89988a8887b99adcabb98beba7d9abcbba87bdbcba9aacc99bdbabdac9bbbbabd9dfa99db7e8bb8b
col45:   7ab99c6a98dd9c77caa69a78fbda9acaaaabe9ccbabacd9a7bcbdaaaab9ba8bbd9bbd6db9daa879b
col46:   7ac878b986cbb8bab7e89aa9fbbf7cc95e9b9ca9a6acbacddfc89a8b8bad98baacdd7ba7a99cdeb9
col47:   a8976b98aeb88879c7c9a8faba9bebddec798bbcbbaabdbd9a9ed6c9c99adabdd89fbd8bca9bdda9
col48:   6db6996e66b9b7ea9cdacb98ebeb7dbdc9edca8ad9fcacac98c8e8ccebabd9889ac9a9c6bacbdb97
col49:   caab47bd9b9b99baabf8dcfbdbdbbcdba8bcbda8c9dddbb9aecabca89e9ccacbccb9b88a7cdbac9c
col50:   968abdd9dbe89ad8d8bbcbbbbd9dbabcc99cca8a8e9ba9b8bbabacc9b9bcbeeb9cbdcd8e8b859ec8
col51:   457788a67a999887a79968a997789867a98ba77a7a979bc6c9aba9a778b9879979cca9b965c99a68
ROC:	 BPix_BpO_SEC5_LYR3_LDR13F_MOD3_ROC1
col00:   34a24478865886678a65795894886cb7b8467668a4766893598a867786646b8875585766955864c7
col01:   621566498568aa5599ac597a7bab9a6baa49857788a796b8ebb5898a799bab79db9729a6dba37998
col02:   86854446a78bb7879a988599baabc76c6778a7b978898aa5ab86b779978949468787e6c889788857
col03:   556748678a95a75858599dbab89cc7897bd6a89ac59877a75875bab8b888768a866cf834bda64996
col04:   987a8985986bb5a78966be67766ab63877ba9aad896ddcb9b98a78d9b94d7a3978a949b88886b77d
col05:   695987a65a878bb7969b87a6887a3aac697ab9795a96898a9b7746456467864848767798947a848a
col06:   9377a76a4798b9765aba867a8bb94578bbb9b8979c9c6bcb96899688a7a999bcb689797997786887
col07:   6b7554598677c769975b64986dada9989788b777889c977a78aa98ab9a46a858c9985e7999a77a87
col08:   4899a7649b886aab9aafaa969a968a9868a4d357caaa6b998a999b9798d99b69a8887d6a56998aa7
col09:   a65aa45c599868aad797985a9975a95ba3a8a698899cb8bab968949ab8a585ca49a77998b8887978
col10:   a448669669999baa798aa3b57dc9cbb8979997788979a68988b8598558c7c665ab6a9b57bab96977
col11:   a57398a799845589da8bb799687abbbda888da994997aba75568cc96ca995b6a66588bb6778477a6
col12:   3689993586b677997a55a5a77986b7a56679bb69b9b9c5a68c75a859a7ba999d9698889b5945887a
col13:   94657978a58a78b6959b8bace8877b6499b8b9baa9ab8acfa7da7b6d79b989b77d78aaa657c8a955
col14:   7a68aaaaa8939699a777ac77b6cf8aa87f88b89a9c8b86a89bbb9898788a5bb8a97aba765a987789
col15:   375697688ba85796688897ab99899cc9e8b799b955bc9b86e9cb99897b498887977ac6aa9698a985
col16:   55369aa8937a678578c679ba58588b66a925988d9668787ca99a7897adcab6999cb82a988b666966
col17:   a8521a8478a8a498486a96b989673b9a4699bbc5b7baca7a975bc9b996abac976597893788a978a9
col18:   a467587a857b8859897897b78ca886a8976aa8f8778758a9a4a985667c98ae9699a985a6a5768969
col19:   66646a7a9ac59a79bd6978c7cab48bb8978ca8967b678698b6c9acbc98b9a88bb59c89a88b667c77
col20:   967586968a8994cc8a37b58bbd77a5c8ac8997caa5878d7b7a977cdaa5baaa7768a7a86a564b3969
col21:   864a75c859987c5799b7a97abee88858ad7a7998b8b89c48a95889e879a9be98539958c7b7a999c5
col22:   556596969746bb7876aba79b9bc9b55975b677a6c8ca79a8bbdaa786e89aa789977c48a997a68a79
col23:   6956a778a8998ac477b77855baa6889a88979bd9b8b7688859adbb8997968b987899ba6be8579686
col24:   7997347d97b8798aa4abc4c7a8886abb989babb9ac688ebbb8779a87aa769997b7db88a8aa98fb67
col25:   ac69587a8aa694a8d995a79a9988899888a887aab7997a9ea9b989c79fcab7c79b79aa7898768955
col26:   b778bcb8ba9db897bdb8cbbbd98cccd87aba8d9ab779b9af6bdc79caaca9699bdc8fd9a9db87b79e
col27:   788a6a6a79998869b9ac9cdac6cabdda8bca8689b99cf8cbc9caba888a89acdbb89b9d7c89b9a7d7
col28:   7a8e7ba7979cc7d9dabc9bbac88bd8b7ab8acac79faf7cbbadfacdbbcbc8bcdbbbc89cb6aba88cb9
col29:   7a5879a9a89b5ab6a67bdcb9e7acbdfbcb7fad9cccaac79cabc9cd8dd8bac8b9977986c9ac9c7689
col30:   88a79a96bb9977b9acbca87ac9a8bbbda99decdba88dba9cab9aad9caeda99bbc6cacab78ac8c699
col31:   8a8b8a89a8a8abbcac898eeea79cbaaca8d9caacaa99b97c8c7cdcabbabcaccba97ceabaace977c9
col32:   9988ba9bd8bad9eb9abcc9bcbbbab9ebbdabbdecaa9cda999bb9d9daabc7a8c7c7d9bcbab8cae9ce
col33:   978767988988b8aba8dbcc9ab8c4c997ba7bf9ce9dbbb7eacc8dc8ee78bc7dafa9daa98bba95dfa9
col34:   865bab95ccbab9b67b89babc9decdaabab8bda7abdaae8cffceb8dccc8a9ee9ace8dbbbddbadda78
col35:   1c9895cf9ab9ac99e7bbc8d7aadbac8aecad8b978ba78a9aea87a7dbcc5f7ed8d9a8bc9ab5c95a99
col36:   a9889988ab999a89b89e8dd8bafbc8fa99e9bb9abbe8eeb94bbcc79bcaa9db9aadebfd7bcb8bda9b
col37:   7d7cabbacbbbcdcaddc9abadb7896deebcdc9cc9bccddc9b8acce79e98badadc8bba8a9aca8bb9ac
col38:   acba7f6bbb968ccabdebbcea9ba9aeeccce9cedaa7cabcdbd9ab9bcecdabdaea9c6eccbacceffcfb
col39:   a5a9a6da68cd78c6dafccb8aabcbab5adcba8cbc9cacaeccaaad9bc98ae9c8b7fdcac8daccaeae9a
col40:   978aac9ba7e9a9abb7bb9d77bdaaadeddadecdbbfceeeabdbefdabd996cfb9bdcaabebdebdc9bd87
col41:   bb9aaaa9ae8cafad9cb6c8bdab9eabedccebeca9edcceabdbb5dbbda69bccce9cdd8afbabac869ba
col42:   88b8cdd9eb89dbaac9dcc8e9bccbfbadd9dda8aaaedafac9bdccba7fddbaddeaae9ceaaddcec6b7a
col43:   d7b9996ab7fddcdac9cbcbd8ecc9cacbcabdccdfdf9d9aabcdae8ecaeaffabd9bebcfcaacdbecc99
col44:   b6badaba8979b8c7bc99ddbfaacdc7acaf8cdfaecb7ffdfecefbcabca7bcbccbc8abbb8abccccdbe
col45:   aba7a9898babbabb9dcabda7acbcdaa8ca7abccaecadaccda9f9bccb697bdd8bbbddddaab9b9dabb
col46:   7acab8b7b89c6cbc9dce9ccaafcc9cb68dcaeecaca99cbc98d9afcbcbc8ae9cbbddbeda8cedec9cb
col47:   ad8a8bacebbbacbdd99adbadacef9abbbccccbbbabcbd8b7dfbfdcbbebf98bfb8d7deabbabbbfdcd
col48:   989999aacad6d9baf9daba9edf8c7abebabdfafbecbbaddacae7aeacdbf9daa9bd8aca9cecb98bde
col49:   a9acead8ab99b9cc799bc9cac99dcafbccdcecceceb8edeacbaad9ecaaebbdcbedfdac9cb9fcaacd
col50:   c89a799cb8bbaabdaddaaeaeadb9bbcaafc9cb8a9deb9cfeaab6ea9acbebecedcecbd9ddabeccca9
col51:   797647776bc88789bab8baadbfaca6acdff6a9cba69bb8ac9eed97477bb898acf79a9a99989bccc9
ROC:	 BPix_BpO_SEC5_LYR3_LDR13F_MOD3_ROC2
col00:   25324315542333646633386665462775836544863336287962874314554793565815678821342277
col01:   841a7c75412bab798755659a756553766b9827846598578886763b885454878b268b854976652783
col02:   81665697b626769dc99476883a7667987b4984764775776726b49557767764769867b478585875d7
col03:   a9439965a657876997563679763964867394c66a69a47467818776556374867743696767676374b3
col04:   689353494a14726586486558767689776788994a9694768719343597a4765774d937377355866595
col05:   47699647647974469763745459883967769965565487598544598865467295777876675597699296
col06:   6448594a8a6446646748b799987a87768575a7776557787994868686358559547953649866a45595
col07:   74656773b7766767677b7765586645589c7864777567a62875762a6477a86565968675865778bc63
col08:   6616969779559688179468aa57a784629a7896954395a788877735622475598456577987a7876a95
col09:   5767b44a7698663849778966a767967a52787884887988b4a2a3779868a67364aa74666969a99794
col10:   35aa84637697367786888877b759b477a935796398578788a87579aa46958984885317a357c95848
col11:   6793258686648555632b466853a8c8a9877899888775aa7754b9a764756893433879986374565856
col12:   766268455566528677595776585876769986a5a794986957567b95386698a76968b5897886258676
col13:   77669548788455a6796966497863b766648a8895725a789a56674b8746745896b762a456aa549656
col14:   8637875457736956b654baa778847898659a75864689b7764aa8778938883546775979868856a867
col15:   4158247473754876353898766884a798497657566398764b748474565976678a7557855787699566
col16:   956749a45596377a6a5697a75178c7687778777b7a57a4764581b649949a78759b6984488a44a694
col17:   9668638837a8a575539694787485952796a7896887a8ba65a56786aa9679b565959869674686a734
col18:   7462427335579425535769a627856689a77a28685486a87547557959779588337654774466789576
col19:   875d465734745636a66b5b899686787a88b69a86959655ba6979a44955777688597a897137457964
col20:   865655665d65ab4575637997779467755a867877158766697668a66b859755787787557768888897
col21:   48467383966684478348854646b93567b9b76678587876655373a57876aa7ba4b9877577c4654a84
col22:   536767736879777986859d998ac888888667c767438896a59a6988977b2859797867946554957b72
col23:   4a67144464666477797765b47646a8a698c69a996a86b52a45585897776887b77998385766732766
col24:   3a24654973868564658554377b8a267aa9779997c77a5aa688757493d575868586c96855b9598a57
col25:   58565886675a68c9875a6c8a98a9b9575c8887878858989937a9a886598596a35675498885969673
col26:   8656c798675488aa9a9b8ad97a8a67968aa7ba99d87978b969e5c98ab99b697b9858a88a565a9988
col27:   5835b6869687a377657669999999fa8a6cb8a8599989b88a8968b69389a85a84a88989b4786aa686
col28:   95388678ac6797b88a67aaad6bb775758a69b889a5689a758b9d9a89ab9a9c9ab7aac9c89e6af889
col29:   854786869b98969989787a8b679a8bea86e88caca99baba89a97ccc989cb96a7c9b96aa89a8a7c99
col30:   5a55caa6ad6588e789a8aac98b6ab787abaabd6db9b785667c6898768988788c97b9ac98b8b9a9a7
col31:   6a93984a7bc7b969abc87ab9a98c696db98aa6ab6a78cdda8aa99baba8eacadab99669a7b889db88
col32:   7da7787bcc897aa8ac8896d9a998d7eb87cd8adacaae8b79a9b6bbd789d68ac99bbba4b8e888caba
col33:   77664b48b8b9777b7aa8ab5ca9c7c7cba7699a578aad9c98a9ea9cb8d9baaaa7c97665a8a89b68ca
col34:   49c7a68b96989ba9ba6da8bc9cdd9ca89c88947d7a6cac6bb766a88a989acbada9b9aaa9b7cc8d86
col35:   689a88758a999d9565ca7c98b95d979b8c9adb4789c899b9c9b8aa8ba99c99aac89b7aa9cc967998
col36:   aca86536669988acc678688679be9797aceac98aa9b7488a9abba96dabab79a6cab8ad8b8eb8699b
col37:   76a69c78bac89ac8ba87c58ba88c89d9aacd9aa8d647bddab6bcbbd6b79b9bbc9d8bcc79a9c89df8
col38:   b5499b9a8a5989a7cea975c8998c8ca56bbc9ada8dab5dbcaccb89ec9a7d8aedc968dda99bdafac8
col39:   9496e87d8868678cb58888bbb84d899d8cba9dc7bac6a9aaa8a7c95ba8dd6b9acbfc5a9697b8aaa8
col40:   979a8cac97a6a98a695c8579a7b9b98ba7bea98bcaaaa9a79bc8d9c77a9bcabc9af8ac9b7a78abc8
col41:   58a9cba879b997a99aaaa8bd59cabad9c88a8bc6d8cd8cc679abdaae97997d9daae7a8cc9e6b85b8
col42:   8889c7b986d94798ba68b968cbbac6b6a98978a8a9aaab6c879abbd7ab9a9abd8ebd9978ba978eac
col43:   a89887a998b99aea99bbe799bb99b9fc6dc79abcbac99caf7aadcad9c9eeccd98ac9b6e798bac986
col44:   557878aaa59a9878c489acd9b89abc9b8bdcdbb9ab7dacab78c8b8c9c989cbbc8b9badbc98aec9a9
col45:   9a978a968996779797799aad778a799bcf8c9baba8aaa7cb9eaab9c99dbac7ec9bda9b9ab6c79aa8
col46:   8b9d97eadcbb99b96578f87ba8ca9aeba98aadca8beacc99ca8afbccba8edc9a79ba9ceeeb8abcb9
col47:   9bab7875fae9c9c97866b98b8ad99b9a9ebbcda9ab9a9a8a8b8bbbe8ed8d7e8ccabb9a889898b7b7
col48:   9759859a98c9bc8897bb8aaa497aeecb99c8bacc8b8c97b8b9cc9babf9bb97a89d9c97cb8c6ac7a9
col49:   a7598cb9887ac9aacd78a9ea8aaae98a86baccd9a7999879aa8d8cdcabb8d8a9adc8da757adc89ba
col50:   b889b9e9bbb68bbcab9cb9b9aec9bb9a9aaecb9dbbbdea98bb8bdb99a8c8f7cc869d8dc8baa8bbb6
col51:   68399b73a8a496988c59749599a8a8acc39ad7798ba8a99b87a59d95a3666b987c5a9996b68668aa
ROC:	 BPix_BpO_SEC5_LYR3_LDR13F_MOD3_ROC3
col00:   e48b8a957777587666acbc9a68a553965b5f867c995b259659895a47953ab877bc574b975a453972
col01:   b7baa69c987aab66aaa9a9778c8bb6699a8c9cadec6988ec78c78a9898ccc6959889b37679999716
col02:   f9b8a88b898cb7b4d67aa9c98dc6879a679c7ad785a898bd9b89795775b6bd98bc987b4a8d969256
col03:   9aedabb8aacbaaa985ab8aa9aa857799b39a6675cad69bdbf8bbcacaabc8ac5cb476a98948a68662
col04:   5799caa7aa96a78aeed96c899aa9c688aa88a6ada7eb86988d9887a6b89a8aa698ddb874a6697886
col05:   c968896b88a97aa4c9a99c6888b4478888d9c9a8796797c8bcd977b889b797db7aa598585777b671
col06:   a696b8bd89ab797ba6987cdc886c87a7baa7987bb977bc8b8669b845a7dc675aeaab8779b6bbb446
col07:   c99bab89999ab5d8bacba7ac9848ca9cac8b6bc6c8bba99a99ba79ebcc7a5b88b67d57a468a7a996
col08:   8bbba6b97ab68767ca778b99988adbcf99aab46a87b9696aac79ba8469a979cdbbca68698978b6c8
col09:   bda797a67a4bacbb9877aa89db77b88a6c6a6899849b697c9e977b698778b98897736bbaba796978
col10:   a586857697a658d68c897ab988b8aaa99ebc87b5bee977d895ada9cb8aa6a8a7994657c993bc4967
col11:   c7a7e78bca79d67c9ca9959298cc9989abce9a59b8b9c4899ca657989996877b6caa66979995aba3
col12:   bd98cad8b8bbbbd8b8b86c9b68e896ebb99a8abb8cab9857649bac8a9d84b598b77ac56a62b77a95
col13:   7acbacfb9a9bcac9e5bdbc6a6bdcc91bab8ab7b8eaa6d9899b7899cbd3aac8c879686927587767a4
col14:   c78fa8aeca7b69c8f889adaed865ecb95e98ca86899e8998bcdab9ba98a9df79b4db7959a76998a6
col15:   69cca9879897aad89bcbcb88bda95c78a99f7b8987a8b8c78bbbaa8a988657a68799456975995763
col16:   bbceb9aafcbd9a8ba679babda9a6bdf76bbb679b9bf79ab9897ca98a98a8b6557978ca738655d878
col17:   9976879aa8a8b8bab8b59a68aaba9c988ba9889a876bbc89b7a8cabbac698b87a4e87b8a567848aa
col18:   95b9b6dc9f99c5e699bbe96c9999fb6c97f9abc8ea5b9cb6ebad99a8b7b89a9c9a9ba86a787bc984
col19:   9b79e788ab88aac98adbb6a9cac8ebccbcb99a9b8bbab89a9b7a69a87cc7989879687abbc7c757d5
col20:   d9b588b6dbbab896779ca78f6e9aa9c8a8687b6abc9998b9b797a977aab46994697fc8b46a86b9a7
col21:   9ab6887aa8baa8c7dbcfba4ccbddaebb9c6f9d7a1e9ac9b7ca98b897aad8acb798968a9981299677
col22:   ec9eaa99aad5ec8c67769debebd7b9ea9b8aeb89eaa8cda5b788b7ca9ab7c9ac66985dc499758766
col23:   9776aa98fa869deaad89abd6ce8a9bbdabeba54e98a7d6b989b8bdb76b4bb85a7c8975767ba88844
col24:   99b5d9b98a67abcab69ac989d7c9a9cabbb8be4a9b997c6de999488678e69686a79a6899a5cab57c
col25:   b865a9ca9a6a89a99c8dbeb9dce8b9ac98a8a8b688adb7ab7a89689dccaa9b98ac8877a6a65879ac
col26:   8f77b98ca988ca7ccb98fbbcabacc9c9ecacb89a9bbb896bc89babbaecc6febbbd9ca9fbbaf8cb88
col27:   b979a7ccfcbb99bb97cb9accbf99f9e9d89cddbd8b8eae9aea77ea8be9d7ad84999c77d9b8bcaa7a
col28:   98ddf5cdba7cbebffbc9eafb7bdd9bdbcbed9cfae8b9cccaa9c6fca69a9bbf7b88bc5dda7aa8aeba
col29:   8bd9b8dddbd5abbedae8bbbb9aeac8dee6abadb9dad9c9dace998a8acbcdbb8975c4d9fcdaacd99a
col30:   a7c9c9aadcec8bcadecddafbdbfdcfccc7dfc9798b9a8b7b7e7bb9cfd98eddb4bbb9cda9ae9a6de5
col31:   dafb988cbefbadcbd8cd8bfbfce8cebfbed89ac8ccfaafaecfabe9fe9abeb6abf8c74c8dbbcdaca9
col32:   dc6fcccfaade8fdadddbbbdffdf9cbdcfacadcbecbfaadbedebfefcbd9a9bccdc8e9e5abbf7fdbca
col33:   9ec7ddccac9dbcb9ddedfded8cebedbccbccfadcbe8a79adb9dbccdb9acbac87addabdeb698d8ba7
col34:   cbb7eabbc8acbdccca79ca5f9cceffeefcadebd7b7efbdfbde9dab9fddcccb99d88da588fec9b896
col35:   8c8cc7cadad7dbaaad9adbcdccaeeae8becbc8abba7ff8db8eb9d9cecaf99eaacbbfdbcfac8ba5cd
col36:   8b6acbc7bdabfaacbac9adeedeeb8aafdced8aed9ca799ffec8cbcbacb8acb9cdbe8d4b9adcb5de4
col37:   dfbc9db9dbebefcdbe7bcdaebbb8ebfbabcbcddeefbbdc8cdfdeac9baadcccaeabdbcca9ac83ca4a
col38:   a9daeda9dab9cbdfccfcceefeed9b8affebefe8edcadbf8cdadacec8dacfcbb9baabc8afca89dea7
col39:   dadaa9cb98bbf9cbbbeccabcaabfadfacc7dbcbde8ffcadbacdcbbeda7a9bbb9996babac9bae9df9
col40:   abacacacafb9bcd7becedbbbeefdfbb8efcbdcdb8cfd9bbe8aeccda7b9cfbbabd8cbcadee597bebb
col41:   edbc9acccbcaccfebf97caefccfeeba9fabcfaddedab9e8b9ffdbdcbffccbdacce7babd6c7cfbdaa
col42:   c8eddbdcceaadf9bfbeecff9dbafddcdafcbddcee9daedbdd8befdcbbecbc9c9bfadbbbb7cef9e89
col43:   9dbbbefdcccdef8ebcedddccabdcfddeceffecb9ddbbadcdfbd9bbcbcb89d9aec9eeeee9ffdb8b78
col44:   b7dcf9dcefebbbab96ecfabbeecf8fbeeeeefbbd9bd9aca9c9cefeddbcaa9dedccabfae9c96cbc7e
col45:   c9caf9ccaaadd8ecfcbfefdfebfcfa8fd8fbffbdffeeebbabdecefbbbcabfbbb85acbbb9b7f8bedb
col46:   99ecf8dde88aeabdf9c9debcaefaeebdabdafddcffdefcbaaae5dccdcabcc9c8b8bdcacaafbd6fd9
col47:   eacbb9aadcdfceeecdefddfccdfffbfcebabfbaaed7eeacccdfcf9a9a6ffbfdaccccba59ddfbb7bb
col48:   cbdcecdd9bfacddcdbacfcdbc79aeaaefdbddbcfaddf9bfdbcefdd8b9e9ecedaf9dda8eaedce7cdc
col49:   aa9a9e8affbe9aad8dcaadceaacdcbdfa6eecc9ccbbbccfdbab9ecfebcec9abfbb8afbcdd9a98bcb
col50:   8baebdaaf9fbdddcddfdc9b8ddccbdbdf9afcecbddeafc9ccfdcbbece79bdbba8fadcaceefccaada
col51:   accda7dcac97db87b8bd89d8aa9aedbbe7bb8b8b6cebbddb988da9997aec998cc6a9689567c9968a
ROC:	 BPix_BpO_SEC5_LYR3_LDR13F_MOD3_ROC4
col00:   55651785477854c3714855a85479c8797896a6776685a98589a6997698769a778a63996877758667
col01:   896d77ab744698697a7a388a89e7856cb86cca997ab759ab88b29799ca988487d7576969b5a877a5
col02:   7a65934b97b977a863596996a768855c89b97956c7da7a8969bc7898687b6a8a7ab68973b6a78899
col03:   a75b59d7766978888979a7ca79a5bc9b758aa8bdb79a59caa7a7e99aa6a77a8b8899cab766599bb6
col04:   a9788388b8454678729a9d8b8997c98a88a888c687ab74796a9c98687d9b69b69799bd559a74da68
col05:   847899ba38554ab39b39989897898ab95a79c68757b8c88b98b978a8a5977c99a7599798a9ec8695
col06:   945a66b8897768a9977a7886b66589b9985849c7aa94a97e9a1898c7978798b8a69a9bd798d9cb87
col07:   893786797875676ae9a8796ab99cc89869746aca976a38b3c7699b98a565b8779c93a6b9af7488a8
col08:   5649757599685638445c8abaabba8997a85b9397b88899e9a7789aaca6a8a7679b84878b9b5c5574
col09:   5659879379577b653bb888c7f778eb95b5aabcae9ac7958abbabbc98b9b95eb679bbb589ec6d85b7
col10:   768a527a7888897a798896877b8867aac8888bb8b4789779664ab9897aa8b9b99987697a88a6cb97
col11:   6867776766a4567998a69ae848374aab55a9b8c9dc8c889b92677c9a849aadaa577c787939c97785
col12:   64b7479595a3837658697a9ba86ab984b89bbc9988cf5c988a8a6afa7c7875a7bca76878a97b7879
col13:   a777998889b57a889665964bcaab9dda8ca897d8974a7a79a9e8999aa6b9aa985b8a7a9a98bb6555
col14:   66893974476568862a9556ba767c9a9766a9789bca7588a66aa6c5ba8b7a6787957389695a968bd8
col15:   7a8679a6985b57a875db698cfb77878c3d68a9a67888d7997b9668bc757a87997648b68be79ba659
col16:   7879897667a5487b69c397889b8a86a86a6c56a6b8689967677ea97757b96b99b67289b98699b797
col17:   155a4857675888576aa292a8a666baaa7b699876978bc67b99b6999b4876678a494885588a8998a9
col18:   7699897677996a6989c83a4a6577866bab87ccaa9dbba8ca79dada3979b52a6bbba9ab96a67b97a6
col19:   65758929b956a9a3a758a98a68d57969ea7d9ac58b978a7ac799b75888bc6cb7ba8788849a4a7938
col20:   896759b65a884aa7888787b7988792957aadc9997786669679a99987868a76896997ac67777a38ba
col21:   5975a559aa7bca797ad6a755a69e99a9eb7bfa9b898b8b9973b569d79b88dca979a9a768c569a588
col22:   6899c787894798884a7599686bd395958a98d5ba6788398d8b9ba865a86acacbdaaa97ca9a768889
col23:   9657435755676867b6b8654878ab96455b769bdb6993948647aabb95969586b6977688a869da7c78
col24:   8948a377b6b9796d668789a75b8795b84b58bb949a8989b7658987259aaa7a888a6b8859ab99a689
col25:   986aa8476aa7795889a7ba8878ba96b99a68668897bb9985aa59a9c8a78bb78977aab9b9589999ba
col26:   779b886bdc89bbc7ab959a8aaca9fcad7bdad8d7ccdb9b6aab9a9b9c8899aadac7da79abebbbaebc
col27:   9596969a8a76a886b56a699699e979addc98b67b8a7f998b4e7baaa79db8babba8f99bd8b97b9fab
col28:   797cd62a69a88aacc68b9a9f8b9cad9ab7ebafa9a89dbca8b9a8da98cac5accac9fabdbaa8d79cab
col29:   b745b68898d6a6c8e9cabcb86b7c8b8a6bbb7eba8cb99cea88889aaa9abdfb9abc67bdb8a7dbaa96
col30:   45877778b758d9bc5ae7bbd8cdb9a9b977cc9a698abc9a987ba8bdaccc848b89a99784abababc8b9
col31:   5a97a7cc8a867ade58b8db99b8a7ecebd9c9cdb9aaeab9acaababecbb7ecad7d7a7ba7bc868ad996
col32:   5b86bba68bcac8dd889bac8cbb8a7b9c88dceead879cbbaecbbca6edaddbc7f95b9bab79bdce7cc9
col33:   856d68f89b4bb8bcacb99bbcd8a89a8dcdb9dbdbedc9a7bcabbdbba85daec8ab9cbe9ad9ada9accc
col34:   887d97baa895e7a7acacfadaddbaad88acebacabc8eabbbad9cace79e9e88adb79c97bf8b78acbec
col35:   28d8878a7be9cab9b97faadbcbc8bbdca9edabf7dfdb88afcc99dc9dbc8999fdc9aab9dcb7d7cd8a
col36:   8b55b9ba98ba9dcadbad8c9f5a9dcfd76ce9dfacc9e9b7bcb5a998eb5b78baa7ba79c9d9bbadcbab
col37:   868a98db9c88d8ba78fee9b89fb9cae6bbdecec9cbfacdc9acd69c86e7ddbcbacdabeea5c8fdcada
col38:   9765c668ba8dbbdaabba9aac9abcdfbdcd78dddccc9aecafabccfeeabfaba8cddddec79c6ccdd8b6
col39:   9ad8d6c8d87e9d7769b7c3bbd9a6aec8ea7bbbfad7ba89fcccbedda9bf9fcbbbccb8d6c6bccbe98c
col40:   59b7b799bd96cb98899bfbacd7bbdcaeabc7bbb9cdbecdb7dbdcafccb99ba9beeb8cfeafadadbdc6
col41:   8799a8b6dabbd9b4ecac9da9bbbccc8ccadfecacd8bcdddaadadcb9bb6b99ebd8a9cbabbbdecc9fa
col42:   997589ab7ea569cabbdaa99fa69cbc6cda8db9cbcb8eeeabc8c89caafcad9cbdb9acbceaabbcade9
col43:   9ac7cc8dd4beba99cddcb9fa998cdccaae99dcefccecabebcddacfcddfcdfae9d7a9dcbafdcffcda
col44:   68a6b99a9aba9cdbabc88aca8ef88db9dc9bfbdfbcccebdcbfabcf988cbbef586b99e8ecc8c8dbeb
col45:   a969a9bca8aacab7a6cbd8acb8bb7b8dbbb9af6ee98d77cc9bd99bebb9eec8c9afb9cad9edfaeeb5
col46:   99d999a96a97b9885ba9bfed9febadabbcedb9bcaaecdeddbbcda7cf77ccebacbdb9ebecb7c99cbb
col47:   6c358988857bd9c9a68dbc8ca8cbeddcacbbcfca9bdea7cbadadebeaecccbdbcfded7cca9fe8dbac
col48:   899cc996bc8ab59a9debaa7a9aa9ab9defcebb8cc8dceca99ebfdcbbbbbbea7acdbfd9babdb9eadb
col49:   ba7799c97a9b679bcaab9adbfbbbdcacccceccea9cfbbddbbcbcdc9ac9ebbbcbabfc88bcad9a8bcb
col50:   59ba6acadaa7dbab7cbaacc7ba77bddebaebfada9a7c9abf8dc9bbda9ccfccb9bd9efa9fadeece7d
col51:   92a79566885999a6666a8ab7fac9bc999a9aa7899abbdc88566c58cc8958d8ab69c98aba8accc9b4
ROC:	 BPix_BpO_SEC5_LYR3_LDR13F_MOD3_ROC5
col00:   6a6688473556464864c7a4a2c89c3841378739558677a646688a865bdcb858566673833275957592
col01:   965747579a446955b3667a77b3ccc489ac7589f79a5c7dabd8a9bd56579287667656b8972d36a7a8
col02:   67bd958a2f6873969cb77a7a8b5b59c8999688db9ac869857cbb546aa8b6897897765967a3868588
col03:   a9289a479c86a8eabbac86edc6696b9ba5a859bb9988cbad77aa57a28bbaa643b6857d54abb6a887
col04:   996889b865aa975c95a5766585584698a699b7bed993699b55596785997a9564b86288926496b977
col05:   5c9159a64c9867d818899999a9a8c8788887a877a7a9979cc79a59ba849887879b65777474873784
col06:   6a85966a99997ba6c679996ca8da8989a29a9a98bc68aaa64985d89c66b8ed9dc5bd7bd68597a997
col07:   58536664a6a98975e8c5cc44b698ab447769a69987c9c679aaab8bb6a934996e985eacb66d888778
col08:   669b57769a58b677a645a7ac9c96b88b5795ab5cb7aabb1a519695da889898567a757b85b5799654
col09:   4a863a87c66999c7a67a8ae287acd999ccb99a8bab98a7dbc9b6778b6cb8cab7e4777775a7779b34
col10:   8e8436982b5a4b9da675e867b7d79787aa6cbd8c65787ad9bd789653ba88585aac48c87aa8769e76
col11:   66866998a786a66c93c84897bb96776a7d89947b8857a56898d484986788897414965b459898b597
col12:   45a866647dae6a94877b5a9aa499a84fe9968c8787a8bcc45a48b68697798da998ba9671c988c767
col13:   9684948974986879c4bac8566aabc99fca8a9a9aa93ab98be9a87567a76ba79c9876597c68cb89a9
col14:   7b6766547db7a6976a578cbcb57ac89abc9c89c7b7baf9598d95a7b6a67566b88b768a9937794854
col15:   b878544dbc7855486976bd66886767c7978cc9cd9b65c86baacba99989b8bb56cb88ae5b76777c96
col16:   356398677b738c7977a6aa697aaca6b987e8ac9b6977b6cda8b797a7a9b5b894c785cb7965a16e85
col17:   8368a3c5968677884467744c8965a68787388894a7c9b96a8ea979a73a9575757742799bc638d368
col18:   546b327ab6854729f94848995c579897677c9a9857d9b48b9a6b796e4858a8a9b6788ba7456c9795
col19:   584adbcc99a669999698697a77ab7857c88b576745779bc76595466b87bd97a5947d9898b5f589c1
col20:   1525959898767996835b7f37c9997a8678d67a79bf49ea8955b88a767ba377388596a93745a61a65
col21:   62bca8a7569bc7b3ac9797a67b8caeba89d4ba8d5794a968c5b8bc976a5aa997588a798b9648a664
col22:   885827967476a7ba56584985888b986aaa7943895ccbb779a515d7a8876847596d68d9d366c947a6
col23:   8669885769c5857797a7385aa67b897cc5a8a8a9769b8b5a5896d68787798994956888ba41a596b4
col24:   7532a7988563999b63abaac8b77c8b946777aaa68ba4a8997bc5b98c57797589abda77b75877a679
col25:   769688577488aad8b4bb788aaadbaa9aa87bb99fbc86acdc8fcb8b97977896769a97a6c66a665956
col26:   66999a589b5cb49d69b6b99b4cc7bd8b9878afa9f796a5cadbbabac5c84aba86a489fc5c7ac99c55
col27:   b6499b76dc488c8c977baabacab8c8db879be57766b3b59e9aa8988ce9888bd86a9ca77bb89abab5
col28:   a976fa69d9b4899aa98792abbaa8d9aa9ba678ebacc7dcaaba9ec7a77badc8c17ca7aeacc8aa888b
col29:   9bb7d3827899cc9b6cacc99acccbd8cbaadb89b987379b88a8fa79b8b679aa99997794d857559697
col30:   bcb8696fa888a857876e5caafc88ce79dbccba8b9988cba77cbcbdaadad7d8d9ab7f9cccbbbda896
col31:   bc966bc9579ababcdc9c9e8ac7decaabae8caa8ec65bbaaccaaac3ca78aacb879b76da9686bcc9db
col32:   67ab665b97f8a8c88a9bfebcc9b8bad89bfca8f7ceca9abaa678daa9b79cb9d9beaca8dabbedbc77
col33:   b9ba797a9a979cb99bd9ddca9875c9eb9adaaace78fcbc99eb9fdbda99a9ca55e8b99c7796dba9a8
col34:   9799aacccab4beecc9adaef99cc8b7d8fa9b9dada59f89ba8aa7bf96ce79cfbba8acbb9ab84e68cb
col35:   a388979ea8bba7585bbe68bcb6cbb6b6bb98bdecbac78b7dcddfcbd7bbfcefcadca998a6bbeaa975
col36:   8789979ac9ada576a6ac878aabea4a9d9ea75adaa8979aebbcda9ac4cbf67f5cb687fb89bc6c4d7c
col37:   ebdb9dabba66b79ab676e785ca9c798abbafcfcd8bf797c99c9bbaf8b7a79bfcb9797bcbf97abcf8
col38:   ebc6c87cf6be8bbbffedaa94f9abda97a4ab8d8ba9bcad997bdfa597c78cbea9ffb9c88dcdfaada6
col39:   aada5aaaba9acfbabcaaeabbc9b8b9bdbdebcc9bddccfbcdfd7c6daadbaaecbc99e798e66ed87ae7
col40:   9b97e9bb69c89eb7cdaccf8de8dd7cfeaf9add88e8ececdba99d8ccabacbeee6daea58bbb89acf65
col41:   998997a6d9b99ba9b9bacca9bbabcbaf69addacb7bf8ca9dcb9abb7d6694e9f69fbb89cbb6a9eab7
col42:   a87ba79caea6a8bab6bbdaf9cbfab8cabcdfab78caebede99b9badeb7ceacd8fbbe9bde6bcc7dbc9
col43:   ad79b9a8ca58ed9aea7ad8bcccda9edbb8beac9ddfabda9e9ddfd99a9b7feeaaae9cb9d8aac79ac4
col44:   c999a8bf9bff9bf8ceb8bdac98ba89d9bfce7ecfbbbb9cadbe88ffa9af89baa94dbafe7ddbdff8f8
col45:   8e6abbbbac9ab9aabafacaec7aed7c7beab9aaa9ffbfb6ceebcda8a6bcb9a48bdccc8f36c9becead
col46:   c7a8ecf9bb8bac8b6bd9dc878c7aebc5cdfb9a8facbdcdaefba7ec8be9becee6b79aaec8abcd969a
col47:   be4988deabb9bcaecb9cc9d7cf9fdbcecedc9adebafbcedb8bfabbbc99fee96a9fc6a9cb6ca9cd93
col48:   e6ac7898bd8fb8da97d96cfcfafdb6caadc89bbcd8fbecce9bdbfbba89acb7caa8b99fc9f7baa8ba
col49:   b4b9e8abc9ab6b7ccecaedc8baeacbb77bb7d9c8aabd9e99acbc894a6999cbcafcc8ae879c8a9868
col50:   97af9c8c9a5c6b8aaa8dbb5cde9efbd9cddef96eb8fbbc9de5bda8cc9b9dda89878a8caaffccdee8
col51:   47666998687ac868e966ccfb9b57b889d9f64a598a9a879757ba95abb888c883c87a777777638774
ROC:	 BPix_BpO_SEC5_LYR3_LDR13F_MOD3_ROC6
col00:   94a537a5aa77b9b7a4378aa898b7baaab76a7694636c8956675683c7a879685e48534876c7787966
col01:   c6a66d6b5db688cda997f9b8a4a9bd8d7beccbf8cc5bfaa9abac8bb6888799f8ab89999bd75b6776
col02:   5d678dcb8897c99b8a88949cb895787fbaa9e76da5ebbbf7c7d78fa998aa685876da8a46699c9972
col03:   87679899a7a888ca8a897edbaaad9c97f8b9c6987a5ba8abfbb78ab898a8a98548199768896c6879
col04:   b9b77ea86aa7796a99ba976ac5bb787b7bacbdc94ff67a7eaa8699cab5a9988aa7a5d867fa9969ba
col05:   cc983c97c665996d79bb944a8abc76698a8c98ab96698ad888d79c85bca9ba7969876a876da88395
col06:   a6b86abbab46df94a79a96a5b7bb9e9bc969a978b9fabc7a3a8a888caccca6cc97a88cab888c75b5
col07:   6b9c7b6596b7ca93b99a96a689a88adbba9ba8aab698f9dd6b7968b8c9a638e999db7a8789ccae9b
col08:   985e8b89a6ae77989997a9da4b59ad86b99ebbfa99b9a748e88ec8aac68bbc979a98a7c87bd8d9a8
col09:   6d85a389d988a6d5877ba786cd9cc75aca6aaac6a969caaac8da8d8af92a786accbb587e87b97988
col10:   a27da9ca85aac9cb84abe5c77ab7aa9a9998bb8698d6d87b9d98df99fc97bbeb98babbb879d89d6a
col11:   9988a634f66b7b97979c669bccab97c7979c8ceab86e7d7ac84abcc99ba6bd47aa99ad95b8989595
col12:   88a9b6869b8ab9b496b637d9abcb8b69acb33abbe9994867c7ab4774b69ea9686878ba89ac769d8b
col13:   97a8a8ca7c8bb5bdf6e7ca779a7c7abaa955dcb6ccba86aacdd6789799887a95ca776a5769598688
col14:   6569c88a5a878977c9c77bc58cd6978988a8d9bdbad89a9ba9c9d4c5ceea8d9a29a5e94b6e49cb9a
col15:   74a77c589689a9674adabaaa96aa68a5babcf99dc8babfd7b89eeb576bacecbbda4688956adc9b67
col16:   9a9b9ab97a79c8c967c9cd9b9dfe9bc7a9a9b9eaf4e48878cc9ebcea8bb9d9cbe85b19aa999cb86b
col17:   98e998e7c9a88ac775c96888c9d7eab989b99266d97a8536c4aacb76c8bd885982788c988b994687
col18:   93869546a995b9a8cbba7f2989bbcbb687cb977af59b9b4e8bcbafe6a8976d5b9b8a886b48789476
col19:   89b8a37ad9b7c8aa77795c5ab896baaaae776cc98b9dc97ba78e4da8f5bb98789699cb7585babda4
col20:   a8858985acb39574737799c9da9c99cbabaa9bdada9cba89b5d6a97c99cbd8576aafa1ac79788a9b
col21:   c6a796696865c58c77b8a86758a88cabadbadc9a8cb7aa58c9ab9a7cad969a88c9a387caa9e8a67b
col22:   7c98a5ac8c669ba475ab8a8ba9a8999a7e8e99abacdbbfcb994f8b7abc677a68588db9688b79c968
col23:   874c7ab8699b76598da9879a649a9daade7aa5bac98a59b939ac9c9cc8c596848976c249a6886744
col24:   819d69bbb598a795bc4a994cc9acca9cfabbbe77a97986aab8aaa5a99c997cd9ca8a87beaa68b789
col25:   7857a98a748ab7cda9687e8989df9cbcc4aa9ac78589cab849c9b8a7bbb9898ba99878bd9b695c89
col26:   ca78bb979a9aa99abec9bdc9bd78cc9dabb9cdccd98ddafbcab99bdbcaaa6d798ad9dc79bc9b5bc7
col27:   c6973998aa7a9aabe9e5fe76a7c87e6da9abbbbaab6edf7a99d7a98abebd6bcbabd778a9ac799ae7
col28:   6c67dbc84ad8f8a989cbc8fdc98db97cdfbcf9c8c999abcdcba99a96adede7898ac79ac9d968987b
col29:   ca9997cb7bea9b7aabcab8caa987bf9dbabedbbb9caaa7c7cf2cab98c97a9cc6aefa9989bd6a8bea
col30:   89c8a8eae97c7ab685696dd9b7ddade8cc9b9ddbbf99addd67bb9dabbbae77c5d6cbfaccacb6bb86
col31:   b9b96ba9a95d4aa7cdb9afd6ec5cfb9b97cc9faa99cbaadcbdecc9bacfebaa6acc9bdaac7b89daea
col32:   ab8aa7c7a8c77cacabccaeea89f9fb8f9ddb9abaecedacb9fa9889edbbbeabfefb9fbc9dccabccba
col33:   bba87988cf8c5cf9bfbaa8c78dcdffdf8dbfcd7a7e9eabbbacadcca8ea6cb9d877b7b9ae89cdcdf6
col34:   f799977bafab9c3adecdbbbb6dadbbbfccb5dbdfedbecf89bbd89ddabecbcbc99adccceadcab9ca8
col35:   a997c987bb89a95dea8b6daccecbea5bbbacffda97f9ca7bbb9c7e9cabccb993aad9cccdecda6d9a
col36:   8c9aca9e9b9f8adaa9adbeaa899a6cabf8c9edcccbb7fb9a8dc997a9bb9dce9cd9bcebcacaad7cb7
col37:   d2d6a98bbd5d9eaeb3cd98babdbaaacaaebbbbfbbbff9acd9b8d7a7cbadc8cdbfba8e7d9cbeabbaa
col38:   95bd787abcf9cca9daded9cbd79ebcfdbdcdcccccaeecabcbd9ca6ccacecdaecacd9cdcadfdbaecb
col39:   d7a3b75badb79dcab6ad97c6adbee7fe998f9bdcaf8dc6ebeba7cbbf98ffde856bb5a797bd79ccca
col40:   8abca8987a59afba8c8ce7cdb9cceff98ac7bbcbe9cbaed8dbbfbbdb9ba8bbecbcbbddafeaabcceb
col41:   95b7bc8b8bce97bbd8e9d6caceac8afcebcdcdeed68e9fec7e99daced8ccceaed7ba9faedc99f87c
col42:   69986a8db9898c9d7cdfc9babb9ab9bcbc9fbcba8adebddd6bccc9b7debd9eee6ae9fdfcff9d7bea
col43:   6ea7bed89a9dd4bbdabcaadccbacaecc79ecefcfbbdcfaab76bfdebdbfebfcbbf7eaddb7dedcbd8c
col44:   ac5777a8a5fc99ccb9a8fdbdacbaacbecaacceed8becedffa7d9eaafdbbdafdceaf8cfcebbdde9cb
col45:   9ab788a9a97dcc97aea8b6bca9a9eb59a8c94bbdaaeac78ac89ca879cbfaccbadf98bca9bf9aaedd
col46:   7a6d99bb3c9bccf9bbc5dd8abababc9ebbc9a99cdecee2db9dfc8d9bddbea8c9cb6b7dea9bc97bab
col47:   5d99aacad5aa98ea899dda99bbbbecafd9cdbedceda9998fdb9adcfafcb9c9db8de5b7fbffee7ccf
col48:   59ccceacad5ebbd69dea9ec5cabadbe9ceba9eaacbc9abfbead8a8cdffeaa9cdea8a9cabeddfcf6c
col49:   8acc9da8db5c8acb9cabbab8c9b7bfeea77efdfbadeeec9feccd7bfadcfb6bf8a89a97dac9ec6bec
col50:   d9baab98ca6bbcacbceca49bd9abacbefbdfdac9bedfece6badfbedaec9fbaeabaacfa9ccdcbc9bb
col51:   b538646b47b6aabc87cafa8b8996c7d9ed5bbaaba5b8999a6cab976c89b5cb94b9ba9b69b389ba78
ROC:	 BPix_BpO_SEC5_LYR3_LDR13F_MOD3_ROC7
col00:   8986b9c7c9a771b9c46b979259ad78b6ab77799967a78896b7b99caa865c5b7ca59ad926dd584ba5
col01:   8d768c6a84957a8aacbbb6cca87dcbd9dbaab7b8cf989ab9f8a97aefaaaca85a88c759797caab5d9
col02:   5a4398c8669ba78898b99a6768e5aaa7e7aaba7aebb7b9b9a989478aa8c48b7e9ab66c8bb9aa9885
col03:   99d698e8996877bc7ba97c9858baaeccc97aa9cd76d8cb899988be8aab9a9c94b98879a8a9bb99ca
col04:   a958a76a79a686a876afac964c9ba96aca98c5886989dbfebc7bbaeab79aca8c9799a9a66c99d889
col05:   5a5777a678b9e8abd496b8b7877d988ba6a7a79d99a98d88b8ac8b9ca7b97a94998776aaaaf97bdc
col06:   9998b98a598ac8cbabecabd65ba8997caca9999dccaac5b9bfaca8977cc979f6caa876f97cd675b8
col07:   7899883a58b685648ca9aabba66a99c9a8bbba8aa8c7d97ac6a9a9cb9d9a66f85b68876cb9b89a59
col08:   869b46a79c9a2a968d8a69dd7b98cbbcd88bd36a79acb9ccbc9589a6a7cbbca78918599a79c669aa
col09:   d7bccbb9bda769dfde4aa5cec7ccc6a7abcbaa8dc6b975acec8dba99e8ceaed6f9b99b9bca79db88
col10:   9b57a7dc9ba5e9ba6997a6c9d99b9c689ba99dcc79897e989ad8ba99ab79a9768ba796dcaa84ba99
col11:   7884e667b688a879bbaa8a99da6c9ab898c89b86b9999d7dcac698b99c9896ab9d89aacdcd538ada
col12:   879baa8c668877b7facdbea7989abdb7dddbda8ab7aac6a99acbcb78b9ab6d98878a9b86a6ca89b8
col13:   879caa8a9bbabb77555eaccbaa9db99cc6998daab889bae97c7ab9cacaab8bad68abdb7cb9a99ac7
col14:   8596738b8bbab85669ed9bc9e9767aac97997a8987ba3d8597ccb99aac87989a8bed98ba85bb9d99
col15:   778a8779978498aab56899d698cb97dafe8aafad99e7aa89bcbd978ca9798a8a8a9bc96ba3d9ba86
col16:   7578969b9aba9ba8c998b77cd988a76b9aa9cbab8f7b89cdd9abafe89a797aa9bbc7877ebda9a5a6
col17:   99b9b976677685b7b7ab9c97958a96ac9ca686b846aa79e688dccaaab6ab68cb7dd947ab996d7db4
col18:   5649bea66988699aaaca69d997b9c7a9cadab7aa9ad7cce6b997c8bdabd8c6beba8ac7bb7878a895
col19:   8bcbba5c8686b98aaabafaaaa8b7998a7bb87898a99bd9d6ada9a9abacbbc9bc8c77bd77bbb44797
col20:   49caa896798c9d4b8968a59799d9b787bc9b789c85ba88aab987bc99acac9ba48c98958665cac999
col21:   a795a18b7769d85ba898a9cab789fb5b9bc6a97998979a58ca97caa9b9eacacb898aa8e8b999abaa
col22:   8b99849a99eaa79cbba787e6858889888a9aa8c7688fa8ba7aa684dac7baa7a875999aa8b9baa977
col23:   a999598578a9996b58e888abcd9a7aaa9579cabb6a6bccb6c9cd998789a78c899ba88577a7aa898c
col24:   587948b92c88a79d5a9ab7b888c4e7a6beb9cb8a9cebba7b987a7296c7ac9cb99d66a6bd8cba9ba9
col25:   868798ba8997be7699a799daca97ac889c69f6c768abccfcfc78c9a99b9abbc8ba9778c6c7776a64
col26:   989ab8b7bbca6c8ecacddcacbabfcdec9cefbbaddcab7dcaabe9ccabebfdbccfd9bd8ad6bfcb898c
col27:   9bb94dac96b9b8b78ecd9a8aaacbba8fca69bc9bdc9baac79bbbabdda899dccacc8db66bcac9baaa
col28:   aa7979bb9b77bbfaa98b9a9cabbd9fb99d8bbebb8acebecfa8989a9bda68aecb9bbeb8de88b88ca8
col29:   bdbeb98bbdb69a488afeb79b8c99bbe9fbdac89798c78dbcbbbddee9d7faa7ba998c9b8b9b88abb9
col30:   a89c9ab9d687bdb8ad998acebcdde5cdc8bae7d9cc9cdaeffcee9bccf9ce9a8ccc78aac7ad9a8c7b
col31:   dacbacdb8adeb98cccbaacafbcdaebecebbccacfcebeed2b4cefafdcbddbbbacab699ababa8aaa9a
col32:   6a8897bec9ab9aad7aaaf9abca9ebadc97dcaeebc9ebdec9b7cb9cabfaab7ccd8dabb9e8cd8ababd
col33:   9beceac9cbb8eaa6cabcaccbcac9969adceacf8bcacfbbbbdecbd5fbffdf8ea7b9cabeef8dbcbf8b
col34:   b9badac5bcde8798f889afa9eabdea9d8cabdbcddedbcaaecfdbfa77bb8afbbcedb8bdadbcd7bda6
col35:   ab9cbdcdbacea89fc99caebdcddef79fddecfbdadebabdcdbdfcbabbffc8fecccbccba9abaac86e8
col36:   67ea9ba8ecacaadadbcb9febbc9aaa9dcafcfbecc8efbb7877dcbfb9aa8b7acec99baecf9b8969b8
col37:   9ca7ca7ecb9ddba8bcecdeab98aeeaddb8deadddedbcbbcadecdcab6edddbdcbad98c9eabb99a9eb
col38:   cebc9c999ad9cba7acecedca8f8dbfccfcfbb9cdaabae9d9dbbacefeacbfddd7feabea67abce9b98
col39:   bbbac98dc8b8adcce9f8fd8febfbdacdd9cbebbcbcb9b98ebcababbdadddb7d7c89acdaebebcdafb
col40:   a9d688ebfdfdbfdddddbcdad8bacbcbccafdf7d9eeaabbdfcbca89ebabca7f8bf9bc6eab9acaabcb
col41:   99eabbceebfbfebccc8ccfaa99bdfebac7fcccc6cdcfbb9cadcafceabcdbcdbecc9cae8959eba8ae
col42:   9988edfccce6fbcd79afa9b9aadaff9aeabded7dbadb5adabdeb8fcd79dee97bd6ccebbca7bccae5
col43:   dece99969caacbabdfedfdedccbbea8bebfbd98fc9efddadbb9be7bd9eb7cb9cc99ac6adabaad9c8
col44:   abbcfb99badbadefdfaadbbdbddbfecae7be9caac7bdaaddee6ffcffd8ba8b8bcfbbecefdc7bbd9b
col45:   baecba9b9bbebcdcedbbdd998dcbfeebb5acabfdaffddafecad9b798bbcdedbb967ec6bd9c6ada9b
col46:   7adb8bacc8dd968bafad6bbd9deaa9d8ebaafacbdbda9dedbccbea9f89eaa9cdcccbd8badefa3bed
col47:   ab98cccac9b8cbcdbce9cceddde8dceddaafebebbbfeedcae9d7aae8ef8bccbddb9ce885dab8a9e9
col48:   7b8f7a887cf9d7ecf9bbd8cbbcdccfdfeaf9dbecafbdddac9bfabcc9da9ee7ccbc988899b9aebefe
col49:   caeee9bdc9f7badba9becdcacbb6febcdbf59deaaed8bace9cc78cdddafcc7fd7abc8bbcdb88bda6
col50:   bcb8cece7a8bc9bea7eea7c9ee9ddebcefd9aecbdeaddde9e9fdbfbcccfdbbaddee9dd9cfbba8baa
col51:   bd9a8abedabaaab7799d696abcab7a769669eb87d7a68a8d897b78aca9868bfb786caa98a588a996
ROC:	 BPix_BpO_SEC5_LYR3_LDR13F_MOD3_ROC8
col00:   563646199b844756945784684588979b6c4977987a865a6489d87775949a59889389766ba6b3b484
col01:   5796b66b36597a48a8da7988986cc89b96bad66996ca87a767bdb488d995a958b677797a98765578
col02:   ba35667a77265b54767c9a99767aab9a7aac9a8787988b9a974b878996adc9a9baa58877ba868586
col03:   8958c586868873798789b8c9aca376b498a5a6b9ca5bbb8ba9b7c98b895697e47a8aaa8a8349b863
col04:   96568a85ba68a8498488a6a4c7799acb8a7b8accc5c873cbbdb888ecaaadb9ab768589979988b6c1
col05:   586a7699953698ba5879ca8cc49b9ad667a8b7c99be779bc49a587ab9c8c8759999977a9ab578958
col06:   797bca6979449a486ac885a9aa96cabcec9c969b87c5cbfcb78b999ba8ac99ba8b8899b99c7a9b49
col07:   5676465ab68898a4a97b9b3a56a876a8bdd97c5c4bcabac98989784bcb7c735a79989994b6968785
col08:   84b85856958b55a87678a9bd958aa7b97b9a9ac6a1b9bb5db89bbeb959b7c99856999986ab876666
col09:   757744796785cac4b88bb89b7a8c74d989cbb3baa4b895b7c89884b7cecf6968c48a7575ba7c97b5
col10:   768687863a75455588b4b6b9a8ab8d9a985b7bafc65b8c8d578898787c787b8bdb8898a5ea3a8875
col11:   a74b93983c6a7697ac276679b8998a97a97bc479cbb65aa94c7658a6b9aaaa998a6b86558627b855
col12:   673569579b6968b48455a7797c4b77b6cc586a7bbc8aac7bbcc7cc99898d88c98767996a78867976
col13:   7725166496584859a8c9d6cd89858887a798c6c9da89dbaeabe7ae9885bc59c8cd886979daa6bba5
col14:   45a96454774799bbb8ac6a8aa6bc6b7bcb9a9adc7bcd8ca87bb8787b7a8788d877ab866ad3846868
col15:   9885154a89858885757a9a998889c889b5a4ca747984ac86a6a694ab17e87adaa8b69ada8a7a9a46
col16:   74a6a969857b82bb8799b6956b5b787b7baa6768dba88779b887bc78cab785c9a7798a7987a36675
col17:   644995a81778379778a659bcc4abbba98a7bab7f7968a8a687948649a6a7799a67a4843969568c57
col18:   96236638466ba688d797a6fa85b8b89e9cacb4a866ac7ba87a7a4a9a97a9bb77a9b936a3784755a2
col19:   78795ba8789a9767c77daa798898aa89b7d878ca6da7aa84b7b8a57bc93a9a86b89188a5a6b6a864
col20:   9a8778778b87686777566a668764e8b95ce8fa9d8b9988b666aa988a87baa97a5a77a66a6b337786
col21:   89889a567916b96766678896b8b59a5cb8bb89ab86839b98899796b9ac6767a7b78bb8c6a6968a78
col22:   79788c63b76987997b8ab44aa687bc4996a889caca7e99969985c8abbc998d5578ab557998787771
col23:   5379667a899177b57b7b72928996b668aa8d8c9988aab886988d9a899a9a799c878876a985997471
col24:   5975c58a847c9a6b3ad686ba9b98898aac9bcd89e87b879abd9b858e8c6a95848ca7a7a33bccda86
col25:   53c846998a775ac65998887b587929a9987c7cc89a7ac9add569b55a8bddb9998b8ab8a989a7aa75
col26:   9868ad88cdb98ab957aa77cbbb8ac8ebbe99cd9caba9587d8bc4ada8bbab7bacce6da9586cb77755
col27:   86b646da8665676846a869b9998bab3c9ca8abae6a7c8fc5ae9a846a8dbeac86c9a89acc9846a756
col28:   7985a889a9b789b96557eb99b8d9bec7fdbcaa9b8ddcafb79caedb9b79c848da7aabab7bcb8c9778
col29:   789a8a75b7a98a888ca9788aa79a8daacb8abbdd9cbe969e9b7aa9ba9aaaab9998bb9b6a97bda796
col30:   aab4dcb78b97c797bc79dc98bf9ddcb7ea9cbfbcbab9cacfecad9c9eacbdc9ae94dafbca5c988959
col31:   84597898fa78b9689a8968d9c8ecdacbbaecaadcacabaabcc99edca5dbe9e8bd9db9986978b76797
col32:   996bcc775ba888bac8cba6ba79d97eacb9dfccdb6bacd9bacbda97ecadb8c9ad3c2797a7ac8b5c67
col33:   97d9879a89baaba9aaf88a87baccbbc8acaaeeabfaeda89e9cccadcbdf9c9edcaa9b6cb5979b878a
col34:   789cc967da68b9a9d587a7aef98dbde9ccaecfea8adc9d9bc89a8fed9eeec99bba7b8c7a9a8a7a36
col35:   8aab85878ab8b3adb897bbd6a89dbea9fb79b5abfbcbb9ae78cac6bcc8ccfbceba6d59c8a87c55a6
col36:   a9da59bab7c6cb9bac6bcecc7a9aeecdccab89e9fccccca9cbcaedfedabb9b99abaa9acdb8988596
col37:   aa9ba87788895b98c9c79f9ecd689d8cd9898d8adaaddc9dcedbfadf9cc788cabcaa6cc97a6ba9ba
col38:   9a99caaa5879baa58f6abdaa93c8eacd9ec7dd9bc9999bbbe9aadcceb8bdcd8ab99ac8dbad89cc59
col39:   76a8bb8aaafb8799b6fe87dcd886abde9dab8ee9d8cdb87aecc9ad4a9eaabcc9e9aa8bc8eca95a7b
col40:   8ca486e6bcd99cd6a9edd98fdabce8cdbc9afbbda98adcfcfeccceabfcbfda9bc79a98fa9f987856
col41:   ba86e99bd889abed893a9dabeb7dfeb9de9eddbcab96db89aabceefbcda7ab5ac9b999a894aca86b
col42:   c99beaa7d8b97dadc99cecbc9cba99cf8acaaadbabdcd98adedd8bba8dc9cd6c9bcd9cc8aaa879d8
col43:   ba9e97a7cabbbdcca89aa9ea8b9cfdfb7af9fdaab88cfaad98ac7adfb9cc98fbdb78ca5c9677bcaa
col44:   e7aaa97aa5b8b96f99a78de9b8bbdbbccaabeaaefbba6dbcb8bbdaacfadaf9aaebacfe9a6c97ad9c
col45:   c888dcda788ba9a4aad9ebbcfda8fabdc8acaabeb888fcdb9c9bf9bbb89de6a5baaba8bdaa77c575
col46:   887bd97b99c79db8de88ddc9cbdaeb9fbaad8dcceddeacefc9c9eedba8dedc79c7a9b798baad5b79
col47:   49b979a879cbd5b6ba9d97ccbcbedacca8bcbfdb87b9cbddac7ebadbba6da9989da8bda789797887
col48:   ab89bb889998b8ba6b9abccfeadbe7cbc687dddedcdcacbccbaafbccb8ed7c8957aa8a6bddcbbd87
col49:   5aabb9c78d8c6acc9d89a9ba8ccb9aab589e7bbaeadee7abab8fba8dda96ab8db8678bb49986daa1
col50:   4b8a89a97989b7b78a898c8da9fddabccacbebdcacbffcfa9cabfbafefcfabaacaec89c887a988a8
col51:   67359c47652aa8767731ba9a86ca2686867467b995ba9c74799949ab9a74b9977831775696445864
ROC:	 BPix_BpO_SEC5_LYR3_LDR13F_MOD3_ROC9
col00:   6775458678a69bc87ac566b78676799bb788b42796c96886ab4987c847787672862376784a567b84
col01:   94557877bca694aa568be8679865b7778677b796b98ca6ac69b989898da8769887995dab7a86a677
col02:   77ac8785968e9668819b677775787c7e6886d988889cab9b8ac789b669794895bb78668b78536566
col03:   56b1a987ecd7b785aa3c9d66c9bbbb67a6a4ba98c9679a6668a576c65cb8a8489679657b849db59a
col04:   6aa4a567588c8c68a8dbb7997b5bbb6accc96cdc8c8a96977a86aa98674cea8797798758787996b9
col05:   8386a4c589c7fc69c559748bbc49a7c68c68865ca765ba6ac893a976975a93a5b86ba96649777d87
col06:   83a8a86b468a96bb9c78978a34599ab76bacbb7756c8babaab4c997a74d889787898868786985663
col07:   a97ba998a6e95d7b67c9c6c758698adac994a979d74bc8696e888bc99799c99a98bc68766389a397
col08:   9766a6bd989b98a5e4c9b5a48aa889988b7ebab667987b87798978aca986b9ba77a97a8939517374
col09:   9e878535a985596aadac59b7976998bac9ca8987a57684899671a7a9c7baa9b787399a176cd866a9
col10:   6b859775b879c4788a9e44984f489899678ca6aba4c77b98a69c94799868d58678a8a4ca8a68a697
col11:   1586dab8a897a974ca6ab9a7d7a8b9ca98afa7858aa956998a9a8c5974497a589a767697a9448445
col12:   ba4687489975987a49b9938b9cac97a87ca7987b69dba765b789abca948a9d9768897c8459b669a6
col13:   a677a8ca75ea76d6b37aa9bb9d9b58678dbb5b97877474becc6cb9d6a87857bb789a97878ab76c84
col14:   89896396a2a9695a64c7bcc999889977b779bca88bec888d7696a989c4b8cb478aca7bb8c88b6b55
col15:   3c5774789b69758776a6898b88a6a78c7a9d79d955798c99aa77799c9db9a6b45b8869394acaaa9a
col16:   c77888987783577967778b96b9948b989a9698bdcae87a96a9576dc97d9d8788587c8a9b957574d8
col17:   97995639587daa58ba95698b4bc675b7999489b6a9baba9baaddacba8ab5db9a7a77b775b7b8a8b7
col18:   18995a45947569798c7bbb7c88bc89a9acbabbb8b687ad78898ba9d7f9b899973987a7a8387866a8
col19:   da5aa846a895aa9685b969b689a99a8a9aa6b8bc9876ac69bbb76c8979a8c98a3ca5937abb956783
col20:   8957358a94846989958988a964a5b89ac955a996cc557ab7c6c596b868a6b878858562978b8af685
col21:   77d9ba9579b79467a6669c676b1ad39998c897a88aaa577a96b646898ba58c7542849ec855849b64
col22:   455488598874987b43c7aa97b888b9cb93b6999a8a89c997a8dd99b9c9aaa999c677a5aa58778b65
col23:   7bac3a8a6dc8c7d96bbc6a576a498c97d66a87a7963e589b99ab9848b9648abaaa596b5899885772
col24:   9567798ac4b5b57b89b9b6718ab85a8cacc3c988a868c6c85aa3a78989874996848a885797bb1946
col25:   d9a79b4ad66a6a8ad7887dbbcabc7b39cb5d7ae8c789ba6dc8ba9a998b7c96b9a95f8a895ea889e6
col26:   b178aab89778a18baba798cbbacaa6967b59dd69b7cf95a497b47c9699ad99c2a6ec8cb9d977fb98
col27:   955e7689a96c9abe98dbc7a87dcc9da68acdbcba8c6bcd9a7999eacbc79e8cab9b59798999b87cdb
col28:   b1a9a8c59aa779b56986ae79d7a9b9dacfadcdcfecbbb9b9879ba8a99acb97abda97bb8c67a8bae9
col29:   a897bc9c8aa7769a9a79bba9dead6998dd8cdba8dbbd48be89daf7be5daccdc8997ccbc5c587b6e7
col30:   b878dcb9959a9baa93d5cca97abcc68bd9f6bebcf999d9685b884b8b7accabcca9adb9bf8aa9a777
col31:   699dc89f9ac6e99889aa8996a9c99bbc9ddad8cbabf8bdbfe869acabba9adfa7dbcabca9ba7bcaca
col32:   89adbffa998b8dfb8ca8bbdcdade9babdaaadad9ed9c9dde9e8cecb9bcdbbcba7c6ed97cb7cbabfa
col33:   a958587bc989c7d979dcc877cc8bc9aa87ba8599c78fbba7daeda68bac88adcccc8bc7bbb9fbc6aa
col34:   dad7de788944878bdadc9febbbd899c9adadccecf9ecbd8e9acbbdaacb9cdbf799bcbf89fbde7ecf
col35:   a74dc86da89abe9ea89c7fa9dabbb99cefbebcda78f6ca5dadcedb8bc8cddabcb98a899858acdf76
col36:   db7696786a96bba8ab979d8bac9ec9c9ab99aefdcbc78cab96badca7ff9abaab6c9bd99dbbb77abc
col37:   9cc96ce96ea8ec8dbeccdbaaba7becd9b6be9dbeccebaccca9ffb9a9daaa8ad8d8dcdbafbb9ce95c
col38:   a9a9cb6898e9cadbc7fecccbabcefecbffeff99cbcef7d9aaec6cb9df9dd6ceb9dfdc89ade9fcbe8
col39:   8c85c8deaab8c88bcd9a8699b9df9ecdf6baa7adbebaabbaeae9af897bfba8afbdadfdcaaabc8997
col40:   b9cb6a5ec7db5d9dcfbbcdbcf99faced9caca97edccae8cdef9afdbdccacb9bbbac7cdebbbab8fd6
col41:   999a6dc7a9cad9bd9bae7caebaeedcea7c9fa59edcbccaebaabf9fccda9daee7b7bc8aeadfedece9
col42:   ccadbaafebbb9cca9bdbbb9febeecac9fcbbfccd9c9deba7acb8daebc6a8debfb8ecc9ecc7f9ccec
col43:   8adafdfacebe9d97ec9c8feda9bbfebdcfcdadcccafdcdbfcbcaeeffbbeebedbfe9bbbcdfcfba3d6
col44:   9acce7ace898fcacb9cadfab8fdbb8dca9b9dedffadcfbca9cebeedcfceb5dcbafbdffafb3b9bedb
col45:   9a9a6bebb9899fc9bcced6e98efe97cd9cdc9caabe9af7daeeafafaeb8cdd89ebfed8dccd9bbcbde
col46:   8fbcaa99cc9c9deba9db88d7dcaccbbcbc99fbde99fdcdb7deddcc9cf9aebdbcadddee99d9fc9cad
col47:   baccad9bee96c8eea5bba7fcabeaaeedcdcdcc9ecbbdcbbdbe6fd59cdddc7997fd9b9ecda9a8afdc
col48:   c64cc9ae6ccaebbbbcfc8dd7db9aa9bdfac9fbfecdf9acb98aabcbdbc6feebaecbdcfca59c9beccc
col49:   bba9c7adbba97fa9adcab5cc9fddcaceeeef6ffaebefcbfcaaaae8eccdecf8bacbfa8bb7fdcfccbd
col50:   accbf886b8bbb6ecb65ad8bbbfe88ac9afbcbcdbed9faba7fefeceabeddbffccd8dbddcfdda97da9
col51:   998647b79758c7479947e9a79f7abcd97cb99d898bdbcafab8adca9969399fcba9769daab8bc8fb5
ROC:	 BPix_BpO_SEC5_LYR3_LDR13F_MOD3_ROC10
col00:   87a658bbab69d68bd999a9649a899b96789787a6a67aaa7599b78986a3c8c8978b85aabcb98a4468
col01:   a759988697b875a8b757dad966898789aa6acbb9aa97a687b99c8ce8bae98967aa96b6c79ab8bbc6
col02:   74a6879657b9a99a7864878a7b8bd8e96a89b97b99cb767b8c9bd9b9a9b9ab98d77b75bd4ec98279
col03:   b67698ca6679d9a19978ca989579fccabab88db7b88ac788c8db9a7a778aa898574b9bc7ba76b887
col04:   7676657c8d667a98719ab9bdc687c97785a9b88b6d7a66a9d8977d7a8a6968cbb9b9b59955b98d9b
col05:   a776b89896b7769ab5b666899bb9da89999dd7798a8a9987989aaab87c7898799bc7ba79a5875aa7
col06:   798788ac8c5987b9abbdd9897898bad9cab9bbc78c78c88b6b89c8aa99b8a9bf8b98ba88b699179c
col07:   c64879c3945797ad9d96c7c79aa7b9777a98a89a7ae7ec77688956ca9699a5a99368568ac68787b7
col08:   6f16b95a978a8a6979a9879b97a7a7c896bc988795a9f6b1a8caa999c7964d7b45996677a29bb8c9
col09:   ab8cc7aa79c79a7aa66aaa8a98cba7998aadb7ab6babcca998bcc959a7998bb7a68a8eaba7ac6bd6
col10:   764746a7a889a7a6569799d8b5dacb8a4a8c997c88d868b98ddba96ca9b85897c684b883a8dc7cb8
col11:   82a8976997978a649a67c96a6a889a859abaa8b97a77e7697a7b74b6b88868ad6bd93a9a7c9aad57
col12:   83a97a62a94a786967998ac8e698ab5ac8c8abbba9997a7a796757f89848997a29a87677ab79b798
col13:   9b996b75bc3697b59be98a6848bac9ac6c88b7885c9d98a8f6a6bbd98b9798765889ab3c95db7d7a
col14:   469945999975c897877677c9a5b78b9b9999a9ac98e79779b6a99e98a69977ab945387465897c7a4
col15:   7b9a8756aa8678a9468a4577a8dbaa6a8b8bcc9779d99b98d9bb7eaaba77d7959a93f879a5499ab4
col16:   6955867786e89b98887a78d9ac7797c9b59b59b85a9acc8567a6b6a9ab8cc788c77b5c8aa79ba455
col17:   9766476898b76ba3b8a8978879a7ca5a8a88a66a687759995d466999a6669b769885779988799937
col18:   a7a79bb6c7798c68b7b7897598898aa69bab7c9868b789759c8c978a76657ad648778a8759aba788
col19:   96a6915b3b9649589daaa67a88a8869897ca8b6e77a79897dc9b967b59b9a7646939888cdc99baba
col20:   647268a976599598557ab67b68594ab8ca58578999a27679c98d8858ca9a98a87cb77b9896b89aa6
col21:   977b89954a9584798749cb658c6bbb5ccb86bd9994aa8548c8b79b9aafaab5c7c5dc9998b98aac86
col22:   6688b8a8a76a48788ba98989baa5dabe7b76b888b58b88a86b98a89bc879987354958876a7ba5749
col23:   66a7a7a664f7d678aaa76ea7d69789c777ae6759b8679978aa797698aa68978477556ba676b649a5
col24:   98889a8588b98887ab5569a46866faa4aa6ab9b7798d8958dc5b88a5c8eca8c66997a69879887875
col25:   66676855a79487467775bc57967b59b999a6b69899979998c598b9bca3a5c8c87c7678a1776a8767
col26:   ab89b7ab6979eaa7b88cc97ba9b888ba89bab9bc88889b75a787b88ac99cbabba86b9c87aab8b999
col27:   9b97779969a69a78a8b86abbbbbce9baaeb9e68aabbdeaa6bc79aacabacc98b96d89a88974a9ab7a
col28:   66bb9d766779b789a8b6a7beaea9c9b8cd7cadbbcb8cb989978a9aaabdca9bbaba7ca98978a8cb9b
col29:   7864b8969867a99d99b889cebdd9c7dd9988d6bbdc9caa978d87da9896aaf789bbafc9b8acbf7bac
col30:   9bc49ad6ca388c8997bbacddaadcaad6b8d8aaabc8889fdcc8aa8ac89bcbba9ccd67aab9776bcb8a
col31:   babdc78bd88879896797bbadcdc8cbac789b98b69bc4fd79988adb4a7b99c9dd97c89bbc7b9a78be
col32:   579a8dadb8ad668aa6ccdaac9ec9a7abba7ad7fec6bbcdb99b769daab69e896d94938dbbc96b9a75
col33:   b6b78b7bc8c9878b7abcb64bd896dafddcb998ad9c9acdb9cfdab98c8aeb9dbcabaab7b9abbab78a
col34:   99d9d99a896a9aa86ab8ad7dce8ba99beed9cbbbc74a778bbbacaabd7aba99bcb9b879a69cbbdb96
col35:   859e99dccbc897ae9aaacafbddbceea9bba9a8daaccad8bf9dafaafaa6daac898c9799bb878abbaa
col36:   bad89c6cb79bbc5acba9d9adadebab4b8bbcac9f79d89c96acb96a924a998a8dc8f5c8a8ab4ccda5
col37:   98cd87a6c87b9c99cbc8cfd6bc9da9acacacb6e9abbb9dcbaabcc9deacefcdbdbda89aa87caac997
col38:   7caab7db9a86a986a5bdb99ba89cadd97ddabbb7aceacd5dfaa8a8887c9cb9b6aac96793b5a59aa7
col39:   7dc9879ca878ca9bccabb97b9c69be98a9baac8ccb98bde7bcdda7ec9d89bcbcbccb979a999698b8
col40:   baa87c7c87aa8c7a8a8c9adeaeeea8bd7db9a9afc99afba99cc8ccaaad89bd8adac99c76ab8b8c8a
col41:   c98695ba7ac9b5b9898aec68cdbbcdaccacbdcb9baba6bddae7bcb8ebd8a9c98767c969ac7d8b4a9
col42:   bb8aa9c9fcbcaabbcd999c95ecbcbd898899c8acdaaaec6a8d8de7cc687eaa98a79adbc7dbba9a8c
col43:   97b8babba77cc98cabadf9bbafb9ebbdcfdfe6bdcdb8c795cbecf8bca8cb996a8cada99dcb6bc9a5
col44:   8daccad9b878d9accce9c788ba6cedfb9af9cb899c8cc79baaadabe8daebbbbb8c769c8cc95bba96
col45:   c6adbcc8c5977acedfbbaadcacb9ccbdacdfb98af9adb9bebcdbc7c8b8bbdc9b689e88b8bdc57b67
col46:   aa98bcb9869b88abaa8eb8aa68a9bacbdcb9b9bba9996647dccbbacd8cb9fd8ca78a5a8a9aa7b985
col47:   bd8c9a6bb9a9bc8c9cab7a79cabdb8db896beacb7bbd8dcccb4aaa797abe9a9a8989aac998bad8c5
col48:   b7cac6977a96c89bd999ac8aaab98adbb9aababbefb6abbbfd6bb9c88bc955bc87a8929a8875b6c8
col49:   56697c58b9ea8bcdcbd87e989bb9ca7aae797d99ceddc9b7bd7ba9a9a7e9ee7978bad996dccc9996
col50:   dd8f989c7da5ab9b8b9df7a88c6ddb88dcceb9cba9baaa9fd8b8baacb6bacac6fab5a9b579ebe96b
col51:   57565a669a89a658868a89688899b8aa77abb98b9697678d7966b7678c87aa86a7a6ab98b6979a85
ROC:	 BPix_BpO_SEC5_LYR3_LDR13F_MOD3_ROC11
col00:   6311541556375b77754986955343a857a7474c77986a7573856b7989829a75a477386b6559449d88
col01:   636484877972a878769994876977b9aa949a7ba6fa73b6b9b8c88789c5cb8c68a5e89db8ca79fbc9
col02:   626a577786184826665597685a9636c6ca9aa784877a79765a77a87b89aba873a784a87568e889b5
col03:   64874679a5a58a787c788aaf76b97a7b826a9a999778b89f9b7bd86a7698ba95d6c98c9ac889d59d
col04:   473956984877796cb9996c68689ed8787ba866bc77a7d6878b8abc779b4697adab88889a6aa8b768
col05:   9586447b5376a882749ba79b99ad49b989868a899accc5c488c7b9bb9aaec99995d6c9899cc79dc9
col06:   95c288588668585576795a763878389b4669896996d9b8ab79acca99cbd78c95b586b7b85bc76666
col07:   5482948a3873b956b7648c978aa998789697bbaa78a789d969aca77967987bba599b8987b9b88b7b
col08:   647165527383366c4589ab5599875cd7868588c876d8c97969ca3a84899caabf988ca59775a9bc76
col09:   7479388677756d79999a96b853b6998776b87ac9978787bbbacac9c8baedae89b958a8989cca9b88
col10:   797a34745a58737736b7bd767d68e88d8bd879997dab99a4785a8797aba8d938a4a96678898979b9
col11:   134566766266685696816698a86585a58895b6b9876984857cb779e7337bb698a39a8ba36be98a58
col12:   4565b658756639754855a8926997c59a948c96aaa89a95c68a8c88ccd66c997a8aab76a7b98a567a
col13:   9a2341664747959b888797677d7778979b7998798b98da98a9b7adbc7776aa9e867db9676948b7aa
col14:   7835356593257788d95b689778ab97a7c1b4a67a98c888d76867ab9b78c6ab7b698557ad9cca67c9
col15:   f45277b95997578477a6866858a9cc9e67b77944b87b998a876e9cc74d9c99c8b88999abc68ac689
col16:   646787bbc88786c536447188997cb7b3a8985989788659987799b9ac7ab778598a7a5b5bbd6a9988
col17:   163259677784869a47485ab9ba9caa885979b78b999b788ab8a68768b889d588cc755797797899d5
col18:   2174597471653884a7a7b568718b9979d8aaa7bac86b9bd87aac996ac4bba8abb8b5877698ac7778
col19:   7477426978355a96a59953a88666db2acba6aba8597a8a958a9a97b4a9bc7cc969a89a9a98dbba82
col20:   568436648c669758546675b647b87c88d75689a876caa7c8b9ab4a8498966ba89b9b96999a979b64
col21:   4566666554866b56798695aa7939ab59798a87d689bcb5beaa9c9ca88cbd968ad5a6d89b599bb8ba
col22:   57776966787657a835657d778787b6b888b98ba88b99bb7bd7cc8ac9ca6a9aa99869698bab9a5a66
col23:   87317b93694384488583849a5b9b78ab87998a67957798c8889666799a748be49a898899a2795575
col24:   547766768497779979684b5ac6775c8a8bb95597b998896aaaba9979acaa978b5b6a5a98859848b8
col25:   86568358a5858625669876797b66679c7c9a8ca976bb99caa7a7a99babc5a8b69b7768ab88d696c8
col26:   265495899553769a77a578797c5d865ca89a68baa96abc9adcc87ab97adbadba99a86fda6cbe9a69
col27:   b5587a7b689ac979b879db9acd7c87ba9be7dbc7db9aca4e9bc78bddcaa8b988d8a899c9ca9aab99
col28:   a77858a8b569679c58889ccb67aac9dcacacaaaad9898acbb995ebb999a8ab7ab9ac56ac988a6989
col29:   95b998ba78cab9a86abcc97cc6a87acccab7c998997acfabcacdadfbc9babddbc889c99ccecd88b4
col30:   977686d968aa967ab8aa7857edc679d7b7989bbabbe8bd8b5e97fce98abacbcb6467b7c599c97b75
col31:   77769a9a79b5ec54a6b8abba8ca8b89f7baa9a9cd8bcaa6aa9dbca8dfbb9eb989bc86e89ebf999d5
col32:   88698959b5bb8755887a7aba9bc8caaaadcbc894c9abe8b99bd9ac9bc696af67ac8999d67b7988a7
col33:   aa78795b7b7c8889cc89ca59febbb7d6adcae8bbcbcbfabbcbede9bc9bbdabacdd7ebb9a8c8b7bcc
col34:   44a59ca69abc6b87987699bbcaa979dc8b7bba887cbfcdbcbba9b6cbd87dedbac877b7ccca88acb7
col35:   7558a77c59777e8a7788be869ae9aaecdbcaceb6aca9b9d9aebf4aa7bdccbbbcdacc9c8dcb6cf9b9
col36:   67abb8896b6999b78d89bd6bda889bdbe8ddca8ad9cddbb8d99c95bbed5a9cfabf8ddaaabbecf989
col37:   97a599ac967a98b98bebb8dc8ab7aa9abff8baab78abf9dcabaad8c7dca6b8a9bcbb9bbbcdf9ea9a
col38:   9a9aa7e7cb99ab8acb887cad99bbcbdac9bb8addcf9afdbdbb9cbcf8ecada68c8baeb9ecaea97abd
col39:   94677a68686ab97ca988bd78ae59aba8fc7aebb7ebaafddeb9bbcbafbec99bfdbaf99a998cc9cfcc
col40:   88ba93a899ccb79a9daa9b9fbbb8bccba9bceadab8ca9f7b8ace9a89b5dedacadacc67bda98abae8
col41:   98a77989e9ba6bcbcfbb8b7b989cfcfcbbc8cd9ccbc8aa8dab9c9cf8aecaddaabd98ccabcbbf59bb
col42:   765eda78aaa6bcb8e749faddabb8eacc87a9decaddcbcbdccaed8998d8c989badabaadaacca7a9e9
col43:   59ab7ba9ca689a49a4a99bbb9bdb9abc7a9ecbd9fdaebda7b5cdbbabf8ceaabe76aaeedbc8fccae7
col44:   589a96ba9677aabdb6ce9da8abcba9dfedabcd8bc9abbe8cc8bcaeba7b7c7b9ac9ab9cc8dfcccb93
col45:   765888786ba7b7dba69bd9c89dabdcb7ddcbcffd9abeb79a7bb99fadacacacba9bde9a88b8eccbb8
col46:   568b6bb9ac88b7e99becdab7bb99a7a9baed9b9bbcadc8abdbc9bcacacaa8aeabdbbdadfccc7ecab
col47:   98b7b9c8ea889b999a9bbca8bcb79cadfabcedca7b8aae9abd9bc7bcaad5b9d7dc7cdefcbb9a8ab6
col48:   ab9bc9be9878ab9ba6994bc8cdcbc9ca7e68b9bb6dcbaadcb989bd7ccab8d8c9de89eab68a8da8ea
col49:   8a8a9ab6db9c8c6ccb9b9bbc9f9a9ba9ecbbaafda955de87cbcbdeebb8da8a89abb99ab8eacadcc7
col50:   bb8899bdb89b57a8c7cbaa92ababcb8cfccea8c688b98998c8ebc8f8cba78db8ccacd87dabbba89a
col51:   6577357c8583979668978955a869b939a9b8b6787dbeadbc8cb9acb9756b7bbbacc9abab8c6bd998
ROC:	 BPix_BpO_SEC5_LYR3_LDR13F_MOD3_ROC12
col00:   56794646686658563595785775398579aa96ba36a85382883c658785a665559da587a55225784879
col01:   67378979aa7aa86798677589966a788c7ab6b78999878a935cbc9a9b92aab997896598967a888777
col02:   9354776748763776a8b99a66a689c9ca4396b7a799d4857b885c789a7994b5ba85a376785a667817
col03:   a78768858a8c9cab59769b6c4a659a88887a9b9888ab869947b7688a86a5969b87aac9b7988879cd
col04:   448965766c6175656735685978c4aa978cc784d976cbb5799897667d5674768838795c878b7abbd9
col05:   6968d7836b56557786876989875b96585abaca8ce5889678aba84b8885d67578a99a9857a97878aa
col06:   876768684896a576586899a86b659c8938ba8c68a5aba83b799d57abc668a98457d86b6987689ac7
col07:   78776798914a694376887835888cc5bca669889b7aa7cbba857aa9aaaa5987a78ca87a9a896597a7
col08:   6783a3755879665a58487b6aaa67c8b9676877768857b6969c8789b997978a76b4a766b8a948b546
col09:   52877b8aa73978d5b9bab8966559484a97d876a9b9969699aa7ca89cbad9968a6dc99a7957658a97
col10:   752a79776a8a4395b97aa49868b77998b9b8599a3898a6aa757a889a89a9c89a9c64768885898a96
col11:   352466698a817bb565966684589ac7cb8883d79946a56989b47f79789876d78b8a7249895649c576
col12:   57952436964c98a86775a6aa765b999658996bb7aa74767a798b8754b99ca99978869865a5897836
col13:   7887759678b55877c68968958b5b5859aa799999b9858a9ba8d79b5ab9a68aa99cc75987b57bf7a7
col14:   64576745955895574686668ba4898d7b766a68a778c76896796897aa87b7b6998aa8878a7767b898
col15:   448496737757855786a788e47788988b99ba9bcb6b96bd898669c8a7a6bb978bba8979ba7b687388
col16:   9688958528546769958b944368587a98a9a678ba989b979a888c998caa7667999a483a9ac6a68ba6
col17:   7173747475721866a5535749b859987ab7b8d7a9a586a8bb94bcba988948799596767a8964647965
col18:   55375674723b368669976777b955d966ab8888965b8688c478799687668a877788696c585a577867
col19:   685a95646777756a6ae5b6939ac786a788998b886697d9b99a99aa696988747c7996a87bc9abba84
col20:   445b6669867675979c658798887b685a6b79c6988a57a87793778aabd965b997a7867666c7a6ba84
col21:   48777b77a88547a5659a597868b6a85c699a915998acc8e4889a877bb756db9aa7778dd6979598a9
col22:   766a57787a7786897a8767558b6bb8737a8689a898b4b9bb965b8886a7776e88957896a6998e7576
col23:   8575955479a89b8c8699475946c777697a9799a68da9bb7ac9768a889aba37a58989a867a9595566
col24:   883c6978876989756989397a88b68989b6aa7667b997bca6899797a8b99968868a6975a99c776752
col25:   865479777c896a78598868a78db9a88b95a68565498837bc89bb6aba755a78a689baa97bbb7c76a7
col26:   6687687a56a5a69ac7988abd7cbaa8a9b8aabc98cdaea7977ca88859baa7dbd89aa9baa7bcaa6a9a
col27:   9a677c896c889788699a68d7ad8c9abb98bcbd9a877b9a89c7abe8ca566adaea89abab8da896b97b
col28:   57ca497898a88a799a88899b9bb9b8a6bbb8abbd88aca8cbcaaab9797c887a99c87765868ae6b899
col29:   b7845a86bb97cba96978a3a8d8bd97bda8bbd96abb8aedc88bebdb96cadba9bd779bea6895bddbd9
col30:   a8798c8a5b69a7b977898bbcbcc5dacbbc98bda96faac9bc8bbaa6bdbb7a9ca764879978a98a8e99
col31:   57667dbb8ab9a77769cd8b8ea9dc799cdbaba6ba69fccb8c9bbdcaec87ac77ad79dba99acb9efbbb
col32:   a9789aa98a9ab6c69aa69bcad977bdc6eceedccbc9a9ccaa8ca98acdb49befcab4c8ba768ddb879c
col33:   a9abb5a9a675cc98c8a9c9a8adaeaba9abb7a8b8acdcac999aaabba9b9bcb9aba79cda88bb9da974
col34:   797a88966c88d8cc8a9ce8aabadabaebacaca9b7abdacad8becae68cafa5cdb88e96ec87ca8ab89c
col35:   7c85b6b5978ac9b9dad9aaab9cfa6aa7bbae9ccc89bacb897aa8acca9ea9adbd59b8c99bb84ca9aa
col36:   69c9bac6878799b99ae9a8bbba8cddacabf9a6aabdbfb588b87d95bb9c8c8eaaa56ba9dcb9c79975
col37:   88ea9ccc9a7d99c8cabd8aca8d799cccb7df9dbbcacecccce56b99eaaab98b99c7dabd6a79985a89
col38:   6b77d5369ab8b8acabb989c9a8c8fbb7ccd7dcb9ec8ab8dc8ce5bcebeaa9e9b98dbbeab78b89eba8
col39:   7bacea86c8cf8a8ada5caacbabcacbe7acba9c7ac9f8abacdbdbab9abddefbcdbd79ddbd7aabb966
col40:   7bc9acce868a7acda9cdacdccbc9bddfbb5ddec9d7fcafb9dcc9cdccbcb997d89bcd8ab9a8e98b97
col41:   b988d986bada87be999fc9da7cccdafeabec8b8abb7bfb9cade9f6a96c7b9bbc8ce9bda999eb8e6c
col42:   99b7b9697b9aeeb89aa9ab7b96ac8feba7d996c9dbcc9dbabdd89fbcfabe9aaf7c7faa59a78bb8c7
col43:   fd6eda9bada9788ba89bda98ad9898afbec8dadc8bdacadc9afcbca99ca99ebdb9b8e799baaba9bc
col44:   b98b98ad89ac8e9a9b7e9db8aaaacee89aacbf9aeeefa6caa989cb8cccacbdabab888ab79ca89abb
col45:   aadae6b9ad98b858bd9ba7caefcabecb7bbcd7e8abddcfabdb9bbdc8bccabaeaa8b8c8cabc99a8eb
col46:   a5beb98a8cd9acdaacbacbc8bbcbfdaa9a7cadacfbac788a68ebad8cbbdcdbdab87caa999acca8ac
col47:   b9c8cbcb9989a9babaa9fb89ebedc6dfccdda9a99dab9baaeeb9ce69dcdafecbdcc7afacacac9cd8
col48:   cca9dc89d6a7cbacbbd9aacc7d99c6f999dca89bbabbc9db79fd7ccbca6adb8a98da8b9ca66aa8c9
col49:   9cb888c6b8cdd9a8aa798dcbcdeccaadb9e9acbc6dac8dd98db9c6c9bacc7dba9abcd98989a99aba
col50:   eaad89bdba6cbc9cabaabcd8a9cffcd9cbba6e98af8aeb9dbcbfeadbeaecc888b9c86a7989b68ba5
col51:   727788db4799a986689b8ba78a9699b7bb67d99bcaba789a9782ac976bb78796988a8696a9a56bc4
ROC:	 BPix_BpO_SEC5_LYR3_LDR13F_MOD3_ROC13
col00:   4875a59797a95966256656c958988c9ca9668ac8a89679698ac988bcb87cb7888896487a677d9aa6
col01:   a897b787579476b587c756bdab7c58f9aa7baacd6aac79e5bb9eea9a978596a8b7997aaa83d7ca6a
col02:   549795c9a878ba68b9797b76964aab8997ba7a7cba9ab89baa968bc8978c856a79ca57b769838765
col03:   84863697a5ab67b989a448be99b8a75985558bcca9e799c9c95bb9db8aaaab6ab9b87d8554d996c8
col04:   758458759b976e997aa85bd578ab9bad9aa2aac987cbc8d978a877eaa2c9c7c9b66b87cbaa7cbaa5
col05:   677888db6a6adb8a25a6bccb1c89b87868acad8a5a89c5fb98c8c9b1e8b68d9bd88b89f7899a8676
col06:   75498e982ad89a68798f69c9879abca98acce9b8cab9b79bfcb78c87ce6dd5d859aa798992bdd98a
col07:   7976376184477665668493aa5a8ea88c89aec98bb8cbb8b8ba5aca78966d9767be9a8c8b757ea479
col08:   878895837a54968869a95abbc9c99f46997c8a649597bb58d79aba98caced88b979bab79a459a879
col09:   aaba888d9796797d9247c8aa8995ec9985bc9c488a99bb99cc9baa987aac9ac8aaa97878766889db
col10:   4584385a9899a578a5a7b4865a99a795b9d88a8ecb94999b6777a856cbbbc695d6ac86abeb95668a
col11:   5464717576b868368595a48bafac9647589f9b88768ad9a7ac3688e98fb99e6aabb9d7b968d96b87
col12:   81261764c7a8394aa688b27aa69a9a67948da98dcc989adb869eaba8cb7ada9e3296abb8587f59a4
col13:   7368988667559967bbca9aa85d9db8ac89aa8aaa98aa58abaae8a885b9c89bab86c479ae7729894a
col14:   54779a33a69867157ac799474a79868b97af59a6799886578bdaaaac5ba79da567ac6d9a659a9967
col15:   474774687c768a997a74899597bab8994bc7b8cd8db6c9ba6abdcb98aa98cbb89b87bc8c84a59a63
col16:   5c6a7596573856a85588c977c5ca985976aaab9aaa9649ba8658baa5cbccbb9977b969a58a68e6a7
col17:   6ba3b26685979977467a5a82ba49a695a75a98658988788a849ab479b88b999aa88b6846587799c7
col18:   5736a5a46a97637b49669c59a686885ab79a92a978777acc4cd98bd9a7a9b8a66bb6a7661b479a92
col19:   5265759583398d85a9a78878a56bb8b588c99d27aa476889bdb586a68945c6ce57d79b9ab897ac76
col20:   5244a968c8994668666a86969cb556b7b489bcb86884c6855658c87859a59ba8b87b7a57854377a3
col21:   65b72d97593cb8a696783976d487997bc976b9c6967da756a9c68bc87b9a7a6997c9978859d8bb9a
col22:   78464477b8748839996744778968886b5d8636c7a7856bba9a69a7d9889888aa759a788b69a98db3
col23:   97758465a7786859836ab937b567cbd9c79877bd6698c98a8f9b7b886a67598aa76356367b95368d
col24:   51b17475c76536659652a5c8b8c3a975ae8687c7b9a8c4919b7ba77aa86b8974744856867cb48984
col25:   285448b567a46886c59495b6747a8a5bb74697b8996876a999889979c7aa9888daa5a897bb789375
col26:   7899a839b6866da9a879abca8c8899ca8baaacca7b86bbecbc7b5a889ea97dbbc7bcec4bbec89696
col27:   88758a7953a67ab993a3acdca956ada88cd6bb79ad6c9ad78789dfda9ab86bc7987abb5a5ab8aea8
col28:   a99acaa8ac6aa89d3a9875ba7888ceb9ab7c8babe98e8999a8abc77b99ad8be76d59c7c7aeb7ddd6
col29:   8495a596997899f69c84976a988c97a77d98b6887e68db988ae9b9a76bcb9476b976763ba9939aa7
col30:   599367b8878759b9aba8b985a8d87bc88aa8e9da89dbbc36fb5aac9ab7b8db947978ccab9749d9ec
col31:   a37c94984898899aaa69bb9986cf7cbee9d9ccacddcbea7bbabbc89cbfbb8cf59cca79bcbc7a9c97
col32:   95887c6a9779577986545a79d7879cf7cb7b9568a79cccf7b89a9b8c9bdabbd6eacda68acb97bc77
col33:   a69a989a3b98bacbba9a79aa8c79cdbb8edc8d4bb99bc99b9b989ca884879b6ba8fdbd87d9ac58e7
col34:   3b784868988355689acbb6da86e7b888af8b9d6eb9eedc5cc98d99fbcbba68cbe899a99b4e8bddf5
col35:   a74997a8787cb799ba98c8a6abaa8f5bacb3a66bcbbcdbcbcdaaaca59ce99dfb9ebcd97b4979bc48
col36:   977b98b9cba7b786abbddf8ac79576cfb97bfabb9ab9ccb98a6aa6bfdacbacbb7cafb97bb8ab697a
col37:   843975eb89877969889b7bc8b799d599f76ad9a9cdb9c979bfb9fb3ee9c9bb9bbcb7caacbedba966
col38:   58ab778779977f787abc9a97a9aa89e89ebbaadd9d8dafbcfbdbb9e99ddbbc9b7aaabafaddcbca9c
col39:   a9a68677accc7ac7c753a77cb7c99b6edb8a8adc8bacebfe5a9afa99bbf9a68b9a89debbbcadbc7b
col40:   69997689b6adb85daa7babd9db9beaa9fcb45aeb8dfabfbbcf8a99c6db97ddccdb8f9aab7a684989
col41:   89798958a886a7889a959cc9cbbcccaed9998c7bca99eb79daab75c9b19dccab77b5ebdc754fbb96
col42:   b695777a8d8a8ac6bb96b8bea6babdfb8bafd9889bc6cbabbeabaa98fcd7b5ababa9c9a5ba9dc6bc
col43:   899897a59699aa99cb87878b5af9be87ee66ba89acc8968cb9bc8bbabb99bce8adb6fca8d9aa6bb9
col44:   56687867b89bbebb957e98ecb88c8757cbafdeaf75cd5b9b9bcbc4a995a7aae7bcfabe6dbb7c8ac7
col45:   8965baa99b8abbebeaa6ccdac79cbae7dd8fceaaead9bcecca666f7b8ff78daddc6a7eaaa9f95f74
col46:   6a7989ccbb699a9bd9b998d89889cc7a7a6caa8ba3e9e7868ac97fd98bccfb75b8fdac8caec8badb
col47:   a984a5ab78a759a9aacc78996b7dccf998bbceacce899c9a9afacd87ffc9fbb8cd789997b98a6a77
col48:   7b4a955967c6bc5ce7989cdbfb8abdb9b8aacb7aadb7a9bbaaca8d8cbcc9d9da79a5a89a85ca59d8
col49:   47caea56579db98973bbbac5ca4fbecacba49db7e4addbbe798ea9c4cac89d9accbbaa755a9a88b8
col50:   6769b598bdd79bb77978d99ecabb6dccd8cec7eadabbea7b9adfcaeabb9d7598caac8ec8f8c99865
col51:   628bb8923a43c8376c858736978778a975aa8781aa78bac6678accf378bbb998969681597adc7a97
ROC:	 BPix_BpO_SEC5_LYR3_LDR13F_MOD3_ROC14
col00:   94b37685886688bc998658588a6489788488a5a6d8578788a7b38846b8699777598758864b1a7684
col01:   574aa3b967a9b89786aaa4a7678c8798c87889887898498389a9b9b679678685b268a98696b87c24
col02:   68275458578387a76985b67896979477ac889c9bb8fcb7b99c99ca8b9c9787b9898a539755588a83
col03:   587758799367879a5a93ab9c7ca99ad77957caa67c68ba7a77978b98578879bac87859a56786a875
col04:   367a47b85a98977c8a8989eb77ca7989b65ca7a6c678aba689fc67aa4a888aa978a8b874b974aa85
col05:   6444557495557675b77abb76a7ab79795cd9ab68b99a499ac8bc9b8bf887b8cb89b3868d76778965
col06:   b56777a884a69889b669997e8cb5b4c9c89dad46c998d8ec9a996d99d9db9da7ad8a8a7688a5ba36
col07:   b8466d7866c649b84ac5aba4b8a9da7aafd9985697a5b6bc9b895ca8bcc7ac3c7bfb6a69689a2487
col08:   78b77889676526847875489d9babaacaaaa9adf9a8a74876c5abac96a8b64579a69d8c47b7b679a4
col09:   5875bb89ad76b94ba99bfb9988879c68aabdacc5ebaeca97bc879a9b59a9c28aab788978897a7774
col10:   c95584abba85988598dd975c99ba9bb96fbb9bb76abbbc9d989567b98abd865479988b578b698a85
col11:   a894365987355c75b7a8499795fbc49b9a859c68b9cbba68a97b7798b379a7c9787a56477a879375
col12:   c89aba9996695d9ca5988b7799868b8a96ac9b7e9e84978ba95ab9777a9bb36897bb98a55e78a796
col13:   a87788969799768b69c676a89579ab4aa9aa8968b898ecaa99bb888c6accb9cc97987baa87673b49
col14:   78748588a68a436786b6ba886cd9ca5d896989bb94a87bba64ab559ea66a889c6496a4862bba8467
col15:   874968c5999a46ad97abca99a679a8bd7a98ac8979cbdab8aa78857d5a977578b777a4a89aa78886
col16:   c478b7abb76839a96ad9a797acd9d788a7a7aab75bbcd967ebbcaca8ab9a585aab977b97ba66997c
col17:   56a77b888967656a986798b4689bc59d796488c8a94a8cc56839b99956b7a6b77b76543767a83ab6
col18:   65793658932879996ab98a68a8c798999aaabb988f76a8a8bc88e889ba989a69899a98b4958994b3
col19:   a68338b5587975969577b98adb87798a95869bc9b9fbcb599b6769b4984998548976c46477ac3579
col20:   64888884875747389b49c579a496783a79a6ccbe797a7997867a7ab86878889948a6c766c3868464
col21:   76686657bb666cbb8b6c9aab9969958cb9c776acbacb6869a5a99aa76a7b865a7ab8a9a68a869d62
col22:   67588b98169784c9879cb9788c97a88b87a8dcc8fe986889d7ba36ab9bb4aba898ba9698a9b7a677
col23:   8636c96b9559b966b8a78885f7989885757a889bbb959a9a346b8869c77cb877a8c582a84a969665
col24:   9595a85a3b588576c7b9aa68859a8b96b889889b8aa99388a897876a9a97a977b9a97851719aa693
col25:   75767a488c7938999739aa679bb996b99a6888d993d6886ca99e7a8cac67c7ab75faa58ba476c898
col26:   689668c8888aac89a6da78ba87f67acda84eddab9b8cadb799bacd5899ceb899a5cec9abb9a97577
col27:   887b5b99868dadccabb98a9aab9b9ababb7ef9bc9cbea79aa6b76cb8bc8aacaacbbac965d999a868
col28:   9879ba79cbbbda97c9c9fbd9c927b66a86aafb9bcda98cacbba8add97cbac9c99edb58bab6798a99
col29:   9ad659b78786aabcaadcd8b7ca9aca6b998cebdbaafac68dcdbddadaa988c8a899887d898dbcb898
col30:   7a8697b8a695bc7a7adebaabdcb8b99afa8b8bcda788ed8989999beca7b9c7bcc859f786888ba9a4
col31:   777b6cca98797bbbaacc89b69dbbc7f999ca7c8c8bec998dc8a9c9c898ce975d8dfd66bbaeceb8c4
col32:   5bcac9799bc8a78c9cad8ba99ab9e887c77c898cbcaecababaa99cabafb9f8c9acba9d67a9b48cc7
col33:   c9b978a899cdaca9ad8e8b87b9bdebacbcdfab8dabbd7fca69accac9b8e78b7cad9ddcabb8c87798
col34:   a5579a7698b98faaddb8b99bd8ec86d7bccb88ceeab8caa688cadbebc99a8adda5967c7bab98cfa8
col35:   a9789a89ba8aa7b79a69769fe9abbd9bb6bbeae8ea6abead7b8cabbdd9cb766ac98bfb8aacd9988b
col36:   689b88999c8cbaac9d99c8bac9dd8caadee9dfdbed9b8dd99ba9b9cecc9b6dbb79a9bb99c7ba7ab8
col37:   9b9aa4ba3bababb87ccdafe7dbcaddacdb7dcd86eaa9eadaccc66cbbee9ebde9c89bb69b78a9f9a8
col38:   6d84a3988abba97db7faecce9bbda9dabd9befabeaa7baba76cbbe6adddc7bdaf8bcbb9d98bca58c
col39:   7c98c99a9798b8bac7b9cabc6ddb7fcda97dd9ecfaa89bae996beaca68a9b7d99cb7b8deb7d7ba7b
col40:   9a77e8aae779cc99adaaaf8cd7bfcbacc499b9b8799bccaca9d9acacbdacadbccf66c8aab7b9b5bb
col41:   96ca76bcdcb9db8cbbb9a5dabec9eadcfbdbfd98cc875f9dafbabce9d7faababbd896ac8cca9abe6
col42:   8bbcbbebbbb8eec9d869cdcc89c6cec9ceaab8bcaac7ac6bfbf7cbbca8bdbdc9cc8b9b8b4a76fdbb
col43:   9b9daaad7c8ab9bebdb79b9acab6cbcaca96cc989bcffdbc8cbc8aadcecdb8b9cb9bc7db889a8fa7
col44:   8498dfddb5bc89b97cc99abf9bad8adf8cdee99ecfbd8fbb8bed9bfedd8addacd7abaa9b8aac88b8
col45:   7e99cd99badb7ac9784bf9c9c89bbaea7a88acbdcec9cc89adedbabc9adbfdb9a9b9dbbcfdea88c8
col46:   8a878788ea98aba9bb77ac777aeccaf8859fd9fc9edcaab7dcbeb8b89b9bab9ca8ca5a9f97ddb5c8
col47:   dabcdbe9cdd9e58cf9bc9a9cd9d99cdc7adb9798ce7b99eb9caeaa9ac8b6c99ebaa9aaae9ad9aedb
col48:   9b98a9a99bba89a98bc9a8ca77a9fcbb8ecb7e67d8e9aba89e77b48ceaea87febcbcbbdcf9ccebc9
col49:   d99668ba86aa9cae6b99baac78fbdaeb7acbbdd8ece6b8b968dcecea8cdcaeeda8f7caa7facab9bb
col50:   7b978aaa97addc68cbf6a7efc8c6fa9c98b9fdafadfbacac8a88b9bd7ccbc86888aec9babdbebdca
col51:   97888797a6b48757977949ba46bc987aba967abd9aa6db78758c894b9d8aaab69654979787998ae7
ROC:	 BPix_BpO_SEC5_LYR3_LDR13F_MOD3_ROC15
col00:   53796676437875877558a5767621438a779a66a66686644a65667934375987643489366789585621
col01:   a7a693942567659bac56837899562276579739aa4677988837b587277b7538687539614334841644
col02:   565285455998677597586798787787a9778767875478698ba7698832c2989768629b587421876224
col03:   57157555853471684878aa4a7a959a96457659897bc974778a78878477666a999515826552685647
col04:   8797365569a6839886969999aa98b5b7999588a8646789855768857a636968a65666884683578133
col05:   872a46864a794368a887689678227969a86a7675986a57897666869658775948853565717c537121
col06:   7664965ba7a985b795866757b588877a8c8979865aa79aa7b8a6874899667a967a86a75367642745
col07:   66b5736777467659682b86b6676496978848769564958a65858ab477679888636686254875366573
col08:   4548b8666785753997b788789aa7986aa85769777a96479787688765579578647557288374365564
col09:   738777984a38746579889589638892a67869c88997aa89698729888d866888279776741894381742
col10:   676557763655657c88777598a9b586599997965767a68a5963998b4a586777896755575256357644
col11:   76737837554697678874549889678677c7967798929787a7744669666867666934547b7747577711
col12:   453753a5a65965457989886acc99788e579877928c674a6599a8679296895756a658443555477577
col13:   377596a769795778787778776798858977877795aa69a766a66889885a7684957685753336894495
col14:   79593567676657865977926877767688a59897a66a748756a734a963778518326946753585434145
col15:   65414769686688468472b7767593a76887b8767468588568979655796746a7646467664668157341
col16:   a4874564546466889738789775b89a7a7675aa9b999887a56956877967699a57585a776534325663
col17:   71454587766787684725a66777379686668668589762589996756688655773657721669544735542
col18:   85a686686559379567c76799896657887776787c8588586988b89369695289475456968a769318a4
col19:   757469663577546736557869678879565778968669c5364757378986b56547679665665347626334
col20:   6654534769475697479566638687641666789997a6565769a984a254849739746764843264754154
col21:   54489855876978885a494346b757747498899778a9894776a8576859a688986a5647585564261654
col22:   8463456b569896578885857a7876643b6898789587a677276a88767b79a977513434477635345554
col23:   68755246855a56884844764697356a4479569738865895775459754579a739633857532346533335
col24:   377a28778a8755265a7846aa8b75a795854868754966741b65d95386866846763786556444335574
col25:   87565839676363452677295369586878785a8497a8654864877786397a5783867454655754427836
col26:   4989578396953887899b79a6968a8b59988696999c7899a9a76c59a98879657559a9559479767545
col27:   b756765765a873a999686768766a9877a858599438898699c775d5768b57756a5569887598746662
col28:   6569a7888559997799877956b99596be999a8997c8adb9aa59799ca796a859a98887563765767832
col29:   547693856695987756334884a69588a889979b7c8887a9798b79685957a98878585aa67a7a574913
col30:   8485a39588569a9a979a7979b8aa998b867a75c99898779a97c7c7aaa499868a76975666a5434674
col31:   7587556898654884687565a8567988a999b9479799988a77b768a9c9c69594649b25a844677a7891
col32:   665a695986b6a797889768aab8a8689c7e868cbaaa9a998d8759ab7ba978b99758ba987a685477b9
col33:   859799785853b798cb96977779c898895b8aaa7aa88898999a8c5689796986ab967a795797488754
col34:   6a96987a656955a887ac8979b9a9c97b68a9fdd99bb986679a8aa9ab9a9aa4a6694564a475766568
col35:   57868ca976a7674a77ab965c987599699aa97bc88ba5ab8ad9a99996aaa8a67aaa1894657a4b3441
col36:   788888c88a67b6666baaa7795ba7e98ab67ca7f9d598bbb987479a89da797385a6c58966ba876461
col37:   4775779b796688c86bc57c888ca6798ba88c67babb678b87669ab76783798988799984586b5a7668
col38:   a9ba7a99667b77a5ababcbbaa98a9abbaa59ccda798ab797aa5bac9aab998ab6a99a898755789973
col39:   68856c7779aa96a689a976a99bab95ca7d87bc9abc75a8b9a7578769baa9a7a86b6a627986669496
col40:   989989a99b65986889a5758896bfc77b8d7c8aa77aba889978a9bdc68bbb76a89a68ab8969836275
col41:   6636586a8978676aa6a9b65a98e98b96878a99bc97bcb9a86579b5887696a9889a74868846478448
col42:   97669885988a8788ccb998b76796986bc88ba8a998c5c99886b8a9689897b7a96a977786684c4752
col43:   39a85877ab6694587a97a889878ad89a8c9876a8c8b788b866cbc8b749899b482987976968969685
col44:   9879779aa76678d79874a779a896c96aa977779878a9d9b9a6998b99b88c7b99a96869b97a9a8a83
col45:   4887a8679995889a69898987bd88a79c6c9a79964ca688b8b9698a6b8c96996b968876989495a588
col46:   8b56788987c5877a8868999948cbba58bca869799aca8666979a6b7777aa96796a4773c9a3476634
col47:   45892b87a45778b799eca87989a8cab8986a9aa6ab97988685c97a79b57897489837989958887785
col48:   a9b98c9da9c8bbd7a88778b579b9b8666a9c8b6a9ada495aad78a6a878abb88655a7559788995876
col49:   877576757787966477c66787c798b47ba7975877aacac6789b58e998579b4985baa6695587685964
col50:   9899698a885ca79787a58bc9b4c758999bb7b898cbe5a987c89b699989a9d6579b97779668a76662
col51:   66567533442474777763489981558667a99987877496a74662966975947995744426413536863a45
