ROC:	 BPix_BpO_SEC3_LYR4_LDR11F_MOD4_ROC0
col00:   8584657578b5747879b5743ab8c89aab769a7779cc549733699a6a93895697769448681469274934
col01:   35596588749378988a778699963b99cbb8676a57a7778a5ab889879a9d898a6b5677385582845776
col02:   8768187869a8a565478b8a8a784d9a856ba68d797ba9d8b96c7b5c69bc674a7a96c7867799554655
col03:   797a768b89a959aa9b77a47caaaa7b898997caa96bb9b8cba69b945766d683aa8577755564455778
col04:   ba9a79a7a9b789a7b9758a86b6a5f8bb8a998584ae6aa8da8bba6bb87998ba789699977a7b65c596
col05:   8674b468446845556665b86895699f9b7a97b8a8a468bb7578897b95858a8a767b45345768977463
col06:   a86863679787787998a8ab9a7a68a6ab777b679bc78a8996c68a86cbbb89a8758b767aa46b7c5ab7
col07:   99749a698a7788a77a76786887979a7bcc697a8387979a8a989a658599889277a9968377885a5584
col08:   bbc8bb8665186bb6777689968b6d8ab75aabb8a5bb87d845b885a897aa66c85866235768b546a673
col09:   87b7998db688586888868788b9876a555b7a3d86b88a78aac6db8ba69ba88a887589786885a9a384
col10:   b6656986a77787a9a8867789b86a778887a8d9887ad87988797a367798b988799998696aa9b77577
col11:   645664b97a79977968a6b99b858795c8d5688b688c879889969c84a47477854b667c977279687978
col12:   7a488855a957766999d777a65b779a7a888a7a895976887986aaaabb86a65ba999665a5979676669
col13:   777967bb953778779c587dca4889b8888669789b97aba795bd7dca9754669587bac67a8473653667
col14:   75476b7566784975a4877a9acca9979a8d69994a798b59a6694c957a679ba5867c859869a6699791
col15:   7578a43875a2895a58a8a8b87389ab6a7a89b979a758789c895997a9a76595893589898789667c82
col16:   57449788167875856888a8b8c696b89ba48abb8869cb8b9aa8b659968977966957877a58668b5769
col17:   176746797a68468a655687876487a968877877bc8a5b75575958976688d789668cb66798a8378386
col18:   61743878454687896b9897a7a574888558aa98658e8b9967b6a99a697b966956c87a8176672588b6
col19:   63664556765b68a37c655a6878658a897ab847dab8ab8659984974a77a8a7a6583a549a697a36676
col20:   8936537477397988a57676589a77aaa8a6aa5bc68884a68a9988498869978785c636754a78566582
col21:   5566619583b67696b848b996988b677874b997ba6a9ba668766b4c776778b79277674785b67954b9
col22:   55588742857b7977469aa65b737797aa6a9798a98a9baada67a779988b6aba862757557957754787
col23:   a882a739a55597458997825c8979995ac675795879a7589b77a6ab8b667e9877998b962873776756
col24:   4567487966376995a6689b888985ab88b75a66a776a88c89587579465b7879a78a69b7577875485a
col25:   667545577585475969988678787a96868a97b989a5a7378574865575592dabb2899b9799367ba152
col26:   496888887775647da9469c8d9d8a9aaac78979bcdbdbdbdcd5988aea7d8fb88aa7846587b67b788a
col27:   176497a8787a289ab69a76998999aa89cb57ab758879798a9a58996a6ab8a7db69a6cc876b769767
col28:   697a8aab4b7b7a88a6678ba86a8abaacabdb5cbc5c49baabccba998ad95bbb9a98a768ac9c6386a7
col29:   784739567a6a59693989da8a8aaa9caa99a9a8896ba99babbb7d9c99a8978a997a6783a987755857
col30:   9a5789a8ba9787465ca8b8b689779a99afccdbbaa898b9a8a77adcdacaabc8b9aa795369a6b68768
col31:   5c998aa95b899868b9b79799da78b9bb9a98e8c8b595fb95c9ea89aa8abc9b799b989869356b9754
col32:   68878a6cb87867549669abad87a988fdabdcfcabdabaaa966998cbc785c96b98bb7669c38a895a67
col33:   978777975a957cbb9ccac89b89a8baaaeddb6ad98b9acbb9c898996cabb7b9aa65d9887c56a889a4
col34:   2b66a6758bba89998d9ec9ac89a9d88acdbaa66ec9cddcbdebbda7dcbdac97a7ba9b79aaab78a935
col35:   787897a69689c5b987bba48abbab8bbca9976bb8bcabadab9b9ab787babd8889c7b9885757b78685
col36:   9ba8776858b696caa8b97b7cbe8b8ca7cfb99cf8b7a9bcf9dcb9979dd9dbd888d9b6c9bb7c376873
col37:   59a5b55587978aac88aa9a76aa8a8be8a8d7e7ba8d89dd97cc87bbbbbb9cbcb79e6af98bc898793a
col38:   9566c9d797887a7b7cc79ab99f7f9ccaabbea87fbae9ab9ccbae9c9bbabcaaabac8867a776932b85
col39:   477a8a7c7ab797aa87a858a8ac6eacbb9caccdbb9abaeedadb9dab9a8979bb7abcb67b7d686759b6
col40:   37988a86abcb89a77bbcb78c9a97978beb696cbbdca7cacc9b96adadaf7aaa77c6789988888864a7
col41:   8666a68a68699bba96b9a999acd859bbbd78dac9b9c99c469bd8ab8b86a8d998bbb695da695777a5
col42:   ab6957581cb963767c98a8baaecacbaa8d7db9ababb98bd87aad9cdc7c3a8abd9dab9a758aacb932
col43:   89d799b9aa79899bc59c88cc9cbb8abdbdac78c9b9b79a9f9cd9a77ada4ce5b87b9a98bb86ba88b8
col44:   6a74788d98a684c6b8a79cfac6dd79caa8d7cab99cb8d97d8aab9dbcbdbacad66678a98da8998889
col45:   7657ac76aba9888aaab9bdc9a85a8cb6889d99cb8a9eb79b98aca99cbaaaaca669c7a7fab8977779
col46:   889977759496bb958c378c8aa79b9ba9eabbaa8bc9c85789abf8cbc8cb9adbbcacbbc9a65aa49a79
col47:   c75c88a7c989b988579a879d7c9bcaa7ca8aabfcbaa9b9ebea9c9bc89dcba8aa79a9aa59a6bdad94
col48:   6799688698bdc96a8ca89b669ab89d8bc8ed9a8bcb9aebbb7977a9da7ada7a87698f69779ccb9a97
col49:   9866995a98dca987dc598ad9bb97cd7c9c88cfcbcc7d7ad9e887a8caad86cb7b9b9767b859dbb96a
col50:   6a5b86697aa97ab6c899bba9aacdb9c9bbfbcba9e7c9679bbaaccddba8dbad9e989c99798b63a596
col51:   534656746c779aabb64768977d49b8a78576bca997a7a98b6ca6a68a89bac56a68788727536558a6
ROC:	 BPix_BpO_SEC3_LYR4_LDR11F_MOD4_ROC1
col00:   555384515841736b64826776d899a856aaba86778685c958b9999ba89ca6858ba787676969295775
col01:   67763675168a86b9476999ba9a88c8a78aab5798b6a8a8679b8749baa847aa88689aab4448889699
col02:   89985a468468a6777c7a968664b678c8865b8c869bdbc9c9ad6ababc6c7b89a7497b68626ba69588
col03:   75a4887656434a488489c4791898aa866958aa9d7879898a6ba69ac7aa9aa7a99b76987caa7c68a8
col04:   637888644a5679869369999a7b7bdbb9998b7bcc57a68aaa8bbd9ca9787a58caa58aa88999776998
col05:   867716547767679a18b6949b95679aa898b888a984bb7a866ba8899a987a9767c96789b65796689b
col06:   188897679255348b8a496a79c9679dcab7778ac9aac6799a8c9ac8a7b87a78bab9b797b6e6677489
col07:   56598676589969976b7a68697aa9c8597b6aabbab9bcb8a98b79c7595cd9776b999998bfa79ba596
col08:   9496569778619545949a8b7a88a7b767ccbadabc8a87a98899d7c8ba9859caea86a97c59a6969774
col09:   586879456868a9646b9a5ab9c68bb7db7eb7acbcbba9b956898796a9bda7a7b896b6bd879c9b9a97
col10:   1b855688755967a7a6a659aa5b877ba99696a77aab8b8ba988aca9a8c69ab98ada97c6ae98a75666
col11:   33586341397869694aabbbc9baa99aaa8377a8587988bbcbbca68889abaebb9a97899c559666b688
col12:   57514867626339a7a9998868a9b7bc4c976aa8b6db89b896596aab678ee4989895cb79978a789778
col13:   a5793878589555655a9b98579a47bcb8c997a8a8cd9acc9a77c89cb9aac77477a779999769989899
col14:   88469685986987bcb8959c89d859897868d9ca9eaadb68a7cb5d98897ac98975d887db76b5858c95
col15:   6b568487676a5a998ba8779d9799c799ba99bdb8bc7dcd7c8b9b9786b98a88ab9a8a78a6668aa8a8
col16:   7842593787859a89aab87a78a467b9c797bc6babba965d79b7ac88867c988d9a886c98b996999b5a
col17:   6578565432a586a894685869c9b8a87a8b9a89c88798e7878a95c8b6a99d896687abb767a9c2a861
col18:   9417a37399774b964988a757a8989aa99a9f478bb5bcb77a97688edc76b6569b7879bab67988a888
col19:   756a48748a8b5529979b97a66c89ba96aa8d3baca7aa69c6b79cd87ca95b97968bda989b978b5588
col20:   5973934481698795b7c9888b7739ab9ba9bba8bc99897cdaab8adb89878b789ab856daa996cad9a5
col21:   9256797527857a9699758a6877d76ba9aabe8999aa9e8a5bc57ba68a9b7aa77ca686ba7a87888a67
col22:   1718274a564446658b6aab97956a6c8abd9aabc69b9adec8999bca958a877a5b695cba7795a97198
col23:   3473757746687769b9978747688997786d6c9bc85ba876b89aa76958aa7978797b98927797979795
col24:   846b767889674a697879687889a969aa6c9acabc597896a5958a469e86aea49b9ba96878a7b87958
col25:   766a78776799686ad85aa89ac9a7868ca8b78796c8b97aa89676bc9a78b88989c89a9a86b6baa899
col26:   387496596a758aa82a8a99ab9d9bd7db7bfa8bbbac8bd9abb989a9c9ac8c8a7a8baaab899a8da876
col27:   46b675a94a567679665898cab8c9fa8cbac89c7c6859b9faaf8b98c8cd95ea79aac9aa6ab98c8a83
col28:   b7698a76878799b988c8ccbb7a7c6caaadec8acfd8c8bbc6bbab8c8cce9f9c399bc9ababbb6ab99b
col29:   8673a5856a49a8a89a9d9c9acb9eba8beefcaabcfc9ccb9bbc5ab7bac799be6cba9aa6bd998bc886
col30:   887689a6998a859d798baa9c8dcdcaa89d9eca9aab8b7e9b9c5bdb6ccc8becebc99ba97a8b7b979e
col31:   3777a7a7b797cdb99eaa9dbebac9dcdb9abbcc6dabd8bac9dcdbd9abd97dbabd99ccaab8ca9aa5a3
col32:   a59658a8a99899aaad9948baa9c9dbf8cdbefccbb8ccc9cdbcbdcb7b9fcdfe99cc8abbab968d7c96
col33:   757746977298a97b7ba7ca7cb8ab5cae8bbc99bbb9bddafcab9da87a89badd96c99bc97d97aab996
col34:   a86799b8877a997c8a6dca69b8efbaea9ad6deb9dbeec7bd8d9c98b7adcda987baabebcbba9958c9
col35:   99a7888a88ab969a9ab8bd8a9dcccbbdcccdb8eaadfcbcaddcaa9cbbbc999baca9889acc9aca4ab8
col36:   b88959baab579accc8a69bdaad7bb7bc99dea98eecc8a99bb9bb8cdd8b8ed9bb9eaccabc99c388aa
col37:   5a84999487c65bc99b96abfdffbccfd9bcd9ecabaeb7cab8a77bcbbacdc9cadabccbbae9abbbaf8c
col38:   95a9a7597db9aabcbcb8afcddc66debc7edccbbe8bafcac8cbdbebebbdfbacfdddcceecc77abb7ba
col39:   b75879aab868ca9abc9a8dac9adab9cad89cfccbbdadebf9aeabda97bdbe9c8a89bc89ccae99a36b
col40:   8b9679b668a8c8abb889babdd9c9cfdeceebda9feeffdaccaff9ceccbccc8b9bdd9b8c4b8c7bbbb8
col41:   448a68ba8a9a9ad77cb5ba8ccbbbade9c9badbeeeaefdbbebbebcbda6bbccbc8daa9bc8ba8ba9bc9
col42:   78857ae65a9abcabd6ac79acdc8bdb8edbecd9eccbed6ecbbb6bc8b9dbcd9f5daeab798ecdc8bcbb
col43:   b793bc8977958bbd7acac9dbcddddcdbfbec9fedcfddf8aceccadceaccaecbddabccac9eab98d8ac
col44:   cb9ca68b9cb9a7cbadacdbafecdefedefc98fac9accabeefebbeffcfbbdccd8faab98cccba8aaebc
col45:   9879cb858ea9a8a989a7aa97facbdcc9cbded9fdadbeb7dbdbebfabae9b9bc9acdbbadbba896a897
col46:   78a9bb9aaae7b4f787dbafb99dccaacecedcdbcd8eacbddc8dbccbaaeaacb9ba8cfcabba6cceb9b7
col47:   7b6aa97babca9a9cbba98c9db9a8abafcdcbedbbfadadedaad9cade9a8adbeac9dbccfa99bababab
col48:   58b599c98a98ab9aac6f8c79b8bfaaadacfdefbbdebbdcce9bdedaacdaddada8ecaabcaddab8ac58
col49:   a67cb79aaab8bb9aa9c99cdabbd7cdcaab7dadbcdcfbccfdfdacafdbdbdfceacebdbbcbccac8bcd5
col50:   6a5db89e6b89ca9bbcb98decbbabaceeabdacffcbefb9bef8cacbfbedb9dacbcbadb9bfcde9978cb
col51:   6647578ab9a7d99ba8b3d8b8a78eabd8fbffafaac9adababbc97ecd9eb9dbde9d8be8cda897557c9
ROC:	 BPix_BpO_SEC3_LYR4_LDR11F_MOD4_ROC2
col00:   524412362543742353562657495338856c7466987887a6755a6466758b96863938886497b3658546
col01:   1713623c7468695574866a6a7555896a6778bb5b66a8968a899bd85576ad69a76b4a77aa8957b674
col02:   2323265a326841797374aa94d6a958789876a5c85ab897a4757bbb5a8888ab86d999b97a87b96786
col03:   344646697666a87938677737a447b7897b795b7976682b78acbb549999998a78a57cb598979a6774
col04:   44346565767685876775676cb85aba87948a8997a5b89b5aa849999b7a985895b797b9796dc97997
col05:   513576a714a687688898986584759978477875b96984a676ab86d68798aaa8a9aa59879689686787
col06:   5257556a54457378b77686938a85ad6999a548889c77a68679b5a87b7599a888ca6a95a95756aa9b
col07:   246369564568689b6a76989abaa8dc6789977c89c8aa76b5aa8aac7a8b9bb97caa7699575b97d979
col08:   4651565797966586aa976697a5779a97e8a7a67ecb76b899b55b7b78957b79b877aaa99a97c88b7b
col09:   691254744455b4536687c79a7ba99669eaa99d87b9ab765b8958a798b86ca645a9ac6b7898c8699c
col10:   54664144562479a88767a6c998ccb98b899aba868b9776ba49aaa89a8ca7756b7938a98c6a9d88b6
col11:   82664733565768889797b7959ab98c6a8698a5978e86a548ba9ab9a77d598bcb98a8b884a9897856
col12:   79336558677668864954aa89d5787859aa967999b69879984a8b99cbbbb87a969b8ba955e9a89767
col13:   5354667876875576c7bb6a7eba9b978c8c9bc799868d795a79c55d6bb7c78985bcb798bb59da5a7b
col14:   866256738b574a99969876866889a98b99a9889bd7bae9b79bb9cbc8baa978889799a897ad7a68b5
col15:   7563757c895787769858766a8779a895988968db59a8777babcb88b97a78bb998887aaa57b9ada99
col16:   656558968846879588a566867884b977adaabb988986a797cbb7cbd58969baed7a96599599939c86
col17:   4965467a8559597665728b867ca87876b98b7bc54a749699caa8876a8c97ac777689577bcc7a7575
col18:   56626a67459769556745a8a7b689aa88e98aa6b67ada876c9599997abb999a57788dabab7a9a887a
col19:   173478521793a8ab9a9ab7a799597bad869be747aaaaa8a8c9989a9d8988b6cbca998897c9998b75
col20:   65755777557973a6668798c48999ca78969799469798c8897b9ab5b9769aa78ab9dab8757babacb3
col21:   7582a858567962836a65688b6aca3a6687889b9a99a9c7b9ae98b6b9c6a6b698a888a99bf79aad37
col22:   147775865286a594385879a86576b598958987b9b6b98788c98bbbbac7a8b9586d9a8597ca9885d3
col23:   2595597157435764b784789895877bac97bb87ac99ac777873d99693c9599968abd9667778ab8cc7
col24:   68965578a7696684699215b5977acaa6894a93a7bb987ac66aab89c72989ab9dc958aa989898ca98
col25:   3844755837666a7ab7c784b867a8977a79a7b9aaaa9aa6cabb99dac978cabb9a9b5ca85aa8da76a9
col26:   6859966ab6b8a9aa7c758a8c788a5a9a8bc8c989ccdaa9abdad9ce796baa9abcbcca997dcbc8ebbc
col27:   85396b67d9a86988a7b976abcba959655ccb74ca78bba9bb876da8b9bb7bcec9ba96babaaaa89bb9
col28:   a9389a45b9a5999b968986cb98ab9caa8aa5c8ccbae9d9bfaacdc8dc9cfbb9ba88a8a78b7adccbc9
col29:   53769c5c9788b768bc8bd9aae98dabca9aabaabc9cbd9daabbc9cacabaaba6babaa979bbaa9aae99
col30:   58568aa6c3499b79897997898b97abd779ea8cbebcaadb8baa8ab8a8bdb8baac98cc9abbbd9e8cc9
col31:   9a85a8b9e789ac99a898daccbbda67889b89db9f9ebccc88aeaabcabdacadac9e9bbbacbbd9bef8b
col32:   a68a88ca977b8b88a9a8d79a79caf9b99dbaea9c9bbafadfbb6acacdcdaf8ca8abbcc6edabfb8bfc
col33:   73899677ab9a7aa99aa8799d77b97caadaabdbba89cfcb98becfacadcacbebb89d9acda986cc8fae
col34:   85879584a899aaf7858adb895c9ced9cbcba879caaddaa998cdcbaa7f8baaacddcc8dcb9bad8bcc7
col35:   67b996b68bc8e7847ac79abb8a99b7ba9a9bb8a9baad9eeca99a98cabbabcc989c8c8cbd999acca9
col36:   8688a6667a9d9a9a8cd8a7abaa8aaec9babbab8aaa8bb9dbcb96eccaba8c9aea5ccdcecbbac7bb6c
col37:   ba75667bb7a79dbba9fdd99bdad8b7cebd9caeecfbbde8aad97ab9cc9ddb7aacc8dcefbafdc7dd7b
col38:   b9ccaa8989ac8c9999aaa7c998baca9cebacbc88daebabbdbdc89d9f9bcb9dbaedbffdcccbacdfda
col39:   88a9a7859b867bbabcafaac6bc9c7becacbdadca89aacbb99becc8dcdafdfcacdc9ee9ddadfce9cb
col40:   9a379cc89bc8aac87a69cc9caababbacba99edcadc88b8ab7ddae8e9cfccabdcdce9daf9abdcbece
col41:   b797cbb7abdbca99c9b7ecedb98cfcfcdaecbebfa9cddeddbbca9bbccdcabbdf9bcc98dabfcecaab
col42:   9899cd79a9c9687bf9ba9bbaaaaa8abcacd8ab8deadcebd9a9fbe9aadbccafddcef9edba98cfaabb
col43:   89bacc7bd9a8badbcaec9bababc9d9cebebcdaeccbdeaacececdcabeeb9dbcb99fbebfdeddeea7cd
col44:   497eb98697ccbda9bdbdb7c9ef6bbcc8ce9c9ccedfdcdcadcbcebbaddeffedfdfaecbe9ccbe9ecdb
col45:   6aadc7897aa6a9c9c64ccbaadabaebcdadccdadacebb9becccdfbebb9ecb7ccccd9dddadb9e9fabb
col46:   b89ceb99cb9baac9ba9bcccccadebcaeac9a8bcafa7de8efdcfeffecfceedddddaeaacdcceabfe98
col47:   5c876ca8c96e8dae79e99d89cbc9cd69cbbbbcbadacb9c9bacdcbcbdcdc9bbffabdfcefbdcdafebc
col48:   6aab7fc9bc9b9899fa8c6bcb89e87cabaacd9babcdadcdc9abbccbcaedc9feb9edcfd6bbacaaacac
col49:   79a997cbac77bfbc8b7cd7accceb9fcacb7bccbbab9ceeeccecfeeebfbacbcfdb9fdccefaaec7dda
col50:   7b579a9d9ba99c88acaeddcbcd9fbeb9dbdacdac98eedebaacb9baddccbdaeecedaabedcdbeeddcb
col51:   6d786b8b98b66bb99b98d4ab8eea89b77b9596e7aab7b8c9a98a9aacbcab9dcd95cc6ddb8ddabbb8
ROC:	 BPix_BpO_SEC3_LYR4_LDR11F_MOD4_ROC3
col00:   58a5489889b9a74e2789a898a9815764bc7959aa78b885a885ac7c539bba99bc797ec774abba9abc
col01:   789683a88aa59639d8b678a89c74888c6a89bcd6a99b9ca5bac98d9cbc6dab97989ab7acca887ce6
col02:   52b6978777758a7c5693b7ab999889969cbaaba9bad79b8dbcacbddb88aa5ad795b938ba6a9aa866
col03:   1b2766a88963679897a7c6da8a588a89a9699abdaae77c7789b88cea6b978aa9eb9cccab9ba9bbaa
col04:   7a7795d9888a7a67987689c9cac779a96b699ab879a868a89baa9cc68bb9b9cac9c8ba8ac77aa858
col05:   b73578448da76748889899479799fc9bb988d69bb7d6987baaeb8b59968baa98faea8a9c6d889bb7
col06:   77578635a626a9a88867b8aa887a76bb97a8a7b8cda9ddb8c9b8baaaf6c78babaaaca8c8acb9dfb9
col07:   5965b5777d97e7b9bb96b8b77b6848b5bab78bc9bce66aadabca8bc9a8bebc8bdba98758cdabaaba
col08:   7597a9316477586d987a79c74a7a8b988c99c67766fc49bdcaac95b98b967acd97cb9a67bac97a98
col09:   a7693625773a28c59d5ba297879d87acbba8b6d59bcadac998a9c9b7caffbced98aa89bbc9bc66b7
col10:   6a785776998746a583ddc29b8776a665bbcabc6d8b69c8cea6fda7aa8b9ce89599baabad98dc997a
col11:   856854966752c69566d964a478ba9ada5cbad8b7959e79b8668ea9889beabde8c6fac9978da4bbc4
col12:   8754729aa9b94a77abd6a78a9abac998b888bbbbd5a9d9bb88da6b99c8c6c89c7a989b7a986c979c
col13:   6466a97685777a9586ac557b88b9ca788969aaa6b7b949ced768abaecc9cb9d9a9ad789c68789698
col14:   86a68348a8877865b7ca94b7878ba7899a9bcca79db6ddf8bccf9e57959bd888adc8ed587c56989a
col15:   927965c8989a7698a87d779bb997c9999aa9abbdecaaa58c4ba86ab95a7ceab5a93abad8d78998bc
col16:   b26967986aaa5a96569c8a987c99846b87cac9ac89c99c797d488c78db9ed4c9eb8edba8b7b96f99
col17:   7464478754a56b78893889a8b8e7377abb9abb69a798ce77babbaae9bc9ca69bdb69dbd58a8d6856
col18:   587664766779a4b9b49a9b6b859b89a5c9789a99adabd8ba4958a87cd8bad99ab96d3b89c6caa777
col19:   56669768846c8f94669976b98697c978ba57b7bbd98b9d8b6baba799bbac88aa8c88af989b9b99bb
col20:   8224a69a9886769887dba34676797688aa89bcaa77698e78c7acb4bba87789b8b7caba997677aca5
col21:   866689775865c89a86b6779a78659596d9aa79b98c897eca9d9998abaabcacaabdcac8dd86ab8aaa
col22:   6483792a5778496aa979a98aeda77c7678ab89a67baad898a8ca979ccea9dabab8b78da8b8bacd86
col23:   a75b886354798998a86ba89797b8a9cb48a688779a8cdb8888daafb6c9958a699abc7d4b58988ab5
col24:   2366489a686a3966847999ada76b8b87977589c7b9b8e67e9aba98a5ac77b9c9a57bb8997a669699
col25:   56785686858a8c469986956a66899a5eb669c7abaa64b9eec9faaba8a588abae7bcc9ea886aba8ab
col26:   9959969ab959999c999caa8cbda8bcac7b8987bccadbeb98afdabfbb96c78e9acaccb9cecbaf8ab9
col27:   7597acbba586987399697a9c7a9dcc9b787ceccbbbbbca9bb7e9ccdbab488dc97bf87bc898c8abaa
col28:   596a1a899c82bb9ba9768cebaccb98dda8bdc8cacbffce38abb9aaebec77ffa8c9c989ffca88ae67
col29:   658837a8865968c7688c99dda89a8abc89fcfaad7bc6cbaadaadaad5aa9bbbb9c89d9cb47bcbdb86
col30:   c57b8678896aa89a896bbbbabc9ad8b878d69bbaccbd98dff9e99bdebebabbca68a8baf9c8d7ecab
col31:   78bb8b89b6aa899ccdbaacbb7aecbebd8fbc699eebdccacb7ccbabd9fafdeaabca7d9cb9eacdaea8
col32:   7ba6e8a5684a7b6baa899cbccca99988ccbcc99caacdcebebbcb9cceecdbdac8aab99aab78bcdab7
col33:   878889c8a6c86a9beb8cc9a79b8bcddacbfcdcbcdaadeebbadbbaba9b6ef89e9fbdbb4e78daa879b
col34:   a7bcb86ae6a89ca889aceca9baaabbccdbe8cad99bbabbbd9d9bd68badb6dccc988eabdbcbc5c9b9
col35:   c99b98b7989bb99c59ac99b8fd9dcbc69ebadbc9cabeccaa696cdacdacb9ccaddbb88d898cbcbeb8
col36:   4977ab8877ea68977aedb867b5cba8eacb6bbaddceceacbfaba7eddbdd9998ceaeeaa8dfadabcdbe
col37:   5bdcb48bdaa6ba9b9a9a9a9ddabbdeb7dcdcafb8bdc9dbedaabbf9dcccdbbd9cbefb98cca9c8cdc5
col38:   b5b8898abdaa899abbbfaebdbdaaaeacbcbdcec9cbdcebec9edcdebeaaefadddfecaf9a9b8dfcfcf
col39:   47898bba8b9aad9da9cdabdadb8eefb8cec799cdccbdeadcbfcccbcedd7cb7cbce9bddbdcecdc9ca
col40:   a67aabbda7cac88caedbbcbfb8dbd8ebdaebbf9bdcf9fac7fcd8bfbd7bbfedad9dddafacbccdcf5a
col41:   86598899aa8ba96efccb89bccaddbedafb97dcb7abbbfdfbdaae98aceddadccdde979ecbbdacdddc
col42:   7a8bc657b9baba7bbcfbcdcea9aaf8d8b7c8b9fcf9bacbbfeeeefacddadfa8bdcd9ecc7dee9d9899
col43:   5ab5ab9a6aa79bb99aeae9eccbbdafdbec9dd8bb9bfbfd9eaecfcddbe9cf9dda9ed9cdcacbe8edcb
col44:   7797cb66a7778cbaa8bb9ebbbbdfee9efddbc7e9deaf9bdbfe99ac9ab4ad99dcbc8ba8f8fbbcdb89
col45:   9b886a7b549db9daadbc7b69ff8bfa7dfe55bfe88ebd8b7f9aaabceacc9ee8c9cededddabc8ccbd9
col46:   99988978a9b9badbbddbeedcebb9aabbbf9acbaceb9efdedc9b99d9debbedc9ae9eccbbfaccb9beb
col47:   66b65bab9aad8a6c99ccdaabdabbcdcfe9edb9fddabfbedf9eabfcbdcda8abbbecadbadaab988dec
col48:   a9779d77aa9ad6adb9cdcaecc9dfcecbeecbfdeb7fefcdfdccd8ebeccbff9cfceeccdcd7d9a8bac9
col49:   6797af8dc69aec75ccc98a896cdac7a9aca9bf9daab5e9bb9ae7a9ebcdedaefc8f9fb8ed6c7babdd
col50:   789bba888997cbacebbfca9bcbccccdfdce89bfcf8edfbbccd8faffbca8ffce8fcbdeebbdeafddcb
col51:   4d45756479e83aa73ce74c7597987957acd987699884a9a998889cc9c9e9689eb4f67c9aca778ca9
ROC:	 BPix_BpO_SEC3_LYR4_LDR11F_MOD4_ROC4
col00:   8579adba8aaa94768a7d5a6bfc8c8aacca98ba8ca9ba27a6bba9a8baa999ca87ba79c9b7787b8764
col01:   b8d9dd87cd8699f4dc96c98babb8ba95ab9adf69d9dc98aaadb87898aca8fa4bc97da56c58b6a898
col02:   998aaaa8a8978e98bb8dcedbba4bacbf8679983cbc6cbb9dcfbb8b68ca895c56ab8ab6b9dabe9b38
col03:   9a978d6bdda7afe88dbc9bd9cb9cf79bbcd8bdc7cb9eadcc7c99cf79bb859a498acbaac94659b977
col04:   9999b87a6a6d98dc8bfeb6d68ada7d9c9abc99cae89babab5c96a7c9bc798886b99abc97dc3ab347
col05:   897bb9c8b9b7a8c884bb8aa7ba9bdcb979eb8e798ddab98acacc98a8b8ae99a77a79a77bc8a79a9a
col06:   39b87aa8798dbab7d9ac9cd9cdb59b9d79adadbc99bfad9ab68c9a99cb8dbae6eb6a8a7e6d7797bc
col07:   a96a8a8b89bba997b9aacb8d5ad7b8869ddc5e9dcb8d59aebb98bfb9bcba98a9b756ba5a88867c95
col08:   a96a45db958cb8abaaab5ba8a8bcacbf5bbba8bbbe6cbbec7beebda8d8a9acbb9679aaf85588b4a7
col09:   c9a79cb6bab6bca7d7baa799bdaefaeacfaca89bcab8a8beaae9c9cabcc78ba9cac799b6b6fcc79a
col10:   ab9b88ebbb97a8bdac8885baacaca99eaec999be8beb89abb9fb8ca5b7a988d7f8c9a96ba97b78c4
col11:   ac9b7fc89588b877b89989caa77ce7bc6a866ca9967da9a99d7bf9c8a7d8ab8bab766689878ab7b2
col12:   7fdbd5d9a9c99badebabcbba7a8d98b8a89bbc985c99dfb9b79ab9a8bbabcdfdba9989b9da9ba7a6
col13:   735997a9bbc99a8699b86acbafc9debbcc99b6faaabd6c99b756a9cbaad86ba877a68b89cb977ca8
col14:   8b9b9b57ab78ad6d95adc69bebfae97cbace9dfa6a7eec97cb7a9bc6cfcd8a88b7999b78cb879cc5
col15:   9b6c4b9d67c6976b9bc98a74cc9a8c9d89c98b9c6ac7877ce9baa9a8aa8e77bbc8c38b87abb84686
col16:   597884959776bebe6bacaa6ce96baccaaaeaa7adb8aaca898c9aa8dc5aa969d989a8b4e6a9a99675
col17:   6877454dbb996ac8ba9a6bbb9879aab8aa8bac8b8a9ba9aabbb894b8869a6b97aba5d768a5655857
col18:   559c895998a87975bebaddd8afabcccac568fbb8fa9ae987dc79ca78a989c998b9b5a66989a97587
col19:   47c4cc98758d6c5bb988a7ec8eb5986aa9cd6a3878ba8b7c999b9996baace8479abaf89797679a87
col20:   74879ac6c33793c87897c7597b8a8b9a7bb9799c9aaaeb96f64bcca68b878abb7c968adc97986a63
col21:   995b8d97aa6ab8879b98d7b89beace96c9d9decd7867db78bd9adac9de8bc56b978baaaa6b7a5ac8
col22:   b79999758abcb65ab76a88d9ab7abb8b8ed9b8a9ccbaad6da85bac75788ba58c7b69bca759b75c67
col23:   874588acd9879a69b9b8a8dd7888b8a8b77bbd56bbb9b8a536c8778694ba5ecb756c9b3ba8c5a9a8
col24:   6ca8558bc9769ea9bec8cbdad97897bc78a889a67677ba669aa7d6a9abac96c8797c8a79645baab8
col25:   92d7a99999768acd68658aca85b6a99b8b8988ba7dc9c6dbc6cdc9bac79ccb886998c9aa78bcaaab
col26:   ad96ac8ab9d8bde7c999b8a99bccabb9fbacabdecaafd9a9cdaa8b9ab99f7d997dc9bbd9bcdd9c9f
col27:   a725b797c78cddeabccbaf6cfac8dc85ad9ebadccdb6bdbc9ddceba9c777eeba8398d5da687cb99e
col28:   4a979baeccaadeab8aeefaafd8fcdefddcdbefecc8baac9dacfd8cfcc7c8bddb8cbba5acd9c8baa6
col29:   5a8a9aba8cad5aad8b779cc988dcdedde98b8ba88ecaba9c9bbeafdda5aaccbdc8a7abaa9d89b998
col30:   c9d9eaa7a7ac9edbbd98f996addcd9adfbb9db9ec8befecdc9bbbaecaceae97abc8abad9b6f989db
col31:   d8a7abba8ac9accbcabafedceb5ccbe7adcdbc8df8bdebcc999dcccb9e98aba89ceaa4c6b9d68889
col32:   edbcbba7b6c9e9a7ede6ffc99cabbfb8dacded77fabdaecfcab9ad7bc9dbb6aadbbabaab9ba8a6ca
col33:   9bbb9a9a69e6bddd8abcadeb8ba9dbfcbaced9aa6ca9cdacdbaecbfc9acb99a998c9ab7cf7f98abc
col34:   bc7dbcc7a9bccc8cc9add8cefdebddbbb8ac8bdd9b9abbcdcdda6b8bac9afc8f9bdab9a6aceba4a7
col35:   aca7c6ab8bbcccdaecdcdbc9cbbfdbcaccfcdeccbdb9abdcfcfcc8ecdcfdb7d8cab7a6aae9a7e9b8
col36:   bb99ca9bdbcdfb99eedbbfb9ffaafa89bbdacd7afabc95fb7cca9b8daa97bccdab6dba4ebcc99a8d
col37:   ecd58ba9fedbfdfbdac9bc9ecab9baaabcdecc9ade9d9cdccfacedafdacbbf96efeebdeda79a9b99
col38:   e9adbeecfdfadded8affcce9ecccdefededbccdbec8dcdafbedbdde89ee8eb5f7ec9ba8b98abc9b9
col39:   cc6aecbbcdab9cbfbda9daab8f78ebdac8a8c99baba768fbbaaadfdb8adacacdad8ad88a7a8ba9a8
col40:   898d8bfc8c9babbecbecbddca6bcf9ddcdcb9eecaafc9aabadddafb6bd5ea7bae89dbbfb9eaabbab
col41:   77cbbce98abdaed8fcd9cbaecccbbcbc9bbffbeea5fdecdcad8866e9ca9abdddaa988dc5f99fc9da
col42:   c8a8daceacfc9fabdafbcbcdddfccbedabacbcccabcdabdcadadfedacd9bcdd5b997a9a8d2bd89ad
col43:   cfa9daacab9cdaccbddaff6dfbbcc8a9ceeeae9d7acfa7a9acd9c8ddaccccecaaccf8aae8c9cdaa8
col44:   cab7deedefc9efddefbbeeebccf8ddfbdaf8decbddfecce8ebab99edfd9eedcd9cd9989cb9ad99c9
col45:   ab8ad9faccdff99b6adaacddccddddcfc7dde9ddfe8ca9fcaebad9bacb7beaa78acaa8cab9fdb768
col46:   cdc9eadffccacadbfbcaffdbfeeec9c7bfddcfaacdfeb7abe7ddfbb67a9dbea9fcb9bbfa8a9abae8
col47:   ad8dabbe8afbcabfccdd9dbcbeeadebacc7dbcafcdcedc6dbbccc8bb978ab6d8b6dabaddb9cfbaa8
col48:   afbcfbbbcbaf9c8cb9cacb889d9cbefaabdcbcdabf9dddcdbdcbdae99db9cbd899ca9accabbcbd9b
col49:   bea795ccbaffdd9bbcd7acec9dddeabecd9bedcdadaa7abc8ecb9ed8bfbdec888b9b8bbaecaebd8c
col50:   c78cabd89dbcdca8ecf8dcaaebaeadbceccddb9bcbdeb7dd8cbcc8a7c7cbbb9ebfdfb9b9ca6cb5a9
col51:   dba8db99b7aa89a6faaaae66ac78888a764da6aa8b95b857ccabcc8a5a95ab99567a574ca998cad2
ROC:	 BPix_BpO_SEC3_LYR4_LDR11F_MOD4_ROC5
col00:   63956978856ab779c97c5a999aa9b6759b8b7467598ac4dbc9b387544b9865758459766468c28852
col01:   7db9bada6889b6b9a59ae7babaadc99ad8daa68b8c68ac7c8689859ac998db88a88774b988ab8991
col02:   5595af5877dcb59d77bb9a774cb74c7a78cec6b75a698778699ac8667d9dba9b7a9998ba57878733
col03:   b5a9c77598a9566a7af7a9c9be6bba785caa8ca9696b4d8e68588c8869a69e879695e6baa9686994
col04:   8bc6bb5adaa9a77aaaa9bcd86aa589c8dacdab7bcb9bba6997badaa8c8b5887779567675699b5718
col05:   988a88a979cacc6bba9ad798adb947acc77b7b775d899ab77a5b7968ec9a45538689b79a76849182
col06:   98956b9858ba98b89a68d79dcac68aac69f98cb9a89a9a7a8aa6ad897794b6ba7aa97733859788ab
col07:   db887f987acabbababb8d6d37a9f8b9ca889faa99dac7a76bcd865a8b9ec998b586bb8884c6ab6e1
col08:   98e86a9aca9aa8b7ac9ab789cc8ea6fa5a84f9bb8deaa6ba89b98a9faca5f77aa7597697b6773c76
col09:   9b7bdb786fbbeaccba688aabd4997bcd8755fb9da97aae6ada75899bbbad99869b8a69744b76b854
col10:   47e87b569a96796879ba99ca7b8d9aa797bdab7d99cdb8b8baea8a68886b6c8b98968966a6a99772
col11:   7788b58aba7c9496ab886ab7a9db9dbbc877a8c67bad78898cc7886aa8baa97898b6677776c73677
col12:   a8d747899eed68adaa9976bbc878a8dc9bbab9aebb8999a9879b7b79869c8878ba9cd975797aa958
col13:   6577a7c65a9c4a899cb6fcb885a8aba99d99b9bb59c8ea9ca6a6997c58865aa9558c6ca5498967a9
col14:   bab899cbfcdbaac8bccc98ab5eaa79bca5aba7eafda88b9bccb99a8bca9a8fda78d65a63c96aa387
col15:   a99785b7c99a878679bcbbe6aaba86b9caea86d799898a89d9a9bcabdd8ba1eab6875da645867672
col16:   56aa5ca856fb99a8a9ba8abe9d8ac97bcbb6c89d9e8bbcc99796d73a768aa8a7bc567a8777b65794
col17:   989a896aa65477b87a697bd79c89caba297c9589fbcce889aca8bfc538b97bc766a87566b97879d5
col18:   5a857899777a76d4b77fcb9899c89bbd7895a68dad7a3f9be978cbca77ab9caab8a6957c7679c6c7
col19:   99ca8896aafc9aa668aab98ac897c7dba9aace8b9ab6995ba9ab8ada477be6a8b77cd83a76b4a687
col20:   46989b9b7aa6a7ae979acb6cc93b87bb9979b999798d4a699bada778cbaccb8aba87878ad79ba17a
col21:   a9a6b876a88d5a75e7b98eb77d8e9a5a77e9ca86a76b869b956b5b9845c5d9da588ba4aa79977987
col22:   7988a8cdabb6879bbca78888999ac999ab9cfd8caacd88c84a97cc88989b7aab699a97668abac977
col23:   cc88a58876c77a5abd695888b7bbc88cb7bb9b6d99ab7bd6bb7a7aa69a9a9689749675847aaa1a39
col24:   baabb67d4a6b8c8a797bb37d997c979acdca989dbadbac8997dbb9bc9b8ab978bd63d474a667857a
col25:   aca8a3989986bbd979ba9da7a9aeaac8dcbbde9ab9879a9b7dbb8aa97bb6a9afa8884bbfc8a76b5a
col26:   b8a9bcca8caab9d7bbb887bbfce9eceae8babacb8d9cfbc8f7b9cd9afa8ba8eaaababe679aba9582
col27:   b9b879c8cb79a4da8c96e98dddbab988ca47bb7efc9bccd87d8a88eb69a9cba8aa8a959ceac6989e
col28:   aab6caae5889d9b9bb9ba6efbcafc9acdacacc9fdacdcd989cdc99bdaecab6cb9aaa78ba789c68fa
col29:   8794ad89a7a7bbcdd8aeadbcb9bb9aedddbcedcbecccce7a9dfbbbacbdbbcbd888dbb8dd898eabd9
col30:   ac9a8a98cbaccbbac9a8ecb8b8ebadebc9f5aebaaaab8c9dba996da6a78acaf8ba99bacadaa89b99
col31:   aa799bcb9bcabcea6c7aa9babfbaedbfa8abdcbddeea6ebcaccdbadecc9b9bc8c9dabd5a7cda9768
col32:   9b9bd89bcaabfdab8b48db8ba9a6ac89d4c8eeeacbdad9dcea8cffddd7cba9c97ebaebf5fb9dbafb
col33:   ccc97aabba85bd9cbadbbacccfbebcc9cddccadaa69ef9e6ad7bc9b7adcaa8b888a77c7dbdde979d
col34:   cb99d59bcb8accabab4cb8aafaaf998bb9bcacbb8fccbdadeddddd97d4dfbbc899ad8bc88c58dbd8
col35:   cdb8bbdccacaf9cad8bac4eabc6da9aacbaafbd7dc8aeaacbec8fab9bef8eeb76e7e89bbafb59cba
col36:   8aa6cadcabbab8bad9a8caddcedb99d7e8f8bbfc9ddedfcfad89bcdbaeeeb7ebbfddad9cb6f9b997
col37:   b4a7b89c8aaacabfa9dac6abbcebdad769ccbfeba9b9dd97f9c9dcbb99c99dabbc85db99a898dab9
col38:   c876bbdfdce8b6bdbdb8a9dcdcafaabaaee6dceb9cdbceede96fdc9cbccaa8cced9b9b5aa8c7ea7e
col39:   e5c8aaa98bbdbc9bcbdcb8cbdcaaecbaa9fbeb9ad97bcd9ab6cdca8b98b8cfcc978b88ab99bbcb98
col40:   ea969aca8d9cebb9cbcfc89dfedefbd99dcc9daceaddeadbce699f5fbe9bcbecb9acee9c97cddc88
col41:   d7dbbccc8ebcc7cac7dbcde9d8daadaac7bebada7afddcabde7debdde97cbffd8bcbddaccabdb685
col42:   997bebdb98ec77aa9abbcdfbddf8befafdaca997b9afba7aecafdabadcfcdbbca8c9cc8ac8977aa7
col43:   aa89bbbcbaeadcced8efbfcbfaadefaab7bebbeaccbcdbcaced9cea99be9ffcbeded89cac9dac8cb
col44:   9cb7a9acda9fbefdbdcecccfeadfbcbdbbdbaaa9beebf9b8ba99eaacdafbaa9aaccfdacffced968a
col45:   a7d8deba7bccdabba8ded9aa89ccbadaabfcdebac9cacfabaee8bac6bac8ccbdad75e8aed9cb9e69
col46:   786788bfae8daabcc6eafbcadbedacd9efc9beabddce8bdb9ecaae9ebccbcefdbdeabb8ea9aafde8
col47:   7ced9c79b9adebcacddf6cfe8cf9bdbcbfcfecbed9f5cd8c6c8f7aaedbc9bd8aee97cabdcf89da69
col48:   d8cda8b8ea9dcece7fd9eebfaeebdcbb8af9eddbcfcedbebb8dab6dcdddfcb9dbbae7e87dab7d7fd
col49:   dbcaaddcb8afbcbadbaabaecd9fddc9d8acbcb9bdebdadfbd6fbee7bc9cdb9bcad87cded8ab9abbd
col50:   a7ed6bbabab89cedde8bfd8cfedfdbfcccccfefdbeeecfceb69b7deec8fbcbbccdf9dbcccaeecf94
col51:   eb9c65a6cc986abbdcab99ba7c9ab6b8e9aabacccc6c8b8cafcab9be8cab87decbab88897bbaa8c5
ROC:	 BPix_BpO_SEC3_LYR4_LDR11F_MOD4_ROC6
col00:   88a8935a58479878aaa779aa8777ca88ca7c4bb877667d9a8c8899c77ab798654aa55979a4735558
col01:   9cba87b6c99b9b97a6b79bc95caab9a788b889c9caab6c678887a6a69ababa578bdaac78c7d5945a
col02:   58db99ba9f9bc7a79c84b7ca9ceebdd7c8abbcdbbc89bf9a979acabda5b6fbb77686a8ab879289b3
col03:   6958c96d8b8a69baabbcb899a5d99876cba76a9a7c9cbaa9898aba688db9a6b9bf6ba8c9a9a99874
col04:   79badb86989889799a8b99c9ab89bdbc8aa9cbd9bcdbae9b5cba77a7cab88ba9ab777e6a749abc54
col05:   c3c69a9995ac7799bacb8d6cc8caaaaaacea8aa9a976ba9ab999b9a689baa658ceb87697b69865b5
col06:   6c8769c78ac89bb999b5bba79b8b9a5aabccb998da7a9b888be8bab96ca8e877f99458c3b6587966
col07:   aac9a4ba89ac78abb4bdba8baab9baba98b59cb6a7b8978d98889ab8c89a76a668978788a899a6a3
col08:   9a6986778ca89a799cd6abbb775aabacbd8ca5aaca5aeb68a99c8ab88ac8988667e567889864a893
col09:   9bcb567ac776a8688bbc86b9bb9cd7de98dbbbd9aea9cbdd96b97ba8eda99bb55ad88b5a59a4b8a8
col10:   aac7a9b689aa989a9a84755bb7acaab6b979977c87c857babda87cb6c6848bab9b8f9a85a869c378
col11:   a97a56dbbac7a8789a76ab8998cb9b7cd6bb7b99b78b98ac5a5c85b966a8aa8678eb96786553b587
col12:   7b897aa9aaaa66a57cfaaa9bcd8dbae8dbebba89a9886cbb9bd9aac69866a88da8778894aaa777b4
col13:   ab67a7964a9b8986995a9d89d9ae9cc69b679bd8d9b77889dbcb95997a7b997c9c998c87a6439866
col14:   999989b97a99875b7a7bddcce4baa54b9cc8bc9aa8a759b8fa87abbcae7b77db876a479b8666bab3
col15:   8776c85899a88b59a889cb6bab4ca49c9bd8c9b7caea87bab8b9e8a7c86898b999b99a7a86cc7497
col16:   67667d8a7987a7764898caab7e68df9469a7d7bcc88bbc58b9b6badcd8abba78b57b859679889a99
col17:   899a77c58966cbf58bb6b6a6aac969587aa7e9c6bacbae7889ca8b887876c8a797c95d8b99a997a9
col18:   98aa6879ba98c99cba98b7a6c7cab7c8aadbeaa9ac9aa989a86ba5a78587d88ab893a8a89598b98a
col19:   a99ba383a6b89765be77d89a999d9baaada9ca8ac8accd99cdbb7bda6ab978cda4b56b9887968859
col20:   89583593899ab8a797b7b6bcdb8dcbba7acba978bb7ba89569ac88a88b6997c7b792788674b6ab98
col21:   95b3da8a9a9767a8797c78acccd8bcabd6ca96ca9bceed98ebb9deba97b9aa99b5c6ab8477858856
col22:   768a8a99a8e879c58dd95ba89abb69eca8aaa68a5899cabb8789babdac6998a8a7283496b9988876
col23:   87cacab8b8caea58c99b68c88e9a87bb7b948b6b9ab9ad5ababbd7abe89ca789abb9ab6da8888b97
col24:   792978788bba977a7a4b8b97acd97999a8a8ccb7768a89ac995c9d8979bd6ab58996bcb97a558888
col25:   7c4b7bc8abaa6b985bb9a95bcbfbcc9c9bbc3e7897ba676a77a8dcc69a8b8a8767dcb8894a77958b
col26:   aad97a79a59dbbdbae9beee9ba9cd8bba6d9baac78ac7cc988cb6bdadfad77ba98d7799ab8db7aaa
col27:   99cc9b9c9abe8babd99cdbbdbbbccfa9d9bbebdbabe8bc6b5b8baaaadb5ccacb9addbdb49ca7aba9
col28:   fadad9c99ca9ba7be885cadc9adcdaee8cab887fdbccdbc9cac9c9aa9ba7bcadaa9c7588a9b79c49
col29:   c98a9d99a78aac99bacb8bc9bef89b8ce7f9a7ccbcef7dd9dbae7b99fcd7b878a59c9c6ab78768d4
col30:   8cc9aab9b88bba89feec8d8ae78dfaacbcdf9bebb9ae9c9cfb99b96888bbd7aaa8b8b79ca7a8cb98
col31:   8bbad988dacd8a7abcaac8cbedcb9be8ddaadbcdb87dadabba9baabaceb7bcbb46a88cab69a3bb88
col32:   a7a8bc89f9ca8f669dafeebdebc7ecdad88cdada8fbdcb99cc7b9bfacebbacbccdbc9a7689c9c8ec
col33:   9c6ac89e79abbaecdcf6c9b9cbddccacd99ceee8cb99bc9aad8cd9c9f9a7adcec7bba968b96b9bba
col34:   8abca8a9ab6ee9bebbbd9db9baca89addbcafcdca7dcb9dd8cccca8dcaca8a9e95b9aac7ab9898c4
col35:   dd7aa9cba9ace9cbacabeabaeaade8e9ccabd59c6bccfbeabb7eebabc977cca99999ad9adaa9a9b8
col36:   a9a949aaaabac799be6eb7dccfcbdbb6aadadabcbf9c9dcbd8cf9b8bb89eccca77bba8cbdbe89bbb
col37:   bffb8aaae9adda9aaf99cfaacddcdbcdacaedaac9f9dbccabbedeaab9cccb999fa6b9ecbbbd3ac99
col38:   c9bfaabaaea7a9a9fbdfdbbaeffcaba8ce7cfbcad69bfceab9bb9ae9ddd8dcc8eb9a8a989dbcdaa9
col39:   ca9c8d9acbaac9bdd5dc9ac8be8cc989aeacbabedbbaad8c98bcdc9accdcca9cca9eac6a59798848
col40:   e78bda89daac96daedbac977cbac7bcde9bdeebabb9b9b6abcdaab8bd7ab9d69fa9b98ab8ba8d8b6
col41:   b8babac79ac89eabe6bbbfeddcbbed9baac8efcbebebbec7abbabab89bc9ccad7daeacac7a7ae7a8
col42:   95bc8adb9acbdbdeee79cbefddbcafadbdd8eeefa9ca5ccb7baddbcc9dbaabacedb7b8d9b6b96bab
col43:   dab9adbba8f4abba9e9acabdeb6ddccaa6beebab6b9fadcbaba9ccdadbcbc98dd9b4baacd8dcb689
col44:   bbcbdaf7b9a989addbcbabd8c9fddb9fccbad8dffaacc9cb7ec9e99e7eaccc9bbbcc7d9997febac8
col45:   679caa68c9bcdcb86abec8a7c8cccdabcbcfaf9ecb9cdacdacee968acdc8fcb8beaa9a9978ecdab8
col46:   c8bba8bdb98bed6a8cbaa69bd8b9b9a8bfaeadcbbc99acea9a9b9baccdbbf9b8fd9bc9a99b8db8bf
col47:   b9aa8689acbdeabe9cbcbbafbeda89c9a6defdbfaae99b99bad799b9cae8bbde9a99c879acdd9858
col48:   8ad8c79c8a8ab96a98dcad9b7acff9acbdda8cc9ceb9ac9b9bdded9d9acdbb8bbcda7cbfcb7ac898
col49:   a7e6ccc797d999bb9c4afbaaedeac8fbbcffacceac8ce8dab7eb99ecb9dab8d88ad6dcd67db9c7aa
col50:   98bacbb6f7cdaadc9bbabcbb8cedbecbaadabc9a8cc9b9f9cecc9cb9bc8bf8bcbba9a9ed6879ca92
col51:   4537bd68a7687769ba6887ca799b776d9a69b977ba7aeca98a86a8558ba64876957bb8b8397a3a67
ROC:	 BPix_BpO_SEC3_LYR4_LDR11F_MOD4_ROC7
col00:   4a96a8ab898896a618758bb45aaab38a98856a4b76c55782b4889843587756a797866758697d7864
col01:   5599ca984b99aaca987895aa7ab997a85876a88a673aa79a7985cd48867489a8858a588676577675
col02:   78738e4b78c598b8c889cf97a8ba7a988b87a5c8999d696aaba7a88678ca58869886b7783b999785
col03:   558667b5958a66a77798566ce9a428a86b8866376cb9987d889a65ba5a7a59886974a44935236656
col04:   88aa7c97c887888a77a968dc886bbbb9d9cbdfac88a77949a7989a864d8967b6c88994c76a887676
col05:   86748881a8a676c4b78a6878875d67ba9c7e8978a889c9897b87a8b9bc87579661a895a964a68644
col06:   9964b9579a7986877b69c5b8a7dae9bcca8caaa997878a738bbbbbf8947758acac979636356399c8
col07:   787a889a899b758396aaaaab97e6abbb8aaa7dc98aa8cab7a9989a5ad9b386aa6a57ab77a57bb98a
col08:   a6ae7959798957849999bcb98a6997bdbb947a8ba95c898b6df845a7c9aab9781449898544a59774
col09:   937677a59649da6b668b89b9e96889aadbb7c9c98c49c7ca985a9d889889787867a979a768967676
col10:   9c647a7768a993b997a589da69c888b888fc8cb7a8696aa69b7aab75aa859b8b8b7b36926d99663b
col11:   9c98c777a4797572c3bb6699b9998887a979a98a727cc5bc88b79679877986989595749684698a77
col12:   7ab8736c5a7a877843a9cabaa999ca99ca84cecb87975884ab8ab49749bb69965b7b87a888855986
col13:   888788b7ab9a88a6cabac8a6aa88988cc788abc7c88b9aa678847aaab9aa75b7b8864a49a75c5a61
col14:   9bac48c996985a8aba4b6aa758d96aa8a9b98bb7bbcad58b68ea758aa869666b8396d968c8866b88
col15:   7b8d65b68db8a8a79a7cabdbab8fd8c59898a9d9a8849a8bc96858acb7544698c773abba55ba5874
col16:   7ec879979948b8ab366babd9ab37bbbbb6668b68bbe88bb689969989b66e9c85b6976877a7a69854
col17:   b7cc6584a9785f89a6ab956989ca78a98c68476984a66b56c9a6aca7884879491436b84973669977
col18:   aad59898a99daa88b956e67798bab799a568abcbb78d6ca768c9d68575eba99968a5888951a99985
col19:   a7668627a887c9475d876aa95ad685a7668abb5a9979aa749bbab85ac86786aa97e6a67977a59859
col20:   88a7488878648a63a9c9966b97ab9aabc979bb7884789aab77b8dc9a49c9b4849b9848a654b7656a
col21:   95a97b98b9b668b9698e75b6b99aa988a9a74686c8c884aba7aa88ab879bb68677b677a282677969
col22:   67869a7ccad5bac998cb791c9adae865ac77a197c5889db6cc998c8a9db9773677247a87752a3678
col23:   58a79877ab9885d9cda99985a389aac9be8ced7e457b79668668527a4a7b656975566956c5778453
col24:   89582856c4a797a6798cc68a88bc69d99ba8e98dac96b875a9b89a89aa5a559768a987a696898655
col25:   c968c58d59c7bab94c587bda8b4a889b8c9c97c67a86abd89a997a694999b8ac8687d3aaca4a4988
col26:   a9a86cc869a89b9d7cabbf9d8bfabf9c9d8bb487f79a8c9a89c6b98ac67cba986d85a9c998c8aa86
col27:   899babac99b8589cb69ecbd8dbaa897eabaafd6afdedb9aa5988ba79ac89a9899925c6a867d37cb6
col28:   a6b7b8b9a78eaa899cbcc996caafcc9a8e7abeabadaa797bc89cbb98a7bda86ab95a8a9cb9676a8a
col29:   6b5579969adb69e8c89d8bcdadcbab9b67dca89aeec9b56ccac4abb8897cb7c997e99bbb7a77d7a8
col30:   95bcb9d697b7bcad88cb676a99baadcfbcc9ecc8ba7899f7adccfbbc9a99595b87bab689778d9a76
col31:   bfaaaacbbabc9aad7a9cec98fddbb9e9fadc79b9aaa98a9bcabbbbac9b99a8a98acb89a95ba8688a
col32:   9c9a9bdd8c8d9a799ab8bdaacb8cad8ad7cb99d8aa9ddfab67aecb7c7b9cc9babbfcd798748c8eda
col33:   aa939a888a9caaaa7989cd8adabcba8bba7d7ce8dbd9cb8ab589acdca8ac8f87a896a7d937e98689
col34:   adabb9bbbb87f88fd896e9cccaeaeccabbcbebbed5bbcacaac8c8cbcde8cf78cd978cbca89988a99
col35:   fe899baab7dbccbdfbd9e9ceceddabaadcdaf88cbbe9a6998b9a8699dcc9a8bfa8bf9969b9bccfd8
col36:   becda9abc9acb675db9cc9cb9ce8fb9dd9bdc8b9dde8c9bafbbfeaceb9bad8a99daca9abbba6888e
col37:   fb8adc8c9998bbb6ecddbaabbabbdbbedddee8adbcf88cbcbddcca95bdccbbb78b6c7e9ac9598ba5
col38:   efdcacb9ababdbd79caedbfbf8d9fbbccebccdb9fad7df7cbabe9d7b7cdeaa89ae8cdbbaadadf8cc
col39:   fdd98876ac8acbeafaab78ebe8bf6edae6c7aefbabbe8dbbbfaf7e7dc988bddccaf4c989d9bcbcba
col40:   efd7b9a8cf8ba7b7ae8adcedba7bcfeeb6ce9bacadb5fcdeccc9ace8d9c59a7cbcddbbcecdbea5da
col41:   cf8cab89bb8bcf9df9bfdedcefdadcadbdfcdbccedcd88ffd77ece9becfb8adfe8cbc9bbdcca97b7
col42:   cfabfc8aa9baab88abdcdfc89aabe7fedddec8bbeaadec8aeab6cb9be99b9ceacfb89bcbcb9bf9c2
col43:   ed7bb7fda7bfcbbcabefecccd9eaddaecdb9bbaaccffabcbafeddaab9eafaaeabba88d8dbdaa99c9
col44:   bdb8e9c9da8b8bcbbbeebbebcaafffbebcb8dfbe89dfe9bbcfcdbad7dddeccb8a8cbcdadd8b8dbcc
col45:   ddacabdbacfda89ac7ae9aba79dbd8ccecacacdcb8bbcaaf9ad897cbfb9da98c7b7c87a7acba9aac
col46:   cffb7caca9b8cd9b9bbdaf76eaf7c6eacbeffea8ebeecbaeb8d9dcabd9bbaff9cb9b98dbddaacd99
col47:   ffdbfc9bba7aa989eeaccafcaacbfacdfddddcf888e9abbdccbcc9bdbea7adaab8bcb89bbeabb67c
col48:   eedaeca8cc9ca9baeccdcbcacdecebbdfbeaae7cc9b9ceec9bbcbcaad9a8cddfabecabc9aaccbbca
col49:   facabbce79acadbccdcacffdfac9d8ae9fceaaccd9abdc9beabfbbceb9a8dcd96a9cdafccbeeacd8
col50:   fe8ccad9caaaeb8d8dfbabdfbbfef9bfbcccf9fafedc7dcbfcbbecdabdceddcf9abea7c7abd8debb
col51:   9e9987bc7a6a999cacc99f9cbbaedb97a9b99979adbc98e9de9acc9eadca898b9c9a88aae557a8e2
ROC:	 BPix_BpO_SEC3_LYR4_LDR11F_MOD4_ROC8
col00:   886b9d45a848845979a8a65eba9475997d9b778785973879499e5b9bd57ad596653899995a6a42ab
col01:   b7986a78b9687a6cac89bb9bcbacc8cbd8b8aa79d7c9a75c8d79994e79b93774a98a99997856a9a9
col02:   796cd9768bb89879a9dffb9be78779dc9aa8dda38bfdd998879bd86a7b6a79b858c8556794646b84
col03:   b59d577989daa94aba786a98aa899cb8fe779ad89e69baebebc7c4773699a7d7c7ad46a99d4ada48
col04:   a59c78887eba74d9b97bb87699d9bfaa868ed8b89db88897cc6b8a788f8a9b75a789167a84a4d77b
col05:   59a5b87889686a98abac7799b88b78b9ba46aab56add98e7b976a97cb886aa989a7695b49ca96e4a
col06:   685e77988845aac679abac899c9eecfaca8ccf8dd9afbbf88d6899b69887a86b8a7b7ad86a688679
col07:   e9a7e869e9d8caab5bc5a89898afee9b77bbada75878cc8a75ab58aa977aa7b99a2b8abc85a87589
col08:   b835378cb85a5b5b8ab7bbbec89de8aba8b38799d9ab478cb79e97a9b7c7c76a97798777ea95b675
col09:   8a9879aafc636b8aaaeaa969c8c7ccc7ec9bca867cb9b8483cbc9877c9aab7dacc36bb3956876a66
col10:   65a485a8bba69776bd9a97b9acbabbc7f9d9fbec7d9cc6ca99ca8e88a8b789ba59a9f67723c77673
col11:   8496359b98a8b969b7b8db9baabac79acb78ab75d7bda8b4797ca94b4959bd7667c9976684346a99
col12:   771dba5b8a3bb7aca89a9c59ab69699e7acaaa36ccbad77b6c7eecb54b7998a88c3b5bed967c4988
col13:   754849c69c34c99aa5bb949a8a9cb7b887da8bd68aba9d5b86f68b88a779ce999987a38474986a97
col14:   85978b6c97ab694a79a9ae9fb998b89a799a976aaba87c7fbfd989a66a7a86928c8386996479c286
col15:   558638857858e3b87b7746ca889bba68a7e986a98a9d9a98a6796ca89785756572688d87968a5855
col16:   6a82d859685357ca9ba68797efa9fcba7aa8aab7797a7d9da7c6755867b9aa76b81665c3184c5727
col17:   944779677b79b9ad49569999867bbb9b669abdb569a58735b977957a85cca5b699856537649865c6
col18:   74a976b77c77b5b9cc4b948deac99bbac9b7998a98b9cab6687b86295dab8696494388c3659b68a9
col19:   a88c368889a9988dd7aab979b84ba766947fab587babc9dc4979a99977d8aaabd76b64496c998a86
col20:   395b5c888d7a4aa9d7a59dbba7858889b95998bb78cca97abbb68b447849b54581744a9575a7da86
col21:   fb8967ab9798baa885874a9fba9a9bb96cf99cb899db7ca86dd8f7889ba793c937b9a897c8984697
col22:   7696696a6989932a3a665a9a8a9acb76988bcc88c66a997cd5a9cbae7b697a866586a7557c777997
col23:   946578788c5a8a79ac7dccb6baac4abbac68ad6a97888caac698413b9786869b96a85c8875768555
col24:   6676a746a99589677b77687d8a68f96b87c8c7baab9b65cab6969a3bea669d9359b87aa97856a776
col25:   4a97b667cf878c8883ccc79a9a7ba9a8bcaaa3caa98878b78ba48896addb898dbb749857576556c7
col26:   b87b8cdcbab89cbaac9bb988bbdca88c89aaecdfb9d9d9baddcdc9d8ca7aa9d8b88cba88a8a36a5a
col27:   957cdacbbbaaab7b97aa88f8acbadda8bbcab9c9f98eadf89c9cb978c9d8a7ac5989aa594794d7c9
col28:   7ca7998db89c67bba99fbbc9dbeb8fdae9dbcb9aabcc8a9c7a898d6a47aeb9d7cbae799ca7dbbaec
col29:   8b7a8b8ab679897ccba8f687dcddbe9cccaaae7b8ca9e5aba68a949dba99a68babd8995566889795
col30:   b26aaad97a99bdc6d3baaabcb98bbdaed4b8eb6cdbdccabb899a89addcba8abb887b9a797a98b989
col31:   b49ac9a9adb9d798b68a89ec5ebcecc9ccfabbce9e9ad8ccbbc7d8c8d79acaac7bcbcb88aa787826
col32:   788bd9bcb8b58c9c9bcefcc6cbc88babc9a5cacaab78dbbd9f76ffcdbbca797bbdc8bc6ab98979e5
col33:   a7cddc7aa9a9ebc9c9fc75aeafccbcaaccefaabc9adbd6beddbafae7abd767abadbf7ade6a9a68c5
col34:   cbbccdcba898e9796af9dd6bcef9cafcabacdbcc98dabacdffaeb9aac9ed9eeadabd943c9b98a8b5
col35:   8ba9b8ae899acbdac7bc7edbccefffbdbccaead9a9ebe8cdab8978b9689db8ccaa8d6b69b9a8ae98
col36:   b87bbbcad8799cfdccba996aafcaddfafcdba8ecb8986da9aebaceab6babeef57bcaa6dcb8a9da8b
col37:   9bacafcdacadac9cabfccaa8fcdddce7a9cb9f7e88acbc9fc8e7cbf9d96ccdecbc9b98ca7ab7aaa6
col38:   b89aadaeda96abfe8afdbad8c7ccfff98c8bdedd7ecceaaeffdaade9cf8fcc89aada69dbbd4c9c94
col39:   f68aeefabb6dadbbe86bc9bba9aab8eb7ccfaf6c87bf9eaccbca9ca897b6acff869aabc9d9c9e5e6
col40:   cbc8ac9e899bdccfebaacb9ad8cfdecdaaeacedaebffddaeeabcc9cdf7d9ca9eddba86c76a8abb69
col41:   bba8addeaababac9bdedb99e977faddecbbedcbedd8eacc8ca8f8fba9cdb8daa8da9a9cc84dd7b9b
col42:   9bb98ca89cbbfabbeae9be9bbae8bbdecbffcfed8a9dc38acaa877ccebcafc6bc9d79bda98a8d694
col43:   ba7f7c7d69cddff9ecdf9bbfccbefabccac99dbfefddbfecdabd8bdbaa8cabded999aaa98daaa76d
col44:   b87bdc99f9babdcdec8c9cfdcccdfd8bf9dcdafdcff9cecfde7b8ab9f989bbacdcc9ddf9dea7d575
col45:   7e7969a99a8cbabdaaec98b97e9cafc9ddb9aefedeeb89998aeace89fbcbfbbcecdb98b688aaabab
col46:   cc9d8fbb9c9badc8e5eccdadadbafdceddec9bfecbb9abf9b8ebec9de6bb9b86aac9ca8579edcc95
col47:   abb9d47aecabcda78bddb9aebdeaaddebbebabbfb7b98c87cdcbbb9da89fec9a5cabb58ea48e9596
col48:   a8bdaabcbcb6dabd9c88dbfef9bbfb9ef8dcefbfc7fccbcbbbac97c9caacac99dacabd6cca8a8a9a
col49:   bbc9dbbcdcab8ef88b8c8eeabcbddbcccd8bdacffddca9caafacc9dcbaa6a989dba9c9bb57c788d7
col50:   bbb98acaaa8caebbbaea8bf8bbcc9cdfeda89cadccbc9ccaccdf498bdad594988e7abc96b89ebac9
col51:   99aaaaa595a8955689c8af6c898dc8a9e76ed896ccd8697bb89a558285ba89987aa64b8588a29969
ROC:	 BPix_BpO_SEC3_LYR4_LDR11F_MOD4_ROC9
col00:   b65659384866db44856999877a945b7767767779837888b726759b279b7273664876414549873445
col01:   aab9a9656ab78957c895682b7aa76375759bcda899b99389c8a8a789d7bbb64594965d9837667a55
col02:   8958788564a6ba89978984958d7b7588bca78797db9395957da648a585a89b689a6859d796488775
col03:   57788a9b97a87bcb776a9c9487d9ab77caa584a978867aaab5687b79998cba78bb966459c53b8357
col04:   66a5dbd765aa466b8a8a6d994bc9d9696b899587ca47669768d6864b75b58ca8b6c96947877ca554
col05:   a8a7a95b8aa998b38789b6886b898a6b72b84577a795b6b878a498675998b796435869486a353565
col06:   bb7c7b99bdbae5c38d9896cbf9bba9aa56b899aba985a88297b78a94966aa77797b88a6a772aa8a6
col07:   876588769288ca65498a9788d6a87d988576969c58a7b38ba86637778a285ac6875585695c65a565
col08:   a6b697757c1bd6977ba448b7bb7778aaa8caa39b95779c996787846c7769ba9646b784996a169866
col09:   98ca9888869b996799a6764a85ba6a899b88b949a95bae9caa7dc6b5a78c867b296886687b857659
col10:   8777964ae4888a99888996689b979689b97bb99ab87aa56948288b7986d9448a65886b8595a9a8b9
col11:   b1618b7898ba5aa6776dd798965aba78549a6a798527e658bdc9a7a7b84579b9686559666b543885
col12:   6c564a7b475643a5458889c655b8a9e567b7ba93ba96b46a889578d6a779967484938c6678296485
col13:   99a789bb88c5dc7669778b7ad9dc694787c7dbbcc865885b88684c7ac69a7ea898886674769a8a55
col14:   a7986b9897bbb77c8d9b986a3bb778785986aa9896bb68b8a8b8b9863788c77da8b44867877665a7
col15:   639885ca69a48878b88a55cbb88697baab847768699a79a799eaaab8aaba9886aa8687a579689768
col16:   659a9b6799bb5857e99677c8b96d9b8b77a659ac3b97d998a7ca8b368988d9b9199cb3755875d666
col17:   56a426a868b8a89775679bda669d65b9bcaa9d93b7b7ac7c887b95595bb87a48596b878978676974
col18:   d68646b555ac7c5aca757b7558a45a1bb7888998aba6a8d65883aa999b5686a96996897ae87375a3
col19:   777a6c74b8a8a989898c9b2387cad8ea489ccc899b9bdaa997a987b88a9b876cb9666d8d5895754a
col20:   b7677b857689386afbb645767979bb395a7ab88c67ba8d5a8b8acbdad5776ac985bc54b479547598
col21:   999976a789a788778859445586a98abc9ebad97fa9ac9847c7abb96c86a98aab6675ad9ab74c7885
col22:   95479c867d8ab78aae958bb657d847a99b768aa855b9787879bac3594b869ba5c968ab63a9757975
col23:   cc45a688688b8a89ca778c9986a8aa8c7a76ca7aa8a888a7aac888a37469967666786b7698649425
col24:   5a87889af8858a78aa4bcb5c6b8797b9887daa788b97cbb756979a39d8988578588478652648787a
col25:   79a76dcabac38b7677dac989d769aa5a89757dc9adbaa7869ab9bb947a8a856a3ba7698985868a17
col26:   e989a7bc8a7d95ba8adc488aabc79dbdbccbcc7bb8badc9dae9c8b79dbd685bdabb87c87a9bdabca
col27:   9a8cc9bcb8b798c9aa9f9ab8acd6e9bdd9a8dabbda4ad7fb3a8bfc867ccadb7c9988acd9f9998b94
col28:   7b7acebcbdbdbf7cbb7dbfdab9d9fc7baeed988bd89ca6e9dcdadbbb99baced9ba8adc8b998b6ac4
col29:   88ac9aab8bd79bc97bf8d8998bcaaacbb898c999dcbb8c9899aab78ca9c9baf8887acc8b97a8a983
col30:   9b4bd9dab8aa7abc79a8cc9b6baccb9bcfd98ecabceb9eeb9ceec69878bbbeb4afbaa84998966a5c
col31:   898a7a5ecc87fa9e89dccfe9ac8dbbbafbefc8bc696eaaeef9bccceebc899bbfcceacd797b797756
col32:   ca49e789bbcdecd9ab9dbbdcbabccacedc9ddbbbacbda6dfdad9addbdfac3eb86bcdfacda9a99ca8
col33:   b85b88bebe9cb85b8ebbdcbbedccbc6e7fcdcffd9e9dd9eadafebca7bbe7afcb7ccbdf558bb8d9a8
col34:   5dbbcd9ccacb9e8bd8bfdbaec8db97cfcfbc9acebdc9aaebcbbcccad9aedd7f2cabadbad9bbdc6da
col35:   e7d9a6cc7babbdaeccba99bc8deb9cc9ecfabcccfce9a8baa88dbeb9acef9eebccacbaeb9b97aa9a
col36:   7da7cebabc6baca95faccfbacd9ad99baaadd9bbcccdece9b9bbddde99dde9cdd7bb89a996c7e689
col37:   9bcfc8e9acaeefdecbb9beebfdecebead9ccf7aceccd9aaccafbbeffbaa5acabc8b8bbccbbc7fb6a
col38:   b9bbdcdd7aa99bebbcded9dcacc7cadecbbccd9cc8de8daadcbbacf9d8adfcfeebca99cec9a8eab6
col39:   eb7abbb8c6c8a9ceabc98aaebcbedabc9bbcbafbccbd9cdd96aebccbc9e896e8abcbbcbd98a8ab9c
col40:   e897cbfbfcbd9dcd5dc9ffd8eeebadca7eae8dcecbfed8fdeb9e8c89cdfffda8c7ddad8fbab9cca9
col41:   fb8a9c6bdbd8dbb78fdefdfbfdfdcbb8eacbacb8bbcbe8eedbdabaeac68bbfed8c998cc8dfcad8bb
col42:   d99bea9bea8daafecbeeccbcbc7cbabb8bcfeecedcdbeef9bdc7cdacc7e8befaac7a88ba8898dacd
col43:   eadcc8fb9dfdc9cfdbcbeadedacebccf9bcdeeab9adfbfdcdf7bdbeca9dcbceb9da8e8abccb59db9
col44:   cff8dcfedbfffeaeaffb8bdf9dbffdeef9edddbaeaedf9cbaedfcfcebcbf9fee9f9caccfb8bbf9fa
col45:   dbaab8cdfbbedcbffee86cebcdebffecfacecaad6abcaedafbcd8adbabeaecbdacbfaea9b7e98996
col46:   f8c7fbb9feddbbfa7efdcbdacdbfeecdabbcecfb5bcedccbd79e8cac8cb8acdaaae8d8b9dabcd9ac
col47:   cccceb8bcdeebaeead8e9acc99be9dbacddcfbceba8b69d96ba8eaabd7897cbeeaca8c8b8a89bb93
col48:   b8dcd8be7fa99ddfdcedeea79bd8bdeebcddacdacbebbcb7a8ebeeaacecfbedbdbaadad6a9a697cc
col49:   cb799bb7cdbfdddba9fcacbbddecaaadcabff7ec7cfeeaaeba98aaecad75dbbeda65cbeacaa77a78
col50:   a87afbadd7ecabbccdccbcdfbcdedeffcce7badc89bb9bede9bbccfeb8e9fcef78b8dbaac6aeebc6
col51:   85b67ea69be8cc7acb9c7b8cd99ba5a7cd96d68d9adab9acea77b6cfbbaba829a99d8ed8ca258db2
ROC:	 BPix_BpO_SEC3_LYR4_LDR11F_MOD4_ROC10
col00:   82297555687714995722691495375567697873497456864a76894462436534976273341542635434
col01:   254828a86788688775723c959599677a95b59a4857a585b928987a87d58575751167495329566144
col02:   1746946c566998a8ab9687a76516789785485a97978a458b956ba875785594378377495745834448
col03:   866945a58d5969646a768869a9bab7a678a85516885c3778997996a7b54247a4546745645593aaa4
col04:   285589656586b5a36aa98be9875a7789a89c839996a8496c6467b86775b158758959582779662365
col05:   39319495738598649939b486a7979669498b56558429a6847b484967898564446715585555125526
col06:   76665b93ae8899a3538b86779d6a9c5b755c7a72b9876862779abcb58867cb842636666461862373
col07:   47a8878b656aaaa9a5b5a69659b49cc679a79b669a96a98789b9b88579b8854678644a7814bb7756
col08:   77868778865696884578c8a8bb6bc9637559b86c89c7aab94ad47865928568869588778477a7678b
col09:   766996489967675c85785a54baa979b6586bba599c6677a76695a86775665776589435773666c862
col10:   6d794959586758a5a9aa7579b7984668769882c899985898baa3a678a6788572c457993563686a5a
col11:   45bb4abb346857994779b98b54a77878b8ba8859a286a7969b99baab6467886454752558b5955952
col12:   8586696a65a485ab7a99c84b87a9b7a3b898a59aa96885677a779a68bc76b7837787897159574643
col13:   96749a999c78778886ac7a85b899cac88b8568d5652ab96778776656438bd79aa398347a97564899
col14:   59aaaaa64c436876747954a6789296b8ca598c9866688857ca8678788aab877ab398973886827345
col15:   698678b996a9847585958a97a9797796668974a5798b85a6648796abb6c649b765b3167946656366
col16:   6477896677897899c9989d89cda768aa8889baa69886ac88687c97aa878c76875557693878485877
col17:   656689c6895c7858a678578aac588c89b8aba377a7ae8b98a5a59b96756a88955388358552747686
col18:   8269689bca9664b76b5ac7c9b9aab77d98ada68ca877576a97bb2aab72a689756776856782823474
col19:   2686c57b5998247889a2d9b8688bc9688a8a768ccba8bb9567898977655ab878787cb97466568474
col20:   8a9748aab75c78d96597856a95788869997adca95567a8bc578aca766988d3658866c84753885179
col21:   9a8777685377a9a9798a6c388b6ab5b86a9fb98bcaaea5d984876a89bba786878997866a28789431
col22:   755d69988999b5b99ab758ab6ba7879d9786aa6a7ca9ba7689c777a85595a82896697b779659a653
col23:   87a9296a576968868996ab96eb96999ba896ba774b7a897b7366a979c85268866a665475233baa97
col24:   689b97969d79a7a859a8d7a988c79ba7b88a98788c87a8c596aab7b477b77c5867656b6589759978
col25:   9588659bb646898ab88d79b68aa7abaa8789bb98d9daa99accaa89a8aaa9973b6545a78aa7459887
col26:   69799acd677b87ab87a7efb98ead797a9aacf9caaaa6cd9db77a99b898ea88a78a98598bab788996
col27:   75898779b8b88a87babbe98a889cfa5ad56ccdad9dca8fc8bb9c45c79d8abba6679969c576865956
col28:   a6aa98ebfba9bb999daabce9cdaeaaabc6ceadaacbeab99ec9bccdc9a8a79a89b8c9ccc98799979c
col29:   999aaba8dbcdd789da9c989aaadfab99eacbeb5bcaaadba9b9bab88abbd7cdc667c965a6867899b6
col30:   9a99edbbdc796ad78a8fcabfbadbc8b89decadf86a8cc6b9a9b99abfa9a7b7caccab97be5856c66a
col31:   95c8ecc7eddd9acb9be8bdbad6bd87accacbbcb99deb8eac79cf9de7bcaddc9b9cc9a89c99899768
col32:   8cc99ff97d97a6accdcbfcb8cf9bfebc8fabec9e86fb88accbb5d99ccceb8bc76bccabead96888b9
col33:   b99bb9ba88db89caaeaca7dbaadb98bb9c9acadbac9bfb5bd8a88c99a7ab878799bcb6d58aa89a99
col34:   c99fbdbabcc9489aa87d7a8999c7cadbc9a9ddcca7ecf9c7bbebbca96bc68ba96769a9e8589ab868
col35:   b8b8ca9bcabbc59ebba8bdbaf8ffdbb8ea8ce7bbc6baa8bcbcdcadbdccdaacbfeb8db9ac87ab9b9b
col36:   9bdcbacb9ccaace6baa9cca7bacbbdb9aa9ffcdccbffef7dab9abbc9d9dbaabdcbcbcb86bd8a9abc
col37:   b7b998b999abbcc9d8caebccd9ccdb9aadd7cbfaddc8aacca7b9dbb9d6cdcce9a8ccbadab9589b8c
col38:   8879adffccfcac9dfab7cfbbcabecafdddbcdbbaeba8bcbbbcdce88edde9c6b9d99abadbbccab9b8
col39:   b6d9de9acdcd6fcbabf8b89ccc9ebcffbdaccc888bdddcbbbcdf9ea86c8ccf8adca9899abb6caca9
col40:   ababa3a9bc99baebabebbcabbc9deeebcadbfcdabdccbacdc97bddddeaeaebb8aba9bcfccecb9cac
col41:   afbbdba8d9bcbacacbbc9deacedcbacdbbdfd99f9aa6bcecdcbf8eafac8bdbaace9de9daf9aaaca8
col42:   b7cacaccdbcda5faebabdbe9f6ddebfe7a7eccccaadeedaac9dcbdcb9acabdb9cca9ba8bad7adaaa
col43:   b9dcb88dfdacbcecddeedad89adacdaeca6ecebbd79cdbbbcdbcbbaeedcceaad89c99fbc9a9ab5ca
col44:   adfba9ca9d6e6dabdbecc7dbdb9bbfbaed99babe9eacfdeb9eecddcecfecdddbaeeadcbdbbc99bed
col45:   defedc998db9aab7d4ba8dc3adfbcadccaa9a9e9d8baebdec9ed8dae9b9eda8adcbdda98bcabdc9c
col46:   e8babab8ddbcbafdffbdcebecdfdc8cd9ddecabb9cefbbddcbb8bef8be99cbded5dac9b8c7d5bbbd
col47:   99da8ade9cafcbeecb97bccafffc8fdaffbdfdaefcbdbabdedcbdafddfcedfcbcd9baecddbcf8eaa
col48:   9dfafdeefccaaeddfdbddcabcaee9d9cbefa9bfccb9deaabfcc6cdaa9cc7fbd8aadcdacfecbded99
col49:   ac8bbdfafccecce9cebabc9aedab9bbac9edfedef8d9cdfe7bfeddbc8eebdadfecccbdcdffaccbe8
col50:   79efdccc9f88befcbbffbfcf9edbfbaddbfbbcbccedbfedbfaedcefadcfbecdbca9effebccaec9b9
col51:   6887988cb9cb9bc8996bafacce8dc5aa88e9d6dc6cadc8b97c89adbd78abbcabcbbaa78b6988aaa5
ROC:	 BPix_BpO_SEC3_LYR4_LDR11F_MOD4_ROC11
col00:   514a93455658c6776999b779999988bb8879a9a7b5a88b67aea69a9776b8b999d99a996bbc8954b7
col01:   64512566b899697889a99badb958ebb697b6b98cea6bcbc85fac7a9aa96b6ca8b97a8bc8ba985a6a
col02:   8613a94758a59959a859a698bb899a979ab8beaca6aaaba8beacafc88fb99bf79ccbab8dac8bad78
col03:   246366848438a9675745d8aba977a9aedb8a9b8bb7ab9b86cab8ba9db8d7a95f98ca98d8bdcbadb8
col04:   4273361948778598687744bea7c99bba9a9ca9a7a9bdaaaa6ac9ec7c799ac9bc99b6ba996c9adacb
col05:   635496868469486876854a8997a9cb67b99998b7a65a8dc8abbb9cbddcb777a87997b9996a9bccaa
col06:   33681166d862b7756889a9866a4ad8bdba9ae78bcc65cf88b9889f87ad9c7ab7aaa9d9fabc7a5b9d
col07:   61233656665885265895738a66af976aa8b8aa9adddbdea6ab7c5c8abcc97c59c99abca679b9e9a9
col08:   712475636a88496847897897cac7c9d99b8d859b9aab9b8e4eb9abbb79a9ecbc7cc8cb7cd78969cd
col09:   3526689769695597847676567aa879cb78f7adaaacadbb9cedb9b98bcaea8aaeb95acabb6789aab5
col10:   21a9446977689898899788ab7c9aa9aa8c98f77eb9ea94fca8b78b9cc798aa8c6c99789c99ab98b7
col11:   12343998758379a445b7b7b86b8568a857b8ca7847d59abbbc5ac8bb7a798dfaacf8bb7c88b589ab
col12:   87361647685955a89866aa779757ba7ac8c9db7c98aab9589bdcb9ec68a59c9a7ba9b768bb5ac3a7
col13:   53467242547845689738759ab69d8a88589acb8abb88a7bbde7eaa9c89c7dc98cd999aba8e7ad999
col14:   4623a7653664497b9a78aaa6686ca8b769a98a9b9699bbaabbab89aaac79ac998675daaaca949cb9
col15:   553546575146a9778696dab38689ca97c999cdbbe8aa8aba9a99b69c77c69e99a8cac5a9b977669e
col16:   373591571872795635a96877a5b75aa9a9a789977face48b7d95ab98acd89a8c49ebb5ac96a97888
col17:   7225a723662486618a3946666c47c778e8a8899b8cb468d187d7aa8a6c8bb7b7aad57ba88a67ea67
col18:   446238658346a7897726ba78778c569ebb9c678a8b9899aaac9a95abead988b794d787aba77ac9a1
col19:   1154634c451297766127586c887996d5aad77a9a79ab99a95a98b9d99cad96d6bc57a8f6c9b995a6
col20:   1488a631245439557215c775a79bc88ab8865665c79a8c8eb6b77c5aa6aabba85787ba66aa7981c7
col21:   2323627651244534c2567858e5aa7589b6946989b775aa4b98a856c79aa799879a6989abf7cbcf84
col22:   14565221735464984747a648d88c7a62ab9a5c584bd689667c879b8987aeb8a86579aab976c96678
col23:   1311316158727511a7b56512618a497798677aa6a5b9966a79c9972aa697779896b8998a6b58da77
col24:   7564768378485776511845a88a6686b98568877aa8b8a88eb97699cbd6786a768998999aaaeb9b66
col25:   2132862a4838d474b553757987977a2cb696988a1a7aa77bba685ab7ca687a76989765baec8998a7
col26:   55247362a75758aa5ab968c889c8a87d9bc888a8a5e9ca9a9997b978eac7f9ce6a89f9989ad977bb
col27:   93166829665356867a567b3d878846c7b76ba9b6a5d9a86765859d8ababaaa99d97a8cd999aa7bbb
col28:   a3549798666a696d84767be768757c7aad8b8db6cbaba899c86db69c89ddc76b877dddab98ad9dac
col29:   549697b59584aaa5575ac9b8d568aa6869b9b9a879979d69a98a86a9b7a67be98dcbacc858c8797e
col30:   46564634c87939867b59da88ab98b497a99c967a8ca8fa6e49ea98fbb79d8baa5bd698898a999a69
col31:   3327756898b7a86247a6c89466bbc78eb99767699bd5b868c67bcab8bbb789cdb874aba7d78a9f9b
col32:   664985976c67398588bc8bb7b89436897a869dbaabbdbb9986bcba8ab77c77c9acbcb8bbda9f8fca
col33:   87a15a72566867867559b596498969d9f88bba6b88fb98bfd9c686e897a9ca969acdc897becbca55
col34:   2645a8b677c6954b4bc89d478a8f991abba8bcb9a9b98bcb8bdabe95a989dd8cc9fbbee89bc9da77
col35:   935635879c67b7876a998a77c997996aba99dbc57a7a99967697c76c9d8699cb8a49975bacb87cb8
col36:   5a336488873d68a986a89799a7bc8a69768bd9857ba9d879ebbb8ac6b5c7a89abcbbc6689e9fd779
col37:   5578836946a86558668a76aa8976c9bd6bcdbc598a997baabbc88b889f985bdd949c9bd9aada5998
col38:   7786454778875b86579a5a8a777cc8cb8c795a9579ba8b8bd7bdabdbeabcdb9a7bd9dcabbd8cbf75
col39:   321592686744818b16648a8abb4a8b998887a669aa8bd6baab989ac9a7b7baa6a6c9bcfc99bbbcb7
col40:   46694899b2a7a8779b7c88a7aa5957a94a579f79859bb7bab8ba6bab9996cca7dab5a8ba69976976
col41:   7457569a55969b198769628b8b5a98777aa796a77a9b97aa79a95cca99a7cb995b3b9b9cacca9aa8
col42:   65a73356887a6da8899596cc999aa99bab6d6958caabc8fa9a8d9cb55dcbeb6d96985ca7e87a6abb
col43:   861575578b67968ac4d96c679bb89c588898f6b989f959ba8bd6a8c8868baa98c99bd8abb8aa99b9
col44:   7481498955874b8897a5c897c75a8c88b8d677cb689bba797dd975e969cb99ba8bc699bbb9cadecc
col45:   66241765a518562683a86755b9be76ab8969b988ba87b88777dba6bccab8e5bd968dda97c7d8c5a9
col46:   96a27ab5babc657b997864866c7a8989bb8ca5abc86aa6ed7b89bee8caa9baabcb79dc7dabb6cbbb
col47:   d745846865b874846755dac7da697779b9a7e4c88a59aaaab864978ec98b2b7a7bae78c8d9889d78
col48:   6745a5765a83a8a9696aad883a79966a79567597c6bda73999b76dc3b9f5798ccb9cb8597ce85aaa
col49:   a74583756b77599bba89b99899787b9b9b8b8c89b8a818d898d98bad9ad787d8b59c98979a95baa8
col50:   48797996ca68b749834a7b59bb596daadcc89885979b8a868c755799eca39dabb986b49db6cba96c
col51:   424256846568486463838b636569776635578756878ac75568a42ba6965798ba556563863886a855
ROC:	 BPix_BpO_SEC3_LYR4_LDR11F_MOD4_ROC12
col00:   394313356251955453397585667145751724376628a5635184927582562483375423533116762186
col01:   a522664845773441644854795859a7785867476795575786872a7674647557683448816243145274
col02:   74736675484d986a458765b47973615dc6475939348b658437967394576676457586685753147522
col03:   9547b5946598544499668784569664639586879647928596617674639b7936574967733489746134
col04:   38a297867766c825764499468a3957599ca777c64925b87685479879271757771668475477211642
col05:   752675628374691819549544a937a777387376785789198834b69669953179636712365231635882
col06:   7567847656433581a936568694749965478767887867a67b8275669988844a875267444554779675
col07:   3743658a76346476789866a64997a5b58a74763b766a744676688a93968669a85751437355718348
col08:   634668444686365478747357659c554459777859664588569889645657447666b345756635256746
col09:   769436767879767579a7797875677a899a99b867356976a86a57439563a873789717661641322461
col10:   574958446535744769486a858745bba7a9b44177c6ab466798a645726e5655635536847537352441
col11:   6956662767864654464daa4a5676b5a6755747886678a54466446493467342545667234164471254
col12:   366a858767874c88654678378967855b5358935579647b4579875378866547793397574636476184
col13:   4a74a3858a746aa858993527976b6189ab8977472877579b98795b97896784649852667345664512
col14:   863a78c869794b76878a6653974969997776a69b6baa878669298b79495897a53447144381525614
col15:   6972195759997753966553647a9676a9796a678a37a969567b39887274a411b6936747454a567551
col16:   74a574577a9847988a647a99996a885799a7997596b86668898c8749897734458666857577626453
col17:   295688865215562a9a797679885897896728c7b9678485938a994515a98837554323225685226541
col18:   46535656656585595c8765666596c4ca7765a5797465a67675828796aa7777668766481726432512
col19:   89a86879a6a5496b986859597657785aba8ae295686578795967698a675a9a96485486a463951395
col20:   7759794787554164b4c66765a95a977a8b46988768996aa857536a57377585877745776338437181
col21:   689b3e6677799996b9c87258646941b6b7769d6186c79746757d9437665698968555659644164675
col22:   46857467976897a579896978567ba8bd48896b877ba7986868596547a77873574477674164573567
col23:   1476a479369c794865897885c38b48b775b48988787b7a8892761a5866464573a5281748544a6174
col24:   6854a76645826694cd8d98a39a8988978967a977967c99358696144a6765984a5767558147797342
col25:   66a68a665d966a87a86c69a75e696a8cc87abada99da849745856aa847b957577a85678842364335
col26:   827676c7dca7ba89b8b67b6aaba99bacaba7bbd8aaa95693775a777a95a5868997778796a678a777
col27:   754a8964649796e68c875a8897aa7da7a9478a9ba89888d7cba6797947787675a69764a654267725
col28:   b8867796996baa879a798ac89685a799b7f9acadcb7b89b9adaac8abc7d79aaa7994b87695356a46
col29:   9b879dd98cb9998baa8895b779ca9b4c89799b9bb98c9c9d7989b979a97a8db84ae157a888266656
col30:   a96b896e577ca8bd89aabdc68aab7798dacb8c7a7a9cc69ae7bab9988c9a6a298898389a88687358
col31:   58bb9ac9abbb7b5b888d5b8b9b877b996bbe8abb99dd7eeba9a7aaa59aa985abcb99886695389d64
col32:   79b9c8b9aaaab9d68c999e7a99fa5cd7bdf86cc87bbdaaae7aba8bad8ea988a8a6a68797988698a9
col33:   c98c94bc7797e78cb7b9eacaa69dcbaacd7abb9fba7b966eb8b9bbabba8e8b597877597889896724
col34:   b9baa7a6dde8bcbada7a69a99c9dbf9dacbdb8cadbbbcb79ba99a9bdacde6b7599969b7978467836
col35:   7cb66a5e8a9b96aeca9a5ba8acc9959cc9db96f9a87eb859b6999bd7798a6daad7aa8568a9545777
col36:   89a5bac986d9ba799d6c9aac8d8adf9bcdca98ccdcbab9abcb9a9aa9ab9a7768889a8193463793ab
col37:   b99eadcbdfa977baea69bb8caaacab6cb8daf5e8bbabcdcd7cadb76caba7e59dbb899867a5ab87a3
col38:   8abccacb9aadbb9ca7faabdbeecdcc9bd8c87c7b9bcbb9bacd896bdcbb87bdb77aaaacc8979a8475
col39:   cb6898c9a8acab9d9daeaabab8bbc9ceafcbadbaa59a9aa8c98cab9ab9b69ea767a78b5898286596
col40:   b8b8cacbaf99ad89ccbe9d8eedfebdf7fc9dcab6dc99eeccb8bb8cab477a88a687b88a5a78998e8a
col41:   cdbbbcbb9d9aa9cd9bcbcdac98bd9dbd9fcdddbc8fc8c8ec8c998ab9bdaba9eebaa9bb948c7a9967
col42:   ddb99aa9bd78faaaab8979bfa8aabceea7edcbd9a98caa9babea9bc7daabb9b89ccca99888939c99
col43:   b7ccb7a9cabccdddec9dedccadcaedbaeafdddb9bea9dabaddccac99cce9b9ae997989cb7a7a8ba5
col44:   bcdbb6c6bc9bbabc9cbbfacc9aecc9bedbaeffb9afacced7ecd8bbcccaccb8ab8b8c9c9976499875
col45:   bcaceb79ca5eb9baaa8eddbcaacdcb8bdccb9ebacdadecbad9ca8b9a98898a9c7e8acbd69d989a85
col46:   ac9ae9acafbbaac7bbdcefd98a99cdccb9deaecbdcdcc8ac7cedddccb9dbc99bb8bca9cb8c896985
col47:   c9aeaaac99b7bdacadbdba9baa9cdfeaebadeddae9d9abcdda5aadcc8a9ba9cbbbda5b9976b7d78b
col48:   9bb3dbc88adcea9eb98edcdfebcbbfacaaeefa6aaac7cda8c9cddacfbdadad9a9aab9c9c98a99899
col49:   cd9cebcab8e6bbaa9ccbf8dedbdbceec98db98ddedb89edfadbad89baacb9bd99bd69c6a7a3859aa
col50:   b8edbbbbbcdca79dccfddecedabfce9abbfec9aacdbebccabfbaccafabdaadcdcaabafbaad8edbc6
col51:   a8b967abb8bdb9b779b9cb8cda8b9abc992b86a8da895ada6db79aaa7aaba6a76c77966356656686
ROC:	 BPix_BpO_SEC3_LYR4_LDR11F_MOD4_ROC13
col00:   b597373939827696a58787845996aa748699889b6a47bb788899373655773786b4945867634264b2
col01:   867ab7a8988476a6787757b54a974886787928a887576969585773775875758a96766788a6a66776
col02:   9a6b8396a886a8679599a99ab4a895b999ae6b9aa67776979997c749799a765b9545416969a77618
col03:   88989c8aba98999786568ba9bb7b5cb699a797695ba98b78786b8a8976a9a97a859bb87747566958
col04:   988aa7975ad9979a5b99997aa879aa8789c5c899a78b99787a993b8b5a78ba98678db88a84a67362
col05:   9978c86696a6a976b9a6b889a88a7778b688a98bbb989b97589b7bba8a6c4465a764875639485654
col06:   a6a895857a6899baa7746e6b8baba87c85ba97aa4a8b57b77c7997797689878a987594b98b775447
col07:   bc4a7676a567876668a578aa8889b59a5a6aa895d87b8aa76a88a9ca7b58a8568889487146535658
col08:   688ca67c888a9767b59776969889a979897a99a789c98aaa7a6668a498a876676e87652165364876
col09:   66bc556b86c5bb8a8bbbad9c94798a9a9886a9ac9ca99b94996996cba8689967576a466768567585
col10:   4798995587897a496878a8b87c7b99a6a5a7899999ca8a686aa8787b68ba69967589979968873597
col11:   85a8a939b87799a988a58995c959799abb98844a978a78a8a6dba7988a466a69896588b84a656561
col12:   8794876a7699aa8a96b97995c78879cb89789a9468ab965b788cb897cc67a867964889a958476728
col13:   a48865a6bba97a8bbb7998759aa97a7a8c8c7baa9a7899b3cb69a8b68bbb888696a6a854a4696668
col14:   b66a77b65a4768799c877a7566da879597678678d56987b876999895863857597b8a5666b5415437
col15:   877588a8b6789ab9a99489b7897aa8c8a89aadab99969678657888969a9a8a8a4896465785379a57
col16:   a5679c9899c76bc8b6b97c598a4a9c6ab8b6b8aaaa6a6b897a85aaac99689878ac864746565c1667
col17:   5a9389bb8998797d77b399b867799886b6a9ca6b578978b789a9a99a999747a756a6563623676a66
col18:   bb558a7d726976b96a6b8ca74bda7baaa8975acc789ab89558a669777a9a6766885559898446a655
col19:   888b9ab7966b86b96c9a8c98bbacaa9baadbd999c79a88998c87b997c8bb5a9a8766779277568747
col20:   877a8d7968945884a66a79ae99a98d5a9a99857a6b8b8a6864a9aa9a79787a888898445685976537
col21:   77b877879989a9ba99b8bd85dcaaad9b9ba798d8b9dca86a85c99bb64bb58ca5795a6595a7771761
col22:   788978789a88a7b77aa9696b89786996f9a997aa77ca8796b87a98b84a87767769767aab83667576
col23:   9987a8879c96ae787ab98986689b9bbccaeac89a8ab98a9b7c8859788bb7577598874a9866656743
col24:   9889599aa7979a68aab9a9dbbb889a6ab87b69a69e4aab99aaa76a7759c598859976eb89a95796a5
col25:   9c7997b9998a4a99bb8798ac9bb77959899baa9b8ee79b6ab999dab985a659a35948844887666738
col26:   a999a6aacb98abb9bd99b9abcbafdfdba99ca7eac9a7dec7baa6f58a8aba9a7aabc97596576a8887
col27:   79b689a869c67ca7cb4babbc9a797c9bddb9cce9cbfbd8ccbbcd9a8b89babb9a6887b8b878a7a568
col28:   acdbbc8b79bcacb8b8cacfbbcadacc9dd9aaa9d9dcbab8b8a99bcbc7b5baa789ac6a89a989849699
col29:   5a998abab9cabecaacdcbba8d8c8babb98a99b9b99ecabb99b9fbcbb97b8dc889a4d7a8878a78a65
col30:   9ba87b9b9e6aaa8dacbabaab8bac99bcadaa9bcdddcab9bbababbcabaa8b6abc8898ba3a9b49682a
col31:   b8978ca9adaba7adbfcbbabcea8bdcdcc8bdb8dcdffcab9bbacee88cab78a869cda89998bd767887
col32:   da9b9aadbc9a8abbbbaccaadda9bd8ee8cc9aebacdadabb979bb9c5cd87b8ab9697ad75c976f8b46
col33:   d9cbdacabdcbaba67c8ba9dcceabdda9bdddbca89aabcdbe9b89b8abacd8dadcaa889b587a997b99
col34:   ca8cb88acdbbddbddba9c9aecdc9aabfd7bbdcac9bbdaecdbbbdacacbbc9b889cba8bc99b8b7baac
col35:   ab8dc9ecbd66dccadcdabbbcbed8ebd9badafbddbdeccbeba9cab9ecdcb89ba6ab9b7b8b479a89a8
col36:   dba79ceda9debb9aacc89b9ddaac8cebbd9caabcdc9acdcdcbc99af8d88bb99a99a779bbacda9777
col37:   ebcccb7b99dddb98adb9cbcf9babececcdcabdcacc9accead779dddbe97acbb8d98ccddac9988b69
col38:   b9ab9ebcbcabdabad97f9ceebccddbf7cccc9dfebbcdddfcabaacbdada9babcaabbd86aa79cc8b88
col39:   b89adb8ab8bbadbafbbbbdbcdbbcdcbdbebcdd9ae7ebcdebfacccdecccc8bdccaacbbbb79c978859
col40:   b9bc9baebd9dcf8afadca8e7ecdfeeecdeebdaecddccc8bf8aacafefbec8cc9ccbb9bb9a9c9ccb9b
col41:   fcabd8d9ccdadabccbfcaadbfdf899ddfbcedecedabb89ddfac9ddbaebdbccbcbcd8abbbaf88ac98
col42:   c79ca9caedc8cedcfce8dfdefcbedcaccdcaadcc9bcdccadb9dbb8b9baebcbdcddca9bbe9ab87ba6
col43:   8bb8d8f898abfbdbdbbaabedd9ccebbcefdceecfdbdacbcdcdbaeccdf8aebbaba8aca9a8b5b75a9a
col44:   ae9fedcaadcacbebcbc8cbbaabeaaebbdfafdccdbabecfcdcdbccdbbfb9ecabccba9c8baad8689c9
col45:   bbbbccdeefadbaaae8cbc7f9adefbdaccbdeabcdeebdcdbdfde9dbebacdadf8899bca8bbeb8c9ac8
col46:   babdbccbdddcb9bcda8cddad8ceacfabeec9dfeabdbabde79cb9bccaaabfdbfdc9bb79b6aa89daaa
col47:   edbaddbbab9eaae9f89dcca9ebeccdff99bcbbbdd7edbdbcafda7bbdc9bbbebbaddd99c7987caa9a
col48:   bdbbebcbdfd9fddadfebbbdceebeba9fcefccadecbdb9ddacebdb9abcbdaabc9d9abf9b89a9a89a5
col49:   eeb78daececcb9dbcaeeddabadedfecad9dcbbdcdf7bcccc9fb7bc8c9bccbcdaababc9ad98886ca4
col50:   dc8acdbcccddebaafbddeaccdceeedcfdedbaeccfbdcec8ccfdcdfbcdddcaecdbbab9bbae9dadbb6
col51:   b7bac89aa7667aacbcbb8bb7baacedbbb98be9eab8cabc96acabd857d9c9accbece58987959799a4
ROC:	 BPix_BpO_SEC3_LYR4_LDR11F_MOD4_ROC14
col00:   ba8958c689a6898c65759a9bbcabdacb5ac8979c8bcb9dcbc6c899ae77999a98ba677378a7598764
col01:   a8c9cd9aaba778c8978bba989c9bad768be5dbb6c9da9d9c98bdfa968b9a77a82899ab47677ca9b8
col02:   885c9b97aba799b9c8e9bad6c99d78aadac9c58d8bbd9ab9bfba8b8bdccb96cb8ba65a96aa49a588
col03:   c986b59d6bbca78bbaeaba8aaaaccdf9a99ad7acabbabb5ab99dd9baecdc7e96a6c696a69aeabb6d
col04:   965bacac5ddb8b7a9ac9bbabb9bbfe99bdde7aa9b9888fac7dea8ea99b9cbad9d9dc7767b499b3a7
col05:   76b87da8a98789896ac98cac6888cfbadbaa98dd889996caabb99cc88b8dc9a9e9b8a8999ab87994
col06:   6c9bc8877dd6b8aadc7cbadbaaaabcd79bb9fb889dcbba7a96769c8999f94bca8bbac7cba7746d78
col07:   b7b7493795c8c68aabaa988afb9bde9888ebbe357ab8b8a99cbaa89da9a9c9ecb7ab7d9986869476
col08:   c58f88a4a63dccd79da79ac67b3da9887aa799d685cad96ca7aa98aabaa7cb497576fa9196e75748
col09:   6accbc8498e8bc7d94cb8a97cdade999ca76c8b7b9dbcedfbc6baaabdcf5abaa9d9d57ba74aeab97
col10:   ca7a9cbc9c988e778a7e8abd8acea8bcfb78abc9baba97bfc4989bbc76a5688cc8899ba75b86ab78
col11:   b78af7bab9c88a8f995879baa75899ba899b8bc9a996c9fb5aa89a9a889dc678ce898ba65b578948
col12:   789854bab79acbcbbbc6e9f9a8ba47a8b8b9b4dba6b678b69ba59e988a967dca8b37858a77778477
col13:   86797abc9afa7766bbdc8a788788abcc7cd5d88ac8ba89ba99bb9dd9c8c7a977574989c68b775695
col14:   56899c9b8e99dbb76ab5964ccbdab5c9acdbacd7a89dc7bbd8b88eda66b8bb67a98bacc589a95894
col15:   9686e7bb8dbdac8dca8d8b9caa6bb888d9bc8d9bb83d9ca8996c88c5d9a694cbbcab59e6cd89b758
col16:   7587abae5dfcc799aa7ad8ccbcc9c789edccbb99addbc97998ba7985d88ab7936b67b99697365588
col17:   9ac74788c88bcbcba7accb9dcab858e9fec769daabd6e9c5aba9ad97cb7b3bca99bbaa5ac6a88d94
col18:   75779abdd6746eb986bbcbad87babbdb9e8ab886acb5b9868a6a7a888ac9eb65b7eaa6ba96a6ca78
col19:   7587a7ca9a8b9d5aea7ab778cdabc9abdce96ac7adb9d7bea9a98ec6abc6b8a76cb7a7aa9e95b1a9
col20:   e889b8a4cbc6b6b9878aa999ebddcb84baabba8ba677ce9adbaba9acaa666b8975a5979866779366
col21:   c4abcb8a9ad5cdaa94e9997bd8bbcaadecaba99b9afa8c899db8eeea9598bd87d8976588965a7985
col22:   6a65d9a64798cb95da8f9ba9789d899c96d9a9d9a876854caabb8af8aad87a75798da9d78448a986
col23:   87a9da47a9998b9e778998baad77b9bba98a899c7b8abab79cb8aac8778b88a88cb7b4aa76b775e9
col24:   b8d99bdabaa597aaccbb8a7aba98bac9bbad869c9d8b48d5baba5b7bb798a9969b869a8ba7d698a9
col25:   a776b8a7bc799cc8c8d97b9d7abcb9b9bbcac9e8a8bbf3c86aaa87c95c789acc478986c6875a8592
col26:   e85fa9bbc98fca99cf9ccdcddfaadae9ccdf9dadbc7988c8d8adcde89ccbbbb796779e97968c979b
col27:   9b68cdbc9abda7cb88bbceb899aaddc8ebccbabcd88e7ceaa9a9d86bb99a9bc8895e58aa4b79a63b
col28:   a998dcebccaabdcbb7ae8ceeaffdbdec997cb9caa7aeacc7d9cdddc7dbcc89c8fa8a8aacca797a98
col29:   d7ccccbac5dbbcafcbaabbeceec9bbdbcb6fcebcd8db95cabbebbaa97bbcc8a7e5bc9e8ba7abbca5
col30:   9ac9bab9babdfcaadada8aaba8debcaeee8be9ddcefddbc8bbcc9ccccbba9dc7b478aa6698b957a8
col31:   abb68cdf9a9e7fdcc999baedbb9ccc97bbbcabce84b9f8d9ca988be5a5dbcc6eae5acb69c8b4bcba
col32:   c6ef8bec89b9cc9abbbccddec8cbdfeed7cdbcacbc8abacbd8efddcc9b7a99cdbb7ecd8cda9a675d
col33:   9aafcbdcbab99fe99cfaabefe8edec798aefcddee7ddddaad59dc99b8b6bfbbacfc6c79a577cab9a
col34:   9bcec9bcdda9be9ceabadbc5fbbbcc88dc7dcc9dbecaca799e8dcaca7dccedbb9877bab977ba989a
col35:   cbcb9aa7bad7cdedf9dfccdcedbc5f8cc9e97cbffaf9fb6faffaccbabcfebbb95a8898a98b876988
col36:   e98abd98acadcbaaeab9cc9dcdaceccadfa59f8cabf8aabbcfbacbb58bd8bbbcac9d9b9acd8a9ba8
col37:   88c9cd9bccfd9ea9bc9affbac9ceaecddbbecedabddedfdedbdc8af9ebcacbfe9adacae7bdcc58a9
col38:   bce9ccddfa8efdcfdbbffffadc9fecfedabefdadaddbccfccfbd89daebf6ad9c9cd79a995ce9a79e
col39:   89eadfeacbcccbddb98ffddcffcafeccdabbfcffbad8fdca98f98bcdaef8c7cc7b8ae89f898b9aa4
col40:   9dbebccadebe99c8daedceccbedf7dfbe9cdbe9fd89acfcebed899eabbebdabceddcaddad896b4a7
col41:   9aa79da98dfbbaa9f89f9caedbdbcbde99cfc8cca8caa9cccedaf8ba9a58dab8befc9b9e5c87ab96
col42:   bbb4ec99abdcee8ebcacfaccfbbc9ecd9eadbdcdbaafc9aacfcca7e8abbcb9ea8acba77bcaa9dae9
col43:   99ebceabefb9ab9fbddddbbdbfcdedfdbbdbdc9c6fbad9baabdbdbec8bd8b9e8de8c9df7eba4b788
col44:   cbaa8cc9ead5aac8dcf5dfabbabdddfeccbacdedb9ebe6ea8c4cbc96f6acbdcc5dbdcaefa8baeda6
col45:   9ccd9bc9abfbdbdcd9fabcdebbecddbc8aa989dacdbddacaecbdcbcbbbcddcc9cbaea7afbcc987b8
col46:   8a9eb9dbaadddbaaabaccebf9eeaedcfbdecfcfbbdcbcaaad9daabada9abaf9cab7de9bbb97ba8d7
col47:   ac98bee8dab9cafebacddfbbdf9af9fefffcbafeddb9edb6cdc9baf97c6b999c899cdcacbaa8c65c
col48:   bdd7b9aba8ccddfba8ebdcbc8ecccccddfafd8cdbfd7abc8bcdbdbb89c9aaadc8bd9ca8b7b8aac96
col49:   9adefe9c8becedac9f9debcc9eeebbfd9dbfffcfc9ebac9facaab8d9e9cb8dc5fbccab89bd78c8d9
col50:   dda8dedcaace8acaabebfab5effdabbdfafbfa9c8cebbbb9dcadb898aeeb9b8bccdfac9cab9a9d98
col51:   9969626d6aa9867b9a8a69a8aa5c66cf8bcffbc9bdaaa8ca89aabc7bc97669c8aab7aba889a97954
ROC:	 BPix_BpO_SEC3_LYR4_LDR11F_MOD4_ROC15
col00:   9588588864887677679a795787999888d7678b8bb75786bbc489376879b536457547736444714115
col01:   a786cbb547459779b755978bb6986c797a88a88656c989a3459669d7699764c57775784636445244
col02:   6398785bc8988a8acd3a8bc7d9c8ba78a745a698bacb98867968c7597566a8774496578878479941
col03:   a887a689a885c8ba99a77787a7979964c876598c9a7879b765d958a888dc6a559877545726184648
col04:   495797c676967a9788bda878a8c8aba98a6c8b9997a8b8b86994797c579985a49928869585376673
col05:   44b8a72527779ab88387b49d99a7a97b76dbd8676c9959747a7a3b8ba577769a75574b2973156121
col06:   87bc849696878788b9ab8ab88b7666c77985b6ba896d7a7777a8758999cb8b6885a7898674685333
col07:   b9958697a14d9895a9a5657aaeb8aa98b8a99e7ba97796e684285885c86542776679c79343424471
col08:   aaa9989994baa9749b4a8a899896bdb7b5c997b9be9bba97c5e8662688a7656c3a97568165652173
col09:   c55bb99393a87a6978c894c7aacb7a6999b87a976c9b8988c7898987297494a276c8587888756286
col10:   8899a77bb68858978e788cd9b999aa778bc66488dca78c76da88aaa88969a796b464786968161688
col11:   696a99669777a678b78ab77b8a6b79a5aacbc6da8758a58ba9585878675a93666669785476683752
col12:   8798d7b856a768b854e89a9a965c66be79896bc6a7897b7bb9a896476989a88867a86b7564687436
col13:   c5aa79789769a788a86876a76995d7b5cd86ba7ab8987ca977586a37365a4a968357737417539915
col14:   8596565ad7998969899da57cb894adb7babb7aa98a86a76ac8aaaa78a69467737678895697358768
col15:   99667655779aa88995aa95cb85a67c7bc968a8a95668949897a658869887866776ba162877844368
col16:   ae4867bab99759e7978979a59999aa9c9e9a48db83b649ca8c97697a5d993bd9b75978379b363856
col17:   35bc33d9949498ba6a7b7c9a7a6aba79c99a96abca6d47e8b7ba4842b6a85652a677789145546251
col18:   68847475996759688759b7aaab9788a7ba897a776b969aa7997a4b7c75595976696888487c448276
col19:   a78557b7465c398a7969d97997a857caab7b76c99a8d7876a98b79788a58d7399b748968b5562688
col20:   6961a797c55abadc779c7ae79d5a978d668896368b8457cb5ab928c8867688a96966855869345596
col21:   9667d5b7595bbb977bac5bba69978cacdc8bb98a8abd5aba898cb6867985a7678867964c36765861
col22:   735897a764c95678a5c9aac3bb9a6a299b797686899a5974967867785b6555a67a48c235533475a4
col23:   658866967a7bb985a478896788c85c7fb6e67aa99e57ccb8b7aa76777a5586a4a664558a95876631
col24:   1736c9cb69977a7a569c885886b977c9acb8d99b8765cb875a9aab888aa7b87a8345a517a9435a52
col25:   56989da479969aca766739a9775666a89979bbda958b79cd28996ba87b6477498ab5354363557675
col26:   7a99bac9778b8ba99aa739b8abab7989b6dda7bbaa9abaa6bacab8cbae8c86bb6879cb7259b48699
col27:   99a9669c7da8b8a9dabad989b9b86988d58cbb8887ababaa7cb68b9a774bc7978a88877599567684
col28:   c88896c9bdb6898bf8c79aabb9aaa6d88bcb8abac88abbcaa8cd9a787a7c9a689a98989735749782
col29:   a899e8b77ab999c7b86cbca6cfb8afabaaaad47b8a79babb899abbcbae98aa79c9a8664959565d98
col30:   97aab79a7b956a6778d698e8c7b7a858798abc9acd89cdcabd6cd8ca97b77b7876d76796758489b5
col31:   95caaa6a98aeba679aac89bbcd8abafa799d9a9887cccdcdd99d7b99587ba46d8ba89acb669bc797
col32:   d3a7a1ca9a9596876a77a9d95bbabbc3b8caeab99bcbc9c58baacd9bcab789669aa77a459d898a39
col33:   b69a69b75997aaaa8aa59897e8c7c8ab9aaeb8aac9aa789a98aab77a777a765a9ca767539c385a86
col34:   ca989bd98ba9d579aabb5bbab78afb768b99caabcd8bc9bbe8d9ac9acccaae89a9847b977a4a8255
col35:   69a86a6db8cbbaa7759a6b88c9acba7baeaddba77db9cfdecac7ad787a6a9959a889a8a294381644
col36:   797b8a987ba9cdcaaac8abbbcdbaabdeadf8c697ac96b98cda8a8998cb5ac89bbda5b8aacac99998
col37:   8aa489b98cbaa98ba7b85b7d69c76edb6be8c9cabacc7bbe9c998aa787a9a7598598a8787a999778
col38:   bd6a889aa76dcd57998c6aebaa79dadccccf8acaa9deacbc7da97a88ab9c88ac8a7b77b6db6b69a6
col39:   c99accdc989887aeb9ba987aca9bcfdf7bbc6aaebbabedb8c98bceeab899aabc49b8c6989b8b4676
col40:   9da87a6aabc9c8aacac7a99ad7a7abbccbb7ded8999ee79bb77fcdcedcb8b7a56a98b96ab73bacb8
col41:   f98cdacbd9b688aba898b6badbbaca6cbccfbabcebcdcbcba9decaace879aaeb97576aabb8b87587
col42:   8c8ba8dc996bebf7c867ca5bc99bdb6cbe85cdbbee8acac5eca9b8b7c8aea9ab9b578b78db788b69
col43:   99a9ba8bba7bbb99aa6aaa9cebba7ad8aabaab5aaf8a8cfbecaaa8c6989bc9ca8975a75b792b9767
col44:   bdae478aeac99cd8f9aea67dddb78abbdbce9cbcba9d89986babcc99b9998b8ac685787ee7866b4a
col45:   ef67c9a94c699ab6b6acaecab8cbaeb9ce8b8ccbbdccecca9ac98adc9dcca898d989a9b7c99aa84a
col46:   f9ab74cbc889adf9b8aaa5baa8ccc9c9a96ad699a8ca7bbb7a5a7dcdbcbbaba67ae6a7a8c96667b9
col47:   baa8bbab8afa766896abca8b69abaab8cabcd997b9bda7bbacb8ac6abcabe9b8656ca88b48345888
col48:   bca7eac8b7a8977dbc9b97988a9ead97eacdc79c9cdc9bc7e6aa6ca7797cb7768ba6bac8dca5788b
col49:   7afac878bccac787bcad7bbc8e5abcd94d9bacbdbf68bbad8daba3dce67b87c9baacabdbcc67ba9c
col50:   d4ca9d8b9abcbab6b899cd8ddbbb987899dcbcecacbc99a8cdc9abadbab7ac87c6e6ba46874a3964
col51:   7a9539b6759896a9966877698869dba6cd74577987ba5a7a6ba8668aaa6a78746687b6d887464235
