ROC:	 BPix_BpO_SEC5_LYR1_LDR4F_MOD2_ROC0
col00:   34636b65775b471b6766b8b5b5c9bc7b7b8d74526c79886882765757557766766767b5757424661b
col01:   5a6a869475778577589b75675d8b989b675d988b6bb9996269b454bc977754596bb6889775947694
col02:   755bb84c64679c66389689ba69a67ec289697e7bc995d8cc7287889a78986bb88a36cb6648516866
col03:   776b9875aa68cb79b9bc687695d7c699666ebbb8999a964c8775b8a858749a987456737584328435
col04:   8786ab77a6c7d55b997976b6c78cab8b8eb86d7475b999868dc68959b78746cc8b7b9576b8558751
col05:   676c86c88b5c968a748b97975a8b95bdbd9cc9a4b7a6f95b5469b964c397c67bc59985784673b284
col06:   9379897668827b779d6db77d798bd8793b7b98898a85475cb5956b8a5693ba885b77538579574195
col07:   95878b97a597575b893bbbc8c65a9a7bda988ac7bbac7bd85767675788b8767b6415655885889522
col08:   8abbaa89d86b99996bb7abaa83b8698bcbf6ba88767455a45b45556b68b4b86579b36741366886c7
col09:   275b6388857b96b617896a986b8bbabba79b988b78b75a8a5687a75a9af687853663c6d74b9a5bb4
col10:   6c9b89b9a9666769a86dc839bc967d8b9d9b75a88995788aa88986799b6d99469858a7b59b576526
col11:   4689a99d68a38979a9a785ca6ca6d9b8b83bb797dc75b5bd7756b8894bbb8d7aa857cab7b39a3484
col12:   bd699b87277884677969b8aaac59aeb9cd85bda9bb6368b7c788cab9ba8b58b46ca86b4363874754
col13:   9465978998939bb8968cbabc87ceccc78b99cd897b69c9879cbb775a9b9839956989873b29456446
col14:   766846259877b89d9ba9a557c688bb6b86969b9a8a67a998385b99bf499ac999654963ab61b96587
col15:   4d57867576bccc9cacbb7d68eca9cbbf9b796b777b5a9585649682b6b7b8bb5a696d81c67e656624
col16:   89795a8b89bcb7a7bc5cba8cb77877cb6abb42d7a55d25c647868b868dc5ba236844784893b48678
col17:   92645c753ab6cb7bd7698c8c86acdbc5b9776b6bd16b769873b4e7a5aa68b56688a66863c5673675
col18:   555b858767a47bba87bde987c99c979999c7869ca68ec6996b9a86897a69aa773465757844888396
col19:   668b485b75c7a589a59b678987a7b8e95b995b9774c9db79ca9977b9dad967957b8ac7778659a756
col20:   79888799ab7aabb9aab899988568bb888cb7a9d297c8989b8bb3b9c7bccb4c76da8837c791b99a4c
col21:   8b59a76669a8886a8667b978c735aeb7a75a99f999965bd6629db79e598aa6ba4957755757976657
col22:   b48b587994988c8c799969c79c9ccc99c68c98897548b9989a9aeaacb488c984b6a988d8858a6466
col23:   7bc7f7cbb8aa75a7dd9c797adb69a8ab5fbac97b9c7c47c7dae8ab99774bef89b3a56bb95a7a4696
col24:   64496688b9a548ca96aa9768f99ab968cbbc7988e7778c999479b65d3fa96c9aa3ba9817c77ca86b
col25:   767c9dab1799b6b98c9597b7adababb689bf9c9cd9ca5bb78dedd8b7e9dec7989694b8b88a95bce7
col26:   b698dacb9ddacba56c899988aa98c95b5787ab5da6c9acccab69b9b856cccb69b985e9985bc7bc74
col27:   5885c7b6d77bbb886b697bbcdad97ed7aea4bec5bad9bb7c99a8bad8bc6cdb8b88ccffa9686b98b7
col28:   b77b7d655bc929878cb899c9ecdc9a8976b89db987a9ba98897bc8cb7dbab7888caecb6cc8b5b84b
col29:   26ab669a8a6896bc6a8bb8acd9facdaacccb5b7cb8fba9ab98aed8beafbb9bc89f8e89b9be69ba9a
col30:   589ab88788bbc6a777bba97fcfaa8a7aacdfbcaad9dd9d79bca2c9b9e6a769746779b7a9ebcdacdb
col31:   9765aa7868cb8bb677bbcece9bc9afefdcc7cbabdb7873aa7ccecdfbcbcbcbfbb7974cdcacdac99c
col32:   8b9a875b9aabc6696b878aadf9facdad9ccbbafbb9cddb6d9bb8abdadcb9ccbaaacfac67ac9ebb95
col33:   89aab88b94ca9b6c5bcc9adaebffbdcbbcc8aa88ba988ca7bbb6a8bbbabaccbe9a59aec7a9897af5
col34:   8677aaba88ba86bc78998adb999eebdcccbcabaf8d7d7a99bfdc9cbc57cad6cbceccadc766bc7b79
col35:   977888a978d9e6ca79ac8976b66c9a7ea939adcad88cbacba9d9998aac997d87bc5cda9668958b7a
col36:   79759695b6bbb574bf89b88baa8fce97cbab7d8bb7c8a8ca99aebc9d99b88f9b7b55bc99a8cc79bb
col37:   c895787a79bc8668ae5ccb88bca9bc8b98a999a786ab88df98bddccdd99bfbdcbadbdee6ec8cadec
col38:   7b6b8bb9ab77b8b7b9c7b9f9b898bbcc96cdcbab6cc9ed99d9dbbbabb9cabef79bee9bc2b98cb8be
col39:   8997796897ba669b98cdb9bcbcac68d8d7cacbecd987bf87cbdbaeb888ebddbdeba89a8ecb97da8b
col40:   54668789a7d8c28aac7bb8d99eb8c9dc5bacd9fba6eafeac9fcf9b888ecbc9cccaabecca7669b789
col41:   b88b8999d9cb8efb7cbcd7eda5ab9da8aaa9b8fcc69cebcaf88ab9b9ebd9b6fc89e8add9c7b9e7c7
col42:   9b78c3abc8a9568aa97b8bde76bbb98a77edd9fda89aadca99b99f8db8e9fa7a8cc9cbafc99dec98
col43:   968b9acb7999cd7a98dad9accaa8f9a9bbdbb8dabc8ccf9adb99ccece9feaacf9ceb9c9c7cccdcb9
col44:   b879976a8b97c697788bc79477c9ddcd6cbaecc9e69e8feabbcacdddba7fead98cddaa9dfaa9bef6
col45:   7b9b97a669d6b9a9567a88bb6cbd99acdad9ea9bdcbcb7bce9a99a9ceaa9c9bbc899aea7a8f9b8ba
col46:   78b5bb96b6776a9c7a6bd789d4bc8be99e99cb9dbc89edbccdf8b9bc88c7cc7d7fddabbc6aabdcbb
col47:   967b96a79b6987b69a9baadb9abd99bcc89dafedcd9bee9d8acdf9ab7b8ed6c89faffbdaf7b6e599
col48:   87bb69776a759abc75afe9d799cbadf9ef59d9cb98cbedda9beb9649e8cb6bcf8dbac8ceb99cd8ba
col49:   4a4889f6d66ba56bacaea89d7badeacecceb69cdc9fdf98cd9dfedce8fba7e9cddfdb67b9e79deed
col50:   89a84567c36989dcc9b89a7add6dc7cbaa8dd8cdcdabb6f9babcbcd8b8cb7de89c6c6bf6db7a8bd9
col51:   b8789866948b45a6bab89bbd9bdb886599b6c77cb7c6c8bc9b7c75a878699b8f87c7c6c5c8c37997
ROC:	 BPix_BpO_SEC5_LYR1_LDR4F_MOD2_ROC1
col00:   9477557b568ca5c8d9a896bd7bbd58d8668acabae4ab9ccbcff8a8888999b7c6bab7887ab89967c4
col01:   65b7955a898aac87f56aaacdbe9bd9cd8a8ab85cea8e7aaea779e7b86b56d88beb59d9eb45dca8da
col02:   96498578766789649778c9c9cca9ad9f8aa5ecbba665a8fbbb8dcc9caaca8dc97bb8bc8b94a66cc9
col03:   aa4685986aa689bb9cd5b88ebf9bebc6a9a64a8b7cb9aa9c3eddaac758c9a9bda6c6dbea7b9ab665
col04:   56968569758871579bbccdf6b88bca9bd9aa8c5cddcaaf8c89cd8ca7cbb7bacb84ab9d6aaaa797ba
col05:   5867786797ba678db7696ba9ba8a78bc98a5b7db9ad98acbbdb8b7deaa9c9d99bd89b888a6ada5d5
col06:   5a4a8b7ba587a9cc7ed6f88ea88acc8c89a989cabfc99a8e9bbbdbc8cfdccdbc8bfdec5bc9ab86a8
col07:   6a6788b687aa87a7997b85cc8d8becab7968aaad7ecc5dad9d8beaccab97b999c9bab5b879b5d974
col08:   b5a67897c98b78bbbe9a89c8adcbffa96fd789abdcdbbccefeaba9baccbb8cebca8c87b5d8aa7787
col09:   4c994686a7b97acabacabded7dbddeac8bcdce7bc78db76a88b9cbd8bcbf9a9caf95a987b29b88dc
col10:   996396a589888baab9abc9a76fbb5b9aabbdc7bdeca7967abc86b8ebcabc88d97b6dbd63aa6cd8da
col11:   a69767b27d97b9abd9b9a8dbaa99aaca8c99a9bbbbae76a89c99cabb7eaaaab8bdbc89b96b8ad7db
col12:   79888975686a99757aaa9bab9b9c9cabdad8aecc99bb96a7aedcb9b89c9cebb778e9bb9ad7aca8ae
col13:   969b5c786b89ca7667b7ab6b997cbfbc8ccb86c7aadb897fc5e6baaaba8b9adc7566b85cfaadaa8c
col14:   7a6c89a7589588bd7aacaaa8aa5c8adbbbbbbb8fea68cbc9ba8c8ec89cc99b998eaa7ab98ab69d69
col15:   8895766d9894889a9874b69a89dac9abd9bceeea97aa9578bedaa97cba9aabab86bdd9aabb797867
col16:   6986a8557b78879ab89abababdc789ccd9adb9bbb8bebc7689be89cbadc95ea9d5c69d9469b88574
col17:   857d95a947778a9969a7ea9a9999aecbce9faadca7d7eae9cadda669ced9ba9d88ba8c8aed8565bb
col18:   9286869b7a8c78e878999a8ab4cb9c99caaa8dbc78cc9be995bdc98cdfdecdcc9ad9ebca9bf7caa7
col19:   87996469689497a8b69ad79ca9f99ba8bbbcdb7f9cb99fcfbd8fdb89bfa69599959aa9acae7abbc8
col20:   78788ab96c6977b98e9b97a6ceb4bcbcbbdb8ccd9c9afa7bfbbadb8dc7599a86d7c79d87d9ba69ac
col21:   4795688868a7977cc9abb8c6ae9bcdbad7cfb9eaba9cbbc8b6ecdaa6a8eadc88a8bdda4abbcb9ba9
col22:   8186986684c7784abcedd9aa9bae95ec8cee89bbbbcc9c889df98c6b587b599dbbb8a536ae68a968
col23:   99d9888b6597986799776de9bccaccbc9e6ccb9dbdb779d9cd88c8ab85a98c96cdce76a58987c37c
col24:   97748bb5a78b5794adba7e9d9ddfb9bdcc8a9cabbb8ba6d676aaeeea9aaab8a794bdc989afba98a8
col25:   672b9bb969a99bafa8468bba9cb9a59eaaacc8aba999cc787b7b969ac9999a8ae5ba9bec68bb9696
col26:   c88dab6d8b87b9b787998ddac8dac8deb6ad78adab5cc98987eca69797ac9cd695997eab9a8c86ca
col27:   9c8db7668c976b9a9acd8b499dbdbfdcbbdfe7ab8898cabacab7bc8cafb9eaf8dbc8c96e8c9cd9b9
col28:   676789896aa9847babbee8fcafbedaeba8dccac9bcc8cba8bebbdbee7a97aa88d8afbada9cb88af7
col29:   78577d989ad796cacb7fbcaddbfd8adcaebaeaba8ca9db6abfd8ddcabebb9999a7a6bfdcb9fcc94c
col30:   a766bd8caaadb9abb9b97fdcb8ccedcf7eafec9ebeeff7ebd7cdb66d7a9a9daba87ccad86a9c99cb
col31:   9aabab87f9fb9b99ce67d9dacd9fcecaacbfe968f89df9cd9cae9dc9fdcdbbaa9cbf9bf99c7c99b6
col32:   78a988799b9fee9a99aabc9debbbfceffcebac9a9aabf7aafbcacabce9ddccdddbcdd9cc5aaa9686
col33:   687ab88aec746cbbabcdececbbad99bdcbfaadcaaa7bccb99ea9fa8eb8aabd87feaadacacaeeabe9
col34:   598ca9ab89c98ba97eabaf8dcebcabc78c6bfcceecba9c9f999bdd9d77ba9689bbcbda8baada58b9
col35:   8a8a97da689a9cbab97fbbdccacdcdc8b9ccecfd8aefcca89caac7b7b7be9ca78bb9bbbdc6c67a97
col36:   9a6f899b8888bbcccfbc7ebfacdcc7dbbd9bab8d87b8cca8cd9bcafcbab9afaafaddc9f9aa6da4a6
col37:   694b889bce8e8aafcbdbfffbbe7e99c9ca9dad7dacba9ebca8bd8d9dcdebefdbbcb8dcecc78bdc98
col38:   6ba879dda88cdbaa99cb9befeaead7bc6bbafd8baea9a7bca8ebcadb8babbfbbbaa97bdbcb7cc9dd
col39:   bacb7bad9e8adacbc9dacb9bbeec8d7abbd6a8befde8edeadee9b999eacbb8b8feccaeec6aaab9d8
col40:   8ba8b94aa98be9abaa8898a4db87ddf8cbab9beed679bc9e9b6ab9eb8bf99a9cad9dfccd8a3aaad7
col41:   788a4ba65acb997caa8cccadedcaefb9fb88ccfacb8b7c9ca7abae88fabbdde9cbcbdd7cdbcaaba6
col42:   8ba9986ccfcddb68dcddbbfbdbfddcabaebdbdecbcdbdbd7fbbccbbacae9cda7baecc8c789aeddd8
col43:   899a8d9c9688aeccc8bcefb9de9a9dddbddeaa8bb99c88cbce98bc7b9aaffbf8bedafa8cdabcceca
col44:   6a5bbdb9cbd7be9facbccbadaccfccc9cedbfd9bea9dacecabdc8cbdabca6d8bfa899abc7e6b66af
col45:   b9a78a89bcba89cb9eb8a9be6cebdccbedce6aeebb7bebccbafe9decbaabcbbdbacc8cbb98abac9b
col46:   8a7b6ac968959cabdceb9eaab99acfddeff9eaaddfc97baeecbfbbeffdbaa3bdbacabcbd9cfa8ad9
col47:   7aacb8b89c57bbd4ba8b8cb9ce9ffb9aabdbbf8bba89faa9ad8cdbd9fbc8c8b87b8cb8e9d887a6ea
col48:   6ac3d84b989baa89ceb6adf98ee9bda9bf9c9c9fac98cbddedbbdbadcabcfc9b9cabbcdf9d8cd8b3
col49:   dfba9bba9cbaddc77ec7a89fbcaed9ecfcc9aca7bac7c8cba9ee998cd8ab998aafbecbac79bcb8b9
col50:   dacc9a99a7bae99986b79a8cfbcbecccbadb9dafdac9d8eafc6bd7eab8ddbdaa8e399ad98ecb57bf
col51:   78b96a99aeaa9a98f8c9aac8e9db9d99fbab8d7bdaeadbacbaa9aad8a887797acfa8a97aebab78c9
ROC:	 BPix_BpO_SEC5_LYR1_LDR4F_MOD2_ROC2
col00:   568b7766546b48634666881ba97cfb9bb6bb67b53b3a69668756b8681615b84593b6a4b5645bb137
col01:   a6bb149b53725a7852e6bb899bdbc3a9a8889a8bd378bbcabaa578a496a599a68968a94876695873
col02:   8738658ce53986a4b8699c8b696b6587883598579dcdfba6d9c8a87dc79795b8865b99c7664881d7
col03:   625793c5a853a9859a6be6aa8dcba97d3a7a8a879cc77caac594da96685845b9eba88d6b897cbb69
col04:   654a667976a79a9b4c877a66aca7b9b95684ad9ee895a897b477c99b97945998945b7549a3764694
col05:   683767667a9a7798687894daaa575c6988dc8ab8561b1ca9ba7896d649ab64857b8975a154a877a4
col06:   671db8378b2aa9a88a8cb7d79cb6aa6578969a783b7878b9bb588da7ac96854a69658869716bb3a5
col07:   47768c8a45a66cb998625988838cc6caa6bb8a788849b9b5dc97877888c4ca87b96ab467644756a4
col08:   8a948b663745a889978a7a5d87c9f7bbdd87bc9a98bbab7489cca3b7ae8bfb86bc88767855993941
col09:   8ccb75b89898ba7d85789ae6bec9cdaab98996ff8b9bd6c8b9eb99b8ab8dd9297c678c764b525934
col10:   9a955a95ba7a98d974a6c96775ac6ca79b649a666ab9c696ac7baead97c747a956b89797936aaa49
col11:   776798868677997779acddc544aa9d9b8b7ea9c86c696dca7aa9cb7c9a8b5b88996839bb7b74c5a8
col12:   88599879b9b73b9b977c9ab989b788b5ac89aa99eb876cbcc979bd7ab89adb67c975a68a881668ba
col13:   678869a7695a98889ceac79839bd9ccbba5b58a5a76b59ab8799b9c968788a936789b48768ab8ab8
col14:   7599579c69798446a8b688a975aa7ba8a98a9986b766f9585f7d9be7d9866b5d9676b35a888a6534
col15:   5458678a87785956c99ab7be888348897da7b598ab86d76c559666abc81d6b8ab489d77a8a64558b
col16:   67467a363887797957999a8a6bad7c7ccb2bc8767d899888995947999a9ba6a8c9d992671858a682
col17:   58955747789c5995a78b9b999ba8ca9b399baa77899956baa996e8a68c79c4b68b8479ab36a55967
col18:   859748778387676a9bc49a7989dcd9697999979baab68a86ab96d6995d98abbea9a58a6ea466877c
col19:   89b366969897ea66c8da97999cd8ac7aebafdf4bcad9e75fc97958869dbe5997ba269b8b5179e768
col20:   a85568b97a54288baaac7a895bbb878b9a6da9c9a58a69ab79a9a64bd7c8f49ac5a6a8998d965775
col21:   9a96967888656e86698d9c7bdbdb84dafcc58a6bca697ab9f8895ccbb7ab787b86869bd9a65aa999
col22:   a869865797a68949acd3775afa99bba79beb979cce9999bb88c96b97a87c7afa8889b8bc7898a325
col23:   b8b378ea4aa58a78bca5e8ec7ed8ecbb9a85aa8b7bba6d89798a97a8abc8d7fe88a688488baa7857
col24:   989789a978787d979b9cbb7cdb9ba677787b667bbbab9b468a6c8c9b939b687ba8995969bea7bc79
col25:   8c8499763a88b8a8988995ca9d9797f7d6bcdc9ac9b9b9b86b8995dc67ba9a8e757b8c868896348b
col26:   5688877877b89da9899b7adb7dba9f9b996bbccb4d9b7797667db87a987695cbbab5797c93689c87
col27:   4ab95995ad889b74cda7d898cdffa99f6acc87979f89baca9bbabcca7bb5b9ccbcc89b9bd8c67b88
col28:   a778d8cc7665c5b8a7a6b6d8bbaccbab9ac8f66b88dd788678cd79a8f974cb2bcace6b8bbf5ac6a8
col29:   7d855b5979aa856a9867cdffacdcc9bdd8afc8b9abaa979cfc8b879f9cc99adc38ab88bb68638298
col30:   88669b98b598c66b887a8bb9daeddfbccafbef9df9d98ca9bbccdbdccb9aa8bbca59ebaa93b88a57
col31:   4ac867b9c979d5b8bbebafcde9dbaffdeb5bb9caccb8aabde8ab6c8bcbb86a98ad7eca99cf8f9b98
col32:   37ae89988bba9a8acec99ac9bec7cbbbdcdbcab966c7659a37b6e7d9b8acbca6ace8a99a99b86a83
col33:   69797697969d949ebcf9bcdbdb7d9b7d9b9b9bf9fd7795abadbdbcfd97c7ea7b879776b8c78ada85
col34:   ab8ab8a76a878c8d87aebc9fcbb978ad7dbbce9df69ab785a6cb9bbac67faa9cd78492c8baa67aac
col35:   97d5b79538c9b7aa6fc67a79faacadbaab9de9d996a899a89dbde9aa99cad6e9bb869cdd96ca778c
col36:   6b6b785a475888cb7d88abfeccabd8c8a8759dcdab5a9abc97ddc5ac8b77ad9aaa289b9c866b67a9
col37:   b985978a77ad889bfa4bcfb59a9af78b6fbcacb99eaa7ada88a3db88c7f9a99adfaeb48a8aa66a99
col38:   964a59979a897abb9dd95cb999a9dbbbccdac5b7bceabb9286baa85b6788addbc89d79aaa189ad87
col39:   89abddaa89da797b9bc99aaac6bad9e99b9cadba97e8bcadeababca7eaadcdd5aace7ba7da98bd7a
col40:   a86897b5e9babe9cc73bebc9bbcc797dccccbcfa989969ec9daaca67c9ac8669b9dcb7da9da79b5b
col41:   a89758a79ba9bac7adcd6edacbbfaccaed7c9ddaca9a88b8d9e6a97abbde9a7d85ee7aaaab7cb998
col42:   95a97698abb8b8bb9b769ffbf6d9eb99b8b89bbcdca8dabbccabc5758ce76a9cb9bb9abecc8bb8a9
col43:   5a6898c6caba6dcf9cab89b89f9cbb9cbbfd7babcc8957cc5bca8dea89979feed8999a8e995b78cb
col44:   a7a5adb8b48a6787d8cd9bccbfbdd9cb8c8dcbe7ddacad7bdc9ac7aaabd6a899c78eaabae8693688
col45:   a8ddaa86d788687abccb6a68caddfdbdc79b9adb6baadaac96bddaaa9bab9ca78aa77e938bcca9b7
col46:   5996b6b8a8a985a9bbaa8ddb99ad5eebadc969becb5c9cdbcbad9afdadb977cdc9a8b47988adb4da
col47:   77897aaa96ba64ca8a999cd9c98d89c8dbcba67c8a7ccc97efa8eb99dad969ba56a99bb787a69db9
col48:   6a9c56569b799daa8d89db9bbae9daccdca99cbb8eacbbaadafdc78ada88d8e7c8869b8a88ad69bc
col49:   6989839578ed6ae9ad68a8bcb8db8c7fdaaea8bdf8dfacfaadf98bbf85a6c6b9daa7a6ad87d73a55
col50:   8b99accc7999a898aac58ec7ac989dcadb79bbbaa9aebc7db7ed67be7bbe6997958c9687a98a96a8
col51:   5d8b9bab4fc3b999caaeb96bc9a8bbaf76b9fecd9ebe88cedc8899b9b96667c6ac9a99aa68d89377
ROC:	 BPix_BpO_SEC5_LYR1_LDR4F_MOD2_ROC3
col00:   b523512388378455598534899786c3387b8b8b46417c8895474878f87338816b7466765bb6764562
col01:   1467468b5882c97b3b97967784c878bcbb68a537775687ba8988ba558c6792883b96b69998b77658
col02:   7596979b64918ba796b99575797c968b99b979747987a98a74958c799866a9686845637768464757
col03:   6486989a98892a1cb5548699b8789bba6aa89898a787bb9b96698497ab5684b6b977457534274248
col04:   994a939924959986b888959889b8da8797858a733765b988b985ba7977b8aba697b5a495657366a8
col05:   44be7348997b975b627846585fbaad97c98b767d69597678976293956c9b7566636b788947433485
col06:   639794687b7794a9b756bc89f997b8a9ca666a754a5b65967b55b38693565b27968836b977637366
col07:   7247b7a4a8483869769b96baa887dcb886cbba9a7a876813b67699775886c4a798bc7765896459b9
col08:   67587b8975aa97889776b9b78986a8688cc7b99a988666679aa9456bacc8595817c625a478658756
col09:   47648a5b98a4857995876b7a78a9cbd9b9bccccb985da4739779a676b79997b9689891b89c58a78d
col10:   71685687658aa626a677b4a8bc978679899779b7974b8699b6b4897e7cd3bbaa6768698548655459
col11:   1965857964a9a97cbb87b8a7bea8a8fa9b46a648eaa8659683a9a59b939b9826653a79a768b77b58
col12:   6748a584272c9879776789b974d76c87aa68988858b4a2d694a86778cf8893ab779a798775457a89
col13:   89b597a9576c693796887db6ab9b5c99948b976b6b99bde7abace9dc88b954785845739655b73258
col14:   43176846884668bb77dc7bba7988d9bb79a9bb998bc87879b56c896abd88ad399699786672758b12
col15:   359b568642b96a897b8e9494778cb6a7abab9acd87abac9699ad97768ccb57c6868374679b73a474
col16:   88766876a949bbb9b6999b8888b8987998aca7bc6768853d7b37b999bdc7a4ba67ab7a5538853857
col17:   955a945c986988986bbb7cc86ca78a8a65bd9aa8899aa5b69899696789975687c7d6c5268db6bb76
col18:   635664674559a8eb67765a95c69b7e9bb6c77a975b499868b7aba7b66cc78d7978b89792b9986255
col19:   56333bb44645973b998b8b88687f9bb7a785c79aaab4b89789b9acb9bb8b94b6699a52b6278886b9
col20:   57366c765997a7b56b7c5d89598777ae5f4965aaa2a97778b7bbb96ad88ab746b66b989768987426
col21:   9979649949699b9a589c6c8c9a8b7b6dab687a8b581a97c664cbaa6778889997587aa779b8558676
col22:   5944b8dcaa487b6bae75b78a68d7b99f78aba882b5698769767697be97897646b694c57418949897
col23:   b68684d86b76ac87bbc7ab9675888daa878987977c99ac967b9d9a87bbb6465c9667a99b8449328a
col24:   6637b6b7ac4597dbaaa68688ab9b689a87a79a93883a7a9ed9cff977b37b896467561599954b45a3
col25:   b5a739af6b488b7aab9bb7a7b679bdda7ccc56ca79888a469bb9b7bb97a49b8c7888c9d74888b379
col26:   a7acc8b975a7ac988b6ca79ec699bbca6a68bdb87c968489998676d5ca79b897a787b89488645ea5
col27:   88a6bb695954a5dbbcb99cecbafdbb9c7b7d99bba794e35a6b9bdbba8bddae5bdbbab896ab8a4b76
col28:   998d88bb96bb7ccb6b79bb6cbd96aedddba7bccb9b72c7e8a89bf7ba9739b9b9baa97b88c8bc769e
col29:   a78a6ebb8d9684785dc9b6addadabca8c8dccb8e98a9b9ba888b8aeff9b7a3dbb9aacb9b9b9a8758
col30:   8986a678ab6b8b67aa79ce7bbdcbec9faba99a9ca8b89a95aba9c79fcf969fbb768b59bb5c75c989
col31:   998a6ca76b6a7a99bab84becbecc9a97d9a7fc85ea6a9fa99fec99ecf9baadadc58c88a94b769987
col32:   477786b97c6c88b899cab96bdfceaccdea89bce7bac89b9e9acbdcb9a9b8bc8bbbb86887796aa6c7
col33:   7a969699799a98a78a99fa9bcdebe95b7b9babf997bbcbcbaababd9e9bbbda85ce959cdc6b8ca6b8
col34:   87ac775b3acad9a9778cb8d8ac99adcce99899b78ab98cd8aa5afbbbbbb88789cdb9b791b7997999
col35:   9886f8a788a7eb8999a999d99caef8aacabacbba9abffbb899cbbdc99ba9ababab9798889ba9d755
col36:   49ab9a79aada6b6d7ca9baab8b9adebb5c87a68eba7abb7aceb77cca8a76bccb8a9ac1f6dadaaad8
col37:   3bb789c75a6bab8d6c7c68eacbbaeabddcac8baa8ca7afbba4ba5a9aabbb798a7cb7cb69b7eaa5ba
col38:   86698a9a88c899ea7e9b7cbadabbdbac878cf8c998afbdbf96dabcb89c76c89a6ad7ccbb875ab89a
col39:   b7b768e758d9c6accbe68fbecdcaadbaabb6769cabbc9aaccbcbcaad9bdcf8a9999eb9dadaabb8eb
col40:   8aaa9b786acd98b56899b9aabc99adcfeadcfad988acc9bebdee79ad8c9b6ce6acda9956c7dbcca5
col41:   999a4b6b59c9ab9c8d8dbf9ca8bceadcdcadee8cc9cdd9b99cbb9dacdda9c9caa97d879c6aeac9ca
col42:   5b987cbcd985bfb6ec8acbbdeaacdc69a8b7abedffbca6b7ddf8969fdb6cbbb899bebc9baaa94aa5
col43:   9766cb8daabab78a8babb9ecfb9cca99badedb7aead9cbdebcccbbaacccc6bc49e9cccefadbdd5a7
col44:   78cb75d8c8ac9ab697e8d977bbcf4beaabdaadcdab9b9acebaa8a7a7cd7a7a89998ac9eaccc9d8e6
col45:   7699bb96c76988bb9ac8bb9faaccbcca8ba6cc97cddcdbefbaae9f79f76aabda78b89a8a7ab8c7bc
col46:   479b269c8adbcaba7ac9cccaabbcabbdabc9ac87ebca989adaa9e9ba997d7be8cab89b9bc7ce9bb9
col47:   a98878bd8ea99dc9b88ccbf98ceabbd99ce9c9bac9af8cbffbaefcb7b989bcaca9ac8899d97c78d6
col48:   68b64a8aad69ee9897869bccc5ebe7cc7cddbf78facacb99b79f89d8f97989b7abbbd9becd568868
col49:   bb689676ed9cde98b8bdd7ccdcfedadcebbdcbebddc9ccfcdaacdbd9cbde9b8cd97fd8c7badd8ab6
col50:   87895a8dc8ca9e7ccc5e98da99bbcc9bfc9a8dae9b9cdaddcbdba94cdafdad9b57b888c9bb8aac99
col51:   76b978a2b7c7999dc9c77ce9995ecbdb9bcc8ebbb77dccbd7bfaa9b89c79ac9bbb899cb88cabc7b3
ROC:	 BPix_BpO_SEC5_LYR1_LDR4F_MOD2_ROC12
col00:   6475394699986a68b6abba77ba998bbbbcbd9a5c49a85578b6648bb799cbb89a9bbb8bb39795d767
col01:   6a789ab9655775739a99bac7b9a788b7c4b6a845a8c987abce47b9776bddeb98aaaba6c96b9b5686
col02:   54ac67779675a85e876967888b98a67da99b87caa8a6a6a87a785899a8ccabb6a877c7655387976b
col03:   5876878a743a9bbb7565bc98beacac9ab8977aaa9d6b87f86a6c96b799799bb84ba85777c3b588a5
col04:   9864996766b76cbca5b95c9cdb9bd8cabcc8b469eab83c68b89bb9caa8a89dd64ca966d86857868b
col05:   84656392e8bd688d9b697ccd66c7b9da8a6d8aab89c78cc78ac7b89badc8bb976bd8bfaba4c9a796
col06:   3575cb719468bcf8c98745b76bbaa898d68998b856a9a7789cf6fab8b7a895abb6ba98a856a86944
col07:   4667b6787698b98a778c7bcc9babb89caca88897b788aa9ebaaba6976bcbaaacadba76cc7c98b9a5
col08:   a466722d3957aa8ac7a76b488baaaa88996868a877d68baa8aaaa8df989bc99c99a889b767977987
col09:   54ab7a896aa89bca8baa76ca7a7ac986a87c9acaa8fd68b8d6b99ce4af9996b987886aa8abb7bb86
col10:   6788868ba95c659ad69bc7754a8d9bb79965aefc8a7aa8ca9b6b9bbda88acb984ba7a5ca4687c7cb
col11:   55329698998a65a73969afddabbab74e97986aacc9b9a2638caeb89c887bb697c8ab976596655787
col12:   5457592aa5c388b7a988beabbab85bbb979aa8978dacbab5babda9b89a9b96a8cc58678a98a66936
col13:   57378881b99778b6797c9b8ababa9a9daae9bcc746375756a96bad88e7f9f79d8ac998987a445388
col14:   435657569a5899765a6b664aaa9ab79bdbc94aa9598889a6a68eab497963815aaa977b5b39959876
col15:   59458645a283aa8c987a7b5badbaaae97cbb6ba8a5878a996a97bcaa99928bb88687563768887a57
col16:   957137341447676cdcc65a8a995aeccaedbb89a799bad8869c8bea45478aada77a95ba9595896636
col17:   26236355967897bba7799dcebb8db8b9a9abacd9ba8baea6beb8ac9ab98b9b8b7b799a94ac989368
col18:   a38263766879a7ab796399967b9deb7cda86a8bbc79878885798eaa95758b65b8ac5b455a7466738
col19:   65554455539744b588996d8adbcc7d8a9ccca897ade9c9badb993a9baa99bab9a69a7736d6587676
col20:   15365b97563676769cc9b8c8accc8bb98997787d99dc987aa86866a9aba9c89a9bcb78b89cb38973
col21:   539623858aa88aaba7d85b79f78a7bbadd9c589c78cb8e89b69e9856998b797b679bb8b86857a856
col22:   44477795695ba7979a8c9889ec8ec7bccebc8e7dbba88efd9989a989acab6b9a99ab6a97a6b5aa68
col23:   6745429496b85cb7ba9daac55b7cbabd9ac7bab9a8f77598cbdca79b9bdac78bab97c58ac697666b
col24:   67486a777697cb9ccea96ca578cadc8b49cbbd9c8cabe9acfaccda9777d8768acc888149969858a5
col25:   627695588695badcdc8d9c9967cc7bbca7cba9c899aaaacb7df7b7dac979a98bda77c8ac99ba8783
col26:   68572737967d6a7b7cdb6bbe6ba8884ada6cb7ba89caff76ca8b9a578b8ed4b6798b58847a784cb5
col27:   84668977ab6abac8bcca99bdb8ccd89d87bb9be8d7788c89caaabfa687aa88af999987986a4ac83a
col28:   669888997997d89c6afca979bb99ed78aa97abaeaaabd88ad9baebbdbbb4779ccaab99897bb69653
col29:   68786a75acb79aac5abbcd9bafadc99b878ab9db1c99d7ba9ab9cc9bac9fdb87aadaa79969aada8b
col30:   a759a9a78a98b9694a74d877caabda7bb98d796b897bcaa6cc7c9a99a558abcc7cacc8a6c9836874
col31:   7b8986985bbdb9a7ac9a9da9bcbdec994cbcbad9cd975abad69c6786c8a75edc8c7b89897a86aa78
col32:   64655d8aca587b9fac77bb96dbdfbbef3ddd6fdacd9e7a7d947aaadc9a89b99ab59ec8594ab99e87
col33:   95747998867aa89c9cacf9bbabb7f87cc597ecb6a84e5daab8a89c87cba9a8a8adcdaab79cdaab99
col34:   a9c66a49578cb6ccaa9dedcfebc9e7fafbd88ba28c9e898699b79bac9ca9877add9a9888aeec9b6a
col35:   9a7a8bb5746786daccd8c7b7f7badcc478c956a8c8b87ba799ababcb8cd99da8945c7c5bbdeba776
col36:   77879666b799b896b587a96dceaca98fbfb9e99c6a7d58aaac89dcea8b69c97a8d698c779cca89a8
col37:   b685a7669889d9aa7bcfdfdba9caedac8dabc9ccabcfaafbbbeeaddbb7dbbab8a9cba7aabdbacb96
col38:   598a5a64768876abb968896d9bad988c8d9dbbc9bd9ca76b9dcbb7b9b7d6bbbecb9888c76c7bfba5
col39:   798b888647bdb9999aab9fccaaccbbacf765a76abedafafe99cf7bca9adbb65a9dac7a8986dbf8ab
col40:   4a655b29c89d96778cbb889bbc6caa8fbdbdcdc99c6ff7cd9bfcc7ffbaffd9b86bfcadbab9785cd8
col41:   b675d99a969b77cc6cdcdfb79ba7edac79edeabb8fdd9da99aecda77f8f9ca9ab79cd8c6a79bb896
col42:   3286887a946978caddbcd78959dedbc67dcecdb8d98fd7ccebedca8caab6d8a5a8cab9a8cabd8696
col43:   9a88b9a66abebc988c9abb8ba8aeff4dacf9addda7c897bccdccfacee7aafabadbd9bceadb76a99a
col44:   7f868b7d79aab9b787bbf6e89a8dc9dc9acf889cc899bdcfd9a8fceaf7dac7698d7edbc9ab889e85
col45:   49b97aecb89da887ddbc89cfd88accbcbafb7fadd7fbe9bdbb7bc8bb96eaa778da839c9b9d799976
col46:   8896e97a8a8b7dba97b87d5ffdadedda98c9a6d9abac9ebb9d7fee9af697b8b7b787b7eecb9889cb
col47:   697a88babcdba848dbdbfdccbcac59adafedbb9cc7fa88b7dc8aceebeeae9dcab87988a7cba8ac9b
col48:   78855957d97b797b99d888b7ca9cfe7cc989e899c69cca895ebab989aa1d4897aa7686699d7eb5a8
col49:   b598789a67a89d9d9cbaff8bd8dbad7ccbba9efcceac88eaddacffbcfbf589a5c78789bafcbda775
col50:   36379a5878ca896a9bb7afcbbbcb6dacbbcbbbab8ca6adbf9cd9dadcfcbfb6eba6a778b9d778a996
col51:   7718b9b83bb7bdbaaac8bb7d27b76ac9a8ab8c7c9a9baba99d89978bf7bcbb6b8777b68da57cb65a
ROC:	 BPix_BpO_SEC5_LYR1_LDR4F_MOD2_ROC13
col00:   bb7979b92b8b87b7bdbcf6ccbb7d987b6b9d84b59775b777478b76bd97689cb75d6b6b36698b3c41
col01:   b77fb68b95b9edb89bc9bed9b3bbdbbbc298e4d697bc99d9eb9cc5cec7277b97c5a7498935cb5b69
col02:   557b84b456a6d68b4987c898cac886bdbc95b657db88ba97a13bbeb5acec69a877b5756b735c4777
col03:   681b4976b7b6b87cdabd79a6ca7ab89e566babbc9be8d9d8bbdb97e956d9bac79986bcbb74acb576
col04:   7569385bb577a8bb6bd98c7ba9bdc9db7bdb7bb57cacf9aaf967a76949c6aab76d9f69c7b9989ac8
col05:   386b7664b6698bdded4976fcbbb88b7bccb58bb6877a9958cb8bcbbbbc5776bd977a3965b6916975
col06:   65c91a787ba99bc98c6582b75bcda7da847c99ab8699d8d88758b69ba8bd7bc78f7a25889321cabb
col07:   3a36eb6cdaba6b8b776879ad68abd9baeb7b75bb6b9b758b87becb75ba7c7397a69d99b387655b83
col08:   b757695b69d79c6b8dbb89c9b9bc89a8bbad6a9d9bbaa67a2dbcb5beabac7767c86477a489669b57
col09:   89a8686dd79bac999b6bec47cba6bbd78bb9b5abf7cb8abca98b9a8cbb59949cfa9b5897b4b65863
col10:   98567976d55b768b78ba7cb7e7bcd8bb8b9d4b9b7fec6bbab9b47b98bb7b6c649e468775839248b2
col11:   39a75877493cd7b9b89888e9e99867cbc8bd5b9697a86b58c68b99b9979cc8888384349666b88643
col12:   6b6b5769466b573b7baa8d9968ab98c6868e97a597ae7b8d8789a9785b8bb9a967674b3995b8b865
col13:   89638968ba7c6ea77bca6bb96ba9b6bb797ca9a9c9e488b97c7bd7d78c6887b5448a279692b47965
col14:   4795d9598994784655b58a7b766644d469b9b4a95a84ca6c6d7596b8d589b798c7956b41cbaa6582
col15:   77b57989b6c777a87d68ca78ba77aa7bdc898c88a8998ab8985b6cad96542d5bc476989376783666
col16:   6964b98768bb7a888a8c99a6d789f9ca689d597ba798787abca9a14489b67936c5769ab56b271669
col17:   36586758966bb88b8c9a9b79bb996668ba885fc94db59985e855979b8ab67a4658784c998d651873
col18:   b5977588786b3775c7aa857a9bb9896ec57cbcbbb99768878b7b856eb6a9b6b649778acb878166a5
col19:   776465bc779693c884594c6d9ef789bb7ba8989676a7877dba76687ba76b4488979d8776ba672715
col20:   45577877974c4687a68b69b6acbabb596a5ba5c6d6c8eb6b6c996588b6cab454a43cb99398927881
col21:   b72778534788a678886aa58c98ba4bd8fbabbeb8b78a74cd687fab1b6bcbd8497996656891b6c7b6
col22:   767786bb751686594d558abb687bba98b6bba59b94897795b488697a498b81c3b51996399655a231
col23:   ba636c79346b8789b445948869b8b96a9c9a99c7a9567a587c5956b566b88b67b469978b9666b9d5
col24:   7a99b957658a598157cccbcba57ac5fb796cdbb7db5c8ebb9b959c66896658a54d7746754965b992
col25:   776b68b586babcbb6bbb6b7cbae8bac87bbab59bab7bb968c662be85b62884954b4788987d983716
col26:   b69799bb93bc998699bbb8bbcabcbc8b74db68d78b397b5b73c6ebb987b86ac57489b8a5b7887862
col27:   394b259b6854779885bab9edbd69bcd9bda378bfe78989b8bdbb7678b6b7d8647b84fa44954684c7
col28:   668889b89b7c775b85b7cccbdcaabd9c7e859a79a987e59546bac99895a8b65a5767657953886964
col29:   7969c77738b6977689cae8bb7b7db7c8b99cb687cab9e8aab8866784c8b9cb98999bb448d395ab87
col30:   8bd7e6b78b8b88bb89eefcb87ccdbcb8acbd66bbbb9dbce69cbd649ab886b96a5c88eb67b6ba4564
col31:   b75677b61977a96469b975b99fdc89db8bbba69b659e8b6bc99baab49c9889a699999e548a65354c
col32:   8957b87796867bcca97c9d8bcd9f87b8ab9829fb89bd698885658b5da659767b7da96e36b9498355
col33:   63bb6bb7758c587b899beabbbfdfbbde5d85afdc3b57d5756779d9a3679a69a69686975c75798867
col34:   5651477b5d48d979799b79bccfdccfe8dcbbdc68abed99b85b8abe578cbc5457a8838a7a89861883
col35:   998376c99c898c7b97cbabbcc8e6785cbdd976b8c593689b36a6a76b37b378a86797769a67865714
col36:   a7b878bc789b8dbcd9bb7d99cabec9bb69ba469b5ab9bab7cb5bb687879785a862789888b796b75b
col37:   8b95d759a9a979ab6cf993e9fb58ab9ad9c8bc7eaec78c7a8877bcc6d599cb549bb9a78765744989
col38:   b8493b595a9aa9acbfadcb7bbe9bbfda874c99a9b98587a99875b6b7e899632399c67847cb6692b9
col39:   987999bbb9b7badfbb7d985da9dbcb89a7a7cd6c7bb799cb9886b964a69ed798ca775b8968a994a5
col40:   4bb77bb9b868a879baafcb89d9ebbbd7c5b9bacd8bbcbb6a8777d8999e75967c8975847c63698946
col41:   85b897b656bb784879b5dcd3debd7747cd799bb879d78997b8b8b687a99565b797b9abd9f428c896
col42:   5967495aba897697d967ac8edf6afdc8faab7cb99d87e55cab9b8c8a68879b94ab789e7d5b76b797
col43:   b579a99bbbbcbb9a9bcc67b9cd7cce6bb9c86bb8898bc5899a9d9696596c967579998c849b779677
col44:   837b97fbb8b6b9b59e7e9acbda6bad9998998abb8c686579ac968b75e5867bbb6744745454462bd3
col45:   7458d9bb7b6c99cabc9ce8b8dbb99beadd5b8ce888fc97ab2b8adebbb78689b766c88b8891649988
col46:   bb89b8b4f98398bb5b67cd9b9fbecbb7898997ec8b76d889b995f7b678876b4a987868b77b775c8b
col47:   458dc6b98486b95a8b7c6987885ad5787bb987a885a97bc997698c99b3ba79866879972c86788756
col48:   7b847b7cb4cdbed99bbcbbb75cbbb9b977adafadcb3e99a9c88d8cbbb8ac5bc668b1758644b9b576
col49:   bd87698688899cdc777b9dbc8c8bbcc8cbb68ac96aebbfc6e689b8fa96b7b999bbd7a786888188e9
col50:   b987b688744dbc8b4b9bb8bcba89ec8c7bbd5cb52756bb8b9a8669bb5986b57881ba7bb776676b9b
col51:   7bbb7b8b8d5bb377b6b7bbb78bbb767bb98b28bbbbbebb49b995981bbc98476b6b6b6b7b599396bb
ROC:	 BPix_BpO_SEC5_LYR1_LDR4F_MOD2_ROC14
col00:   b262b17618557747565567883b78cba886c3c75345486263996b648771384a458638358433a73121
col01:   124688bb9966855b47c85999c989587a3bbd73c977197467776a6ba5491674b2ac79552684352651
col02:   35a63b76877b56d77b389d4ab5896acb76d937ab657748a9849977a4667248b47679946848985a16
col03:   8394665b89785b8786995a9478698c6b93775a895699669899798a29458764239389515579216577
col04:   5649bb75b17aa1aac4f496bf7cbeab859a58649576a8993a48577995366577678675415813374391
col05:   5757b9975787b69498dc6a96bb9da29757a5a5553c87854d6a577485b48652b5b44a665813114369
col06:   55ab57aacc7b579bb79a899bccbc839b8b987797687a839836964c249459654848652529b3147552
col07:   b9abbb7796a24786a84b68aa6dcfc897776994a7775b719888d7745b8597877277c319579683a747
col08:   556896947546657566697a78c788cd6e877a8aa696775475997a7395746c879753775586378a3733
col09:   6754d36a735879dca67857bccbd5cf9a7a6628f597587928a8b54527876887c34349446746862646
col10:   73948884495677c4a666655782ddbfabaa58aba8883d5397b993745a2cca9c572ad3b5a485454174
col11:   a666755676483869789acfca9597edd8993bc96a8d83b9c87a39ab4aca89775175a798479813237b
col12:   66767a768967a9194b79a6baa78cabd94dae584988a773789b59a6ae7aec9b2347679669467b6698
col13:   3aa6886374ba6b65479677bbae6cdea466396ab51aa2a66636a8a477878864b868374437a4571653
col14:   b3556794951ab9c9d58daa8cbb8a959666b7a7944a9998b88a7c97a47777957676361133182aa354
col15:   9841b79578568c9c876969daadbb6938959898c798986853459774646b9b78877389947447b664a2
col16:   85118978977acabcc879e769998a8cb87f979a5d6b38aabb481a977594b82964589864576b889461
col17:   6774695577564ca99b76cabb6646db868998399ec9518a99ba4867698e8b86956861647861a67688
col18:   649458a5a9a67a8c8ebc66699989b9999d7b8668a9832627cc85895f99987784765566564271696a
col19:   92b728b765b7a798799cc57ca897afa7898d98a497cb87be46cc277738e6cdbc157716d7c735a5c6
col20:   527899915b6489a98bc4b667bc278b8fc69f867596735bb7762988ea66b526a489159947a1286696
col21:   955a6666948966a698ab6988a88cbcb9d98ac76781866662bd93b9a77779ac5e7a15d97b35a8b787
col22:   86756528888b9aa4ad8aa779891bc8abb68ee9bc3a6bb73a4a8c77a66aa7c8765897989696928546
col23:   4578b7ca89a99a8869b89b7caf8c66aac55ac898c764aab9a1bb979d7d9d9b98353279a9a78b9868
col24:   36bd788b8d5c5ab86dab9b9688bea9b9879999828186998c886ad5c9d4baa4389536a9b446614758
col25:   b66a97b83a75bdbb8a6497abd9ba9fa788969da4adb885c65a97cc9b74c8fa83b96ba77aa998a673
col26:   848aa9a93aa47bc9c7aaa9ac85a798c987abfd8b877a8d874bb5e49398d489e5a672aad9665a8567
col27:   a6187486cc97faa9a8769c66bcdeaaebaa99fd5b7a97e9ca859ae988cb6c4a88c8cb659d2a9ec9e5
col28:   5e979885ee9ca78bb9798cafadcafc8bd68c9fbda93787899f7a7e9caa667a984abe9b4595e55657
col29:   8c88774a98add787975cac97e77aeea969cd98c9b879b96a8bab9ac7da797bbcb889f7aadbbbd49b
col30:   7755a9696c985989cbd995b9a8be8bbbcc98abd6b7996a79d49789aaab89d77a78ab889594c8567a
col31:   59685a796879a78a8becc99c6cccdadfdcbaaeccaaa5899be9c9cf99abf2b88bcc77a8856eb9a6b1
col32:   2567aaa6bc7776a8cbaecba9baaf9db8af99dccc96b668dbb6bc766b986978c9a8e2ca8e98ba9822
col33:   83785267566177a798f859c8b7cddceab5bceaacba567b9a96eb67b78edcdcbf9b9987f8ba996da4
col34:   633a96836abd98969cddbcabbcefabafcaac79a4a82b9b98ecbebdc63cbbad64aa855c85aa6abb39
col35:   755697b846997b8bc57552edba96d69cd8d9b9c5b9fcd9bbaaccadfa93c1d2c6d8acdaec97b8b697
col36:   959466ab5569999d7fba69b5a69beeaab9ae468d768a8dbcdcc79e7ce9bd97dc89467a668967ba9a
col37:   c67b9973659b756b96bc8abb8ddc9ccaaddcb9e8887999ea85abbcdabdd8bbaaa779f9da9af89bcb
col38:   6a65755aad86be787a79a8ccebb8dd7898ba86a9d7a9c988aa9d9ddd39c57a8f5ad88e8c66bba8b5
col39:   54bb8786a4abbaa99adbabcbcff99bb8d89fdd8cebaddbcea9d8bd9cab8fcca6acd7869d45999789
col40:   42a7d86a7ca8c3d6aaac889bfbacca9f99db9acb689d99cdbb998ba8979b79fa799cbba6fca7acac
col41:   758952d48687ab987b9bb69fda9dcaccdcbdebc9aba9a8798a3defb4a8bdad69e95a7bd5bbbe8a88
col42:   8cac5895a89a5bb9bf9d8bd9accc9efa9bccbbf9e8d6a9cd9eeb9ad6ae69a6dd9abc7866bc98cac6
col43:   7448aac5d9ba7bdd58a8bb9cff88d9cdebcbbb9b8cbc6b9dfb9bdba9cbccbfd7dcfd7cdab7cb9d5b
col44:   6775c48ba799b7a6b68cbfa9dd9cc6bbcd6ba6bb764cadb7bdbdb99c8f7ae6daa999cc8abfadabc5
col45:   933aab6bc7777978b9b9abe9abbf9c77f9a7a9ffce7fd8aebf88c88aae5cdbcb7f9dba9bacaabca5
col46:   45555c886cb8ba7889c6668d99caaccaba7bb9b6c8dac7a89f9dfbb9dbc6a74d9cb58ddc3bb7bada
col47:   427888766a877a9fa9bea999eccfac8d98c7eb779aabda9b89cf7bbedd9789c7acc9b9b4b77c87b8
col48:   788a685aeba884ddbb9a68abccb68adb68d85aa7a59b5fbbc79a5cea5c7acafca3b5eca9a6997ea8
col49:   8aaa74b98c6db7d9b65b996acc9a8fdfada91c8cc98fdbceccf99bfffbcc9967fbaeaf78cda9bc99
col50:   73475aa989687f8c97abbeae99bafd99998cabfa8d88c584addd8bb8aa58edac9a9598aaaa6b8ba6
col51:   7845674258cd887b8a8c7888fb7c8eebb64d72dbba8abb6b789c86a976d68da855b7d28a579cb578
ROC:	 BPix_BpO_SEC5_LYR1_LDR4F_MOD2_ROC15
col00:   88886847b855844a78b65bb97bb77bb89d7698bb8874b87355ccd85b7bc7488997b8bb553b765414
col01:   886ab9d99559d787aba8bdccdc9b7a7bcafa69b8bd75cc8b6999fab7b7dbc4977aa8698825b68397
col02:   99894c94ab76963955875bdbddfbbdcd9cbbb99acbba779bc9a7ca7beb68b9c5896babdcab9b54f9
col03:   436468695d7d89a898ecb9cb7da9bb997a8a868bb978bd8d9abea9b7c878ba8999d999885676b969
col04:   4735797bd7367a87b878ecb8b9c95bab888b8a698a9e6c8bbb3ebaab8558d958bb89a79c88685881
col05:   8a5878d79c79a99a68b8bd9c9d9b9babcac9be9bce9b5ab989bbb798b4a7896ae7bcb987d5bb5615
col06:   5665d66478a7a879cbbbd9cb8ba9b7bb987bb9cc797ac7a77b8dc5896a65989afa9c89c896699946
col07:   7a8b955999469898bd79579987daacc88b8b6b88cfcfad7796bdbb5897a95a5ba8b98bdb592b8945
col08:   26879b85548c9b98a67bab8e8ba47acccc9c4cdba67568babfbcaac969c87858db3697a9b8b55b58
col09:   b7857868489689bdcb946b69c78bbb79754ea79b6c95477a96edb8b9faaa864c99b865777764ab4c
col10:   9b58bba687cb8cb7aca859da79b94b9c77d8795b9abbb44acde98aaaae7c9ba77cb6747887734a76
col11:   675674878b9bc599c79987abba9caab99c8589aa9c8a797bc8969a869a8a8d9d995477797ad535b5
col12:   18a88a79aa67b193ee89e9decc88975ce8b93b6b9ee8ca648b8b7a99facab58b98ac99848579388b
col13:   49bb58b57468c7b9996a67797dcea8fcd9ecb8bbaa799b95adca7d8a8987b87bc9b8a965c1a7799c
col14:   73c9785838a78f6b7c9888bcbbcbdbdaacee8acbb7af99cbb8be8b8b5bbbafaac9b774a8fc447967
col15:   75596f26598adacb9998ab76cdcb9adb9e6f6bbbc9e8b8cab9bda7d8a3895746c987a7a1a879c678
col16:   1186656584b77c77aaa85cb78e7ea6bbabb968ba8cbc47bc8be95cac99b99788a99bc6878b6a8795
col17:   7597876995aabc69cb5967baecebcc9c8b8abacba887f9e69abd9698e963bd9a99a8747aa7ba8678
col18:   63978688945ac4c8bc8bca8ca6bccb6938bfb7b9bd8c7ad96b265499b885d67e49c86a5b88594959
col19:   45748875889b9a999be7a9aa85ff9baafbabacdb2abddb9b99c9bba8854ab76bc6878acb67a5973e
col20:   486735888ae7aacb69a75aa9b7b79cbeb6caa6a896bbee98b799c9aaa966ab768b29a9b9ca968667
col21:   7569441588a8ab69b69568978ade786a869e7598ab5acabdbab57972cb7aa96b76fa76aa69a62348
col22:   7996678a8baa5baaca958f98eadfaf98cbb8988a99cbd7a9be8b8a779ca85bcc96d74b796ba79858
col23:   57897767978b9a97c997688b99799ca9e9986d93988abb9bb9db8598978ba9dbaab3baa586869ab9
col24:   6878687b78e867d9aa8a98aaca99eaa8ca99986bb9bbb694a99d9aba9b97db55b7b96a9a79a956b7
col25:   5588977a2b69b88a7ba9bbcdcbb7c9ac9bbeb9c996aaa98c989a9dcdca7c99cd5e7e9aabbb79ba84
col26:   9a6867856689887ccfcaaabcc9ab6d8cad8db38976bac77798b6cc6997abac9f7e9bbba48896a799
col27:   979a894b79d87d5ddbbbbd9fca6bcbee89ac6b78bd77b66a777b7db9b6a6f7ac76bdad87d8aba797
col28:   aa879aab98d9bdb88cde7969beedcceb89bb79bc99ba89bb9e68a87c799a87dfbbafa9fc6cc869aa
col29:   99dddca379cdcaddc6cc79ca9a8dab885bba97a8699b9aaa6b9b99bdea8ababde7f89dceb89cbc76
col30:   99d6bb6ab9ac7b8ccbbc8fadce8ad69595aa98d996a8a97bf67b7daa99ab88bcaa9bac88b76a9c8b
col31:   77886e7bbaa99ba9cedda8bc8bbdb7ac886b85a899a796a9cac779889dd8ab76dbcba79dabcabb88
col32:   dbad74bba8b7f7badbadbf9bcbcea9984c8db8ab7378ccaaca4bcfae8c8fda86aaba9ef9a9beb8d9
col33:   89ab7b99bcdb7879bdc9bb9b9eca9e8bc9eb7b9abdec3999a969d8c889bbdbadecbb57abbd99cf75
col34:   9ab9b9b679d8a997a9dd9b9aabb7b9ddd767adce9d8abab9b98a36c9eecabbebca7fcc8c98b8f7b8
col35:   88c6989658aa9bab4ef98b9adabdc8ab8a7aaa7a9baaa8bcacdbecbeacca8d8fdb7d8a8acebd7f75
col36:   ccc78abca578adaa6aabab8dc8dbac6ec8bba49a9eba8accbccac7bbcd9bcc8a9caa877da8ef9a6c
col37:   7ba9a988dab9998cd8f9cbdacd5e7acb9edb9d5ef9c7d96f99cebecdf9c9aaebccac9ccabafbc99a
col38:   ab96ba8699daaacabbfbacedb9cb96aafbe8baa49bedadda8bacaddd7dcb9ff9ecbac7ef7d95899b
col39:   9cba9a6ba79d79f87ccddcb8cbf997adefac7cb691acadcd9ca9dadd9caaebaa5cfabec7cbbb8977
col40:   ab7a4aac99b9ba5bdda887cfbe99da78db9cbedda798ab889fbfdddfded99e9dadcdaafa9848a99c
col41:   9a77aeddcdd8a8e9ab9ecacaaf9adcdbeecdb79baf8a9eecb7e8add9dcbbcc997eb7bbcfdaac8ca5
col42:   99c89daacbcb997eccaf8cbdeb9bba7bc99abaccdbc8b7d9ddee8cb9ca98fbbad89ddccacda9bd78
col43:   9cadadbbacbb8fbac99accddd999abdd8f7ce6cebde9ccce9acaaefdeaec7cf9cb7bfbcbfbab6a67
col44:   fdadccf6dfd9cf7d9a7bd9cefdacdafeacbeb9dddbbaea9bc7cbdcfe7bfdf7e7bcaffebb9d75da9b
col45:   c9f7b9ed8faaddfbdccb9e9afafcdaacbb8b7d9accc9bfcab9edf8ebdd99cb5b99bd67d8aaada7a7
col46:   99db8cbfc9aebb9ac9acebbfbfdacfab9ddff898babcb9dbc9faacdec7efdbbb9edb5bbcbac7af98
col47:   7b7bbb8bc98dddd9c8abe9afafd96fef9cfeffe8a9dd8cc8cdba97ccfbfdbbce9bc79a99fa98aad6
col48:   9d89cbabbb98aba8efcdddbadcaab9bcc8cdafbf8ebfcbadece77eadd9cddec8f9988ea9cacd98aa
col49:   8cc998ccfba7cccbda9fddacfaa9ad8ab9befcd9bff9dae9ac9dff9dca9d9adc9e6d3bcdbcdcb9ba
col50:   5ababc9e9e7b9caa8ccdcc86efca7e9ceecaeb98dbdbf9aecbc9beaaddccdd979b8b9689ad9abda4
col51:   75865bbbc2e9bc8ccdb982bc99abcdab98ccb8db8bfcb79b6e79e9baccde8ba874b9588b977b6786
