ROC:	 BPix_BpI_SEC3_LYR4_LDR11F_MOD4_ROC0
col00:   43693729495549369997769666aa676679775a6a5cc4865566294986674638538889876838256458
col01:   5a89879ba98878b6a9aa86577a668c697389a9a795c8799ba99976abb87483894978e78b75568a66
col02:   4c6b94888587679668c8998955967ca9bc8a9865967a5a9c18b9c769875c778638a7678b7764c966
col03:   65988988a8a9a366a4c968689ba7699baa958985769775869c9c7ca6a857789455586765a9655456
col04:   557458959aa8d9776e877787995879aa9a9778567b877b767a77318639837867b6a889887a699b88
col05:   787865967ba65996a785b87a69b588d7687ad55ada8668b8874695d69a94759ac8746465ba895376
col06:   bc6848983b749b59a9c67aa6855b98a377a8a7798b88a8ca97b84aa958ab4aaa878ac375a7779877
col07:   6695595c46889996b97c5799c8d8a5988785cd9b7a7a76cc7a89948b88673898aab8949986b899a8
col08:   56ba979157a79679876bb89ca7c99abe99a6788b997e8869b698b78b96778568c3a84699aa695a75
col09:   486a9888a77a8937b679dcaa49a669b8964168b6856a6cab8acca889447898a8b988c89935c68778
col10:   a82996887d69a79c7dc9a99ab9b9b9889b889a9687a7b969aae9d8a9977896b889a7a659a667a789
col11:   74737ba5c9ba47886b89d9a9a9a8677f769889c9a8867bd89a7a89a6bb991977ab747791965967a6
col12:   4a47ac58e765b884978898885c98887a87ddc75958b75675797c8699a9986a94a987a789758b3992
col13:   9256b974aab88693a6588789a7a798f168887b85498865b7979858687c7c899657968883997796a7
col14:   877287977a69a599ab7bb7d89a9989d7db693a7aa58aab65aa8c949637868786b76587a8a46a7577
col15:   8593a65caba97a95cc8da7998abb9dc8b7c77577b7ba793788595b97764989677798695b8a4b9b75
col16:   8868299b8a6a786a68b9889a9aa9cb58bbcacc876979aa8b968a88b86a9a376668ab868a7b8a8766
col17:   69788a97c845b84a77b9bc8a6a687d79676968669b9a76a77b7ac44abb46a5b5588b6c6b96658887
col18:   a859aa779158b689b898b99548b876bbccc78a9789a5857c99b9aa777899a79487678bb967757665
col19:   586ca7678797a889cbc8559a9cca3769a7b9977ba76789aa9cca977b88b978a878a6868659aab7d8
col20:   649776a95788e3987ab4b78a97479dba886b79c88ad88bbd9bca9a68568996a999bdb87d7986aa57
col21:   6a185a8c3aa8748456a9866a98b977847da9c9bb7da99a959797a867ab99dc8ab7a99ad9b49a9687
col22:   37478b93a6a87838896895a6868eaaa8b8b6978a678b87eb37c8a5ad96778a7486657344797889a9
col23:   7987b3987c596987487aa754974b7a9989ab9c877988978a89b79979626a67455959b77669667a8a
col24:   89b86dc8a85a868865c973779a677a69b7d776cbc5765ab4717b986769aaa7c99977857a543c8776
col25:   7b898bac7b9958595b4b7aba86bd86a9d678989b69a8b775a959ac899b84996a7987879588a6acca
col26:   b99d88ba9aaba7e59797a869e98b7bac8b8ac8bcbdaabbba695bbbaeba989a9c5eb8ba879888ec96
col27:   869b9757acbbc9ada94b7498c5b6c7b99caccabaaa68bbb7b88abaeab9ac9acb9a88ab778698e8a9
col28:   9c85eb7699c8f69a7c88c887ca8cdc988aa8bb5976eebab9b89bcbdc9caa9daec68a9ccda8bc98ba
col29:   895c8ac9fab9b9998caacbbc7dbd8cec9eb5cbca6bb9cd6ad98dbdbaa7edbab9aaac9aba899a898b
col30:   ab6baca8b7898859aeda9ac8a9b6d7b5bcba8d6cdba9fbadceb989bbcaa989a8eaa7798b97aa9bb9
col31:   bbbbc9bcbd57e8a98bd589ccbf9bada97bcacadcdbbbfdb98eb8cdbc9988adb9cbd98bab9fc8adc8
col32:   c9dba8a9a9caeca9ae77a9baa9dcaa8badabacd897b8e8b9fecba5c8bacacd968ac9c99dfddacd99
col33:   8bf7cc86ce8db89bb8aad799ca87b8c5bbbcbd5b9bac8bb8adc9bbb7cbaac996d89bc7b9bdfddf9a
col34:   8a9b7abbcfbbabbae989bbc999c9adbbddc8ff99f997dadadcc9e6fb7aacdaed8af96caeccbaedaa
col35:   997ceb9988daadbbfea7ad9b9b8f6b79a8c9dd8fbcbbbcca48adcac7bda89abbbccac8bed97cb7bb
col36:   b99dc9b8ecbadbb6a99cafc9ccaa9ce8ec9cd69dbbcdddaabdbdc7abcbfbaaac8ac8a8bd7c89dfde
col37:   db989e8ccaafa9eacccdea7bbeadefce8edddcfc98aabcef7bb7bd8a8ecfdac888fb7cdcceccadcc
col38:   cebbd9bad999cbebcbdc78bdaceedabbcccbfebceafaad68aedabbf8e9fed7c89996cccbafabbb88
col39:   9dba8ca7cac8aac5efabcacbcdcfa89fea9fb7c99adcacdbbabbeaeb78aec8fb8eabaccab9bac8cc
col40:   48ce9ecbdfbcc6b9cbc6beccddccacdbdc8af8b9fcdb8aed9caacbeaae8bcaecdbacabe97acac89a
col41:   a8aeccc79dcabfd8acab9897fce77aac9cedcadbb9fba9c9fdacdafbbbfabbdcb8cfc8bbacdeccdf
col42:   cb98da8cadaaebb6eccbeaccbdbd9f9cdbbfdaceecc998faeccbcfccdcecbfbcd6cc9fdac7a6acad
col43:   9dfdfccbbd9ec8ccceeaecabafebfafcb9cf9adeacefe9ccdd9cdacefccdabdcddd8f8debf9cba9d
col44:   b97b9dacddbdabfbbd6cfdeb88eaae8ecffccacdddeecbfaadddbdfcaafedeacbbaadd9afcdcdfe7
col45:   e68bc9aca9abdfa7989ccecbb9bcbb99dcceddb8bd8cecadccceb8deaaedbcf8ccdbfddb98a87c7b
col46:   bdbc9aa9abfcbbdaedbbd99bae8cddfbdbdbddbdadabdbbdabffbaaecdccecebfc9a9bfffdbbbbde
col47:   bc9ab9c7bdbd8eccaabebbc7bffdc9afbbcffa9cedeacfcfabbb9ccddcaddae89d9aeca9ccc8c8ba
col48:   999cebec9da99c9c6ff9ffdadebecfdec9adecbdb9c69ccbaafcd9fc89dbbfed9ccdbddcbbdbbeb7
col49:   bcb7fbceeca8fd9b8eebabdbf79feaeddbacdbfeddbbeccd9e9fccededeeacfb7dcaccffaecdfeef
col50:   9fbcbabddda99dbeccddefdceeadcfaea79dcbeececb9cbcaeae9edcffdcadbfdcadbb6beffea8be
col51:   ab97d9badbaaa9ba9cc69baaca689bafeacb9a9976abc9b9aaa8ccbc89c6de9aa78bbeabbbaaecda
ROC:	 BPix_BpI_SEC3_LYR4_LDR11F_MOD4_ROC1
col00:   3195499a768366636688496876968269a6988955597945845756585478a56154175a99878971965b
col01:   73a895b6569758769766e9bcbac78877aea9b995ababaa8bbaaa7995b7497b58478985dbb954adb3
col02:   79667b996498aca9b4889598a75986588869c7989787bea8b8c9a7b99a498996ba7685a4a9976966
col03:   7684d9896895b9b9aa88f9965c7e876b6b8997bb9ca9a794b6987c99a7b6b98887a68a6a56848b57
col04:   676558a87b819a99b939a5876a85677a989795758a74797c89a98a48989e59da9a969a7a7a6a9798
col05:   5966b8a5a59698985b99cb99b8994a7678a7d8b999b49b4aa7b68978966aa88776b872bb75985b9b
col06:   ab78984a8a6979aa98a76794aaacb7a886857a664a8588b98ba883788a99aa9b689b7b6477898986
col07:   6a8988bea9a9babb8a9878889856bb9b8da6989d89d77da8c89986988b797899b9a9999b597aa824
col08:   3767a58c99b97878349bba9698a969b99e997588bbeba7973a7a99e99877c9caa6b8878676b867a7
col09:   5b785966b7a86598a647adc89b8c9b57b79b949aa77e8869a88b9a96b9789b764b8688b5796ca3b5
col10:   a768689566b69979c6bb6a79a7b9a8c7d798b6bbb9aa998aaa7bac8bdad39be97496747766788665
col11:   8a7988a698875638689acc9c789b98d9b78a75c59777a7bbb797ba77759e79a99aa77967486778a6
col12:   65757ac7878a5a87888d68a7879599bab7b9c9aaa6aa989a8ba86cc8897f6877978988aa7797b966
col13:   286a87c77487d9bd88c7a7b8a7a7b89afb8aba9b96b85787acbac99b7a599ca7a78a6a9cc794799b
col14:   97989787bae8968647a8c8c789a79cb9bb99ac7b5c5a8964d888ac977baba99a7bcb8875a59c97a6
col15:   69988d698ca68996589b96bb98aac7da7b77a8e696a9cac8ab9ca6cc798abdbdb7559ab5895988b5
col16:   5769768aabac7872b6a9887ebbb9d69cccbe959c3aa8c9b9887bc685a9a7a969dc97ab89699a9a66
col17:   87698967a6978a26bb6b79a9a3d7e5878887bba97748b9a779aaa9997786a96685a48999799679b9
col18:   665398b95868889bbb989a86a898588acb9889b9aa9bfd657a8b8c98a97aea7c98b6ba578779a578
col19:   9658a9987aa887d763b9b96ba99da9aca6bcdaca79998dd7a9ba7b566ac9c639699c6c7aba993ab9
col20:   768c6a734a18c769757c98898a93889d787a8b7988796667cc867bab87a9ba69c9bba85bb8889987
col21:   6654659a7c969b5bb6a9b8f9b9bb97997cabe79c7ca99aa47778adb8a8577798a88ba896baba7898
col22:   9677599876c998762bc5bab796b9eb9a8aa9bccad9b97776ca9bb7b8c9a79da8879778c971766a76
col23:   667387b58997a6847597bb6abfba9cb8d9b4699ba98be8da89997988facc77a56458676a8c888367
col24:   47afc87c397986aca7786bcaaaaa8a7aa8aba958889ba9aa77e7b98a79b698586393c9a679a78998
col25:   995987a947c77b6adb878a7c9578a7a8bacd8cbba9a8a4bba8dbbb89c68a99beaaaf9d9998a88795
col26:   9759a5bac9d6d8c6cbabdbcc9cbcd9daaab8ab8fdc8c9aacec9aadebaadbfbb999f7abbe79cccc88
col27:   56b4ab9ca75a96989ebaac9cb9b99c9d9aa99b9a897aac75dbeab8bcabaadac99daa99eb6ab78bd1
col28:   8a88b6a97b7cba8a88c8ab96be9fbe9cdbabfec69dbdfdcccbd9aced8db8d6a7acccb9cba9998798
col29:   8a7918c877cca99988a9eaca8fdfa98debcaeaedddccbcf9abf998bc9a88aaaa9bf69aa7588b7a97
col30:   88accb8aab889ba77aaeb9cbcafdc7bafea8fc98ab9c9eccee9dbbcddeca969bc97b88dccbcd768b
col31:   b9e6b9cb9db9ebbdba9bcccac998bde9ccbccbbdcbfde7cdb9c6bc9c8cc79ebacdc9a9ccd8cb86bb
col32:   9ca8aaac9a978c588b9eccb9ba98abe99cb9dfdbeafe99adbbabbaecfdfbc9d8d8aebddc9bb8b97b
col33:   ab9cabb88ddcb9eaa8cce9aedbabbcbacaddacdbadcece9cfb99bbbc9cc9cbdb9a998dfbae98aaa7
col34:   698968ba58c99bb7d99ba7aeaceeaddbeeeaaeccdd9dcacfa89dbefddddabecbbb9dec89aacae7ba
col35:   8b599878b8b9eac98caabcabbdaafbbc9efddcdceddcaaaddbecc8dabddab8e99b9a68d688e7dcba
col36:   ab6cbc57b38ba8cdcc8de9d9abacfec9d6fcdcebbbbffd99ca8cbaebbacb8ccad8a7be58a9b8cdba
col37:   865be7ccabfdbcdbc5dbdbeabd9bfbddcbbdcccdfcceceebdeadcbfd7b98b9accdc6a79abad8ae9c
col38:   a997b695abe9acbacdddcdb8bff8f9bfce9cffdcdeedfdeeddfcb8deedab5dffcbed9afaaab7cbcb
col39:   c8b8b6decbcb9ba699bfda8eeccadcdbccbdafeaa9bbfdcdcbdbbe8deadcbbbebbd7b3f6bc5857e8
col40:   adbacbb9aa9ce7faffe89bdcaaca9bbfcebccbbab9beda8b9bdfcdffad9ebdbca9b8a9ba9b8aaca7
col41:   9bbbdbbbceaddcbddceabecefccadbcdcdfda8fe7defdcebeacd8cfcfcc8addbf8ca9eeaaacda89c
col42:   9b7d89acbbb8acbbfcbdcc8eaaaeb8bdebb9dedbbceabcab7cdfbd8edffdd97bdfccfccc89c9a9ac
col43:   98ce9cb89decdd9bdedcfbecafcebafeafdb8ccbeedefb7fccfe8bf7baedfdcadcfbbfacabcdfcb9
col44:   9788a9ebcccdeebac58cd7bcbc9aecdffaeddfeccbbdedfcebacfbdcafeecbfbeeddbefd9d8dd7bb
col45:   ca8999b9aa8b9b969ffbdb8ddcbfa97bfdbbba5bceacc8ceeda9beccdbacedbdcafddbabc9bcaeca
col46:   ccbec9ab9aa7fcaccbfbdfacbeaeecdbeaaafbdbdf9bdfbcbfecbdcafacc7bad9dafbfabcfbd3bba
col47:   89cbebbbdd8cffdd97ffdaccfddbf5b9dcababcddecedeaecbbcaffd9cfb9dfeaccc98cccb9ebe9a
col48:   8bc8cbc898a999b9d8bf9dba89cebcdab9bda9fbdf9bafadd9cbcfdefccbeccbfede9beac9dca9f9
col49:   9bbf9ccbbcbbcc9cebffceaecabeaacbdf9bcfadfbf8deecccadfacedcceba99dcceaccce8eedacc
col50:   9797aabbdd6ccbd899cecfabceddded9aebedcdebefdbaedcdcbccdbe8fbeabafbcffbdccddcdbdf
col51:   aa88a99999789c5a9b8babaaefab96eaaa98adeaad99dac89ecc9acad78ec9c8cbbabbbaaca9caa9
ROC:	 BPix_BpI_SEC3_LYR4_LDR11F_MOD4_ROC2
col00:   734154656495a975a98a5676c86a666b98a58a987874b78538698a8786a899885869bc9976789a95
col01:   693479875585469485a556b98464a6a88898a58ba7bac6acba69675adf98a68a87ab6a9897998aa7
col02:   36667a657484677587866618983b98aa8885689cb7bb9bb9baba899779479b79abb889a6b86b876a
col03:   756595784a74a788ab48a539799a397979a73aa78697a89ac6c5bb6b5ba97aa9c7d9899baa644996
col04:   4676668a9456559879b374b8c7a779a6aca898887ba89a99587b86bb98a48a8858b799aac967eaaa
col05:   224748598a57877779b99496668697a95a54c678e8ba87aa99aab879b88a94a99779a9eb7977977b
col06:   774886485755477a847c8aa688a8599b7c98a87aa9a767a8a769ba78a7869ba8c89a99979677acb6
col07:   975459b7564987945a88c9847b8675ab9ba5a89a8a8b77738779a699878b6c7ad99889ca7b5a894a
col08:   834a5685377579769678596b68789797aaaaa88a76a788988a77d9899838b6cb7a8baaa688ab87a9
col09:   63645722645367468967656aaa9a4a985876893b8b8d9bb8c7c9888666b5bca9b97a6978698ab7b8
col10:   453675835898459397886856cc759666899986399cb9f6c957aa8a58a9b89ab69dc85b7b7a976967
col11:   458527871664984587977479a957b5176a7b6379887979575459b953848b88898568a8a599aa6896
col12:   9977944497a571576aca67697686bb7a46a9989499ba7b874975ca7549a865ab687b6a8768999ab3
col13:   496977773756753c638a7796b9ca96867aa87988676ab7ba979cbcba9b788a6646bad87a7a9afa7c
col14:   633258775b7588979595758655977b8d575ac98a8a8689a8a9bdaacc9d69b89baa8988ccc77a6897
col15:   7333944154886a877595774a859678b7b86a8a69548688f8a678a997469a7a9a68777987aae598b7
col16:   4585974679452782881686788ba99ba7b99794b7a88b68c7549a9a886a44a977883a97cbb8ab9899
col17:   6444395438766629377779757869978598995449795b879a89aa66a995a89a87bc4b8bb8a6ba8779
col18:   66773245743558669986748598897a8c4887797e6b57c87a8399a8b9a789c778578a78aab7795a55
col19:   7544667647a9735875856ba87d9a78a7b839ca5887a9d8cda996ab55eda6b59c88a8c78ac97bdaa7
col20:   73746442688769856e766875556ba87aaa8a9768ba8886998899964bc79a8b8ad7899b67777a9797
col21:   4686888757668896879966c6757889898688a97a9a999b7757798784b798e6c57aa988a799897598
col22:   464449773683b7898786587a8856b697aa88a5ca9b88b8798ada784abaa8b87998c789aa8b86da76
col23:   775376887358a1145779888a79778887a8b58797576b8b96587588b8958998a9a26477977b6db968
col24:   333519446493676a697783b7a76969887b6889689a5a898b7aa77ba77879d9b9a97cbb78687997b8
col25:   6768586885966686757a98a9776b85cbc78799679b9a8a9c9b797c69b89c8baa699cc7b97a689d69
col26:   a7357b76777b9cd8896b959ac9c8bc9aeba599dab7baceadb99ba989caa8ac968ba9997a8bd9bb89
col27:   5876566a7b588867a89c5a88b787988a8abb8dbc887bcaa8375baabaab88c99a8898a8ce8abe5ba5
col28:   84868888d786b8aaa78688a5a88dc9b9baa9bda9988beaccadabc8daabcada99ada869b7bcb9decb
col29:   528258b4877b98a9987c7d97ca9ab8be78aac77b9dbba8ab8ab7c7a9a8a8a87de7cd8c9da7a97fcc
col30:   a798569889a876b9a79899a6bdb9cabcbba9abbacad9a965bdadbabbd7dadb9b8a9b8d89d9b9c4ba
col31:   68797767a79d578bc88b988aaa796b8adc98d7bcb9c9bbcc7dbba9aabd8b7bdacbdec7adcace9cbb
col32:   71888a88a99987a8977a8977eccdeacbbfbacab89bababedbbbad7badbadfadabbddc9ffaaaadbab
col33:   964487888ca9b599998a8dc959cbdcb9a9abaa9cb999996abebccea798bcbbd9acbc9dddc98d8caa
col34:   8a58dca9ba9bcab79dbb88a6b97d98acab4cbacaecda79bbc8acbbadcedacaabacacbf9dadfbabcc
col35:   79749677bab787b8aaa8c9a79cacdabbca9dcab86c79a9fab8adaa9bc9bebabbc6aaacbbcddcebcc
col36:   34965a857c887ba75698bbd5a9d8d9aba99bcabb9ccae9d78adea9dccfdbcb7daadebadbc3cbebcb
col37:   d575a9a8b878a89aa988adfa89dcbdcedea89eaddcbdb9a9fdbecbe8ccba8dde9ce8abdb9cd8acea
col38:   78998c98cb9499ab8cb96c98bbcbbadb9dd7a9beff8bbab9bfcc9ab9bbfaadc9eeacc9cdfecce8ca
col39:   4349599ba7979d9d79767d9bbb7dbbeac99cda9eaad9abca8b8cea9cb8bccbcabebcf8a9f9cbfbd9
col40:   b56aab48988ac899cc7aba9d9a9cdbe9c9bcdabcdec99bace9b8bac9cbcdb9aaefbabebcddabccf8
col41:   898a8c9a89aba9aba998b789dc9baabcdb8bba9ebbebabbbeeddcbdb9989dfb7d7decdeab8fafcee
col42:   b978a5949879c7dbaca79ccc889b9bc89dbaca5bdcbbd8d9dc7c99b88b8ebddadedc7bb9cacebbbc
col43:   6a6adc77aabab8acbba9adc7c9ffd9dedddedeebaddbb9aa8acdabceebd8dcccbed8cde9cbbfbeff
col44:   ad98c7ac78bc99bb998acabbcbb9b8dbcbda7bbce9e9bbecfade9bcbacb9caaabac6cdecc6ecaceb
col45:   48a66c9888a9b9899868cba87c9cd9cbc9eab9e6ecbcaccb697cdbadc7cbdbbaabbcbacb8aacbadb
col46:   a885c6aa9bd98bc97cc97bbeb99cbebdb9afbac9ec9aeb7bba9a889c7aaa9bbeadbccbccdccbdabb
col47:   7ba76a8b9ba7b8cabba7987adcdf8eaab9bdacd9ab8db99bbecfc8acd987adb9aedd8acfcabdbdaa
col48:   8a57aac8acba7a7a78eca8abb88ccbcac9cbc5abb69dc7aedbcbe9dcadccde8caeb8b8b9bbbffbc9
col49:   68d78b9aaab7c9ee5d98bcbcca9d9ccdcbdbaecfbbbe9ddcad97ce8abaeadabdbfbaaaea59fbecce
col50:   9bbabccbacebc7588a9b9bb9b99bdca8a989d99efbebbcccd98a9ba9fcdeccb8caeab8bfadcfeaba
col51:   a5759b87cb8a8968cbb9988b8edbcaaacca8bba8aa9c8babbaabadb67abcc98cb579c8c9aa99b97d
ROC:	 BPix_BpI_SEC3_LYR4_LDR11F_MOD4_ROC3
col00:   686756b85ab86a6677b775776769876578d378658864957789a77b6b77755a489673635958569349
col01:   a758976aa69c48a6a9a88b8da6689899a996abaab6f9bb567578a9776885a86b8879897879899b68
col02:   89b8398c9798a8797b67645a79a886887896578a5b8a857a7d827646587a8384786979b665995994
col03:   c78d979a96a7cb89b95a6bad96ab98b7675cd9ada89b7827993ba886a97987ab66b947998a68ba59
col04:   b85687b9995c766c77996b99a948a99679768a75658a66d6abd66ad8b6946895957bb867858b7c97
col05:   9a668c795587a5c78a7baa9a69cca88868979a69a8ca48a97b9b5b9c8678968a895858729797948b
col06:   a2788676866968856687aaa9b8b8969a6d68944a78765978d876649946757688a778887876866667
col07:   b78bc98d7b9ab87bba89ab9bd5d998879a688776a99998a86aa658995677b698898aa86578a85899
col08:   81128a5878a796ac89888a78869aa7aa98a8baa6c6a8b9baa98d8b48285a3976a78894755b4c9a65
col09:   a88ba7a946973968a6aabaeb8a89896b89b99878aaa99bab99aaa9b697b799c77adb977687896789
col10:   75a588a7a6448663cbbad64768b99867ac795557c78966898488a668856696779c988887896976a8
col11:   8939588b869695a9a799a97c886c6b997999949b749c88a86b8b75689998cc88779bb69765898957
col12:   8498b57a8894c9b699777ab9a47b98897a9999a9988b86584b755899a7879698856b47866756956a
col13:   a659b96897699ae9aa95795b7a78ab798858c7a6aad9ca5886569ae86ca968acb5797996aa949764
col14:   5477899a77a9739bb5b5aaa76aab8aa95b8aa967668abbdbba9695876aab8859b566796886667966
col15:   a2866a88988a955876b66aad865985d777abb78b988b985a697c9acb6498b5aac98989759894948b
col16:   bc677da6a87899878b6bbc99998eb898887976a499799a68b779838c768966d75a86978167575968
col17:   51a59878698b8a896a78a69a698c7ab979998d9bab78859a66a67ac8b7859a8668b669a6c5368989
col18:   9258b5a8aa987a887b6aaa8b7789d798b64778d7aa8998a9bb8967979626c5d7996749a8b677bb77
col19:   898ab799a77755aa6587a9c998c8a7c889c7a999829cbbab68aab67c9b9686b9abb8978a897b784a
col20:   87a877b885ba987698897b8a89a998d9acc98aa5c8959c888997b9496b57968877d798ab56d75ab8
col21:   a8775a7b5998a969a99c87ba69b88c6ccc8a77b8bb9aa7a8a77d79a96aaca8c7547884a6888ba499
col22:   8771b689977a769c577a669897cc68a889ba8aaa6ba9998898b769aa6aa8891396b6a8b8a5597587
col23:   678ab499765989778888a6b88b78888bcb98795b7a8c95b8999baa568679c99ab6aa7b77586b6997
col24:   565998986c78888978a59bb68a6ada968ec8a5978aac99b6678da77b9a877b885562b99555a75864
col25:   796399998b76799888a9a9bc9697a6c999d6ca6577a9cdcd999caa8cda76cda78a8d87a79ba8b1b7
col26:   7786ae96c8ba7d8abadcaaa9aeaaab7abae6ccc9bbace787ba58cc99bbb997b7f98898a967a68985
col27:   a5668abac7d8acd9ad898c9bb9aab68abbb9a9c9eaba896cceaa89d7b7dba5b9da8a995987bdbaba
col28:   a9c8aa8abc7b89a88a6cd8bbcabbacaca89acb9bbcbbb8ab59adc97998c98b679aab78c786b8a98a
col29:   1ac77c98c8ca9b9886bdd79878a89e99a8abd9c9cbccbc79ab8a97a97ced99c8babcedacaaa76ac8
col30:   1b7996b668ab99998b9bc9a8be8ba8b9ecba8ca8bc7ccaa9b99997ecb9c9c7d8ca9a87a69c8aba86
col31:   7ac7b569ca9c9bac85a94cceeaebcad8afeaa9bafacb9bac8ab87a9cacb8caabf99cbba99de896cc
col32:   68e7addb9d7a8a9ebcae98aaa9bacec9cc9a79cbb8bbbcbaccaac9dba7cbbd9bbbc79ba9fd9bbbb9
col33:   898788a69c6aac9c7bcdd988bbac9b96dacababa7dc89d89dde887bb7eabbbb7ca97899ccbcabaa8
col34:   7bc68bb6bacb9aa88c9a7cecb8dbbababb9bcb9cabacccdc7bacb8c9bcadd8aba8dc9aaa8ca5eec9
col35:   89787989cbb8cbabbdbabafdcbcbdd79d8eaa9dadaf99babbc9cb9bfafadbcccec6b9cacb8ab7bcc
col36:   9697dbaaaaa88ad7cbbc8caaacbcb9cd9dcb8cdefbb89dbf9db7ecfaa79da8d9d9cac98d99dbbbcb
col37:   8aa9c7cab8b98eadebbbebc9bce9ccbdcecdfd9ca6efba8a9cadbecece98f7dadcc7b7bbad988ac9
col38:   5aaaa7db5ba9aeaacbbc8cbdca998db8bccba7bfada79beb9abfccbdcae8dce898afadb99cbad999
col39:   89568bb976bc8979fb9bbbcadab8c8a7dacbdc8c98db9b9abaabddbbcce7dccdac5ded8b787aaaaa
col40:   aba77aacca87caac9caad9cdbada8fdab9cdac9abadbbbdac9e9eddbedcab8d9d5b8cda69cadf9c9
col41:   69b9eaaababcaac9eccebccb9aabccdabe8bc6cdabbbbafadabbbc9cbbf9bccdecdc79bdaff5c7bb
col42:   8aa6b7ab9bb69bbc9a6babcdecbbbfd88cbf9dfdce9bcbea69d7dbbda9cac68a9db89ceaba99c9fa
col43:   958be89aed8c7bbddcdba97fabbcbfcd7abdfdddbb9cecbca98cdc9eebcccfaceabaedad9cccf8dd
col44:   b76bb78aaabbdbbddcaabdd8f9cfeecc9eecbcabaaddbdad9e8baaabcccaa8da9c9bcca7acc9bbbc
col45:   69c8cbbd5beaabbc89bbec6dcdcdbbdaccddb9cdc7d8da9edccbfbbbebbc9cbacbdcbb9cceb88d98
col46:   7ac98ddab9caabacbdd7bcae9bdc9d9bcd99db9cbdcc97caaaadcebb7ebbcbc7acdabbdda999adc9
col47:   daca8dcad6e8ab9899eeccbb9bacdacdad999dcdceeeb9cadbadb6c9decd9d9ab9ca9dcbb6c99ae8
col48:   b89c9cb99cbbbabdbbbbdabcc9ecdaddafdcdd9c8aba87acbbbacdab9999eecd8bfccb9afabc9b9a
col49:   8829afccab9cbbc98cbdeafebae98fab88bbbbdbcfacffcdbddceaeacfbbda9f7abbc9bdaaecfaca
col50:   782cbcccbcccb9bb88b9d89cddcaebbbcdaab9caddcfd9d9db98dbcaeeef888dbabc9bbcaccbbcb5
col51:   77898aab8b878ca997ebba9c87c9c6c9c9adbbca7becc99878aa8a8dab58cbaaaa8eca8b579989bb
ROC:	 BPix_BpI_SEC3_LYR4_LDR11F_MOD4_ROC4
col00:   737595b7666a7726b89a894832557597568a38549b6c4846666733173925574a8415a75597498882
col01:   947787c5686a89458796d2b966bbc6ec398768b7a88679b889377938b174884a7c7a3979bd889794
col02:   67857868a6a67a9bb577b999b6b49878a9c397466a9875967b588c55c6a6cc654b7b986765468a51
col03:   146a7d93678694ab4688b67c987a596ab9a7a2a9689877767a98788696aca9857a3c98299b768652
col04:   a99789387799b179a684875b8a862bfab68adbbb89546b6af7879a682648c66a6669ba58727447b9
col05:   4b6289a78a898c988685b9c9a99a576e8aa7ba79b89b5b9c95a9b89b77a3794a797867c7767a9746
col06:   b6a549a5697548aa85879749da47885c96ab96798a877586b7695958957635688596699772525c85
col07:   6a95a885aa58579cab94d7a68dddcabb8e78b9a59678bb78c8fa9aa78887819772589d2a1426d477
col08:   ba8779959767758bda76b7ccc975ab499aa4578a75a7a648c2a7cd8a777896598d88fa789729c473
col09:   6568a8788c93a878767bd8998c8968ca78cab89a877b6b87c857b89a778c69977998a6bb8a938873
col10:   a8a4a7a49568c9889a8a7aa93babacb8c665366b8cbb486c77dababbd95a7fa578856846b9775389
col11:   8aa5a496ba8794b78887a675b7cab65ac79c8a89ab7a947a6989a8ab569cea6a6b776568da79b664
col12:   589785477b868a78178e9db999a9c5688aca7aa8b6cc936c7796939a9758a8b69653b657b3798576
col13:   6377a777a7a5a59788ba99681b9c66aa8cc4778d988bd97f76977899889899c9968566d8593753a4
col14:   98559baa6a6ab48997d88d8b7579678be889daa6799ca8d8a79b66c8c79c987ca5bc828d47a7643a
col15:   9947996c89589996c8765f9e8baa77aa2b98829ac88795c79767a8867494d8cbada7878a56a8977b
col16:   9777879769c8aa69aaec88568ac579c98a17b2ac84b6a8bbc56358c685145699b899a6568563bd49
col17:   23c77548c274593957988a88ca669569b7686c78b978bb6c87d9a6ab95a98dcd4685a78998787864
col18:   56c4479b76688b73c8d75b3c6ba686779957a9a9fb59a799c83cab797a567bc938894598999c9879
col19:   6b6785aab974a8c67886bb47b6d94798b797699b7ba9ba585e8b59b79f8a789b7c6a659a78cc9b67
col20:   5632686b99b7746b98b99c7e879aecacab965569c87d5a8c63687ab46499759bb98bc16668b9ac14
col21:   36886575697888c88937997ba4ac9ab97bc8dda7aa9b976c6c888a86c77889a9c7a6777789b7a597
col22:   258657944c58a7799a67a4927739a4ba9c9b79976868558789781acabd89daa9c9cc999a76c48e36
col23:   78666999a5948a759378a684da879aa9897d79a8889acba9989c87ac998b965b7a46b734888a89a6
col24:   88aa895ca326a5f9a74855a9b8db662ab89daaaa997ba6c7aa8889a4b878a7749a6c79758a787737
col25:   73a3b6679875a889989789d9c88b8aa9a99daa7b77a9cadabb978a8a7b7a78a687599bc7856993f8
col26:   b6555dbdb6c6b6b8bd8a7eb7bdc8ca887cd889b9968c5a6d8db4ac5a9dbaa98b5aadad678d9aeba8
col27:   85787dc6ac6d6968ada67bfbb69caba8ceab899d9895caae7afb79a68798d97f9a88c86497c8be8b
col28:   784986a7be75c9ab8deccbbdc67b8dabb9cdd8dbb77e9aac96bbedcedca9a8989b3b9c9e7cd37954
col29:   a89a87ac78aa9c8c79fc84d8cd9ea7baed5b9888c969abcbdb896a98a97b6f86d7ad579994b9a7d6
col30:   68fa956b7ac7a599945da9eda99cc8adbc998cca88bcbb86adaa68cbbccb7bddbfabdce7cc6a97a8
col31:   c58da6b7a9ab9fa9ab9acac98abcaf3dccd7bbb8cdcaaaacfdcc8baeb7b7ddaac8b7e49babe6b8f8
col32:   68789d9ec99cbcb8ba8afdfbabb9c7bfbcb8ffc997dcf89baa8ce9bbafdeeaea7d79d98bbcb4c8a8
col33:   7ac8c9bc69bbfb8e96cadb5a8a999b87878fcaaaa9cbcbd8c7f7d7b7a7cc97dfbaca7a9b87c6b797
col34:   59e8cbbc798b8a65bc9acc9bdfda8bb9d88abd8ccca8ec9a99cec89aaddfeefb989bad7aabdbcbac
col35:   d8969a9bbff7c79aab9cc8c8fcabcbdd8abfb9abdbdfd89ed6d79fbabaebf9fc3de9b969bfdabdac
col36:   8aaac9aec8ca9c7c7cdbfc87aacda99bba97dbdbbc9bc9bdabaadbc9898dc8cabf7bbd7db867c8b9
col37:   796bd85dad8baa979f79ca9dcdcabbdd88efb9fcacbacddbbd9bcbb7bdedb7b98da7c8cc9fcabd87
col38:   ab9de8a796acc7a8acc9c688cbecdac7aee9bcc9c8bcbceadcdcbdddbbd9cfcbf9e8ecbda97cc8a9
col39:   7ba968a9ccafc6bc9969aba8eabca7ec8e7cecb796d99cbaf9dccba7ebb9c9db8988a8ec9baab9d6
col40:   769cbc9bb89898f9b6acdbe7cd88d8ddcadceca8daabffcc87a8cb98ddaeccdbeab6ffbbbb97bb9b
col41:   a949bb998a99b7aaca7cd78dbafafdfffddddadec8dbdcc689bab9d6acf7c7abfabea98addebb989
col42:   b49dfab57cc6e9dc2badcabde7cdcdf878eaccbc88ae79da8f8ecaccabba7d7bed9dda5a7ae99aaf
col43:   9b8b9799cbdcdcaab9dfaba9aaafced7baaddb9cdcfccae9dcb9bcfacbde9aeddddbc9fafbd8df7b
col44:   99db9ecadd8badbbcfaadcbc9cbfbadadff8fbdac9bdbbc9accdebbc8bcccbf6ca8afd899cc87bc7
col45:   6eb9bc6aacabcbacd7cc9bdf8daefbacdcc8caafbbbfa9fe89b8aa8bb7af3968dfb9b6ac8c99edc9
col46:   d99d8e9d7bbeabbdebaa8bb7cfdfacce7dbffcb7bc8a8b6cedbdecba7ae9bbc7cbbd9c6c9abad77e
col47:   68d6bb97ccfb8cbaeaabbebbbd88fefacbbf9e7bbdafa99bdfbaaaccaaeabadcbcbba9bd55badaa7
col48:   98acf7da6cdadac7a5cdabfd99ffaf87dbada8cf6c8a8b7bebabe889aacacd99aab9bbcdaac77aab
col49:   ab9cc8c7da7cad7b88fd8cdefdebfddfe9f9e9e7ccdca9bffcc89a9dddbceabc7b9eddcb9c6accf7
col50:   87cfc688eded8a9a9f7edac6d6ffbbbb8ca9cadecbcacfcd8685fb879ad6a7edc68bc8c9999dcd6a
col51:   79cba86baa67caa669b994dbd9a9c996aba5bab99c776b5af9c98b5d88bc67c988b9a8797ac9b6b8
ROC:	 BPix_BpI_SEC3_LYR4_LDR11F_MOD4_ROC5
col00:   61698865258876525898857626868c6926675589655547753a66384a9575686896789b4567455756
col01:   6a628496765aa64694a96777999789b77b577496d78b7ca989b689a899878988bc4bc78577864796
col02:   7a55c346779a9746983956a77a868789877ab4ba6ab6c9ab7556888a66a9898b95988887575579b9
col03:   673647989743666e29aa4b87d975a5988699e86a9565a76695988a1aa686769896a7b69b9796777b
col04:   6967668658778588566537b8c37a99a886982885b488997a6785a846a89969887a863a6a58ba5765
col05:   73497678c576646ab599a785b97777b5b85b64977ab87a98747878978b757ac887996b7833a6b9aa
col06:   685853b87787b9b7987695ba897789bb9a59898696bb9898b997989ca97b568879b7998686879767
col07:   b5567887766599988499b9a97a6aa98a67ca9b899857c58a967aa496db789796b59469878bb78b99
col08:   9636a28596658779ab69da2cb8b86d98ba7adbaab6b8ab466c897a887a49995977797a9b869b5397
col09:   68695568577a22b67d96bc787a886aa49acbb86a9aed948757576b96987a7798767895a8aa56aab5
col10:   49945568a8c46688669a898aba9a89c5797875ea6367b98888a7787abaa9798557a977a9887867aa
col11:   6678577649889c8794948d568cccc7b78baa8a887a759bcab879a9ac9c89a846b97ab96a6a987a87
col12:   78858985d7669a76a8989988b56aa87897cab9a797d76986ac698986785778678a8a267885899b89
col13:   8858748486653bb4774ad969d8b6948a7ab9b8b374b795787a99b9ab87499887ea6b67ad856a557b
col14:   6789565737987558a879ba786888979d697a97b79776b7798e47987ba8a77696884b5aa86b65c668
col15:   666177a699969587a4a79b679b799b9ab757aebb99bc948899919ab6899e9a979747789a7889e6ba
col16:   9977a8798699477749b84b66a89ba9a9c7b7a6abcc9c8747daa9787687a677b2a7a7b797b5b47595
col17:   37947697895b57788966778a6897985c86d1c7aaa77bc86c7bc68627a7cb89a49755488954aa9667
col18:   8778748698899b99a794a975997d99bcd8b967b7c7d59c7a8a99359b878ac96a67986896a6858677
col19:   56985656995b7996a9997b4786889ac9995798aca78bd47d78b5db9dab6796797bbb9ab89a8aeb79
col20:   7878785a35a76b6875959b6a9768867a6a6869675a959a88abab997a8b99c6669895b8735ab87698
col21:   98866788966a989887ab8caac8a6a9c7998ba9a8889bdb49a879b7b7698996685d896ad66c49a667
col22:   497899957877b86799aa967ab75e767cbc78cac99b7a7a8a7ab9cc569da5a9baaba886a986897899
col23:   7688895767778885889b97a8a7683a98c9b7988bc7ca995879bd6acbab9965bad66867ac9aa46755
col24:   857aa46966858688986859b8ab8aac869a599aac9b9ba65736c897bab6c3a888b99898867a886ca8
col25:   597597abba9ba488b87a9999cbaac7ab98b78a5c68c99c6abcc9a99aca959e9d87597aa9a4ba8685
col26:   b758b9a8ccb66ab969aacb86b9ccb4bb9b9bc7b9cbdbabbebad9b4eec89dabbb9ce9bbccdbac96aa
col27:   869aaac89788877bab986a98abacca9acb87b8bacba7cca7b9aa7baba6b9abc9da87a89aba89a8c9
col28:   9699a7785a9aa8a9b978b8568c87db8aaadaeaa9edbbddabb9bc999ada9ccccabcb5abab79ba9bca
col29:   49a6a898ad76ba9b99a9cadacbbbd7aca78cdab9afceccaba8badc5caaa7c89b8adc79aaac999c98
col30:   b68a97de6c978ccbba9b6a7d8aaac9a98c9adb6aaba78ae98ab998a99acabadba7bbcbbe8bba99d6
col31:   44ba9988a7bda7a9babdead8adccd8a86aaadcaccbbbdabbb9cc9abebbebdee9edca9dd89aba7cc8
col32:   8ac5a9f9cb98aaa7cabcbddcbecb9dba6bd7a97bea9bdbeffcceacbd96aabaabaab99caeab87a9a9
col33:   9c979889c8a4baad89dbab9dbaea989e7cabcec5bafccdcbd9bf8b9b99dbc89b9ca68dacc9ebaaa8
col34:   6abb6ab9a998baaaaad8b988aa8aedb9ad9dcdfa9bcb989ad8c9dadfcacfeccacbddbeadcd8cbebd
col35:   59548bc8ca989aa8cacbcaa8d9bcbbb89e99cfec9e7997eadb9b9ab9c9ce9dd8babeb9cbbbb9cdb7
col36:   74a778ac8b9cbeaacc7fead6cbc788cda8b9ecd87cc957cba9cbbaa98bbbccbcebf8b9d99dcdcaa8
col37:   b96a898a9789bdcb9c9bd8afbedcd7be99ffadbebccee9fc979c9bcb9ccbdbbdce9aaee9a89dd9e7
col38:   9abaab9cad968b9c9c9db9ca9cdc9eb9bdacb8fcfcebfabdacaddebaacdd8dcd98eceadddf9eccdc
col39:   a7b99adacc9bd9cbcbcadbbad8cbb97eeacdf9a9acedcabbc8ba99d8d7b99bcad8accdbba8a9beca
col40:   b878caa6dc67898bbf8db8bcc8b9eea9d89adcecebaacbbeecc8ccfcfecac9aaecd6bcbdcaca8ac9
col41:   67a9adbacc898aa8fcfdbbcbecdbdfbebdcebed8bbdaa9cdeddfbaeea8ae9ddcde98ac6cda8cfdea
col42:   7879c8d98bb5bb8bcba8b6d9beaa949c8d8cccacbbdedbd7fd9ffbf6bdacbbf9d9c8bcdaabc9acd9
col43:   cbc68bab9d9ac9c9ad8dbab9dbcc8fcab9dccebbacec79dfafbaabbccbcacedd9bdccdf9b99c9ba9
col44:   8a8a8a8c97488b8dacd8cae9b9cdcbe9fcd89cabdfbaeadcdcfabebbc89cdcb9abcfd9cdcb9adbca
col45:   8c69898aac78979dcbbdadacadcdbaacaacbfaebc7ccbec8bebbeddcdcceabcbd9abc98ddccdddbc
col46:   8ebaaa8e8bbbbcd8e9bb8edbbcbebb9cabfcbfbdcaebb9accaaabd9cecb9cd8dfcdadbbdfbc8bcbc
col47:   c979c97acbabb8c999adcf9ce8a9c6cc9bbfdbd9ca99ababecbafbcbdfca7b8b9dab8a9badcac9b9
col48:   8ba7d96794cc9cb9b9daa96ac9c7ddddcbbc9aaccc8aa9aa7dccbcfdcf9fecbb6d98cbbcdf9acadd
col49:   aa9bd6b9c9ada9cecc79bcd9ebcc9edccf9a9cbcdbacbadfbfeccdabcfbdacbbcad8ced9ecdefbae
col50:   9689a998bacde8ebc99baa9bc99aaaafedeb87cdddb9a9cdeebeda79b9babcb8deeccffbcff89fec
col51:   45995857b48c799c37db7a9c86669bc8bc8f8bcb8babfab589ac7ccca889d888eb97a9a8979999db
ROC:	 BPix_BpI_SEC3_LYR4_LDR11F_MOD4_ROC6
col00:   8233275844a57866589486456938a3756568888657754b868767c57867a6789a6744788587b5a571
col01:   3755a8b74a69986786858b687558a9c67c5976992b88a86998b887b896787488a96a74b887aaad48
col02:   72665985997398857779a984a786a98868788578778788967946a58768aa77866897696969a97965
col03:   8665a79aa87978a38ba9cb675859593bcb57a8987684a66558bca797aa886a69a9989668455ab654
col04:   aa88665b7894866886b789a79b688b7b77789467b588bc569887889ad849b96b37896768b9a89739
col05:   664aa8aa957a7a876787b799c8c86a69777568c9a889ba6887d8a778a5796bb758b98b8968a8a779
col06:   577376b98686a8579796b99b5788997c5758aa77b4788488598998398aa9a976a6879887856896a9
col07:   58a5846b9978767887c7a8966888baa988759898a699b78ab6b6ba9978a668a95986a559996a99c8
col08:   b55a9a8a8996b775667a97b98799da5a99b968ab656bd8d5a59aa989a97a9a97ba69a688938b9767
col09:   775887b7c585648766766a974989475894c8b85489696a86938389ac879aaa7caa8a9ba6c7597798
col10:   673365675574857986878865699686996c76a87b678869a277a9b967979a865a659ab84968769799
col11:   989768776789b78774aa78958969995b9998769a8863889797b4938d659b78c678b87b487b789b88
col12:   8775b8995486778866aab98699895866cb877ad8a6888baa96887787aaa88979a367a779a49589a4
col13:   58abb6a897a989766ac8677a97a78a89677a69898b8aaa9a8cc77978b578856aacb8958948a96765
col14:   64aa96947986676ab5a5879676978756695c7a7b58a88889796b985a99a6785ca67cb6b9c477a978
col15:   59a7799889988967988a75958979778a99a9768b84887c758b668787a9f9ba76b9698a8a6ab49693
col16:   664a539659978997a98a7baa9a796a96956b9c8899997a9aca7788c999a59587788998874968b888
col17:   37778376979a87aa8a78b376768ab8a49c97688a9c8b689ba587aa67a97599977788cb47686a8972
col18:   8377479567587996a989867887486968b7a598a8777cb889a69ab578b9a7868a999347394aa976a9
col19:   674b7497988a78b7699b98d8a9a8a8acac8cb9797898db6b7aa776867979985b59e886aa89b58775
col20:   49b6a8646ab75897ab6787c795a858a7966b78aa676b9a8a9a779999978a76a9a797c79749c66749
col21:   6857343667758586a86a85788a65ba89aa57a9ba5889aa489a899a89898897b9985b9a567a9b89a8
col22:   b4b56658a685a94a89b796a6799768abba8999a6a8387b8879695963777da68598a656988a969886
col23:   797846887677687a28a7a69897ca7999a797ba8798c7a9957a4b68c8685898549667998388859385
col24:   84957376958995459b65678a9a99c587b988ba9baa6c8379b77466b878a974775996997a97978596
col25:   b7c8a78b7ba89899a899fda7968a7a6ac9ba7b7d9a7899976688cba9c69b8aac6b96a6cb67997977
col26:   c8678876697aa987ab99ddaaaba99ccabc9d89ed888c9bb8d8a9ca87adade9c9aab9ac99a7889b96
col27:   94b9898aba9a866acad8c9689a99ba86bba7a8eab6a7a7986a79baac9c6b8f97aaa9b6896a96a897
col28:   98b79889a687a7997afa8acaa6799bdc69ca6cc8c8d7dbd99689a999aab68beea9cbaaa758d6eba9
col29:   9a898764987d8cab8a98899bb89adcbbbab796eb9dba6799ba8988ab9bb56aca9aacc5ca9a79b96a
col30:   7a7a6c998bb989abaa9cc5b8bb98a9c8ab9bb9bc9b98acba89b79a9bb8979bddb8e9bbb9baabbe95
col31:   b799ab86daaaba9a7dccda89bb8ccbaacdccca68d9abebbb7ccb9abeab896c79fcabb9cbbabc8bd9
col32:   7c8ba988bca9769ad9dbd59f8a97bccdbecbdababca9d9cb8ab97ba9dcabedbca9bbc6abccbbda8b
col33:   aaa59787bc85b7aa976a99aab8aae6c9cebc8a9adb8ad6bc9bbaa8989abbba9adba9baabbc9bbc9a
col34:   a694647ab8b6bcb7acbd7b89aeaacebca79cfb9b9caf9b8c8ba7dbaabc9adacbaabb9bd8bb8ba866
col35:   cbbab996b8a87769cd899acdbac7ae9abaebda8ba8c9dbbcdbabeab9aaaca797c9abcaccbbe8bc87
col36:   96a8867aa9cbcbbabde8a9a8c77ad7cde97cedce8cdbda98a8cca99bf9cfa8cbcc97d7aba9ab9cb9
col37:   97baaaa7c6798b8da9baeb98ca7c88aced99aac9bb88aa9cacfc8b9eadba9c8ceaa9b7d9e9aad8dd
col38:   96ca79d96bca8a99daaa9cbccaa9cbccaaaaba99cad8fdeba9fbdbc8fbcccb8dbbbcdbb8ba9cadb8
col39:   a679b8d7aa9b9b6bbbb7c7b9fd7cc6bbcaefeba89bc9bddaba8bb9dac8dcd9dcbccb8aeb99aa79da
col40:   98baac8bbb97b87bbcd8adbcbabadcced9dbbbcdadcaa8bdcacac8d9befdbbcbabcebd9ae99d9bc8
col41:   9afbbb7b8caababcbbbdaebc8bcada88aad7aba7bcb9ebe8aadaebcb99d8b9acaa8c9acebbaaaaab
col42:   88ca7c9daba8979ccbaadbab6bac789edacd6fdbd9caddbbadac9bc8b9caddb9dacca8a8dddcabb8
col43:   c8aa89ccbbabb89adbdbcddbd9b9b9d8cafaadfcaebdeafabcdaabdcecefebdbebccdac9b6c8cdca
col44:   c79a8bb68a8ec9acecbacc9bdabdcbcacbcccdebb9dbbdfeeda99ebbbcaaaebe88fabcaba9becb9d
col45:   7c889979c99ca6cadcdaebaa7bcfa8dcbdcccdd7a8dcd7dbeeaccebbcacaacabdcabbccadbcaabaa
col46:   c9a8abb9aabaccb4dbdebaca9cace9fcfccedbbdddecbecccdefbcabdabdadbbccddbcbc9dc9cac9
col47:   8aa98899cbab98da8aacdbcdecd9fccef8dcdbb9ecebbbddaaafbbaeec6bbeacbab9a9cac9b8debb
col48:   9999ea7c9bbccaadcaaec9be8bcabbaddad999cfcbbbaeba9eeae9abfbeadff9ecada9aebbdf8bcb
col49:   9c9a8aa9d6dd88ceb7dbbbcafdcabdbdddfebbbeddecbc9dcafcdbdecebbdaadebdbbacc79a8babc
col50:   cb9caccbacada8eccfbbcbd87b79db9a8bbdececbbdbeabbdabafccbdcddbcdecab899a9b8ceb9ec
col51:   569ea679a9989bb8a8aa9b6ce889dcdcd99bba9b9abacad9798baaa8bcaa7a7bba7c69b6a8c9c688
ROC:	 BPix_BpI_SEC3_LYR4_LDR11F_MOD4_ROC7
col00:   2447945884778738326683756896b6874477b46987567676997474887689865758656888b5556597
col01:   a7776737aa6557579ac788aa949c9777aa87879aa68ba9a8658a589c797965766597baa839a4a953
col02:   6847788b7ab878567585a5887a969588b6baaa89599b59e6994b8b969756a8649c877699859a8a88
col03:   65745a86b8696ab96a7a6baab5d974b9698ebdb53c69979c8738b9a486659899b8b979ba67798a88
col04:   5a4b77b898845988b66779966aba478bb7978a977957da54697a8888c98697d3859aa97b88a69578
col05:   877676374a9a689963a4766797786bb979a7488a99b8b87aa78796b9758997b9aa78785b75886965
col06:   246457f6aa88a565867aa86c77b796a996b9978876b768878b658796c8aa9678696577757886668b
col07:   379759ac9968a5897948498ca786ba9c8b97c76666988586a4ba9abdfbaab95b9a994cb5987ac8c6
col08:   94b584a7976c77889789a79a688b8ab7997b669867869589b579c486876a77896e9a79a97a2dc6b6
col09:   77589b998c658ab5994784b98b8787b979ba9b7987b98f86a8954979aa7b69996aa88396889a6755
col10:   5565478ad977abbad959a985c8a9aca98788a8bbba5494a7928b75773885e87a87b99a63aa8788a6
col11:   48755a7d7dc98bbcbb8567d69d975aba4a67797d869c49a6e897b77969aab68b4c5755ba6a48b7b5
col12:   1774679ab9aa9876647878695ac1b7a45b799a75ca8659b7ad75b82bfa8977755987aa69ba5b7c9b
col13:   85595258ca986a8b787b99b78c8d4b9da764a875a8bce9a9b85b38e9dc99a9a598987bbda758ad58
col14:   6987569777b876c9cb99c68a97b788a779b77a9b9c6a69aa7a8a4a985f989dba9999a85666c699b7
col15:   897755897994b77c958976887dbe798888987c77cd8a689b797a88975a9aa786466aa768a5a59954
col16:   39687bc95787da676978a7a947a797baa4b7bc877a8c9a9996a9aa7d6966a88398a996bb69656795
col17:   84a5b9a5baa3a768cc986d6998d7a4a978bb886978db888b9b7c388a7ce989a998c4a96965599654
col18:   9338a977868a7a75688a679a74e78adb9776a8b8a77887a6997978488588a9c759b988952b99b7b6
col19:   7687688a995bb99a695e7aca9a9a9796aec6ba69b57e8b8997ba6d69ac67bb97877c69a89a896887
col20:   7669c683a8759a6958bba75da8b67c9999a554a88895672868b7868a6a89d79b9c66b97563d66a9b
col21:   26486757798c8b6898a9b9992a857998b97b8eaac987abb649a9589b88c975a8878985979464c6b3
col22:   58769c5a8aaaa56978867c93688b9a7c8aba96b9e988a6949956c669ac988a7998766a9b4a68878a
col23:   579675985a649a42378d56a78aacda9998ba85ba974a4a7aca756cc6a9a9986b647989923a678a9a
col24:   6455797454a76b79b37aa6b7c99b89bfbca864a6969487acae785d8bb5987a96767a8966c978997a
col25:   76576c78ca9d7b5a8cc7b7aab4db877b5ddbbb7bc9957e69b9aab88caa8b98abf786b8c98989b996
col26:   aa58bb7b8a8a9a8ba69a9cc4c7abcc999ccb9b97b79ada7a96ddbabf6b9bbbab6bc8bad988d8abb8
col27:   779776c58b7845b9aba99a879bb876a7c99bccbc889b9cad7ca8989b9b8b8cb5bcbc6abd9cb9c7c9
col28:   864aa9bbb95aada78a8e859b9779bd98cd9b9c999dbd9c7ec78766869e6f7bca98cb99cac6bec9ba
col29:   74a689d6977e8987b9bcb967cbab88b9d9abbd6ca8afc9b7aa8bb77a8cec7a788a9caccfbbcbcea7
col30:   78859cb9abb7687aaababaaaa95c9cccbdbc9bcbafda9bfb9bbbbddcc8deaafbab89bbbabbc9b9c9
col31:   989798c54966a9cdabbebb97ab977efcbbdb9dcbc7dda7aaaadfaab7a7c999c9abb8b9cabadb9f9c
col32:   98a8a6aa7cb97ab9b799b458ac9c7cd9cc87afe9dcccbfab8ecdbf9dd9b889afdccab9ee8bbcdaba
col33:   66996a8c887679bdb7bfb7cc79ba8cd8ccb79cbd6c9a99bbc9a9babada6dd9accd8cdc4bccbdedba
col34:   978ca748899b7bc98a95cac8f79b9aad7b8be9cff9ccdcbf9babbcba9699ad99c8aabeb8accaceac
col35:   a9ad8b9bfafc98aa8bcdabdb78abdaabc8b9dc9dec96dabacaed8a7bc9cb9cc56c8bba87ccb7bba6
col36:   a768e8ab6baa8bd9aedcbbc7aaaccfacd7babb988eabacac975a9cb8898689cccc6c9caabbc8b78a
col37:   9d59dbd887978b9fdaacbeebcc8dbaadeabca8fdaceceabcf9fa8aaca6668a8f9cb8dcbb8ab899db
col38:   88ab7c989c8757a7efcabcaa9da89dbedeacdfcddbaacb7ac98c8defccec987dc9cadaca6a8cb899
col39:   87a899a6aab89a9c7acbfbfacbacaeabeebabcdccdadfdabbccb99d8acbeba89afec8e7ecadf8bea
col40:   7c8acb98588ca9bddbadb9d8ddcacda9add9edcd8afabcaccacbbdd9facd9d8dbb9e98ddcceabf98
col41:   aa8dc2f8d9ccea8e69b7ddaadababbccd9bf7bf9dbcadcdbaca5bf968adce9af9bb99abfda9edbb9
col42:   98bfa9ce9788da8a989c999dd9abadbacdfffba99baeabfbcbc9bbce988bddcbb6fa9abbc9a8b9aa
col43:   a68b999af9ae8bbfacb9dcb8b9eaccbddbfbe8cedceb9c9ee99cabccbbbce9cb6da978dedecad9ad
col44:   ab79acc78d9a9dda9f9ddfcedcc8baefce7dcffb99fbe9cdddbcba9fcce7aaafdcaabad9cecd9adb
col45:   7d79ca5bcaeaa68bbbccda89c9aebcaab99fda8abdede9cbb87acbfa9b77d6eba8cc9cbeb7aebdca
col46:   8878c89a7ac7ecadcd9bcae98acacecdbf7ad4dfecdbeaaea899dbdbb7ba99beb6daba9abaebcbcb
col47:   6a8cced7ac88bb89bbaacfc99e9aadeb7ecd9afbabcdeaebdbbaeab8efbc99deacadac9dec8bfcda
col48:   99bceacbacaa97b7bb8ea9edbbd9947bbecdb899dab9abbbdceaaaee7cfccb9dc9bafcacfbfcbeab
col49:   a789aaabcbc9abcbaaccfb78cbacdbfeebcab8cdcaadafcdb8ba9dae97fa9f8ddb8f7dde95dcdc8b
col50:   8cd786e99bbbeebdccfaadacddcec8cac8d6b9b689ccddeaeccc9dda79baccaafa93ea7caacc8dd8
col51:   aa88988959ba9a8c9489a98a9bac8f7c6ebb8adaab959d8ae86bbba969aeab8bba9beaa989b8c846
ROC:	 BPix_BpI_SEC3_LYR4_LDR11F_MOD4_ROC8
col00:   861478558b7967864386568568776984546683474588a8639896a695b47499879b23676367899897
col01:   777a8ab38669ab9c88a987797899749c8a889ba98bcdb6ab976baa958868aa86aabc768b9883aa87
col02:   563698835489887598649999c4cad4685bbb99bbca8c6a786c7e37977998c8898aa7986b8776b776
col03:   b966ac5b468aa8a7b995a98aa76673aaa59c9dbaca7ba9aba934a7f7a78848b76c94bc7378ac8976
col04:   ab979486a5547a965897a96a95aa97bc66697795b8897ab946c7a7978788b8b7889cb66b2854969c
col05:   738a658a6979598657b758a6458b8568797e6a7a648868abb8a98689b88ca7867ad58785c69b8977
col06:   75654b96a7b659777b794b859769a7b6b779ac7998a9849969a9a887a5aaa66995b86baabab437b7
col07:   9779acc873a99765b8abf6b8c9c8a9999ab9bca9fa6b8a96a68b9ab996a93b6988979a4e569a997a
col08:   4767a6a8a869796882ca86bbac7a7ab596a688998a9abb5d685adb78a76868ab599678699a877ba9
col09:   875a5b7946ab98989b779499897db5b89a7b89377b88836688a46b8cc78d787978c88896e5a99766
col10:   8433999ba9579ca59dd687758ba87bc86aa8898da68884aa9d78a885889569a86b87697b784a98a5
col11:   57689697549b537a786a68a4a8db6b8aae5999996977876ba767e786669c549898b4a846d77d85aa
col12:   4429637a4a86b888a7736874bc98978a8bab873b57a5e8c896967c6b88b9588683ac977a99695889
col13:   978949a88a74cd8aa6eab96f8896ba9f887a97ca55a7bac6b9b7885db565998fa98ca97b69d8a887
col14:   3566c766488aba97996c88698bd5785d896768ba789db69827b7b76938b8799b95d888988aa88869
col15:   778a658a7689a9a4a5667b96b587886779799aa8779aa5c6688897a8a75559798a85a8cc8798a986
col16:   16548a95aba75a6998a75b699998799b9647b7b9966abda2788689cc78b46796b7a7d998a898b9a7
col17:   528677a898966997988d9679b9594a7ca588f779888b8a56785978b6a887689caa7878878a686a36
col18:   755667866ab886ccb99b9798695aa7778846a7a95cc669c7ba88a7763958a6ab79a88aa5b7954ba7
col19:   685a5c9887993875b4abc78a797b8a889ebc526ab89bac6daebba983aad7aa3a7987676b78968685
col20:   54b59a86a6738594898729b88aeab9b9c8b7c65a69c75ca79376b87aba875b59557849aa39689bb5
col21:   6347a68959979a6688989997fa868839a5968779c97e93b7b79a9aba9c89ab5757b51a767a69ab76
col22:   7b59887955878a7a738489c4a78d86b8d8864aba9a868ca9c5bda76ac6958a87866658ba6aa56997
col23:   888b86798868a8768cbaa8664c48a8c9a9b3a9978bca98979a87898cbd8a8c878ba47578a6987a79
col24:   782b968a6a7466aaa59768ddfa7584ca68769a55abaa9b7787a6b8ca989a788898ba99a873aa8ba9
col25:   ab79b87a3c87989694759a6898c6ecb8bc7b9a9ab8b9889c868bba898a69bda6ae8779da93777ca7
col26:   ba5bab9ab789bc68bebbace8b9adab6abbcbbea8aaac9b7dbc888bcb7d78c9beaeaaf6aba9a7aa8a
col27:   6ad999c485a7b8888bb776589c98da8accba889c9ac7b8ad976b98f9899c9daa7989b98d7a86c7ab
col28:   b99688bb97ab577cd9ab9abc998ac997dadabaaba986a5ccf99ca6db4aa999aeaa8a77aa99a9b87b
col29:   86baa957cab8a9998e7a8dc8d6d9babb9a99c8bb89bacb8a9cabc8bcc8ceb99aa9d88b77abba9959
col30:   a88796ab99a9a9c9ca8fca98ccbab7b78996abafca888a4aa9cebfa69b9c9ac89bdaeca7a77b8996
col31:   78bbac8cca4becbdba98cbecd9dbba9bbbcbcbdbe7a9cb999dc9c4a5d9f7bcb9dcbb8cb9badcc97b
col32:   dacb9eb9bbbac5badcd9bcb7caec79bbdcdaabbb7f8acbba8d8ccfd7c99b8ad9d9b8ede8facacab8
col33:   888749f69b8f48d9c9ebdbcdacb8cad8799ca9cc58b7dce7acccaa7757fadc7babbbf9abae89e6d7
col34:   97b8b85d8ebdacd9bcabdcfdb8bdbeac9cdbabbda9ea9acbdae9cbb9cc776edaecbba8b6aba8b8bb
col35:   869aaaacbacca6b97bdbddbbdbc998dddcbcacb8bb66fbbcebcb9bb9b9a3aabbf6cc898bbd479a98
col36:   6a87bbbb9caaa9bbcacd99cc9a88cbce9bacb7acf9edc8ffd8bcbcc9ee89fdcaebab89bac8d76be6
col37:   7dba9d97b7e88aab9ccdcddbcbabb9ddcabb99b78cebdcbcbbb68bbafc9ac8ab6aea7bfacac6dcba
col38:   97ba8ac7a997abcaebcb99d7ba9db9adeddcaacbacbdbddcadeabadbac89bc9bea9ac9c9b5decbc8
col39:   b999d98ceccaabc869baaedd8dbadb8cfa9af7fbb6ddddfd9caababd8b8aaad9b8caaadbb8cc99ec
col40:   88aeb849c89c99badbcedbdc7abcb8ceec98aabaafedc8cbaddcba8bfedede899dab7fbeb6eb8cdb
col41:   9dacca8bbdabebbe7bcb78cbabdccfbc7e9eccaaaefcdccfbab9dc9adce9b7cd9aabf9ddcdcf9cce
col42:   bc86a8d88d9c6b89cbaccbb987abcb7a6db9cdbbfdcdd9bbba7bdbfeaeebff8e98cbcabab7efacdc
col43:   6bdb8f7c8daccea8feccbbfcfedcfadaf8dbceceeacc9befaedfadeadbdececbfbbaea8cbddab8b8
col44:   9d87bbacbdbe89d5ecbbbafdbdacce9cc9ecdbcdfadfea7bcdabbbbfa8ddbf9999deb9db79ae9baa
col45:   9a89ec9aaac9a9a98cdd9ebb6c8bbeecb8facbb78ddbccb9dccfcfabdbc7b8b8aa7d8ccfb96bcda6
col46:   ca9bbbcb9aa9abc979ceba9baa7aadcffdfed9bac9adbfcdadc79ebca79cccaacb8a98a99dabcdaa
col47:   7c99ccdbe7aeea894affbafddebdfc7dcfcbbbcdf9eacabcabedf8dfa9cc997daff9dae9becbd989
col48:   eaaaaabbb88adba68aeac8da98bbcebcf9ddf7dfabcdcfbbcfa6bbd98fddd9baacbc8cadbbae9e9b
col49:   ad999baabc7ecbb9bacc9ceb9c5fdfb8edbdabcbdcc9faaa87b8ecadaacdde9dcadaebd8add9bcbb
col50:   ab7bad9898a6b8ccbbebe8ecabffabc8eaafcecefffccfb8bcf8bdc88aba9cb5eabaeadaddc9a8f8
col51:   a768bb8ab597b9c8b497d8c9b76a98abd9ea97a9a8e976ac7d98b998bea48b8fdbd897d74cc6b889
ROC:	 BPix_BpI_SEC3_LYR4_LDR11F_MOD4_ROC9
col00:   7918295a5aa42775437446497b84977587677a4b7985c88897a8d6a71784797868589c6676658686
col01:   85498aad7987d68b7d997747c4aad9ba988aeaea9e9999bba8b7b989777b8a98869888a8cb9173d3
col02:   9a9a66c7878798a7bb9a8b38b7a876aa9aaa8788b8a767945b87767499a89aaaa9acdaa955997a48
col03:   776a9a76f89ca67959a7ca9d789a6787a96ea79bba9b56d9c7cb7d7b8d8ab9b7494869b688aa867a
col04:   b76b1b887737ac28a9694c8477b7a9fbe69a9ab7da79b9aab6c7bb68f8887a58a885b677c59b9a97
col05:   9158568b7745b59add6598a86799bda8b7b6898887976c9b66a8b98978c879aa9ca7d77a8b866ca8
col06:   77a976a979c86659a9c7b69866aa79da6d65a86798b8a77b9e9ac79d67a8a866939e8a5858869ab6
col07:   4b97a6b9be879985859cbcd8a7bac4aaadb9cb8ac86adaa7c5bebb588aa88c76b9ca8b6896693a76
col08:   53a796c68a77688979c75a6aca5abacd69ba9ba98abaae6a52c7885a6589aaa598998bca986497b7
col09:   b9a6ab89998878d89988ab99a985d6bb5b8bacab56989889a89accd726a856a98a99489bc99a6a84
col10:   9c79a3b79bb954788aaac9988b9878c69779b87c7688758857a798aa998ea877bb7ab88658698bb4
col11:   b97b76aa98b69979399a98d98a989ecc8d582a9bbc3a69889a76aa998a677795a96b95f769669864
col12:   8dc784889b95abd89bb9698c6aca7cc9aad79788ca99ac6d48c736a96bc5947888a5687677677a88
col13:   768887ab946db9fa568b6b6a6aa87eaa8b38987b9cbb8a9edb86858798888a9b4698aa86988b2d97
col14:   c68b75578989a69b97c8a34898b65b6c979aa59dc9d7ace87969a8bc9b99ba779c889a9779998997
col15:   4496cac98777aaacba49b775988e888a6daa8a89d688b7c56652a779b9986bd795586ba58c999585
col16:   283d7896a8579b6b8676aa86a9b99aa7c4bb88796b74bccb458b857cd77b9cbc7bc68553a998ea75
col17:   596b98a6c84c855698c7ab485977848a89ac9995c885686aa89796a9c8c57489c67878939a376888
col18:   7686575576877b8c47ab9a884498b9c8b997baa688a9d7798a89cbab8695ab6689a566796b998aa4
col19:   8bc7794dd5bb93c8aa67bb8898aa9c98bc9b6a47f6a968a9b9fa5bd696cb9798b7a4469378877569
col20:   6b35975968c77858488a8ca877889bd95a89a8fc4887998c6bb799b85c86b87a75a3a7bb65a97a8d
col21:   93678674669599b9b579ac78bb5cd75b89ccba75888bb999bb77b76aabb4895a8677482ba998b875
col22:   84566b867ac6e68a8787c9a8ba9a59ca67e998ca87ab999849aa8e96c88a7b99a9c99a3298369638
col23:   846b843a598a3864a7ba9b786c49c9ca879ca866868b9ab7bd9a7b89cbf6977878885b57a8948389
col24:   53859a66574589a5ca98994aabaa89979e79ab687867a98b9b8a67a98aa98869767a9776188a597d
col25:   246c7866775589a98ab4a9c7e8995cca7898a878fcaac88a7a98bc9dabbbcab7996cb68989a8a2b8
col26:   a57879899ea969bacdb76dc5babaceb47eaa9a7eddb9fcba9aacb7c7d79b877b8acfb7ccccfabbb6
col27:   87d8cabb79977acb777daaa58b79baab97a7dacbcbcc9abacc79cd978ac79da6a79adb873888aa82
col28:   a7b3988a55a6764c96546a798bcc8a679dbcebab7ab7abc5bfba9b98e978dbdc9ba96abbba95bdd8
col29:   9a75a4aac9b7e885bdddaebdbdbe99aabbe9ab8d8ecdbb9b8d9dfdddc879ca9cb9dba99cb57f379a
col30:   6798a698a5c7a6899878b8a9ddcbdee99dbcbc5cfb78eda697bcca8bcd8acca9bb8a8a97daa88cc9
col31:   89c98b9cb6e9aaacbaec6adaa9becbdabeb6dbd9aab8b8cdbcfeaccdeba9cad99baeabbdd9d9df9d
col32:   a5cda59699986d89db77b7ba8aacdcd8aafedcabaedfdccab9d8edacbc8cfae8bea98debe9ab9aba
col33:   79bd98a3b9767c99baa7a9af6adeb8d8ed8ceabbb6ceae7aeaaaa8accfacbda9a78bdaaeabcbd9d9
col34:   798999b87999b9899ac7abab9cbdcc9cb77f99d8bb9ae9acebefc9cdfb7ab5a9cad9a9b779c8c9d9
col35:   b59be988bda689a99cd7999cab9bd97cfd9edcabf9fb9efcbcd7bfdeb79a7eab97d9befa9caabbe9
col36:   b4c89d399edb778a7bcdbbbaa8dceec9bba9caa9cd9cbfcc9cceadfebd9d9cc99b9fb9aa8ea88a99
col37:   8975e758c75abaded869dc4e9bbcfaab8ec9acb99dacdcd9cc9ecaab7e9bcaafcd9d9de8789fcb8b
col38:   bba5b755bacb8c9aceecbaedb9cbbeacefbfeacacbcdcacaadaae99cabacadcabc66bdad9bb9abba
col39:   c68c989ac9d797af8dda8bbacbcacacacaae7bccb9ca9a7fefd7eaf7a8adebd7dabb8bc87b67d5e6
col40:   b2a6c94b9d9b7cccaccaba8f7fddde9676fd99ccc7ff6b9aba9c8f86c9ddcffedcabfdcacafa9978
col41:   a7bcaefc8b9985d6ea9daaf9eecf98bbffbe9bcafaeeddbcfbbaedec8efaafed8a8f9ddcbbd99afc
col42:   a8d6b89a9aa8b8cdbabd8cec9abcafcd7bbcccacf8bbbbcccebfe68bdcb7decbaafffbbbabf7ecbc
col43:   977aebb8a9bdbbcccba8b8db8aeaf6acbcafb9baf9cd7d9dabffdeacabbfcefd8cf889dfeedbcbca
col44:   7a96cc9c9be8ea5cfbabdcbc9ece9cadbdbcdeeacebcfdfccecf9cebabbddcdbca7bcb9cbbcbd9de
col45:   d97ac8fdbcec77edcbdacb89bbcaada9aed9d6dbbaeccaf8cbcfd97c9f89c9ffed9cccadccd99bc9
col46:   da9a98bddad9aca9a7babcecabad9cc9fdacedcbdaa74fdfe9bb9dfa9ceccacdcbdbcb7e8daddaad
col47:   9c79aa87bbd9aca9d9ecbafa98bfed9bcf89ecbec9dfbdb99dc8fcab6aacbb9cccb9a6adbbb9cbc9
col48:   798ccd77aa9c9bbd89bd8c49cedc99a9cdaaefdcad9ddffaaefaadbcc8bcdf8ffbebbdc9cca5e9cc
col49:   78dbfbaebafa9af7bcc7aceb4b8c5d9ce89febbbfdff9eeacdbfcaccbfdafb7cabdaecb97fbabccc
col50:   ca7bfba9a6ea6e9aaedcbafaba6cbdecabacfbfbc8dffbce9c98daacbaafcbe9caaacbdb8bafa8fc
col51:   67a5a7a9978c9bd7a7487ca6ab599bdc98cadb985768d9bc84db9dcae8988c9c7999789ab7bd6bd6
ROC:	 BPix_BpI_SEC3_LYR4_LDR11F_MOD4_ROC10
col00:   57956689799166859599a67b88e3857664b57899b97887ada7a665879567a996a7a7a98aba866939
col01:   98d98c798b576eaaa89f6a84b7b9b9ac9968bda99969c9668aeb78d8a99769fd9a7c8dacbd7a6795
col02:   779aa497b6566873bd88bbca774dbd46b67b7586c879765d9a88a87c57baa4ab5688699aa4ab6756
col03:   7789a64878a75ad876aba9ea8899acc77bb9a99a9b99cacbaa8babdbad348689c49b9b7eab5b9b8a
col04:   668776a5a748599967bb8b97b9d88daa86aa989787aca7dc6b9968aac7c9bbab8a67599bdad58686
col05:   6a98753a895599288d9acb96addaa78fcb8c9ae9b78bbaad8b699cba8cfa79d9f4a5bad7859b2975
col06:   5974b8977a8879ab97c796c7c79acb98c9a99df6889b8caddab9bbbc87e6ba968979e5a79c9d9b88
col07:   d5878764ba888477b798f88b5abbda9968db99adbd9ba96a57b9d93cfbc6bb877a8a79b78ae39378
col08:   585869a367ac8967a49a997b8787daf8a89bab7d9a8b7a699477a967898a879886a1748c825bb789
col09:   55c77bb59b78a8957789887ba5ad8999a997c9dde697a8bcc9ca9dbbc998cdc7786dba6c9babc884
col10:   8677884a49a8c76d689865696577aab7a989d89c8bbba9ccba9b7d7bc6a9c688a9c6997b8ab997a5
col11:   978877a7928257a6889af788a77a8c8b6867b7b87596cb97899cfaaaaa85895b98c9798a8ad8a6c2
col12:   37564476b865c8925598acb7ca4db8d8ac89a4b779d7a8d94cd8796ba8975865797cb7c9599bb977
col13:   64976396588a78bd765497b7dc9e98b6966aa69aa9ac9789a997cab89a6768aa9a6acca67a89e689
col14:   7578b56a986848578ab6446a6459bd7c6a8989cb798bbb69a8b8d97ca7b688a99bd7995a88d69689
col15:   75b86888b877677b769baab69e9c96ac66be9968a6aa5ac9baa666c65797bdca9d7758d99a878b96
col16:   5676a598867c56b75a5786aaa5b8a7868ec7ca9cbb996d6d7ccdbcaddad69ab97569c878b96a9876
col17:   37377762c66784a6774abad6a967d9c9abb898b99ca56bb698ba96baa895c88da7788962b66fb888
col18:   5587e95a69677aa7379bdc96ab957a9a9a9a7966889ab789b6b94aae8878a98adbd8a88cd1ba76a9
col19:   764c9e7c68548dd68b5379ca949765aa8aacb6896bb7cbb8ea98a696c8a8b6996b47ba7aa789b8e8
col20:   68657aa8174758a969ca58889c98657a79778aa8bbc8da6ad28a556b458a8b6756aba7d7c36cb7c8
col21:   568ba7a747c989978a79a8a6baa7a5987d47999994bab9786c998aa9b7cb88b6d9aa778c9bc9a5a4
col22:   78897a874758557785b8639956a788c98a8986d6879d89a9899ab68cda8a776b83db48aa66baa897
col23:   57769384596998868c58b67647baa37a9a8be868c89a76779b94a9a98a9bbaa97974a68489d9d989
col24:   26b68534979b856674daaa6a5799476b6b6bba974659a97a976d88a1696caa78aaa997aac6579774
col25:   927a967b8756b273b5ac59c98ab9797dabb5c5ab597a89b879cc9899bcac58ec989ca8bb6588d9b5
col26:   57c8db6897b95b7b8aa6797ca6bb9bbcbe6c7de9b5ab9b9aad5ceb948ebca896aab69bb59f5d888c
col27:   49945988538a89878cc7e9baca96ecddd6d88ca6ce7aca9cea9bfaab9a9c8aabae3b86989958a8a7
col28:   878749ac8a29d8986588999aa99b979bb59caef8ccb8db8785d8a8cb95a4b8cc8d86b8a9aad88de3
col29:   4d6846b48796bda58a7bbba7b9d8ca98aafbc8a9ecaceb669c8adb8bc9caeb7b87ab8cc39ce6b959
col30:   78c58a7aa6a979b9b6a68ba9f9ac3dba89777dca6b64ac8b8bcc6bbb9dbeab897ac7acac668aacba
col31:   b6a76799b798aac6aabd9c57b78cea8c5bbabbbfb69acdda7aa79b8bb9998acfaab9baa97acc9799
col32:   6da7bb868aba97eb8aaab4b8b99c88a69dbc9ad9da6bcedfe9aaadacaa9aa9e7dabbc6ba8ad78ca7
col33:   69c7c9756a7a5cb78cfdbb9b8a6b9afc89a5bf99e98b9abddedccbdbaac9b89abe989a78a88cc9a6
col34:   7b987d69a93ab4a89cb697f6eb999acdba8a7fb7b9acaabbb7acbaadc9daacd9bdb9a995ab6ba9ba
col35:   a788c79a9baab99bda99985aaabeb7ddadbab6c8dbdd98a689ba8c7c97beaabcba78698c9ab9ada7
col36:   8c4a97857686c7aa9c7eac9b78889dbab99ca78b9a4a9bfcda7b9ba999a7d7797aaa68bada88d956
col37:   77aa96bb9b87bc9db9b888cbc8a9fb9d9cda98dbfaaea4cec6a9bfbcbbafacacc8a89b57da8988ca
col38:   688bf7bfb86c8ec78abcc9fdcacdb97f9dccc7bbbde8ba8aebfb9bc9badabcaadccaa9cbacaa4b86
col39:   5a8a6ba5b8a788d9c8bdffacd9aacbebd59cc9e77bbebcada68ec9acd8dc9dbbc85ad997aab9bbc6
col40:   ebb6acccd88d9d9bbb999cbda9caa98d9ccecbb9b88b9bc9ccaabc67bbdadc89a9bceabaa8daaae6
col41:   bb7b9968c99bd9ab77dfddc5ec8daa9d8cc9baac7a8bcbdad859ebda8bbc9dc9a6d9ddd999db9a8d
col42:   a489688b9c69b9b9bbb9bbb6fa8c68c7ba9ce989dda8addcbbabcd68b82988ecadd3c98c68bcad5a
col43:   888ce89b8c89ad999bb9eaeaaa999cb9fcdddc98da8ddbebb89cd8cadbb7a78b8ca6aa7abc98abf7
col44:   7b478a9b879aaa87889c7aadaabbbed8ebdafb7cd877dfdbc67aadaafabfb9e9e9e8bbbba9cadedb
col45:   c499cb577869a97aa8b89ac8e7bd8fc798cbcf8a88a89dcc9885ecafbb7ca9abbe9dba8bb9cbbacc
col46:   37898aedc9a695ba9cca9b7a6b67fccb7bbbdba8eacdab77c5ac7b8bc9a9e989a8fcc8d88da989ac
col47:   a96a9b9aa7eab5fc89fba9cb6bbaac86aa59faaea7ace8eeb9afc8ab6a8a9be7debbcac9babdaba9
col48:   878899bdbab78f8c69cda799a89abbbabbb8ebf7ba9f99cda79d9aed9dbc7b9a5cbbb869cbd8daab
col49:   b77a99aa86aae8658cd59cc899ed9eda5a9c9abcc7fbda98bb867bfdafa8aaacd958baac7a9aadc9
col50:   99884abc8aa5c995da9cccbddcc89aacc5f7a8a958acdb89dd6b7cbc8dccbccdca8ada899fad8bab
col51:   86765bd796aaaa7a8ba89d86767cba686989f8eba7b47a9789b8a9e8c699ac7b88a67b9c85cab494
ROC:	 BPix_BpI_SEC3_LYR4_LDR11F_MOD4_ROC11
col00:   5865732b5754546a87884788646857657777826958a3588869877999765b4686485656538a379997
col01:   564775565686796a9c74a667c9abb9889a7aacb89898d68c9d18aa67b885a6ac974899a9888986f7
col02:   54994c6c66786b9667c497598997a6b898697788a88b99d88897879b778785979b4a7a755cda7647
col03:   67a6b4775a94544379a6985c99a8ab999b996a75577b99a67ae8ca8797abbaaa6a78bc9668385b87
col04:   576688758798432599447b9a9a7aa9abaa98583a8aa9b9a99978396998aaa9a58abbaa824b865c75
col05:   653768557577868a76788cf5369766d897baa6b6ca686b7468e6a6d5abb8a667997467bda7675648
col06:   876688a99bc589cab796d89c7692575a8786877996a6db9b776baab8979a85c8998673a5876aac68
col07:   485858699673896889768475888a89c987788ab8bd997c7797998b8b8c98a97a7b85b9879d5b9677
col08:   2358958553a93797577979a9a569a8b79a9bb8376b78ab9978397a968ba7497bb6b6ad48674ca878
col09:   757758a68846857a98bbaee888c76899999986a89a9a5c998a996867b8988a5a77796a9bc5c98986
col10:   67348545843476684896b58958b69d9896aa997b8ab49975ac87498a828a9698937646685959a986
col11:   724867b8a66788889966d9557b78978a787b68a85989778a9ada6b98a8899b9944649b9fa57baa99
col12:   65778746a95984667714768cc9da85a92a75a686abab8866b8684a87baba5a6bb868a796ae8aaaa5
col13:   6947679b7456c8b9a95ba98d7959b99baaa9a888897858a688a7ca879bcba79ea8a787b5ea677ab7
col14:   657767633674598865b789a7878a679aaa98979967b5779557e4c67a7aa99db9a977989677987656
col15:   239382387a986a5887589b8c95688b457b7798a87898998999699c76a8699969967889abd6a8d876
col16:   8865589587877aba55984a69ac7b99a799aa8a5d797c9a89a8b99be87a64998bba88879648667a66
col17:   137555529665675978a88577bb848876998a8998c796c4738979c689bac5c7aa9a99c9d973daa5a4
col18:   b62265b654873769777a699ea94d87a668a8886798b59786978abc865666778578a3745b858696b8
col19:   35776763177979b89959557a6597859a748798cc87da68ba76579699897a8897a79a898548749979
col20:   45654545972768a9787e8869578a77778a655a9b5787877c785688ccc978ab97a7b8577a95877979
col21:   665588c996b7785669b5a6b5a7cab5bc868478798a79799ba978a9a7895649baa88b9999976ab88a
col22:   67464897797663645987988ba4d7bbaa6986b768b9c6587589779acb959b5789637567c796b76896
col23:   655877856387667799c65aaaaa6879897897799aa9a86a7c73587aaa8789fb76948637865598b756
col24:   35755a98857b976786aa5a77cd7696a27775969a697a95675795986c9a46785b9b95669966569485
col25:   985768a77c77385569589578255bae8ca88a98ab5a7d9699c874b9895b6cb8aca969a678c4b7b964
col26:   656679778ba94968ab6a569a89599aa699a99a869abb96949c5babeab6a88ab5b99ab8b8889aa898
col27:   799897c89c879a76999796d79564abc89ab9bbaa9b9d9a9abab77a9a99adbaa8b77bcda599ca98b7
col28:   ab47c853a9a97bcb9a8b88db88558a9c87eb89b977bcab97b9bb99c7dc47997ba8799a98d7a9c8a9
col29:   8867959889a4799a86688ba85968bccb9dab9daab88baa7b9ba99b9999db9d7ba88b6b8658b669a4
col30:   7879a74aa947786858ab9ab887cb5c6669cbbba779ad89ab99aabe7a978a9aac8ab9878b7868a984
col31:   b958a69b946cd6b8799b7956b989da9c9a8da9bba87a99799bba7cda8bcba8a87888a8aa7a79dda9
col32:   67a9a4a99a7af75a6899b96c6777b87a7cb9699db98bcc59a7e89ccdda6a96a97bd78c976658a9a8
col33:   8ba9ba468a9bb78698e76998e6aaaabaaa89abf59ecad7bdb77cbc68b9bdb897bca9a8aab9a76ba7
col34:   687d97c6997b77b8a788d7689c8b9859869aa8a9ab87ac5e96baabc9858789a8a6d699b9d998ba99
col35:   8b886687acaae89aa9ca9d8cabea896b89a9aac9c7b9d698799bdaa888b78bc9a7698475db8aa9ba
col36:   7a76b4986c89986b5ad9daa8c7da9998a8a9599e7c98e9ae88cb9ab7cbb9b66bac7c39a999ba8998
col37:   7678c5aaa879b89a8a96a7cb8bcb8aaaaaacd997ccabcabecacbb99dba8ab89cb87b96bab999a89b
col38:   b9977978aa48ac6bc78bbd9cc4dabaabfd99cb4acadb9b8ac99acbc9a889ab99a95f977ab8a7b7da
col39:   8b8c6a6bb5bcc9bb978a7c979abba89ccdb9adaa8a6a78d7a4adadbaeabdda9abc8ab78eb9acfb6a
col40:   89569ba66779dca7888a88a76bdab9b97d68b8baaaacbab7598995aabcbc9aa68bbb8b79598aab74
col41:   a5bbdacbac88a8b9c9bb8aab7aaebaaceca8787b8a97ddba98cac9b9beb9caaa87b69bb6a86c8bd5
col42:   779aa8a9ea78a7daa556a8d9aa98baebbb968aab6bddabc9a9b89a99ca9a8ca86babb877c9b8b4bb
col43:   7667bc77a7aabacbacb8a9dbd99aa965babc99cb9db7f9b9bbbbe9bc96b999bab97999a89979aa76
col44:   978b89a9577cb869aa88aad585bf8bbbb98c9a997cbaa6bba98cba99aac9ab9ae699a7c99ccabbab
col45:   657b89aab9b7a8c7dc875b99daccc999a99aca8daeacad9aaa5bbe9cba9baaacbafb6aba86c79bb6
col46:   ab969ca8d8aac9c8a9ac8da87b8a9adda9bccbd9ca8acbd896b6abfaa9aaacd9a89c79a9a7b8ac9a
col47:   7977daacbaca8c39b6b8bb8bb9bcacccae9cb7bbb98b8a9e9bb9d8bb69ab8be78d9a9cb898b8bc96
col48:   9567a89c96acbd9ca77abab99a6c9bcba998db79dababf7b76de65a989659686ca99a9888a789c69
col49:   c9a79a49ac8a87bc9aa678bb7cb7b7bb79bccab7b9cd9bb78bab8aace9cd9cb988d7aac8f4b8ab8a
col50:   a9979a8978ac7bca96987aaacebaac8c6dbcab889ccb9a9978dbbb66d688beaa8998be76d98dd86a
col51:   644285a6565859996799697b7696d899d9a587aae88896aa7597b98a9bb57ab73656a9b568e79b7a
ROC:	 BPix_BpI_SEC3_LYR4_LDR11F_MOD4_ROC12
col00:   4526739a98b964497a247646828ca96a76927c628277cb486a87aa5cb9a9795a959877868749a496
col01:   568475ca3885718977cc8a5b86a3899d9666ce67bb999aba6be6cb7879b5a9d85a9a7b66a588a6a9
col02:   847b97aa8ca748485774aaa739896a98495b95b6bcca6ab8989acc7d9f6b9b68759978c79d7a9954
col03:   66696a7687988c5ba79b9e5a6cc9b6ba79a9bba9997b6b7d9c8bb7a8d79a9ac8a8b7896797d8979a
col04:   34288898798ab9827b875aa7b78a6abc9cecba75b8c8898b8a9679d8a9ea7a8cb6975b9a9a8a7b39
col05:   4496865776734bb5a497aa76a99a75959a6d89e9c9bb89d7cab6a9dd95e7a68bb9b8ca778b978887
col06:   3558dbc46bb7a543887a589dda9cab89b6dabaadbabbda58bdccaa7bc6c99bc9d85adb9795b77986
col07:   3729c4856a69a3c8878d8d95385989ab94d5d8bd899abcb8a9a7e6889687cbc897a68a8b5aa4366b
col08:   8a2848727676b799b677a6a7398b4aeb9896b986c6aababc46aca5afb966e9cc55aa69e8c9b66a4a
col09:   6627b3ababa56b9af8da4999c9ba77cbb9c8b8ac8bada8bade8b6bba6b9c8797ab95898bba8eba9a
col10:   7a773a598b975698693a7b99b76b8fa999cb9acab68bdc2a96b4ac7b88cb4989da76a658b38b6ac9
col11:   7775556845887679c69584b8887b7cb7a65d87999968b939769794b36978c5a54b7c86b698986676
col12:   57aaa874388899739ac8b95a9c86ba89a7ba8bc74a6aeb93a8cc7c6a99d8aa3b6968cc58a99bb88a
col13:   b34af89a685d8749697797aaac9b7a68ca7ea9989bb87886a99499a9c77b6ccaa867ba6a9a769888
col14:   2758a39577b348bdb4759aa7889b7978abf798a79b69bd7bdabc8789b7bd9d876b76799759977859
col15:   7596887d69a39575887c6d9ac998cb8c94b8b6aad78a99b8daa69bbb6c96cadc58afb986a8a7b98b
col16:   67496825aa93a866b79588a7a9aa997c3e99999cabddb97799ad9975d87eaa8ce479b8ba8a555866
col17:   553855d7679856a8a96999a468aa66b436e9cc7793896b669847cc875a8abc3da7b697576c589a73
col18:   656887566888cb884669aa78869998bd856897caa19a9788d58c8767676aa7c8679596a96877c5d9
col19:   6874697737649b9c847b74a7ca869887b7c9ad888aa9a7c9858c78c97c999aa856cd9abc269b6664
col20:   56559956a4aa4791738497d6c9696b598677dfa8c39bbb8a4b73c5988bc7b7ba58c64a3a5978ee9b
col21:   781a67b7a69784456a869798cc77cc88a9c67da9d978cc8e8a9a9ba5a9cbc8aabb5b2a5678666441
col22:   48439987ca57576758778bc6886a88ac84a9987e8aa89a55caf56a2c9b9b89e56798746789b9978a
col23:   5335578655777b727d8599c7b86a79a9a7b8aa9a9ba799697ab789b774c97b7986988b86b65a3668
col24:   533b569a9a99995a6939a84929d77b888a659ba7b95a79a9a78798ca7bb7ca88885799b978599786
col25:   32468798b77766aa8c688b9687ba6b6ae9c8d8769b898bba8bada9b7d6a5b9789696797988669bb7
col26:   943887985a6689a996cb8b85aa76c89ecdcbea7abaa6a976bc99acdaac8ccf42a9c8c8aad89bd855
col27:   65656a6a4b9686aa949b9a855c8a9ddbcc8ad8ebf8f8dfae96daac7a78db97999a6778b698b6b86a
col28:   7797958b81c7a9798cbba78a49c8eaa9c5afacbba8c9ccaacd65aaba7babcdb8ba7bdbc5dcb89b96
col29:   a62797aa48a8ab5acc8788e896689dbf8d9f9deaabcceddabbbc9add7bbe96be6ab587acdac9ac98
col30:   2aba89d88bcc6c977a8d78aa58b9969e9bbdcbb8d889dadabbafcc5deba9ba96dc7ac9a7669aaaa4
col31:   6b8786cb98b9a8785a8dd9b9bbbebbeb9dadbffaaebcba98c79ccca837cacd8c7fb9add8aacc9b6b
col32:   6b95bc8c87aacdb95b6e9c99ecc795bb8bacd7bbaabc8dec899d9c7e9bfaa8c8aa94caadaad9a8bc
col33:   45559ae8ada7a77bb9dc4c8868bfa9b7dde9bb6abccecbeecaad89cdab8afbc9abcdcfc9b9fab7d8
col34:   b79b99b6798c7a98a9bdad7aacd6689abe9f798e6caca99b67ccccbeaf9aaeca96eaccaca79da7b8
col35:   7987c5a9ba8d97d899ad9beaadbab8eacaecbabfd997f8df9adcbaaacdcafacacaac99ccc9b9fcf7
col36:   9984bb887b7ba49c9a9b6a9bdcc9eeb899ebbeb9de7aac8c6cecbbcdb99a85cfb8ad998fabdbaaa9
col37:   dc8778cb98659c9899b8c9ef9aa699c5db88ccbc8eecf9eb9b9febecdcddb9bacaae996afdfcca7d
col38:   b7699abb768a8ab6bceabcdedaa9b8d996cafbfdccbf9c9cdfddfedfbeeedcebb9d7cddff9dbcaaf
col39:   7a98799c6b78fabc8dca97b99d6d9a5acd8acefdfcebdbd8bd9dbd97bccdbb9bc8ad8cabbba9bbc9
col40:   b69a9bb4ac6dbfab76da8cf8aeaa7c7e69bffdcabfa9c7a6bcbd897c8aa989cbd7bb6a9fd895ba98
col41:   a879945ceab87ccb7dfabead9adc9aaabcdaaa6bdaa8acbc9a8dbeb98cbacdc8cb79eaacc9fca96c
col42:   ba9aa8dab8ace987976bcdbaadc89ead9ba9dcfea7edbbdbca9edd7cb6a9f9dac99a98edcb9da9d6
col43:   b8a4baa77aa7bfcbccbcbe98b89b8accbfdafe9bbdc9c7ca98bf88dac9c8caad9eb8aca88bbaeaa7
col44:   a58ac7abdccb9edbcc988ad8aea6ca79aebe6c8fedd9fed9acfa8ddb7dddfaabe8bbdde96eb88dca
col45:   769b99c6c9bcbbc8b7ad8dcedbeabca9d7cacdbeafad9bfeafbb58ddecaccd9b9ac99db9cb9ebaa9
col46:   a98bcec6ec989baaca7ab5caacbcb678caaab9c8deedb7ba5a8eab6dfa69eba979de9bcbcf9a9994
col47:   698ac88bca9bc999aaaddd9bd7ae9aada76aacd9bf9c6daf8afae99debbbcaa97ce8a9898bc9dd8c
col48:   6b8ab6db9dbd7a9cc8fc9dbbc8d7cadaccccbdac9cbdabbeaa8bbbd9aca8bbadaf8cd8a898ce9de9
col49:   c5bae8bbc7a6acefbfab94affd9cebb97ccb9ca7bbe9bd9caf89dca5bbaca9ac9cfb9696ab97c89b
col50:   babbbdb99bab689beddbe9f8fbfccadeba79eabafbbbd5a7eeaababbdba6aba89e8cca8bf9dda7b5
col51:   684ad9678bb67699ca677b9c9b8a9c66d44bfba6ada8aac98a8c5a9a79b898997aa6998a857aa885
ROC:	 BPix_BpI_SEC3_LYR4_LDR11F_MOD4_ROC13
col00:   43896266a942657945829a92c469cb48c7a98b7bcb59b67bceacab96657999387234b97879975375
col01:   6919cbeb6e7865b69adf667ab876c86cbe89eaa98eac8bad6ca597fec87a596f9e9d78a578a6ed89
col02:   5529b831785a6568169aa59bcb8ac69caeb6abbed83ce896553bb737549ca5939719b8677957db27
col03:   8948397b5abb98db8b8f68b87dcd9ca89dbbabdb98d6ae8aaa788ba79598b9f8bba3bc68daa7a8a6
col04:   415a76536bd67cc85abc9798bacadb88888ad5aa9da7a6bb5d8adb96bc6cfa295ac79bcc7cacc988
col05:   5484699887c795879697ac97bd98e99cf98bc9b73c7dbd5956b599d8bb8baaf9b4b8bb6ce689b56a
col06:   8611aac75bbac7ba99b479a788f8f8dd9cbc4cd6cd897cb67a3b6eaba89bdba75b898cbd7accac95
col07:   8469598937c8eba5b4d91897b696cc64b8697a8ba8ba8448beb7baaa89aa898d798cc988a579c984
col08:   78496561778c94697c94bd5999c4449a75ec99996aa98b9997ae7a68f8b7ad6798a3d772ba5ba7a5
col09:   6a5c674d8a2bab9aadd68d57f8acacbabbc7b6b49cdf69887d7cac49ba92b84cacb96476a9757cda
col10:   a4349aa965a9c96896a668b7d779adbbe699a9bbb76c5988897a67bc9c99bb97ae658aa7588cdbc8
col11:   7865697476a4648637867b6ae96aa75d948c5a97d6b8a95a7b56c9a4c9a98a366a7a65f386acb79a
col12:   4987b49996788b895a68865b9b6d69abb879897ac9b65caa7ab577c59a41c9abd45a9c8a79c63b92
col13:   777671d6535894c99caa839babbda996c8698bd5587c97d98b56969a8c79979c98a9c96b796997ba
col14:   74768d4265247552859c8b86c8aa69a79d877796b87896d6db1b58aa7c649a87c68659d7c77b8ca6
col15:   5e1838845564369775be9ca54a3c5aa7b98a38b4c719869ab9bacba471cdbd9aab97a9dca5945b76
col16:   56456797d61b38e945b46939b467999a97a967b695b69598cc3a7868ba79abecc6ab676a9aa76b69
col17:   744589337474a5b6191a9989cc48879ba98a578577b947a2a561858a9477889ae5a6d69a89536875
col18:   63657287b556b975848865b697a5cac39686a8cc42c6a97a5748a96c799aac3bb78c69a89699a455
col19:   683877a86758859637a78a2798adba8c8a987a979ddbba6ab57b69a1d9a588c8dba68c8638a446b9
col20:   5852a115b58697c8aa3578a92385877697a55aaa89b4579784852959a857d596548a6b97195c89c4
col21:   3784164b88a66d7794679bd9d7c8c858ab3d78b3a99898cc86849c8597f49aa7989b86659a899667
col22:   34a672456587589946a9ba7b968779abe736a869636447867bab5c857979a8baa5937a96a58479e9
col23:   1557a579a8798a5687775fab8679748938c796953b9ca9aaa4bab57917b785b87bb8667a7e86a7a4
col24:   535425688624a36a78899b25766a591799c6754b65aa47978935b6a2784a67849668837b75582925
col25:   a7b6a5547155ba746365d58ab98997d883c7a78176888858b6b329d6c38a8797b9a6c99999f578b5
col26:   8866644c9798876663496c55797c9ac9cdb6a6897cba8b85a89988bcce8e5babc79c7889b587dcc6
col27:   a72648aa849bb8d9b697979aabb96d4ceaba68dc874bbbbcb873bd787adb97c979867da997d5bb97
col28:   87933b6778a98562ba655eba867ac98bb7c976baa7aa7856be8899bc66b6bab988cd96dbbc9aab7b
col29:   68882777649a77c798c5aa79c7b9c68dacb9b98cbe8ce7ac9cb6a798bdf69cb88c96d58594a9a587
col30:   67119ba3857185b88a8dbba56967787da6b96dcd9b89aa6a695879587a7cd95b9cb7946b98b9dac7
col31:   7ca989a6797e7eb594cb8d9accd8b95db8aad6cbb59acdabc65ea778c9c867b997aa5b5cc788ac7b
col32:   d4875c73aa69bcadb6b58ca9995ae8847a99d9767a9b89c8a4d9adab93b9aa97e6577a7bbb868e95
col33:   887977baa77a68836ac6c7c4acc9b9a97e7ba7edfab9cb6edb7789b98ae969b5bdaa968a8caa8984
col34:   3c4c78f6475686a89a9b9bc86cba77f6789939a7b7cdc868b6a87d685baaa7ca865ab39785dbf378
col35:   6942c5a9a9ac6a5a9b7c9a7b8aaaec7f9c7c998f9b7a9778a7859daab688aa9c7aa566a7baba9bbf
col36:   57964775b954b976d8a89bbac37a6a78c756689ab7bb76bb5b9a65a76aba9d99889f85bbb66bc8cc
col37:   398c76c597c788475eb8f875deb7bfcfadeb8bcbaac7cda78e7aa9678ab6efba997c888ab9bbacd9
col38:   8986a8578c47a8b8bc98cbcfc899748aabc8dbbbbb89ba97b89a8b93759c68ed6cfb8a78dcdb8ad9
col39:   6828ab5598c76b7c9685cc9c46c8a9daac376acd7ac6a5db29cb9ab7b68889abdadb8aaacab999cd
col40:   a76a88598934669a7598aa7cd699689aeaba8ab5abdca8cabfb58b978b9b796b8c9aa9aa8fcf6ce7
col41:   76842468ab889998a88b9e58ab9ba7a8ab879cbaa79887b9fcfaab988d86ab967bafc9b9b68ddb95
col42:   38679b86788577c8aa8ac989aa9cac59db7b7d2eb9c6fdb5a7adcaaabac79dd8acace4a94a8b7898
col43:   768665847e66b8daaa69eb9c7b4bb99a79dca988879bb86accb77c9aad9885bbd9c968cdbd86aab2
col44:   8748938276ecb9ad78687597ab9fba7c4ba73a6acdaf8cbe8d9e3b79868ce9ebbaa99c91888bd9b8
col45:   c6678aa66878baa666a977788ba95878a7bc9966778cb9697a7b8a879df3b7dab8cac9aad9a89aba
col46:   c36c7a9d889288885997996a998975c89a9928ddbba8de76adc9a76236ca8885a1ca66676a9e559a
col47:   b754838875389499cdb8849f76d89b9c599a8b48cf7db8a9f6c8a69788a88a5379aa88ac77b5ba98
col48:   93b765834ecd895658aa7a8b9bc89a48f99fccba7aa6a785bb8f78b758c437a5a5576779876cbaa8
col49:   7a6669b9549b9ae945c8b8ac7ea977d7ba9495d79cbabb78ccb719a499ae7a98a999b5dcb579cc68
col50:   583b149566762b7995679962cb89cba7a96a9ab975b8b7b374a99ba689b768ab5da58c9699f7a9a5
col51:   2671388778a6657119492aa57e768848b69ba578a7c9c3b8a9cb5683595ba95566498a71756cb985
ROC:	 BPix_BpI_SEC3_LYR4_LDR11F_MOD4_ROC14
col00:   8375686693a98864986697966b766c86858a966a57b6b867aa897867b5578a88bac9aa879e796a96
col01:   798acca7797cd66857a797769a796bd9a5db7a6587a86d7778c9c79b6db94876bb8c6ca67db4c9c7
col02:   664485a4498a67879988c8a68aad7718cba8a9ab586cc89bb96ae7857cb78cbaa9669da57ad97a5a
col03:   45743bac95a69987ba8c7d98bbbaddccb77b9aabba88b8dbc87bbdcdae788adca89a99dbbcab7979
col04:   3465588878983a97ada7ae967be576ba545666cba4ca7ad979d978bb69baa8cd7b9ada992f9aabdc
col05:   b376b9aa8978b86c99d7dbcbb8d8b9ddd7798bc89b99a6debaca99ed7c49da85cce749b9ddaab7b6
col06:   a572785a59a94ae976a59aa7a98677667af8b79a87dabb5779dbc6abbb76c8cabcfbc5cac7998bdb
col07:   a1886796897ad8b78774b89e8796a9c699bac9abb89ea89a8b78b99dbcd98aabdc77a7c987ac9bba
col08:   74887685b668b96977a97b4ddbc787a9689c986fb36686b46abc9797d7fabab7c27b6aa9a999766a
col09:   878777878758838ecacba8c8bca7a7aea98aa6a6caa99aacccbbc7c99ecacaa88ba97a979ba5cca8
col10:   8224997886b987858847989869b78bac9a6e58ca7ac87a5b66bac9877969b66aaaa5b9aa5a97d8bc
col11:   563368735ca77864664b67967baacb998b87cd8989dab7884bad8b8b68baaab68bd79ab588877daa
col12:   7484464897a7776995bab899738a6acbb7b9a589966859a98a5893997bab88accaeba768cba8c7cb
col13:   568f797a689817ca9b9a4888b6798debb8a8cbaa9ae78b9b797947ba99d6b9aa57cadbce9a6ad5ac
col14:   325655677867678ba86c997898a8bba82868dc6ab89b9765ccaa978c7885ba867a9a6798b66899b5
col15:   c8595b9754659897878c9b999baccac9a949c9b99957ab9959a8cbaa8c79a8a89d99accbc685d589
col16:   a7678483aa947588c38a9cb7997b68ba8b95ccba57cd6a8a9cb8d7aaba7655875b588bc87b78acf6
col17:   67587777776b9ab8a95a988879cab9a978bb87a8789976556a7d7884b9c6898d558e7a978aa5c7bb
col18:   a64997737868b5688774da7c99796a7687b89898aa68748bc97a78b88a44f8c92aa47a5c45895765
col19:   66656368683b7ba9a9569c78a7bacb6bc7a97caa8b8b88b9f8bbdaeb37ec97888a8bb77ac9fca846
col20:   574997488569181384577878665dd8c6659bb954589a917687587d589b879ba7a9789a67b57aaab1
col21:   757778887b69ba687aa9867aaa9d997976999a8c99b5378bb9986b66866bcb97799aba96b7869b54
col22:   46a46687a66519787664a99ada997869bc897ca897bcab996d936644998759aaca56baf7878d88ba
col23:   4933a3b947889a588b884895d916b8c896aa96bb9abb599ab5777bb97b857389bea697c9cbaa9a87
col24:   58a59a9757865b3869569b666d98bd48989aaa8ba78aaa9977996a76968b8a556baa96bb93e9577a
col25:   62576386876939689b99bd899aa987b888bbaa688b9bdd99ddb58aaa58bae4a78b7a8ac85a9879ba
col26:   8638b5499686b667bd86a8a9add89b6cb9a9a489ab9f99a7ab987dac9a8dbaa97ab88a9996899998
col27:   578789b9879697c899ccc9daba9c79bdaba9dcdaa99a995ac8a6ccdb97bdb99bdba7ccb9cdbbab8a
col28:   aa698895a9c77a9aa87bbcb6599aad7cbadaaa799bad97b9d89c9a7b7aa769c9ca89a76ba8c8a5c5
col29:   9b569adcb99477ada8bc8cc9b9cacaadbcdbb9bba998adb76f99998ac9d8bbaccb987877b9bb9d92
col30:   baa6a7ab8897a6778a9bbab98a6aab8ab96ae77c98cdc77abf5baac79abcaa8aaacba5b79b899799
col31:   b5969c53cbada9cac6ac9ba99edbaacfeaa6c8ace9b99aa9a8ca99aa95dc59e99c9b3aceaaee84d8
col32:   b81c65dc6874a898aed89bb6a9d96797c79a8cbaaabb9bab8dd79eaa969b8baac998b6ca99bb7dc9
col33:   c8b89ad994b97bb4a6eac67f89e8c6abdcb88abbfed7c9a8bfb6c687fdaacb9a9cb668a946989d8a
col34:   9bb8969b9a6a9bbb85b87976d7cbdbb8bbbba5cda96cb8d87cd6c86bedbcf7ddaa667b98a6bada9c
col35:   ba98c8decc7c7de98bcaaac9bfbcdcfacdeabead9ccce9ecead9ccd4aa8ad9adac7a9d88879a7986
col36:   47888ba7d9a8d98da8bb68b9a7a8ac89cb6cca8cca998a89a68c87c99ca997bbec9a78caa884bdaa
col37:   8c6b969cbab9bb9aab89d8b9dd8dd9eaa9cddb87b8dcaa99b5b8c77a9ab8bd9b9b79aaabadd7f976
col38:   899a6a888ccbabcd8cbaa7e8aaebc7adbacdbeba9789b87dc9abba6f898bc99ad89da4a78ab8a967
col39:   97898ba8abdeacb88bebbb79dacbbaba9dc9db7a9dbcfb99fbb98a9db8da8cac8a7af9aaaa98c9bb
col40:   e8ac9cd88b698996679cd896bbdd7a8c8d9dec9e9bc95b9d98cadb9abfdc899ef9889cbadf7d58aa
col41:   cbaba79af8ac77ccab9ac9aa69a4badccceffaecbcabbb9e59becccdcad6aac9788b68c6ba98b7ca
col42:   a699b996bb68abbcc95bbaabc8ea76c9cabdf5cad9eabac9cdaabcd97e99aba88989a97b8a5f6c99
col43:   9baab99d8acca89cad8c6abcbd47b8d9add9dc9addc8bbbbc8dbd677bbaac89699a99acbc98bb8cb
col44:   cba9ecbc9aadcbeac9e9c8bc8997a979caab7d7cfbac5bbbfc88aabab88cdd9887a99b8997b9ba99
col45:   cc88cb9db57aaccea799fc9ac9ca6afaf7bcdbacad8adbc98aacda9bbcaca7a689d8d86ab8bda9c8
col46:   baad997b9e86a9b846aa9699bb8ccabbb9abcc9edac8b788b896988797daa6e77886ab99498a88c7
col47:   a9ac4bcafdca9eb6c8aa9abb989bb779c8c8caa7be9ba68aeea5cbc87d999897b8aaadc8bb8ea898
col48:   cc79aadb97b999649a9d9997c9dd6bbc8cd9b9b9ab98c8a967da88968bab8b7a8a85a6b8b9d8b83b
col49:   68a886c79b9aa9cdcb8a8b9c9dacbaadbedbbac7a7a6a569dcb8c9ca9bdabab8abd4abda999b5bd7
col50:   7aaccabbba8b898bbaaa97bab98b9d9fd7c9babd9b999c69a796ab77968acc8b957b885c6a79aa98
col51:   b8a9a9d69b8bb9986aa886cbed489d998c6785e7b8d66c48cdaa8bc759c6a998c9a78a7a94c8b5a7
ROC:	 BPix_BpI_SEC3_LYR4_LDR11F_MOD4_ROC15
col00:   44853265bc494865a9457792499594974797a66a468685876976a78598557d766b59766c85687577
col01:   7486b7db9ab3867b995b7889caaadabac9769aabbaaaaadcb885b9ab779998a8dba7897987a8877a
col02:   79b8b98a998888b87786fa7a69749a79ac93889a59b8b77ba7a46aa729a8aaa6649c9777c98786ad
col03:   a4899974a7ac88baa669bbb8abb637bcac797aadc69ba9bba7a59dd55b59958b9a7aa87c93658799
col04:   a9a887868589578b99c697aa3c7bd896997ca9a6b66a989bb7a99d94a79685a883a779987c777897
col05:   64746a895a69d8996ac9a78bbc87cb9989b5bb9c99787a9d9c998997cabc989a86da85ed7b97cbb7
col06:   6889ab6978a3988aa959c898ba978aabb99a99b585798d66cc995b85aa497ba86b96778968877bd3
col07:   7888689814da8b88a979b88ab87caa659ab8b8d7abcc976c9a8b9a797bdbca7aaab64988ca976698
col08:   724b8a76bd758a789bb7ae6f86db76a98ac6987a896a5a8a8ca7ad9a4b99b8956b9999677886678a
col09:   b79967aa7a7ba9aaa89598a9c9baba8cd9a889b7dbaba868df9c977898cc789888cb7d9a8b9c768a
col10:   9187847884ca786999998bb7548989a9a987b79cc988abc9aabaab699a278897a998869768a7ba7b
col11:   b768967984a799999e8aa68aa86a99cc8879bba76b58956ea9b89bb9adcb886b9798d86ab685c588
col12:   8898837aa5a6c9a78a85cac8c77898eba9e678ea9c78a89bbb8da28da98a89d59c88796699868278
col13:   57aaa8685997b7b6b8cca7ab87c969cd8bbd8ba9a9aac8a87c68888a79aa8babababa88964a9d7dc
col14:   a79b6c8aa7716477c779a897886ab57b8bc8698cb97aabaa698487798ac867896795a9ca7679ba83
col15:   66a57a5b82c5778a49a5bab8ae98c47da88a6a99a98be98ccbaab9859cb96bd7bda497cba4a8e98a
col16:   7b67967b5a886646ba696e8a9b9babfb4a99c6cb5bcbafa9789aa3b587345b6865b88c7a8d7b9884
col17:   399cb5887798859667a7a79977a39799a79a64798ab9aac6997bbbaaabaa79896b895abab969c754
col18:   a67964a6a75799a98ca6bd76a7785b8c6a8c4b99bacba7b779d89bac7b8a97aa9989b69b666999b9
col19:   79579a6898baa78a57897b7aaa9a5988caba98ab99856dc7bc9af8cc68e9d98a99cdaa68a777678b
col20:   4588abb55a9979969a7ab9cbca86ac97a7d9daaa88ad89ac9865bd7caa8a9aa7899cacf85888a559
col21:   6698a7597589983799a99ba5988baababd6bcab8abdd8caababff6a9a9adaeaa6b8acbbbab7a8865
col22:   76b686787898c6c68879b8a88a86a89a8688cbad8ab9a8ca88e69a75789adabb77746ab7cbac9c69
col23:   6583997ab67b6b86aaa7687aa869898b8a97889b9dabab9bd799a98abcaa7c9bacc8ab75c99a8976
col24:   8a85a5a58b958b7a798c8aa99884e78975589a97bcfa8beafa9b9a87c6a9c8849acab98898c68d99
col25:   895ad7995aaa9cb759baa69bdbc9cbbdcabb8dbbc979a89a8cbab9bec69b6e7b69db7b8dd6c8b649
col26:   799c78a5d9d8b69ab699d79af9dbabcb9abcd4b9aabbad9db76bc8dbcbb9a28ba9b79976bcaa69db
col27:   a6568c9bda9666998bbbabceaccaacde7cbb98d68abd9dbcb9b9cedcbbd6dddba9c8aafbcca7b8bb
col28:   a99687c6a9b7ac8fabd9fe899ccabddaadacdaa8b9bda9eddabb9aba9b9adc7ad99bc78c9caaa9d7
col29:   a83cb9da9da88a868bb6dfc76b7e97a9bce99ed87cbcc79a7bcaa8bcbeaaa6b6ccbc9987b8a77cc7
col30:   97c88b885bd9bc6cb99aa9abaec8b98cccae9daba97baaada66cadccda9c9bd9bbaad69b9f5c9b9e
col31:   cb7c77aa6b96bacde9bcbcbdae7cc9cf98dfadedabac8fb7efbbfacbfaabeccfcdfcbbbcbbaacdbc
col32:   49db6b99d4edc88bba97ac7b9afdeb8fa9dabfbeccaa9cfb8eabaa8daaabcbd7dccaacb8ebfb87d7
col33:   c97bb7dadb8abbca99aa8bdfa999dbeac9bd9a9ea7baffa9cbcbaededbdaeacb7eccbdaecbcfbcaa
col34:   9a39d9d979cfbcb89a9cb97bbaadda9dbedcea9dbbd9ee9c8ab9bccdad9ecfa98abbcad8b9aeaca8
col35:   86dd9a8da7aef9987aacbfaadcee7cddec8cbccbad9bfd8bd9de9bcaba9cab8abbdeef7b9dfcb7c9
col36:   c867b89b7b8b78ca5adce69cacbf87aabdd8abedcec8bc89bccc9cc7abec9e9e48cdbb8aaa7b9aca
col37:   b7ead9a5b97dbbfaddad888bdecabfec8fcbdabbcbdebbcbacbec7cecc87dd7fcdeeccadac6bd9aa
col38:   a989a7ca7bb7baa8faab9ab85acc8cafbb8a9aacbeabeaeedda9d8fcebacdcebedfdddbacb9bdbd6
col39:   fab987ebeca797d8bbe8cbea9d9bdeaedf99bcaeb9add9b7fbdaebcbdcabaecbcc99cb9cdceb6df8
col40:   865bd699d8bbca8acc9deaacdcebadcaa999cb8cd9ca9fabbecb99bcdbb9adcda9daea9cac98b797
col41:   7997c7abaacdafa9babb89efaabddc9badecfbcfd6b8ac8db7bdaf9dcaccbbb7edefcbdcfbeddbba
col42:   5a9bcabbc5abe56b749cad989de7bbc9ca9ccccbeabace9cd9abcabeb699e9bdb78ddb6cbcceeae8
col43:   8bb9b9aecba8cdcebecdfd7bdc9edcbbddd9daddd9ce7997cedbb8ccc8ebbadbc9abcdaefdb9eba9
col44:   9ba98899a9d59bab699caa9bb9fca5ebfba8a6aea9abadcffba9aadaa7eb96dcb89ecbca9e7beab6
col45:   c87b785a7dbb989abbbb9eb9be9cbb99bdfbba8dda8ddac9ebcbefa8dd8cfccdebbbfb9cacedcace
col46:   99696a6cec9aa9c999b7c68a9cf8ca97baeaaac7bbdab9ce898acbbbc8ddec99bb8cebbddabc9cbb
col47:   8a9979afcb787896adddaccadf9abf8ac8b9fafbaee9e9a9e78abcbdcdfdb9fcaccbb9adea7e89c8
col48:   babab946acc8a9caba99d5acde8bad84b8febe98baebaaaa86dbaccedabbee8bffd989dbdaaa9dfa
col49:   9bca9b889a997ea6aaa998999b9ceace9a8debdeccbef9adccbaabdf9db9dbeba8daeb8cd8dedadb
col50:   799999accda6b6a78d9b98c6acbcacab9d7bc87df9aaaceb9cbd9ca8bbebb9dbdae9daebbababba5
col51:   787887a898a46a48a84a7bac99a5aab7b8a89dabdb7b9ab9b6857ab9a697c7ad7c99af9a676da9c8
