ROC:	 BPix_BmO_SEC7_LYR3_LDR18F_MOD4_ROC0
col00:   6768594759c5ab585a89587b968a538878867c7a5a7ea81897b66b6982a89a578593664559a59489
col01:   998b9da549978679959887777cb8a7bb9d97aa77accacc7ca98976b8b9c997dd699589885b7799a6
col02:   779bc4798988a785989bd79c897865b8a79ada5a5b677b96b7da8687c9acac68aaa5999a899846a4
col03:   9956579f76ec3a9c87a56abbd9ab89dd6a79bd8cf99b787d7aa98ac77eaa6c78b762a759d8568869
col04:   854c6b947797b7ab65b9bba767bddaa7988ccbcacb9ca4cdaa8bba8aa5bdaa8bdb76ab889b657a97
col05:   b98cb97959b5a669ada9a88cb98c9976ab5ba9b97b6995c6d98ab6698996767a557978a8887b6b7a
col06:   4778b8b79b978777bf7da5e9d7d89a94aa8bc5b6789467edad898babdc87eddb999185b75cb58877
col07:   86b987999b767b58a96bb87aba9b8dac7c9b9a76ad9aabe97ac7ea9b8c8b9c7796cc9686796957aa
col08:   5b64666b4967c9b88498b7399cc68a9a987b88a8c789a8c5ad96c969989956aaa986aa476568b755
col09:   9889a87a989ca8959b7a7baa89aa97a8bcb95ccd6abcbcce9abca99cd77875a47ac9aab87879aa47
col10:   a589ab859777878a9ab769acada865998c9aa995b9adda8e66a9bc4be8b97a988876b8799d679886
col11:   96786599759babb9caba998d8bab97bb6ca8ccb799b9b974abd99ac77c65677c6a758b5682798857
col12:   775798a99b965a9889c96888a989ab8a7a7e9aa8c79dabaea7b98ba7cc8ba877a78ad92898856965
col13:   978b87886766a8c7b99cba6c9957f8c76bac6a97aa8b9baa79ab9c8bc7b45bdaa6ab9278a9847986
col14:   6868ac7579a767a9a89b9875b9b8a9a9abc96c7899b9998c79b78a698646979a985a6a7ba69744a8
col15:   4677b9999a6687784b8899ab86cd9cd9a87cb8e9a97d8a99ca3c6ab8bb9997accc7a898863549966
col16:   776b898a95a7899a85aadca88baa9bdcc897ecbd87a88aca96b95a97989b98a4a899766694884793
col17:   7c559bca7856b699997bda798aaca9a7b7d88b8b8a8a79a788aaa886cc79789b784cb97777568746
col18:   66966698a86787d976c8b6768a9a67f9abbb8d4b464b84b78a9b8a998a578b664966ba5697ba97a7
col19:   674a9a7bbc88d66868bba59bb9b98ab9d8988aa9db9cdd9a69a667e9c9b79ab6d95916b797876676
col20:   5a27976968b87867babb4959bcbca65a96969a7899babc89dbbb847cca566a77d668ab7799977978
col21:   9769997b75b88ac8a7ab7cb8ea69a887cbbb6abba8bc98ba9cbbd6a99ab999a7a8bacbb967545b76
col22:   96565459ab5a777a8a8966a99d47db9aca82a9d986b647a97ab3968ab995a87b9c1db886ab964567
col23:   a69868993ed72a988775cb9a9ccb889aa88a6aab99cacc8cfbdbc9679d79598769577ab999a77486
col24:   2488c46689665789669776b8e79af3aaa89aabc8a7a499aeab9cbdc998785b968787aba74aa47866
col25:   87858585696677ab88a69b9abb7a9afaa77f4aab8b6abdeca997da89c9ab979cac88b9a8ab899643
col26:   967b889878a77a9a9ac8bb9989d87bcbafdcae6e6a9abbbbed98a9bedf7aea8aa779ba8489a9bc76
col27:   a8b84d8b975ecababbbaaafdc87cab7edd8bdbb8acaeddefdab8abcd97ccb899d79bc8799c89876a
col28:   5b988cda879a6dbd9aacb9a6999788beeb7bedc9b7aecba8abaaebc7ba9cb9c9cd8ca8c9cb698a68
col29:   9b868c8c7db6c86babcccef89889cadbbf9aba7a97caaac9dccbba7cadb97cbc7ba87a8a49867a86
col30:   8a8c8bad8d959b57bc99b899a968b7daccbe9cdbb879bbbe9ca9db89ab7a588dfac79c987a585899
col31:   bcb5c79a7a9abfcbda9bca6cdcd9bbccaeb9ceeccabf9cc9cdaa9adaf7bbad8c7aeda9ca9acaa88b
col32:   c767a86abbbca6967cc9bcc8ccbaad7c89ddab99b9c8e7adbaadabfabf8e9bdeabdda769b9a67e76
col33:   8aadcb8d8c8a9a9e98999a86bb6eb7e9ebd9bcbfacbb9baad9e9e8b7bdb8ca6ab8cbbb9dc8877c8d
col34:   accb64a9aa89c9cc9bd6cafacc7cbd9ccf8e7cda9ace9fd9a4d9afedb9d898aab79d8cb9d9a8aab9
col35:   bab999d8cb7bbc78dbebccb9ab99dadcbac9caefcbdbddc9c9a8aa8ebfbebf88fbcb7cddc7d9de54
col36:   79858e8b9d77acbab99ccca8acbb78aa8ba8bddccccc9a8acbccdafa8ddbabfa87ccda97cbb7cae7
col37:   aaa79a9ead98fbbbb8da98eb9adeffcca8baaacdca8aabedeeb6a9cddbdbfcba88cc7baaba97cab8
col38:   9dc5cdddcc9be9acbcacad9eaa9efdcfacc9bdbd8aaabd8acdecbbbde9abcccdaacb97aac8ac9bfb
col39:   abb6eca7ea69ac5dabdda8aeee78ebfbfced8bccdcadddbbdeeaedaccedaacb9cc9bc7e9f8b97cbc
col40:   a49a67b3987badcddabfcb8aabcecbfdcbdccbabbabddaa7fa99fd9bdeecaebab6cbb989a9ab98a7
col41:   89995be48c7cdddbacc8ebbdbca7afbdcecfabe9ecaffbe9edbdc96ccbb7cdadc9ea9ebaedcbec8e
col42:   6ad87d736ca8dfa97caa6bb8d977aaa879bdbeaacdc9edfdb9a9bb6bb9ddedccde7cce9a8897d9b8
col43:   e9657aaf9caabbaeadcfcd94abefaaada88bbcaddbbbcdbdeebecdadefaeecbcccae95cc8ac9cd8d
col44:   ddec79ac8a979d6bbb6eb97be99ebdb89fdebbeadbeccfcfdee9bdbebdacacfde9998db5db98bc9f
col45:   bbc8bbcc9b9bdc8adecafaddd9aacbcbcaffcbedd9bcefddeeabfbbbbb8dadfeab6bbb9b76cbd8a7
col46:   88dad8aa98a8adbc8c9ebdebee67eaacccefb96aadbcaccbc89cfccbbcddba8e5cfb88adbba79ba8
col47:   8a9ab56abacaaabeabdeb9beade9dceedb9fddbadefdaebdd6abac9aaaad9cad876a9fda68faacb9
col48:   aba9b98b9ab99baec9a9d9bdaba9abbf7aaf9ffba8fcca9da9ccf9bbf9d9dbaebb8bbb8b78a7df98
col49:   acab9cace3a8cbbcceacb9dd9b9cc9dc9cdcadcbc8e9ac9cbea6fbbaeed98a69ccbccc9b99cbaba8
col50:   969d97ce998daccccabc8899ccac9dd9febffbc9bccbee89ddfb88cafccbff88aac8bac8b8a99999
col51:   59b7767989b67867a6b6bc9a66a8ed9d9d9b5d88799b8ccb7a8a969abe7abb7ba5d5dd9768b9997a
ROC:	 BPix_BmO_SEC7_LYR3_LDR18F_MOD4_ROC1
col00:   6a689699c7a9bb56b87cac97cab9986aa49bb58b9a69966ba7866866b9bbbaa98996774365775153
col01:   daaec89ae9899abd8bab899b7a8c88bb8edbab9ac6ac9b896dc9b6b8dab89958c5b97999a796942a
col02:   8a6779a79c7bcba8cb5bab99eebbcd88da9696a9c7b86a6c7a9b6a7bc6756a58ba79c83a66638ab2
col03:   97bbcbb8ebab7c8a9db7d999c99b9b98ab8ddd8ba9cbd9adaba864aa8b967e9b694a8acb33885868
col04:   a9ccca799a79bb87ccca97baba5bcbcbb988aaa8fbe9786db5cbabcbabc896979778995a97992355
col05:   baaa9878aa9ca7a89886bbe9ea7bb7b9dbad79c6c6b6b9ad7bdaa99ae9978a9a68667798d96ad635
col06:   acc7967a9879adb8bdaaee9c9b6bcdaabc5bd6d6a99eab98a69bbaaa948cc7a6982b66b578a724aa
col07:   dd8cda989788dd88da9aabaa5af9b99bcc968aac87aa9ddb8a96aa6baf6c9c93869a99a8c75948a5
col08:   b8778d8c65d85489a8679ac8b67dc978bbb89d869da6a7a8d998c8a8db697a967448897767768841
col09:   6ccaa69b4b8a79997bbacac8fab9c99acccbcabcdcb89cbaaac9a88aa99957ad798aaa898c79a599
col10:   7b9b8bb89a79755bab98abd7a998b8ba8dca7c88a9b89cda7aaaaa96ca8979879c683876a5786667
col11:   9aa88de868b9abba9cab867b688a9989a9bfcb9d5dabcb89a77aa7698aacd9b89465764575435597
col12:   878776ac888a9798698b99e9daa8b98b9bba99aaeabc78abaaa8b5899a9a945a3697554d78a89654
col13:   b98bbaba7a796b9ccad96adacaccb7b89bca9b9dab8abc99df799ba797c899879b67758179695669
col14:   75a9a9bcf995aac9b9ada8aab7c8dca9acaa9ad897a6a6968898a986c79aa7899a95459777774413
col15:   ee89c7a8bcb79debc7caad69cedb8bd869cbacdbba9ab9aa988689ba7865c99c77788888569ba676
col16:   b877bb7b9b6b89b99b9a89aad79bcc6fcaabbfc9fbfdb68698cb7c89abf93a5ad7888ca548669222
col17:   2ab95868baad9bac8a99bb97bb99dddbbbb968ba7acb87aa8b88cb789c9b88858966d88858395586
col18:   9796a7d7c7bca8c6899aec9a9c298b988ca97bb98d699b49956a5969867895a79665899a667a9356
col19:   97b89cb88779dbb9c89bad9aadc69e9aa6d9acdacaccabb7ab8cfa8afa9c68ea9b4c49a9bb967684
col20:   989587bde86b87ab968bd88b8a6ad6be89bae9aea78bb69a6ab5c8ba99a6a79b58686995a6b65585
col21:   ba9e9a7dc9abc99a6bea8fb89979b7be9baa8ac9a8ca98999ea8c87b8c9776ad56a5788697577575
col22:   ababa5db8769989a95d6de89698c8bbbda998d97ccb698bcab9c99bac8797597b3a7885875a98283
col23:   ba77cba8cdbdcaabe7ae97b9c9bcc8a8bbc99eb66ccbab98899b9cca88ab97bcd966a76884b68737
col24:   8bb68857aba9aa97ad68c98b9ac9ebaadb6db6a9b88599dbba87a9e955e88a8517a7c87481766766
col25:   98b688da9acbac79c89bba9a6adb9dc9b9c8b94aaba9c69aaacb7aa67a7bc96bbb76c67a28446937
col26:   ecaacab87bbcb8ebcceac9addcae8acdabecaba9dab98cab869dad9ed9768af59667aaa9c68c6783
col27:   ed6ca8aebd7adbbbdd8a9dd86debbfad9debc9cdcadaceabc9afa99ceb9cdaca99ba899c5999bb8a
col28:   9babbcacaa67aedd7de9dbbaab8c7eebdccd99aeccca8feebcdbade9dbae779db8a8987967487a87
col29:   ba98acdcac9ceb98b9a8edaa9cefba9cdd9cddcae8acb9cf9da9b998eca97a9caa99b6686bc9b678
col30:   9dd8ebb69895ecaa9988bcc9989bba7cb5cddace9ace6ceca96bb978bcbcea958b87a47a88898a85
col31:   ed9d7c8bfaaaccda95ebad7dcbc9c9da6cccdbfccadbdae9eaabbbc788cdcca9d7bb9ba56cbca668
col32:   8d9cc8e7abcbad8dacadccdfdccb7badaeaa97b99ebbcbbcecdc9ddaae99d8aaa9ba7a98cd4b8783
col33:   a6bcbcde9caddd5cddada8dbec9cbddabedeeb8d9ecfac8abd7c9ca98acabd7a9ab5afba878a87c9
col34:   acb9cd9a7ddddf9dbbbcbd8eabfaadffabf9cae9cd8bcb9ecc75a9cacdbaa9bc6b99b89676f97bab
col35:   bb8bebc96bdbd9e9acfcbabf9eb9b8fbeefacccbabbafcebeddabbdddecbdb9da99bcabdb7acbd69
col36:   e7b9a7fafdaa8daccacb9ceaedebb7cfaaabccc9bbaebabd8bdbdbaadb9ce9ca6897c6bad7a9776a
col37:   d95ccefbbbfddfadbde99bbbccafdbcecffdcdbdddfefbaacb99cdcbcacbfea9ccaa8ac78ac99a78
col38:   deafeabaccdadab9dbcbbbabaabcbffafccaebdcbd8add8fcaddedd8ccdac8cd99baba9caebc8f76
col39:   dcee68a9ddabdadcbcefbdb99bcfedcbedabcfabbdbb8be9ccdbbeaadc99e9cbacbab9b388b8ca8a
col40:   ccbbebbd7edc9ccfeebc7cb8cfcbbacecbdac9fdeebaeafacc9fce9abedf9cdabccaaba9bda8c899
col41:   dadcbebab8baaaacabaccdbefcbf8ebbbecdfabceacdbcccbeadc8ed989c8dabbbdcbcc985789799
col42:   d87ca97e9bcadcabecf9efece8feeaaadfecc8fcadacbbacbab9ece9bca8bfceb9bb97aa89a6b976
col43:   dcbbfbbbaedddeddbcfbbceadcddeebbdbbbcbcbcfddabcbbecbbaeadceadadddb7a888cf9dde8e5
col44:   bcbccc8cb9b99cadcadcbe5ecbdebe6edbdccbfffccdeadbbdefcd9abacc9b8d9b9a9cacb7aa6a96
col45:   dacacb9baacecfacb9ecbdca9dbdbabccbf9adcaffdfdccfbbefaadcbc888fdbe9dadc5bb78ba8a9
col46:   9bfaeab9dbebac9faac9bd9ffaddcbaccceccecacabacca9b9fbcccf8dc9da8babdd988a8ab7b8cc
col47:   ebbb8cdc9aaadcacc8ddeeebebdecffccfdbdbeabadfbcbafbeae99bdcccdbad879ac8989b6bb7d8
col48:   cbbbabbcbdbabddce9befca9aeebdfce6aebbccacbeca9dafcaba7faced99aa79bceb8c59da69987
col49:   cd9cbd8bb9cdacdbbfcd9bddcdefe9bfbaec9bafefafcfabcccbc99ab9dbdaa7d998af8a88cdb9b8
col50:   79eacbbea7a7bafb9c689c9baa9ddcbdebaeabe6fbcadd9bfadbeaabfaeaec8fbcccb6a6daa89b7a
col51:   8c8a9abca8ab89ac98bbdabac799ca689bb7db7d8bb6bb9ccb966a969ada8ce787a7868b8a68a998
ROC:	 BPix_BmO_SEC7_LYR3_LDR18F_MOD4_ROC2
col00:   5882685a7459a66558746895787b6ac9cc99a95d7b77a869b7a46d579858697a7766a796777a5837
col01:   723979587668579816aad6778879398aabbc8cc787cbc9c757686b7b79dc8a7baba89989d5cb974c
col02:   5692b9486669999b94b6a99bc868abc8a86877cda6a7769bdccad99baa9c95a8996b897d6aa96a42
col03:   598b7796947889bc7b9987b98ab7a7b896baaa97bc9967aa7dbbd7b67a86b97bdc86a78789ca7897
col04:   8ab4a69b8a7869996ba7aba897885fa8c89679d7bb59979da6a86c9cfc9999aaab88bbc8a8dc5e97
col05:   56759987a724678ab889aabd87cbaba578ca878cc9cb9c9bc8b85baab9a8cd6b98a96aa7868acb9a
col06:   a9598c67789d5b9ba9a78995ad7aacab99a8ab76b98ae8a5abaca9d5989bab7c9858a8a79aaa89a7
col07:   9295866895928997d94a7989ab98fac8b9c7acabbac988bbca96db9db9b99d58b8aa9997baa97a87
col08:   74843459559868b5a885886a7a9d68b89b69bb8678659b688aa6bcaaca7a88a8cf47c7a76b78cb87
col09:   77b698864b837a7e7baa9ca988caeb799c8dbcc8b8beceb9cb9e5c96a8bbba66ccd7a8a6b4aa6a66
col10:   75a2a56587746b86ba8668aa8b84cbbbca78eeaa7cbb8a797b96ac5ac79b98bbb969ca6d97cbb8a3
col11:   83a3559aaaa48979aa759aaacbb9bcc85889b9a99a6cb9d989c9acc47aa7aa9c896c68a787c98aa9
col12:   868b96957569778a884b86978b999b7c9bf8b7acdaccbf9ad69cc8999d79d9cab9979b9779ab5878
col13:   585d997a7769968698b9d8b8839aa7999d89cbb8ba9ba989d9c8b9bbbbabdc8d89a67b69bc777666
col14:   5257155666875966858b7a96a8ab8c879668aa6baba8bba87a78a9cacd9a7aa95bc89aaa89a9a6aa
col15:   94a7989a66f55a99797a8a7b88ac6b4c778abb99a799aab6abd69adbbd89ca97aced979a8bb9aa77
col16:   889a66698684668a59997ba9777b6c588c8bca78b9bd7b966675bb999a66a9897997796987c7969b
col17:   5456955967d8a3696988b89ab8b9c9ad865bab77987cbaae89ae69b9999a96c9cad8b878a8888a8a
col18:   48ba4aa77885657757a59539c8a7b98957bb9c9b9e9b79baad988cac7baa97b968678c98999c5b93
col19:   557b5897815679a658bb8699caa8599ddba9bbc498aabebd996e9d98b87d8b97685ba98b98b97cb9
col20:   9a25588577663265589699ad857968dd97877cc79a9c997c66c88a8eca7baa86685746b8bb888a99
col21:   e868c8b3ac65878c89a7777cbbd6aa9b9c8acb7d7adacac9ecd998c98889a9b9aad899bcbb7a7fc7
col22:   7776687c785778956667897bc877ba589cba99abae98aeeacaaa6dd799d49ce999a58a89388cb6a5
col23:   55c77757588588c97a8a88a98a679967acb9477ad7baafacbaaa7889da9b998bbba9a58cc79896a4
col24:   657775a9a58735bc4c8a9b99869f887999a7b3a8969b8c9d5bbdbb6ab97eb784b7797b69d8898dc9
col25:   5987787a66a588bab868c8bac7f5bac9a99a689ac8cbbbdbd8bc89bb9bb9b99baaa9898cc9aa7977
col26:   8988a986b899b9b6dd9abbdae9bcbb998cabfa5a9dbc7bca8cc989cd9abecacca9dcbcae8aba8c99
col27:   758989a8988b7baa9fbca8aaa88b7e9da9ace8bbbcbcea8b9aceeabddaa6c9b8c9dd9ad9c7aaceb6
col28:   6a8586acbb8a5ddbab9ab95bcab99aba6ba9d989e8ccc9bf8db9cadbbbcabccbddcc7c9bbb79cd98
col29:   a549858dba8eb858968d99aac9d8a69cc8bfba998aab9babc7debec99fcbdcbbc9adb9ca8d8aaee6
col30:   6e854a5eb79ac59bda47faabc8589a97acdca8cbcb9cc8dddacbeaaaedefa577bab97d7baadbb9a8
col31:   9ca5b48a97c79ceb8c7bcebe7accfdfcbcbcffffbbed99bdbdadee9ecafc9bbbe7afa8ac58bb8b9f
col32:   87988ca78aafbe9bc98aeaebeb9bbdbc5daccccabd9fddaec9add9cafabcd9cbcdcccd9d999f5c9c
col33:   ca89bbc8b89ad89dbacc8bcdbedcdbbdccaaadbfe8bdfc9ddbbebcccfababceedc99aca68acafabd
col34:   fba97c8cb889d79ebbcdcbc9ccba9cdbbc9cffabcdbecfdabbcbbdbcefdbdd9bbbbdadea9dec9ccc
col35:   da88bab7c8a7a6a7aabb88b9becdcebcb9cadcbdbcdcaffccbceffbd9d7c9bacfedcc7eeeaa9badb
col36:   7676769c9adaebbbafba6b7997bcdeb8efcdb9edaabeadb98eddccc8b8aadcb8ca7edfcbcb8fba75
col37:   b99acabc8e88bb899bbdcca9aeecab8cbbeafbaccefbfccceecaaacbeaeccfccbeefb8dcd8ebf7f9
col38:   979ac9caa7cdacb9cdbb8baae9b88bcdab8ceedbdeddbcdfcdceedbcdddadadcaabd8dfd8eebedbe
col39:   688a89c6bcc8fa9c9b9bcebcac98eacdbcbfbbbbe7c6fbedf9a9f8ceda6cafacbc8ade9ccdabcbc9
col40:   aa9cfa98bbd9afdccdcaccdabaaebedabccaa9aaebec9dde7fafafbaade9fdccfbddcdb9bcddbfbc
col41:   9a97aaaac79cbcabc9dcda88adaddcb7eacaaba9ebfed8eadd9dbcdcaabbcebcccabcfedb8c9cbbc
col42:   ba79888898d9cddcaca79dcaaea7e9cedcbecbcc9fbdebbffceccdbdacbccbe9ecbc9bba8aaaa9fb
col43:   a8bebdbbd9da9a9c7b9debcbceebebcadefd99ecefdebcbacbbecceceddfffdbcf979ecb98bbec8e
col44:   88787bd7bbcaaa99bc69cfcde899cccecbd9bcacbd8dad7cb9fbbceababfcfd89baccedddb8aded6
col45:   888bb9bca9bedd9bf9b9dbd9ebbfcacbdbcdaa9beeaaedbb9cbcdce7bcabbaabccaf7cbbccbf8ed8
col46:   8b7c99b8a9b9aef8cebdd977cb9feccccd8bcde9ce9babddbe7cbbd8dbe9ffbdbdcecbadcdafdf79
col47:   5aba9b98b8bcac7ccbabbacccdd9eeceedabdaf8cd8ddeca6adafaaefaded9ccdabfcaddb9dcca97
col48:   bbac6c8bcdbdd99b9bbdfcabcacdbfd9d8acaa9fbea9a9cdcb7dacaefc9ccaccd6ccbd7799eee9cc
col49:   7c9e6a77ceaddaabbbdbbb87f8eabbdcde8cfbda77baecf9dbbbbccdadbcdcddcbdccde97de7aab7
col50:   947dac9d7bb989d8caddccba799adaf8aafbdfdcbfffccc99cbdafce9a99bdc9fbbaba9bbcbcb9ac
col51:   696596b669958aa5ab587ba678a9898bdb8acb8986ba9cbb9c6a8ede78bacacea9779bb988f8c756
ROC:	 BPix_BmO_SEC7_LYR3_LDR18F_MOD4_ROC3
col00:   7995a5548b4767c7688798867b6ba6778a89694a8666c8a89e76c958568996bb77716517b97455a1
col01:   ac78a88cc972b8cccb98ac7c9c899c4a7ad8fb7a6cdccf95b9baa7b9a9ac9b99baa7a665a87566a7
col02:   6b989fd86b9beafaa98b7aa6a9f6888be989c8a876c98cfa698b97feb995b9c365a49a9a958a89c6
col03:   767d8798a7298bb9da7a9cb5b85accab7b878dbfabdbbebdbbb9bb88cc67ebca4c8595b7485ab546
col04:   87ab989a8997879ccbce9c99b8edfbbac8ba56ceaa9ea9b8a8da8c6ac9b459b6971aac7d728676d8
col05:   c4687cc6879b67dba64998a88ba999eaa8c9c87cbda98dcc98789eae8aa9ac5b9999957636868384
col06:   9589daa6ba8f8b99c8adb49a9cbeeb9aacd99bb8ab5a9baac6bdcbaab7b999aa889777b699778657
col07:   8b8788abcacc866cac8cabdcabccadacbabac98ac5a5afcfac89968ab8a5daa7568a776a78824676
col08:   5857594b9895d9d585a6b959984dea5568c7a8aa9a78988c6d8c6b878998da9e8ca7b66678414554
col09:   9c7aa7b796978dc9afe6bd9887ddedabb9beaeabbbdb8bced8cc8f9acf89a97967a787b97a399ae6
col10:   8a98797ac9ceacfbdaa7b99e866aa8bca9a8ab9decc6a8c76ca6b89b9798a69b533ac5997a688868
col11:   988b4a7e7b89aa7bbb6eb68a95d788ad8aebbdeab8a8b89ba777ca75ac8bbb8b7d76389a6664789b
col12:   9b8a8677889987bb9b9c9b6aba9c85be8bdcdd8bdaedcda87cbcae8ba7b797979795667474575453
col13:   98778779acaacd7bbbc98a8ac9cac6e8bb7bda999688bac4a9ccecdaa85dc648b7386b69b899b588
col14:   5698e969b2aada988bc78eba9776ae99b86d8b9a868a9b87e47ba698c97aa98ab886996596957744
col15:   878767b694797b9996d79aac8aa8dc99cdc97697e88a86ab7b968877ab9c876bc47a999ba9a75777
col16:   b5c8aab8a9998bc989b897dbaabd699ca89bea6a9b77cd7acbaa8a9c87a95b947657697c89885546
col17:   b989ae9a85795bda7b7877ba7e99c9dab8baabcb9a6b6a9beac9896898a887d999d7669636a97987
col18:   978464aaa99ab9c7cacdcbcaaba9a88b898d9daac6985ae7cacda868977b739869b776c6777aa891
col19:   9977a9acac6ca9d99b99bb8b8cb6acecbb9bad7baaa5d87acdac7bcdad9c88a98678bb7a7585aa64
col20:   3a66aa1ac6b7975337b79cb5baaba989768997ed7b987a79c6abcd38aba7ea7b77763a9768885c74
col21:   a9a9979bd98cb9b897a89a97ca8be8ec7acacb8aaa9c9589ec88a8c8b98e5898857cb8686a79cb77
col22:   8ab7c8a8c89a8b9a89b7865b5a99d7ca986996c77bad8caa88b8ae6a8d59b78776b4784686578635
col23:   b7a7679899b9ad9c6b8b99999b5ac89a8aad8bdb89b7cbcacd9a78a959979c59998b87688645a8e6
col24:   8bbb78c88756c855bba86699b88a9889c88b9f8dcd8888a7d98db6889c7b8a94acd15956a8991687
col25:   458b6a97a99a7c7d797fa4a5bb7b89b6c7cdac897c9969e8b7c8b9ebb7b9a9b9abb955a9575b1677
col26:   d588cacabb99bcbbaabae87bd7a699cddaccbcbefcd8bbc8b99bdb9b9bde9cbcbaabbba485678189
col27:   c898aaa6aab6bf9ac9ebcb9c8bda9d9dbac7d8feed9ee9bcebe8dbeb9f6c79b7a9a88a6a9498abb5
col28:   5b786bdbcbbaadebbd7bb5dbdbbc9bc8bfafffcbdadc9c99baad4bdabc9ba897a79a75b48a849797
col29:   bc889aaa8da6dcc8995ddb7aadbab8bbdfb9b9cacccada7cd99a8bcaa89598bdb5969ab65ceb8967
col30:   96b9c9beaba9a7ea86d78b99ca97cbdf9aabbbc9ccdaabb9eacca7c5dc9ee69a89b7d7b5ac8b789b
col31:   88a865bda899b76fdaabdab7ccdbff5eaccfdcccaecddc9fdd9aacbbf89ae76aa9b98ac69987c6a1
col32:   9fbcc9aa9bca7ddb8b8bd8caffbcbd6eb7ca9aa8bbbfacccbd989adbcfa69c6c7aadcb869b668ca7
col33:   aa5ec6ac8b8a99baaa7aebcaabfbdccbafebdabc8dcbce7accb8b89c7aafddb579dad7c79a887688
col34:   da8b98b4d88989c8a99da989dbe9cddca9cfc8edebbdbc99ab7bb9becca97fbba998a87777559e78
col35:   a7aaadb798e9cbd9cdb9bdbccab9cffaceca8baefde7afd8ceceb8eeb889c98d77c9ca8b699a8874
col36:   9898b9a8eabaab76c8edbdbea8bacefeddefec9ecbbccca9eac9a9c9596d9a9ae9a4a87b69978a97
col37:   df9adacabdb9adbb8b99cbcfabbaadbae9abffeff9bbecec9c9a8b9a7bcafdce986dc9c9aa777a96
col38:   87c8aad9789cf9a8acb9cccbf9b8ca9fdddffacdebbbdaaa9bccaaaccf8bf9aaacab99c8daa9cc76
col39:   8ba888dab8caaaaaa8ad9cdcefbbbb8dfc8ebeeccfacfbb87faaa9befc8be7cab7b9cab6fb6dfa8a
col40:   ed87b6fda8bccd7dcdbcb999ecd9ee7fefddaa69c8a7cec9cbdc9c9fbfa9acfcea9abadc8a98ba9c
col41:   a98bab99dcbbaabafacdb8abadd8d9ab9a9c6ce9cabdb899e6ffc8c8ceaabaadafbb778be8ab97c5
col42:   dbc9cc4cab8989bfb8e68bbad999bdbc8efadaabbcbdcbacacea9aab9dd989ca8dcb9ec9a8987be9
col43:   5a7f6abaabffaac7fea7dbc9d8ea9abbfba8bb99cdbebadada9c8cddbbfba9f988ccb88a99b76d7c
col44:   ab887ccb6aa8cc9ddccc9ebc7daddbeba7ebbcb8cabab9db9dececcf9bcfefaceac8bb9cca9cba7a
col45:   d5bc9abb7dcc9cb7aedecdbfecadacebabd5def99adefba9ddcf9becb8afb9d9cfbd4e9a9a8b9cb7
col46:   9767ca9bbacded8dfa6eefa9dbdbffcabcbddcccbc9cab8cefc97cdbfccd9c79d9ba98b375cd8a68
col47:   98b9a989bbb79ccbbaabdbbbddc9accccdacccc9afab9e99aebbde87c9bcebbccf9bac98bba897b8
col48:   b6decd8ac878e6eccbcdbabbbaa9eb9ddedc8b7aceebec9ab79ad8abedcba87cb878b9ac88caaaaa
col49:   7dac8bddec9c49bacbbeb89cbbdf99cda7ce7ff8c9bfa6eaabeece9f9cbd96ebaa6aa69669a87894
col50:   e549bbcbba898dec9bbef6fc9dd9aacbced8bbbbfebca4bfac7ddcdaffaac8bb9f79e9497bb88b76
col51:   a7777a9b997858cb88699a88bb9a9aba9c79bbfba99aa9abcbcbe8ab878ca96a897679a5a9789a96
ROC:	 BPix_BmO_SEC7_LYR3_LDR18F_MOD4_ROC4
col00:   8459546bc97856588745879a75982647398896d55775a9747c783576887734829255845273733741
col01:   9562957678597668888889987ba978986c689d99ba78989879caaaa99ab77a6559979757947848b5
col02:   415459556d83672b89788a78986a97c96a877779da985ba7987677a9666a5a9a8976576668677685
col03:   74a6774a4388797859867bbc986a9985786585a88ac967c66758967cbac8ac758d56586b775a8aa6
col04:   97768778438777b95756b578885787aab88a8487a658aa876c78777fd999795a8cb7c98865645866
col05:   65849c625a777986697da8a97bb798ca786cb999ca682b63987bc99a9485a8759a8758776656855b
col06:   547765655347875966467c8957da5c8a57abb57d967b79c9ba97ac98a788b6b6a672a99476867738
col07:   767789b96556b839899a6888858a476b8a4bc8a9e6aa668cab68a67b7789aaa6a78ba9a6a76b7975
col08:   749862448595587bc977ba888598799ba2a787a86968aa9a79a7999a8677787bc782777a76756185
col09:   3558ba7a5989ace885b78c98a889874bbc9daa97ab9a9cb87b9a875db7cb75957bc8978c89a65988
col10:   327655b8563765c49748887889857a888999c6776a4577454c9878989b999ac7b6b9676824458587
col11:   885769c8589968978873568978a89a97a7a8b5776a88ac96a9555be9f77bb9ab86477b59454c77a5
col12:   48654a8d784698887d768ac76aa7bb6867777951798ac96db7479767aa785c6ba76a58a847667684
col13:   4b5a5857899785532a9b79a9ba8ab7599b57d8aaaa89a878c9996aba9ac8d798c9b4857c65a79146
col14:   7435478858569898959973ab7cad968b4b98ba59b874866866b87796adaca9898776545766589835
col15:   9779785a65989b777c878caba8666b7b8bbb9a77bdabe79887889c7b998bc7978a8c96c994798556
col16:   7795768495676647a67858696878778b9898a7679cb9587ad8a6aa58c88a77b877b86b89997a7649
col17:   d451665679747686a2593778caa86958969eb976ba997bba98568a88a6687b5784554a739aa437a4
col18:   8356a36716a56974886a8ba966c883bbc996ab9cab6aa959a9899a67b6e57784694cb74725567457
col19:   4a846962626678588383ba759789b98a7cba96799a8ccbba957a98a58a89a63779aa59a869262894
col20:   6162445745864388596b6887a9b88c5495787c89d877b98a8ba8caac8686a6989a96372969766995
col21:   77a448ba876b6375955b5876b8c9cc8978a76cacaacbd768486caaac8a99a88a76377899aa8c6a91
col22:   5755697568a885867959a777a67a778bb99bc9b96ad9658a786b6479888a5b9576ab6b6976787951
col23:   555675768796958bb6587a78887846977397b89696ad8b76d87a7974bb6a668a43b8964877575736
col24:   94777677a54676487a5da798c97489ea8a87776bd8898a958bba869779a87b97887a969267976633
col25:   9774a659a885a4869898d877ca68899badba9a8d97cb9dcdc87bca766a99a45a6aa99577a3275564
col26:   875a755a69ba77a777a8c9c86c8aabb6b98adbbab8acbad8c7bdbcc6a649a99a65698aa976886976
col27:   a7949a97797caa798b89aaa5cac8cbbd89bbbdcfaac894ca9a8adabcd89a96b77828764978898789
col28:   6dd99798a8988a56bce7eedc8c9ac9acca78aaea86c9d9bc96a98b9cbba8b6abc869979a48884985
col29:   57787ba69bb88bbb6cb6da9b8a9aadaceb76c99eb9ac89c9cf8cc6b9bdc7ab9bc7576ba649797788
col30:   6a5747b79a95a79bb8b8b8acbda8dcc8bddc8c969bcaae78cc9997896babbb7c77a68cbcb9a975b6
col31:   67a999797a9b9789a8aa899d6aad6bb9a9bbadaaacfba8bdbbcbddb8edc79a8ca989c5db5b9bd8a8
col32:   54ba848898ac999ac66bcdbaa4ca994af979d99a8bdc79ad89aaa8a8cbbac86ca796c67ba3c76974
col33:   7c9a9ab999adca9b759ca9cdccb99aaab9bb8acc9eaecc9ed8cffb7cbddbabdacda989b875aa8976
col34:   75b657a87779aaa9debc8cacba88baa5fa999bbb9aacde9bd97cd9aab7c8c968976b9634c9687885
col35:   86996897cd79b79fccabdd9ae7bdc9ceabe7abba9edaac9bab78ac88e8f7e9c9a98bac4639ca8aa7
col36:   878999967abc97bc9d86b8cca8cafca9ba6eacbba8eabbefbbd7aabbad98e69d7c997b3d899da768
col37:   92898a9a8bcb6985a8d59cdaf87bba9eaece9a99eebd9abd9bbb68aeeb8ebec776fa88885aa7da69
col38:   8a9d75ed89c9a5959bca98babccebdb89abcbafcbbaec7ec8adefbe99ec9db5ba6dd85b67aa8a499
col39:   8b989b67868ab6caabc887abeb28cdbedbcb58baeb7cebbecbccc8c9bcbbcbb9ac989a989a986785
col40:   5998c5b7adc9a69dad8cb8bcccdeceaccdefacfcbde8f8cbc9db8e9eccdacbc8a998d88dbc696a85
col41:   588b3cc8c889bcc8d97b9a988cb8cebaadaf6bee9ccbe8caebc99edac748edaadabaac98969856e8
col42:   aac8c8c78a7c787c7ca9bbfa996daacaa9abe8adbb789b99bbacdbfcc7987adaa9cba87f6b78bc7a
col43:   698aca98da7dbbbbd67dadcbe9dccceeec9bdcccddaeb9ccabb6ebdbedc88988b8a9789a4d67c98b
col44:   9768889967798d8ddb86abc7ed99bc8f6ddcda9bdef9adac899a9eebeddc97994959ac998779a9c8
col45:   77cc79a8aa8ea8aaafcdb9de9bb7ddccdddacbb9ccbaadcdccfdabc8bcbaa867abbaf8b8cbbc9ad7
col46:   89889a88848994ab8b8adabaa7dbb7aba8af9aa99ebbb9afae7de7cb8eaa8b89b888589c88796998
col47:   57a97a999cbb7989d88a7c88b8abedbf6b8bccada87bdebedad8cdbdd9cabccaa88abab7a4ab8956
col48:   67786a8b8a49869adba8789cbbb99ac9abcd8cebbaaafce4dbcbafabbbabcaf5b8898985ab5ad789
col49:   8b8adbcc99a838b9a888aa9facdaa6addcdaecc7b8d9cc8d79bd89e9968c6cedbacca5a8bc66a759
col50:   97bb89b98ba3dab6dbcb5b86bb9dbdbcdccadedcdbdfc99baacaaedccba99b997dd9babc56785977
col51:   78a468a89b797a8ab91c8a48b6aacc7cc97b88cb9cb97bc8b7699c98a98c9583aa66a83885755647
ROC:	 BPix_BmO_SEC7_LYR3_LDR18F_MOD4_ROC5
col00:   a4a7756a56786378963494874789685eb57a8b8a577a924998d48a477887879d7495459625612442
col01:   9566d9b797799a78739c4795bb898875babab9bc9b9bc68acbd89b967c4677759b8866b687875a25
col02:   7558879b48acabaa8689aa79c997aaaa99378baa7ba99b835196b6d377d9bb784c9c764774557666
col03:   588a7589b9c7acbe989667acbc6b978889acaa9cc85997c9c9da89ab7a9c866c9b1697646a486b78
col04:   b7b8b7badaf9959bb979ba7c6adb98a866bc7acce896db9f7a89b8979889876ca987458898946846
col05:   b66eb78778b7d98c9cb799876679d789d97d767aa8be8ba5abf8bb858ca97acb89389797a6847696
col06:   a9b779887884a4bfb887cad9bc8bbe879d6aa3a9ad9ca99857acc78c5b9c6ce6836c9aa576487735
col07:   669777c65c9bdadcaaacaaa6aabbdfbae847dcabccdaa9db9aa7dc7ce6ba59757a9cc998a95988b7
col08:   9388888cb8979bb8aa9b4ac86cb968bcb578cbbaa6699acaac699aad99dab989765a479898882698
col09:   a7bbb667d47dde9c8ea9aea7f8dab8b88b9ba9bbb89becc99bd888aa6a96a8d8a389c4782ca76395
col10:   b9a95a8cd7a5bcbb6a98d785ac9d6baaa97b94b947ba986a8f997cba5ada68d569ba986995b55381
col11:   a5ca76ba7cbb98a97b8b67d89ab69e8699a97f8dddc8eb8866badaaa967b9958a9767c898a88a7c4
col12:   7bdb4596697888a6979cabaa8a8cacaccb7e8bea99c9bab77a7ba6398a58ac865bb6686977a36826
col13:   897aa995d6bb4798aabb99f7ca4969da787ba6e699baf689ad79b84ba88ca96b82886669a99964e8
col14:   a7476ca556a79aaaadb5b8aa889758899c7879a9d9f98aab8ab7db76a658d9877bc867aa7c945796
col15:   754c7c8ba5c9baab58baa9abb78978aabcb868db96a99cbab7aa77bd8798c9fbdab69e84cb5c5da7
col16:   9939b58a59ba7789b6b8998c8a5bd8877c86db88bb99e79d8da95aa8a8897c76aa89887777c9b991
col17:   7a496898877798cbc5648c699c9899d897c7e489e89da5cbd9cc9aadb599896b68c85638a25b6978
col18:   8759789a933abadacb58892bd868988bbc987a8a79e9bbc98789d9bb7baa89868985684b7b788585
col19:   8b9a3aa7688bb8a8ab99aa9bea8ca9978d896bcbaa9cab9abb8cbd9cba7bbab886687aa6287aa484
col20:   8767ab787c7cbab8baad9a965b77bc986ab6a975a9aca8c9ab7ca9bbabb7a99b787e78a5836689d6
col21:   bb9e98abb9779aaada88789bcac88d8a7a7cbadb7eaedc96a6b9d8ac66aa6b5c79c5597b9b698896
col22:   586d38b97aa9587b9477a96e8d98779b8d5b8699d9d687d9a7999679978875ac77c9978878998876
col23:   977977ac85a9898a857d9aba6aca6b7a6b9c9a9c9cc77a8a9cbbabc967b9aba996b489ca8b858775
col24:   a86a85a97a7587b7aeaa9a9cad8cc7ba9bcc76789b99a9ac95abab9b97cba786a76ba99a685a7759
col25:   6b9897769ca6b999baa8c6d8e9cd997b9c7877a7a995a89db7d9b6a88858ac94bbb7c59555b94c67
col26:   7d8a9ad79c5abaa689cd9ec7cfc78cdbaaac9abadbda74dbbeb8788cb8bcc8daba5acc8a98d97aa7
col27:   a78ca97dba9fb9dfdbc989dd8b9bb9fdf8ca9ece9aacca7baf79eafeb87bd8685aa59af6aac945a6
col28:   dba7d9ae79da9ec99baa9dedadaaca8b5a99facadac997dc9ab975b6d8fceaca9dac95a9bbccd794
col29:   e69a7d4b68db9ccedacbdfb9dba9a6aeae8a8eaabdccabf8a7699aedb9cde88accd7c6dbb9c96a58
col30:   789a9589a8b689bafab8aba99af89cf9edaecefaecbbfcbbcdd89e7ea8fabb8aa9b9ada6a5776a95
col31:   ba689cab7ad9a99cdddccf8cd89cabadadbb7eacb8cbfb889fbeeaabedabbbbdde9a9db9a8c9b997
col32:   bac8788baacdcda8c7b7f99cccf8af8e8dbdbbbdafcab8a8a7ded9c7bcc7acaad7b8a7bbba9caa89
col33:   cdbbaacdc9989adcbdaaefcbaccdcfaeada8ccffcbffbbd8a8cbe9daabeead6c8cbadcbc7b8be88c
col34:   7baa966bbaac6cb68bbbbfdb8cccbbcfaf9f9b9bb9ab9abbbabccca9b9cadbaaad6a96bad487b764
col35:   af9d8a9ac7acbaabda8aa9b57debabaccedcb9dff9aa9c9bbecccadbaccaaccabaccdbc7bbc88d53
col36:   ccaa8dabaab7b6ccb79dec7acadbc9bcbcfbbffacfbbbcdd8bb7ceabdc9db8cda866dadb87aac9b8
col37:   dbd9bdc8baeb5aaaddaafbdbedff9cd9bfcff9edcefcb8cffcba9f7a4afb8dcbffa9abeaaead9ab6
col38:   b8bfaab7bcc9caaaffcbabbcabdfbeecfcaeaadcc7e78d98cbbd99becef8efcdaa7bd7aada6f9a69
col39:   959cacabb9ba78bfbba9aa8fbb9cfc8b8ecbfafccbccd8cb9db8eed9acba99eba89eaa7b9aaeacea
col40:   99bceb99899acbabbccecbcabca8bad6abad9becdc8dbb85ab7eeaafa8dbccbbd8dfcdd8acca8c9a
col41:   adcbb6d8be9cdcad9ab5eb8cfbbfdbdabe9beaaaa799addcfacabfecbceadbfdbcafbca9caddab98
col42:   aa99a5ad638bafedad95aa9bbcbbeafb9e9accdbdd7cffd9e6cddcabeddddfbdaaeffe689b96b8b6
col43:   9ac9faa9cdf66cbecaedde6e5dcaebbbfcddfcadddfedccccdacecdadbabc8ebaeababc99daaca69
col44:   c8949bc7ea9cbdbdabcbdcecffecfcefedcbbdbdcbaecadaabacfdabcbafacfbb9b9c4da9b3cf998
col45:   8bbccdba6898b97abf9edf8ccfcbccebfdbeb9ccefbdc85fa8deedcacebf9dcebdbb7cb8bd95beeb
col46:   97cb8a89babbc79cbbab7ac9efbb8f9fcddacef7ceb8dbdcabdf799cbcbd9dfd99aa9dcccd7b9b89
col47:   daccdca9d7d98acdbbabcbb6cbdfebcbafeffdeebcdaecccf9bacaabbeaddd9e79cdadb76dde6a98
col48:   a2db868c986a9abcf8aac9c9dda8bcdbc8ec9cdbbdf8deceedceabe8bce9cb9cb9aba8879ccba998
col49:   eb9ba9f97c5bcbce8a8ffdfdbbcd89c99bcffcfb99fdfd9b7edfc78cbad79bcb58adccb7dc7c8aa7
col50:   a9aad88bbc9a9cfabcb7fdb8bbbd9dbd7bbbcd6aeacdd8a8bdfbdfcc8ccc7e9a6babecfcdcfc9dba
col51:   78adc9b889a6b79c886ba895a9c8bab8bacbc96589aadb996b878cc99ac7abb7c5a6da68a66cc9b7
ROC:	 BPix_BmO_SEC7_LYR3_LDR18F_MOD4_ROC6
col00:   85aa4ba959a67973365888936c9798c6a5e789c979847a97b699ba8b898657975a689364659d6366
col01:   a8399a47b876bb99acbcaeb86b999adaf87998bc9a9efc867d998e479a69fcd78bac6bb7c3992977
col02:   47999789b46aaa8a5adab6798a99988bc89aea8b78cbfd99aaf77d49ad98afbc788a98876688999b
col03:   a46579eab898589e79a7bab868b898b99ad5a8aacac8aaa9cdc9bb8dab86d9bcedb696a467598899
col04:   ba959669aa8ba7b946cbaaeeb4b9969a7c696bad8a79ecb99a7f5bdca8bf89b96baec57a97a6b686
col05:   a9a77468b96557b86ad3d9a67abb87bdb9a99ad779cddbaf79979adc9a7b864d9878899ac7b944c7
col06:   9b58a66ab45c6a9798da9a896d9da8bbc6fc9ba8b999ba978a89879ddc89bab84b968bd48b79655b
col07:   997a6a899777772aa7cc9887c56aba8b79a6ab9eadccc8c6cdbb688b7aa875b697c5598a8c6beb66
col08:   aa723aa75759aa8668997976be9aabba69a89bbeea9bd8978aa9accdc974a9cbc9a1966599a89468
col09:   6977a9989bdbc86b78e5a9976dccddcbd777ba79a9cdca8aea9689eaccbcd6bdba499a68d79aab3b
col10:   97a8a47c579789b647a88c7bbc7b8b5696c8eeaa9cbac89fbc9de99ac59b5779aa7885cc67aa7697
col11:   89a8a676cd9819888a59b87fd4faca76badb7ab898987cc98b68ab899a9c6b9aca87796f699baa53
col12:   998a985a37ae5669c779cc9bb996b7a97e8ab8cc8abb8b73ec7c8985d6895667b8a8676bb69a9c66
col13:   947987a47c98998686a99caa99a9de7a8c8caba8bbaabb8caab998ea88b777acb996a98a9775a9ba
col14:   656686aa567666cbbaaa8aa9ea689a8ab5aab6678cbd9ea9b97ed879bad8bb99ac9966578b8876aa
col15:   69b568896666b6bb8688a7579c89f7adc97eebf9a69a7cfe76bc7bb6ad9ba7da6aaa9c68a297b7a5
col16:   a8b96a6c88b9997ac48c89a898aac8dbb9acade7a8dda8e9db9dd7a6ad8cbd6cc78d7a699689b9c2
col17:   67a8169a97b76f89bdaae9c55aacba98c69b55bb758bba7d76b6abade98c78859a99888898a96a75
col18:   59ab66655888867b97bc5da865b3c79bb6669876adb8a6a7a8b8e877b88bcbd984b88a89658ba638
col19:   5947965b597d9abc6bb9aaf7ba9b8bbba796daba9cbcdedb9caa99aab5ce59996a9a99976a8da788
col20:   7489498a97797779ca7a99af6aca89937ab88bebc8b6afbc57d9cb786885a897b5753bc756764813
col21:   cc8a89a676ba9c9caaa8bd79ac9ccaaa8eb89cca5abab7a96ba59bc98bb78a7afbc79cb75b8a773a
col22:   885ad888892a7b69ec9a6a7a9bfea6875b8b997bc8ad9d9a88647e7a9a7da996ae59b67756665668
col23:   a897672887878d96a9aaa6ba866a7ac999d7995a869dcab8b86b99abac9899a69bba98899d565535
col24:   989a2a77666fca88689e7958766a8bbc97a999cab699b9acaecb7a94b769a7b88a89b97da8a58577
col25:   c867aa88b96d6b999c96cbd798b9b89c79c68aad8b4b79d8bda8beb9ceab5ad868a5a4999b869a66
col26:   a79ac58a79b8ca98769caf98ddebcb9af7ba9ea9c9aedcddedaadacbca98aab8acba5aa769ba97aa
col27:   8ae89b7d9d87aace4fcd6d8c887badebad9accc8f9db9b7c8bca8aecccebb988ab8bc8af56c8aca7
col28:   7989ab48885ac8de4ca8cbefcc77bec99fccaebcbbadd9cda989bf989abe9a9b87aa9a9acb6889a9
col29:   a8c7cdc78db696b87c79b7c9ec9afdabccbaabafe8ba7a6dccebb9c7d8ae89ba8cfbacbb89c938e8
col30:   8a6c9894b9a9bbdbedadbdeac989a8bad8aba9babcc8bdcaac9c7a79ebafecababf8bc9c95a8987a
col31:   957d8698ababdcbc8abdebbacdbbfaa9ccecbf8aabb9accb9adddc8acccc978db78acaa96aa778c9
col32:   d9c8a9a9b9aaca958bebebdfbddda8aeaed9b9db98baebededadbadccdcead4ca9dcd79bacdb979a
col33:   8cc9bc88baaaefbed78ce9eefb9bcbeaccecccd7eaafbc5bceac9fdcfcbbababffcbc7af9bb5db7b
col34:   999dc7c97dbcaaa6b9dcdcda7ac9aab898eeededcbad88bbbeec9aab99af88a77cbbed6c988b8b97
col35:   acd8bb7abb8bbfebc9b9e8b7baa8ddba9cbebfcadddbac9fceebbba999ca9cc9da7a997bb6bda6ba
col36:   867aab97b768b9b7a99ebb99cacc7d8aadf9b7c99aefb9dafffa8ef9d98cb6cebababdfb4ed9ad89
col37:   ec9a8ab89caaaf88bbe9bddcacdfdbbddea9cfe9ed9bbd9a8dc98d9e99eeb9facdd88cc8daa697c7
col38:   c988aaddbcebca79cbbae5aceefe9f3dfec9ddcccbdbbeecffcddbcaadcdbabaacec9d6bfe96b795
col39:   ae9bc76eec9ccdc4d95bddab7ac9fdcfbadfa8cccecabadc7caf9cbfbfd88d79bbddeebbc999bb89
col40:   7b98aeaa6bea9cac9fba9d8bac8fcd9ecdaebe8addbeaf8aebcececdcda9d9afcdcfaebcbb679c76
col41:   ba99b8d9d7c9b7968d9bbc9c8abcb7dcadbc8dcbdbce8d8efebc9f9f7daacccb8bbacdceb9cc7a96
col42:   9b7e8a6bff7b8acaaaccbb7a6accbe9dce9ceeca6d8bfbdec9bcccbb97e9ba8af9da789699bb8ceb
col43:   67b69998898aacbfbd9cbfeefdaeabcffcecbdedecfffdcaddc67fadbfcaa9bfddfa89e7fabdd9b5
col44:   da8abc8cabbb77cdeabce8fc9cccaecdcbdccdbcdcbedbefe9bcb9cebfccfdaedf7cba9abd4dc889
col45:   bcfa9bbb9f9c8fea88faabcdefdcabb9edafedabdfcfddaffcbdbebeebdbdfcc99afcabadb998a77
col46:   b48d8b8dcab69afeaae9be969aecbaa8dbb9ddb9cb9bb9bfd7ccdeb7ccabb9b9bcee8acdac3cb6b9
col47:   b6bad89bae9a7acee9ab4d9bebcdcbcecaafbbeecddeaecbda9eefecfdbcc9cddaedbcbbc9cacaa8
col48:   ab8a8a788fdeaa78a9ceacc9bbdbbcefaeff9cbfdebaccfdbc58eddd9fbfb8eedacf6b9cdf7e8888
col49:   58cab5b797a7aedaebb8eaacabd9e7bc8a4ceaaedef6dccf8fc9cabef79fbd9cfacdab7a99beb65a
col50:   c98a99ad89aba8bcddb87bfdccbfaba9df8d8fbdcfcdafafebcf9c9abacbcfa788c8bbec37e88fc6
col51:   98695d47795649d774798b75adbc6a77aa5b78bb9ab9ba9cdc7a58999a6d6cac95f9c8c648967983
ROC:	 BPix_BmO_SEC7_LYR3_LDR18F_MOD4_ROC7
col00:   a578a99a6c72ca87595ba688b99da789b6bb6ab6a787886a899a6b5785d777b4398a579674584754
col01:   dcc9699ab89988cbd7ca999cc997a898accedb9badb99bcc97a99a7eb8daea8d3b79bb7ac6588974
col02:   69559d9b6988ee9abab89ab7dc58c8ace9c998799cef89eb6ac96e589b595dda7987a88578476985
col03:   aa98b89b9a88ba77ca8acab9b9c98cc9969a9b7b7cac9a98bc8ca8ca9899cb9a88a538666956b89b
col04:   baad9ac784cb9f8a9bd9badec79a7a9988bb88cbccabaddb88ea78b9aca8dabbba998678c5796395
col05:   ac9799a796a9adb7baab98a999389bbc8a87a7acb858ccdac9bc7cc99cc69d79887887545a646467
col06:   897bad6a86b788898e97a98aa76b79aeb45cd8b9a97a89d8d9cd79d9ca5769ab99576a89486a7695
col07:   8b8d97bacc99da6db77b8bb7db9f94da8b99cbb9b989999aaab98b9ce9b9bc495b89696646a75869
col08:   ea996677879e99ab8b8a8996c985c59bb98ca5aab9a9e98c98a97ae78b89b78884d69968a8339985
col09:   bdb769c88bc9cac9cbabaa8baba9da98dccbeb8a79c89ddebacc7ea79ccac9b9986c9989da699a77
col10:   8858a59896b8e8c796a9ccae6cabbbbbb89a8da8a6ba6b9b686bbbc9adbb74fb6b957887a6785667
col11:   967d86ad6777b89bbfec956b896bb9da8a9b6b9a6acaaca888b7b8db78cb8b996899754b79848777
col12:   b6aaac788b6b6a957a7cb888ccabdb99b9bcb9a998bbbabc9b79abb9594aaa797559775866697776
col13:   d98cb69cc69c6dc9b9b9ab98ad9fcb9bdbba99caa879accebabbcafa9d69ab67c7a9796879436583
col14:   75c7997bc7da9798789cc9998b998489d8a7b999a96ac9ca8a799d98c98a98f69955886989497476
col15:   686abc87946b9bc9d8c9aa8a985989ecc7acbc8a99bcdca9a8c7aa86aba7cbb988b5c778696b5563
col16:   78eabd889cbaaa8eaa9bc8a7c7aaa9b9c8b7bca6799968c8bc9cbcac9796d7eabaa9777a75a78776
col17:   b99b9a9788a67979eaab9b5be7c587c9aaf9cbbc9d9928978bb9976799a88bc598984bcc6a937456
col18:   c979ab7cd7bbb86d9858ab98c7dc687b9a897cabba87998e9c5ac7d99eca89da6b55579698579676
col19:   d88ab89799aac8aaaa9c8ad8bc7bac9ee8d97c8b88cdab9a6c9eba9ccacca9aa8aa7798798578462
col20:   64e79c76b9786bb87a39a799a782ac9db684a9d8bca99b86a7a789a9bb88ca95b898b86ac3889768
col21:   d98caaac997b8fbaa9b99babdbc8979ab5cebbc9bbcaabd9979ba8979989aa899a9b776588967634
col22:   79b88a4995a99bd89c98aaa7a8c979acac89cdb9aa9599d979ba98aa7aa7d768ba6a85167674b79b
col23:   b9c9a8b9a477cb889d97ab797e88faa76999dabb787d9f8a98b8cdb8dbe9cc7a57b7a67c6675a664
col24:   778b87b8879567789974d7968bcbabb9aa268ccabcaaacce988d888c9ab9f7685c884576a9784984
col25:   a49a86b9b7a9cba7a9a3b8cbba7c7bd89a877b686bb9db8b8a87998c9677c9986dd4498a99316a67
col26:   7abb8987caaecbda9cd7d7aacdcdb9978bacbbfbcbbc9f7bebeabebbca8c9bbaae9aa7b9a589c6a6
col27:   ab8a99666bb997bb8ac9dabb9ba8afbb7a9cebaebde99c9eedbbddfbaabdbb68b5a7cd7db7698ab7
col28:   aedbafbab9899ddacbcdaeedbaaacc9e9a98fa97eb8cadcea7cbcfcd8cbafdcf68b89aaad9778a99
col29:   99cad9b898d9c9c9b8dd8b9f9a7baf89aca7d8cd9e8b79edcbd9cdcdb98c86595cbab8899aaa78b7
col30:   adacaa7a8bf8bc79ab9aad7a9dd8abcce9cbbb8edba997ce9adefacf8ed6b8abe68e89b9aaa7aa66
col31:   87ebb8caccdf8cdb9d8bc9889bdb8bfbabeb9bc9dccfbcdaacbead9a8acabbb9baa9d98bce8abcb7
col32:   8becbaacabcc7eb9dab8eab7b98bb9aaec7ad9bc9d99eeddbecbadcbbbb8ad9ab97dbd8d99998579
col33:   a8c5dbb7ba7cbcaaaecabaaacee8a7ddbeeff7ef7dbbafe9dbcecdcbecdcea89d8cca8798bbb9988
col34:   97b787a68badccb8ccbbcdcdcddc7e9cc7c8fe8fcbbceb89c99b9dafeca889ed79ceaa89b8b86aa4
col35:   ccdcab7cde6b8bbd7cd6cdddbb8adfbbddacdadbfcfbbca9fdaddcdbaed9ccbab99aad9a897569a6
col36:   8d7c8afadc7eacbeda6abfd8ba6f7ce9babcdfdcabec69bbba8ad8bfdaccc9e9a6da97976a5e6a49
col37:   8ab78da7bbcacc8e9facdfedbfabb8c9edcbccaabfaebfb9cfb99dbdaeb89cecda69c47abc7a945b
col38:   b989dbb68b99bca9bfcbb7feb7bbcffeea79dc9ed89bafbbb99bdbdcaeae9fc7bd5f899bbbdd9b99
col39:   ebf6ada8dcdcdadaaadffab9ffadcabbcee8afbdcabbbfbcdbebed9fccccdeabcdcdfab4bcaa6678
col40:   b799c9adc9cbcacacaa9dc9ec8dbe9bbeeecbaab8beadcedbbb9ccffbdeca77fbedadcc9f7badf98
col41:   adcfcadcbfd99dba88ccabdcd7c9fc8ddebbcfcafba9caecfbdbaaedcabecbc97a8acca9bbec79aa
col42:   99b99aabdfaacec97ab9a7abc7a9999eeccdaf8d79e8968debec9cc6cdbc8cae95adba878cea7aa5
col43:   c9bd9a9d6eebbcfbe88ddbbbdddb7bbed9d8ffbbdcaebaeccdadafdff9d7ccc7bc7b894d36dcdc84
col44:   ccaae8daacc68da9ebdba9dc8cbab8ceefcdfdbfddabfaccaadbbd9dd887befcbbcdc6caedb6b8bb
col45:   babba7eedac9a977bfccab9ebeaddd8bdcbeaccfdecfacadcbb8be9eaacbdda97ec96d87cebabbab
col46:   e69969cac7aabb79fdabbdbabcd8adcbccacece99cdcdbaacdd7edcecdcdd8b8a77c789c799c78ca
col47:   99cded8fdaddaadbcaacbbcbbff6cccbacfcccdfcdefaddcbefacde579bab8c8dde6d89a98b98c8a
col48:   79a8afbecaafce7a8e9ddaddfca9acadbcedbdadbcfde9becfc78abfda9a9ccac58dabc989d8bf8a
col49:   869cfe8ccc9c7accfebc7eeaafcbbdccfeda96fa5dad9dcacfd88bcecaadacaaae677baa7887a877
col50:   9daccda7db9a9d9cb7eb9b8caaccaadd8accedeabefbced9af69cdaebb77cdcbacda998bcccb9ab7
col51:   adca7a88b6c9ba9abecccab9bc8f77cabcaccbaada88cbd8bdababb9ebaccbaaccb878c78d487587
ROC:	 BPix_BmO_SEC7_LYR3_LDR18F_MOD4_ROC8
col00:   45a875754778874ac76976add96469958689b88d877525a17854b69766374466581691b966124743
col01:   b8aca898cac8aa9da888a79ab99aa8b8da888a9ccd7acaa6899a839bd89bbb96a68399788638a554
col02:   9465a89b6a8c48aa8895a75689938387b8ba8b99aba978759979c9aa8c764a664d98969895775a35
col03:   9c86abdb7a87c46c8cbb7a998b4d9c7eb6ca86ccb98b6a9bc9a8c3a7d799a86a757bcb8738a3664b
col04:   5495a63b98789868b796ad96a96795abbb997dada6b666678b8dba9b58763c96a867c85694645931
col05:   78a59886a87afaa9cabaa698a49b486c8d7a95ab9e99bbe98ba967bad979d68865b6554b77582966
col06:   7a97ac6acb6d98aec7795daabc989a877f569adcb7a9b8a4a8a6b5475cc69c76b7c879a644666369
col07:   b487c989abba8988998a686ca65abdcbacaecba97b8c9bdbbabbab69ba7665a7b48987b47996566a
col08:   895a8b9a8b7b79ad597a97ba9aca99aaaaa9a4b8779aa89a97ea869cb89ba6a6478949777987587b
col09:   48c9b86aacb8a8d78bd98cbdc8ba998b88d9c8a89b998ad978b8c9b9a9cb78ec9faa7499a9875cb8
col10:   8987c89aa7a998858a899c9b9ebaaa98bf797d9ca9baf836d998868868e96799a89a8b789a74766a
col11:   a778997a587cc899aa987ab998ba9a8aa8ba9b7a9ccc9abd78d979bb87ae9ca6999a77487845b944
col12:   89976b999478748a88bba8979e8dca3b88a86aa79ad8d87c8b79d6887968db89a2a7768569b42666
col13:   989bcd7caa9bc98b96a9caacdba9a49b7b6a8c86c8adb8caa99c897789ad9834939987b876a73867
col14:   aba5bfaab62767aac99b967a8a99579b685b768c9b9f965a8aa7968a9a667b76999688a677c44463
col15:   7a7879688986c9bd88bbcbaaa985b9b979aabab8a78ce8f8bb8b6bbeab586a8586c68a6788963844
col16:   6838ba9c3658899794ab875b97a94b6aca7ecaa99bddbcad6b798c96b766b9a59a78b86b9a8ca594
col17:   aa7b7bbcd77c586993998c9d978a58fbc98c9a1999544a89c5a8b69b8aba99b8c594685889736843
col18:   656887976869c687857a99ce7a996a9b87978bacc6887e58ba8c8baca88944359c851555a8796744
col19:   7a77ab7b7a797ab7c8ac9a8ac68a7c7bddd9abc6c8ba8b8cc648fcacc87a9ba776b7899948689687
col20:   8833777b89886c8aab48ab785dd98858b6b78a9797daac5b7975cabb9b758a54a964ab2657a87886
col21:   d88ecaa85ac97babac6bdd9c9cceba79d8b7aaa796b786998acc7a88c75978db9a93b787877b3aa9
col22:   938d7a76966a688a8aac97ab69a5a9a99b7ddbb9d7ba9c87eb859b79767a7783d333978667553633
col23:   8b5888abaa9a99c8aa896767a66b6c8ccba9c87ebaa89c9dca7787879885747797a9a675474b3731
col24:   69589cba847b6c6abb899baa84baf889889689a98aa8889bb8794d667ea9a677589db68b55444887
col25:   7c557963bc86db9c859a8a95db87984bca79a8aa9c96aa87cc86ea938ebd779989ab997a87956563
col26:   88bc89d7b79e9b5b8e79b7aa86eaaa5abe7d7bcbbeabb8aece7ecb87ae9d7ed8aaa89159ca948796
col27:   a9fa88889badaacab7bab8a6dddfdaed9dcbcbb98da89e9aaac5ecb9999ad9aba7bab9697a8baab6
col28:   a7d8c99ebb9d968a8b787cb98afcab97d98cb89da69fda89cac7dd68aabfc9a79dd79699b6a69684
col29:   9a8a5acbbeaae9a7778b98999baac8aa96ea7cae8b8ccedbbda9dd9b8ff9afbbd9a8687a96899997
col30:   59f8ac9c89d898cc89b99998b4bbaa9bccbacdac97ccba6bba9edcac59fccbb98ba9c9c6775caa9a
col31:   9bd9acdcbdacab788fc9f9aac9e76cdbbacd9accbd7bcabf9cbcad7d9a9ebc8f8f7c6cccb8797a98
col32:   9b98a9d9ab9aabddb8facad9a9cdf7aa98abbeaacdcbdebaebcaac9acca7ab9bbd8b6797b9bac8cc
col33:   b798cbcfa9bdba7cdcdcade9dedcdcddcedaeefbcccbbcbaccecc8ebbedcb897dab9aa57ab6a5cc7
col34:   ba87a39d9bdcacbaaadaadbdbadcaab7bbdc9bee9afcddee7bc9b9a9cab9c8ba99ab8ab3e988b97a
col35:   bbdaca6ba95bece9bcacbccbc4dbbdd7ab8bb7cb6bdbff7baec8bac9cfccccfba9beababbc8a9964
col36:   b99d968ccab6b7ddab9baeaddddcc89acebd9dbadbbdfbacdadd878a99de989cb8ae888bbc99aa97
col37:   7a7eccdcfcbad9ebbeaeafecdecfaffabcaefcbbadcadabab9dceacd99eaecb9cbaa9bababbe9867
col38:   8b9dd98abaecfd5b789a9b9aa9ddacafabecdafca9cbd8ebbdebcffa7d8baca9a99bbac9ecbb9792
col39:   b6bcbaaac7aadcfbcac87abafdbfaaabf7ee9eaedcfddcabe8cacc9ddbeddadc8dccd8c7debabd7b
col40:   b9da7a99aad7c6b9dacbcaaaaeb9eccbdcaafefbfccfd8eacbbbfbded7bc9bbb7b7eb8b87aca8b99
col41:   ebacfb7bc9cabdedacabcadcbfdbcdeccea9cdaf9bcccedbafd9dcbc9f9a8ca9aedbcb99bbaa4caa
col42:   8e88c9bf7fa9adad99dacc7dbb98bcad98fdbbccf8eacaccfc7a9ec78cda9afb99aaaa9aad8b47d8
col43:   8c4c8ccfedcaaacbdebdbdcaec99cfbcbfcddbd9ebbbfcdcfacdaedaeccadd996cda8cabd927a8bb
col44:   9bb9dee9daeedbcaad8f9ebdceacdebe9ceacdcdeb99adcdedcdbbafede9cca887b6f9cbdb9baaba
col45:   aeaecfbbba8ecab99dfdcccce99faddbafbbeebfc8fbcffeafecbcd79ccbd7b7d85a7a9c9b9bea66
col46:   cca99cbbbd7a7fbcb9cbabdccdb79cdfd8aedbbcee6c7cc9abafca9989bcbc7b6adcccbcd8b7f665
col47:   cc9fa679acc98daccbfcadbc99fbcb8e7af99feeabdcca9ebc9b9bfd9cbbadaebbebaee78a58ab46
col48:   f8f9cb9ad978ddba89accccab79dacaedccbd9aefdfacbdbfddaceabcbdbd6c8aa888b9cbebdbca9
col49:   8adca9d9cfcafedc6bba9ccbbcdeafbfffcfaccdbaecdcdbda99bc6be9eacadae8e96debcb5a6ca8
col50:   dcdfcdbd9bbdecdcafbfafcbfccbfc99cdbd88dbacc9eda9f9e8eab8bacbaad9ca6a98e987c77889
col51:   bb9997a68948ac99ca8d38ab77c8a8a79e8dad99c758dcd98aeccb9b888b6899999ab8b77b778954
ROC:	 BPix_BmO_SEC7_LYR3_LDR18F_MOD4_ROC9
col00:   a78ead99169877b8a6388b6aaa7a858867d38a97b887a66a8869ac67858b9baa4598bc768875a8d5
col01:   9b98a6ba9b999bdc8acc5899a9abbccb48c9adbb5cbb88e8aab95b59daa78baa74caac6cad99aab5
col02:   6abbb9b99bbd3a87b76b696aef8978b88aba9ce6ab658aadbdbd977ba8daa8b9dc76e897aa979868
col03:   7a8da78b798a1e97a8ba9aae9899b88ada9c899bba9bbd99c666a79b94599b77bc59baab9aa77cb7
col04:   99a76a9788aa798bbab55a98a8879d99a9889dc99a6ee998baa87bddb8bd8b697c4a8a5c9d7973c6
col05:   869da78b796d88798d7fcabcbb98caddebe8cabcfbcc8bcac894acadcddc6bbab78b987b87da7689
col06:   9997ad7aacb97a88796d985ce8b56c9eb878bebabaacbbbfc788cd5a969ab8a9cdb5d8ca8aba7b9c
col07:   979b8a8b9b466a79bc98b77d98e87ab7689b7fab89ba9d86b9fdd9e88ce796a9ba6c869bab9979ba
col08:   6987c7c83b7a949ca9d77bbb6a698ac7c8ba9ca9b98989bdebbcd4e8baba9cd8b8a88bb8abb8a879
col09:   b9a878a8ccabbbd6c78a99babdecabc9bcab7ba98abbdaddedc9eaa7d7da998eb979a89697bb986a
col10:   8a959877a9cb98bccbbc5becb89b998897eb8ac8a879bc879cc9d3a95cdda69b9978b9ceab88cab3
col11:   c4b5a97a98b6d75bca8ae9d8649bc97d995b7ca8abdb7dbb8ba9b9cabe9ba879ca87798a788a7978
col12:   7888bb98a989a788a7c85a8998c798aa75aaa8a9a9ade7acb79e66d8bcb8dbd7a576bda98deb9786
col13:   6a8767cd8a5a9aa5dd88baabb8bdbc6b99aa9a9c98bc87addbaaebdbb9c9bb78a896aae96b8c9677
col14:   48a88a767789a877599a987995ccf8a9b8968bc9eb9789ba8b7ca8cac79d997988bd969a8a9986a2
col15:   a69b4a58a79a78d9ab6a9d98aa978bca9bc9989daaab8c38b7eea7a9e89ccaa58b96b6ecdb9929ba
col16:   58649a88b6a8879a785ca9accbadc7abb7abbb8ac8acacbab9c89cbad9968ccd7aa699c9d787a593
col17:   68695888888556ebdb59a998cadcc69c899d4bd6bbf5baaca7bb8bacb78a7bbb6cb8b67d796a8a86
col18:   77a8d96a7b877576b946ad8668a9b7dfde698dc4c9ad27a76aaaa8cac89cbcbdda899bd568668974
col19:   8748a98a658ce8ab58c9bd77aa8beccaaabbbb7bd99ce9acade69c9eb79bca8aadc9a9c8afa697c6
col20:   bc96a8a6a89a6547679b8a7989a4b879ab69869cab8589b9989c9a87fbccacbccbc74ca6b7984a68
col21:   687497b998999a88996a9ab7cd3d9a97b8a7ab98ada9eddc788a7d8ab7edcdca4b68c79887a9b596
col22:   499bc688787728874895ae89ba7c797888bca7d9a988a999fa7a7ce8cd887d987a7d784db5aa7869
col23:   8c97878686a9199a5b9bbab8bcab85999f8bc9b9aeb99b8cdeceae97b7c98d7b66a99ea9a898569c
col24:   9628668775767897b988a69b8aab4787caab99b8a7a899598aacb78a48da7a7caa75556985f7b789
col25:   49b9b64b87a89699ea98698d899896dbaa8b7ba8bd97ac979c9fb9aa7cbd9a889a6b789986e89998
col26:   ac7b5aaa8999da5b9ca7b7b7c8deaca99a88babb9c7bfdcdbfbcfdebdbb9caeecbbbda79b997c98a
col27:   6c38ba97bbc8a8aa9b8c85a8abd99eccec9cd7cafdbcc9ecffbbfa7ab9bce6bab8cbefaac98baa97
col28:   d8995858bba9bc9a6db8ecdabb98ae97aafcaabcccee9eda5aacaafcefabebde8bc7dca74a7bb995
col29:   a88cc6caaab9989baeab87abaadcce9bfbfb9cccbdcbbdedccb98afcbcb7dcda9cbb8da8f77c8bc3
col30:   6868a65ba95a85bbb9e9fa9bba9bbabcabd68fa899cda9ece6fabab9adba88edcbb6896bcbbb9788
col31:   d7c66b966b8ecbc7dbe9bcb9cccefc8cccc9bdeeffdadececab9acccdc9ccc98aa7bcf9e9aabaa88
col32:   8aa89b9a9789ccfbcdb6b5ecdac78dc77baaad99ceeef8e9998cbcdfdbaad8a89e9a8bbe9ea99bb8
col33:   999dcb9cb7da99ea9cdbadc9ef9d6bbdb7aafaeaadccdcf7dfbdccbdbcafadc789bdcd8adc7aad88
col34:   c5968bbd7ca98a89c8a94acdbbdecda8bdbdcccb8c999dde6ecedefbdcbdbebaba9a9abe7867dca8
col35:   a7bb957ea6d9d9dabbabbf8b9bddeae7b8cccad9cacdbaed6ec9cbcc8be9dcabc9ab9ababc99e8ab
col36:   a889a5d8ad8ccbe3ec8b8bb6cb99acbb897b96cdcbacbc6fedcfeb9bdaadbabaeb8ebbbcb9cf9c86
col37:   9c8b8aaacbacc9dacfaeaafdcbad8edbadbecbecafcfafbdd8be8caebcedbfecbdccfbcddbda7bca
col38:   aab6adb7f5c9eb78ced9adafdafede9ef9bdebb9cafa9bbfa9ebfcaeda98ecacacd8a3db9abfa8ac
col39:   98a98b9e8b7cbafb989986ffdceaaddfff9bcba9bbd7eecaddddaedaddcbeafdbbbdfdaddbe9f87b
col40:   caabb889ab65bc8cacc9abd5edcbcaca8bfdcecd8dcea99efdaadaad9aaa8af9edc9be8adadcaa85
col41:   f467ad9b98a79e8cca7cde9cecaeabdccafdeadbdbdf8dacfcedf9dfefacc7a9fab88bbabbe97cac
col42:   8bd5d97aac8bda9cab9baaed7fada9badcdaadfedcccfbda9be7d9fdfccbaab8adef68bb9c8bcba7
col43:   85a6e8cfbd7cdadccdd9dcadcaddecefbcaafdcbccfaffefdcb6cceadadcdd7bbbfbbbc999988ac9
col44:   cd3a8bc8a9a9faeabb7abace99aaebd7c8bafe9fceeabbcedaeebfdefccaecbabf9fa89eb99bcad6
col45:   c6cbcdddbaabcfb7dbab9acfddcdfb9aff8bbdd9bcafeebaafc9fcadfcfcaefa79a7c98deda9ad8a
col46:   a9698989c89c29a8adcde889bdcb67dcbcbf99b89cdeffd9cdac98ebbfbdcdb8abaaddf79be6aa9c
col47:   88b5caabb4ab9edb7a88bdcecaebbfccbfefaadede8eddabedccafbdba9fffacea7afccc9eca7a77
col48:   bbbc6686f78dbaa79fa7edbdbcdbcdaddd9baccedca7ad79fc7a6edbdb9b9bf9d9da85adeb9bf889
col49:   89abaaada9bc79bc8bec9afbccbacbcc8cbafecafbedbb9bb7aca9dfadba7fddcad9adc89bd98939
col50:   a99abec8a8beaad9ad8bcdab5b98ccbeabcae9e9dfe9becdcebacfefcb8d89bccbd8ebbafdba9a98
col51:   75668ab8cd3a8c8a98a9ba99c99ac85abd7b778957b98e859896879ab9c9b8999799dcc97987cac5
ROC:	 BPix_BmO_SEC7_LYR3_LDR18F_MOD4_ROC10
col00:   a58887b5a98aa98aa97898778aaa3a678a598ab56689965938a99799799aa866a78a799839484896
col01:   8d3aa99bc98b977967779acdac999b9cabed99ac89b9b7bc9879b86caa65ebda9a87aa88687a8479
col02:   9689966b997d6aa89abb79c8b58979caabb97a8c8bae7abcabcaa9c6a9b9b78fac2c9873977896ba
col03:   aa999694cbcbb69b9a9bdc8b8aa65aadeca8c67bccbba98a989899c9cc8968ad6cbb97689abaa976
col04:   9aaaacb6cb89b889bca9b89ab98a8d8b98dbaa4c8aa99cba9d9baa7a968bac8b897c99b8957a6888
col05:   a9997b95979b9bacc86dbb9adabbbadca88ac9d7d7bcb7ebcb9cb8ae56b6dbb7ab57dba6a88878b5
col06:   8ca8895bc95ddb9dba5aa58abdd7cbd57adaa7b6cb9da9bac7ed9ad7d9ce99adba96889acb6e49ba
col07:   bae97977748a98a8a8da9bb88b7bc99aba5abcda8aacddccad8a9abe8a9bbb99cab885b962c39968
col08:   98ba549ca8cacaeac96b6b99a999d9bbeaddd8adb789a8a59b9776895cbba7bc967cc679a8876593
col09:   89f788aeabb9b7aea6a6c9bd8bc8cc9bcc9cdcbbdadca9bf7df99fbcbc8accd8879a88b59c9c6838
col10:   c9a87666b4b979a89c5ab8cbbb8ca97899b8a9bcbfbbc6ca79cbaaa8fc9ae76b3b688bb787878757
col11:   6b978c798b8a5999aa7997c8bb9ae897caada8dc9da999897b6bc8ba88e9daa8b7d979a9b67b78b6
col12:   c966cd85448bd6993799b983a68ac8a7a7bab9a98ca8a788c6796acba8ad96bcca86a8abb78ab5a4
col13:   9b87b97879aa8bbb68bc988b9ea9d7bcedccc9b8cb7b6cc8bafaa7cdb9ce98a9bd98a69886a69997
col14:   899a99b98d7a98ba68ba868bd9d8caebbdababa9ac9c9bb87aabbbb97bdc9a3da9898a7b68788959
col15:   8ca8a99ca9a6bc6979bba899babebccebe78ad97d5acc7b9b9bcaaeb7d9acd9a987a66a4a86687a8
col16:   b6e8a8958698979aeda7bd89ba9cc8aba88caaa99969a7ac6ab6ba8bb8aacb85a89779b586a98b55
col17:   896aa7bcba879ba9b9989b9aaba8afbac9cca56aa4aabed9a7bb8ababd7b989baa94a98ab6a77668
col18:   9b79b67b7aa589b998bcb956987dc99a9bbcbbb8b87998bd889b5aaa9ddd859a88a5ba8797799695
col19:   68a7ab9ba838ab9bbb87bbcaacab9dccd9a89a9ab8cfd7e8adb4badbb7aabbcbbab87bb89a7a9798
col20:   99c6c8aa69b977c7ca88b5b9c98a6aadb99c987a9a9af9ec8dabaf4caac88a79bb7699a979898986
col21:   9d869a7a5b69aa97d8ca98faba98baab9baac9bbc8db9da8facaf989a6bbaa89778dc89bb7698857
col22:   99abb6b378976cba9b89ccc6bcc7d7dbb7a87abc5b45caaa8cdb7b9e9bc8a87b8ac8b86b689d9ab6
col23:   c9985b79aaa79cab88c898aabbadaa9b8dda8aa9adc5698aaeb97ddbbacb8897ac87d78789bb696a
col24:   55ac6597cbc7eccb99eaae8caaaaa9ea8bacab787dab9b3abaa8bfbb88ac9daa6a8a7ab9b696bd63
col25:   894c8ba7b79aa8cac98aa97c97adc888aef4a9cc99a8bda86abcbcbb79abaab6aaa6badcba75a7a8
col26:   898ba979d9eba8dc988cbacb9bbdbcaae89aebbb76bdbcfcfdfbafdfcdaaa989da9aa8bad6fb7959
col27:   96c499a9896ebd9bccbabbccdcb96e9bb9eea8ad99befbeba9cc9ad6aea8ba8a99689ab67adac868
col28:   dda9dba5ada9baabaebabbbbb8cacaaab9a6adbdcbdbacdcf8f59ebbdbddacd8a9b9bd8a9a7989aa
col29:   8baabc7a9cdbc9bc7d9bcdbcfcacab7afabad8ed9dcabdbacf9cccfaf8bbffddc8bbc8c96899b9c5
col30:   d9b8989b799bbc6daada9e9de9bacbaa9bba9caabdace7bbb9acccaabbd9d9cbdc79ad9bd76dccbb
col31:   fcbdcceefbdcc9dcf9acadeefcbfc9cd99aa9779a89bfffe9ccaebcdcec9fddba8afc8da986b7ab8
col32:   ca7ac9b997c7cdeafc99cbdfbaadeddcdf7f9a5eccbfabbad99ea9bafd9dccb89ac8aecbaababdb5
col33:   abb978aadcbcbddbdccecdf999c8a78cf7abfdccbcafacedcfedfeabbefaafb8ca8a9ca8c968c9ba
col34:   99daa9979ac878febeddbaa8ddddc9aa77a9cdbbcedcbbaabab9bafcadbfd8a9cb7cca99acdcaaaa
col35:   99cb8bbaabdf8a9dcbcbfc7cdccdecf9eafaa9aeabbddff9ccf8caafbdda8c8ddca9cccdaadd99d6
col36:   ab9a9bcda6acacdcbbc8b88dfebbcaffdbeecafeec8e7a9fe9bcacabbdccc9f8ad87d7f688f8aa99
col37:   eaeeea8dabdcaaedee9aff9cbcacacecbdeceffefacacdbddffeddbdfcecda8badfcbbe99a8c779b
col38:   9d8fdae79ccb8bb9bbbdccbbbc9cbbbdcbdcdccbabcdcccecadbb9d9fdbafbabb8abbb9bc9dcbdac
col39:   a9bab9abdcbdcf9cdacdbaeffabffffaedefeedc9ccddfb8eeddbdecfbbabdbcdd8c97c9dd7aba99
col40:   ab9ccedcbcdc9be6adbfdcbdbebccadcc8a8eadefb9fdbdbcdcab97bcde88addadadaa98edacafbd
col41:   89aabbccc7b9bbbcbac6ccbacefadebfcdbfdaeaddbbdcdecfbdebfbafd8c9dcbcbacaedf9cbbbd9
col42:   9daadfdbcfbbadd9cddbcabcdfabc999ccddeeaacdddeaec9fecaecddcbcadcacc8eabbbfdb8ada9
col43:   fdbbaabadbbfaafcbdafdccaccbeedafbcefbc9df9ecfeec8f8bbd8bd5cc9abbfcbb9c9dcbbdcba9
col44:   ab9ef999febc6decbc6dcafbbeceeacb9deefd9fdfccdbbb9dedebffcdfefda9cb7eaa9a8cdbadc7
col45:   6be7cabdbfadfafebfadfeacb9fcdfcbbceceedd9fcddadb8bcba7badeeabc9dbe9baabccababdd7
col46:   9db9acccd98d8bc9a9bbc8aba7acbcebdfbbcadcbdeddcc8efba8ac9babca9aa8ada8afadbbacbe9
col47:   c8caea8cdfba9dfcdcc7caabaaca89ffedaaccbcbccebeadfcaebccdbccafb99bec7d58bbbbad699
col48:   e88ba9acc8bb9eb998cbbddadbcb8ceccedbb9a8ad9e9ceddabfcc9eceebecacfafccccc9e9b7d97
col49:   99a8c97abdbebddcfa9ccd6ecdcadfafcf6eba6cbbccefabcbbb96dc9efae9cb95bdbbcebf66ebb5
col50:   89a7e7baeba8edb999caadd89d957b8dbaddc8c9cbfedfceabd7cffabae9d79c9bbc759dcccb89b5
col51:   78c868baa98a7c99aacc7cb9b6ab94cbcca5baa89bccc99d9a8fc88e66c789b9a97cacaba86b697b
ROC:	 BPix_BmO_SEC7_LYR3_LDR18F_MOD4_ROC11
col00:   57765488426465795716657889428568895677aa5963985687c8ac59274944876757579666856534
col01:   55a7a9b7595c563a97b767696587d8a9aab984b8a87a8a8e985eb88979998ba4858c587597827896
col02:   7a7b8b7396956987a977818689ba496d77698a9b6c5a789b5b778a6c749acd9a99887685a7396217
col03:   a4a94578296a4675ab978aa8c7b979a898b47a986498ac6a8aaba78b696858979797976b57673887
col04:   869228596689777766c9c9b7976db7b98a7b596ab56b67b7a998c777885bd7648bb86559b9748a79
col05:   94a6668978a788569669957788785cacb88baa984aa9d8b75766673687b779995b4a9989b8787654
col06:   57a668859987789569c7a9b9b6ba8988778b6b7cb6a79a6a5465679c9a67bcb7878a7664b8569669
col07:   5847635567b86aa7aa98a6796985e6a86a9ba97c97a59ebb699a776a99b88c65a568a995878659a3
col08:   6446766556766664777998968494d6887438c7669586968b96d477566b8898588a887a36ca745574
col09:   2973978996a98b879947c7997787b7d9ab956ca98999aa7a79a9bbb9657a9ab78a47a97766487a55
col10:   698538567796a98a16a6685497799685a7995b8b67968a968787597c7a7c39a989588a4d49797577
col11:   2756498485a87967688885983a9a6ad7757cb849277b98879aaa79867a9887cb7a875a69754986a4
col12:   858178d867787968377bc997b8ab38669c866788b9bbc7aa6988d78a76977c6d979aa57b98656826
col13:   8576579476596776b887699887678787bb7ba986a998ac767a735899c7ab9a7698a46aa78b976873
col14:   96558485866568457893969797b9c7c975b58aba89a88796a4b49888b989a5aa6b6a775786556572
col15:   973675745aa4975a88c476787789a84869bbaa96777dc79a778a7685a99ca8b87a58a46744797684
col16:   1864a68957a5b6787458498987874877ab9a765a96a9c797559e7a9a6869978a9985a888b9556285
col17:   7644a157663386664264648859656497783c878c7777687ba9985645867a5aa69c445c7686685493
col18:   61588448348876a5a869868877a78889a964bb949986689ca37597773a74488aa8a7897967699547
col19:   d2b4457a9a8679763a7678a8467776a67898987b5c55a9a64966976b7a67888a789856b6a6787987
col20:   4555663854398756987a7aa6aa568996459966c8a6a98a555959a8599aa67ba45674865867599787
col21:   2156648869885a2756798a787787a95a497b787a898947a9ac89988ab7a8c64b5b69684dd75b9473
col22:   652588855497aab9a76a68a86556687a976758a796a35679c6cc7a76776886b68775458767869487
col23:   78677378674849867268767649896a979867977986a687a9749835998889568575676b8743968974
col24:   464987239387bb26885566569a5a8867ba9c777aa8697776447843777534aa259667696a37389395
col25:   7997763689a66a976b4a969898ca88946bb77a799bb999ae6988b877b9a656865678a87666b65476
col26:   ea6a8a98868b46a8ca87bb87987987b8da8aa6985c899bd9a8cd9a477a987b798c98c9689895e795
col27:   86598978578783a98978887b79c8bc89ab9eab7f9a89697a9969a98fb8b5a988a9e5497b566a693b
col28:   7659a695886aababa9abaca8859998aec9a8cc9798bfa979aab98bc6c66c889795b687a579a99697
col29:   5895467587785a98b3c978ca879998ca6a7ae7bb86a89acba99b9dd685988777ba777aaad6896d68
col30:   a4856769baa8b89ac77999b88ad299ccaa9acac8aaa9d9c7ac779cc8aca8976a899bab9899783636
col31:   8aa566aaba5557bc855bac98a7e998777cbcc6c99a8a899d9bc79ca8c8e9a39b78874bcdb759c6b4
col32:   6b665c69c859b9888a7788888968b5b6b96a8adfaf686d7aaa987bb797bd7e8dd67a76a9ac29c878
col33:   684629a9699a866c8898bcc7a948a8a9b7aa9abb87c8aab9aaa9799b98d8bd8cb988894aab698ba3
col34:   86587b9a4777a797ab88a89a795a9ac88bea8a87a869dc9cbaa5697aac8cd776a98585a885a98866
col35:   9616a8b8874aa97a99976999c99daba8baac9d788a9c968a9acd9acca8ade79cbcaca6875798c677
col36:   87aa8798478a67ce89a7ee699a7c9fbcbc987c9863998a8b8bb4a7a8cc99cb99a989b673897cc76b
col37:   79a88776c9676aba5aaa6795b8b8acbca7959a9b8caaaabb7a8babe99bccaa686c89977ba68a9ab9
col38:   59669c7a8a599aa87c9a9aa8ccb7b8cd8ba46bcbb7ab9b9cbbcbd8b959cb8c58acca9ba7a9bb6c77
col39:   7899bbbb897a9b8f78da879aca6bc8aea9999c8cbcbfed9dda9cda8badbbdaa58978c6b5c8979575
col40:   8957868a7757bbbb78cbaa8aca9a98ad89a5b8cbc7e7bdfb99db58f7cccbaac8aa7699a7a9b558a9
col41:   977ca9cbab978cdc959979ebdb8b9a9597cdcedcebcc9ddaa9a8b5ddddcabda8eaba99cbb6788864
col42:   75769b76c95a87dca6aa98ca689a979aaa978eaa88ea69977aac78a7cd9ae79c989888a89a888897
col43:   795989989b6cbab9889b99acadd9bc9cbca5c78cc8aacc7a59b8dbb99cecebaabb799bb8449a5989
col44:   985ba8a8885a8c5aab9a8896a99b69fd9fc57cccaa9aa97accd88adaa7bfc8ba8aa77e9a897c8966
col45:   aa979c8768b8988bf78a898bacb9aa89997ccdacbaa88dafad9cbcb79a8cab97eaba968b66bb9876
col46:   c499667bdab769a5a7a87a79a989c7a5c8d6b899baa8eb795ac9c9c7baa7bc5cbbb8a976778679a5
col47:   9a689a7a7747b579d85bbccbb889a8dfb8c7987d8b5caebadcec5bbaa9bc9bdc95cac8b97da94956
col48:   956888899bb5d29a6a9bbbc69b99cca897c98abcaa9cd68998cadf8a8ac97ba8d9ab8baaa8487867
col49:   7b9963c88999b7a6a9bdc899accb9cbbc88bb9a6abb8979dda8a7bc9c9988bdaaa79a76bc9659867
col50:   76c8b8575897b88a8679babd699ce8b8cbd8acc9bbae9b8a5cdaeb9cbc97b6699aa9c8b88767a8ab
col51:   8956b5566279449a74728657968786cb9797a9aac2cab59aca87569a988b76c99989b73966766855
ROC:	 BPix_BmO_SEC7_LYR3_LDR18F_MOD4_ROC12
col00:   8b5646294a64942835756799373776666b866cc75c7795588a78959a7ba7468a8465556795747655
col01:   a87888266979a77599db96bb6a8a97a79da6bc9dad9696a9a99b9b884a97a697aa768da7ba694596
col02:   6545583a2786ad597da48a98a88aa7ba8ba678a66b9c6aa99cb65c5abbbbaa6686b75479bca7aa88
col03:   a4d883785658767988879c6ca48b7c7958ac99b9a969ba5bfab9689c5a8d77b9ab8a4b6aa59a5a77
col04:   98797579584b6b7a99c5977a9b8a8abad695c996a88799797a8a986cab8a9d9b7b597769a97756b9
col05:   577787aa778b67ab98665b9898766a8e686a8f7577468a98968ad9a9bb65a8b7f9aaa5b78879b576
col06:   284a758575cb7478d8a86696b387b869aa99d87a999848878aa853a9bb7a89edbb99ba7949a55a88
col07:   889486a69a6a6998b67e858a85a6da8d67b9bde88a67dab86a784988b67aacc486c78d69897a5788
col08:   a584759635a446c6ad489687ba6b75867b66788c8cc96897caa87ba9997ca66b6898484999a45545
col09:   6bba646a6ad5c98c9c8a68ab6769dba696aa86ab788d7b7a8baaa84bcabb58b77696556a889c6867
col10:   89744b8974664746b7bba89867bc578b8c8a98793879a5ca9bb77a8cd89797a9bc977a7ba89b96a6
col11:   698a974296287ca7859679855c997caab9cb689a7b498ca885887bb92a79b5d48575aa762a866585
col12:   659455594637996695857aa4a8848abd69a69ad8975ca968bf6a69abb5b7877648a88c767a755444
col13:   47a18aa4297847987693a9c8ba9a7876c8ea9aa9a6498a9baa4b8bc959a9889bcda4c76a58a6c775
col14:   7a657326863884b29857784898a8a7859957b969b858ce49a798ba588779ba78b7aa498569378566
col15:   776435952a968a99986b879b8876967aab78948889c6a6cc59967b79986995978c687c985a78a87b
col16:   64586ba7c5b6758d987518b9a94bb28589a9456b988a85587865b5a756a68c997969a977b7a88a68
col17:   4768745656a8838c5763a7ba6687769c7695aa78c86b4a7e48a9caabcbb6db777887cbc878869744
col18:   a65454677a7a7854b4358a54a75877992776aa999c976858767a8c96da27d77c8775a47555986966
col19:   4866aa8785858b761688a7754758816668cbbb79eaca637b86667988abc8b995937b8589783d9546
col20:   65a64433696a5c7b7a69b7a746877688896218b8c9ab77789b7b8c9ba96985876848671973791786
col21:   779978595b8579567bc99d8cd7a7d84ba7c7769baa8b67aa979888eb7d9ac979c75a798c48b597a8
col22:   24744586b644baa6b87717669aa76ba89b66ab979789b828798887396889b466a979477a787a8a45
col23:   757575b5765ac7b78a87979a7788c577b2c4da47ac6897bb49869a99a846a9979aaa979b76979752
col24:   354864465c9647a393999848b7aa7a86696559bd8769787a89bc9a99b84ba695a6966ab879b99884
col25:   695615a985955574c5c88a69ba8a67ac7a8978a7a48bc9bba9b898697c8a9866a68979b7b9779a94
col26:   5865ba9a99899576b657ac8ddb7dae87bcaa79cabbb5997a5aa99bbccd97b7eca7a9a988779e9b97
col27:   95669a6b569a9791dc9b6c9c895b9cb8c6ac9caaaabaeb7d99f9cbb8a98db68ec57ac6bc7ba6aa97
col28:   85777538a34a946dc7aaaab795c99cb9eccca96a8bb8bbac9cacabeaadbbcbd87b799e79768a8b88
col29:   3678645755a794a6aa8ca859778988eacc98cdbb86a67dce8b8c9bdddaac79b9d8b987d5ca8bb696
col30:   47959a59c5a787769a9a77aaa8b69a99cb98baf8acf99d67979a9bec8bc98abaabc9b7caa76ab896
col31:   455b794897b77a7ac77c8e8cadcdacaccdbc9ca7ddbc9bcbb9daa9b98bbb7dcdc9ceb9a9aaa8d675
col32:   6a88998689a9d979b8a9afcb76a8c769d9b7f796596abdb8abbab8a99ac788abdbb9ec8c55a7b995
col33:   ab5859b2a57ac688789b8b7cac9acb8d6bcaa9fbb88bba9dcdcbb7ccbfcacbccaabab99b9aaa77a7
col34:   56389375aa99669a68a8db6aca49acadbac7af9be9bc65c59eb6dfbdbbebc67997ad5dc77ac6687c
col35:   d6b646996b3959b84c87ac9b5cabac8bb65bab6aaafbccddccc8bc89ddabb67c9c8b9abba9eb99a9
col36:   1776796879486d9897b9bab7d878a699a7db95afd6bffcaa8d8e99aabc8abb79abb8a77aa8a6a984
col37:   84aa7ca9d7aa7c89a8e578dbbd8b9b9cda8dfafcfa7caeadebcbbbacdcdc98c8de8acb7aa9cd9aa6
col38:   d467389995767a988e8a98b98ccaabcbdbb7badaf9deecad87cae99bbfabfccbcbcbca94ba9c9997
col39:   4783695b7ca9b9d8b6a89b99aacb6dedaaaabbacdce9dabc9ceabdbceceb8dd998cb8ca9a76aa998
col40:   68587869a77a77a9c7ca9699cb89bcbbcdcaaecbdcacc99abb7e79dcafca9dbabbbc8dcaebba898a
col41:   686d89988b8b8ad88bcbb7db97b996bdf9fdd6b79cbbbbcbdec9bdecacdeda9abe998cd998aa88b6
col42:   b668c9b9765b6cab89b9d7bdbebcdba7b9b9a9e6bcc8b8cbbbfa8e7abcceedada8a497aca9edaaa5
col43:   97a9c8cad59c8b49bcc9ea8bdbadefbfcfcbca9ae8bf89daca9edd6ecdfcbbdaba6dba7b987b8ab8
col44:   b857a599d756559c95a98dcaacac9cde9db7bafadaad99aba89bbbabd6bb9a7ccaabbd89cbab879b
col45:   9cc76b7a7c65c889caddcb79cbebe9baaae7ea8eadad9bcdcbf9a8cb8a9d9c8979bcc8a8ccef9c68
col46:   a77b1698877498bbba6aab88caeba88cb68aa7689cbbddeb7eccccaac9cba77bc7bafb9bb99a6e99
col47:   896969c948a497a95b975aaab8dadcdcabab86abc7bd8fbfdeddccddccff988a9cdba9986abe9a77
col48:   c977945bbcba66ba896cb8bb9baacb4fcd9daab88ceeda9adae9db9dddccabb8f78bc9b8da9587ac
col49:   6b7aa8b8cba98e8e5d759bba7dd5aa7bcdeacf99bac99c7b9ebeadacc8aba899c79bda9bbceb7d99
col50:   48b89576779e97fbca9866c66cdbca6abbbddaedaabcb9bcbeb8a9ec9bec999bac9ddc7868c88987
col51:   16895593668867358476aab896279a6aab8678676998ab77ca686baba589ba98bb47b575798a88c8
ROC:	 BPix_BmO_SEC7_LYR3_LDR18F_MOD4_ROC13
col00:   88689a8858896856a4a587c79a7bd3c84596bb5cd8b68657d8a9657689852a5ad947679497356a81
col01:   759ad98a486ba98596777c6989a96dbda7e87ca997a396aa8a94ae9f5ac9aa667c4ba96b95666191
col02:   888789a94c87b7755596c5756ba7aa67988ba8886878ba5497a877469797867aa99588bab6646965
col03:   987c8bae589c7bab6857ba49be887a9a7adb7bde4ecb8eb8879989abaa9a9896996bac847938dabb
col04:   7a65894868795b987a995a85b6db6bbc9a77c8a9ae77977e6aa8ad9bea83c7c948a786f683d64a96
col05:   66868a57c79676ba9c9ab736aa998a8af889eebbd9e7d5bfeea868ad7bcca8688b97b641a79b6554
col06:   983e8a9a78a4398667c7aa8bd887eccde9a8dbaa778b7acd5fe8667d8998984abc78b9a25a6d67b9
col07:   499f5a98cb798cca6b98aa999bebbbed9bad97ca6a668875c77f9aed9c98968b96939a6636855688
col08:   575566962837879ba99a8bd8848ab77b5ab68b9a488b989afd87e93c4978a7ac8b478819ab8b7497
col09:   ca7675689597c17daa79b95897ec79cca9aba9b9a69dad7cab94c8ac8afbdd996897897a99ab8573
col10:   624ca67cb6aaa6d976bad97abd98894e9d7888ab9c8a997c5c64999be9b96a75456788b5377c8363
col11:   76675d78494988ca868a697ac87d8beaa89c8a7e95a89aab6d99a8858c968a57a89955b559438a31
col12:   c745793859a8b95b868aabc89795ba5dcbbcb85bbaac8c17b55ad9668ab8d589b778b676675a6a74
col13:   e5953735e649a77bcdca8b885baac5cbd9c66af9c89c69b69aa9ee6aa8b5b959aa887976a9d86b89
col14:   a19a86648a9b9ba68cada77c5ac776a69cd869e5b7ac98aaa494a7c7ac86aa79788a833b6a796662
col15:   67a2798978ba8bba29999ab9c9b87789d8eac99b9ba6ac618a86d76979bc46ac88759979574a9677
col16:   98a8ca377ab7966d9aeb9a3b88968cb699f98bccc7cb96867669675ca595e97db47b58638b43a265
col17:   18d55847a45479b838a68679a6bb48b884b9ac9688b6a85a79a9bb578999865b7956692963366552
col18:   778297c5866badabca58698b775d68b8b9929b95cc785cba97b5b69a9a79b8bb69d7893b565a68a4
col19:   b95649689494817d8cb99897d76d9b7c8bc84766b5797cc7b88a6bb6cb6897555853a4386659b366
col20:   6975595a6a3899d9958867a944773a898966bc767769774787496688985ab9983d95846497377637
col21:   497894879babc68848bc49bbc996a97a856da65a778ecb75bcbbd79974abb9d6a797587b96378f95
col22:   47457a9c6bb66c98e668a8b8caded6dad8876adaa9fc9a5cac758ba88b96abb9678983b876ac6a73
col23:   63758b3787c987a4888bac8d95d799d699b9e9cc59c8739aa9776af8c78a6b4a67439275b7755958
col24:   77977877886a99ab999a79ccc7b8cf5cc87c899475d9da6b8a8d7b668ac8aa665aa9a856595b5827
col25:   979699776a667baaab68abc7abba99abf9c98a88ccac9986b9897cab889a7c6a7a883c8699947874
col26:   898db697c9abb88bb97bfbc9788a48dbcefdc8eba8bb97e9baa86ccc7caddfdc8abb8a96697989c5
col27:   6ba66b85bde888b8fbd69f9ab997c9c99cb9eba9d9dad5bd9ebabda8c8a888993bf3cba73a973867
col28:   885995a4a97966acdbacc7ebecaa8beaafdbebd58b6aebd78deb7bad67f9abfc98ca9489747a6ee5
col29:   cb8a6d66998c8b8dbb9bcbabccc67c99fcabbedfaaa68aaba7e7c9ae5a7cbc8bcacbf847baa7ba87
col30:   7cc5b89ca95b8dc89b9af77cccbc79c95a8e6ac69cab4aadc89bd7c8bccaafb3af9aa9a966867c86
col31:   888496b86aa9b7becc897f68cbbc7dcc5b8accaab8c97b8a9d5acde9afbf8abc9d7d67b86f727b98
col32:   ab788a6bbada8de8fdcca8aaac9c96e9cce7bddbcbc99bdcdcad7c977e9cb9eeaaa6d5db86979ba7
col33:   bdd7baccaad5c8acbcceb8a8aacaedbccbbfc9bacedcfcafbfbf9bacde5fa9de7d39bb9acc9bd96b
col34:   7adb8fc77a8a8ac99cc89a7bbdeaabb799f8eacbdfe8abaadaf98a9f9ccababbad799ab878b97925
col35:   c6b9d889bb89dfecca89c9888acddeac8fafeaecefe9ef99fdda9badac9caaddadc9b2ac8abcc6b7
col36:   6a8a9b69c8999a9cd7badefbcabbae9bdbabd7bcafc8a99c9dfcdcdd7b8abac6ac9cb7fa979ab7a4
col37:   9bbb758caaac87dbc76ecdeccdbaa9d899babddeb7bcd88badbfebbffcca7fdeae8c9ad9e8759879
col38:   8dc97a77a97b9acbaaa9fc97a8bbe88abacebdfcbcdaacf9f9a5c998bc8bacaab6bc9c897bcba9d6
col39:   cab6729e59da9eefdc6f99b9eb9caacfdfa8fbdcadb7fbfdcd9ceffcd7d598fa9cd8a8b974a7d69b
col40:   9c926b86799eccb69d99cc7adbb599adacb9bd8bc79decdbbd99badecbfffd9889879b887bbabac8
col41:   d878d7c2ead9899a97acc996ecbca99d8d9bcccadbacdfccccbdacadbfca99dab6ba9d99abca6bac
col42:   baf46a89d86ccb88947ba6ba998dd87ead7cda8cbc99dccb9acac9abdffae669ab9ac66c8785da94
col43:   b9b589a7aab8eab5bda6939bbbcb7bfca6df8cdcc89aaaadfcefcacbcdfacbacac8c857a79a7eba6
col44:   b92d689d57caadf7cabc99ff7ea9bfce9edbcbacdcb9eecb9cddd9ca8fbbfddfde9c9a9bcbae9aa5
col45:   8c97bbc8b8cdaabcbfbad6babcad7abbdfdcddcdcbde6bbbaba69eabbadb9bce8ecce7bd8784b9da
col46:   8879df98c8ce9aabdb8ababbd9cfcdd78bb9ddaddcfba9cd8cbd9aceecdddaacdb9bc89acaa976a7
col47:   a79a7aebb98ccbd8aceb9c9b8badbfddafdccbf9bdaca999cc9c9ab6d7eccdebdab99d67aaa9b855
col48:   67cc7c99aa9a84aca78acabfbcd77d97bb9bafecb7dbceaeefbcdcd5caba98dcc8aaa9bedbaa977a
col49:   7caa94a999baba6aa9baff99aadaacea88fcbfaaf6eaba89c9dbfad9dcba6dccbbed676da9a96c46
col50:   7bac2c8bbaa98aadb9faeb85bdabbdabfbcecbede97b9cfb99da9cc7cb9a7d8ba747bb98b9d8cebe
col51:   76b67ba748ed3964b7ca9969a679adae48799c9ca75b8a5ca87cab86ca88a4a86789d98bb9b88666
ROC:	 BPix_BmO_SEC7_LYR3_LDR18F_MOD4_ROC14
col00:   26547486a4726758ab7636aab963a4979c349953c64b548385769a386a7679a48773799251796641
col01:   59876736658935698b769879c7a7b6b85a7baabba86cb7cadadadc789b89c5a69d8dab9a34965675
col02:   551b2382448975ea8cc6ac7a886bc8c49dfb7d8c8caa598a6ad799683f59969776aa97646b468a93
col03:   44ca548855797a939573d798958585a89c8b8a684a77a587a8b878fbc9eba877999985868726a897
col04:   6778656558767a958999a964baab9a9b596cc57887cce9dbbaa8a5ba9d74c97c7c978a77da9935a5
col05:   654659867b59b593a9b6859c749a96678d1ba9d9e569ac897cbb87978ee87a8bb69843d57bb44ca2
col06:   4573355a267489b446938b8b987ed87ac4af878ba9bafbcdf9f798b98aa899ca9ed6a8779887b639
col07:   c22584899d7688b3185db65688d798bd977bb7a987fcdac5848abc766897dbbb954979788a397894
col08:   7d5a69119a7325458876a165ba6649b8a7aa8a6cc78b7b5b89899ab78eadf978987b797878179765
col09:   1867787957a36877aa814ab9949b96896cbfcdcbeabdbac7b86b8ea9f97748a77c855b977893343a
col10:   246669259788a6a49a73b97bab97ba6ad48e9d77b3c9c8cbb548ad89ac689fdb97ba5a857b648953
col11:   8679428763711b6b8a79977746caf69b8a68b7b7d449bddc8da7e88eba7d994a575c46975aa98496
col12:   a51a6174388bb728d6d8b398accfda89998795b86588a66be4d89cbdab98c789ca49e8b763c88663
col13:   78bc374a2557a8654976a6738886996ac8697bb79b69d8ed8ae7aabc58995c7a9a7b5b9c78657384
col14:   76a845a888678b6942773aaa756c58e3a366c87a68cbb98bc9da6689e8a7bb949986739888e46945
col15:   7448a731348ac9553b978c7695989c65b7aac86aa8d9ba88c6867e8cb9c568b966d96d5dc8d87895
col16:   374a2a56451758b737896a64b78b89b839bb6aa7c676ca55ec7a699abc68cc8986799937ba36a9a6
col17:   1757999664985a65837a6757b8ba66dbadd95874aab687ca87755c87978db9663a37766a6a4b5835
col18:   6175483754737476a83a966b88abb457adb8ad969b795bbaaaab49be8a997bb955a48a9b48274874
col19:   58151b88816844857658ba59976796a5bc9ac82c78ba71cb88ab86a9ac2549c6a895b88a54869478
col20:   3375819a4698175775678569b77189a6785698989ccbd4d9979cc9773b597cbb3a69c967b7783433
col21:   8b6962487b9a76777caae96b9cd8decc7bb7d96f98698994adf7ba9697858cde7aa9686a867b5789
col22:   924711a5554ac64a7b566914b78ac869669778f1b7ac857cac98caf787de99967679d598798977a4
col23:   24947b86b74672517879aa69b88946a898886abab895ab9c85a9a8a79ca98f6c9ac5695c73a75486
col24:   5466a723557452377698ac7d878d7cd6ac8b998ec979c9abd9a9b9c57a75c8abe79756835b255ab5
col25:   24ba597997523888785975a6777f99ac79cbaa6a7dacecdd6ccb9aae9b9b995598a27ca567616236
col26:   aa7c858488c975679a877baabdcd9c9a9ad9d9ce7cbaedbc9e5c99d5b5eb9b99dceacb38689b6b88
col27:   46da79489948a89d8e957adb868af89a6aca9bdefae98c6edee7dbc9e5dbb7c8e9ed7bc9652b94c7
col28:   7598b6c55d8785bbc798c9968babe9bccfcd8d77bb89cdba9cb99cca8adedf76bb88cb9d75836666
col29:   4398a78796999c695acdc77878678debb8dadbbbbb8bbbc9a56fbbd5c8876ab9da8a8c64a8a6aab8
col30:   4592788d98a8bfcb89998c879a829cbb5ad7bd8d7fcafdbeb99fda6cd6c7ad7bc6bac7bea5bb3a85
col31:   6a896ba7cbab698cbca5879c59b99badbf7aec7a98bbdfafa8cfbcbecf9dfb9be8993fe59b5a79c5
col32:   4c35d5cfe3c88988b968af8bcab8b8959fbaa9acdd78bbaab7a9aacafaa8cdfaadd7c842ea7d6948
col33:   8825b7a8c7c95aa8ab8c8a7c8a3bb8ddcbcfcccd7eabffaebbaa99f9ec8bfbdb77ccad8cdccbc883
col34:   7755a6a78a9a857fa6a7d9baac9b7ecca88abd7eb9b79799c9ce8fc8ccfdfa9dc68dc8ba957cdad6
col35:   44999cb7398aab79ade9cba7896e9aecdbbbc9acfcbd99e9a9bfe99dbb9c9dab95b7ab8679b97d97
col36:   9a57893bc9a7576da55cb65c89abb5dd899d7b77dbcdbced98a9fac5db7aae997dadbbab8788a8d8
col37:   a76d6ba78bacf8c8fcbf88a6aba7caed9fdace8bee6daf8add8e8adcfcde9b8cebae6b9b98859b78
col38:   ac7b64f5abaa85ae88ed9affc99fddacbc8f9fffcccbfbddee9aebb8aa6c898eebb8dbb9bbb4a6b9
col39:   a97aa4aa75f979bba7aaadfa987eb9cf8a9e6bffadddc9bbc6dabce9ec9aaa3fb87baecce368bc19
col40:   64ebda953cb8d87cfcd4cbaa9bdbfadabbb8779bddddfdbd8cfdd7facfaacfb87b8dead979b6da98
col41:   59db7779adbce6d6cedc777fd8de69dac7cedbcd97b7ccfad9bbcdabaf99eebd96dabbbbb8baaa97
col42:   7854688a48fbbcb9caaa6ba8eab9efcccddfcb8cfdda9ea9fed8cda66e6fbccc9c4f9cca6aa75785
col43:   b4a8bcb469a9d988fb89d89e9bfecafce7fbbbcb8defd5a6cabb9fa8c9cefb6cdb6ccb6dabc6bb76
col44:   a6b995b9ea9fa8aadbaa9cbf8c88ccead8dadedbbbfd9cb99b9c5fbdcca9fbdb6aabdb7d8a5ef7a6
col45:   6bb7acb889966acb8cecda897bdddbdbcd9befdaf9bbcc8bd7debafbfd8edbcc975aa8db69a6d787
col46:   6493deb9d67a9ad6b79d9b9fc69cbbfcabbdeebcfdcc7dbcaaedbc99dd9ad95edbfd8a9cbc7b8aae
col47:   c5bc8ba899ba87d9abba7edebbf6ffc8eacfb7eafdcff8aca8dad9acd96add999d98b667b8c6aa97
col48:   e8a563a8bb9a8ebd945a788a9adace8adc8babf9faabb79ae7eeb9ac97ddca5d78965c89cd7cbc9f
col49:   c779a76ab87b4aba999ad7ca8edeecf9b9acffb9bb99c9ac6cdc8fadbdcbb9ace98b6b9d7b6c6695
col50:   a8a997ba5ada7c974fdde78f9d97bfcebcffcede98ed9dca7eedd7acddad897aada4dcd8b758cba7
col51:   5656977758966bba766833328a95b8ba8d8a999ac698a957897966877a8b8c77d9a595b371555548
ROC:	 BPix_BmO_SEC7_LYR3_LDR18F_MOD4_ROC15
col00:   7487366555656758684264648a7778a445886564a788889795b96854752895849596147685325645
col01:   776745487777783758358b8a57b677a7b5aa9daca8761a4d59a95a975c788976c765978aa9785973
col02:   47273598288976848678976969973765696a9aa6869796aa967a789738668588777696659b675789
col03:   5435986648a326786565745468548977a9ac79664b972557465b768bd9969b5e88648a97a5847773
col04:   64776325856a85667795595865a89588ab68a579689898995b689899767b9436b877492a76b19aa4
col05:   68888878856993588955679656769aacba786868a897a77a96988bac589c59888b96968864676764
col06:   85663d69885277638886a8bc9b75c8576ac6896ab8648c68a69a699a4a9767a59246737738595495
col07:   7436565865648965a86aaa8d89a75dd9a76ba76688988b3b9bdb8c5d95886b87698989767aaac849
col08:   57749644755579916b827a68b54a5879846c988a78858859abb86a6c5a66879a477a77b472779664
col09:   955a597c58764199948647c99ba8a8a887c8a9ba59a9b6897cb768a8978b895a83649b7468347b58
col10:   58978653976968a877c768784a7b7889a885b878657a7788677b6aa8a44bc74799757b5667784963
col11:   8592438887684ca57849a78b8778aa9ada789799ca7a6e58b6c8b4679b8a8787b796879259859576
col12:   565586557397796a6a7d6b6496c875868c7bbb9a4b5a96a94abaa5999a5b6b8aa589c52735a48457
col13:   87745a7957a58a4c3ba6598797878998a686dbb9888b85a36acb8bb8d69868aa6a97d9a968789956
col14:   4787687598858989c6a8ac6ab6c67c68a757986b7ca8967aa6a98d99b8888a7ab97a9d988858a757
col15:   55933a74697aa7936a369b9978a55b9a9aa85889a5976c7c9589a9e9a4897b678ab4a24674785832
col16:   567a59599854797967a96b79658959987747998ba765596a6b8766b79867b48b8a95b66b9539aab7
col17:   557876786688a8a8a567a5879a589a8b77a93a7959683559669889b98a58c5787a48765a87776579
col18:   764266a554587688467c9486986879b87b4a57a9888b66677a76d2a7975878769888b976b8498564
col19:   569375376845c786475c5abab77886bb7a8f4a85a9b6a8a9a89f4a8c9abb6c778688a97356a96a45
col20:   8648568685c7ba8a798879889a66cb568ba785bd985ba57792da58989c777ba67677eab779786786
col21:   5c79678869a8898a7a88756b89576776d7a8b99ac5899ad6a77a8bb8998a6a99698978ad76653a67
col22:   246865696768977859b97a76998b5b979bba9875b7acab998a696b5776998a699aa4897595c37532
col23:   529a64685487389865889a7d77b8ab82c84aa9ba7ab769d6888a5795766aa9848b944786c77a5667
col24:   746a755785b6988a8a94995a4aba8c9c6cb6ab8883578ba8a77997b9366a999998775488877a6776
col25:   7475798b8c97786665a97abbc88abbdaa8b89a89a9c6ca97ca9a48b5a99678a689a6587884388648
col26:   78a9ac97bcb8a7b8798ac97c7687d7bfaccb9c9aabbab99bc7d8ab8b957a7aba86a9976aa5886b79
col27:   77386a4966749aa54bb899a669c799acb9ab5bbaaacb8bdadabaaac5dda5c8adabb8baa968598a8a
col28:   7a7aa9b9797a7ba89a8f97a9b98d579adbaba758ba9ca78698a68e79abddadbb987c999876976bac
col29:   897c569aa99b79fb7babbb8c8d9fc9ae9cb9bbb8dcccdd7bca9b9c789c8ab7dabad9b9b8c6d6aa9a
col30:   995da7788998799b8cba9b58999fa999babc9acbdb6a89aa9a8bce998bacd899b8ab97a889968569
col31:   aa799b8c9979b9989cad8a9c79ccbddba79dab999d8ba8aaebc9b99ce98a9bc598badbca9aa7a8ba
col32:   87da748ba54b8f8aaa89bb9a8ebba9bdd8dedcacdbbbaeebdbeab9bce8dca8658979867ab8a59877
col33:   6894a8a8a8a87abbbbb98ba87a8e8abbbdcc6af99abaddc8c99899c9ab8dab9bacbe888b7c77789b
col34:   59d7daaaca868a5aa787ae89b8cb6e8a9b99fdaecdadbcbceaa99db8bd8afccaaa99a7aba9a7ab88
col35:   66c99a87b798bcda9ac37bbbbeabadce989bcccea9bb8b8c9de9bdaad9dccdc89b99ad978abab99b
col36:   9968a58a77a8a9bcb9b6c9abcc7aaba9ca9999f87caaf7d7decaeaccbbb9cbca7a99bba8a95b867a
col37:   bb7a87a9ae9a3a67a69be98acc8baad99acac9bcaa8beccad8cebabca7cdd969bbaaad6cbbd8d679
col38:   ee6aab68ac9c9aacbcacf8abdbeddcdcd9bd6bfd9e89ebdecaccbcbcaa9caadbdad847999978caa7
col39:   d6ac9cbca67c8bada9b9edbdacafd7cd9cabd7ccbb7cc89eebbacbbcc99bbe8b9aaadbaa9787ca75
col40:   9b98999ba8cd86998a7d9bacc77dbe9a8e96aaca8dedaf5d7dbbdfecafe9bba7cb8aebf689bc98a7
col41:   dcb8abba789cbd9dd7979c7baccacac9eaaccf7acd99cfabafbddacadacafaa9dbdb969a89c6fc99
col42:   b9b97ca88ac9cce8cbbc97b99abeba9c8fa9dccbbccf9a9bcdaaabda8abbbbb6a5999da9bb88c4b7
col43:   c7989a9acab8cc9d8bbcaabfdbbaab9afecda9daddffcdaadddbbadabebccc79baa89abe87ab9ca8
col44:   e9ab8badaa9b9da9bad8c9bbeb7bcddbbcaed9daecdac8acbcefa8b9cdeaacba9c6bed99968bc988
col45:   c978c98fca96babc77ba9bc8eccaccddfbccabae89b7fba9fea9aceceacaebfdb9abecdbaca948a4
col46:   ccacdbb787ccbbee9bbf9c97a9cfffeae8bb9ec7cfacbcefbcbbbbabb9fbbb6cab89c768db8ba996
col47:   9ad8cc6a9cdceb8caacafaa9baea9d8ccdbfbbfca8bbafdbcfceacbabd9ddad99baa893a9eb7796a
col48:   9b9cc8aa898bd8a8c9cbb6ecc9c79cbfaebeaecfadcddebcdbdbedbdbed9abbce688c789c7cab799
col49:   c79eb8bb5dcc8badbaa8cdcddcccc9dacdbfeedcbfdafedcbbecbfadf99fc9acb87ab8aabbf98887
col50:   7adc79aaca69baaceaaa6ebd89a9eafcddcdcdcc9bb8bcd9bdcdccbdecaddbf85cebdcaacab67ba7
col51:   ca75a668898c776aaebbb89adb9ccebac899ba8d9bbbbaa8ceab9b7b99b99a679c8c6a8c99c55a97
