ROC:	 BPix_BmO_SEC3_LYR1_LDR2H_MOD2_ROC4
col00:   61892447474447817657588d876bbba8767b778bbe887978779c9c8baab8db896697aa97c8b675a7
col01:   b8b98b8797a786a46cab799dc689b9eaba9cec8b8dad9d8dc979abc7d6b7b99aa98ca9bbb7b97a84
col02:   47a578787854376aba569a88bcb97ca9b98dd999d5bc8897b98877eaccdb8a8bcab89c6a8cda8ad7
col03:   88757268569b2a8a686e9d8e6bc9a82b8ce8ab75a6bbabe9b8b9cab8887a998acb8cae79b795597c
col04:   675a576549943789c95bab7b45dd68b79b9a7fd9d9c677aadafbd5bbb8fa7988b998ce7c67a86857
col05:   7786d6a966ce766ae79a86988c5dd78a5acad7b88b9cb7bcdaeaea6ab87a8b9cab9acb9b657a9798
col06:   666699a86b7b7aa9a9888c8c9a76a969a9a7bbb8988abdaa7dacba9b6ad9ad8eba8cddd7b599abb9
col07:   687a3687a9cb88baab9b6a3588bdca595aac9faa96b5afd6eacc9c7acb9aa889fdc9dba8aa97a683
col08:   788a78b6a7a888b7aa78b68c8cbcb866acba8ae769a96c8badb9f8e9baba79ba7c6acbbf8acacabd
col09:   6eb956599585994c9588a9aa9c9c9bb8bb988b87899bbdbcbbfccdc9aaabb6bbbabb5559cb76a658
col10:   76867b5798c9969889ca85c8a4baaf6b99dcac979b99db5a9fcc779bdb86ca99fb8e9988ad98aaa7
col11:   a863893b985993b3bc9b67abc9ababa865b886beaa9f69acb96cd88c9cc7a8998a6a7a8a9b8ba4b9
col12:   678766679a3487b97c5cc9997c9adb4b899a68865d699d98a6cda5bc8aac938aa998799987b986d7
col13:   846a65776898c5b7baba873c8c9c9bc888acc7bb798e69cd78bad9d989abca97a889948696c59688
col14:   769957878a967a9899a877b8e6ceb4bdbb8dccacd9cd7a8caea99acba68cb96ccdc93bb48abab987
col15:   457a9a878a77986a97b87a6a9b7daacdccac4abc8abdca8c5c87bc999ba8aad6a9d8b6fab599b7bd
col16:   6358ba4e69ba896a579aac889caa7bd9d7bfa79cc6c76cd6a9a6dbc78897b579a7aaa69a986a76a8
col17:   456757869688bb978979aa89b8bdccb9bac87bad9ebc869bef6abd9a95b976ba7bc78ca89ab56884
col18:   6798777666a8bcc89a69a8c9685abd8b79a9ba9d9eda999eb7998a8868cbcbdc7988ac57bba74b41
col19:   35986a4b756a8867767e988dbab9b6cedab9b9bc896e7ba8deabb8767b9aba8cd89cada9b9b948a8
col20:   7a7898a75aaa968abab9c9a95c988bbddd8cfa9898aabad9aaa9ab87bcdaaaabc969889c7c877aa7
col21:   6f9cc58a6bcb887ba899c977eaa79d8be9d8a6ab78eceaecbada9a9b5ca6baaba8998ba7ad95c77b
col22:   afd8f7876b6b7939bc8b6c97b7bb9c9aa97b998bbb67fad99d7c8eacaa9c9babca966d88963a69aa
col23:   6b8a9c476ac6a8799aabccba8deebc68678d8a5687cfd99bcaebcbe9597a8a78c9cb678ba89a6699
col24:   5645895696a7ba979b67ada8a99e9ee88abac9cc9ba9897ddaf9aca99967dae8c7dd9866c657a953
col25:   97585a799ba766cf99c997698b9949b85cbedfab7965cb9bcb79bb7b97aaca8ba6c99ad88fa55a97
col26:   7c787abc968bcc7bda8999b997b6aac5aaad848b7fc98a98d9edbca9dc99fbcaaa6bfb95a7d78565
col27:   69ca6986dc767dab89ca958ddb9cca8a879bb9b6babdaac6fe9ab8cde7bfcecf9a8fdf97aa6987b5
col28:   7da97b8b976849cabab997aa6cabaa5b7ab5ea9a8a9cae875cbbbfcaefcecdb989abcddd9c9ab767
col29:   96bceabb5ebbcc8daadbbbabacd9caadcdbacb8bbdabf7b8aabbe9bbca978fc9dc8afcdcaa799996
col30:   947a9c99b89ab77d897d9adbabc9aba99c858eb9c898a8a9d8d9b7e8a76e89ee6b8caaa578d8996d
col31:   8ac89ab88bcacab9cfabcadfacdb99bb8cc9cbbba89cefcbdedab7dfe9bab99d9ce98baadaabac9b
col32:   dd7c87a5b9b7cccbbbabbadccbe99b9abbaab8cbcacadcb8ab7efcabbdebe8ada9bd7c897bb7c5fb
col33:   98be98a8cda8cc9fe9ddbbddbccaaccbfeaeabb7de9bce8cdaa76bccc8cb7cbddbe9cb8d89baf9ab
col34:   9bb98b77ba69bf9a359bd89acbe9ed8ecdba9799bc8ac99b9be89cc6fb7b9faafca9ecb96aacca79
col35:   e87c9c59cb5f68bba97f8aed9dccc9c7fbcbd695b9bb9da95b99ff88da9d986ddd9dbccebf8caa7d
col36:   c997b7c89cb5c9ad957bccb8ca9c8fd89d87fca898db8676a9cb4eb9e9aaba8a8d6d7d9bdcfbc88a
col37:   9b97cc9abbdbcce7c5ccaf8a8698beeb8b899bcd99ba9a7eae88ffcfcbb7a9ac8bbccccaca898979
col38:   5eedb99989ac8ad7aacc6bce8bcc9bfcaabb9c7b9ceccbaddebadcea9fcaeb8f9baca9de98cae89a
col39:   8bea9d99ac79cbdccb9bbcbaabc86ec9adacc99cb8bfacebddec9fddd7ec9bcbde79bd7f8ab8dca9
col40:   cbc98ba8ba98cbabac89c8a79bc6caecccdaccb9d69ab79cccebecafcbb7a9ca9cbcaaac9aacbdaa
col41:   9aa7bdd8bbbfeaaafeba7a7dea9b9bb7b6a8bcd9eafcdcddcbfdecfccddfb9a9c7cef6ecdc994abb
col42:   89b998caaecacbd7babbca8bcba66acbbabbea9fcccaadddaccdc9bb8a9b87f9eb9bb9adabcaa8aa
col43:   7acca7cdaba98aaac96dac7dbccdabfbdbdcbf9ec89bbedcbfbedeefcdccbbc88bcada9b899abdb7
col44:   cfdbffbfd9b98caa78afccdb89aedbbccfedcdbabbfcfa8aadcd9cebfbcfbfcadbacecaccc99998b
col45:   d8ea9aca9f99ab9dfadabadabac9896b9cad9ccfcdfebd8fdccadedbebcea9dbaeaa9bdfeca8b788
col46:   8b9cf7bebcefe9a9fba99ebabcfcddfd89cfa7cbcbcedadef8cae9eeb7cddebbcba78cbebcfc9caa
col47:   999bae9bacdb8ebbbdbbcb9eddf9ed9facfdfdbdcddedfcadcedcfffbcaecdae8c89979bcf9a895b
col48:   ba7aa8ababfccccd8ebddeaafebaeacbabbefbeccce9bcaea8cbdb9ebeeefefbac5b7ccbe9c88ba5
col49:   48b8abf8dca89a8efeddeebcde8b9bbbcfebabdaefcd9facdddcc9dbffec4ca6aaabbeafabbc8bb8
col50:   d4caa9978bc984a8e5edceb799bfbdbc8a9adcabcedbcfbbfaceffcfbcadcc999bde989ee7ab89aa
col51:   896bb689a9778db7cab5cc8cb6aec9c9d8c98eca9fdbaf76ce9acbbecebbb5d977adba9eabb68b57
ROC:	 BPix_BmO_SEC3_LYR1_LDR2H_MOD2_ROC5
col00:   254788557435555598556b6a44b937ade77661784748a272896a76c7336246a8876665ac5b75a444
col01:   75878863855487a9957b66a3996b766b94899888c8aa938b78a77c39db8a66bd1788aba69668876a
col02:   363957a7654349b44698479348887af6489a79639577979c9b6ba9997887a5947a9c773b45368c34
col03:   43578468b655775a76875698a5a96a7ca58b459a67a985848586789b348568a7bba56992468358a4
col04:   a463a864799b79371448586767887a8778a69aa5aa6796d999ac3ab66b8ba7687abc549a9ac76859
col05:   38a8b97cbbb886846583a9995989876a9c9d79a76a497676bc59b6da8273888497a664746d947a8d
col06:   5256468d15769776776887987587797ab7a77787bc994689997958756783ac888a575b8818ba7a33
col07:   96c5b8666867626b597b74877a76bba986bbdb98ab5c7435a7645ab897a977a8b48668d69ba86aa6
col08:   4a88b58378959a588b4565b66c9a897bab9ca83ef87756a7aa98c73b8848bb58967ab948a77ed675
col09:   81798578a88ba18969699bcb66cab9969c6b999b867c589a6aba99f78999bbcd4786987977aab6ba
col10:   944677487285649d799a795a96968ad897b589aa8678767a447db54a9ddc84587979658497989738
col11:   8598997b45c638889ab4a97baa9d66899a5b85a8b69a6b36768a9a4aa8bbb8a676899a99b58949b2
col12:   735577b9254617a8657b78a9ba8a89b7778bcaa98aa79aa5c88ac86d89eb9596ba6ba8c576698b19
col13:   849794975875ca6e7bba6a876b8ad8c8c3899bb9a999b8766c9bb987ba94788f5c5779e56688d987
col14:   65935b7262a7295ab6b6b979a89c74cac9a798a89754785b5279ae78dab8a58247aa95946a45744b
col15:   5a459a53686779bdbb5d96399a995a589aa7afba78957558b699997d675ac9cbaa44c57858695a68
col16:   587696498e77b7b8999ba87979cc8aa96967aab7a6a66a78a4a6cba8a5769a5a779cb8a793a6984a
col17:   57845589923759ca7b5187b97a7895ba7bc97c76be87ba998a87a9aa1c9bf67764baabb66b7d2748
col18:   6b456256755d96799a47288d8a9496a929898898bc6698c975bcb69aa8478c9774a8962d8a6b59a4
col19:   49a78364735a65cc68a7798686898a67887a6b9a849c1876a7adccdccb8acb5ac98bc59944cc7659
col20:   7546565952996aaa599a87b89aa4ab8a876a49979a5c8a678677cb8ca7b83a9ad698a65969b771a9
col21:   94765777a4d549ac79b895c9787a69dd993a9a9d3778ba5e6adabbbaa7abd99baa47657575aabab6
col22:   5776d9bd59689867868663a9a6999969277776b5a6698b7696db97add9b9569819c874965ab989a7
col23:   36627a9846677637479e5677779a5866a58cd65859b698b7b87b949b9787ec5d88bc64aa5796da99
col24:   94967a7ab555c6c8ba76a9b3ab8bab434a7c699ba9488cb769aca68a97448bb4c57c698c717d9a68
col25:   a68998a468967ba9d9b6998aaa6a477aca7aab7b88858a797ad979b9dc97e59d7989b79ac58b9b96
col26:   86248c7666867ac8a8a77aa799ad84c9c78b569877477a97bcab98bd87c764a7d89adb7abc2c7a9a
col27:   95a7893737b987a55779a997aa8aa77aa98d767ca55caaa6aea8beaeadcab8b96dafce898a2679d6
col28:   7578a7859bae66a9a6aa7986da6daaa7ab98a9a98d98b88886bccacaefadd7bba88c9ca9bbcaa99a
col29:   947998899b6aa887a999978caabf8aa7ec969d97b78da8ebdaa9abbcbde9bcdbcbaba67bcbbc9ac9
col30:   9a77967688ca8d77a656667bd7aa6a97e77afcb4a66ad996abc7b8ace9ddb5bca9abfcaadba8a67b
col31:   48a6ac98ab7575c678b6b99cfeb795cdbad7e8c9bac9cadfbbbaafcdedbad7b88bac8bbaf8ccbb9f
col32:   8746846a767a155788976af8bcbee93b86bbe889a87ba7a8c987bcbdbe996c9cb9d8c668b5888db6
col33:   64577a78975a6a898a66cb679c7bfd8b9ae9db8a8a6ab8cacccfbebd9c96588b7cdbca79694ecc99
col34:   8579977a77aa98ca966b9878aa8ea3aaccd59767acdabd68b7cdaa7cbb7ac88af7eb75caaaceadaa
col35:   275b65898775ca8bc8699c65c4ce69b99dacacc7caacdd8dda7dfd8abdbacde9bbb6ccf9bc5cbaba
col36:   8978b9869a5aab98589bbaab9b9f7baa879beb985aca9967dc88ccab878fd8afdbad896cbda6bca8
col37:   697cb978abb7b9d95b978a9aa7a9dab9999aabaaaacaceaff7ed79babcb7adb9a8aac8dcb99fdaba
col38:   897b8abb779b7978a78aac8c9caab9ab9caa9bbfdbaedabfbfd9beaabdd9dcda99cca9699b8bebbe
col39:   677867ad948ba9c98daa99aaa8d8bbf887eda9bb99cab9fbe9ddb8bb7dcccdc9a8bc76d8cda8bdb7
col40:   aab698b698676688cb7e7eac688db89bb9dabdeaddcbbacceecdbaccc6d7aecefcb997a7cb9bebab
col41:   97566d9a798979dbca9b978ebbcc9a8facdbecc67bbda7eefe9dfcfb9b7dbc8d8fcbdbd9e999977a
col42:   9d69b98aa998856dc9898ffa7b9cadba7ddbdb7ccbccacdca7cafc9ae88dd97accbcfcebb7c9bf8c
col43:   74a89cb688aca99989bebcacb98beeb9aeedfb9feceabdaccaee99ab9bdecc8b9cfc9b9f8f8769ad
col44:   998a957bb9bc365b78cbaca99b8c97fcaedfddc89bcd9d89dcffefecb9abbafea9ebdccbdfafb89d
col45:   78143569c79b54c8b6b599cc6cdceb9cc9c8fdfaedadccdddbbfefebcc9b9efa6bbfb9cbd95a7c5b
col46:   684678787b7686db8ddb8b996c399bbdafbcce8aa89cfcccccbbdafcb9fdeb9dfbd987abfbb9c7f8
col47:   94797bc984894679a94699c8caddbb8b9bbabaacbbcde8fdcaaadaf9deaacad8bacddfb8d7b8adda
col48:   a3769693688c88b98bb59a789b87ccb975998dbb86d89dbebbbdcb985a9ca8bd8fcbccabb7aa989d
col49:   789565bd67969d99dc9989d787ced7ffb77bdbcf89bbfcbbeccaddff9e9ad87af999d8c9d8bc99bb
col50:   5ac678985775da36769cbababb5abab8bb98abc6bc48ebcbfcbabaadbaacdb897aca6c99a8ddfbc6
col51:   14194699a1a823569ae899aa9b6b7bab9c6cadbaf7889bcccdb4db86fa69cb9c889b76a4a65aa9cd
ROC:	 BPix_BmO_SEC3_LYR1_LDR2H_MOD2_ROC6
col00:   5baa756b8789b89265b877aa6fb998c66589a97c9ca6b998a89a768b9aba75d68c778598749bb866
col01:   87ca77b8899b6995b8a9cc98b9abad7cd9a81bdca9ac999aba7948caabab953697a99bac6b5aba7a
col02:   775a989b7a89b5daa777ce9777cba49d668bbab976aabbb7b9bdbb68a9a779e8d9aa77c9abda9973
col03:   9989a5cbc869c698adad9ab9a8cabb7dcfca5ba997cdb9daba79a767889a8678b7c7a988a3798a98
col04:   6998866ba6addb9a59cda96a6bbafab8ca86cb9cb79ab999c9776b88a8e55cba788b7ac8c5798baa
col05:   9998bc5ae7996d8799575897fadbeda69c8a9bc8aaa9a77b49ac9cbb9c8a7997298cd6a979a995d7
col06:   9bbbb5867bc78a9c9a3b7bc49fb8cdda8ccb89b89c38656ca77aa87a9aba9a5ebd8c44789a96a792
col07:   98bdabc8b9b6bb29b66f97b8bc99bedb8eacc79a698d98b8ba94a77c6cbbbccda9c99e676a794ba9
col08:   db8cc8e99aadaba87dab8d9999a988cba8cbecb8a98f99d887b6dbab988bb9cac6bbb7cc6cac6597
col09:   a99ce5e7aa9986e66abda56afdadbbf69cc7ecfabcaa8a7accda8878ea4bab88c895aa88e9ab8abc
col10:   8796aba7c87a895aa98b6888bbcbccfcd9bdacb56bd9ababb8abba95da9aa6cba8df77bda9c987b8
col11:   b5b68ca9b7d4d99aa7edb8b67cdcddc8ccbbccbdb7887da5a6abad8ca7da8b97a68988878977659c
col12:   9aa4ab8c86a885ab9979afeee8b8cfebab69b9cd9d99c7989aaabc8c8dcbeb8cba5d74a9c2aca8a7
col13:   7958878998ac896aa7abbebbcd9cbebdba98cd8a8acbba8c9d79c65bbd47c67c7a775aba76689ca6
col14:   ca9aa6b98fbc79987bbd6dcbbbf9d879db9c7eb9a98ac9dcb778b8be68cdeb44cb8a9ac98655bda8
col15:   5a8a8c988ba9aa78969b99aedecdfcf8bc8abbcd9dabdba7bdaec9bb8cbad7887aaa7aac657b8bd9
col16:   b875779867cacab86daabc7bfc9fdd7d8d9aceb9c8bfca798a7cadda8cc99ca98cabc8c6cb46ea96
col17:   86badb9bead89ccb8dbcadc78cd8bc79bd99da8aac868b8d84dbc6bca6baa8a88ab28878479cc8c7
col18:   7889b9a7c7aac7c6cbddcb87cd9cda9de999cfbdac98b8dd97dbaacdcec68c6d8b6da8aa99a858ba
col19:   8ca997ac96bc49aaf9fabda8c88cb99b8da96cc9c9aad5a9bcdda7dbcce8fabb6c9aaad4caa74da8
col20:   7ac89a4b67a8e9bb8becc89af9cbb6ed9a6ca8b9d97c979c99bd9eababb9b98d759b88b997c67737
col21:   76aabcbb89ba9da78e6afcac89c7a899a8bccccd6a7baeabdaadedccbdbbaa79cb8bb7cb89c7bc96
col22:   88b87875cbdbbbaabcababca8aadcdcbaba966cbe9ca7bb39abbbcfa9db86aa9c9969968b8a99b96
col23:   cb998adbaa8d9cb94b7ebbbbbeccaabdbc8ccbab7d8dccdcad8aebdcb7dcbc8ec9bcac97bcad7aaa
col24:   9579bc899a48bb8d6bad988bcacc6d7c7be8d9d9489a8589ae8eeeaddbbb8a5a757da8dc996b769d
col25:   adbbcdbbd6da78adaabaa9dbfbbbdacda99f68da698aa8ca9debbcbd89ccaccb76afa9acbcb8c697
col26:   68c7cadc9dbabacb996d9faa4aebc98abb6bc8c57badcafbee98ddcbba9ebad9b8a7ab68b8ac9794
col27:   9aabbeaa7bcfaadacb8a9adefa99ace8accdaaaddc6c6d9edc9cecffcda97cb7f99dbcaccebbb88a
col28:   bafcdac87ebfcaadfcbddccebbfd88ac9f7cbdebcceab8a8cabadaecfa9ced69dac8ba99dfca7e79
col29:   a89a9b9cfcab9bcfbdffcbadcce8dbdbfdcccddabc895afcfdf9b9bfbfbdbdcacdadcb8eaaeffcd8
col30:   999ab9eab9ccc9cccfbfa9bebcfcfadbd8cd9eb87ca9a8acabda9efdccd9bcfcfbbb8dacecaeb8ab
col31:   8c8b9c8dafb8ba9b78ce9e79cec9dcdbeebcaceca9eaf8ec8acbdd9feeebdbbd6efcdadacfecb8bc
col32:   7b9da989bacbca9bcfd897b9ff9fceccecbbca9ccbd8adbd8dcacfceccb8ccba7adabcace98c7bca
col33:   b9b699aa9cb96eec98ac9fccabffabfaff9eb9aacaecddfecf7facbeeaedebd9dfdbccbeba9cdc8b
col34:   7beb8acecbd99c9f8c8dcbccfb9cafecfc9acc9dfecc9bbc9edabb8eebdfc8cdecedc9d98bcccca9
col35:   aaa5e98ab6cfcb679bd9d8dbadabebbabcdafdfe9bddf9df8bebffffaedbaebecbed77da94bcd9ae
col36:   d8ad9946caeb7adaeaaeceecb88beaaccd8bab7cabbfddffddddfc9dc9d8f9effcabefbc78bfdbca
col37:   a69b98ccdd5c9ccc859deecd9de99dcfcc9dcc87cddb9dfbbfdec9ca9dfccabbbdffbadabbbcaceb
col38:   88c9ddbad9dbcbe4fcf7ddbcac7feecd9fbc9dbecba9c9dbaebbcfcdbae7dbdb8abf9cf99aab9c76
col39:   a7daa8be9eafbcacbdabc5fdbfacbe7dbedeedbd9edabddddcafddbbadddfc8ffbfbc48f8baef9bc
col40:   c8999abcbadeb9fcaadeab99c9adbbfccebcadefbeb9f9bddbcdefade7adeacaabbbacdaaedac9ce
col41:   89cd8aabafdec8cf96afadeeb8c8abedfddc8abdfb9fbfcdcc6dde9cd9cbda89aacd9bebaed6bddd
col42:   8d7ddd8dcb9a9ada9b9dcbafedbcbdccbccaabc9cce9ddfceacbaeedabbbdcefdccbdebabbdcdfca
col43:   7afaeadbdebc9bacbdb7c7baffafefe9caceefdddffdfddef9cce99eedf9efde8caefea7bafbeaeb
col44:   b99dcf8aeca7ca6c7b9cc99feb9dddaba8cc9febacdbdcbfbaf9f8dcfdabf9afcc8cd99ddfb8cccd
col45:   fc9cc6cabaccbacebba8d99ebbdcbafc78cd999cffdceefc9bfaacbcafbbdee6cceec4f9d7aacdbe
col46:   8ccbbcaadbe8ade99aabadfcbeffcfca7dc8ecfdaccdccdeb8cb9feeacdccdca99dd7ddc9bdedecc
col47:   cbbb6a7da8b9da99ddcccfafcdccbbbeccbd7cecadb7dabefbeaccb9d87bbdfabbdbeccbfacc9b8e
col48:   8b9888c77dc89cafab89bdd999cb8adabbabb9d779aabbccbefcf8bbdfb9daabd8eabdecb7dbacdd
col49:   ba9b8aabbcaa99ccabe67ccda7cca8cdcefbe9dccf9ffadfa8afc8dddea9caebdaf8c8bcfcdceece
col50:   a999898aaabebbbd77e4b7e9beddcbed9b8bbab8bff9c99ad9abcefadebecdddbccd8e8faedcebca
col51:   8b8d78a99ccaab9d6fc6a8f9acbcbaeeb87bcd5aac99aa8bd8cb9d79bfcda8dac9cfce7cda999799
ROC:	 BPix_BmO_SEC3_LYR1_LDR2H_MOD2_ROC7
col00:   b46577877587657b795bb587bbbb7db7e8fcb9bbdbeb9b7bbc7cb59bbc8b847767bbbb9b4d986665
col01:   588584b7b588999978bbb66cb989d999dcd8d79db987b8b97c8cba9ebd98bbd98b6bb796867ab5b9
col02:   745667867bb8b7987b878b9b8fa88ccbcc9ebacbbbbe9e8b89bdbb8b777bbbd98b8b9bb4cb8b8969
col03:   895678747b7b4bb799bccc8eb8d8c9b8bbca8b76bbb8a9b9befb9bdb9becbb7bbbdb9a89b6778796
col04:   68584487bab68364bbb98799597a79bb78cb8dfbbbbbb9d9bd9a9b8cbb8b9bbbcb7d86788d774b67
col05:   59267867bb8c85ebcabb5bbc79ea8d9bbbebbeac89cb99a8aefebcdc998cbbe9cb7bb9bbbba78899
col06:   7547bbb88bbbb7897989b8bc9b9ca7bb6cbbdebbbbbbcdccbb7cfbdbc8a8bb7bbbc7bab6bb985b55
col07:   b69b527b78b9967acabb6cbd9b89bbba7ddb7c89bdbb88bdb8b9cb9c9c6b9ab9bcd97ebcb8b6bbb8
col08:   9a87889b8658578bb954bbb9ba6c8d7ed9cabbbf7bbb95dbbb7bd9bde8dc4ac8bca9b7ba99897788
col09:   59993567799897bbb5d799b9bccb8b6cbab57c796cbbbb68fb8bc79c7ddac7bad49db987b87b8777
col10:   a766799878b958776b7dac6799bb9bcdb789bc99c9b5beccdebbbcbd9b9dcb99bbb69c7685bbbd88
col11:   77665459b779a859b8b589eba9bb6cbdbb7c9bbb8cdcb67b5abcb6bbbcbb658789bd958b95787948
col12:   757784669959b75bb9bbb7979889677a879889997bdb76bbbb8b77cbbcac8bbb87db8b98b5c59a47
col13:   4375466b88794b99bc68986b9b9989bbdbb878c89adbbb89ecdb6cbbfbbcdebc9a8ce77855b9b6b8
col14:   955c8245774b87bc7994abbbbbb6bb9ce9dbdab7b9b8cd9a899c88bcabcdd9ac79c7eb6be7b7977d
col15:   98986b487c6799bbbc7bb77899d8cbf9c9cbde9adcebc98b9cd9dcb97ad9caccbcb95a986b88a78d
col16:   c96885749b8677a869bd69969b8b8bbbeecd9b98bacbabbb67bf9db8b8e9c8a868b697879b67b6b5
col17:   776c7a67863976bbc7bbbb67bccbbed9bbbfc89a879a89bbdebcebb8a9b8bbc98a7bbb9b69738998
col18:   47a545862858b899c7b67899bbbbbeb97debefdcd99c8dbcbd987bca699bad989599d99b7789a57b
col19:   6b6b475b7b7b495e7bbb5b9b6ddc9dc8acbcdb9de8ebbdcbcabdbc9cbdbad68b99c7b95a9884e639
col20:   4238975866696887b66aaabb9bbbebb7bcb7bbdcabb8cabafd9d99fd9ba99b99f7c9cb8cb968b57a
col21:   b87568677bba979b8ab8bbbba99cbb9d8b9bdb9bcbdbeb9beba8caaabdf99bbc979c8bd7d8b77988
col22:   69966796b48d898a79c77a6bbab9d5bbcbbcb9cccfbebccd9badbceb9bbba8cddeceb8c8c7a7676a
col23:   584895b89b79b9ded89dca986d8deb99bea8c8b9acab9acfcbffeabcc8dcbaacbbba8b7cbb6b8967
col24:   c748a7bbb99879bcbbb979dad8b9987bcb7c9b996d9c9bbbbdbd9ccac8ada97bbbc889a6aaa98bcb
col25:   777b77885b8aa97aabdbda9da9c59dbbbabacbbb8cbddbb8bacbb9d9d9b9adfd8a9bd99bccc987bb
col26:   584bb76bc97b8ecb7c9dbdd99bb8cb8cced9b869bbbb7b9baabb8cbb8b9bdcd7cb9b9cdeb799b7b8
col27:   cb8c7a948c97cbbcb8c89cdbba6dddcfbebdb79dc9bdfdcacfacda9c9acbbcdbdacb9bdc89ab8aab
col28:   99abada89c89badbcbc8cbcbbb9ba9b9eda79cb7bdbbdb8cedcbbbccebbcefdfbdbebebaccc8b8b9
col29:   b98b78b95c899acb8a9da9b89bdbbbbbbbbdc8d9c8bbc9bcbcb9bdbeacbbbdffeab6ebddcbb9bc9b
col30:   b9c789abbbbc8cb88b9b9bfbd99f9c7cbc7c9badcdd98babbc9dcbacc8beba8f9898bbbe78688b78
col31:   beb78bbbadca8eb9a8ba7bedccebdeb9dbbebcbb6b9ab7dbbbebdbdcbbe8bc9fbedbb9bbbbebcfa9
col32:   99ba8b77699bbbbbc9ca9baacbbc8ddb89bdbbbabd98ca7ddbcdbbd8acdc9bdcece9d5a88bc7779a
col33:   bbbbaba89b99b9bbaccccbbbbbcbcbbcbccdb6dbaca979cbabb99dcdabdbb89dbcc9abc7bdc8ccc9
col34:   bc87a7bba98b9bbc9cdbb999cccfecdbcbbabacb9ccbc999ceabdcbcbccebcc9bbd9faa9daecfceb
col35:   bccadba9cbbbbc8dbdc9fba9899cbcdcbccddbbd8dfccbacb9cbcdccdccbbab98ccbfcfdbff8ecab
col36:   bbcc9a7b78bbbcbcbc9ccb79ececa9cbdb8ba9ecfb9daae969adcfbfdacbdedd6bcdbcbcbddfeb98
col37:   cd97cb8948bbdb8cccdbbce6e9bccab9c8cdcacbbdbddc9cefdcdccbebb8cdafedfbfbbdbfbecdeb
col38:   97996c7a9987c8abcfc9c9ccab878befdcb8b9cbc9bc8ad9eecbc8bbabb79e9ccfb9acafddedbeb9
col39:   89baeb7b8b999bb8abdd9fca87fbbb99ebccbccbb9dcdbccebbcacdcbeebe77feedbddc9bdf8bc9b
col40:   79abc999899acc9baaebac7cadb9bcbbbdbafccd83ecccbddfbced8bbcbbedf9eb9ceb9cbff8bc9d
col41:   98ddcbbcbcb8cbbbbabbfdcdedb8bb9dbdeadcdaeccadcaaebedccedf7eceb9dcb7bcfeccfbdcbbb
col42:   9cd8aa9bbc7dddbcaacfbaa8abbbd8ccdeacdcbeced7bb5db9fed9cef9ccab8dbdfadbc9babccbbd
col43:   beb8bbbcbaddcbacbf9cd99cdbcfbfbbcebccfcfdcbccabddcfecbddbadbd9ec9ccbdfce9bc9bbe9
col44:   ebecbbbbdfcbb9acbd99bd9cfbeb9bbbfebdefdcffb8bdbcbffec9adbdcccdc9cffbcb9bedfa9bbb
col45:   9acbddccabadbd9cfbbdfbbceefdbffffccfebedcbdf9bbcb9fedccbdbd9cbefbbccacf9d8cc9e89
col46:   ecbecccbbbbcce8bb9a99bfccdf9bebcaadcfcfffddcbf9dbecacfdcbeabe9cebbba89abfa8eb979
col47:   6b98eb9d9cbcebde9bfebebce9bbcccdafebceebbccdbbbcceecbdeceeddedfbd8bbcdcdeddbbbdd
col48:   9bdb9eac98bccc9bd9dbbdbbd8cddddacbdfcbcec9bbdafc9dfcbb8eeebcd8db9fcdbbb9eccb9bc9
col49:   8dbbcc96cedcceeffddcd99cebebe8fddbceddbbccbdbcdcf8ceddcfccccacbbabdf7dccbe9b8bd9
col50:   bc9b69bacfd8ebc99a8cfaccf99fe898efe8cb8befbec8b88cccedcedabefd9bcdc99bbdbe98b9cc
col51:   8977ccbdbbb9cc8ebebb789bc8bdbbbbbc8bcbe7cbb8cfdbdcff98bbcb8eebbcbbbbdb9bb5dccbc6
ROC:	 BPix_BmO_SEC3_LYR1_LDR2H_MOD2_ROC8
col00:   55585577466454453485878965c769852657b8b5764b62374637ba747876328bbbb87986b4266573
col01:   656656453696787935689568885a98b5795787b7a7888569779437b777699277969556867658b755
col02:   35339867974851b79676897754759477b857b8766ba736a6a88677a9887665798b56878696a68989
col03:   654993758638728586695556797a55ac96b7657a73887786a88a8a699687b986a6997a5677945b59
col04:   5465c93765986876769534888d62b9bba8993cb7898a99b88569592496a75a8697aa558676678876
col05:   7345544856a948676956b54678a77878a68489a948b497869a6b59c7889caa7977a7488ba84377a7
col06:   57b67364695455695667a6bbb9aa8c49b9d9758796a978887a256289968897aa6b688957ca55a666
col07:   46275698656586577797789876a8a4ca87e7ab9b8abb697a885967c7b567a8987ab8a99b4976c9a8
col08:   96766a7575923b5674666b8aba5987988999aa87b786799777a887687857968868868887577862a8
col09:   598897368798684a899866667a99b89696997ca7bc8977a6747b55bb16767768b699836967768638
col10:   64864a548573657694b6867b5678ca798979b996988ac979a7a77b878a7b8b67da88757ca8aaab97
col11:   646c585a9387678b6b3885899695daaabb8cb869567aaa4b9a9897b7b8c78999798a677bb5599896
col12:   848997687349b85966aab77a7a7db9b958aabb6989789a59879999699a8daa86aad8c3774595a7b5
col13:   6877569784889597878868a98b9b8b9a9797696885bb98a66865bcbb9bd699aa8d6986ca4695379a
col14:   5694665758898549773587a69a9a9879c885ca8a9b8b7bb9639688caa97ba5987c88b5ca97a55cc5
col15:   797266766a6885775aac5b9b8aaaaa9879b8eb9ab989a8967a7989b67ab9ac9ba89777657aa8c96a
col16:   556988966967769665884989ab89bb89a9a8899fc8a789a8ac7c79a8bacb787bc897487a98798b87
col17:   97798b86696669bd89776b9699aa779a679a78b99a89b946a9caa9a989987bc8a78b689877ac99a7
col18:   6748478a5788886796799b8849a6698c78c9579b9a8d655c9c8babbc9b899b5a7db4988c8a7b7979
col19:   85878694a87ba7988998cca7899b6a7a6c69a9a87ab59998ac889ab9a98c97b79ad69b9877aabae9
col20:   669659abac9a998cd8a8bb87bb6a8cb99c898989dabd85699bb9ccdd999abc7b79896c857c66cabc
col21:   497888b66867899a7998869b7998bb8a8a9d9a9a8aad789a96e9dcabe9ab98ac778ba7aa79687b68
col22:   a887549a88b878a98a89a869998ba7bb967aa8b8b8ebb89789ab68b697d7da8b9756c7a597b99986
col23:   8a9689887885b9bbb9d97aaa9b6bcac67887a99dd587c89aea9b9ca8aa999caa7ab77a7aa5c98baa
col24:   6499b997999ac8898788c979969689a9d6a89a7686abbbcdb9acc78ba8ba8f78a9b89c6e767ba955
col25:   ba8aab8cb9897aa96ec8b9aaad5bd8aeaac9c9a99b986b9a9cb99b98b8a7aa8b7a8abadc66b99897
col26:   86aab9bcbc8bbbaa8bc9addbc8bebc7cabdcabba796ec8ac9a9beadad9de9bac87c9d9b98999abac
col27:   4b99bb9799cc8abaaabdbb8dbcb8bab9baadba9c97c96bcdaee9d98adbaebba8dc8bba5bedaa8ca9
col28:   a799aaaaaba9bcb9c8a9bb8ae87cbcac7caa9ba9989b98c8caccacbccc988baa7babfc78db9c878b
col29:   6b587c9bc9ad97a78aa9cb7cfa9dbaaacacd9999cabdc7aacbbc9aceabd9cdadbaeaed8bc7cdad98
col30:   7897a889bdbbb9bba98ed79ac5eab6dfbaeedc8ca6b95ab97b9ba9c78a8d9aaccbbbdb9af8abbbca
col31:   b7b9c5ab989a89b8b9bbbbbcddcca9c8e5ccddba9a9bafab8bcc89babfcdbddcecdeadd9acbdbd99
col32:   b9b9997a88b8ba897abcaaecaee89afaecb998989bbba9caaba9bdadcbcbdbb8bb86fdbfbcbccabf
col33:   899bb8cb9da9d7a89d5abdaca8fccadbed8da88ed997b78aed9cebeb7b97cacaacb88bbaaafc9ad7
col34:   899a9b89ba9b9bb69b9bcc9babbbcadacab8a9ccbd9876da99fbf8fc9bd9f98b8dc8f8ca78b97bab
col35:   89779cbaaaacaadb7cb89c9a7abaad59cbe9a96abbccc8b9db9cb9c8ee97cceacc9ccccaccab88ba
col36:   9988ba89aa8bdbba9d9dbfb8acdbcbcbb7ac8d99badeaddb88caa8cedaeceabcf9afaf9dbccabfc9
col37:   db779c88b9789ec97ccbab9aaba9ce6defe9eeaccac7caddc9cfccfacbebcabdecdcaba9cbbfadca
col38:   99bbbbb7c89acb9aab8bbbdcdbd9ccec9b9eabdba98afbbb69ecbcccb9bbceaab977cfb7acfabecc
col39:   78bc99b9d8b7bbcbad9dcd8db9ddcdcedeaacebb7cdbceccebdbbbcbecfacadadcebcffc8bccebae
col40:   c8b6bd9bbbbcdb9cc78e69abbdfabed9dcbfccebccaecdbdddba8ddcecddae9b9d98cddaa8dc8dab
col41:   999bb98f9bcbb8debabbcccd9d9cbdebddbdaabcdcffcbaaedbfeebfcdcdedadedbcbedbcdcdebeb
col42:   bd99eb9caba8ab7cbbbbfbbcfcddbdddbbdcfdcdbebccebbfbab9fedbfeebca99ddebd8fbeabddb9
col43:   9ebbb5bcbbdbe8bbb7cbdcee77bcfdfdacadedebbdcfdbfdbfcefcbfccfecaedccdddecaccbedfe9
col44:   bacb7abbbcec9ce8cbbbbbdafabd9abcfafadbbbdbbbacffdadbcf8deecbfefacaddddcb8cfdb8db
col45:   b99899ba9bbb78b89a8cd6cdbb9abcc8edbceecdcbffdbedeafeeffbcbdeffdaefcccedcedbbcee9
col46:   dbbbb9deccb8bbebbbddca9fcebfabdbdebfeebedddfbefdffdedefdddcdedcdeecebebeeabdcccc
col47:   b7cb9bedbcb8b9c9ccacad9bdcccccdacaccceefecacebcfacdecbfccfbfeedb8deeacbfbfdeecba
col48:   bb7cbb99c69f9ddc9acfccbccdccfdbedf9bcabecdfbbaddccec5befcafebddddbedcdcacbbcde8f
col49:   bbbbbbbecbccbbbb9edcc9eedfbeefcdadbcccdfedebccfdffdfceedfbcfebafdedc99ddcfffffdc
col50:   78b98db9bdccbbb9b9bd8cb9cccdcd9ceebccbcbbaccbaedfcfdfcfdee9fdfdecceecdcbdfcdeadc
col51:   dbbbbbb887fbbdbb7b9cb7bced9bbbcbcdb8cebbbbcbb8bbb8b7bbccb9cbcfbbec79d98bacccddcb
ROC:	 BPix_BmO_SEC3_LYR1_LDR2H_MOD2_ROC9
col00:   126335453726571656bb1458b644bb588b37467b54b5bb6b58b87587b479b5b89798377646579657
col01:   78677447579447466776588b675968678759779b997777767995ab8986a87b6885685b7539587989
col02:   424163635745454845737775678558a97b979a66668a8876789b85bcbc8695b75777757656787585
col03:   22223544476875bb655588797b967b8969a87b87b6a9b687c98bb8caf969ab6bb86989b56944b7c6
col04:   7338645267792348675369797996b97889898799b85b976b8b7689c8676bb6b7d7667879776ab856
col05:   334b663647b82495b864bbc787678b56b9b9897878567b899baaa97a987c6697bb89bd7a88896974
col06:   56456768884837555988b8b6468798b58b95889797b78895559789b958776a689bbb9abbb8b8c3b5
col07:   885469644676b94766678b35b8969b969b8d679bbb68587c6b76979bc8b948b9e5858cb778a99296
col08:   644855732475b659b67567997bbb8759679b999a667899ab779bbbc9a8bbbb6c9bbbb7bc75665988
col09:   6364457864657773b66c6688a8a9a7657b76984bbb8bb5769b6898b8b6797b89dd65987668c888a5
col10:   583b668545374566779878b88778b77689bb9bb9c6abb98abba9b6bba6b7678a76c85b95999bb968
col11:   6556685479477457bcb7b4877bbd697b88b77969995769889779b9aaab9bbb97b689b9a77c766587
col12:   67576778494938627b7598c787b86377b7955766bbbc8babbc9686b796bbab45a9ab7b79b59564c6
col13:   6555887798548bbb9b999c88db8db8d98b8b689777a89b69b8bbbcb9888bc98b898b79caad6698c6
col14:   356456764875488b87766777b885868b9869984bb8b9ab5b89ad997bed9bbb8897b8b69bbbb6775b
col15:   37998756b467b9b877b9989858b5bb98bb9bbbc8bbb87a8abc8bbbbb7b85bb979b6b75b88b549ab6
col16:   548474659b548498b648789b47ab7b4c969bb8b9b98998a96ab898c8a57ac7cb77966587976b6ca8
col17:   5586b8978396b897978c997988bb7e4bbcabbb9bd88bb769d777cb8bd76b79a8b5997abb988bc778
col18:   53876465753b5c86856889869799b98b7cbb9ba8b9cbb9bb98bab9699999bb8c6a688958b7598951
col19:   877576bbbb88799859bc9997c86b986b6b78bc7a86bbb978c989ca99eb97d999b4b86877c79b959b
col20:   44478923bb797768886b2479b6888cb7bbb87abca7bccd9ba9686d9c8887bb9b9a78b77479c97ca8
col21:   6457545b58b69b797bab928a88fdbba78c4c7c88c788fbcbbdbb8a988778ba4bbd8a99babb6aa984
col22:   76977386898865777c98a699898b8c89b888b7bbb8ade6dc79cbb98bbba6899bb5ad88b7c8bc678b
col23:   596675b79949b789cbb98bbb8d7999b8b98e6cbcbbbb9bbc9bd68c99a9a9bbbdaafadbbbbb87cbb7
col24:   78b87584696a7798ab999777579bd58bdcc8a98b9b797bbc67e8b9b7aa9d99abb9cc79b8b887c89b
col25:   7987b9795a6a7789849cbc8abe8a79bc9c88b787b7b9b999bbbe9cca8bbbbcac6dabbb9b97bab5ba
col26:   6b994a467b8889889caebbb9d7b9599bcba7f588b8cba897bbabbbbbb7d9f9cbbcabcb9a8a8bbbcb
col27:   668b789a67ab8ebbbb8ce8b9a78c7db7bb79b978ccaebbcb99c9bbcc9ceabcbcc9bdf9987bdbdbbd
col28:   67bb99b898bbcbbbbbb9e9b6c9b9b77aeb88bbccbbcc8baabbdbccd8beccccbdc9989bdbcbbb9b97
col29:   9bbbbbbc96a8ab7ccaba9cba99ddb7b8bd999bbbb9bb899a7bb9dbdbcbcbf98b95babb8bdbcbbac9
col30:   99ab7bcba869b9b99b9abc9bbcbbfd9cbbbbbb8ccca97db6798acb89bdcbb8b9cbbc9bbba986b9a7
col31:   8d6687898babdabcb99bb9cb9bb8bbdcedb98bc97cc9abccdbe89bcc9ebe9dd8bccbbcb999bcbb6b
col32:   b9dba3bb877bbc89ac9babdb8cbcbbbcc8accc488bbcaa9cb9babc8f9dbbbcebdc9c9bbcab99bbbc
col33:   9aa8bbbcb8c6c97cbc9bcafc98bc9bcce9aba986cdc9b9bb8bfdabbbcbc9c5abccccbcb9ccfccb8b
col34:   bc57879ba6bb7ba89ccbbbc999cbfda79dbbca8ccabeebbd999abcac9cdb9bccfdcb9bd7dbbdcc9e
col35:   bcb8bb9987ad9ab99b89d9bbbecbccbbbaef9ba6beabc9ddcafbcbcdecd9accbdbc7edb7bcedb9be
col36:   8cbbbd9ba89cbbbb8aa88b8b89f6bbbccbbb9ca9d98abbbcdedaafcbbcbbbefbcc8ccbddbdbb98cb
col37:   8bab8b978aabcbcb9ce9b9cabbd89cdb7bdfbbdabdcdebdcba9ecdebaccbbcb8bbabfdebdbcbcbdc
col38:   d9bdb5b888b8bc9ccdbdeb9bdacbc99abcacbbb9bcbecbbbacbc8bcbacbbc9bcb9d88ccdbbbcbdb7
col39:   7bb9bd9988a89ac899cbb9a898bbba9bbbc99cfadbcd9eecbdadbfbcbbbdfabbdbcdbcccfbcbcedd
col40:   db97bdb9a8bebb9b9bcbcb9b9ccbcebdcdb6bcccb8dcdbcdcccebbdcbbfebbceaacdcbcbbefdacb9
col41:   bccbebedbbbbbabbbdb9bcbb8dbcbcedbe9fcedbc9bfdb9dbdddcc9dc9efbbd8eaebebfdfbefbfbd
col42:   6b877b8bbb6c9b89cccc9dbb9cbdffbfdbafecdfecbbbebbcddefdefbfbfdfccbeabebfbfdbbbdbc
col43:   bb98babcbbc99bbdb98addbdcebddcabbde9c8cedbdbde9bb9bcfdefcddebbebfccacbebcedccb69
col44:   ccbbddb7bcbd9e9abbcbbdceecdccdaa9cefecddbce9bddefbfebdbcbeddddccadeddbccedc8ebdd
col45:   bcdc8bb97bccbbcbbdbbcbcbcfbc8ededeeeededbfcecbabbbeddecdfebfc8edcddabdfbdda8cb9d
col46:   d9bbcbbdbdddddbcbcfdcb9b7fbc9dcbbddbfcccd9cc8fed9cfcdebedbd9dbcfc9cbbaefcbbbedca
col47:   8a8bc7cb8ccbcdbbdd9cbbbe7bde8bebbbfddcbbeccccefbbdbefbebbcdbdcae987eab99c8d9bdcd
col48:   bcbb9bdcbbbbbd9dedcfc6d9bcbcecbbcdbebcedae8bfebbededdcdcfbdd9ccbfcbdcbddccedcb8b
col49:   f88cb9bbbbdccdebbdc9cfdbefdbb8bdadcddefdfeeccddcdedffbffecceaeefc9cecdeebbbcfdc6
col50:   8cc7ce9dcdbbbecbbcbd8eb8ccbbfbbbbbedbbccdcbb8ffcddfdcfdcedeccdbe9dbfe8dcbafbddcb
col51:   b8b65bbbdb5bbfdbdbeb69bcbbbcbbfbbcdbbbbbbddbccdfecfebbbbb8dcdc8bb6bc7defbcbbddcb
ROC:	 BPix_BmO_SEC3_LYR1_LDR2H_MOD2_ROC10
col00:   1245566835553615b4284657575b7778865224747557b36286828674656428966767786253517646
col01:   5282558266829b37396388a9b667647566a73428689837678767786869758b9b8863468778a96554
col02:   25433866435676538556946547964983b78867477693798699886b9b977c7897b694b876848a5866
col03:   136798383774756456682554947689649498769635785545686b6777858898787586955638548576
col04:   3755565876685567288295774834864565476689889758658678cb67b59975478374562775545375
col05:   4546654679479786666485678267874855746498545777b61a888379885b67895778958636486657
col06:   354473466414547656587538557469465668b67b673666b87a6599756389697b8988a68565266354
col07:   6164584681556646857756587876653667868756359855896895877957884578875698b664886565
col08:   464565556285841574785766765839326494877686769795776697a83b4456586269788755157885
col09:   675687915426676596876475786488326485667a36bb593a488766679a4646b67673658746785665
col10:   42751665146653368686955756676889797586766997966888b79885726696c77878558575663677
col11:   41437427655548655385877678784468786646688558596778a7689798885a947484666279815121
col12:   432567665334464367576865b6758949649584884547b659987677676a6954558587655a97456586
col13:   435434435676b364758549379893597877a567b66787a8998855777b59886786758355686488267b
col14:   52526147553677564667a9a68688a55999767748445a787575686888677678968969649676a55785
col15:   777344754216b9465767438b87968a57ac8699563966856668b7957687956aa835c5287595778686
col16:   344515375775779a688376598586787b6878b858a779697b69a57a473526385564775a4281666345
col17:   133569365657868a77586878b5d9bbb8967a997a775b87866747676854748ba96768788685986645
col18:   366342545566475667377489767689976bb75899785878757747987658595378898a717779425732
col19:   54757465489887694779697b79a87996c65a997996953b7b876958858397989968565b7b74667664
col20:   3582b65888498675a878885a75b66b778a9888887b8a69d67c7bcaa586675aa49886677449271468
col21:   c336842788577768579687686787889688a565897ca4759a977799c66876595a6968875763a54676
col22:   6b523a68662ac7769867756563676778cbbb66b5898878a88aaa67585572976b76b5596759978875
col23:   6548856646689665a89b8a87abb6a7b697857596994a78c7b9aa9966b4658a57596644857866b666
col24:   76985656465738997485862684977a6687696885676767a786a964537575a698899955876b144815
col25:   6558689774894776598aa586797a8667b78bb7557b873987999888d876898995a96777a484888b95
col26:   75487b66379574c497abb7696a6778699b787899d58896677976a68778a978969b9da47759a74936
col27:   7a9986885868786588979b98ab857a96877769e78797786a9765799a798b6b85a87ccbc677669667
col28:   64558979885878775697869978b38748798a4266a4786567959ba9ab8b95579585b99496988b4a38
col29:   b9a8c6d898989a75ad984886a897c8957486953976599b85a87987ab8b97aca976965bab76662983
col30:   88997b6863baa8a9393888578a989b58787699885797767a698c77b9aba65987a7bd9767aa897565
col31:   667b95987bbb7bc7878998b979b7995c9aa7b986898a6aa77b9bbc8bbb67999bb59b9b989a897946
col32:   897568789455ba9a78ca5b8a7cccaab98a6bbb8b75caa879a7ac8aa8c868ca66b87968947b5a9a58
col33:   aab667a87999b65c6d94b5ab68a988a88978a8789b9a9a7998a9c679a2c97a898bb9a98a98b66b97
col34:   879673897765b5895b8b9989da8bcc6699b7998b859579898797acbb77b8aa9b886aa7a888879b59
col35:   76886798857b798b789c59a86b7a9b89ca79b889898b9aaca7ab979acba8a89b9b78598b8c689a88
col36:   878795279978a9695568799a998ca8899a876968aa7999ccaa9d88adb77a96888a7888caa8e68558
col37:   595bab779795689b79a89d5b6789b6988bab77aa9b889a769897e87cb979995d87966ad9798ba788
col38:   7a9a5876757b687b999b8999a6a9987a98899959888b9ba9bdb98ab9b7b67579a75b79c799caba57
col39:   b8b9978bb784a9799788869bab95c99b58a68899baa98b7b69ac88bbc9abb84a966b85baa3b6b9a9
col40:   7b6867786a7aab8874c959c79757a98976a9896995bcd9999c8b9baaa79a4898a996babdab745b79
col41:   97a7697ba798989a9858da8a998ab898aa79c5bbca7dbbb96ab776acbbc9c89aa9a7adac9c9bc759
col42:   87977bba7687a6a5b98597a999bb7bb9d8bb9977985a67999b8baa9aca7b7988aaaaa99a9896aa88
col43:   88a97879ce8b7c8aa889ba97999abca7999a6c7cac7acc889aabbaa9b6ccb98889bba89b9877a968
col44:   9888a7786b7cb5f9b999ab7c7977a98a7797bba9caac99baa88899dfa8bcb758887596ba9b8687a7
col45:   67aba997979cb8a98a899759c9989ab89ba8898beb89a9d95b9b8cd79aa9789cb8bc999aaa8cb568
col46:   8999b9b9a88b9baa8a8a6899a8795aabb8a9a9e9ac96b6a796a9a898bab6b9ab8aa8b8abdb777697
col47:   975a8b63a8ada897be877a8a789ba5989ac8aa8c7a86acbaa9cab99a9d997b979c987a769b789876
col48:   a487b9a884a856acaabbcabb6a6da89999a8cbb66ab9b85cab8a69a9a978976c9b88ab85c9978867
col49:   77767b48bab67b89b6bbbb8d87bba9b8b97e9ba9999989bdacb8baa97899d9aa78979899b89598a7
col50:   a8b8996879b7bd87c9aa797578b8988b98c9bba5979a99789ea9babac78889ab89988abb4ba9a887
col51:   6886777787877897b6b847bb88976bbb7789a87a876799b769b7b68994c5a68758b786ac5887b996
ROC:	 BPix_BmO_SEC3_LYR1_LDR2H_MOD2_ROC11
col00:   54655977b669ac8a88b6bbd689c9bc9b68bcb7b6797a81bb7e7bb7adad48bd9b57cd8ec79bcc97b5
col01:   96aa76b98a58b99864acbb78bcc6cbab986edfcbde986c9db9bc9a9feb7c8e9bbedce59cb7bacfd8
col02:   99a79a7a988b6b99889b86da8abbd9dc89c7da8acd79dfadebeced8bc9deeac7988cdb98bbcc86e9
col03:   b7787b73b9bb6697c6968c8be5b69a9cbccc7bc7fbc7e9fdc5ac9beec968cfea9ab99a9db8bbea99
col04:   96a667b7569779b3caaad8ac9cbc9bb8ab79dc9beeab9c9a8a8cb7ad9c89abdedbaca9bc7abe89a7
col05:   598a98db8ba999d89aaa9baab6dcc878cba99c97aabbcada79be8cbdcc975cbdb89d78ca99aa8989
col06:   877d683bbaeab9b5b976aab889a6a577e959accc89ed9c7c9c89b898abaab8a9bfdc87b6d5d8aada
col07:   9bb996867997dccba6eca98a9eeaa6abaaa89aad9ecbec4e9aaddfcbfebb9bf6ce9caab7a8a65989
col08:   9ad8869d78a87799e89aab8debdcc889bdc9ac987abaca9bf8eddda9ea69aabaabba88e8dc81a4b6
col09:   9d69aca79c5bbbcdbaeb94cea9999bbdbcbbcf9acacabbacb8bbebdb9a7bc9bad9b89a7eb879a9bb
col10:   4c799bcc7bab65b7dcd899b7d8c8ffb9bb89eba9cbfa9ba9a8ab98dacfdcc888beaeaac6bc94eebc
col11:   76ab8abb36cca6b9ba9c998bcdc7bfabbcbdbf989ad97bcada6cbafca6caacaac8bbbb587a7e9bec
col12:   99a65a7796b9aabbab8989ca9d97b8779aada7ca679ca8bdeabad7ba9ba74eaceddc87caa9aabdc7
col13:   8bd79a696ac9fa9bdb9c9abc7ca8b99b7bbdaccbabfeb9ac8c9ccdfdd6d968cb8acb8c88aa6a977b
col14:   54bb888e7b96a987b9bbd87f8b999abbcfccbad9bc47a55baef8799cccd9a98b69a3a68ea6ef9af7
col15:   499559879abb578c77c9aa8a9bcc8db87ad6f7a97f9abcab7ac49989aac87a98b7ba8755dab7c977
col16:   456a94c8898977a8b8b65c7798d96cacebd9baabcda7c97cd9599abbb8fabccdaa97797886b4aabb
col17:   db769a8496cca755597699b86adaaaca894edcddf8bb8a8acc99abe9bbdb9abbd6cc6bbb8949989b
col18:   8ca75bb654ab99596c899bc4ae6f97aacd9aa69b9d7bbcf9b99ce6d7e99798f587ad89969988a4d7
col19:   57978ca99956b979a6bb75cdbbcc7abcda4bb77b98f989bd9f9e9be9bba9bb7eb97aa8f72bb8e6b8
col20:   7b68957894687b87a78798a95bb89a85d79aebb658e9a6b8698cc7dba96cbc8baa8ad4c66aa62765
col21:   ca579669986896bbcaa969b8d7ad5b6bab9bcadcbc9a8bc9796bc8c699bd5aab59b69a7b9d9985ab
col22:   94975aaa9369a966b9a89baa89db67a8aedb9a46e7ab9ccaabbabf7a87b76dcdaa7bd69ba9b98855
col23:   779ba7ba87898a4aab696be88ab8bbc3abcacab99d66abb7bcaa78dfc7aef59a7a686aacb6999ad3
col24:   7bb9daa578b4c8abaa9aecaa99888bb8eca99c6deadda7bcc9b6dcdadc77daccbab989aa98f59848
col25:   7aa7e9accbacaa8a98bcb77d8da8cb6fa8bdbbaa7bbdc8da79ddb9abbd99abc998b77abb96fbea9a
col26:   87b59b9e7666a9a598a8b9ca7fcabba7b98b9988ccbbbdc9ba65abbc8be9d9e786bdbbec8a9cbecb
col27:   ad4ca6ccbbbad8688aca7f7aacc9aadcebaaaaedeadd9899b988dd8fcccbabba8fb9c78ccff99ca4
col28:   a8b7da89bc9979d6ddaee77dbb9cf9abb6b8ca7c7dbba9999b7bca79cabbeea98bc98b8c7ac789c5
col29:   9ab7baabd788e58e98c8dc86dadcdda89dbddc89bab98ca9aedbd8abfbfae7bcdbad7a8decab9b3a
col30:   3b9ac9c8b9eaa7b6dc67cacf669cb77daa9f99a7ac98b8c89a9ba85ccfaaea7aacfc8ca9b97a5beb
col31:   8868ab9aeaaaaa7aaacbfcc9c9cad9d86ab97a78bfadd9f7bd66b998ababbd9a65dabd8aba8c8c86
col32:   898aaaadd5abaab8cadbabdcedea9abca9dbd7a8b9f7dbc9aaebcf978c9a77bcbbccda9d6b8d9778
col33:   ad8dd8baba9c9bbccaebc9a4bc9ccc8cac9fcd9abce88679f7de9da8edbd8cd89a9ba8aa989df7ad
col34:   7ab9cbcb768cd9cadc9dac77a7dab9dca89a8ac87ad99adabcdeb9d8cddef6bcabb69c8c77acaccd
col35:   6bbc9a8c7caadb9ed8e9cdfabcdcffadb9ac7fddfaaddbbd98f78daa779edaca98b9bae44cb9c9d8
col36:   98aabb7b87ae7caddc98a9989be8bbad8cfdb9dbdfebbbcbcbbeea9fefabc8dbecc8b9969aa87988
col37:   bbde9cc9c9abd8bcbabd98a87ccc79b9aa9d6ecabbb9dad8ca9bee7e569faecac8ccec9986b58f9b
col38:   7a7bad869896ea8ee48a6dd9aaa8d9efa9ecabcb89f99ba99accb9797b9adb9bdcbac7ab9aa7ac96
col39:   97a898bba789c798ba99cdeccba9dcada9b8bbbbb9fb69aeddacdc7ada9b9bc8c8af8bb9eb7c7ddb
col40:   a8abc73999ab88bf9dd8b9b8be9bba9b6d8b8ebcaa8dab9adfbbfbcbce8b8cc988af9accca8dab98
col41:   8ac8a9b88cbbdcccc98a9b9a9dfceccf9bcbbddbeb9ad68eace8dbd59bc9e7998baadda9fe9be6aa
col42:   89aa996c8cbaea86acbcdb9dac9e5bbfa8dcaadba9f9acf8bd7dc4ffa9edac9acaffdacbacddffdd
col43:   8a8b6aa9768a9caa97e99d9baddbacbac99add9ddd9caab89dbcdf8eabfcafdd8da9778977db69b6
col44:   ba8b8ab99a887b8bd9a88c79abbccedcfedb8be5bbca89c879ccaeabbbc8b94b9cfcacfdfcb9899b
col45:   a77b96caa7b5cbfaacca9edc9b96cbcbbafdb88efefddeaecc9c79cf9a7ccbfdb8cbbaec9fcdd769
col46:   acba979bc86889a7b78bda9a9bebd9eb8b7c9abc9deda9a9dc9fb5a49ddb876bbb6ab87acbf4fb98
col47:   abcd9cc56b7b4c8889a99adaca6daafd9869beffbf5b9fdabcadcd9da9afdcde96c7b78a65b8a788
col48:   6d798688bd56968e898e7d7c9d7d58cbd8bafbeddbbfdbbbcadae9eadb9d9d9fa59ca6ab8559dcb9
col49:   d879c8c88baa977c8a9b9bc9b896faccdddbaddc879cbbfdeececabbcad9aea89bcaad8bb9c5979b
col50:   c4887b9b58aac9bcd76bbbeaaba9dbe79a699cea9b989bdae9bd8d8a8dbbacc897cc69bad77d7b98
col51:   88a5587ac9c88867a39b6ac87d9b887a6bbdb9a7adddfbb9bc8ec6bcb7b9788adc8789897994d995
