ROC:	 BPix_BmO_SEC4_LYR3_LDR11F_MOD1_ROC0
col00:   6a5ba86567577b56567683c78664562865656b67956598986777a85625899477a663314341236483
col01:   4674a9849b8c78aa3a73b885a67a769baaa87576ab5ca8c7674ab6649aba6436996665b4b76b5936
col02:   6873976a64879d6bbb957a88c6ac6b8698b698d138869ba96a9ba8c79294aa727966d65d65635334
col03:   23cba7758b45bc468aa79b5819579898989a78692668b66b36888aa6e94c9784767a96757a5a7674
col04:   788a839999952b8aa679b4388c4969bcb6699a59aba94ad868b744a4537a886587779875a797a678
col05:   6b683337b967697a714664a56aa8399689897a9b589cb6a87777c758b7aa5b8657d751a89d44ba8c
col06:   768844457c75b876685b7477839957777a8a87c9ba7c6c779c5a6a7896a98986783771187b5293a6
col07:   98977a68a66889999a78aa67aba697b2cb9ca99ab4b677c4ab59866b9996666a6869919844c68862
col08:   693b558589658394396a955b6b6bb8a7887846767abaf99557a977bba7a9b4ca775856c3a4152482
col09:   295669b78a7898896449978687b8a89a8987867a88a84975aaa6c9baa7c8c9454777b89977534923
col10:   865b858766a7494777a6779dad6785a8a7b9b89aa98b69f7a79b8a8a8b68769a71288694654b5b41
col11:   857a786bc3b66df65a8978c86567a799bbd96aa74949ab78778894a68b9ba66898b5835678477166
col12:   a9679ba859ada57567c3259a89c6ac977859ac8d9e7a7cd92b5a79a99d98965639c6aa4655294694
col13:   7a789c89977c75b999d8698b6b9cc879888acada978bc92c6d8b5b7c69a7988b98798a596949b571
col14:   88c4956b69967cb74459396559a598bba9c89598568b9ba9c5c9776ba26d768b9a6794a696379936
col15:   964998d59857289a5b8a9c6d996a9bad9a9a7aa8658b88b8887ac9daa7549686677553b668634a66
col16:   76787ca677658864b77755bab789877ac98599cabd7aca6779997a8ac7a92968b897678967547474
col17:   6493799a58a379983a78b788897798baaa99d599abcb6d6a8b8859b5d895785659a16a74692a7292
col18:   5a876a6795688635757bb87389a5c579d67a5785965bcaad68b587ab979869a645854c7541524513
col19:   658757368a888a6a7b5bb698d4945d6bd989a698697ba888c84a8a96db67d976d97aa69b67aab563
col20:   ba7b77957a875968777897ca6b6bbb999b8699964975c5b77a8796abbc62988697755392988a7a62
col21:   99896967979abcb7675775aab89bb67977b9957b6b8899b9b597a67978c69c598d8aa8789c5a3746
col22:   789496657815388ea98c979a76897aba8a9b55497a9679b9399b5a6a96582587588896aa95823277
col23:   97a7843655984536787b886ac878a8968a9698baaa5478846b78b8ab875588687b4c776562853366
col24:   47538a9a7679699879b386a9a8ba78a4bb88ab8aaddc9a6a8b83a5b7983b6d6a97576aa974697844
col25:   49c6e8bcb6ab7586a69666a7795a8ac9788ebddba9997a7874a797a95895688aba9a388968655571
col26:   ba55bb98488bca9eac9b968adba6becacfc9adb69a7bbbc69e9bcb85dbdae89c8268a745b5688584
col27:   78877c58a8688948a86b8bd78798aa798cba9bdada499ac86799a8d9d78648997a66575557388a68
col28:   baa6bcb9b27ac7d8bab7bc9aeacf83ae9bcccfacc9fb9abce69bbcbcbbc7f9988c8a6979778a7778
col29:   aa966a9997c7b6787d96aefd9c89e8acf7b69afcd999b5cca6ad97fa8cca9ab8bcabb8cc6a973376
col30:   c965bda66ec78ac4b9afba998e5eadacbcd58b9bbeccb68a8b9b97a9779d789a9b96788a6b7a4b25
col31:   e7ca97aacbafd977ddc99cd9fb9dcaeceacabcdabad9aaaaaafa9bcaaaa97bb97bbcba99aeaa8974
col32:   a58c7efa9b99767878eb8b9bdb9b899beaacdcfa97ab8999d8a88c9abb8d85cfcba87ba8a5c9ba8c
col33:   a78a7e7b8ca6adbbd86b95bdd98bcdadda9abbc8abac7dfddaebee9979adbb869a85c94a6a98865a
col34:   aabb9acaeffb8c577edebd9d8da98accaacae9d998a998da5bec98cbc988e8ce8c9fb898a6ca6893
col35:   6dca9a8aacdd9c79bbaaaeb9cebba7fad9cad8cadea89bbab8bcd7aabafaea99bcb96a98886a94a1
col36:   88d7874acbbbdc9b7ba9afdccbab9d79c9bdcaacfcba6ca6cd99accd9abaabbaaab9667598982696
col37:   89dabb98d97cb9a8cdbcaa99ab9cfe8feadbefcd8c8abaccfd9ba989bab888996ab98b98a8868996
col38:   ea6fbcb9d8de978ca88aad9ca9efdbaa8bcfecbbaccffcabbebeebc89caab87dbadceb7aeeb8aab9
col39:   6c999bc5ccdae7758cdeac9adcbdeabfce78aba7ac9cbeca8ccccdcd96f589a897abcdba7c9aba97
col40:   cb7c9adcbf7acc97a48ad7b9bff8cfccccdbcbdcafdfebebdba9cfcadc69cbb7cdb966a7d7c89ac6
col41:   856caa7d8f9cfcaacb93ab8db6dac979dafdabcbcaa7deea9bdbd9aeeccac9b9b978c5cda7b88cf9
col42:   aaed9979caabad98bb87ab8cfcbebdcaccbdccccfaba9bbdcb8bdddab8bfcccb7aca8a98ba43d8a7
col43:   abac8cadd7ccb9bbbdcd9f8dfcaffcfbeffeadfdcfa8deeedbcbabaaecbaddcccfcaab48addbc8a4
col44:   ad8aa48bbabb9fc8e9bbfbbfe8cb8dcccdbeedffcfdcdbdc868f6ddddcabb996a9bca7ac9bb8b798
col45:   ace9d9ecabaabcfdb998caaaf9daecfd9cc8feeeddfbbcddb9acb9d7dbdbd957acdcaa667a5a87a7
col46:   dabb8cccbae89989edbbce7b9dde9c7e9cb7accbdbbbc965ecbbaafaedf9adc8ada9d695d86d8877
col47:   afdccc9cd98c9abddbdd5feeeb8aedbdfddcfefeffdcccacddbbfb8bcfbbbebc7b8a5497c969a968
col48:   bc9dcbcb8dbbbcbbbadddac9efcecddb8affacc9edad7efffcddeebdebb9cc8a7b6bab6d8a8acb9b
col49:   ebda9bce6c99acecbbb9ea9ddc9cf9f6bac9bfcbfdb8cefcce9aa9ebea9ba9bb7dde99cabb8b6cb6
col50:   bacdeedd9ddcbcfcab4cdfcbde9adda87ffeebbcf89be9bfadacabe9cca88bbd98aacb8957769e57
col51:   ac8ca7c9afa9e6a989ab9e8c99997bf898a3cad8a8cbbacaa9a9bbadba7d9a9ba8a9666534a634a4
ROC:	 BPix_BmO_SEC4_LYR3_LDR11F_MOD1_ROC1
col00:   39698697689a45b57728997236aaca5cc8bbb9b7876ab5ba599a5777ae9db5ca8687bab78889b88f
col01:   86753467ab94768429bb6faa8486f5699f7bcf8ad6ae8ac96dab8a9e9bca89bbd5d99ca4a9a7bca7
col02:   4d5648b67889865a99c87bbb8d68ab7baba7a9b8dee5bb878a88a9d986fcca8b878aa7e7abeb7bb5
col03:   8ab7d6368c96a6687699a9cab9b9c9a9999dd8b9df7ced8afac6cfcc989a787da7cb9b8768c2978c
col04:   37a97638adb4a4d6897acbcd88975999cabdb9adb8ccaaabb6caa76a8cb9ca7bd5ab7b8a9999cbcb
col05:   88659887cc86bac363c45699f899897d7a7bd6c969f8b96aba78dc98ac9978a898fccbc7b78765ea
col06:   8685b9597ca78ab7ea49896a89dccdaa89dbab8cc994b8b9b8facd6cca98ea6a98dce9fb8a9ca98a
col07:   283893239666ac878697b6c9f97b795aaba97cb9b87f7ad6898bac999cdb97889e5edaa9aa8a46c9
col08:   548326afa9d864bcae8b9a1abf9878597d8b96c6d88a8a87bf7adc869ccb768c85cbe8b94976ac89
col09:   97989a448239633788c99bd95bb6cb8889bdc9b99baaaba79cdd795de48ad775ed7abc989f2aa675
col10:   977366a79a76369966a978d78aabcccab9d79c8cde9bb797a9e95bac8bfa8aacc5ab658b97e9c978
col11:   74466468978697987ab3bc9648bc7889999ab6c6ab67b6db897cbd73b9ccd598a698ec88b9b869b7
col12:   85788675c8671d6aba4aca8757c9b8badc8bf9acca8e9ab6aaaa6aac99a84c6bbab97999b9ed67c7
col13:   662a3347d8b6472aa587688968ea8ccd6a9866aaa788c87e9b95adc9c68d79b8c8c5797ac8bbb9b9
col14:   66878897bc4458b58ab7c8899a9aacab87c7567a7a6b3c1c9b9b97ba88b59baa58ccaca5e8886a26
col15:   5865c6c8a468aeb8835a76dbaac7aaad8789989a868b6a999a89c8b8c799c96e95879b8bec897a9c
col16:   46677a59a876aca6a8a8a87b97bb796946e9c89ba65cbb48ba5b9d8ab7c8ac89d79dbc96866cc4a3
col17:   7b445386777b67857667768476acd65b99849a8698a74dc57a8aac9aa3a8588bcbaa68b6d68c9df8
col18:   6469b95b5726787ab77b895b5a7698c878d7a8a998a775aaa6ad9cbd76464e8d49a97d978eea999a
col19:   4657883359bb5c5977a699b8a9874989bb8d9eb98989b78c9b76ba9d79d87ab86be5be7e97bfa8a7
col20:   6a8366695644ac8657a9679b56b8a97abafa9b898b7b97b889db5cd9d8658b8bcdcaaca895b675b9
col21:   8b36946b7878967853c5588989889aabea69a9c8bd89597b76a9bcb87baa87add8ae9aa9c5c98698
col22:   8a15477769a194ea97acc58c6a8c9877898acb87386de8a896a8b8b788ac499cb74d89ca76a97885
col23:   44775999cbb46679785474869886a7b4d38bd8b8a486d8895978894367976aa9488c8893a8bcb776
col24:   158728772ad16ca9bb7e57aa3c536c9589ab98b76dabba6599c9aa6bf78aa8aa6e982a89699cbaa5
col25:   85638699977565a57db55b86b97b9bcdad69a3d55cabc4add7a9998babcb69689bb84989cc9937aa
col26:   84b8a88aebac3c77a6b7d788bccc6cea7989ac8a6a968bcecb7acfa99e7b8c859f9aa7f79aa9b468
col27:   b996a8b876ca478ab6c6cb87a5aae9bbaa7bddb7f89ba7ecbab6ba9a99e9badcd9aa979bda97ebc8
col28:   a869746a4b8a68ca8ba9acbb778578be9bbbbb69ad8bfb9cd8cacabb6dec8c9dcac5bc9bcacbcbd4
col29:   9a55a8a869575b88896aad89c96ad7acefbc99aad94ddbb6bc8695be99d999c9b6ce57baa988a6a5
col30:   9bb9867594a76bc777cd9a9bbdcdbdcd9e9dda8f6a979bab8b9cd9bbbbec8bbcc7959b6cc7cdce85
col31:   695696787abaa98994bbcba988be9b9ec979bc89dabcc7b4d4b8ddbac9b78ba8c9eef879cd84baaa
col32:   53ba9699c6bc95bacacbfbcda679c9daaecccbb98adb7c9ecba97d9c9cd9b89bbada8bd84a8a9ab9
col33:   7978779a89a889acbba8d89b8dbff8daca9dcb8ed6bdcdaeabda998dfccae9cdbfb8cb8bb7dbedc7
col34:   64a774965a78aecb9aa77c98ba6ca8cabbffddbc9d9babbcfbfdadfbacedadc7dba7dbcebada7a99
col35:   998b9aaaa89b8a49b9db8a6778a9c88baa8adb8b5b897c77eebedb87abad9c99ac8d68a68acdbedb
col36:   359d9e8577ba9a76e77cac7c8acd8ddaacbb7ffafdf8feccbbabdbeecddbcab9d5eb8d7daae989ca
col37:   5627aa6c8ac65b9cbc89c9badc9fe9bc9ec7bda5aeb9acb9ebdabb9ffaab8bbd8d9aace9b96ceadc
col38:   b8bb4cc69aa99886dbeccaa6ffcaac89effeb9ecdfacbf7daa898daac8acadbdcae9ac9ba8aa9a4e
col39:   5a94ccc86a8f189ab9cab6dc7baccabdbcbbdfccbcaaede6abaaa8aa96b7cbbb88ae8cbb8fc9a98c
col40:   ca9767597959ca99e788cf9eaa8d7dd97bca8ab5a8c9d86a88eb7f6f9acacddeb8fc9dbdbf9bc9b9
col41:   21a699a98dba9d67888abcd969789ddcc967c6a7b888f7c98bcca7fad7cdfa9a9b8dd897dca6745c
col42:   8c8a5ac97b7988cc6ba69cda78c8ca7bcbbcbbbb9fa9ccdbfadbbaf8aca8b8bcdcec9fbca6bd87eb
col43:   77a88a9a5c9c7a4bfc477ab8fbfbefca88cca981999cfbdfba8fdadbdcc98fc5cbfadca8a9c7f7ac
col44:   8457aabc27a18dac66cbd79acaacfecba7a5957babe8a9e9a99dda8cb9cebc99a679fd99ced6eac7
col45:   7b7769887d75685facdc8bebccda79c8fb57bfebecc9fac8e898cab6ac9ccc96bbacceeea9abccb9
col46:   a27647d65b8db584c6b78ba8db8aba9989ab8ca79ccdd9fbc8b9ca97ddae5be86c7cdc89a6b69b9a
col47:   c13ab97ec9d6b79a88aa6998a59cfaa9aaa8a86dac899afafebc9a7dbabde6adc7a9bdb9bdc9c8ee
col48:   9b9b89689959968c745c747aa9b8a8dcab9edbcfbcbae9aca9cdbabb969a7baad8c9dc7ddca9c8bc
col49:   c7257a69d8b6dba4366b9caa8ad99abca8cdaaf8daa7ebfaad9cdaf6cbf69a6e5a6cabaea9cfadec
col50:   aa9752785ba7bb7aa48bcbe839bed8a9789c9de7bb9b7a9cc8bfabdbbc8bbd7bb99bc9ac9bca87ca
col51:   9952468367876831565439a8a69a46b778a98c679a759436a66246ae4d99fea7aa8959d7e336a547
ROC:	 BPix_BmO_SEC4_LYR3_LDR11F_MOD1_ROC2
col00:   659194153517578d5c9a76a7b677ba7264987599b59a965c898d59787954766898a468b778768391
col01:   347a736c7586968447878dca9ad8c89869bdaa7eb8acab9bad8697699ba6588b6aaa9a98cb899979
col02:   339947b96a6484d65764a869bb8a79ba6659a984b7a588bac9896796a899a8b6aa889b7a9a96c812
col03:   2396b5c8a9577cb6859c978a6ceecc77c9678899d56bba6cba98b79aaa86ac9c69c7d99aa987a774
col04:   65576755b55644977a97cbca55cadcb4cab6b9996878b789a89797b9d8d8b56769dc6a5a669b9986
col05:   96757c486b766845b8977796969996c5a9cc8aacb8ba6c8a8784ba99a9866bab987d795648a8975c
col06:   9756a97a5878958547c7c6c9cacaaabacb9a69a9c58a79dbf5aca9b99a88bc9a8ab7b7b8ac9c87a5
col07:   5974565c978898bbb5b97894986d9abb889aac5b8966caa885ed86b7b797b978886a7a8a9d796977
col08:   57687a9798a7797aa679b88b6aa6c9a9a675998ba989bc8767a9997875c9b7abb55dc87ba77687bb
col09:   c8b8ba7b87935778dac967d8b897cbdc69b9b8798a87899ad85b9969e8aab966bb8bbaa99988b986
col10:   855996ab798997a857a8caa887a8f9bc79c8fa76e6d88b7a8a8778bbca9badbb7598b957439c9967
col11:   4555c49568a9695565b7b99dab87aab6a7dbcb97acb6d9c75b987868dec7a7999b8bb96aa698c9c6
col12:   99a9668a96a63a4577676676af9ab85ea9d8b8ac8578a9899faf99bb5abc878a776889899a66bb74
col13:   7a599498b76b6a8a65b69a9b6b88a978b7d9abbd79c8a9c77ac7c9899ab87abc5ba96d58a6a6b798
col14:   47699499788995695b597bbb8c8d35ec6794c97babd897cc9677cbb66788a7c8c9788688875ca966
col15:   682369a6ba65aa7b48754a7bc8a67a7b8877b6e9b8a49ba75c888bc6a949998d576a9a6579f8a8b8
col16:   7585696785a7786a7879678d77b29ba99b9baaaa9b99aa8b6a7a7a965a96a699b7887786b65a8a74
col17:   55854886766b6b68a3868a8c9a493b8b999ccabc9a8757ca88a99d67ad7a29a697bca7888c79a876
col18:   8474796647765998976997677c9a6b83b3b898a658bdb95869b777969ca8aa6866bba6c79778a7b8
col19:   89656b79b77a68bb6a447788876a7ba6ca79ab99758a76b87986788898a9abb8a85a79779aa9ac65
col20:   87176477a887389688966c567768685795998aa4ba8b96369b798da66cb76a98ba7a977897579666
col21:   579a5ab85ba87ba6ac89c6876d7879688aa8c788cdb689899c889877a9b89b88c9a579697797cac7
col22:   7996869a88869a97ac7788b799cd7769897837789a98b8977599ae98a5798d9c55678897975b57a7
col23:   4633567436556b877889a7b58872a6b947cb779699aac78a669a799c896985c4797bc88a68427c86
col24:   78624684545a786589ab77b799975bba969697697a7888ba77899eaa7b72899a8bc3997692d758db
col25:   971255899b7a8556589bb69b5bb877a895a87da9cc9499e79668b4ca9796b9b688989b965ac86968
col26:   8756886a77ba688bc86abb797a8cb699abaa999bef969aadba8acb8a9aabd7b9a697ba769b9c75a7
col27:   778aa69d77868b887997b68e5bd7c9e69cd68aacbb7b7cacfb7b97b989a7aca8cba8b6a86c865a79
col28:   997999867a64779aac9cce7baca98b9a789c799cabbe9aadca8b97bbc7b9798bac967b995e68b7a8
col29:   79559d95bd98a9889baa88788a9696aacb96cc99cfa8c9cbb8b3cf98d87aa98dc7b8b786a98b8ac9
col30:   96798b8a8997769abacaa9cc978b9a9fba5adabbd9889b8debcdba9dda9a98d9dccbbd6a69b8b6dc
col31:   7859ac59b7cea7895c6c69c8c7c7885998bbc97a9a9dd9b8da88d5ab8abaaabba978b7d55a8baeab
col32:   849576cd68857ba8895c89bea98bcdcbb8c7aaab7c79aaadccedadb9ca9d6bccbbbd9a98a7cabb77
col33:   6565668ca7b5a8a3a5bb88a99abbc9eedb99cddabcca8b8fadbae6d7abd8ca8c9a9abbba9c8768a6
col34:   947959775aaed6abbb887ababb8d89abdabaa9d9fdc9be9aecaccbe9c7acc979c9a97978fbdbbda7
col35:   98b79bba94ab8c9b96a7998d99a6b8bba6aaae77bdd9b6ac7accecbcbcccb9dcaea8cbb9a957ba8a
col36:   caabb663b99976baaa687abbaac98888bba9ebb89eabb8ba6d9cc978499896bbaf7bbab676779bba
col37:   868a4ab8ca848e749aba96aabaebcdddacdec77e9d9abbbced8a9daae8eacb9aa8dbabae9abaa8ab
col38:   9969b9ccca9bcbaa7aea8ca87abbdbdbbc7dabcadfb897cd5dbc8b8aed998eecbd88bc79da9caba9
col39:   4b697c9a97bba9a87bc75d8878b88bb989ccb8bddad8aabaccbab9cb9ce9a6af9a9b8d79ce97cdd9
col40:   59986c8974aa9989abadddd9a7db8abacecab8cea8ceaddbb8e9fcaa8cb8bd77c79b8b7dcde76dc8
col41:   c6868abaa685db899ad96abbcce8babc9e9abba9b7bdadd89ccadaf8a9abbbca78aaacbaa9cbd888
col42:   68b76b98a66bc978da8bbaa98ce8cc78fbbdb8eaeb8b998e8cc87a5d6aad97c99bbc7cacfab76ae9
col43:   cb4d88aab9a7b8da76b9979bbebfa9cdc8ebb7c8c78bcd7cfe7a6accf6eccbced86ed896ecbae6c6
col44:   c89a9787699a9c7a9ca9b5b7c7a6caa968ed9b9dbef9abb9bbabd9bac8bdbeea998abea9aa97bac5
col45:   bc9a888cb5856ccb9bd988df9bbc8cdbb9caab9bbdccdc8bc9ba7b58abab8a8978cae9dbec8adcb5
col46:   9777ac9598a9997a98ab7bab9ba4c9bad9acb9b88acc9aaeaa869a9cc7888bb6a99eba8bab797a86
col47:   9b9a9877aa9886ba9ab9a9bc9dc8b76de97dd7a9d68bbaa9c9c99b7a7dbab9698c9a88b8acb9ab49
col48:   c8cc879a88b6ad99ee8ab4bb6d9ab87baa689c8dade9b9bc8c8ada9b8eeba99dca9da99b7bc9a899
col49:   b4978abc97a88777add9ac87f98c8cdab978baaeda6b8aabaabcbcaceca89abc6a9ea99d89c79bc9
col50:   589899778aa66bb6ab98d8baaacd9c8bbba8db8bbacccca8be9c9cbccd9aecb8aa88789eba7b58a8
col51:   5127568654549565c55a559c6b897769b879a98a7da7b7876876aaa586977779696a98b77995b73a
ROC:	 BPix_BmO_SEC4_LYR3_LDR11F_MOD1_ROC3
col00:   6486695776655646749585698aaa973599974579cc689966599a6843cc977c954b2ba989957a8b82
col01:   24b697a587a696a73a759b59955a98a58b96857798d89ba7b595578ca677a66a5899a9aaa8c7be78
col02:   55738787475858387693678386979997dca8ac5b9cdbaf88c8aa8a6aa798e376b6b88bc69b6a68b7
col03:   a89556576786a57898b26aa89a88be9bb59aab8eabb7a99abcc99ac69a67879a5795b78755c69cf9
col04:   164832796555779737a778a9d79ab986b6985799977b99899abd79868b67958687a69979ee899e97
col05:   1494c8956b75759498d755775464a5b6757b7cc9aaa6ba89a99a7a78bacbbe8889b8bcce96978684
col06:   675572896645879ad5577998946aaacf79979e88be799abe76997cac999a799b7ae69aa979b9babb
col07:   958797649975657a8754a6a97bab686997b9aa94997999677677f6abaeaa679baa69c989a6f67887
col08:   3447a7797966797769559a7676798b7b7aac6849ab8d779875a8978ae95b57b85abb6b8a9aabc767
col09:   82258269b9888a8a99a6a998abb4c89aaa6b979c7acc6a8a8d78b77eca9dabcdd9689aecb6aa996d
col10:   556ac79744746857655aa69791b7698da878d9b796b897d89d798b9a87656b55cdbb57867cbc7a74
col11:   97517776798a3b94879a779ba48a828c78a89366b8cbc5975dab79988565a8b9636a9ab99a996884
col12:   4655946695739594b477585b9a7cb987734b7887b9e78869997aaa66ba8a87999767b9b88a9b579a
col13:   ca46745649789556877a9699a8c669b799c57698b999a887869998977bd9cacba7799bc9a68ab9a3
col14:   65a42472a548374386775a897668bc6b8495aa789b76c9779cac8a9ac78d9756d8aa996998a59877
col15:   7144438557a3856a58684a98d9697ac7a6b67a9a9568a7c699a95c669cca88985b597bc8768ca9b7
col16:   75354376a84488668895686a88a7786a98a7777877b9db769a96987c987ab96bb67a997a9879ba56
col17:   6557575566675779344a83a68ca8b895a97976a996b8a78988b597aa8aab86a9aca43b9d68976896
col18:   b8538aa7a767976aa8877a568977aa6897a8ba47a888cbb879a66a889aa8b5ac85ac9c897aaa9c88
col19:   8968525584b44564737a587579b899d2964899b6566a7ba5586a7b998987ab88bb7b88a76ea69a9b
col20:   638355899376b492998a87b798857577887a8a796a9c9875a898977468a9ab7699aba77959757995
col21:   5497864885929a961c89aaa68596968c97849b9568b8a8aac97b6ac7a798a7cb8aa789997a9a65a9
col22:   574557485588874ab675575a989b79a86bc4b8b879677695ba7c9a97699cb898a59863a47db997a5
col23:   756448766d984585734b999a98586b4a6b5879786a77a9a5997877949a798596b7799879a8667877
col24:   a444545547ba36477ab525a988a6568ab7bc7ab8ed7a799bb967584996b798a755a8696aa568a985
col25:   8868b4a6598736746686838aa7c777b8899b96669a87788958798656795985cc58a86a9b9f58b897
col26:   965868766a616b3a7889879ac9ba6a9a99d9a8ca9a9a8abdd6deaa9babeac77a9b893868cb688ab9
col27:   768665b99a8a9776abe4ca6b6bdfb5c8898b689acb869c9755a8b778a49a66b67aaba988a8695aa6
col28:   a66973a58aaca794958a7ab8b8aaea9bba796b7899969a7788b8a8a6c9eacbbbb8a99bacd5b9b6b6
col29:   6558b56b967589785387858b7aa7c7b9b77acba8a8899aa99899a6eda9abb78c9976bcbda8c969ab
col30:   b5597798bba89c9459d7c97b99ca9d77aaa7b9b4a8cb87cb999898bc79aad8baa7aac6c89a7698cc
col31:   4887ba869699684889c88e9a78bc9999abb7d578c9a9a8a967ac9a7ab4aa9b9b9cbca9796aa7afaa
col32:   849696cb747c88ba7b99add9aadaa77dc7abc7babddaab9aaa998c9a6bcdcbca99bbb9ccdbdabc5a
col33:   8b97869b6db8ac7877eab9fbaab969aaa8cdada989ebaecbac9b9b9cbbadb9ba6ba8db7afcaad7c9
col34:   947a8894b9ba76b7569687c8acbabb998a9d7bb7dcac9bc9b987e8ba9999b999b689ca89b67bbe96
col35:   7998a78699a9a934a7b9eb978b979d98ca8b9e9fc8b98ddbacb97a98d7a7ad787b768bbbbaddaa79
col36:   aa59699c96e7776b8768a92667b7acaa6aa7d8b9aeb8bbdb7bca997bb9bbb9bacbcbc696b5c899b1
col37:   b65476a494d8c9b7bcbacdb8cb97bfb97cb7bda6b9c9b89ab9dadd88accbad97b98ab8a7aa6b9cb7
col38:   63a9a57899c8a9aacdb7caaada8a9babccc8bacabbbaca9bacccbaae76fa7b9b97bcb99cc7b9bb99
col39:   6629a89868a9a9b9ba98e7ad49c78ac8d98997bc58fbaa8988bcc779ba8b8cbb8c88b597bacbe7b8
col40:   8899959687878688899b85b99cad9ac7fc79b8d88aab8ab7bdc9bb79cce975b9d9abcca8b97cceeb
col41:   69b499c76aa77aa688a719bdebadb9babdb7ccb66b9ce89ddc99bad37d6bdc79aba89aab9abbb6cc
col42:   94698ba8da78a646b978d47b7c99cbb8b757bba7bb8ca8e9b69bda8da7eba6acc86b598c9779a98b
col43:   8988878a48997a99997aaa87bea5bcac9bbbdcb968dbbbb77ca9a6688caab9aafdcaddda9b76abb7
col44:   c98b98649aba8768d998cca99da9ac7bacfcecbcbd9975cedde88a98cb97b99e8d9b9bc959ccb59b
col45:   6a8c6796cc69a6b59789c9babbbaaaad7b9678c87bb897c88ba8c97abbaa79efada97b889aae7af7
col46:   887496b577aa99cdb9987c9e8ca698cabcb9bab8d9797fbaab9887c9a96a9bd5b6db79a6b8cb7ba7
col47:   aa7ca98b7964a88c7897e8895877a9a69b9cb6c8ac79cbab976aaeb67a997ba9cb7a98fbc8c78b99
col48:   77999799999b7a9b95a8b767c8aba9c6cb8b8bab7baba8ebac8abca88bba7e99dd7aadabba6899ca
col49:   6849c7775589d8daa9a9586a68a9cdd77a99dbc6aab888a988c986a98bc99b9a9ac9799a88add75a
col50:   633ab75787a9b8a97bab7a9a9cbab7799c69b9abbbaaa8ddbada7ab6a877bcb8c989d786ca9cb8d9
col51:   3535868275686667553387a5555a89a577a685a6993879677677886bd53a7856a88683977c9987c9
ROC:	 BPix_BmO_SEC4_LYR3_LDR11F_MOD1_ROC4
col00:   811232111892511455715151453233867145124354759575437665445395337242a4421352667666
col01:   41256542444454641a7545111249862917659439723769344786397265635685955348a52a574815
col02:   414121454223736134553752251461a67784a469684556812c65464886926475365367887c523a28
col03:   22344266262533234596a62525819847c7a356856972687855c5886546463b49745199a35752b168
col04:   53214212561344b3537442367334666459748948674668b7a655586386b67c647676358365654578
col05:   314371422634463563216556b38588466983476a756578541974886b9a5583986483886426263375
col06:   3945323447421743695212421454648b4a666568699362aa8759649b64589267757245a748763685
col07:   553413114464213641764733234469a8664183a48636747698688566697645259686724984632652
col08:   1436242431142347142715a16754344754247748666867336656987679657a676547468832468776
col09:   116224622168358227751254796746684a9846a38666547635564682694555a9a658785149875689
col10:   11811113251412924135a46453857267768646535359355844639c8258135a38b5383763a8656855
col11:   438231614451151517543637457826627797656665735976b5766466368a24947775a99528347475
col12:   26121212134215385345175646586473834847816c55518513768441658a5564a9683a4848668567
col13:   743312174346617947c743a1675555681b6864748875965365756666a982685982446443a666d965
col14:   111311151855342423351341285764486768364a78b4625a88a74867c7a49b646453375569751664
col15:   11224915133357872554565873527667567a65752b6488a8587866a365a98975a641b66825678672
col16:   5141112117872528557456797356698c1748392465a8957544a653547758a2484735953665364678
col17:   311512531524916145568766381386579b78676834566774548874744a6857678757166419545846
col18:   61123132313134123457141488747463562164612755687589764a697557682565587376596a6b24
col19:   515753137141146775643532642831a4839a76787789547a69857365a34878c89b58684856656848
col20:   313311438313234566326a52854767674665642584645756555425a8743431485477483553736644
col21:   15156544532453926758546263928243678454a56a565955536594947b459a5695a939b677679795
col22:   54641114538722146511666565738a461545799495987859544858645a6645666837958768569447
col23:   4443333112511444516214554466463195659874b64585436755445687842b234788259664837575
col24:   511146355168526855267614a5a46227435674567642695775353435747a664378553397858579a6
col25:   3433341356549695557237668242625cb6778866b672938582687347a48758855866481863438564
col26:   13287325367825939275b38878395687d584a694952866666a6a49b6cb597698956a6b6938745345
col27:   8354558649772482574834999667453a35897966c954155a627968b665b975a97a758753782a9299
col28:   41165212756577a85356a7945636667767669a77948a584598761598c3a985a3d8876a6645978477
col29:   4c414637678347885583245a57948788a87547b4aa8a489688a891858a6c48a656798a95b9457437
col30:   53756164868443775935634565338669a6757a59a367875b97ba69865a6578b683a85258ba8a37a7
col31:   5855365532975153968996895887759896a79667876bba542a57882b84b776797879778a4759d897
col32:   3266463439245a758375487589a4696775a88cc69895b4bc397768b886a85656d8c8a96aa9688a79
col33:   756414665a6c694679668578385688a59686a579897695677a59692aab66b97a73696689ba7bc884
col34:   436a639586787569a197869c993467989776689a5877737865773786aa7a88b68b48c88a59c97797
col35:   8496686357666625a6a96b7597769a9ab99b59965b3c567658b69998bb7ac6ba668a87693569a674
col36:   42b4445675554494769177b75786b92665777a99a7586568987ca8ab567b34656874b4669a9659a6
col37:   3926a575c767ba455a589769c67cb88599a6c69a67a6a6734977b7b8a798ca86b977a6ab58389767
col38:   516461757436d5555b58b7a74ad576a668a658767987a7a98cab89b879454b55a47a59769ae68635
col39:   958465b6b659457456b89b97c67aa376798754579b9bc897c78788ca8a6a8545945863c38a99de99
col40:   444383585133991785c457ba7a66b898a84b884d66777893bc75ba8a6498c67a8957897bbd878b95
col41:   34438a365349597589639a6888a6b4c9c78ba9a86a7a87c8994c7488b8b976477887c6b48977aa96
col42:   133766856641883992385b68896a78a4bb9796997a8bfae854c97a558978d77989634da7aba95c55
col43:   65848497459b46586657888b598466889787954a96d7e68a84d5766b89a7d9698ba7769997758a98
col44:   5267697686336571878774778b8888b3a8a577b88a9b6746395a3698c69bb87ab87a69cc8c996666
col45:   586547485888883999a89a7637ca765aba969898b476a8586cb6869476568258b7b77787999c7baa
col46:   33692965886875456a8979865a37c79b6599b8774888b996b98b84ba4984cc5898654b399555a887
col47:   65441a48758a3a975746b6b878a8a667aacb5a35766d8994cb67adac8ad87b997989ca5aa7a66aac
col48:   222464c759627b63994b865858887b69999e569867579875a9765799a5d89c58ba97447598a7946b
col49:   691875375a86288b379884c9866488896445c79a8abcc97b95687796a5ab8799568a8a7a96ac8b7a
col50:   844675687656458957676aa4888e977db897877889878983a65f26a77b9c95956a7a67a8886a8cb9
col51:   422674b411554773796472356499767576875374678988679783a78896676546a988986867876c77
ROC:	 BPix_BmO_SEC4_LYR3_LDR11F_MOD1_ROC5
col00:   a8714668ab77a76779359689b7ba9c74a8aa98b9c58c7d78aa58898a676bc488b7a7aa94ca8f8755
col01:   898b8749876a7eaaea6bb9a88786cabd698cabaac899fadba5cf9abdbcc8edb97ad8a57969c9cb77
col02:   8997c8c7aa7ac77679895cbaa7fbaa988ead6aa79b9669b9c6975985b889b8c847a6cb54a3baa6a8
col03:   c876c8d688a989a88b6998c8bbb92cb6abbaddabad9cdcab7bcde959cb889bd9a8babaa8b68be7e8
col04:   778765b7cecd89cbbc9daa8a98d9d6a878a8e96ddab9db9887579deaaebabb8ce872b7adb876a495
col05:   ba9aa9cbba589bc67a7adc3d8c8da9b8cdac9cc9cb7dddcdbadabaa9aaaab8dba5797ed9aa5a98bb
col06:   669b78c8d7b98acbbfee6e563677a97b699eb8c9d5be94cecbfa88ffa7ddebba8b8975739cb86cb7
col07:   b8a7776a687ab68f7cc75dabd97abfaeb59cb9baeb6fbcbbd8caa6bfb798adca569a998abb94a198
col08:   6c9a878699667a8577bb5ba9a96da8c7b7ee8bad899c4b99b7dabd58b9687a6a88fb6e889a9a69aa
col09:   c889c7aac9aaac97a6c8db6aa5cbbb98bb8ca98a4a9ac99c9bd5b9d9e8ecd8accd9aa69abe9fbd74
col10:   98779d9ca5979979aa99b5ac79bcd9bbdacb9becc68ae8fbc9669aab96e9ac68ab97ddc98c9979b5
col11:   885a7969a8b86976ca7799788b758baa7997978da796bcbb7b87789699e7b7b9bb5b6ce18bd763b6
col12:   78988787798ab99996858b8eaaaabbda9ba7acad98a9ab89acc79ccdc9e7b48adad86caaca979796
col13:   95a786868da88e899bc9aa78596aaab5d49cdaabebe9caab8be7f6ae7b8db8cb8b79a364d997ac88
col14:   a5a5a9b5c68d9b89aab8c94a69bb8b9ac79a99ccc6c9caaa97da95d9b887e87ab7a9cda8abbdb8c4
col15:   9c778778bca8ac678958a6878a998b8bc6a8bb9dea8bcba89bb88ec9a8dabb9999ba9a9ba367de9a
col16:   6a3a4a6b8a79aa778d78ae6c7977d994ebb98a866bbae6cb77cac6e7b9ac67598edca788aa7e9a75
col17:   6c5c46669488a779c7a8958b97d8abcaa79aecb9e8b796eaabacf968c9b8babb6aa97696ccba6b89
col18:   7aa876bbb999a869598a9bb7ab5a9eae7c7c9a6cbbcaeb9e9caadeb9cbd8a9bb85ab86cbb9bd5b86
col19:   5939a69a43c8a5da7bb7ced79a6d99c998ba6898988887bd39dab676a5ecfe7ee8b7b88aa895a8f4
col20:   7a4676596c48cd9adc8baa7b9aae4bba7dadb9bc9b8c887789c6a59bcca87caaccb678c5b772a693
col21:   7b8874a7aa96b784a967998aa2869baaadcaf8a9b7998bdaa6797868baaab9caaa8d98b6cd759acc
col22:   787c8695d889a99eac58a974a6dc6db788abafd9ac8a8ba8a8c9eacaebbb58778a9b7b4971ab7887
col23:   37a954c5b77aa9a896a989cc9ca6caab7c99ed7aeabb7cfa899baaa99766b589caa496b8abb88925
col24:   768667598ba6ca8485b986abbd668a6ea4dce978988b9bd7aeba8e9aad8b9eba96ab379c8b67777b
col25:   66679ab7c88cb7694bbb98d9c988ca99d7bbf88aaccdcca6eabbeaaa89cbbe9ba9bab89586a8b762
col26:   5ba97885ac99ce97c87e98a9cdc9ab8a6c7baadcdebac8ec9aa7debaed99969978b7db8a98b9abbc
col27:   cb978898bf6bb88bae9baedbacaa99e7f8aeb5a9a98bccbcadeddcda9febfafdba4babca8aa6c977
col28:   57ca99e9b93aa88d9c88ea97869cdbbeccddafdbbaccafb8a7a7cbac69a8cfca7eabcbcdaeab9db8
col29:   877fb2db8afaa9ab69579cccbeeabebbfce9beaaaeebbbcabbc8faea8b76bfdbd9d8bca9b7bbbfda
col30:   ab7b8aa87877caab58d8dbbbad8cc998bedfccbacb9cbaa597bbccc9beca89c89b97bf99a38bca79
col31:   a77dbbc9b969aaae8bdf7aeecbe9cd79a9b7ccfacbdeaba96cdb8ecbff9a9ab9adc89bcb9aaeaca9
col32:   c79b8afa9999997caacc6ccdacbaca6cbbb9ab9baaced9fbcd79dbdfbdda7bca8fba9afaec8f9fc6
col33:   abc9babf8ba4cdbbadbe9cb9dd9cbbaddccad9d8fedcdacdedcfead6deadddfdc8ab9cfbfef98bcc
col34:   c88ac8da8abcbfe6acdfd7e9d6a9baddcddcccc9eefcc9eccaca9b9acfb9abdc89e8cbc979c99b67
col35:   cae8aeb98c9baa96aa8ca9bc8e7cdaccccb9ccebcbffbefa98d9a9bafac9daacddeba8bab9dbb6c5
col36:   7cac89c9cea9a9dbe89fbeca98d887acefbdbef9ececf6bbe998bad8dcbba9dbbade86ad9cade776
col37:   c89baba7ce8afcd8bbcbf89cbabc6bee7aaedcdc9efebbdccd9db9e9beadc8dfbbd8c9bbd5a599ad
col38:   979ddfac6896aca78cacdcc5ecccbadbfbdbdbfcefb9bd9fe8faefdfea8facd99ec7dccbbae7efd8
col39:   c8c999a89ecb8a9bacbfa8cbcddaacaaa8bf8e9b6adfddfbdee99abbbdfbfe98cacb7989eb89c9d8
col40:   7fbaf9a99facacccaac39ac9bafccbdbbecbbaf8effa9eba9a7cdd9cbe9c98bdaad8aa789abcfd98
col41:   da6b9e88caad8dcc9f7baaaa8facb997eaadabbc78abc88e9ccba4ccdbbc8bddaac8bc69eac9bdbb
col42:   f977b9bfa9eeddacaabb96bfabcbabfc9ebed78d9bdadeabda9bcc8ef7dd6c6ddd8abfdc979ae997
col43:   c6bb8a8bcaccf8ccc89bf8cb99dbaedeeee9abdcbcbcffee78ccebe9c88fce7cabd9ad7bfed8baa9
col44:   f9a7a9dcea88fcfae9f9abb8d9eebde7dedc88abdfeccabd8ccaccdcfbbbaabf8ccbac99dfbb9dd9
col45:   f7cb6bdccf7cdabbc9cd7adfdbfdfefc9fcbeaad9cdfcdbbccaa8abdd9beacb8fdddcbba99bbbb96
col46:   aaa8b7c7cf8d8ee98acc6bbcdeadfcbaedacf8ae9fcca69aba6ebeaadfd9abfabab5bd8d7ccbfc98
col47:   7ec6888c5cb7d867c6c9ebfb6c99bee8cfdbdeaab96f96bbeaecda9aaaf8cdd8a9eca8ac7eb9cfe7
col48:   89bc89baeba8dbbebae88cfaabbaa8be7cefebcccccd9eb8b7eca9beaed8cadbae9c9ba9fd98abe6
col49:   aad68a979a7dccabcc6accc5cd8ebf7bbacca8eaebadebbf6ccb68e994ecd9eecbab88b67de6afa9
col50:   b8a68a7da9bfdeaab68aa9e9b9b9ffba7e79accdcddaac9aa9b8aaafcecfc6b8cdfcba9aca9fa7b4
col51:   99b8647889b5d98882a694983788a7e87d8abcca95c7c89996695976b686aa956792ca7984a6b928
ROC:	 BPix_BmO_SEC4_LYR3_LDR11F_MOD1_ROC6
col00:   65375676c87b5698b688676a87a7a29699a7788b67867cc9b5c8b85688584a57826ab79a64964675
col01:   387889875698b87779499aac95b86c8b9888d57baacb99c8ba58b76979b6b6799787966aa9887a56
col02:   4a9ba56667867ba83b58987459ac98978cb663c5aa658ab9896a744b589ae84499798d95c795a865
col03:   8679858829699789aa9a5b9cbaa749aa8788ddc9b5bbb98aca7878ab9988ba9da459c9ca6789888a
col04:   a97968ab78878b97c6aa95c57aa8977c789b5a8a9cd887ca9a7baab8889add38a99c998aab497c9c
col05:   755787489699889698b848779aac9b5b59c598f9bb588dab6a897ab997a79b6c7bc99a668aa79aa5
col06:   877967b967b99888a59968575ac9a78b9c7cf9d99aa79697979a9aa99b9c98e97988c66858aa79b5
col07:   6587a9b7ba5895a73888589bb4bb67bc8bb35789daa98877b658ba8c9aba87a9486aba7be87969aa
col08:   767aa375784b36b6a987a96abc56d99a879687589aa8788a9b69aa99c97ab786583697ea8777a58d
col09:   49877a9898aaa8796a77a8ad8a689687a994cc67b8cb599769bab9b7c87aaa968967976be99aa787
col10:   4568a7899667799a5959ab878c6677979bab86c7889ac9ab67a7a7d69aa69ad976788777b777b955
col11:   69546475657aa798349656c899bc78b887697986a9d7a9bac8abc98b69b8c49b69488aa9cbabab9a
col12:   86285956347a5ca788b795bca77ca9a997b638c788667bb6777a8897a8b99998976877589b8ca988
col13:   887d85a46784a6a6a9c987bb97a9a784c9ad9cf7acaba9c9a77cb9a7a879b979a6c9bb67d78997c4
col14:   858ab85597a897a76abc9a8767a886a47b9c97a67ab8b878785a96aa99888a89b868bc55a67978a5
col15:   8885796867969979979699b2b46b7b98758b6a47bb857bbc69aa9989595c4669a7c8779a68763a57
col16:   527444849997a756aa78a97ab968a77ca99998a6ba9cc69fb7aadd88b9b9988885c98866966ac867
col17:   796465818665a839767689a95ac899baa666b35aba687a69a6a7ba87a788a84938b9866963786a96
col18:   993ab5a79894a7978a769a6b886a49aa749bbcf677597dc9b8b7aa568677798b8a7999b6899878a5
col19:   674696857694bba7a8979978aba8e67d88b8b89aa88d78b98cb9bb7898ec9c9879ea9ea96da8bbaa
col20:   977688466847876b54578ca5899875ca86968868a9876b87b989589a47a8666876998a9b878a999b
col21:   7657a66479a97a9a77a8a38aac6956a968486aab8aab99a767d799d859be9788b79b9a6948973aea
col22:   77466b69765988a898885c7a79b68757a88b4998baaab8bb9899b8986886ab8a889a579ba997a786
col23:   659566856947b8696b7a5a8958986caba78788ac78a89888987977b85278a6b7a654998baa7a4588
col24:   688596678779559ba864b97888796999ab5d969dabb9799da765598ba7da9c47a8a7b467977b8b89
col25:   577988a792b967a9a78a96a8b679ab68abd97759aae6a5a6da798897ab9b959799a778a896955a76
col26:   7878b89b8abb86998695bbbc96e8c8888aa96988bc9abb999a99caacac99bdb8d7bc77988cc98b79
col27:   688597aa4898a9ca8a9aba5bc8ecb6e688a8aa969c8ac58da5cbaccb7c6ba8a6fb7ab978b9b9bb7d
col28:   a7cd8588abb6a769a9b6ad58cc849d7bbcbc8c89b9cacbde978bb96bab99ce9cc98cceac99989bbf
col29:   779556b898ba979987696adbcaa9acb5a78accaa9c6cf9a7eb6ccbb79baaaad8b9da8d9e9ba8a79a
col30:   677ec686abb68c6b99ca96b69ba9aacbcba998dc9f9cc9bdd8cbacbb7c7a89a7aa869bca9bdcc7aa
col31:   97b98a5879ba888faa9a98ba7c7dbab799a7da9a9bc9a9bdacaa7dd9da9dbaa69aacb7d7eabb6b79
col32:   769cba9aca8a7998bc9bb9998c5e8adcc9b9c9abdba8a888babb9a58b8ecfcf988abbb8ad6bad6bd
col33:   8986a47bd9aa8a9acbabaa8ccaaabeddacac9cedeac6bc9a9d7caabaa7ce7dbfccbb96c9abb8b89a
col34:   987b9ca6a867ca7c6889bd9c8bfaaa989ecfefac9bdfea89bc5eb998caa8dbbcddfbdd8dd9c8bdf8
col35:   bb99d78a6b6bb675db7cc8baea8dca9d9cb99db9cc86f9a6d899dfcabc7cbd7bdedbd87daa98b797
col36:   887bc76e8ab79a79d988aedc99aebadbc89d8da7ab8bba9d8babc9c9ab9dc9bbd9d9cedacc8779ad
col37:   887778ac99d998889ac97c88ab7caabd8ea98fabda98dacbebcbbcdaebdabaeabbc7cbc9c9a96aa5
col38:   b897ab998cbdc9a7cbae8c978ccccbc8eaafcdefdacbccbc8ecaacbdcace88ccacd6cdbbc8bfbdba
col39:   8a78ba8b8aa9a9d9ece6b9a8d998eabddbfbbccabb8cea9cec7dafe9df7cdb8cdcbdec89abbd7cca
col40:   799bdb9ba89aa9758a6b9baa9eccc8ccad999d7abdcc9bbda5d9b69aa7dbcfafbbc8a98feaaebb69
col41:   b7e8aa87b9988a7cbe98c8bfdd9fd8fa8bd8efa4afabbdbaacc98cf6c9ceab8a8bebbaf7c8ab9e89
col42:   aa98788679b89abaf89af9bb869c7dada8c9fecdabdbeaadebdc7aeabfa8baaaacab6bccba9abb79
col43:   77574cd959ab89bddd7cccde9ab8ddbcbcadff98ddedcbabbcbc8dd77adccaa8ba9ae8bde999ca9a
col44:   9c798c7888fe8cb8cfb9898cc8cbe9a7ecfacadeadaca9bc9ec9ccfd86bbaefc87fe7ba89cdcfd98
col45:   c9789b7adc88b89c99dadab79acac7aec9b6cbdca8bcedcbdcdca9b8da8d9bd76cad6879cbb9dbe7
col46:   895a8afcb597cca8b999ab9ab99ba8ccfdfccc8baaade7d9aadb78b99a9acbaaaac9cbdad8b9bbca
col47:   998db59a7aaaaecdbccb5babb9cbbeac7ada8cfb9e8dbbca897ba7a8c6aaabdfb9bcb9cc7c96bdcc
col48:   986b89bbc5e99b869af9eab9db6bafda97dacc8de8ca88c9a79adc7aba97ccbb7a998ccd9aaaccbc
col49:   77eabbc8a7add7a9acabdb9c89aceca8bc788bcc8abc9a898bbcbcd7c8baac889ccd9acc8aab8bca
col50:   93a988bca8698b7b97bbb9baa9beadaaeac9cd8b86bccb97bcc9fceaaddbbad999cb9cbb9ba7b9aa
col51:   85476769a7a878a87877c9b9a68b89769a7b688aa69a9a5aa65baa79cab8b7bbac96858aa9896ac5
ROC:	 BPix_BmO_SEC4_LYR3_LDR11F_MOD1_ROC7
col00:   6254594347424b3795397755977b897454b64797686aa98688946654a89955567b75853629453265
col01:   873a765675676a87588a37a659aa97789a5898a99998a8599d89ce789aa88957b6879a866a988684
col02:   3759384557696963538967667896898ac67c399896789a898899979867abb99aa9867977599a8963
col03:   76848748a637796a74da987778798a9a6d99a7a77a7b8899b797ba7797a3987b87576748a4788977
col04:   97a9456466a5888867787cba78748b999799679859bb9ea7aaa9ac74b8a58ca8977958a767987569
col05:   6569563774653558987579886a9a779c878a8b6898d798b9a6a879a98ba659867c56983797788673
col06:   89675476a89b585578688898ada8a48bb85dc78aac9a7a976a88497897aa8ba97867796a67696688
col07:   777965b9898457b989768b7987a99b9a99badb8c99c89c86ab9a89e66c8b8c888936a6c98769aa83
col08:   446646776778a857868a9767768aa89ba986b8a8a8ac9a7657788a6a98aaaa978659bb7998a67998
col09:   7686b578669675a8984a77887a77995797989b6a787aab58997999a877b98b8aab877887962658d5
col10:   5827585663a985979ac79a7759789b9a9677a6aca788569697897a68a999a7a8ab786a6672796688
col11:   49a8557a8a57795777996a897bc9d98a9a39c5a98a779ab6a6aaca9b9a68aca8567899b573589888
col12:   54b87766779a874788999a7b9a7a779a7b64aa868ba799a76a68a87a5998ca699867699557747554
col13:   9288367887538b99a92966789aa895947887aba78ba787a9b5aa6878b999b7bb9a6599a69933a6b7
col14:   88667aa77968a87664a85688cb9b98779a8bd7897a5a985857abab999b89a86a797a589693986777
col15:   76686598967665a75886a86a6599668aa98888a7ab769695898bdb94779a769669983977c8767a99
col16:   297768758a694858a6a8aa88ca4a6baa9987ad7fa8787be96c9aa9b7a779878a9a9ab8ba8a665478
col17:   673667a86a4a9987656aa877b777bbc6a97baba8c5b98758778c8759da7b99a9a99a989576898a58
col18:   46258685858b86aa6a388a778887b7c78d8a9a99b89659da8a86a5783a46895667b5895756632455
col19:   65a86aab7885b48866a6b78797a9975a9aa7acbc7aa9b7a7ab98daa8ab688ba7b6787897b968a89a
col20:   56a67274756878886989968c6986b7b697ab8b998baba7b795aa7ab8b875959879575965896a5c87
col21:   88889575a95b56767597a599879b6a87a77a6b399988cbaab75b78cb9ac98a876a7877b47b88a568
col22:   6478865385767786989686586a778abc9877d7488b868967ac9cba98b8b8864569a7498754776a66
col23:   62b456e5776558468967b86cb28888899aa59677aad7aa89ba7a6797ac9988a747675d6b67875858
col24:   77678729958869aa669676857776889a89897798a88c5aa6c978a9b6a98a8a4477b66b4573966697
col25:   6989678b9796a867686b797bda99997a8ab69bb8aa79aa99998b79b9ea7b99b88787689877957685
col26:   6a95966a57a989c7bacb6c8c8b9bbdc9cd7cd8b777b9b99a9baabb9a8d99a999769c997989a86d76
col27:   4887a766ac9698c87babcb68cb7bbbb9a8abc8b879ac9b89a56d79b9cc9b8ca8798a8a2a8a8a6753
col28:   459567c6c7987a7a97b88c6be8cc8a9baa9b7cbbdcc799bcd9a97ac6adba8c99988c8ba78897a99a
col29:   b88a98989888999aa8aa8b8bbabbccaa99ca89999a76aabb9cb886d6bcca9c8a799daa6b8a578879
col30:   7838896956a8ac89ca8aa8b588ba9b9a7c99c8ebd88ca99ebc9869dbbac8d7bba7599998ba789675
col31:   7999c78688989ab9a8c995ac98aa9caad96a89abddcaadd99aa9b8a9a9b89998aa87caa67bab5897
col32:   a893d7a87b7c696c88acde89a98ac89cafccaac9bbaacbac7ea9cac9dcfdbcac9c8d87b687588a99
col33:   a998a5b9b6699a9689798a98a89b9aebad86bba7bbecaabc9bcbb8ca9eabba7c9babc9b8aac897aa
col34:   999877a979d89996bb8ba8ba9bb9dbacbbaaaa889cabaa9aaa7b9caccbba99abbcba58a7ab998a8b
col35:   4a88a9baab97a89d9bcaabb9c9cbdcaa9ba98acdab9c8dbaaa98aaaabeb8acbdbab9ba78b98abb86
col36:   9899899748a9696ada998ba5bc9bf67badbab9bc998aadcbb9cbbcb9bac987a9a98bb77ab8a9aab4
col37:   98bbb8999aaaacb86b9988da9b8c8ac8cbc9bccbaac8abcdbca8cbacb9c9bd9a9a9a99aaaa8dcaba
col38:   ab8a999a89a9ac9b879daadcadb9abedbbda68d99dac8a89b9bfdbccaaaca99a8b79bddbc9aa8688
col39:   da77a779b9b6889b6cd99bd799abbb9a9caacc98eec9abeb9b9a9dc899da8ccab9afbbb8ac848895
col40:   59a888a5c86998ab85b8caabaacaeb9bc79dddabda98bcababa9eaaeba9a9ccb9aead9b89a9a96bb
col41:   b9aab98c8b8dada87c8ec8cead9bdc9dbf7eacaecccfc7d9c8dbbbdbd8b9cccabadaab9bd8baeaaa
col42:   a9b98d45796857d96bf86bc9bcbbc9aadaacbee9ac9cdbd8cba97cadc99988abba999b8aa87ae996
col43:   cdba7bcc988bb888a8abac99aeab9baccceabcf99caebccbcca9dbdeceffcb9eda8a7eacb9bcbcc9
col44:   a98ba968ad99a6cb8b5d87accbba9ae999a9cbbadbeacdcca9ddc98cbfdadeebcc9a8bb9bccba9a9
col45:   9887ada9b78ab98a49b9a8beaa8babbdabbaaabbbcdbcbc8bc8dbcc78ccc9addbc975b8d9c868aa9
col46:   a899aaba99cbd6cba9acbbbccbbba8ad9adb9abcbccdcb9bcbddbccbacacbacfbfaa89ddcab9ba88
col47:   e69a788ab8bac9a888aacba9b9bdaacdabbfdeccbadcb7887dcabccac8bbcde9b9dbdbdca97c8a78
col48:   a88a9aaa79aa6bb979d99ce9bbcacc8ddcbbacdb9d8d89ddcdbc9be7aaeca9c98edacb7c86b9eb5a
col49:   bc889875a8a6ca9aa7aa9a9ababdb7cbcfa8daebdbdaedad9b9599f5bbacba9ccbbab7cabcacbd8a
col50:   8bdcaa9aa8b8aba8beaba799b9a9bcdee9859acdbababbf9dacdcda7ea98aadfbbbde99dbc97bc88
col51:   94b866b5668577a8957a78a8cbaab6d9e7cc779d8dc9aab978c9b9c9babb98aba79c98c98d99a885
ROC:	 BPix_BmO_SEC4_LYR3_LDR11F_MOD1_ROC8
col00:   3142976b66a86a6879576685482964576a4668c7767486a9a6a6a575467aa6a597a8a758c6869995
col01:   8849563965775658c794a9887969896989d89cc6b66686587a6854c89a7d68a797a597898988764c
col02:   4656883857955345766769b58a4a99a8cc87686897a7a768a89a899a86c6b6676789aaf89a9785a9
col03:   7566a835896a689488856a956a8bd9c6aa9bb88878aa9bc999a6a9cccc7aaaa8b999a997b6788889
col04:   7457787756476a66b989696c9968aab8b9abaa97878c9aca7478d8a8b8aa9996d7886988586876ba
col05:   874566667a99798a9a579a58786778aa898ab68497d759898c9668b9a9a8cc86c7a9767765c58db5
col06:   a3449768756a8878975ab89a9acaaa78898b8a77996a8aaa98a97a9d596ab76889999799cc97b767
col07:   39567684676758796955a97d9883888b8568c8b796a9bd8aa97589a89868996a79bd9ab5a8887a69
col08:   35947467498476687677885b6584ac9a5687c9aaa89448a39a599a98a787a8b886979ad458966674
col09:   95765547878a658a876895a69776cb779aa9978b9b69769996a9c7798597cbdb7967da85ab56b5a6
col10:   677826786398578755a888a7c7891a69b875ab89a9b968a97aa8aac8a8997697746299b777aa88c6
col11:   93572474587777b599688968a99a4ba7b97962b79b6b9679679a58668c8a8765577664489a5a9c68
col12:   669795a457b677574959888aa5596788b9b8989a95aa7a77bb858696989b5d5738668a8976c5a786
col13:   4755975668a86966889ba89867c8589be9a8997b788a76a99999ba7869982b677a8687a6898887a9
col14:   46552535589785367a8686a997386486a9a88868695ab6ac8698b89a756b6a78795954a97587a979
col15:   326579785855b875189978a6d9985b9a6a8899ba775769939caba689a567888a779a765876c76869
col16:   45665a5676ba82a7578a3b9656786a7998aa7bca49aa78377ba7a8777c97a7997986a8497979b897
col17:   54698337559786a889a8999577958976888997679a857a936a49a8a877895a8a77a9a5ba86448633
col18:   488584837666758667a86b87c3786cb7b9a659b58a9b578c778baac6745789757b6893a86984a799
col19:   3668676657479698a789568865d68a98869986996a98a9a8c97a8a7b49879854688574bab85aa397
col20:   45378965939175592296b6986988a966888996399887676555b58899896ac8a878857889495947b4
col21:   782654784496798bc68679a57c5a49858ccaa87977969757b8a885ab6a7a68a5c888873598d79575
col22:   46493556694563469658c647a37a668a478d8867896798a886a63acda77f86ba649957ab95745966
col23:   783553597355776888676a78a6a76698869c6aaa79aa4aa776968a779a998867578877787c788876
col24:   345a462796a97866698868b9b99849888546a79a8ca8559bab5388898675a7764b9a584498569495
col25:   464b6655a7659778a8966bc7ba86b9a696a995a7bbc578a578789868889acb976898473948747b55
col26:   887b8685868967aa98a5b78abb7a8cb9a9c8d98aaaca88aace98ba7dac8859869999c9447a5ab467
col27:   9279a88857b558aadaaad78a7969c8a9c676d98ababd8dbba99bb8bb79dba99b89989888a79c7aa9
col28:   9585a7549a4588977888abca7ab9aa697a6aaa779a9a8b98aabeababaa9d7778a7a68a77a7775786
col29:   63867756b59966ab3a8968b5a859c9a9e99cb9a6baba95bacaf7a9b9978889794abb6876a6968983
col30:   b5a387b783559a888b9bcbbbe68ba69c86a8a9b89a9997ca98ab9d7a899da98667daabbc8599b9b9
col31:   5664556a69867c898a9b7a8daba69c958bd77ad79badbea9c8975ca8a8ba9aa8a98a858756b75787
col32:   8568886a69a78987a89eacba89bc476ba8db89ac9cb9aa7b9b8ab87b9699baab8a69b8d895ca888b
col33:   a3688887b78a5e89a5fb88ac8bc78bbba7dbac9c97ceb996879a8aaa9cd9a9b9c9ba9b86a79888b7
col34:   7676a89b787a9b9969dc75a98ec897aaababa8aabc8ac986bb79a59ad9c98aabbbb86a8ab6d99878
col35:   778b57b8a689ca8b889b6b9dbabb6899a9b8bb8acc8aaaaab9bfdc9657c7a7a9857a66a8da97bacb
col36:   9a9798686ba6938679a887b7987ccc88acdbbbadaab8acaaba7ccb88bc856f985987c88467a9aca6
col37:   b958a7a76b7c5788a68c9a9aabcccadc8ac78779877ab9aa8a9bbda9a8daba9a798b85989a87c968
col38:   69a8a786b9a97678a879b89ba789997abc9c7bae98faa8678cb9aba8689799c985a9a8ac99b9b8b6
col39:   99a9659c6785989986abb7aaac99ab79eeaabc99ccae9bb7babb8aba88ac887c9686999ae59675bc
col40:   488b69895999bba86ba8ac9c9b6e9dbdb9b7d9c95c9ab7d9c79dda9c789bb9beca8bb98b77c9b956
col41:   68cbb5a7898a89b8a59799aba9bacbb8acbaacdad9ca98aa9daaa8babab9baabb8b99e7d96c8b8a8
col42:   776867987a66bb9b5979dab9b789aaa9bba89b9b5a7d99e8bba998c5bae7aaa88ca87a89bb77a597
col43:   a95697baac999a778d7a6a79c4ccaac9cdbabbbabacbabbcb79d79cbbcb7e8b97cabb8b696cac879
col44:   776598769a78b99cfa577b59c696cd89bca9cbeacbbfbcab9699d77b8bbc99a97686b9b8ad7a98e6
col45:   879977aa9da95546cac999baa898a89ba689cda9976a6ab9c9ba6a79c779c6abb97764bcb6ca9a7a
col46:   779a65a966cb897a7b9dac99e8b9b6ca9adbce9789cad89ab88a9c978ca9a89abaab8a8c8798cad8
col47:   89a788a9ba98b86b97b979999e997acb88d8a9aabd79898b98cc8caa9abba8c8a97b8698a96bac89
col48:   7757a523776879c6c999d8b6789d8cfab9ac9a99bc98aba99b99daa97b8c7c9c6879993988b9ac8a
col49:   5759788a888ba94b4a79ac8b996b99a8aca989abbaaac89a9bbdcc9f4bc8b858569b99999bb9b8a6
col50:   759677888569668b599bdbb8ba99b899aaba89499b9bb88a88b89789a9aa9b89a7b79b9bba9ba88b
col51:   8838a657695672a7476893c739c6767b7b8a878a88874a7779a888736557998666656469a75a3799
ROC:	 BPix_BmO_SEC4_LYR3_LDR11F_MOD1_ROC9
col00:   2411462774b57576679553656a7a53698756aa89c866a9937679aa5989d9f9896c8a95abdbd7a965
col01:   42464b95b468697553b9398bc869858a9a887bb88b8dd88869bbbbb996bd88cce8ba59dc8a8f8dd9
col02:   775587657894783778596855a786896688997d7baa77c988b4aaa886abce67a6b98a89b6adc9b78b
col03:   647578446486a5b8787596546ab7897ac7a97b6aabac7bab9b68c9a8abdadec8bc889eadaacadcbd
col04:   7646887a7668558d87c766697587a7d8b984779cc998e89b9aa99e8c9b89b7dca8ad8c7b9aaba648
col05:   7375836587889698297a7584678565c8a98ab878587a9bbaadcacbc6e99ebaca8aa9b99bcc96b86d
col06:   516677672677a667b7667789b691b9789a9c7cda998aa9aa898ccdbc9c9ba8ddbbabb9dc78b899da
col07:   549967444865a888784aca96988c99ad79caa8986aa7b8c989ca69a9896a77c8cbb8dc7789bdc8c7
col08:   345293685755797348467757667ac9b8b7aaca79897988a6aa539ea979a7978a35bcb6c7c7995ddb
col09:   a845466767a6869898baaa4a9989a998ab6daaabbaa9a9baba98c858acba8a9ab8a9b9d7aabade67
col10:   235a6a8785656648758363a787899ba5c8a97ed8ca7b887cd6a5aabbc8bdbc97c78acaf9b9ab9ba7
col11:   3446236756938751669b61c77697a9589a8b86a9a577c7cba78a9bc7ca94b97c9b9bbcbb8a998996
col12:   786286748527666776337879978a7968acc8d79edad997c9b99cc67c8a7587daa67b597d7a9c9797
col13:   544462557ac8737779a96485a7788688c9aa98acbb897ccae5a96bab8be78c97a76ac98d759dec86
col14:   68255453586989538a97796aa7789baa9ab7777799d7bb96a68ba8ab87a7c79ad8d8bcbaeaad989e
col15:   645197865724476b685a2776b4c6d8a84a996bcbba6caddbbb9bb8bca89c8ccae899ba9c8aba79ab
col16:   9574859593b6aa48b79aa279a4ab98845b698797ac6adaaaeb99aa985bcac9897cbf9bab9bd7a879
col17:   26756621756236667577588676587876ab88cc97b586ac3c96ca9cb7dca558a9ba8b9cf8ec5998ab
col18:   9356518465656926845758847799a976a7caa7a679b78b8d8d7a8dd8caa8cbd5a769aa84c8798da7
col19:   6162889265654536949857a57487aa87a897fca8b6998968db98b6bc8c8a6bcaa9baa996797da5ca
col20:   17619851471639b557ba9b756bba8978c775b7897a57978adb68a499b86c68cb799b998995d9d477
col21:   53655297343a77b97669a85877a77778889865a8dbceac86b9e8b899ea8abc8a7acba695a8bac9a9
col22:   5753467565877898655a656168a9989c77b7aabaa896d667b9aa8bcc97dcb58ea89a8d69996fbab7
col23:   948441672635985564854a9888b679a6a69567b88aad99977bb8abb76baa65c9b7a489a777abb7c5
col24:   555527868a428545797a586b76bb9598a8ada77889b6c7ab99ba6aaa6a9adb89a5978baa7dab8c7b
col25:   3153456457688765a8a985766976a8a79889d65c8a8aa89bc68c89bacababa97d8bbadb9c6bdb6d5
col26:   3874677769a777b7b98b94799768c9d6dbb78a8cba9a7c97abd9ea9a8d8dcda99897ddaba89dabca
col27:   74786879a87556d9a8989b87aeb7d997cab8b8aaad899ad9cb9bebadbaebbdddd9dabccb8a9999b7
col28:   4754a936b7c996984b799ab9789bcd97aaaacdbcaf9cca99bebcecb8bb8acb8bcc9cab8ccab8bd89
col29:   66975b896a86696aa976cab9ab9997ba9b9c9d9caca9cb9fc8dafcbbf8d89abde9deecdaaac8da9a
col30:   6238785369976ecc8ac97aca8acc9b999c889e9a9dbcbbdbbf9bbc88acada8a779ad9cfcf9aacd9a
col31:   485b8886d89888899c86cd89b9ae8bbfa68cdcbdddbacd9baebefdcab69ccdbd9babdacdeddccaa7
col32:   669b856676aa8b8997ebb86af9aabb7bbbedca89a98bcaccbddbec89bacc8def9ddbc8d9da9cd6ce
col33:   c887857aaa9985d78cbcab9a8ccbaaa9a9cbfc8baebbbabacd9cdd8dacddb7ceebcdbedccfabfc7d
col34:   333968b886a5899789c7dbaa8cccdcc9b89c9ddc8aeaf97bcfeee8aeadcdfb7feb8cf998db9ccd9b
col35:   8a79b765cc768bb7a998ac995b799bb9eaeb5baebfca7b9bcfed8bb9a9fbacbaed7f8dbdc869aba6
col36:   77a7b4da4b79ba988a4ac8de9daa9a8bb9a8ac8bfccfd8a9baea9ebec8bb6badcf7ebdabc9baccb9
col37:   7a95b9b96b684bc9bae8cc8adca9fea9b9da9aaedab9c8debcfac8f7cbbbaabad9afc6ccdbeadc98
col38:   653a766b87695bc9a8c7d85b7bbdfaaaab9c8ccbbfedab9decfaeaeedcefdfdcfdeeeadecf79fce9
col39:   99966baa84c8aa9a46ade99a8999aebfa9ca97eccff6fa9bc8cadbfeccacbbcdddbec9b9cbcb8acb
col40:   9598389889da9aa7cb8b8ccd79bcddfaeafc9eccc8b9aac7bfccbfbabccd8dfccbcaccacbaaa8879
col41:   5c75687da679978777a9b9daca7dbca9ad9b9ddb9dbdadcdee9fbbcac9caccebdacadb9da9e7ba97
col42:   95259599959aabbaa668c89bcbaaafe687aad8edbdfec999ec9afbb9bbc8abcbdccddccbdcfcdfae
col43:   a548687957c9baa7aaeda79759cc8ddcfddbbadcedbaefbceaf9bcf976acccffefaaf9b9a8beedda
col44:   76377577a8b8ba99cb8baadb8dd7cccdc7abeadc9cddaeaabd99bbdbadedfdbfb9cfafadca9ebbbd
col45:   89a91695be96987a56b9a5c98b55abcdacab9ac99dcdf6ef7cabcbbc9ab9fdabdfeedbfddfbfbecb
col46:   b88987686aa7678b8bd6cc89bdbcddb8cb6ab8b7ccabcf89cdbaebbc9bfeccc9acbcebaf9dfabfab
col47:   77578988849b6dcdb8ab8c99ccb8f9dc5a9ebbacc9c9ccdcacd9dbaccaddcabcbdce9dc8bddcd8a9
col48:   585b8a495aa997acb77779789bdbe895a9cd8bd8aaccda8b69bb9a9ebcaedcfdcfcdd9ceecca8bcc
col49:   b7618676b997a9b7baa87ce9c88aa8aad9a8acccefdbe9c9b87c9ebf9cccebb9e8b8aaccdc79ec9a
col50:   77999776a5587a5b6a98ecc8ca8cbb9b8baeb9cdabbfdabafcfcbb8aab7ba9adacc8f9aebebeeb9e
col51:   223785655448668969a97898b8557b9897b87ea9a7ba9ba8a5bab6799e98adabcba899a7d775cafb
ROC:	 BPix_BmO_SEC4_LYR3_LDR11F_MOD1_ROC10
col00:   73677267782478859ab41166c46576d99988ea8aba497ca7999ca66946aa6941784296caa6518655
col01:   b48b9964a8cb8a97b7977aacb474aca88588bb7ba6aaa7bc5cc787bb9b86879d6ccab8a7b8869a92
col02:   7698c985c5d7746959574c679aea77c4999d7b8abb7a786797999bb87329b97371b8bbe6757b868b
col03:   7a899a566b5c78f8bb8a6bddc45bd97dba9cb7baab3abb7a96ab87bdbaac6a879bc79788b7a8a4d9
col04:   26795c5898499aab4968ab6168cac285aab58b96ddd7bb8bcbac68a98885eb89a26a859538f9c783
col05:   43836a5c9847c9464b9886888d9794997fdb8cabfba9cabcdd77bcaadcd98bcafbac78a45ab67748
col06:   967678147b8a58b7a86b9999778b988aaaaa898b866c78aa5c8afaaabcc88b889c9a89b76a6ab9e6
col07:   656768469136c66b67758988a9c77ba8faacd8b49a9d898b7b878b84d9eba788b8e9596ea4e89b29
col08:   6665768b7897584b66a9d539a998abb9bdbd978879b8f73b9c6b8985598a9c4ab4969688c86784a9
col09:   71a9679859b484b997d46aa9fab9f4cd99ccfaaa5fa7a99a6b799abc6b9bccbada9dacd8b9f68a8e
col10:   87c6988bbc67786a92962ca7adcc977c8892ac97c8a7ab8ecbb94a78eb5b6a7d5cd388b96c79c77b
col11:   98365778b8a4465587574a57d9dac88b998a8cd99a878b7a859ab976b7ab6a92a5e87977b6677d85
col12:   ca7194585766868bb985969598a89a8aa98a99d1bae8cc9b8a8abab89b9493c78977ac8395c57856
col13:   7659599459abaa9a946b19a998476a75b44bbd5bb578b68bd985ba89ab8bac59c8a74a35ad4ba8ab
col14:   5755a6679b67b84f74a98bdb2a7a797a8c67a65e9b95a79d8b76d6659a98546779749a468d554d77
col15:   95896866879989498675c9ca9f8949c7abeac5b999a79a8cba8a89c769e89669bbd99b3c66885936
col16:   a719843584fab9b9a6688ea8bfaab8a7a97798bb697bd9747685959aaba56b6854bba58b6b985866
col17:   aa6a85876877596a748983a88786b9983688ac4a676ce693a7a77a56958dca96a67877874ac665a4
col18:   a871768556b799a6685ac868984dbcab8a6f9bc79abbc958b8978aaa8989a9949589955757796766
col19:   8a7499c5a8358a6854d798b9766679ddb887967a6cb67877c69c9cbbbe9888a979867c7a9778a575
col20:   a96c6aa7438ca47b39679779b6a7a88c3d9bb8e4a8b796ac67bc68a887699cc79b782b349b486a53
col21:   45a66973c17ab46e84989d7799c98bb66a8a958a9957b98c68896aa78e467c7378789b79b9a877b8
col22:   8454545651b7454787775bb88c77859c94bbaac56879ba7793687ba967559aa6b86a9b687a869994
col23:   9798b769a559839ab873a7d47984a9b8878598678978a87c777e79a9b79c8cb47a644669b7b7a74b
col24:   974769667777896998985e89aa89939987baa9d8ab9db87e5aac6b8ac94aa6458e9b88796a688586
col25:   8b446774b47476969797a478a799a68dd6ac77859c569c9baadbb8bc849a897638b5a63799984995
col26:   a7a86798c6aa9898979c7a8678cfb78bdaba8ace7ca5dccc9bf6abc86dc7b8acabda9d6a8cb8977a
col27:   d6a8b86f39e486baaa6677ab78ddc9cb8dac9acca9b8eec9e668bbaaccbabdbac687785a53a4778b
col28:   767a7799da7a97a7bbccaac9bd9aa7ee9a9ac65cb3acc6f988b8cf6bdb9dc99b8cf7abc997bb7b85
col29:   6aaa78a7a5cc7cdeddaabab9779c7adabd7868acdaae9dad959bbbfebbbca87a5978b79b7e78d496
col30:   c6eb66bbc87be68bcaab9b8dbb88c9dad8d9bcaba9bbcaa8aabbc8aaccb86eb8894cdbc97aa969aa
col31:   cc98aa96f5c7aa8ad6a8a89ac9f99b9cc7e99dcf9bdaececde979bdcd6dcaa9a94dbdb9ace9b9aa8
col32:   a4996b7d6ad9da9cb4ab9faa8d4baabcbca6cd9aeb9adafe7bcbeac97c7e8c988b7ccab9b99bbab7
col33:   48b686c8c5b9a898bca95babdfaed6ab99cfa9ba78999a997cbbccb8d9b94babcb8a5867b6bb5cbb
col34:   7677a7894cfb6698c8bcb9aceaabbdb8a8dbecdcc69f997cdfedccbaee9cbbff686f994c77799889
col35:   797bfa97babcb5cb99697e9caacb79aa769bdcc9bbbbdb9acab9bdadda9db7d8a3bbcbbbcd9a8d87
col36:   a39a9b8b789aa8cec96bbbb9acd8cebebbb8d6bdcaaeacce5cdc9c6a9aa9bd4c894ccaf66de969d8
col37:   8a998b7cc8e8c69b68c989b89cab769cface6889afcabb8c9cabea8d98cbaceccbfd599987d9db86
col38:   b98aedc797b99ddcecdde74f5ebaaf9ffeaab9b89fb89bc9fa7ab7a89db6ba9eabfb9bc8b77aecef
col39:   57b666bbcb8dbac987cbf9cb9ac69fcba8ddca9b9cbecdb9acbaca7cb97be8cf59cabc99dba9bdbc
col40:   a9b29a8d598bbbcf8ca59cd89aa9feb8bedc69fce9c99cd995cdbcf9d8d48a88cadbdcb7a5afedca
col41:   ba78d5d8c85cb68867c86acac9cd9debddddb8fbcafccd8aac9faa9bcbdcabbb6bc89a9bb7ac9ad8
col42:   c5a65c9ab978d6bbab8a8afaa9a99dfecb9a9ab997bb98decddfcadb78fabaa99a4babcb6ba6c98a
col43:   937d8cb8e48d89adbbf6ecccecdba7a9bcecb7ebcdfccaabd9cda87ff99accb96bdacb6a8bad99b9
col44:   89d9ac99a8d7e958b9b8abb8dbbc8bbfc8df9bb79d9adfe7d4dad9eedacdce9b9bc7dabdc7cbceeb
col45:   a87ca7c9c8987cb79daedad9f8d9d9c87bfb9adcaddaed69caabaccadbbc7aa9cad6aa7ba85bccc9
col46:   c98595c887a75ab8b98b7caadadccdd7f6a5c8a6aef9bd6bacb69c6a88aa6aa8b9bde9c99cd86b9b
col47:   b8b8896c87c85bd9dab59ad79d9f79c96de9ddd88a7d4badabdeb87beda9f8c58ed9a7b3aacb7bc6
col48:   8789cb8969cb7a8cba6beb769a98aa8dbde8eecbdc99ddd8aadccdb58d6ca7accd99ba98c889debb
col49:   7868ba88b97d8bbc6ebb9b6e9efeb87ffdaadadbdb49deda9a5a6abce9a9eadc9ca89c9cb1ac9de8
col50:   8996ab78b5c9aadcfcbd8dd7c9dda6b9bff8f9ac9fbae789dca9ccb5dbe98c9599b6f77bb9ba7dcd
col51:   427273c854895a495b87576989759cbca9bc96b8566c76d7a68998657748c8c4ac776a36ca995c67
ROC:	 BPix_BmO_SEC4_LYR3_LDR11F_MOD1_ROC11
col00:   41866a46955564367579846b5a892bb657989694859bb87999b6b897c5989896db5aab88c5c75946
col01:   6678375678958a7a94b79b8c96b59b7dc64be89ce6ac7969b988779e64c7968a89c7bca3d78ac786
col02:   17549d3c8c8172a939399b515fa778baab88aa9a89c8a7879ba886347c6ad8d8d44cda68a59ba999
col03:   867983857597947897b8a98aa9c8cb9ad6ead88da8acb88c96babdb86f4879acaa897c8caac94788
col04:   599a4495777443762fd95846cc9ba97b8a5c959bd7b6b99a9c88e9d867769b6b57b5b5999d6786a5
col05:   a264c489856b598a7865a2785bbadee8d6a8f7888a9b8aa89794999adbb98b7ce6abc8c8b9785b8b
col06:   c6685749563887c77c649286d795c4b5d9b6ae758ae69b9b998c875c8c9cfb66a5888a76da388897
col07:   9985b574c7b877d79886aa3a959a89ba79b6db7baccb58599dada8a69aab774899367ac86c8a5756
col08:   7457b644a525974a787c6a996d799ba77a9a873868ae88588b8a8c7898967889848ba9498da879c7
col09:   6449867979c4764d882986866acb898ea9c89bbb77b7975aac7dbabcb858ca68cabb9b86a6688ae6
col10:   137993a49873798b682a769c5cc968dab9a7d7a79b8e69aa79896688e5cfc789a9cb8689b8289a8a
col11:   739b32683873a95776cb78847839a6b9b8e8a9e7859cea7abb85a6987b5796a8bb67789c766b8854
col12:   188494ca7579aa959bb7849978c8688bcaacc7889999d868669ac87ba79c7a9599889597898469a7
col13:   66776498878ab79768e84868babc969b9aa58aa996679ba4abbaa9c7e5bc9987a988c9c8c87a99b8
col14:   67526296ab897a8a5996a967977b8877876846b9ba97a7d4979a99a599866adcb7e69966979ba3c8
col15:   746996966b599b88798a8aa98ab86c76abad9a896995a888ba899a5488697aea84ba88547c887c76
col16:   458b767997a67a8b827868a896929a7a598ae99cab9a9aab89b99cbba7789b6b9a5cecc53b999c75
col17:   aa6a696454913a8388358679b774876984a799797baea4f969f799ab52b9878897b696887777ad95
col18:   5796662866897767a766a7c85597d9a7c5c68c9b8696a89b7a98ab7c5b876877d98696798687399a
col19:   65377a845853c94a86a97879a8d889596a795929cabc8aab8aa8b4759ab8658bb8a8a948aa8a8d69
col20:   868518878687aa7517a5c8a954627ca69897986a8996aaa9b7ac97abd97dc86ceaab667797a64a84
col21:   465955893bb5599d78a74a989a83b86da97bb98e847b796a8b7ca8cd99cac5b96c67ba658aa6a99a
col22:   3716618745977c7654962a88b7974c59b7baab556a7aebba76aada5596b7abd78879598997b97d66
col23:   8b27459c86276c258aa87858688a9768778b9bc79c76774779aa669c9bd9ac5bb97748667898bec8
col24:   89789427894898893aa79758665b5996cbb7a4cbcb7ca9778cd6899656a997ac6688a8843b4497a4
col25:   78a8991bac7675979a3d8884b9aaaaa9a8888aa9a977a7987cba8ea97b6a8ba7c58b55c9bad946b8
col26:   8978ba9a686acb5976989c9a5be89cabc8dbbb76896ba9d95f88b968eaa89d97bc86bdbe8deaa676
col27:   c4a795ba8a78a9c69abab6eccfca8de77a66be7db8ac7cbda653b8b9ad74a89ad8f84cabb96be787
col28:   9a9787b999b67b9c98a798b8aa7cd969d989d9baddb88b969cc87d8b9accbae78b98a739b7b75858
col29:   8558b3f897c5788a8abaa9baa5c8e9d5dcbc86c9d9ba9dcb6deabca89ccc9daca6da89a98b98788a
col30:   a7867c858996ba89ca799c99d5bb7dcb7c898b9ae8caacaa8f9cbb6bcb85baeba98d98c967c9549a
col31:   b77f9aacbca5a769a8dabc8cdb9b8b86b9dbcdcdba5a9afaa9bd69c99abc93e68aa9afd988abbd97
col32:   79a9aab7ba4bc89aa59ab68bcb7bbaab69a85efeac8ddab9bcb9ebbdb9aabd983bba9a9baa688ab7
col33:   87bac8898ea7996668a7ecba6cebcbfb8d9896bc7be9ebfcbf9adeaee7cbbbbaca7786c899bba887
col34:   778ac98265ca99765ba99bc9bcd78b7caa88d6aebddcaacdaadc9dabd96aacbdca969a97a7aab7c5
col35:   666899789fc95bcc79caa7cd9d5afc9a879dddbca88d8be668fd9899ae9aae9e89dda8bb7cbabe79
col36:   67ca869b9897978bbbabaa777d9ab89af78bcfbb8ca8b9ac7aab8eb86aa9af89c7bbba5d9c99c595
col37:   39da8969a95ab7899faab9d59f68afbdabcadcc79adbcb8bbad8dbc8b79a9a89ab76bd7ba67acbcc
col38:   49adb8967b78ba67accb8bcbbadcfc8c7ac9a8ef8ddbb9ceaba4b77ccebef8ccdbac9a99bbda9c58
col39:   992795bbbf96caa8ad7b89b5de7cedcbfae8fbcbbc96d9bc8c9addd9f88bcd7adb98a78a5ad6dca7
col40:   b98487ad98dc7b9bca89a7fb89cbac8c8cbbaa9bcf8ec9f7cbeeeafaad7beab78f98b698bb988879
col41:   b47968d87c987eac79ca9acaafa989b9c99bbbfb9caeeaf9dcaaeacadaffb7ae8a88c68a88976b79
col42:   c6a7989cb9cb788b968adbc8e8edbccbdaefd98aacc9abbfcddcdcaaadbdfd69a99a9d5a8b869ba8
col43:   7b7caab8ba8cfbcbb9dbaaa879bbdb9cad8a8e789f8d8ada6abddfbceedba6c8b9f9dbfa59b99d99
col44:   cb887a8dc99babac9bc9969b8dabcc8c86f8c9dbe6cbf6efbd8aadeccbeacacfcebc99b8cdadc898
col45:   77e6ba777bbd9d88c7bbbe79bdc9e6bdbd7b779ac66ed9ebcb9ba9aaccc99bca7ccd45b6d9cea7bb
col46:   68a756aabe8cb666aa7b99dcbb98d98aacbbbabdad8f7eeaeef69aacae9ce6b9da69a2a7d759dbaa
col47:   9cd7daaa885d79a88abbd9989cfcd6ecdaecea5eb8e99cad9becc9ecabcd7ddfb9aada795fbe8eca
col48:   827d6a6a9d87ad8c898d7786ca99aa6abaaac8bb79b8bac8d8aab6b9a9a94ca8dacab8bc6bbaf9ac
col49:   8778b99bb99c8d899c78a989abfbbfa7ad8ca9aadbbbbcc9e9bcfc9abaa99b9b9cfde8577db6bbb8
col50:   888ae8ecbbbbb69aca896cda8dacbaa9ad9bdf86d4a8bc8afbd659afebbb7d8c99c9f9a98dcb9aa6
col51:   7736448c5a77ba7b77c79689a897a8467a9897c959aa8b7686887787879a98a885886a9e84b76897
ROC:	 BPix_BmO_SEC4_LYR3_LDR11F_MOD1_ROC12
col00:   67527444926364b9d95a57ba973879748bb77a96bd49c196847599866a87775769c959547995a54c
col01:   94997b8aba89ba5886c78acb9e88a9888868dbc69aba4a796987c8bb9797ba5a7b7679aa8fab4aaa
col02:   695799479a5c85a77669b6ab9487b6baa57ac7c79b686a7b58b8a7acb8bb5aa75c5bd878aca929b5
col03:   8929698a819aba19be78b9e86899c9cb797b87ac7bb9cbbbcf9a4bac3b7aba9adeea9cacbc98caa9
col04:   8665676ac5796ed996ba57a47a798999799aac738a9a8cbabcc9676ab687794ca85a7ac69c9bbd97
col05:   85aa78952485dad3858ab96988978d888b7a6b88a3f9a8bda68bb9794b9bdbba59d768aa8ccacd19
col06:   8ad87aabb3a5aaa7587d98996ae78c888c8b9a97cba79eb77c9a8999aac98aac96e75ce878698a6a
col07:   56b587b56f5a89a9666aa8d59ecaf987a979d9b8a89c9999b8db996bb5ca8a9a97abd98559dbf883
col08:   3a86b73b687a87995b78a87cf78cad87b99a98857d9648ca87b8e6a1794877bba9ab6b5dadaa9768
col09:   8ab84ca9c6898898e7787a6c8bb696ba88bc87b949aacdd9aba9d9a796998acb99a9b8b6e768ae86
col10:   55677757e88764b9ab98a687beb7b9d4b7a6bebb8aeba88c997acb9ab9feaa9b89b997b68a7a68c8
col11:   782784748676a85b7585758888c9c58a82d98779796857c8cca29af99bb698c695986789ab9eba76
col12:   5469669a5a8799857b887bb78a8779898a77c3a7c8da9ba9789aeacc59ca79aba79996a7b5be76ac
col13:   aa656847a39365688b695d8758758ad85bda79d9b9beb98b7cba75b9a88bc9c78a6ac7a98bc6e997
col14:   739b446a78b78d55a5999b5ac84a87d6bacc9d787a668a99d8bab8799cf99c6ae67bbaaa57c9aa84
col15:   5775a8ba99495a36a698a3c99a3ab8aaaaa8acc7d58b887b8f79459ac98ab8bba6746cba9bb957a5
col16:   b598792992b99ab9b53a6cbc99b8a9ab983869dbb777ebada78dcca6939c79b7a8aa7858a59cbb8a
col17:   a986a53673751746962988488a5bd7779cc44b88ea997a635c597a798976f67bbb42adb9a4b686a9
col18:   378866369688ab9aa8889aba99787979cf65c6a86b67f7b8cc79aacb877d99c3cba3edb8a7659a97
col19:   319c6997bd69c856c7688b8a74c6c8a98d9ccb8c88e77ab7daabbe7987ec7cb7eecb98fbc6b976ca
col20:   3344858589bc6793a8787989888b7734ba78a9b8aa8ac88894a7238aba94a8c99b97795ab9b67da7
col21:   58882c7766bd9786977c9f9ca7ba56a7fa8efba7a9a8bb9a698ab975a58d95749a5766cb5da8c756
col22:   7867a75185a8b283a5959779989aa5a9b9ea7cb768b95b968abbb2b9ea9cb98849797bd38d9d6c88
col23:   4c5778c54a315a499d546786a4b5a4789998b6a93aabca9cb86da94b9b98685bbf9e6b6699cb5c38
col24:   596347276325b5a47a47bb8878bc887975757587bb53ccb68db3bff8958749df28b499a8b6647967
col25:   6c75667a8c8ac687566bab95d88cca773979adc998c7aaa8cb987bbb6bd8899b8c895a9b9a369896
col26:   6b66cc48a7ac79999acae9c8dccbfeaa6a9ebabaa59d9adab6daa3aaa88bcacc8efd9a6fea99abba
col27:   a8b6b9b8a5b57a56caecd95baac99b6668ccf59b8ad6aab58b899b99c5bbd7fbcdac4a8a7cfbc897
col28:   9a6796d8cc36a89abf8ac8aacaccfbeddb94a987acccd78979e96de6cfdbafacc78cdd78e9dfd6e9
col29:   5bc7699c5999a8788af69dccad9adadafbddc7f98ed93b79a79fc7a799dbacc9ddaadcbd96c8dadc
col30:   6975b7e9866ac99965bbfbac98589ba5eabbbd498ccbfdace998eebec6699cacdcaadd9cddce94cb
col31:   747b9b7ba8a9adc89eaedacb65dae9c79fbccbaee9dbd96bbeddebbedcb9b7fc9cffbdefdacbbad8
col32:   596bb8bb7766cebbb7c87acc5b969f9bad9a8a99bb9decbafabcda96ddc8a8aebddfbaeedd89d8be
col33:   58998cb9c9bba998e99a8a967f96baedadfcbddccca8eaa9ffbe899b9bbcf96ccdfdcdcaa5aeedc9
col34:   b879c76ca9698aa6bdbb78c8beedd7b9a89ab964bcabfdc5b9ddcfb8dcbaef99eb7677bcac9bf8a4
col35:   bc94b9b9688bddbad7c8cb7edbc8dabdb8bdcfaaaecdfbcfdbcdd587badb78fc9ccd8bc6aaccb77d
col36:   a7aa7795963bc999969a9ed9ecfbaabacc7ffa5bca8cb99aa8ebdeec5accccbdad9aabccf9ccbab8
col37:   8ad798cb8ba99bb6a8dfe8ecb9badcefbc99cddcaeafefea89ecdadcbbcacab9dbffadfcccba9fc4
col38:   ceb99cbabe6b9dccbceebde9eddd988bdaedb9eefdbfb9e9adcbbf8bfcad7afbecaaea8cdaabec98
col39:   8777acc75dc7b98cccdaa7cfb549aef87aa9fbebeea9fd9beb99cbed8ecbbafadffdcbdfdeedacdc
col40:   7bab8bc7bfbdba8dceced9c6db6f9bac6c9fafffd6dffeecb78dfaddecc7fbcbabebad799bca67d9
col41:   95b6aa7ec99bdc979cdaad998dfb7aab9eedefeebcdaeece87b7c9cb9ecafddc8baad9bbe6fcdfc7
col42:   6beaa8cbda9a79dbbec7cdacd9bf9ce96bffaf9abdeaeacecbccbbeaeeabddabbee87bbeba9caabe
col43:   b97eb9fdbd9a85eefcdeecaabc8adfb7dcbcfcfc9ac9decdcfabfcf8dcb7cdcb9aed8cf99ebdeeb7
col44:   898ba7aa779bea7d9f9ccefeeaeceaddabc8ed9cfc9bcfaaecbfaac998f9dbf9b8f9bce9a9dfb9b9
col45:   88bdab46cfaa975ccdceccd8ebb8beffbcfddf6fa8acdf9ab9acfef9fcdabe9bcadcabfcafeddb6f
col46:   b8b74b9dd9a4a79a6bed787dbacbd9bbeff9d7ebfdaee99daccb9fac9ccdc9cafc5eadaa89b7ccdc
col47:   5a6569acc9897be7cebdad9cc87d8d99ebbbebc9eca98ffdeba9fcb9bd8ac8a9a9c6fbdfe8b8cdcc
col48:   6b8ba7c8b789a5aedbba6bcd59d888fbbcbebcbffbf8aecfdb9d8ddb8bfbbc7ac797a9b9e77b9bbb
col49:   a8aaabf5dc998b898799a69feb9eb8f79ef8ca8cac6c79c8feaacacdbacccd48ce8ea8fb9d98caa9
col50:   6999889da7cb9fe8aa7ccb87b7cb9bc7adebdecb9afccb8acd6ccdd588bcdafac997afd8aea8c877
col51:   8aa699b76c6969d87795b796a9dd9baabbcba4b778bd99b3bb6aabcab5c8969ab996b6d9477c987b
ROC:	 BPix_BmO_SEC4_LYR3_LDR11F_MOD1_ROC13
col00:   8823775188795a879887b784a98ac5778688969bc777a6bbab77a68b78b788875a89a8898c589a36
col01:   675354a7654558788997dcba7b86ab9aa9b76b7ca97aa946a999b985b38a55d7b88959e5ba69cba7
col02:   65758827d7aac4668a78cb86b9eb98799896b787cba83697ca6aab8abb6ba57b78969996b96487a4
col03:   5946757649656ac7b5c7b89a9999bb8c7a88db76b5c99a98a378b7cb9a99a8aa89bab68ee9969a97
col04:   657665778588868cd7d6a9668d4958aaa5cc8998d598bb9a9a67795cd8c9cc8487796994978793a9
col05:   436684997a9897776758ca66885698e67989baca9abc9b85abc78a9bac897786c698baab6a98e877
col06:   3a26bb87b75aa498cb6636cada778b8d7cc8b897cabadd9d988bb87876b8e49898aa874a879b5498
col07:   2546b974618b995a8a4aca666b88898b9a98b667898cb876dbbc8aa9a9997874986ac896885a998a
col08:   51595867aa59597857a87697c99db789769bb9aa9877afa77a68ab88585bba8a8775ac83aab7a977
col09:   3476a95a82a8554869da856776bc6cf845a799ba9bae84c89aa6c9bfb79aeaba3ea8e999bd54bbad
col10:   678789a69c9779b695668f8856d7bbd888a67bb98b8bb87a9ca976a95eaa9a96b776acb758c8d9d6
col11:   7267a2756886587895b4bb7b9aaa87699dbac6b47a7b667a9785b88ba5b89c3a9997658a99ca78aa
col12:   9577887868765777a579aab68ac4ba5bc8acbaaa89879c788ca6c987c797c685ba76a9799b779876
col13:   5495938188693a37788a98d3aa9dab8888d9b88a8b9b9ac7aa79aa986769a87db959788b467a6997
col14:   474a38286578787177a48d87c9a8897ac8db98c89665a7b9b668a978c8a9a98878bdb78868d864a7
col15:   76467b6a74aa96769796b8868a87a8be7ab79a7bc9a67a8abbba97b9869dbd7b8bc49cab89987cb7
col16:   855987a73b684676b7a9da78c9b968b8a8b7cb7abcca9baa899db87a8997a79598b7c768aea8b9bb
col17:   57645548853a649565a7a99a66ab77989a8aab69889a945993c7a979b89abb8779a8686599a7485a
col18:   65664959c3a6845883a9bc85c99cd9989a886ca98a8b69aaa67989aa9b9b97699898577a8b455a63
col19:   548338434a8789c735c598b6989b8caa9897d8caa8aaa4477d999df98a6aac6c8b8b8c8c8997576a
col20:   6164aa64a9697785a559b6977879b4478a66c8b497b67b98b99a9b87787594b88ba89b7633658747
col21:   61a586756659766987c7c789b4b8b977dc88a3c97b899797d4bc88c8787a6ab58994c66998bb9a97
col22:   193745865266ab858a9947a6abb787b8b5a9889a79bba7aa9d96a79bb867978ab6a9964aa8d55684
col23:   8286577866777a76ba796788cb578875d7978a976587a679778787976a8b5796aaa1996c5a7b8696
col24:   959b5768b9766673a386d684b6669b99c58a888b7a9857675689697a97aa6b885b87b7763972a7bb
col25:   568935793685c7586976b85765aa7aa7a8b97b76b87878987ab9b7a7898775ba57b5878a7b69b874
col26:   67756458b9b8898a6594a587bbaa9fc5d9d8acacea999879cbaa9c8597bae68a8bcbc94b7cc8b98a
col27:   84a776786b98bcb98a878c9bb99aabda97c79ba9a775cdaaa8bdc779a7cca7ba87d9aa937b89799b
col28:   6a575598997bb888a748794bc99677979aab9a978f9a878caba7b8bc9c8988c79ba9c8989cac96a6
col29:   5878477587a7a77ccc8bd68968698babb7a7acabdba9aae69c9ea9abb6c796a9a7a995a98b88b872
col30:   9489a94caa88a87c79978b6863a6ba985a89aa7bab79d9ecbbbbd69db9f6da9aa6b78898bd8a85b6
col31:   5668999876798c98aa8bab8b9969a89aca7abca8dabcc979ab9bc88b85c7ba69a87a8b89bcc8a8e9
col32:   8a89867a8b7cf54695779a9c998bdbfba99b979aa98a78aaebbaca97c9a77ab9ca8d998eb7bcbbc7
col33:   7a8959997c8aac8e96cabcb9bdea8c5a8c9ba6998db7dcbad8ccbbadebcb6d9bdaa997cab9ab6ba7
col34:   5d9bb9959b8899b9ebb998caabb98c995ca99a88a9c8d95a4acff9cbbaabacbab97a9c75b97a9ea4
col35:   879ba85b4569ba9cc7adc8b89b85adabe9adb9898d9b89a8a7ac49b9ba895bcadabcc6a6bc98aba9
col36:   6a5b69777aa859ea6babb8c9d8acce96ba6ea7adc5b9b6c6678a8a7a6caaea8699798a98d9c98aca
col37:   5a87abbb7ab8a9ca8d976bb9eaa99eb6beadebcba9a7bdaea6dbbaba9be567aa8ad9c95b6ae8a996
col38:   6898cc75dd7bc78aa89898a66d9d9cc99dedacb9c7eadaa7e9fabb9aff89c9c9d97accc79a7b8a9a
col39:   56796944997b9c87a5aaae79d9dc9dcba9bcfb9aaa97e6e8cc7beacacb7d8abb9bdf9a4baa99aacb
col40:   7359b7867abbcadd59bcbcac9a9b9cb9c5ddcdccaad9b8c8bfea99aba8b8aaa6daa8cb5cc9bc89d7
col41:   8a96a7b68e9b8887bac997cbadabb9c9abc9daebab85aecdaacaca99bce88abb9d8799b6e6a9b5ea
col42:   a698aba885a696cdb3c7868c4d78daa8cd7ddaaaac8bd78bb78a9aeaabaaac9ac59ca6ceabbbdb97
col43:   97675b3ab696768aaac8d88b899be9bd8afe89b7cfbbbdcab49b8acccaa9bcc8cb88996fa9bba6c9
col44:   369b8898da8399ca478968cb6a8bcabcb9e87adaa9c8d585acdddca9b6aefc8876a9a88caaaac897
col45:   6794b969998a79aacdb8997a6b9c9a7a9bdd8bbccadd877bab589b99bad7ba77cacb586dd8a5bbca
col46:   6978397659c79777669aa6ab9dda8baacbc7ad7cdd6878699889bd878bdbeceef978cbca5bccab97
col47:   6759cb9a6cbbd7bab8c869a8aababdaacb99ba97faa8cb9ba9bca98afcba7a99abbcdcb7b8b6aa8c
col48:   76ba8765c69798a5bb99b97da88d8accab8dcfbcaab7bfbab9c779acbc78c8c79a9bcb88a8becb2b
col49:   85a7b95a86c86a5a66898ac6b898bbddbb9bbc683b6eacb9abe8a79aa869cc8aacbb957ec7b9aad8
col50:   8a46a887ca886d8a8bbd88d8ca7fda9bc89ccd97aea95ba9daeac7cfbbf9b9ba9bfbcabadaebacaa
col51:   7926566869589877685667a9a948656baca5a89a65b8b59655a376984a7d789857894893a6898689
ROC:	 BPix_BmO_SEC4_LYR3_LDR11F_MOD1_ROC14
col00:   44437385798412587883679a733864835937467828697b6879a66a1c4883368b5a65668423774a46
col01:   768653414761b7899a8a64954b517c999bc8985b668748986883957455e6895687cb846873a88495
col02:   13a495874484599578a59ab9759cba6c5a88835575b7969c7c8a7b88a96aa77a85b8468a8a789935
col03:   482568768691769568885aa96b583ba8697697855785aba684a788978b94399ba94ba79678871a66
col04:   6436a65b86aaa9caa656496785b8991c356a76648a55876a77cb96686778899ad4ab968a6b95d7c7
col05:   42752188558589a8697c54a6769394bb8b99b696a57aaab8676ba87dab8d987b7b7884b6b6b95c98
col06:   587a94aa895586498466a76a59aa758d5c89b9b589ba996accb77ae6a3929b8942887a5b37a57846
col07:   6562844344587b344767857a84a5b485a4c6674486c95a69a799d97aa2b676e867bbaad28a357b78
col08:   3356723577558b3978733988148b468a977d5a9982869898468a757975bc8694766ba97689c87b87
col09:   4885463726c8786b5596a449a77b8976878ab88d68a776d5ca476ab9cbba5777673bd46683a66299
col10:   67876779576a687959489979766b67898aa3b685e76c79847569866ac65544966864a97a679b68a4
col11:   664366766573841d6b683a5887539989a696776a5e67867a556689a774c984c25aa288bbc65a244b
col12:   74627229659369a47668856bc7977baa797cb937775a6a67986c59c6795cb7ba899794688c697946
col13:   6833475626a9386693649948ab77996918a9949b8ab697768786687b96b679887567a96778996c3a
col14:   2786836134757314889a9797b5358894b8ca78cc6aa8a77b888b87b4558ab48a5a988c2c769964b7
col15:   4265677578638467a75599a7797a864dd7b87b93666e5769d67747796a9368368b69774945836a65
col16:   151463a526948869b57555b6a895a6b8a69aa6788965888b967ad9a9a99b86597a9a6ab6b4b5ab84
col17:   52a58464667361b967b86634876497485776189bd7a49a985a778b7876a866b99447a2761766a895
col18:   79882175b5887a79989ba67b6a646bd48a77b68567778676893b474a83745593b85a856446355767
col19:   92884b29568b95986672866387a43863474667565a7a8688a8a97646589a9d6339569889865a6563
col20:   654137a241347553784584846666575a97a8387aa5aa97656b65a8757ba89a79973587677797a369
col21:   71254766a78792722365858977559976879886b16856577a7c694ac67a87721358b599c2975799a8
col22:   2946577566c72774685379339957a74966771895579aa68885b55d276b668a2cb77c577888b4a9d9
col23:   962165948a8769499972433353697546676a646476a69278c988a96566795724d8377b2a44459267
col24:   7872154867878677ad53868787b6a783a5bc596176a8987889b596a9b998653a766c76a5d887d853
col25:   25b69553584885a7818493751874159a878688c86b448a99aa38569ab88aaaa868b8bc48b6857696
col26:   a237556c797bb8899997766d9677ba66948779aba78667bde98ba9b97d7ceb8b8baba49676b5aa78
col27:   74365766a95785aa66685b6b9aa677b899abba678c3968aca9884dfb78b4e56b887a9d8576ab78a7
col28:   12845a66a591a6c78b8959b77a8d9879bb6eaa5fa87e978cb99abc8bad8e9b96b9a75866c3b59c77
col29:   74a4c84a9778ad7555a974a7d99499a1a6a8958dc3b9a988a88bbbead97777c958c7778a8367ad76
col30:   b997779386a4778b778cb88baa3b9a87998cb48a979a98aa7899c6577859b8aa8db48a364885b788
col31:   369c8979a85699bb99b6679997a78a9599ab899e87ab8885976988aab97a87bdac8baca9678b7ba7
col32:   5c8778ab874689b76a69b8c69cb88976bb67ecc6a7aab9a5bababd679ab75997ee694ba37b958bd8
col33:   64b97885a376c8bacbb6c9866a6c6879baa98fc98daadc9bebbbe67c8bbababac699659ba95c6677
col34:   57b597d98678ba8ba7a47ba6b8a886ba69e8677badcaaa79a8aca9aa958598aab9ba87477b97b854
col35:   6a87b4a5699a277796e96b6aa9e9cd8b9898b898b997a636a6858e78b96796dd7caaf5d9498e6a95
col36:   8565699aa96b7a5998eabaca8a9a6a499a9ba43b696db788c998aaa65ab88c89eb6abc5dc9b9bbe4
col37:   9786a973437a89658baaebacbb9c8a7ba7bbb8caa6b8afb6a5eaaac8c98a9df5a97dc88a8c59a755
col38:   887ae8a996ccc6896b79baabfed978a68cad9aab69798caab49ac4cde9f6cbba8aa898ce966aa478
col39:   967c4a639aaa779978c58d9a9aa89ac6ab998b7477d8d6a8ecbaa39bc8c9a89ca98f3b95a7cbaac7
col40:   5a7858a5297caadac89889bbb9b98a777fb9cacaba88a98a9578ba89cba8c7769ba469a9a85acaac
col41:   625695bbaa98698b77bb87989b48a9ab97ac87caeaa98adcb5acb9998597eb969e79d888ba9a8981
col42:   368a96aa97989ab9c57bcabdb5a899b5998ac8bacbab78bbaf5ddaba9b8e9a4d8fd69287adb7ba88
col43:   277a9878a9ab8a7a7798a6a85ba77cbbeaa7d4bcdc99b9adb6b8ac7b9997a46cd44b8a8d65a9e998
col44:   87c4b84aba9967aabaa88cd879caa799b6da98cda8eba998d8b6f5ba85899f7adb878a9bd4998bc9
col45:   437978b76ca67799969aade9d96c5c7abac66aa69acdb5bac8a68c7786ddbaabb8b854b98b87d7a4
col46:   7946857db998d8789a76baaac97bb9ca88abca95dbb9868ad5698798ecd9cae9976dcdbc988aaa87
col47:   7489a3756abb59e8ea8b76978979ab697abc898d7f88cca959a36a799b7b6b8b997ba97989bb59f6
col48:   4798687756946868b999985b748acfbba59d5a5ca4a8d6ac8dd889bb969c96b77a954ac5474898ca
col49:   d5b47b8b699a5c645c6986988ce98689aa5ca9ab97bccbbbb9bdca8784ca7968d64aba98855aa858
col50:   66858b398968f8a66cabb8a9f8dabbe6a9d68ab99aac7c879999979cbc6aed68bb8b6a6849599b5a
col51:   676686338775cc43464499c89b85189577a38487a786c847375aa41798948a9848638a54665a7788
ROC:	 BPix_BmO_SEC4_LYR3_LDR11F_MOD1_ROC15
col00:   466988b48657599859a89a6b88aaa889b7abc698a9e97494975aa79789789d89cca888d66b88aafb
col01:   8a4595a8894253a888986d977ab787bbbae9a7a9cbcec8899969d8d76cca98bb82575a98aac6baea
col02:   657a8666aa8757986c879bbabc898ea99a9eac6ac9a8ac85aab7ca6aace9ce959a9eb99bad98cbd9
col03:   869cb8ca6aab667a97a7898e3cb9a7aaa8ac98b9c6b9abb9d6a7ac7cdb8bb9dda9d8dcaac9dbdae9
col04:   595dac7a9ac9b6abbac588ca77c7bc98397aca9ca9c9cebaddaddca8bac7e8a8caaabb499899ac8c
col05:   86a7298a77a8466498adb96b89ababab77a5a8acc899b69ecb9cf784a8a95a54b9adbd8e7487598b
col06:   a8a75ba5a3d4cdcb887caacc8c99bacde678caac6b7aeaec5ae78fff9d8dcdcc98ceaaca78d6dfe8
col07:   66c9885a77865a6699899cbee98da9978675b8968d898bdaaddbea7af9abc9d9baa8c99c68abda9a
col08:   4958478a37574388ad797c993cc4dc8b99a8c75a9b8cb4a7687a9bbc8ab7aa88c9a88ca6baba7cd8
col09:   a578aa69d6a9c897969d8fbb3abca9babad99dcbb98ddaabc9cdbb7ab8e97d9b6a7bb8bbb9bcdda8
col10:   724744aabc264a9a38a856c9bdc8abcba78c87baea8bbc9bd97c8b6bc6cb97b79aa87af79988a786
col11:   27867d7d996462ac8946ba9bcd9b8879a5dbbacac97ba7a68dba9b8dacb7b8aabb779c8bd879a797
col12:   87c79863b8979748e4b99a67bb8a89ba887897adbb8b78ccf9976e9877cacbaabdb7f8eb8ac5bca6
col13:   a7863267777b8767a8aba3a967a898b989babc85bbb8ceb9af6e89c88bb5bf8b9bca7b89c97decc9
col14:   7b8fd8577bc76b8cac79ce99bb9d7dcc8b9bb97ab66ca76bd15bb798997aa98498ca9cb8b998957e
col15:   a9897777c48599da8a88dbbaabac8b8b98bdbacabbba899ccad8c7978aa9bcab5bdb9a88d5786dba
col16:   9a5985daaaa9a8d665ae959ad9c7b988cbdbde76caf59b99bdcaad9cb7cc7898b89859fdc88cbab8
col17:   8357687475ac94685ac9649cc8579b7a8a878acac58b9987ab8998bb7c779b5eda9a9bcac6b99678
col18:   859a9b6a6b79997b5879b777d5d7caca89c9a76a9ac6a9d6cd5ae66c9bdb79abda9798c88b98688c
col19:   8488ca7568c96b6798aba678b8abbb95d845aaaabba9798d98679bceeb9948cb8ca5785996abc99a
col20:   7518a8a84748988a7785a89bbb96cacbabacccc6f98b9ba9778ab7bd898ba889b96c987a96adaa8b
col21:   9976a59c596aa8d5a79b8bbd895bcac9ac53a79b7bb895b9b6a69988abbf65d69dad9ceb9aac8977
col22:   46ca59788889a99d8768c88ac89aa5ac9798a878ae8bbbb9c8e8b9cd8b99db75d89d858baba57ccd
col23:   46ac987a58469899a56a67c8688acbf989a79baab97c7b98befac68c787acca79a986a5788777732
col24:   399a6649db96c7a9ac9a99ba99cca8869577aa4e2a94aa8bb8899f8ddacab83adacaa89dab8ebc96
col25:   66688b67c845a9d6baa98599ace9c9ab6bdadca8d77989b9e9bb9aa7b8a9c6858e969a95f788b98b
col26:   a1967959aac986baaad6ccec8babe6ccfbfa99c9aabadebbbbdac7ea89bdb8bcaab9da9f5a6a78db
col27:   999988a7bb9797b9b88bf8c7da5bbd8aa96bbd986caafa7f9aa9cacb5fbccf89fa5b977d8acdabb8
col28:   dc86aa6bac9dabaaeb9fc9ebdbaece9bb9fd8cabc8bfaa8abfbfda7dcbbbbacccbe9bb9dcdbeebae
col29:   98b6b8bc26a6bb59acbaaa9ab7cbd9a9b99adbbeaafa85b8aa88bfecfaefae8c9baa7b8c9d89d9c9
col30:   97c8a5abd6f8d8cbfacbaa9adcedccd6b7fcacc78edea9bdfcbaad8b9fcb89fceae9cd8cbc8b4dda
col31:   67c9ab5b6bd99a9abad9b8badadafddcfca97eaaaa896beabff9edbbcefdc6b8b97689a8daabbcc6
col32:   7a4578abcdcb998a9caceb9dcfdbad9dca9afee8badc788abaeadebcef8abdec6ddbb9c8ea7bcd77
col33:   c76796de98a9aaa79bccadbca9bafcc98cd98be9abdd9acbffeacacaedfcb9af97ea9ccaabecd8c8
col34:   eb8ddac678abe9ccedaf4abaceffbbdbbacfebedfcaadcbb9fa9f8949cfbbc8baabcc9f9b8ff9d99
col35:   a9d9967cc9a5b8adbc7c99bb9aeafbedaabccddcdebc9bbdbeaddaafffeabafcbdcaccdb8beaa9cc
col36:   adfaaf7bcbabccdbeabaacbe8bbdaaacbbc9afcbaabdccd8dbccaaedcbbba96dabdaaaadaefc9dda
col37:   add8babb8abbf99dadb67feeca8ceab8ece6fefac8dfacdb9accb8efbbfcfbacfcabd9db9adac6cc
col38:   be6af7b9adabbad89ba87ceaa9adddbf9cdccbdeacdededf7ccaafa9cefcdefcadb7dfccf9addbd9
col39:   7b9bcdcdfcd9edebc89ccfba9d9eabcfbddfccb7dc9efbbbfbcba9fbe9debfafdbded8cce98bb6b5
col40:   9baaccdb7d8cc9c9bfdcbbbcbfbbfcbac9adce8cebdefabcdeeac89cbb9eced9daaafb8eebccbbb7
col41:   7bd9b9a57c9cddfbdcade86fb9d8f8cb88cdbbabdbebcdbf9fea9ba99e8bcbac48cab9aa8ca7dcda
col42:   c98bbdcfda999eb99bccbebfd9abcacdd9bdfbbfddb6acbdcdfacccebecccc9eafabadcbcabbebbb
col43:   ca7a898bcdedf9b9a998eacbbfd9dcdcdaccbabfac9cdd9bcf9fdbeaebbac8faeaabfe6bfbbcc9e9
col44:   7bb9879a89b7dcd7caed8ddc8acbeccbf9cbfbdaccb8faccfdbdecbdb9dafcdfbbbfffccafeb9fdd
col45:   aac897cfbaaac9dbaaa9eddfcbcccdbcafcc9aaabfb7cbad8eebeaefabcddfdabe8abbd998b8ab96
col46:   775bc7cba9ca9597b6cccdcca5dacbf9bbc9bcb588bbbdbabfadcdaaddfdebdfdc8badcabb9effc8
col47:   bcacbeab7a99add9c9bffccd8d93cb8abbeda8dd799bacac999b7decbe9d89aba9ebac9abaa9d79d
col48:   c99c87cbb7ad8adbaacacbbc9cced9b7bbaaca9daeacde8dddcbfacc98eefb7eddec6bcbaab9dedd
col49:   aca8db9bb9b7ae9ebab8ac9e79a7ac9a8dd99bbdc99d78cbda9eb79dc9bdb77acaaa8b8c9ddbeb97
col50:   79f8dbda7a76cefba9baa8fecfac6fbb8edd98dcebb9cdffa7fcabeea6c9abf888c9accfa9cb77cb
col51:   a89899c8925784a9694a5ad7699c7ba6a8bc7ba4a8b5abb76d5caa89d8baabda979998cc9976ce7a
