ROC:	 BPix_BpO_SEC8_LYR1_LDR6H_MOD3_ROC4
col00:   54b59598b64b6471577b5b685b8b756b79455828b55877b675b77bb8886899b7bb98778b4565c841
col01:   74a768a955c87836794978766aaabd7bcd88bb64b6bbb97789b8469587589857eb6bb78cb7579876
col02:   89889783b7545bba659b899bb6978da9847bc6bc8579595a78bc6d97bd5cbb277a9748689b97996b
col03:   9789b7785bb4b7c6385b96985b8b986b768c7895a895877a98ab786c64b5d958b9b8858768996555
col04:   9ab8b98a7677b765bb5689cb98b96879698c87c775b84e6e5b99c69657688b6989a976657a927588
col05:   bb887bbb99974389a877b685bb9bbb9abaa57c6a683d5895b88a585878bddc8bac967999ba8a9558
col06:   68a9b8a89787bcb95b969bbbab8978bbe699b756b9a8aba67b8a699986798bab7ab9c5737c6b8394
col07:   648c79b89685b587768d885b9bb89bbb689cba985857bb67b95a88886486abaa94b467c78b76e8b6
col08:   44cb9bb7db78b74ab31c9b5eaf9ba9a889b97c998b89a678f66b889c5e99c575d5eba6a76a58a68c
col09:   5988b6a6946678a76998a4a76abbc7bbbbc77d69596999bb55769b8c9268c88b87a7cab5b9bb9798
col10:   a69778e7a697647a78878aaa989bc6c8d9aba6ccadb898cadb799dba7c8b83999a7687b8878cc7b8
col11:   67579b868b8499b95c68896d8db9cd599cee6b974a8d46ab6b8aabab9bc7c7d78ba95bac786a6975
col12:   667668956658676bd87ba88d759b7a8bb8abec9c88858b77b986b4978a7bbc69cb9b9c598878aaa5
col13:   783a978577656aab779b979d7da8d69bca6eba78ac7bd88666b768ccb3c9b9bc147b78b67899a8b7
col14:   7b89999a6859779aa58baa989cb6db4ccb879ab9b8ab946985a8bdbaba999467acac8a688b3976a3
col15:   b8948968a6a4b99b5977abcf676b88b4899cb8c76c7ad579966998cc69cb97999bb8b5aba969b9b7
col16:   b87a7b7795b8878b6798889bb8abccb8bbabbad8b9b76d678b88b8a9688bc4be8689a9a8c779a86b
col17:   7b68b57b6889b796b8948ab87bac8869c8abcb96c6a9a7789b9986aff9aa8999bb387b3a7598aa5b
col18:   8764a6a697789bb998bb6bab89b9da97c9b689968a9a9999979a9ba6b9a9b8887caa959d95a889a6
col19:   87b8566287a697cbab967ba6ca9894aa89e7ba3bb4bb7bbdb97bbb9ab99b9ba77adbb7ba89ba8599
col20:   857a9b788887acabb79ac6b5799ab99888bb6d8bce7756946bbbab89ca9764c9e8a6b68bb86889b6
col21:   a599bda999679bba799986796c6a9b9bab8c967acb8bcc7ea8a9e8dbb9c797aa8ad8e97647a6ba79
col22:   766687c9b65b77a86cb8a7b57759dac9b77d9a9a78dca8899bb89bcdbbcb86acc7844aaa74997599
col23:   c88ba9d4699889bb7a6da8987b8bdbeb6999d88a8c4ed9ba7accbb8ba59c5babaa796b674c86a69c
col24:   a8989bc9dbb8c8e86db9abab95896db874bbab6bb6ab978ba9b7b88ac8b8a989a889daa8b78b49c8
col25:   6ba7b9a868cc8989abba39ccff99bbb66b8accc7b869758db9acadbcabc87977b896a7376ce8e7c8
col26:   999beb7534bab6b8d78b9c8cdddcac8eb99eccda7a799e9bbbbcbebeb7f99bcc949b97447c9b9869
col27:   76a9ac8697866975a27999aeb9bc99babb89bba899b7adf999cd9ccbba8dece6bcbbafd6c7bb6978
col28:   89cbb79b999dac675a7d88b9bffcd88b7aeadacbb9db69b89e9ebdfd9b8b7ccfa9aa898bd88ce9a9
col29:   999cddc77d7ac4789b99b87b9ecbcbe8b9cc8aaa69abccbab8edfebb9dfcbd9bccddb9b99ebf968c
col30:   baa996db97c99679bc7bba889bdeb9888cacb9ab99cb9bce9cdbecbbac896aeed988d98899de7bb8
col31:   a5997a869eb89aab5b89aebce7cebff9ccaf9ae99ccf8c7ddaecafdd9bcdafdd7cf5bcaeb9bc5afa
col32:   8ddacba8cd7a979bdb5caaa8daeedcadddec8babcbb7776b6bcdbedfbbdbcbecbe999ccecbdb788b
col33:   698b89ba19fc6abacadae6c8aefcdbbc9ccebbbd8dbda997bb899bdcbbcdbc9ddcb9b8eebb9bcffb
col34:   67ab77888c9d9bb6ab9bdbcda9ea9e9dbe9dfd9ccece8bab8a7e97cdedcdbaab7dcba9eab59bfedb
col35:   a85796ebbbeb888bac8d99bbae9cdbcabe8edbf99e89ccdd87adf9d8dbb7aabbecdedfbf7a8ce8eb
col36:   a88bb7b89bcb97acdbb9a9aabbba98aedaabc7bbbf6eaec9bedbdcad9acdbcfba9ddcbc8c87bb9c8
col37:   786ddc77998ab977dbddaccbd7ecb8e6ebbbc79ac98babbadc8d99dbdb8e9bd9df8bdacec6bcab8c
col38:   986c96ccda69b8e96aaab9aa8bf6bbadcbecdcbb97cc9b9bcd8fa78a8b9dbbe9c8ddcdce99bbfbbc
col39:   84a88bc8b898babab9bda9dbeffbc8cadcbb979ad7998dfb9fdcce9dcdfbcbaefcaeab9b96bc89da
col40:   4b8978cd597bbaa9b98e9b7ceebe9bcbccd97becfbcbcdad9e8bdabadda4aadbc7a5bcb8fcbcbeaa
col41:   989e878aa76a958989ccb778cb9dca7acbebb98caaccacdbbaae79fcdbdcadcbccab79d97bcabe7a
col42:   98cbbbba7d868799abaa9bdcd8baaabad58cc89bcbbbd99cfdab7bffcdb8ccdecebadeaeeecc9da8
col43:   598aba799bc9ab57c7abae9bbdab9cdabdebf9fcb88d8abdbfbcecccbc9cfb9cbddfff8cbf6babcb
col44:   867c697bbcea9c89babd88b99c5dbcdb779aca9cbadaacccbedbbfbbeddeced9bbceb9cbd79cd79d
col45:   59886a987a8dd5b98797bb9ccbcdbca8bd88d9bb9b9ebefabc8cbcd9ec6cbaaec8cad9caea9bbcfa
col46:   769788da8669b7bbd788ecaca9a79a78bfa6ab8ab568baaebd9889bfba9cdb9efb9efc8a9abcbabf
col47:   a8a67b9ba77aba6a694c8cadacbbbac9b997dc9df499dfd8cabcdbace79aeacceccbdacfcbeacb9b
col48:   cc796789476757d66babc6b9aaa9fba9bac8cca8bebf8eaefacb9cdabc7aecbcbbb9beddcab9b8ee
col49:   67b77b95588abaa8c7799cca8b9b9b8ddb9e9adcdbdadbaedcb98bdabbabd8ac8aaeddbdb9cebc9f
col50:   7b59a996c8cce9996768986d9ccbfb9ceca98b9c9cacbd9abaaeb9b9a5daabc6ab9dfcaebbcb9ee7
col51:   6b98b897b49b9b889cbb58bbca997bcb7bbb9db8b6b9c9bbba8b8bbd9989af9bcabcb9ebdd78bcc7
ROC:	 BPix_BpO_SEC8_LYR1_LDR6H_MOD3_ROC5
col00:   69776777aa7ddad9aa77ad998aacab9ed4caa8b98bb8d98b8d896b86c998d86caaf7dcbbcf979aaa
col01:   768a76a8b8b9c5a68aaa9bccda7da8dce5afd48b68d95acddacabbbbb9bd7aaabb7b69a997ca9a7a
col02:   a97989d76ad869877ebeb8dbadbabb98bba8a97eaaa9a7bdadab9aa88ccdbdddf98989f68fdac9b9
col03:   958a784a67b9769bba9b88c87c96bcbbdaac6a6aabdf79bab9a9cccce8affb7e79becb99fecb9cea
col04:   b966b78aabcaac997b7cbbc778cd9a9dcecadcccbadbe99998999bec9989bcac69dcd9ccbad89bc8
col05:   9667899a8798ba9afbb87a6baabd7da3cc7ceb75cde9969ce89c899c7a8ddbc9ef9cfcbbbdb8acc8
col06:   9998ac5a99bbcaaca99dc8ab6caacc9bac9bdbbb7d99dbb8dfdcbc9acdbe9ce7bed79cbaabcc9ced
col07:   887cac9c9699abbbb79ebca7b9a99b9c9ef9ebbadbd88b9deadcc9fb9efcdbdeea9b4bbb7b9e9c5b
col08:   88b598cb7879a887ada8a7bb99cdddfa6bdadabc79cf9968c8a8bbeb8cc9c798c9c968c9faaaa7b9
col09:   6b6b9caca969bdbca7b9c9c9b9ce8ecbd95c85da8a4ac9babac8cbbc9e9486e9c8dead6988d8a889
col10:   d77889a975d88ae9aa87a8e6b98dbf9a7aaa54adaa6bb6eaaabcaf8ba9ddaee98bd8c59ea84767c9
col11:   4bab69a8776a86dccb9ccccdcdabd99dacd6f95cbbcbbab8ac88befb7dacb8bd869779a68b96cc95
col12:   a76bb69889b9bdbba77ee8a9b8a7ddf8ac79ca7bca9bb9cfbdbf8bbbcc9ddb9eae8b69ed88cfad89
col13:   b876f9999a4a5c8bddb6898da68cc87a6a99aa899b6899858adacdd7b9c8c48bd7867bb89b69897b
col14:   8567fc7d747c788959ac778a56869cce9d8e8bdb7ba9f9ab8b88e69cb86aca4b479b76998bb7bed9
col15:   96a99877bbc55aa9bbe87ba79bf89d6c97bca96b89eead8babfcbc7acdb88af996b7c4aaba8a97bc
col16:   86a78887529897a799cbaac7ad5deabbcb9cac99c8a988aa77dce98e9dc9cdb9d9ac4698a8a988cb
col17:   d9b8797898b7979bb8c78dc68a9ca98a8be8facb4a8b8d7cd9db9bab88ddebdd8b86b6ca7798ab9c
col18:   8b4b8a888aa85d9a9d7acadad9b69d9ebd9dbaccca9c998b9babda49e8abceadd69984bb9ababa5a
col19:   c786898866c98a8bd7ada768acdfacb99bcda78b59d494cbc9bbe886969eb999bb7dcda97a9da7ac
col20:   98aaba7898cc8dbedaaa959b8f8a896ea8ea7b88cb9b7aab9faee976ca9978fbdd995abde898accb
col21:   abc7a9e8578d7ada8ba89a9b9c59d9a79dc9afc68ec7d978b6ccfcac9dad7baabac5969a82bcdac9
col22:   997969c6ca5aa6a9ac9babdbd9ce4a98c747b7c89aba99c8a8afa997b9d897c9ce789d9b8c9bb9bc
col23:   596aaa7a3749ac6a9a989e7ab9eaa8a5c6dbc8bbfa7e7a89a7b7dbad86dad79d8c4a8bba8ac36c9b
col24:   8aacabc8799bada9479ceac8dac99bb9cbbcabd9986d56abcce78fabf9a99a898a999a6ccc9ff8c9
col25:   b85a8a9a767999bcc8aacbceebcbaadda9c99b89ba9c4cc8cb99bbbba8aa84db8c97ba969c8b979a
col26:   46b9b9db99c8ccc8fa7cefcc9ca9cbec9aa98bdba7b8cdd9bdad99adabcbb7cdac7b78ea9ada4988
col27:   c9aa6a78689aa98cb9cdc98dab98bbd967bb9b7acbabfa98ac9c98adddc7a6babbfab6bab885c7be
col28:   bb9acb9869a68c99a8abee89beca8cea9dcd7d9ddd7ab8d87d8cabc5cbeab99da968dc7ad7d7858d
col29:   7abe648b96ad8d87ace9dc8abbcedad78d8fcb7bfce9aab886ca5b9ce7cea9acb999888c9c99bbb9
col30:   bdccc8b6b99a6b78bafeccc9adbcded8bb9be9da8beb979dbbabcd8b79daaa99d7ddecaa96acd6fb
col31:   8ba9d7ca7b9897aba9c7baceeecaafccd9deab87ecccbdacbbacab8dcbcc9ca6cdb7db7b8faac4b8
col32:   8796aa9a995a6ab89decaccbacbb8d9eeeade998bd8a9a9d98ca9bdcdab76a548aac2cb8bba9cca9
col33:   678a8c9ac9a9a897b9ac9bcaccfdea79bbfc7cb8ddeb9c84bccae8aba7dbd88af86abbdf7afc9cca
col34:   8a797a97b8ac9bb9689bddcb8ccf987dcbbeccdad98c8bc9bc9cc7e879b978d68668949989c5c8e9
col35:   aba8a9da895cdad9a788a9ef6cba9c99bdfd9b7bad7bcdbbaeba9dd7b8a889feafd8887ddbcbc6aa
col36:   8bad98b8c9987eb778c9ceeedadedecb9befeffc9cab89eefad9feccbabdaa7bbfcaa6b6a87ba9bd
col37:   6e9cbebca9bdabddbe8cbbbbec9bedc9aedabfbfb99e9e8acaddce9fcdaca4f6c9dadae89aa9a987
col38:   9779b9ecabbcfbcfa88cfacccc4cf7aebb9adc9ac899bddc8fcbbdda8cdbccaeacc795a7988a8bd8
col39:   7da99a99a9accbd9ad986b9aac99b8facbcbefeccb7aeae8abac8bc9dddfcb99dbc6aacaaaaaa3fa
col40:   6bbc8bedbe8ba6aca8bc9cbebbdbacda8efaffdabebc9ddc7bbcaba7bef98bc8cab9d69a459de9dc
col41:   aca6db8bacc69ec6cdbda978bfcbbabb9d9a8bba7e7fde8ccebce7fca7ea8b9a9dbc5ebaaddc8c8b
col42:   ded9aad88cd9d97bb8acffa9ffb9ebafaeeacfc8adeb3d8c8edbe9cfccfdcbedfd6b88e9edc8dc99
col43:   79d8d9a9dfb88cbbadaccabbbabeeaffc9a78baadd99cbfac9a9ff7898adca96bebb9bcb6f5babca
col44:   7ac967eb99d9a9adc9aebbef8bdebcb8cbbdadcabed8cbcbfc9aed9c9febbea7db9996ccb4a89a8a
col45:   b787ebceb7c79fda9adfedeebbefdac9adce9bafdeecebcdfaafbecc78cbabda8bcd8cfabeba8ac9
col46:   9fbbbca9bbac5caa989bfe9ec8f9bddadbf8faceecbeddeceeaebcddce7e7c99bdca8acbadb4b7d9
col47:   aa87777d7ace9dcd9ccd79ccb9eccdb8aae9bcfcdbbec9fdddaccbaa8efac6eb889fdd8dcaccc99a
col48:   5aedeba7cbcad9a7beeabbcabdcfeccbeadadcb9deaeffbda9bb9dde98e9cacba89ebcbbbffb6bc6
col49:   79e6aaaaa6cb99a8adaec988db9dfdcbafccbcbfdaff98cbfc9abdac8fbdc79cb6fc8dcccbcdbacb
col50:   9899c889c999cd97b79cfcdb787ba9bbcab9bcbbeda7f8dab7ce8a9ae8da9dbdab8dc8d5f9bed99c
col51:   cb9c48c5779dbcab89aa49cd37bc8dabd8baeba9ddfbadfbbda79a8c68dbb8cbbec8979bcdaadca9
ROC:	 BPix_BpO_SEC8_LYR1_LDR6H_MOD3_ROC6
col00:   466a56697845ba4d85875bb85b9bccccb9d6789b9988b5ac579d9cd799be4697cbcca6779bb55a64
col01:   8a54a4ab5a98987ab98c843bc69b7c9a96c399ab793ba87a89bd9cb75b5bc888669b978a9a866d44
col02:   7373558956966316677a9aa7cbacba5498ed9b98ac9cbcaa8bbab7977c698b9bd6666979a8b74a78
col03:   5445a668a79789959874b9d7aa997ccb96b6ae88c7ad9ab88cdcaa75da977e9aaac4675956a48a87
col04:   76a8696ab79863a9776bc9d889aeaafe78aeb9aaecbfc8959dc8d7eab4c8c98aa8ce6569c3929bb7
col05:   22187567a7a88594d8c7ac9bc598daba8bdcdb8c8898a9c977bf6bcd87899a9ab97c8ec34a7447c7
col06:   86596759ba6cb768796c8c98bbca9abb7ac49dc89bcb9bad7bd9e8cc7c95ae89abcc8da966987b69
col07:   75c7b686a96b7a7aaa8b97a957b9aafb69dadcc9b599a8ac94c9da99a99c69a79bea8799779e5a77
col08:   b43b7a956888c88d686c979baa79d8c6aba9bd8ecabb8ad8a6abdbbc89bb8bec887c9bca675d9658
col09:   689b5585598776ab7b757c7878e7987ca97fb8caacc9a89887ab89a9cd69b767a88b9ca68aa79578
col10:   84486868778678859ad9eba7a9b7f7998adcbca9ab99789889a4b9a99aa9ad8e989984b66968db67
col11:   a5764454d38b893d89c94a7b8cbaaa94a8ba8dcfae89a49bacdce69988b6a797c767c639b5687556
col12:   2717a666758ab68b5d8a6898a8db7ce9aa69d754e78b86b8b6c997bb87c95978abb698b88ba25599
col13:   632457c5a6acb584ab8c8cbd98a7ab8c86bad87a9a8e99caeb998cd6aa88bcaddb8cb7bb9a865c94
col14:   4b46769796787976d9aa8cac9aacbab97cc9a88a599d795a99db58bcaa75c89abab987babba99c96
col15:   33896945aaa88678a5aa9ca8aaa8f9dbbe8adaf9ba8a7aaa46a978d89789b9ba54aa3975787698a6
col16:   294a7698437699998ad88c8a897adbcaeedbccac8aa9a4da95bcb6b7c9a6ea6a8a467687d8b3a8a6
col17:   45b456a73579a89b68ab7cd87a3bcefb9bb7b79accc9999bbdcefbc7da98cb986caadadc688798a6
col18:   178886776e86479c88b5869aa89b989fbac9a998aa9cda7a79fcc399a487d89bb8a6667696796398
col19:   4356959765949a8b78a99896bd9c7b6a57adc898cdbab9e7ab98baa6a77d8888bb76ba8676966585
col20:   77544667279d5cb3a17ca45c88a9bd9c9cdebb98cdbadc9aa9aa76a757ea86bd6a79ea78a9a66686
col21:   9499b7a87578b9b485aaa7ccdbc79698e9b99b78cbbaabe89bc8b6a99abbca78e9aa989cda978156
col22:   354958b7b4b785cb878daab5a8d7bb88d9ffbc99ebdb89ad79aa9bbc9b977ad98bc999ac553c6dd4
col23:   7556576aaab79ad9c8bc99c7ad9ed58c8cbc48ba8ad76a989addbc8676798ab9cbb9a5ab789765bb
col24:   78667969798649b98a7c88aacccceed56abc94c778a7f8cbdb9ebbb999a9879e8c9aa8ab448677a4
col25:   655967a99accea6dbecb7ea6a88b9bb7ada988b87af9bb7a9daab9b9b8d6ab9bb9aaf9ac5db98b62
col26:   9b98788a8579a86af9b8aba98bcaccaccdbebeabc5baa9ca99b4ebcc9db78c8ade7ec5a79b699975
col27:   7949a97a593b5c69ac9bb7aa9ca998f949aa849c8a8796a88aac8cd77989b7babd9f8baba8b9678c
col28:   a4bb63687a98a99a69b99a9a78c89dacaab75ca9aeec886b999bacd8b5bfb7cba8c99abc9695b528
col29:   778be8b87c9ac85cabd87977eacddbaaf898a89accd7c9e6bcc8bfdccc76bdbca8999886a9695b9d
col30:   979ac9ba8aca7f88adceadbaaccbea749c897d9b98bbbb9b68bccacae9bc6ab989becb89bc797a65
col31:   9acc779dadca6e9e6ca9dbad79f8cd98dcafa9c7b8bc9babebc78ccdf8cc6da7ab9eacd99ca88a99
col32:   aa689987aa8acacb9c99ab8ac99bebc9a8ac9de99aab9cfcd99c8896a9b8cad9ab78ccda37ca9a93
col33:   d79a99759579b9b88babacace7a98ebbcb7d4d9c59bac87a79ffcd89a8dd9cee9caeab987b9ab7d6
col34:   2bba857668ae5c7dbecc98dadbfed8cdbbbbca77a9baac9acca8ca8add77aebea9f9bb7a9c7ac997
col35:   8aa7a8c969789aa9d8bacbcbcadecc6c9a9dd7c8dcadb76dacdaa79ba7c6ba8c9c8cccdcdcdfbba9
col36:   3d89989abcaa8b9a8cfcbabe9eccde9beb7addbfedc9abcfcbbeabe7eab9b78dfcceeabbdfccad68
col37:   5886d7a459ecbad99ae9ab9aec9cdfe7aabbdbb9adaaeaebcacf9beffaba58f9dbba9ccac8caa5a6
col38:   78734b57ba8976fa9b7bbcf9cece8bebecbda6a9a7ca9dcfdbfcbcdddb959a7db8a979cc9ec987a6
col39:   69b599ca859aba9ca6dd8b8c7c898bb8f79dafcaeabdbdcaeacdcbd8aa7cf8cbfa7b799cbcc9aba9
col40:   9996bab88e8d9d98dcaec88b9dbbcbc9fadcacdbad8abcbaf8dadbdc7ecadadadccbfcfc7ddddaad
col41:   b9f8999b8d8e97ddbb999acd9d9ccaf7bdfdbdd98ace8abbadbbb6aeb8d87cbedbdcdddcf9fccc8b
col42:   8baabbee8b9ecdcacfdafbee88ac99adaa7ebbf9cfac9ab9deefebfafbdaf8aadcccb8e7bafbfcaa
col43:   a8dbba7dcfbbbaaddacaebbabdbfbfa9cfaccaaafec5c99dacbbedacaa88d9ec8c9becbee9bb86bc
col44:   8c9afbaacdfcd78c6ca9e8ab98d8dfc7ba7bdeda8b99bbfadbbbcbfdcbbbdc9bd799faceb8ea8cb9
col45:   7bea9be7a89a9cec9dbd99fbdbceebcd9c8c7c9dcbbddcdafebeacfba6c7ceadc8a9cdccadecab9e
col46:   dceddc97cbbbdd9feadcc9cfacbfee9defefdcffefcfeebcbacfcfeeba9dcc8ddddccaefccab7a99
col47:   baf9d7c8afd9ee9adbbadfaaebadbb9cadeedcacdccdcbdda9ea9cce8fbbbc9daadfba5899dba9a7
col48:   9a8ac9969acdab8a9fbcdda8abacae88dafeaffcaa9ff8aaaefd9ecdcedcfcc9c96aaacabd7e7cb7
col49:   baaa7dddcadddbb8c9eaebcebeabbaabdddb9ddafa9ddfc8db8ffecdabebcbacaee8ebd9baff6aa6
col50:   966b9c86cacbb7aabe8db95a4997c697bcd8bdb8ca8cbaf9accdfcb9d6ec9ecababc7bcab7bb9c8d
col51:   6595789cdb6a7d9a778ca6b97ac7baba99bd9bfbcc698cb9b9cdc8ec9abbaebda87a889879696688
ROC:	 BPix_BpO_SEC8_LYR1_LDR6H_MOD3_ROC7
col00:   63571432766566576bbb45bfbbb8bbdb6bdcbbb8bbbbbb8dbbcd6bdbbbdcbb8b8bdbdebbd7bb89bd
col01:   7bb5756879c98545bbd4859b69ccbbbcbccbbcbb98bbdcbc7bcc95dbbe8bbcbdbed8bcbbb88ccb6b
col02:   4976935b789b59b6bbb996a87bb8787bb96b466bbbb9efb7bbcdbcabbbddbedecbbdbbbb778cb5cb
col03:   7766656887814b699868bbcbbbbb8b998be97bdbbcbd9d8bddb7c988bcdc7e6ecbc7bbb9bbb6cb8b
col04:   824bc4887776c8b67993dbdbb8b8bbb8b96d9c8c8bb89bebbb8cdbbb988badcdffd8f8b9d9e6b8bb
col05:   45649487b9887c9879687bbdc9bbbbbccc7d599bb8dccb87b86c68bb8bbbcbbdcbcbcb7d9cd89cb7
col06:   4946946888885b889bb9bb98d6a9dbb5c7bbbbbcebc9ebbc86cbbbd9ebdd8ccdbcbcbbbbc8d5ff58
col07:   b575572575b6c6b89bbfb6cb9b6bbdbcbdbbdfbd87cb9fc9cda99cb9bb7e8f8cb9bbcbcbbdb6b9b9
col08:   1466668b5b587ba878b8bb79ad9b98dbbcda9bbba9bbc8b898d9cc8bf9b7bbb7bbcb9bbd8cecbc85
col09:   27235777883487478ce3e8588ebbbb7bd8eccc9bf8ce9bbf7ebdd8bbb7db8788bbcdbb8babb6bbbb
col10:   535729bcb75b76b98898bb96a9cb8b7bb89bd8cb8cdbb9bd9bdbbbbf9bbf8abfe7b98b99cb8bdb87
col11:   677858889c7ca559b8774c7b9b789bbccd9f87be9becc898b7bcc7b9b7bbb9bc6b88957bc89786bd
col12:   5876638746c866c776bb77bb778bbabee8cb8aa8b8c8b8c79dc98edbc9fcbee69bb79978bbbc8cbb
col13:   68a4b5b6758bb49b77b769bbb5b99fb9bbccbbfbbbbbdb9bd9cbbb8dbf9cbfecc9bfbcb9b9b7dc99
col14:   577777485874766bbb798677abdb896b9bd8f8898bbcc76dddcb9c97ccbb9bbdb9abb69bbb8d86bb
col15:   57566976315686bbb6b86868abcbbbbcdc89dbbdbf6e9cbbbd99dbcb9bb999e6bdb8c9c996bbb9b6
col16:   887669667536587766b78bbb98b7b6ec6bbacbceb6bbc8bbcbb7bbccb679f8d9e8cfb8bb6bddb7b7
col17:   64738445b9787bc7698996bdcc8bfbb7b7bdbebebbbbbdccabbfbb7ddb8b9bcbc97abfbb91886dbc
col18:   767b77726854bbb7787698b9959cbdbf9accdcdb7a8fceb8bf3bbbbb7bab8666c99eb7789bc6b797
col19:   85765597589bb5b499e987c6bb8cbb7dbb9bf97b79dccbebc8b99bd7ccb989bf797ab98db7967998
col20:   44464963d34b868b6779755cd79e87bb88bbb986bb7ccdc9bbdfbbadb8bb5bbfaacc7bbcbc76699b
col21:   5775285684b8b9b798b76a7ddce7bdb89bcdca9bb8bd9bedbdbbbb779b8529bc9eb997b8b759b95d
col22:   77647867547b89ae7cb98c8b8958b8ce9bc6bbabbbcddecbcb7dfdc9bbcd869bb8d9c8bcbbbbb4c8
col23:   669687559985a899bbbb7677d8bb8bb9b8bc6e7bb8bba9b9eafbecccb8bbdbbc7bbd7bdbfb778cbb
col24:   5a7543986769675bbb9bd8b8b99889b8c7bb6bbc7dddb7cc8bbdbdb5a4ba79bc8cbdbbb8b88799cb
col25:   64b359b7b989678bba98b55bb7b8a87b79cba89c999764d9bcbcbebbbcc8aecbdbb6d879ebbbbcbb
col26:   655bb888278b698babbc5bc6cb8bbb9cbbb67a89bc6d9bbbbbebcd7cb7baccd89cbdfecb694bb678
col27:   236bb3975bb46b8ebcbb86b96c8898bc88bb8bbb87cbb788bbc89c9ce9c9bcbbdbdbbbcdbb5ec9bb
col28:   95b978878999bb9bbb996b4b879bdd8cccda78c79bcbb7bb9bcb9ccdcd8b9cbfbdcbdfab8ccb9bcb
col29:   b98979bc7976bdb8ab6b5ebe948d77c975cb7ad9bb8ccbac8bbcfb996bac9bbcc9e7bfc9b9b97bcb
col30:   9868b88db96bb796ba889b697cbba988c8b89a88cbbb979bc9bcc9a8ebc9c8dd7bb6cb9bbcb6c869
col31:   888b6ab58ce87bbabc8db7cbbdbb9b98cdb8bbb7dbafbb7dccebc889fcbb8cdcebcb9fc99efc8bbf
col32:   8b97c7cc778dbdbb88d747788bbd6798b9f9999b87ecdbf9b9cbb97cd9fb8babbdccebbcb9bdbb6c
col33:   94bbb778bbc8b6c6b6bbbc9d9bedbbbfbeba8b97b9bbbbbbbbb8ba98c7bcbcfdedcabddbbbdee9ba
col34:   b7b812599a6b5abbb9bbbb9cbfefbd5f59cb89bd99cccc9c878babcc8c98b89fddbbbbeebfffcecb
col35:   77974667b668d5a666ac97af89b9b7eadbc9b8979babcf7bbbebbddbbdbbbbdebccbbdbbfdc9cbbb
col36:   67667a77cddb899a5cd889c98a99cbba9bb99b7dcc8b96c8eab97eddc8fb8b8fbbbef89ceeffeaed
col37:   88987d7869983b788b9cbd9788b78dcebbb7ba7ccbf8cbbcecfdbbbcccdff69ec9bbbbabddefb9d9
col38:   ba74978a9799b7b99dad979a788dbb99c7cdedb999dcbbbb8c9ecdbdbaaebc9c7bbbdeccccf8cc8b
col39:   bba9b9988abab999c869bd9c879ddcd88ebbee9cf9bdbbccbdecd989bca6beb9aba9eccebbbbbce8
col40:   66846b9b9a997a75abcbb78bd7a9d8ccbbcadcdac9d8fdbbcecbdbbbb88bcccbcfbbadccbdccd9e8
col41:   87d68b78cbbbbbbabd8eeb77cdbccab9cbbdabf99c8cc9bbfbfebbcedbbdbc87dcdccfecdbbeb79f
col42:   7b888c7ddb9ca6dca6c668bcccb9b98cfabbeefbcbeaddacce9fccefdd9fcecfcbecfe9fbfb7deea
col43:   8bb87cb6cbcdbb996c98c9c998bb8c9a8d8bfccefcdcbf9be9abbebcbbbf8bbbcbbdcdbb9e8ad9fd
col44:   9cad8bba87b7cbdbc8c988c8cbbcb7cabeddbbee9fc4bfceeeecbe7abccebfbfe9bebbea8dc8ecdc
col45:   999797bcbde8ccacb7c78bbfcbbebb8bcbbeebcbe9e6fbdc98bed8bbfeebbbcddbcd999bbdc9eaec
col46:   8bba874978adcbd9ece9c9dc9bfbbeb8f6dbbcdcecbcbbdefbfbfbfccbffe7ffdbcbbbd8ecccfb9b
col47:   79998b9bcdccd99bfbbb9bbbdbb8cbbcecdbdbcdbefdddbcdfbbdbfdfcbbbdbd8bbbeb4cbdbfb97e
col48:   687766856ba8ab8cbcbbdb7c9bbcabacadeecfeebcecbb7cabdbbbcc7bc7edbceba9cbcbddddbc8d
col49:   77cb7b6dd9bdc889babcbcebbb9e7b7dccbbbcaebcdbbcefdbfbcfecfcbbbb9ddb6bd9bbcbdbcb9b
col50:   5774a79eb9cdb7bb8c77b9cd7bbb9ad9fbbbbdccdebddbbbfdbc8ebbbbbfeb9db9bfc9bdedebcb89
col51:   cd7447b7bbbd6d7b888999b8bccfd8bbbbbc9dbcbbbbb99bcf7e99fcbbdfcfbdb8bbcbbb8bbbbb7b
ROC:	 BPix_BpO_SEC8_LYR1_LDR6H_MOD3_ROC8
col00:   689aabdcd9bbd79a9f78bff89bbced9ddbb7ae98bab8bb999a9aab7ad8bf97be8b87b999aaa745b5
col01:   abb97fcdde78b9caed8d9dddfbdad8edda58cebbb8edfa7cadbbea9cabcb7aeaafcc7ba9ccaba9da
col02:   adddc7eabecfccb5bd6abccdabe7cfccdbe9abcea9cadfcd9a6c8acba89baebbfb2ac968a99bd66a
col03:   bdeccd9aa9dca7af9bbcbdaddde8cbacd7bebfebcd7fba68bb9acadd8faccda99daaa8c79d88b86a
col04:   c8b9b9c7bd77a8fb99abb89c9cedeccdafdbadbeda99ad9da9da8dedb8ca7abb88abb899ab8b9884
col05:   99ac9c8bdaab7bdccccacbbbbbdeadfcdcebeaa99caaa96bceb9d5a6cbbafd8aa99badcabcaa6c85
col06:   7cfdc9bd8da6aebcca8abea9dfdbc8acbeadeade7a9befa8bd6ab8c9cca7e9e9996c9b9baa6a7766
col07:   9a9dddda8aaba5a9d88aebabebaceddddfbaeced8cad58bdccc799caf8cac9af9acfaeddab988b9d
col08:   b9ccddcccbcd888adceabadccdacecdfdbcfedcccdb999acbb8a7cb9e96bbc89abaa589accaaa759
col09:   ac8adbfde9acf9c9ad9998b9aaddfafeedecbcdcdfaebcccdcadbdbbb9c8c7dca6ba9dcc9db6aa99
col10:   b88cccc99a7ccb5db7afb7bfdafefffdc9bc99abdf89abc8bbaf8fbecf9d8aaabda98b88cd9cdb98
col11:   aca9ccaa87abcecff79bbf9bdadb8ccfcca9cbbfcac978ac9ea8cbcecbdbc98dabbeaedd59a9baac
col12:   aa8c8abccb97bbdaebcbbbbcdccabbf9c9bdc9d9b9dbdebdabcafcccccdb5aebb986ecbd5a79b9a7
col13:   9cb99ac998a886cedbcc6cbba9cacfaeabebceebbb98b9a9cfacabaece9bca8bcbce88cc7efa9bb7
col14:   ab789988b67ca68acfdfa9afdb87dcff98bebc9cdcaec8dd8bdebcddcecbefd8d6ede9b9897da6d9
col15:   69abb7b68aaafbaadbcefccb9bbd98d9c7af9cbc9c7cbbbbaaab9c6a9dcbadcd7b7a6898bb99d8aa
col16:   a99dc87bdbbfadebcdfdefedcafdbecdbbcd6becbcb8ec99cdbadccaea98cb97ccfb8b6baaa98488
col17:   aa8a5a7aac9b9999fcaef9cddedcadcdbaab8baabc7afede8acaecb9d8dbda99dcaab6bcb8f88bb8
col18:   9bc95bbb87b9bbec9ecfbcab7cabaab9c9beabbda7dbc96788b9bacb9bbee57baabf49ab9ab58985
col19:   989cb9f88cdbbadcb7adadbadebedace9bec89cbbb97bc9acdbdac9decabc9ab9b87b8869a987997
col20:   99979bbdd9cdabcdfacc9b9bdbce7babbcbecccbeb89bac7cebbe99dbb7c7aadd8abaaa8db9a5499
col21:   d9a8a9abeccaecee998ddfb9acadaeabfcabccbfbdfbaceadcbebbaeca8c7d9b8aa4aa87879ac697
col22:   bccbbda8b9dbbccbedcf9b7babece89bc9bceccafc8addb8bccabd9babdbabc4daca89784a87c999
col23:   6ccaaaa7ceda9faecdbd6faabbbbdcb8afbfceb8a9adab8d8b9cdcbc9faa9cbaacb9958c57d69c53
col24:   cabaeb9c9ba9aac8accb679eacdcdacc9b8bc88bdaebcd7a6a9aeecb8c6b9dc596d895b66784aa9b
col25:   a78bc8afacacddadcbbfbacfceebbdd9bcdaabaec7bcbc7aaeaa7a98eeaaec7bb9c8b78a7a6daa89
col26:   89ca8ec7daebabe9b9aa9efdaec99abf8cdfacdac888b958acabfc9cb8eb8dbc9c8d879daa687577
col27:   a9ad78ea9dcbabbbbac9a9befbd9bcb9a8ab9adcc8b68b68bbe67dccd98c6fc8ea7a99baa6c8cd96
col28:   8abbaa7bb9b69ecbdd9a9addbfadfdbaffcbbed7caedabbadaaaccfcdbbabbbb3c68fcb9688babf8
col29:   b9bae7db9bf8c9aadfcab9ceceddfdbefa9fffefeceec9aabbaac96cc7b7a9bebcaba79c9a998a8a
col30:   99ab97aafdbbcb8cbc7c8baffcdfdbdbadcc7dcacf9ecba7cec5ab8dfc9a899c59cbaa699bda8596
col31:   6cab9c9af97ad89febadcccdbadfdcfbcbcdaea7b9cdf9deda99bcbfac8c99c9bb6b7bb885c7bd99
col32:   87cc8caabdccac8cc9dacacededefbff7adaaeda7aceb9ba8bdbbabbb7c7aac9cc9a7db957cba697
col33:   bbbb7deb9edcbaba98eabc7ccfffffebbac8a9fb6bbbb9a9bbcacdbbca8accb9b88b78bd8698da7a
col34:   aa5bdeed7eb8aadcbccdd7dedacfddadddffca7c8bdedb98b9edbacccec9c8d8cbdd9789ad5a9aaa
col35:   a7989e7abacccc7caecdaaecccdcdbabeaf8bab7aeadaab8bb7b8a87c799bcabbd9d8d5eaa46adb9
col36:   9ab9ccab75bcdadadcebdbfddcc9ecbecadcdcacca998cc9bdcbdcaa7b996899cad7cbba988aca89
col37:   a99fea9ccaadedba9cdabbaee9cebcf8aefdbbbcdcdc87ad7bafc9cbc89be9c96b59cc8a7c9b9679
col38:   ba799ddea9abc899abbccbdb998bded6998ebccddddb8debd5accefada996a98498b5ba598bb78bc
col39:   b8bde689bddcbacabccbcccd9fdaceec9ef9abedbdcfcede8cfc9bc7bcbdbb9f9b95a9a697a947b8
col40:   d88cb9cdadd8eccad7fb9bccbbfbcfcfdadbda9dc877cbbbadca6daecccccdac78896c8597b999b6
col41:   79ebdefd7b8ba9afcadedadbb8edbd9ebcbecc97fe7aabd96abaeaad9cdad9bbdaadd8f6aabae88b
col42:   4cbbdaabd9ab78b9bcce9de9fb8cafbffd9be8ad8cc9bbc9a77a9abccd67daa9c3cdc6caa8b99f78
col43:   bcd7bab7cdabd9cdcabacaaacecd9ddd9c9accb68fbfef6cfbeb69e8dda98ebc6a76dbcb879e7acd
col44:   baba9d99abe78bbe99babbd8bdbdcbaaebab9eb6c9e8cae98abdd8aca7bda9acb796bbcb86aa8899
col45:   9ac799baaa98b899abacbfaaededdcd9dd9facaaa6bdfdbcfa9a87bd9db9bacb87879c8bd87a6957
col46:   799cdabb9aaf9cc5d96cbafaeb989ece68cabbcacabfbda77fdeca9e8abbdda7e9b8bee2678b699a
col47:   65bc9bd7899dd9bbdaaabcedea98887a9d9b9be9db6cce99abbbab9dda8769c9c8dac8e6ea96968c
col48:   569ca8ab9968a7cf7d8fb8dcb79f8ccaf66b898986cccfe9bbbabbca8a7bb8ca8797598c64a89979
col49:   aaacbcbd8baa9e8997cc99cbdee9bbbebaea9d9a9ddc78db9fbdbd889bf7985c9ea798d8b8ea635b
col50:   796c8bb9c9ba7a9e8b9ecbc9969fbcbccaadd89b574975daa9e7cc9858cb95a59a69779e9a568b78
col51:   b88ceab7dbb9668a8b97a79b6c5bacafa7c8a98b9879999a76b9ca46a99976947caaa3986a876846
ROC:	 BPix_BpO_SEC8_LYR1_LDR6H_MOD3_ROC9
col00:   77554b8675b67567385b77786767568b5694479bb8474566776557575867b5997766778565485551
col01:   6783b578878868685a88694898487887448769779993699967656697476685898786926772576744
col02:   666868869876977776774779a888875a87699b7776997a889497865a777796556857777835857243
col03:   959b99758876997885598a8689877c989b866a7657656858c7798565966654556565767567567662
col04:   857969799a97b98a88b98b89977c98a98b9ba699896696668aa788697579855478b5b4874387874d
col05:   6789c7aa9b9757b8888776b87abca997798c67895994a68b799aa757889995847977686847396873
col06:   6b8ba88b677885949b9b9a9878b98a8989b987a88784b6695876778a586897457578486436677664
col07:   8898b9db8789b76b86979b7698ab999b6a879b978675699898a9765688b778848776756598673669
col08:   787b8aac996a8869b59a7998aa98965b9899a7868a9667978b98b577576867977944337458677976
col09:   a5698b887879687b557547868688998cba57a996777b6879a77988846889674a7558b58a66548485
col10:   b867958998976b99868ba79bbb96bbd89b8ab698b888678888997976686669976868646869886459
col11:   b7697c9a88668b899aa69bb999a98979a98a8cb9987896899868a5b998aa7b9a86a7978746877642
col12:   7976686a679b899ab9288c67b78a78a877b8d89978677a5759776a9b7b8678665858599986987764
col13:   88986c77788b8a5b677888976a798bb6694779b889777b9887989b78869975468589ab6896698966
col14:   b996a9889b9ab599b89b88887bc98a7baba9b99b898769887757a5bba9ab89777766678667558673
col15:   5889a5997c88a89a87a79989b8ab9c9968c97997699a9887a8a66698986988798575877785976673
col16:   88646ba6b6b996ab78b8ab799ab9c7a99a889aab898998899a9b8797bba97a95a7757575b8996a95
col17:   9b9b8798875ba79b7a9abcb9bb8bc8b56cba7986a7898a9888c9ab89b7887685ab99559969787667
col18:   9a6766767999899ab9996b9998aa7aa98ca8a96bb9a987898ab8a987a9a888a83888645a8795a565
col19:   97a89889b788a88898bbcb9969b9bc9ba8969aa98b89a7789b98c9bb89baa797b68a765796798877
col20:   878bbbb7b98ba7abcdc997776b988bbd87ac7c9a98b58978998a69b999886aca8639797698897b78
col21:   7989ab8a698bb87c8bbb9b99babdb9ab89a8889bb978b8a7777adacbbc9799b9769989a759787887
col22:   a9776998bbbbbbb89d8ba798a8bcbaa9987bacb87b97abbabc99c9c99d7c5b8bb887a6b677996885
col23:   9babb8a96a98bbb8bbba8daa7999ababa9a898bb88bab9ba9a9abb9ba97b8bba899a878879489485
col24:   bac8acbea8aca9a96abcbb997ac9a9c898b9aa987aa87a9b9b9cda8a99a88978789979795b8786a7
col25:   8b99bba6999baa6babab9cb9bb99bbb6c9bc8cb98a4988b99b99a7b9ab9b98887999b977c9c69b74
col26:   a9ddb8caab99cabba9ba8cbbaed9bbcbaa9b9b9c78aac99cbcdaab89abb999889967556c985b8b96
col27:   a99a87a6ccad99bd9c6ddaccebcbbb9b88bdbd8b98aababc9bccbdabcb8dabb7abbc869884d9b697
col28:   db8cb89bbc9ebb9abb99bbabbbb9abe9bc9bcacc9ba9da9b9b8cbda98b9cc98ca7ba7abab98b999a
col29:   8bb8ba9abb9999bb9bad98bbbcbcc9babd8cb9b9cb9dbc8cc9abdbfbba9cc9b89abca99bacdbbb67
col30:   89baabb897aca9a98bab9c5baccbbb9badbbacc9ca9bcb8cbbc9a9bc99999a8b9899bbb99b9a777b
col31:   a9baadb8d8aadb8c99bdbabcdfedadbbdfdc98bcbcbcbcbbabbbbfcabf9be9bbbbcaeba8a9b9b7ab
col32:   c8a9eba9a8dcdaaaacacad9ddddceccabb89acd9bbc9baa8abaeaadd88bcc9dacdc9a8b98abbba69
col33:   b89ad7acdcaa988bdcaabbacceabcdbeccccabbd7bcc9bbb8bbcd979bc8daabdcb6abacac9b98a95
col34:   bbbdccbbeb9ababa9bbcfcec9dfcbcbccc98bb8bdc9abb99cdaeacccc7bcbcabb9cbc9bbccbaaa58
col35:   8c9dbb9c8b7aaaecd8bbc8adcc9edfddcbc7baca9aebcbbdadbbaadfc8cbd9acb99bc9cb9ab9a998
col36:   8ab99e7adccd9acabbdbbbaacabcdcebacbb9dbce99ca7ccdcd7dc9da8c9bcabbb88cada9a9cc98a
col37:   a8abb9bd9bcbc9bac8dddacb9da7b9efdbecca9bdcdddccbdc8a9ccac9bab88d9cd99edeebc7a987
col38:   7a9bcbcab9bc9bb6babdc9b8bbaecdecaccbfbaab9aabdcbccacebceab99bbbb9ce9cbbc9aab99bb
col39:   bcbcccc9d6cd9ccbcbbcb9ddbee9aebbebbebaebdbddbdacbbcdebbbdcdadb9bea9dbabcb8bd8a6b
col40:   babb7aad8bbb8cbbddcacdbbecdbcdcfedecbed9bbacdcabdcaba8bdebcb9dabcccedabbb9a8aa9a
col41:   accaccca9c9ccbefccdc97dbcbacf9ccefcbcdcfbcabccfbddbbb9cdddbd98cfcbdbbbcc989da9bb
col42:   bdbcddbeab9abebb9ddbaccfcdccdcdfdcdebebbce9c9eb9ccbcbcbbcbb9eaadbbfddebecccfcabb
col43:   cb8cbddbdbaacbbbdcfabeeecccbccddedcedefbddebbdfbeddbcdddbbdcefdeaeaddefbdd9b97ab
col44:   b8bd9a9bcdbbbbbdce9cc98b9ebdfbebdebcbdadfdbcdbcccedccacdcbbbcccdcabaac9cbbdbccbe
col45:   dbcbccab8c8bcbabcbaebbcbb8ecdecebbeabddebc9eddfdfbbdbbdcbddadb9dfbbdadcdbc9bacb9
col46:   88cbcbb9ecccbb98ddcf9bcacccbbccccbecfdcccacdacdbdebfcdccaddcebfdccddcabbdbc9c9bb
col47:   88cb8dc9b7bbbc9a8b9acbcdcdddcedbfccdac9cbbdbbcbbcdbfbfdacdebbadbdcfbbefdddbcb9cb
col48:   9baabbcdcbccacbebcbdcdca9bcdfeee9dcdfbecdfddbddfdcecdccbcebcbcdbdcabc99a8dbabbc9
col49:   bd7bca9add9bccddcbcdddd9bbdecdeddfdfbcfbdeeecffeeffdfdffccafcd8dbfcebb9ad6b8cdcb
col50:   9accb9bbbdba9acc9fbcacdcccdfddbceecbcdcefdccebeacc9dccdbdcbdcbaacab9c99cadde8bc8
col51:   badd79bbbcbbc8bb88bbbb9debdcd9adbdccccabccb88bddcdcbbbcecbccbbeccbabbb9bbbbccb87
ROC:	 BPix_BpO_SEC8_LYR1_LDR6H_MOD3_ROC10
col00:   57867c775a6db778378bb4b99cb8b9c9cab898be67b9559ab9bb78cc77a78b85bbbbd5b947c8886b
col01:   58694476c9bb367878b9dcd599864ec87a7797679a598ba98da9b7abb7b897b7b7b88db9be8bd7ca
col02:   1a69d77c76548ab8c89baada9ac767d998b9a8cbaa97797b84af7bb9557dcb784aa7989bba759b5a
col03:   5984449b774647b8a859c578a789d88bacac76777a9cc86b768bbb5dbaad88bca8dbd9c88f7e9bbe
col04:   56695a9b785baba9889a8876abb9ba68779b99bb6ab7bbcbda9b9c6aca6a9bac9c69a76adab99b88
col05:   86888646b5999c66da858a387e6839ba695c8774b99a9c9759aba94e989d98af7d9d27d9bb998cd8
col06:   76848668788d6b5ab7c5bbacc86babb9857c68cab9ca96a9869ddcc8da9be7e7d98798a89abb9b9b
col07:   a98959c8487ab969768788bba9d9adba9db9acc8babb858757d9cca9d95a8f78b9b85795db79b967
col08:   567b8834a89b8586a839895a95fac9b8b8a9b7bab7bba8ca9ba4fbeadbaccbbebabd776a7a69678a
col09:   a765986b76a9a79874699ac77789aba88a86979dac798c8db899b9bbb6cac7caace8c5ecbcbc68b5
col10:   56547967a8857a69da48958c9976cbbcc989bcae798b99bca7b8dbdb8dbb8edb59b9ab8aa996a795
col11:   767b88b97a93674595b669ccab9b9bbd5a7c8b889bbab88c989977a7bbd999c8c8a9784a87786d99
col12:   9665688a87ca8989a8b88dae5aca867e88abd99c8ab7acb99cbcba99ba8a8bbc898bdbd869589898
col13:   7897677354464976997887aa9bd8a997c8b88d5cb7c878975cbcabe6ab949ba8798689b66b8a9bb8
col14:   47ad9a9c988959868a8ae8a999b9a9ab6d6bcdea9aa8b78859b8f998ac77969b7bb8b9b455999b97
col15:   689667858a976a67886b8b88db79698aa7a9d7c2dacb86cb899c86b98d4e6abb59a1b7884bab977b
col16:   a8854999857849fa6887c89adbbe8b9789b99b998b7a6baa96babab9d7b6c9abc58a789acca886b5
col17:   7679772a965478cb569a97a87ccb8f767b9cf89a8bbccdbd6a6999b98a99aabb89c6d9cb799bea89
col18:   687a78aba4669a68e7b986a9c689ba7bbb4cabad99bcb9a8cbaa9a777cdccac5d8e998aba879bccb
col19:   6575b65a496ba98aceb9988ca5f8c58d9889a6def78aa7dafbeda69d4fbcb9d98a87b9c777a96a97
col20:   8aaa59a95b78a7888baaca86bda8bccb9ecbbac58b988a9bdda7c55b49bc76e9b8c8ac6a89c879cb
col21:   a967659a9c67b469c9aaaaea78a87dbb8ba76d9caabbbb8ab999a9b8b78985a48a89ac9c66a89cab
col22:   784a6489674bb9d87bbab8bcbc97566897cddd9a9b67bbaa6aca9bdcdcc8eb78ca6f6c8979ba6998
col23:   8d763a88755768ad8ab68898675a69aa489cbfcbd8d99d98ac88d9d99ccd96faf79b987bd96b8bbb
col24:   89bb8a599688879a89a9b78b8eb7b4b977aa9dbb89b8ba8caaa9ccc888b7aac8aba96babb9a9bcbc
col25:   7945989a98a8a8cbbb8babdbcdc57bc978cfab87dcecd48d89babdcbcabbca99bfcddba8bd7ca8c9
col26:   99a7768558995abb9cb79cac868c8ba978856cad8c8a9ac9a997ab6c8e699b9bbbc6c6be976a9b59
col27:   997ca6888b6959baeb8979adacda9999fcbecb7bba96af8b5dc8998cbdba89ac8c6c9996cb56bba5
col28:   b88b38b4d7ac7b64b7bbcbdefa75dfcbb9bce7cc8abbfbb9ecafdbad8dbfa7aba99a89f979999b88
col29:   95cb8abe68cc8985a79cbb9a8bbc9bbc9a9fa9bebc8e889ac9cfb9799bac89989fbd98a9b7ecd88b
col30:   8dbba9a98aaa188a997acbac9ccdcddbfbedbba6ac9fec98e4b9ebabccacdcd99cff98aba7bba6dd
col31:   8c598c768c96965caaf78afcddcbeddcdcce7d7db6cab7db97ab99dabcd9aa9ba8d8bbacdbaa89d9
col32:   c87a88c9c6aa987aca9babaac9faedd9acaec66fdbba8ecac9d9ba87a897aaa98cfda789adb6bba7
col33:   589a876ea979768b9aedda9efdcbbaebbd9cecf75bbaaafdfc96ca69ce98bebd99e9dab6a8a8acb9
col34:   56a8a9887a9ba9ee9bcc8ccaaddbdadccbae7ecbda9bbfcca99bb8d9bae9dbbbdb6aadcd9c78cba9
col35:   abccb98679b9bc99d88bbca8bedffe9cd89afcdaedaaabe8d8dbbad8899b5bddfabc7cea9bacbabb
col36:   7aba8b8e7d6888addeb9999bb8faabaf89edb8cedbacb999dacb9db9f97bedcaddfcbfad7d59c5cc
col37:   97b97a99999aeb8a97b68acc76b8bfb9dcecfbbad9c6abacccb8eba8bac8cbacb9daccbb7d76bb99
col38:   a96ca8aab8ac7baa7a9bbcbad8ad9bbbaacdebcabfecfaaabb9abccdde989db9bcedfaadb899cfdd
col39:   b9aaa8cc969cbd9b899b67ea98bcc7d8c8cccbcb9ddbeaa9abbdcfbbb9cbc99daffbcafbdac8dbfb
col40:   adbc9cb7da7a9aadab9abdb7bdabcbbbaa6fb8bdcdcccbccdfaaceecaacabce87cdbeba8a4bd9aab
col41:   a5baa5596baaaab9e58be7baab8bc99ccc89fccbdbbcca9ceaafdacbbdddf89b9c9a79fac9bdab7f
col42:   aa9a77dbc87b99ebe99bffd8bfcec9c8ddd8fedefdabfdacfdaefbbdeecaceacf9eadbfd8ce9dbda
col43:   8a87ae778acb9dc57e96af9d6ac99acabdadbbbbbbfbbacbaadfddb7bcddb8dfceac89bbba7ac9bc
col44:   9ab8db9c9aa6c9b7bebd9bbf9ac8b89dbecbebbadeedb8efdbfbb87caa88cbbbedc97acf99ba58be
col45:   488999ec7c9b88bf9a79bdccccddcbbfccdefdbfa8ddba7cbebfeccfd7bfaadcca75cacddcfb99f9
col46:   a989a8cc47cbba99de8ea9bcaeeccaccdbabdccfcdd99c9eeffebafcbeafabfcdfc9a4decf9dc4ca
col47:   48d88a6a798a9a9ca6bbaa9fa788b9f8ecabdebc99cabdcdaabab9bc86aaebad7cdcc97db89db9bc
col48:   b99acaba3aeba88a9e96bcbfafbcdfdc96baa8afaabecb7ceafbdbcfcdf8defcbc7b87a96c9e7a9b
col49:   797cb777d897cc89b79dcfedcbceccb8c878cabba99bcfccbdbd89be9cbdad98dbe99cbab8dcb97c
col50:   f98aabb7c9adb9bb89a898cbcacb9a8da9c9bcdfadaebdca9b7ceaebab9bbf98ebdbeacf78c9becb
col51:   9d79a99b95ccb67cbd9c79b9bc9dbbd9bdb9bbe89bfc9dbcabccba999baaaedbabbd9b9e7b8dba8b
ROC:	 BPix_BpO_SEC8_LYR1_LDR6H_MOD3_ROC11
col00:   b56535755575d4497896167b85b7cb9d7b397fb797bf86ffddbb987bb83bd9844bdb7bdbdb976795
col01:   37875755678548437b685b8b5797b9b8bcd7b6db6b7866b9b99b76b78799cb7cb59c6576d8b6d688
col02:   5424552b556687548bb76b8bb87888bbb6bb75b9b88bbd78bbcdb8788cbdbbbe88bdb8d879c85cb5
col03:   85345b5b57284974689b9bbb8bbbb849886787d9bb568b78b99b6c6b9b6bbb7bddbbb87bb877bcb7
col04:   5475b5b8b69763677665b67b7787bbb7b7bbbc6b7beb7bb7bbcbbcbbcbbb97c7b8b7b9b4a7b7bb87
col05:   457b555cb686837575b777bb977b87bbbc8b99bb99b6bbb8bcb86bcbdb7d79b88b7d79b79bbbe7dd
col06:   5747b2588766756884b8487c979747cb89597d8b89cd76b6bdbb9b7b5b8cc8bbbb5db8bdb8b687b5
col07:   766578567b6834b36d97b97b96b9b8778cb7bbbb7b8dfbb76bb9bc8bd8bcb8bcbf88cb9bed6bbbbc
col08:   778853b665769559b877bb4986c8bbd77b7bcbbb8cdd678bbb9bbbbb8bcb8bb998b68b997786bb65
col09:   6459587774655686577578b787b89b77bbb86b9bbb9b8bbbbcc7bbbc93bdb848bbd8b7cbab868b86
col10:   789b5678b8973767b678bbbb88b8899bb898b8b77b8bb8bb8bbcb7cb7bb5bb8bb9bdc5bb6596cb85
col11:   4854476777bb7b5bb89576c7bbb8b8db8bb7bbbbd8bbcbbbb8bbd88bdd87b8b6b997b4887bb7b5b7
col12:   522b38b87468b996394bbb686cbb657b87bbbd7c7bb7b969b9bbbbdbb7b77bc398db89676cbbb68b
col13:   8566b765448672bc9b74767b4dcb9c6bb7bbbbb59bb7c7bacbbbbb8b78db99bbb68cbb6bb68b95b7
col14:   26658b677684b368b7b577bbcbbbbbcb8cbbb6bbb9887d8bb8dbbbbdc9bbbbbb88bbbb8bbbd8b48b
col15:   5567366883668855bbb657877cb9b87cb9b89bc7bcc8b99b69bbc9986b85b8bb898bbb6b78d98966
col16:   8655465434396b9476b9bcbb778b57bbc9dd55bbe8e7b99b7bb7bdb98bdccb6bb8bbb7c876b76cd7
col17:   7379675657476b78776b597768bbbbc8bbbb7b96bbbbcb8b7bbdbbc5b7cbcbbb768bbbb7c7b77cbb
col18:   875755655b745987547859785887bb9bb5b9bbcdbbb8879bb9b57bdbcb7666bb5b97c76bbbbb7578
col19:   63376b75687b7bb6b7859585679bdbbd6bc7bb9b9c5bbbcbb8dbcbc8beb78b98b98bbbcb895d8687
col20:   565648789888688b698bbb6b7bd5dcd9bb67bbcbbcbbb8ddbbbb8bbb7b6898b6b9b97cd98b66bb8b
col21:   57637365d669bb7b788cb678bbbddb87bbcb8b6bbbb6b7db6b8bb88889b9bb9bcbcb5bbb8bbb592c
col22:   845775866b88bbbc7775b9d98b7bb7bbb8cc9797bbb9bbe8db987cc9bb8d5bbbb8bdd778bb686b6c
col23:   766b7787bb46b7b7b9768c788bbb6798bb78c4b8b78b79bb5bbfb8bbb66b9bbdbb79bc88cb8b78c8
col24:   77785b376667b8bb787985b89799cbbbb99b68bbb8bc6b687cbbbbbcc9bb7d9dcbbbbc7b9ab8774d
col25:   6b678799b6b8b39b88bbb7b8bc7b9b97b578889999bbbb8a47d89bcbcbb9bec5bbbb8bbbb3bbc8bb
col26:   5986b856b687b99b7796988bcb8bbbbbb8884bbb98bc789a8bbb7c9cdbbbab97ebc9dbbbe9b5b966
col27:   768bb6875b67d7b8bb898bccb6bbb6c9bbbbb8b6bbcc8b99bbcb9bbbbb9c87bbbdbdbbb9b8b98776
col28:   bbb856bb799b8bb9bbbb7b7bb9bbb8b9bb9c9bb699bbdb89cbbebdd9bbcaddbbcbbbbbcbb9cd976b
col29:   6877bbb8b87b978bbbbd7c9bccfb9b9cb67b5b9cbbb7bbcb88b6b6dbbd9bb8dbdbbbccbbbb89b8bb
col30:   76bb7b7bc89bbbbb967bcb8b8bbcb977b8db97bbb8b8bd8bbbbeb85be8b8bc99bcbce8b8b87cc998
col31:   98b8bbb9bb88d8d8b9b8958bcbb89ec9bcbbbbcbb97d7bbbbc9bbbdbbebbbbebdb8bb9bc9b8b9b8b
col32:   b9bb5bb999b9bbbb9b78bcbbbcdeb9b988c9b9b9bb98cbcbbb7bc9b9bdbebbb6b9cbb6bbbbecbb6b
col33:   8c6b97bcbbb79dbbec9b8db8b7cbb9b788be9b8889bd76cbbbcbbdbbdcbcbbbb9bb8bbcdbcfdbc9b
col34:   87b9b88b988a8bbb9d8b8bbbc9bb9db8b8ddcb9bab998b7bbbebb8bbd7bcbdcbbb9cebdec8ddfd98
col35:   b777bb69864bb989bbdb8b4deccbb9dbbbb998657989bbbbb9bbbb97bbb98b97897dbbc9bbdcadbb
col36:   bb68d9b8b867bd9bbebbbbbbe9e8bcbdb99eb899cbbbfb9cf8b88dd9c9c7bbb7cbbd8e9feebbdcbb
col37:   9b88bbbb8b9b6abbb7ccbb9bbbcb7bbbb68dc769bbdbbc7abb89cbdcb7bbccb8bbfbbb98b9fd9dbb
col38:   b97ecbbb9bdbb9b78cbbb4b8cbd8d98ecbcebbbb9bcbbbbdcdbbfdbbbd8bdc99ebbbbcb7ddcb9e99
col39:   b7cbbd8bb999dbebbcbbbc9ddbb8bc8efbbbbbebbbcbdd9b9c8dcb8bd8cbadb9b7bbd9cdd8cbebbc
col40:   bb9b7bdbb888cfbbb9bdb8cddb8cbbcbb9bbbbb6b9ccbebbd9ed7ddeb9dcb8f8cbcbccdccbbbbbb9
col41:   79bcebbbb8db989cbdcbb98dbfbbcbbd7dcdddb8cc9bb6bdbedfebe8ecbdbbccdde9bddcbbe98d9b
col42:   9b6bcbbbb8bbbdb9bbbbc8b7bb9bbccc9bc99cb8d9cbcabdbcbbc8ebbbbcbb8b999e7bbccbbbbd8c
col43:   cd8d9cbbbdbbd8bdbbd9ddbb9ccdbcfbddfbbcfdcbccbbd88cddebbfebbfb7dbccb78bfcccbcbbbb
col44:   bdbbbbd8ddbbbbbdbdeb9ddcbbbbbbcbdbfb8cccc8ddeccbbbb9bfcd8cebbcb8bdbdbdbbbbbbbb8d
col45:   bbc8bebbbeddb6bcbbdbbbbdcccbbcdedcdebbbdbcbdbcbbbdbb9bbbd98bfcb8dbc8bbbbbbb9bbbe
col46:   bb97b8dbbb9b89bddbbfbbbebbd7bcedbbbeebbbbbbefbcbcbeeeecbbdcdcc9ebbbb8cbeccdbc987
col47:   bc8d98ccbdbbccbdddecdcfbbbbbccbbddcdbc9ebcb99bf8ec9beffebbbd9cfbbbbbb8bcbbb97c7b
col48:   9bcb9bfbbb8bdbc9bd9bbbbdbbbc998bbbcbdccbbbdb798999cdcb8b998bb7b8d7cbcc9bb6bbcbc7
col49:   b7bbbb7ebbbbbcbbf8bcbd9fbbbb8bbbbdccbbcbcbdcbbbbfbebbdbcbbbbbbbb9bf7bbbceb6dbedb
col50:   9bbddc8ebbd9b9b7fddbcbbd8eccbbc9bbd8b8ed9b9c9cbccbbdbcbbb7fe8bb98c7bd8bbb9bc8796
col51:   67f98b6bbbfbbbbbbbb7bdddbbbbdbdbdcddbbb9bbcddbbebdb9ffd7ccbcbd8bbbbbbbbb8db85587
