ROC:	 BPix_BpI_SEC8_LYR3_LDR22F_MOD2_ROC0
col00:   5619768a66966992b96576998b7b9697b7db7c7c86f5a87a5a8977796983998697b86645ab179665
col01:   fd86376c85a9867d8a877a69998a7a8bba67c886598cb8a7796dc8b999b8a9b6c97f897865c8966b
col02:   588886a6888b6b5577b9a9c86c598ac4c733a957dcb79cba6e88879d89a8b68b84a66bb776977a8a
col03:   688767d6ba98b7f68ad96cb889b86e88a9c9c98b899baca3967b6cabb4aa99b99ab79a9bb777a757
col04:   4378985a58d996e5bbcab5b95bad7a76bba6699a6bab9b48aec6a9cabbac6dbc689a869b798d6db5
col05:   69972a775a9889673788b99a67c86678a97bcaa9afab53daa863d899997c95bbc7999ad748794995
col06:   86a6998a9399878f874c6c8c976878879b9aa65c79a9c998e687caaca988ccb7798bde87788a9c86
col07:   8899b9729a85ba9a7ac96ae82ac88aa999ca8668ac89b982e9bfc8868a89aa2c98a97b88ae76854d
col08:   2579749759a68984b6cae945b877b8696a877ac98986a74986a786cab8ea799856779c88b957bcb8
col09:   77983a9b9877a5d977899b9a89c96c9ba6a85bbcd68acb7b9b9dcc9baa5bacaa7bbbaa9bc7888995
col10:   6858589b8a679898a8868c959ca7985a8aabc79b767788a89ca8b68a9998796b9997bb957765a864
col11:   56c6b765986867665759855ba9fa6a68b9b977cb9a79bc9a888889dc85dc8b9588a867798848ca77
col12:   76b999977877a8876a3a6c8da78896f957bbbd7ace78e9db89bda8bbb469c5a88baa98aaa9a3a9b6
col13:   48829b7b87a7b79ba7aafb9c9da9bb38798388ac99d69bbc6ab7857dad7ab8b9c7c9967e6889a778
col14:   839877198aa178697ab8bcda596dd9a8b7d5c796869576967a9b9888ca9896bbab87ab956b8985b4
col15:   aa52b86ba83333699797a8988e6756b4776c6c79a87b7a98bb9b8e7b97b7daa86698796a8ac886d9
col16:   54584baa42ba98ab8c8b899c7ca6cbb7ae6ad7b87a8caa89bacaaa648b6b8c989aca6845baa43c5b
col17:   b4336449787579559578c988abb9d9abb8769a5c8acb8d79dc76b8679d889d4a7a8b86b6a49587b8
col18:   78387796986889beb59a85a887bbabb7a89a8b5ca896786bb999798c8796a79db5ca9856959587a9
col19:   7686aaca88a697a7977dd9698a99a7bba79ab9aa8daaacede68d5987b89b78aa9c88ac8f77a7ba9b
col20:   a74947aca9877778684d997a898457b7b9c7738b566ac95b9899a97a8a87c588c765979696b68461
col21:   7929a94775a4796a5eb8879c9a96adbb5a9b86b763bbba9b7a86aa89c797a75e98978987b94a7887
col22:   c558da6a69a88a8fd7a8ba8a7bb8c4b7acce87d9768689a5a77bded8a888ad5b7a6cc5a77666d787
col23:   72b86575b66a93a7b69a888797bab669aabb999d7da9aa59d799ab9bba97a7786a9486aa755aa888
col24:   78787d4b98c8a678ab86abaa9c83a97abaadb7b766459a86c888f97c998ac988a9b48dc7888b65a8
col25:   665995896767cb6a875bc659ba8aa99cc7c9938ca77bbda9d8a8abcca9a79aa6d897babc8a999883
col26:   9b593b9acbbaa7bc79a8d9aad9c7dc9a9b8a78cac59ebd658c699ab97b9dbba8ab99a8ae6c998598
col27:   89b4967b99668593b48d8adba9bd8978b889a9c78eceb89d7a9dab9ad69cb7999aba878978ab6999
col28:   946b79b97ab9b9c7a89dabcb8a6aacdddcacacba9c47bd7ebbb9add9978aeab98ceb8a88c98946b8
col29:   8b8669a885ad77b8bb88abaacad9febbb9ccbabca967dbbab9bbdab899a6adac9bfaaa889ec6b918
col30:   3684996aa7aeadafba79acda5aa6b7c7a89abc8c8a9b9ddba6cdadbb9baba8fdc88bddacb966aa86
col31:   a6b6a9bbcbb6ae9fcacbbabcbaacc99b8d9ac9cb9c9cba9abba9d7cbabbcb9f9d988c8cc69ca6a97
col32:   a9bacb99e499cc9b9dbc8aae8e9febecb79a9b8eebcba9dabab9bedc97ab7eaa56fb7b8d8d8587cb
col33:   b8c78bb98e9bdabc96abae9ccbcfead9afbda9da6d9cdcaa9ccefdb8bc9cca8bbdac997d9baaadd8
col34:   aa8579a9ddacaac7b9da66dce5bbcbfbdb98abc8baaadafcdea9bcdbbdbb9acb9cc5ba7a4b9bad78
col35:   ba97bbbbc99ebb99bf9bbcda87bffc8b68bbb99b99abca7a9ce8dcaeacabc96ccad6a687cb7a9cbc
col36:   ea98aa79fab9bad9c7c9c7fba9b9ef98dca9cafbbbc8adabfaede99fb6d9fcafaa8bca77b9baaba9
col37:   d99ebcabebb9f79ad8addbfdfff97d8bba98baacdbacbc88bfdddccaecccbc989b87ea9d9bcbaba9
col38:   e68abda8a9abdcbbdbcdaebdeeffebddabbcbdeeb9dbeb8dcdeec9cbdcb9a9c8cb9cee7db9bcbbda
col39:   88dea8fb9c9e7bac9ba8ac9abe9cebdcc88b8bd9abacf9ee97deeccdabbe69dabab8aaba9b9ad7ca
col40:   9cc98adcc99b9bdb9bded9b9a9bcfbbac7bffcdbe88aab77ababdddcbcb7ccbe599bacdcccaadeb9
col41:   99ab88ad9aebdc798cf6cabcefbbf89b99babb97dbbbbac8caacebee9baf9bdaae4aa999cbdabef8
col42:   9bda8d9db899b8effbad9bc9ac8c6cbcbaaadadfecaf8cdb9cd8c9eefb9e9dab9ac8cbca9febabdc
col43:   a8ad7a9dc98a9dadaabcbd8ac9cdaadf7aecaffdc7cadecebacdea8be59a6dacb89dba9ddb89979a
col44:   98aa8bbbbc9bbcbb9b889cadbebaebfdccdcdcdcda98ccdccbdbdedeb8beabb988ecaaccc8ddaaa6
col45:   dbbac9b78c78abae99ab88bdb9dbfbadbfabc9dc8cb7efccd9dcecb8c9eaebaccd9c9ccdec9a979a
col46:   ab6c9da9bbccab9acacbb7dbb9aded9aa7dbdbab9eddbaabcbefc9eecb8aebb99b8ae7eabbd8aa89
col47:   c8abeaaad79d8dcbda8cb8ac9eac88addbbcdb9adaaaa9cbbcd9fbbddebafaacdbd7b6abda9e9a5c
col48:   8cc899ba69d8b9ad9adc9b9ceecab7ddee7adbdc96cc9cbfbdfceeabe79da8baefbabddad97bbfc4
col49:   799aea9c8bfd9b9e9bbdabcfde6bbfdda6ac9a7dabdbed9e989dceccbacabda99a8bcb6e9b8adc89
col50:   84bcac8d98d8cfcdaefece98dddb78b99da9daedcd99b9d8dcfcffbbbbbebcbaadaaa9c8cbccdcf7
col51:   5939b98a9d86d7787d758b66ca5888d6a7869dfa7db8ac89969c6b76cc9cebb9986ea8cc8a556695
ROC:	 BPix_BpI_SEC8_LYR3_LDR22F_MOD2_ROC1
col00:   548727466873c583588628a867a6b8469679ab4879786686ba47698aa54935c68525576455566395
col01:   48487975777768ba68bb98c7798a79badac7aa99aa9a8ab9a986797baa69b9ad6779915657876673
col02:   4a6a7a97775577aa99ca7a87899a6b98a8cbec9d88c8a69a5b759b798a87a978957a5978577652a8
col03:   a669a78788dbc889ab59aa3998b7aaa5658ab8b88bb7578ac3c8988cab695a797779877681a57576
col04:   677375a7ca96c7add8995898a97868bac99c7a9aa7aabaabbbbcaba699a75889a8778485779a7a54
col05:   66546997a487b677978798bb79887b7899c99bab989ab799f8587797a569955a86b24988963a5867
col06:   96a75668566999998697ba5889b799c77b69b8979c789788b6ab96a7c7997998887975cb7b657878
col07:   776cc5c5568ba6778ab979b877b9a7699bb7a8adb887cac9a8a89ab9c9788c49a9c89762b6986d94
col08:   8986c5b87797978ac96679a9787baa77b9aa955799c9a9bb7a898a7a867b8b3449d536ab79757683
col09:   68657876ab9a85a9875865ba8aa9a8b7b977bbaea78ab6989a7a7d7496a789978868b67a94587565
col10:   a9a386bb8b4b56976857c975782ac88d65aaa789bb8af7899779d9ab68a868876aa7b8895588c344
col11:   7a797a98b5a96799846cbaaea99b8ab986aa8ad7a977bb9a79686ab886866b6888665b5876754837
col12:   9b6b879b6564a88a95798ca4b9579988679a8a999bb78c69b78d9a877a48b878975d8aa757686639
col13:   97aaa896676959999789aca4898a8a886caa8a999a8c86aa9b98798a8da8556668878877b979a579
col14:   7a98677a88a98c8895ba9b695bc899b8cea7a998aa89a897c88cbfd9b7ab77757a4799679677b765
col15:   83a5a459696387988a7b8cab9dca988bdd7cc8ba87d89a987bca8797778d668aa6a89768a3b66672
col16:   58698868779859b97bd7acbba9b7a9a96c9bc8aacc9d8688cc597987a5ab8b797a6688289b2a5766
col17:   579b669a67a799c49c589978baacab7aa899ac85679ae89987a8a778987b47ca5867888b99583643
col18:   9758574768697adb899476aa7b77d88cfa89a5c58899bbace99a7c987eb87a779938869a566787a4
col19:   84ba8bc878aa96997ba96a798abb99897bd8aa8a6a85baa899aa9fd6c88866a5669687a358958375
col20:   b729779cab9a57c7cc6b76b9c75689799b7b9cba7a8a99ab9ba9775cb989aa3664889784b8646857
col21:   799987bb5988b9988787799bb98dbcac8999ba9987a9a99e7983687f9b669a6675587877976957a5
col22:   9668a997a86c77ab6a359a8bbab87878a8ba8ac9dad97aa88b9da8746967737757757b886a889664
col23:   67656c5997979a9a97946a9bac96a998bbb87982bd88b6bac7c8878784d699c59687493998795996
col24:   6658bb9c7a6769857aa8aa7b6978aa9d6d7a9bc9bba99899776a967b789b9b9676766688864d3825
col25:   7c9878a6a895bb8999aba658a9aab8a8c7d9a7986cbbd85cca6886b9c98b69c756946b975aa57634
col26:   6daaaaaa98a99ebecd9eab79ab69cdc89cc9a9bcb89adcbb7bb9bac8d8c77aba8987a99b3986c6a4
col27:   89eab598858bb9af7aa98bd6ab8898dd6acbb8bf9dbbcabab9cc87aab77d9c9885b8a599876a6696
col28:   699aaddaa979badbc8dab9c9c9ab8bf9abbc98cccbddfaaca7cdbddcc7a9889b898aba879a88ab66
col29:   c676b8ca9c97486898ac8c9bb9ba8c5acbdceaaca99aa8bbcc8cec79bb99ad7aa7d97b5a76996755
col30:   689b74ac8bbb9bacefb8beaab9caabcb97bbbacbabdbdc9dadbedccac9db8b979a6bb5bac85c97a6
col31:   ca9ebb7b89ee7cbaabcabb7c6bbb9bdce78cfbefacf9bdac9eaaed9ba9db6b87b7b69a899c8ab6b6
col32:   c99a6bcbb8b8dd99dbaeda99cdab9edc9fda9ebbccbdefea8dcdabbd789bc97a97997797aba7cb89
col33:   aa89cb8bd98fa9c7bcc6adbbbab97db99cbbacabbb9edefbbc8bbace9e7cb8989a996cc77b888877
col34:   bcacbbcd8b6bcc9cc9ebc9ca7b9dbc7ddbbcda7c8dcbacacbbfdcd9c9a8eab997b9a7ca9e97a6a66
col35:   accb7f5ae9bc8bb9acbaddcb9cccaacbadadb9aab9be69fdaecbb9eb9a7ccdaacbe9b8ab9cba768b
col36:   6bc9aa8b8abb9bbc8f9ad89e9cdccbdb99edafd998bedebeccab9d898da8cb9ad8c969aaabaa86a6
col37:   bbaa7cdb9aed9dddcccc9ddccbabbaabebeb9cc9bb98aab9b999ab99e9dbaab8ac9bf679bc7b7ca7
col38:   caba9a8ada8bd6edcdbccbbbbcafabbeacfaafccaaadeae9c7aa9dcbfbc8bbbbbd7ab76cba9b9a9a
col39:   a89c8b8bb99acabeccba9dcb96abccddabe98dab8eacecb89acb89e9ba9cdc8dac598d898a7b88a7
col40:   9b99ca8dccccbafcabac8fcdd8cadddafacfbc7edffafadab8bcabbdcbc9beceeca9ba9ba798a966
col41:   88a6bab988caae8edadcefefb9cbf8d9ecfdbda8cfcabacdcba8dccc99bbdc8acac998c6ba898c86
col42:   8889d9ccabcc7bacdadd9d9cc9cdccafbdbddcb9cbbecdbfeca99cc9aa8677a899a8a5cb9a5c847b
col43:   beb9b8bacfcaaddeac8bedcacbafddbcbbcedbaefdaa7ddabcc9fdfa9cecccbaecd9cbabfbb6b9b5
col44:   abacb9cbcabbdbcbebcddac9aafccbcceebcdfdfcbfbcdc9cadd99a9ccdfdaabadc9a9e9b799adb9
col45:   99c7db8cbd9baeac8acabcc79cbaeaea99ebbbbafcbacbabafac9dedc9baca8b769ca999a79ba999
col46:   898abbbbfcc9db7ddb8bccabbbcbdbcdeaffdfaacdaeddabd99babbbabdcda9edc9b8cb9bc79a7b6
col47:   a7bba8e9aabd9bbdbcccafccccdecacbdfc9cdcbde97bebdcbbb9bee9ee978b79b99b8bb7aaba898
col48:   abb9d9b7aa6cddabddcabccdd9997ecdccb9bfddabb9aa9ae9aeccdddcbce8bbacac8b9caba8b695
col49:   ab9badecdb8aabaa9c8b99a8bacdcacdc9cfbddcccafccacca8bbddbaaddcd79bba9c8cebbba9d86
col50:   bbe9b8c9aacccdcbcba9fbefccbc9abece8adcdffcbfcecefeda687abcac6a8baaba7caa8ac869bc
col51:   596aa8779ce8999d899b79bbc9ad98a9abcabca99daab9aa9699a7acc6dab687aa9aa9877a857588
ROC:	 BPix_BpI_SEC8_LYR3_LDR22F_MOD2_ROC2
col00:   95876756879b6c9957a6798ba77a7975a8cab99bb6c9d798965a68486d6865869575a85878144533
col01:   565b4aa59997aeb85c7b599e998898ecaabaa9ccecb999cbb8ba98b787a9a88ac387995784884287
col02:   489c9579894a791c759a7bcbd5b88aa7b89a987cbb8a7a6756aa989c77578ad98a59967a7a9a7667
col03:   9b87938ba737a87499b875ba8898aaa9d8aaded9a89bd8aaad64da977cc73789aa77a7746a788876
col04:   29bb5ce799a5aa9cbebb79e9a89887b8bcd9feeb9cdc6aa7bb78aa9899a47ba9ab9b98b7b68aa9f5
col05:   a578a85997b7a8d89ab898ba6d65da97c9978cb9bca9a95cbbb68888b758af5ba32a565ba7445593
col06:   c8a8995bb76adaca9669dda9d599a898b9a78ffa8b988aa95abbacc8b76987baa6b88798c64a8442
col07:   245988498e59db89dca8ca66b9ab9daaa68cfd8a3ba8e578a9879baca6bab8b5c455786769726645
col08:   67997998bbb996d7597c897ca7fa8ab98d9ab8a7ba98b9a9a59b59b7986b8a799a986d986752a954
col09:   869ca777dbcbaa7ab56799cadb9bcacba9d76aabd8bc9fbcba8878f94acb6bbbea77ab674c9b98a5
col10:   8c7856acea7bac788897b8c9db855acb987b96baad898998c79a9b859998b858eaaa658897a77a54
col11:   7a53a8889cb577aaabab77a87a97ccabbb9a9aaa98cea6acab8ad79aca7b6745b7489586446433a7
col12:   885a467c8969ba989a8ad9959a8799eccb86baacb79b968da9879e9697b6d7b5797bb588b6a47b57
col13:   88aeb899aac9cb7ae82a87aba99acda5cda647d4b9899ddcc99899a99c8984a698ab49975976c9b7
col14:   8866d76686965b9a6d6979ab99899ba36a7ad484e699679b9edba87778ba6aca8a774b7876936668
col15:   a776d389b674ab9a68b76c9676aba87898bcb88bb9b6d9baa9b978baa898949777617a898b874923
col16:   67bb85c8798777b9ba9b79e76a9bab9dbcca7ea989cccaba7bda8ab6b877a877757c687a78a5bce8
col17:   a8786356475aa9687676acab7d9589acaa7d6978ab8f7aab8bba87589f7679ab8786a9547a684583
col18:   64778d5a878b9ba6a887799b9a98c99789a9ed7a899cba8a9dd2ac79db979a4a9899659ba9987474
col19:   5a787666758798879987a8b67a59b9ca7c8ae89aba8d495d5a69bcc8c7b867a9c68c979c95a9b664
col20:   66a68773569656a7866a78caaac878a989d8bea797ddc6c9987bb69c99bbbaa984a97a6896674483
col21:   589a465789997c69988877cc9b9cbacabab8b87ba898999d9a8a6c7a76a8aa8999a6887798b99944
col22:   a896988a59a77b9aa89a878778a89a9a7aeadcdcb6babdbabd588b9a99db75946797a7ab96584887
col23:   86d6a94a6a59a856558a8b75b89caacba8969889ccc77aa886a576bb7ac97ba75968386569675346
col24:   478aa8886887a86597688977aaf68abdca9cbdb8bb767b7b7aba83cbaa87b7a7abb7a99545575395
col25:   9aabb85c878aaac88ba8b889baabc9e87cadcb87babccba9aa9a8c9aaac799a84a98473839ab9891
col26:   89888bd96999ecbd89a8b9cfc9fa8ceabebbadd99cec9bbeaa9ea9bcbe8ab5bcc8cd6c6eab8daa66
col27:   9bb67b998a7999dcca789ccbabaac89aead5dadaba5caced88bfc8cae8a67ccaaedbcac9889a7869
col28:   6e9dccdad87bc57879aadd9a99adca96cccd8bc8c88eecbefbcc9bcac6bc9e786aa9cd7a9a6589b9
col29:   77c9d799dbcaabcaae28aa96d7a9a9adfc9b76faac8deacdecbbba76f88b8ebd4b89d8598cd8cb87
col30:   be7898bdabb76bacdfcd9edbd8a9ca87adfe97ccce98cb58adde8aaa8bbdcc6bb8998d77798c5c86
col31:   8bbaacad9a88d8cca5a99b9aadc9bfd7dcbdddbcc7ab9bbbbbaccbb6f96ce9cba9799b9b9b5b9852
col32:   3cdbccdcddac9897c9a787ea7cb7dd9cacbdecaadf6cabbbbba991aacbbb9778c98d67a9b96e976b
col33:   fcda6bb88ebccbfd96d8cb99aacbedaccbcccb9bad9e9beceae9a9cb7db6caa7e6aba6aa99e6ac89
col34:   8cffccbecc99c97cb97a978aa75dadbeaefbdb9cca94cca9dd9fbe8dabdeb7a793847bb7bbb96476
col35:   aa9b8abbdcc7b8c899f67ccbb8cb8dcfaffefaaa9bbfbbadac99cedebb7d9aca99b7e867789aad69
col36:   99aa859bf9e6d5ba9b9dca8bebdaffefedbdbfeafbd8aaddcdecdaace9d9c9bdcc8ccb47c76b8884
col37:   c77aeb9fc4abc9b6cd9b8d9cfdcc9dcfeeca9efca8eeffdeb8aaaab7ef98abdfe999b77b9aa9bb75
col38:   9aadeebdadd4afbfcbfbcbcab99ff9f8acbeaeddfdc9bbaaabb89add6bbecdaaceb87c8d9dcfaba8
col39:   adc39bc8cc9caeacb8ba9a9ccccfccdfc9dfbcc9f8ccbde8dc989b7ffdcdb99aaec87cb8f78989bb
col40:   969c9bc9998abcce9e8e7bdaedcceaefede9bbedaafbbbccaccd7dcfdcfbccea7caa998b9c88bcb9
col41:   c7acbab8dfb9abbccbbbd9b9fcdbdce9bc8fccae9ddacde9b8fedbddaaba9bfae9ea8da997b9ab74
col42:   aedcab7babedc8bcdcbaacbbdb9dbbcbbabcabb8ffbacabcfeef79ac8ccb797c5eac5d7aaa98c6a6
col43:   d7b9ca89fc8abcc9fd9ddbbfc89cda5d6ebbddedeebfbc8ace9dadfeafebd88b99bd789a9cbb87a9
col44:   abb9fbb8bcb9aed99a5ebdecabac9dbbdd3dbdec8bfedeaaccfcadafe9cccbca9e9b57d8dabaa6c6
col45:   b9a99adbe9eaaebd7dcac7ddba8feedabadcbdea9facc9bdcaa7eebbdabb8c9a8baba86c99c88a96
col46:   9acbbbc89d9ae8cd9cbcfcbebe99bddeaddfbcbaecdefecbbcecbc8bca8cbfbacdb98c6885ab8a87
col47:   dacbd7d67afafa8f6789fcdbdfdcefecbececdbdccbdcbbbccfb9efd9ce9eabac9cccd9ca577aa57
col48:   ceda87c8bf6ba9cfdccbbdcabbbadcefd9bbdcb87cdebba7bc8d9faab7abebfaab66ccc99cbea9aa
col49:   8cc979b7eedd7cbbd99cbb9fbddbf6fcbeceffd8adecedacbbbbbfeb97b9cbcbbacaaba8cb55b78a
col50:   b79bfc89b8dca9caabb7addba6eaacedabaedddc9d7bdacbbeb5bebaaddd8ea9aed9adc6a78c9987
col51:   b7976f649b9a96997949b9bc9b8a9dc6bd6aaafc899aa9b79aaca958b998c85d59768a887cba75a5
ROC:	 BPix_BpI_SEC8_LYR3_LDR22F_MOD2_ROC3
col00:   66576577a698856a9569898765b7a4698b9a77152866a557775cd99a847896567a82b758a5453687
col01:   5654875396a85a9976956889a9967b76b7b797bb9a7999a9b7c689e7aae98887bbb799e66886b689
col02:   a15968c85b7a8799a3e7cc9bc69998398566a8c87b7b57ebb6bd5978c996678a59a66a359957aa68
col03:   7a958786896687c98eb977ea88987893967bb6d978698ca8d49a8a9ac99a889797a7678866c5baa7
col04:   88a5b5785845ab8aabaaa97799b8796a9ca6c8abcdacd6b5a6aca9bb8899aa7ab97627bba848686b
col05:   48b877a5a76846a48a9756cb89687d5a9bd88acaca9cac8a5a95bbacaac996999987578754767b4a
col06:   84785b9765ab5c876b847b9969a7987a86acb75c9788aeb789568da5b95896598c59a7a778a934b9
col07:   647699a48ab6c98878a7aa89666bb88bcbb5e9a95a8b89cad9dbc79c8898c4ab65c89a766a7989a7
col08:   4757b9b5c8d83aac8aa76895958b79a8988ab7983768ba2b9d9caa98ba7897fba1b975a6b476a9dc
col09:   97a875a8577a89a9bb6866c78ab7ba8cc99abe96aa37ba9dd9c8c89bc59aa9855c8796a7a7889584
col10:   9548289e998888aa8878a7a88ac6aaaa5775896d89496a9897cd5c773aa8bc5a5aaa739679748866
col11:   36727857c799997caa5baa886ba8849a9a5b369ba9687688c4556799a87888a677aa775897c6a8a4
col12:   85786868bc9897ab97cd8dcd7b7a998a67b979698e86669a89ba7bb7ba6ca99a7b885c768582b557
col13:   655984a48a97d9999c7b986776bc8aabb89baa6688f9795a8abe6fa5caa7ab89a4988777955ab678
col14:   14b54a999679a98a878aad959ca87abc6c9dca889bc97a877766c8a8abe9a88888b79c757874959a
col15:   33559b63952b96899769874aa5887a6aa698bad99897658ad69aaa689b396967569848876aa5ac66
col16:   77655a68248c68b8b8aa9a99b98baa884a86ac798b896cf9b88b99998a87ca73b59a986285cc8774
col17:   6567875cd8945584a969b567769b7d9b7ca8ba8d69a99c6c59983c9b5b98ab88b186758966748b88
col18:   3a4886bb6b9779a6cbaaa8dbb7ad879aaeb58a9478a7a98c8a6779c6967a99c8c977889a7799ba67
col19:   46649974c798a98b8ac9789697b7b94ab8d9a8b98acac9a8f87a99aaa488aab7aa78b79d89977989
col20:   6797ab769a877988a94a78367997b6a67c9ce4b79798b996789ddc87749ad88a5b959998b778b5b8
col21:   c6558b8889969a547c59b596477a7774bbb9889964ba57aab9b848abc87598a69a5b593957a6a947
col22:   a58269678d977bc4b79b8c99879a9b98b8b989a6a8c99887777aa8aa698a7889a7c9aa8b86a99398
col23:   6375468abc6c98858896da9c789aabdba988799c9c888aaaa996d988c943489a6a8687587b8798b8
col24:   76a6849a677a467348b7aa8ba7baa86b998c8a9987c4b98c997899999a4976c893875bb99367c8a7
col25:   66775a55aa7988d6b89576678bb9b85bb9ad879ab777eaa88d8653cb8abaaa9772a8ab86b9a836c5
col26:   899aa6b36969abd9b88a9cf6c89c99d88bc8b9c75acbbdebb5a9a7c77bda9caab9abcaddacaa9496
col27:   45776786c99998c9896d9b98a987ce979be8ab6d9e7ca8ac77a9a7ac8cda4c96979888abb99babc8
col28:   a98bc5d88c99bb7998ba879cdeaebacbacbedabc9bbcacdccddaaeec6f59aa7e9985beae97979a98
col29:   8aa9a8bba9c9569a9baeb88cba5a96d7c7ed9cac7cb97ba7ac99cb9c9b99c7cb9a9785bab88aba9a
col30:   9b39bb9a98879aaf9b8ecc97aa98aaacc98c559daa8abdb86889f9bafccbbb997c95899b58cb7b89
col31:   64ab8da977c9bb7dbadaddcac7bdd9db9acb9caaacbc8dbbf9d6a999aabcca999a7a9a6999aba9a9
col32:   eecbbc7a3878aac8dc89adebcbbc9b9697eb9bbeeccfacb7bbecebb9b9bda9bcdccdbaccad9cbad7
col33:   98a968a9bb68e8ab88dc9ef9aabaa9aada7e6c6bc8cb7d7ba95b978dd7c76ca999d879d848bb95ad
col34:   76d98a7da79eccbbacbbacdbcf9b8e9dcbcec99adbaab9dddcdcbecfbcf8bd98fcb8f99aeab99979
col35:   96b99bc69bc97b9bbccac6bab9ab7cbec9bbcbaddc7daba9a9bed9cbbbac788a7a7bab9c9ca8cc9e
col36:   a988b788cadcbca6abcbacccd9c9bba9cdcbbad99afafcfd8b8caadaab97e78ccabdbbfbb58bc59a
col37:   f7548bcb8bc7a9dad9bbdfbc8a6fbd9b9edcdfcaeddcaa9beabbfcbca9fb7cd8dabba8cfdac8aaac
col38:   aa898dbcfceabacfb8caffbddaeddd8b7bdb897dc9fbcc7b9cb9a8caacedabdc87ea89e8c7ebddcd
col39:   8a98ab87eddbac98ecdda7d9ccd98ccca9abef7eeb967cdf769dadbfe9ae99d6c7cb9ad9ad8988dd
col40:   e876a997bc7bba78eb97bcaeceabebcafdcaf9bdc7b9ddddacbbddea8acce8ee9bdaabddec8db99d
col41:   876667bcb7afddbccea7da9bcbdecff9bddaba9adddccda8baafecbcc9c99d7cbfabcdcdcdcbcab7
col42:   68b79dcacc898ac9a9adbacdcbf98bcbdab9fb9bc9abadfc9aebccfaccbd8fab9dc7eaa9bfbb78b5
col43:   74a5fadabf88fdbdbd9adcce8cedbde9cdbccc9fd88b8ffabdeeffebbbdbeff9fbbca99bd9becdca
col44:   689699e9bb8d7bc8ee9e9fccec7baadcffecfdccedcecacbafedf89bfcccabb9dfeab8dfafbd9f7c
col45:   9bba6ac8a8c8ac8cbbafccca8abcae9fb8cbc8d98efacbaccfc9a89e9babb8aaf96cebb98ecd88a7
col46:   85899b9fac9a9baad9bebeaedb9dccdd8d9dcccafcfef9bcbbdcb9dfdfe8fcfaaadcbaddad4c6bce
col47:   a8a8eccbaba8adabaaddbb9cdcd9bfbdacbce5fcfdbf78bb9ccfeeaaeedabeebaba79bc8aec8aaab
col48:   baae9e88e9addccbaabcaedcdbcbb79d9edc92ddecf8dedbcdc9ebcbcddabbafec99c8afd89acebe
col49:   89a97d6beedcb9afaabd7cfaacdb6abf9edfebae9debfcae9bbb7bbd7a9cf97aca9cc8aedeccdcb8
col50:   a48cbdb9cb8de88dfefaaf9edbb9eebcfadcbee8edefbcfdfcaebbdeeadca7dacabcd89cdcbfab9a
col51:   997696f97b989b9898d58ba8acc7cc8ac98ce98a89ba7bb9adac9b9d5a89cba9b69b89c679b8a7a8
ROC:	 BPix_BpI_SEC8_LYR3_LDR22F_MOD2_ROC4
col00:   7583794a58786ba9a967b95a8cb786b99babdbc7788c4ac997cb5bc977bb7999eb659ab847647cba
col01:   57ab79596a487c89a9b6c8878b6a7bbfdfc9ab8d8d7ba87b96bf9ba9dcbbbcdaa8ababbaaab99c78
col02:   15a979795aaa79667678999c87788e999abaeca7aafc579d89daa89c7bc7b8b78eb99ccad8ad9bf4
col03:   4867b66993a6a7c8a9b8c88aa9ca989a7ccddddbda9c6bab7bbccd9ac9caadaca94c877977c8b9ca
col04:   96698778c9977aaa8c7889a8c9f8adaadb8ea9b6f5aec6acdad6bd8d9888ebded8cc7edabbc8b59c
col05:   86869bba79ba69a5a67c99a9c5a9edb7a8998ab87d9caf8988aa988b99a8af997aa3bcda9eeaac86
col06:   9b87b9a8babb89958bb6ab8978ac88bab9abbebd8acbca5bcaa89bb6eb67a9bcd97fbbc8c8cba9b7
col07:   a8699aaa7a4779a5988a9a77ac6e6dbddbcc6d869ca9ba8c9a89bdbababbbd8ba87bc72baa99dc9e
col08:   75987955a78776b4c8a197a9a9aaaa968989dd9aa6ab8dac9ecddba8ba86a88ac69dca9a79bcbdcb
col09:   588a89c968acc69acb7a5b6c9bcb85d696ba99cbbdcfae8daca9b8aadadb9adad89b769bcc8dccab
col10:   4777bdb88bab98ba8accb998a98adbcf89b9aaabc9cab6f7adadbebedaa4788bcb7887d9c7aaa9c9
col11:   8954a79a6986988a88857587898898a798bbcba76a97978a7bc5ccbc789abaed889b7aa8a678b88f
col12:   ba379654b49b87baab9e8fd795acbb9d98cad9bb7ebaba88dae9a59ce87dbdd899da98cac7bac78c
col13:   546b8ba589ba68bba5cb6bb88678ca8bbc9899bcd9b7d66b78a8db8ca9ab9abb79b9eb7a78ba9cb6
col14:   9a9aa75537c999987f884678aa6b98aa9bb9aaaf9acc8c7c9c879787ab97777a98aa9bbc7b8995e9
col15:   758377a68894b99bdcb869cd8ca4b98b99abac7bdc66b9fbb7886ba7ea8bc6a98dc67f99d78697f9
col16:   699d99686899699a66e99a5b8f9cb8b7dacab7aadc7a8a6a8b997db7cc9ab6aaca9aabc7a9ab96aa
col17:   7b8877576976ab6777a58aad7ab9aa8588cad8dd8a78bd98a9997b1882986c9ba9b69c48b9b9a7a9
col18:   6546a494699ac679ac7e9a87b9a9d88c978abdb9ca9aa9cbf9aab97b78d97cacc3bb7a9daa88a88b
col19:   56268898c269b9b899779b7998a5a87aecb9aaca7c9db9ca699aa85cdbabbaf8bb96aabb9dd9a97a
col20:   886a69668b885c254da939d8a899c85b7a9da798a9b7b98aab9a98ab6a7be77ba98bbb97caa7a6b8
col21:   b7ac94b789b9c9a598ba7a69b3a88aba899acbccadaabe6aba79da8af9dd9be9b67b78b89cb8d837
col22:   7994da866ad99779b7996aac888abb9ef7abc9ac7ac999c9c99cbbb7baac8baad886a89bb8779926
col23:   678a7b3b77ab8a6bb9477a79a9b587888fa6c9cc8bb695da9cba79748cb7daa99b7767bba889adb8
col24:   875665699cc98b7687b66baba7f6ba89e96b9a9cba99ea99a99afbe97899e59c9aa94ce6ba8bb98b
col25:   96667b667a5788c8aaa999ac9a79c8da8a5aa8d89769e9b89b987ce878bb78a5fcc9c967ad8ac96a
col26:   996cad8cfe669d9bbc9cdcb9fb9fcbdb8b89d99bbfaaccba7c9da9accbcd9c78eabcb9bbaaad9cda
col27:   b6a67acad8c9c898d97d88c7cdddceabfc8acacabcafcaadd99bbdabbc85bed95a7ee8a98cababc9
col28:   9d97cba9d9ac9aa8b9eb5d9ec3bbc8eb5b9acdd89dcfc8abc9fda8cc38e9998a9aba9eb4f9ae9faa
col29:   88e77cc96a9b8ec899aa9cccdcacceabcb9efeb8ba78fafa8af7cb8dbcbaccba77bfb5bf88ccdc9a
col30:   abb97bbaebb8c9cde759caaccebaeabce9cbcdcbbbaeaabddbbaabad7a6bbb7c6bdbb9ca79cbef99
col31:   659a986bbbb986b6e7a7bb898fadd8bcba98cecbfbdded5e9eb9bc689adbd97bab8debdbccc9a989
col32:   b697b6eb8ba9ddd97eaa8dfbc6bedc9cf69edd7eca8abacaa87888aabaabcfafaa987ad96da9aaac
col33:   a78cd9a99989bbc99eabfcec9dce89c6c8eabc66e9b8ceccbce9a8b8bafbcffdcfcdcbdfad9cf6f8
col34:   968ddba9a88caebab9ccabcfc9cbda9acbc89cfadab9fdfb99dbacb8d89a9ac88a9cb99fad98db98
col35:   587b97eac8bbc999d8f6cbac9baebdbbecbfc9b8a9bdc7c8f9eb8cc99eb9ddcb9baedad7dd9eeb89
col36:   5979cabbdba68c99cdfae9bb9aabcabbaafcaffbaeaddacbcddaefe9cb7cecb9cfaaaa7cfcbca958
col37:   4abbeb9d6e99e89cd9a4abcbace9beadddbc8aeda7abbb79bcaa7dc7c98aa9dcbcabffcee9bbbec7
col38:   8c9a3a98b9dcc8d9bbbe89aadeececefbe9cebcbfbcbcecfbebd9bfbcddeeccfceabb89ffd99dffa
col39:   cabae6e8da9deed7bdbbdbc9cbb78f9b9bdbaecbbcc9abda9ad9cbe9db98989abadcdd9adf7bcd8b
col40:   b68779ebc9acb6c958dcbd8cbdfaabeffbecb8c7dfefbdbdfdd8ae9becbbdcffababaeacdbbaabce
col41:   83aaaa7bbaaccb79a9addca8abcccfdcbdfdbbfafdcbbdcabe9deaadc9abcacbcc98dabddcbc879b
col42:   97cef7bd7a7dbcbde9b99bdbddcccae9eddbbceceb9dbed889ab8beb9dcebba9dedbddb9fcadea9a
col43:   bc7ccb9ba6dbf673cbddbbab8cf9dfdbfcb8dcfccdeefecd7facbaa7b7bdc998c8ed89cb9c9b89cd
col44:   b78ab9bbfeedc6bbbbba9abfcdfcffbfaaee8fcdbdfbaccdbaace7fdc9faaadafb9cac9faddbcaaf
col45:   be57dcabaf8adbd8cad9a9aecdbfcc9cf7acaebcfafebccbff9d6fb99bccabfa8eacbacabbccaca9
col46:   b8ddc9b9ad8afac8aebacca8d9fedefabcecc7aafaac7dfbcceceeebc7fdb9a86cf9d8cbdbddbab8
col47:   db57ccbdaa8a8fa7ab97b97edad8cfe89bbb9bdab9ecbc87aeca8bccbc8b8fe9c8eceacc9d9bc9a8
col48:   96d77879bb99f985ccc99cfdbfbdc98bbf9bbdedaccbbbcfb8abac9bb8dcccd9dcb99ddacbba8fca
col49:   999c755aa9c59db8c6a9c67edcba9ca8fcdbcd8faaaacbbdcaaebeaccdbdecd7c3d89b88b96d9bdb
col50:   68a7cbba78bceca8778f8998ecf7b6a9bcebcc9cdbccccaff99efbddfacf9dbcbdcbea7cce9aabf6
col51:   c598a8c89db459a944a9ba8ab888a976b4b9bdbada9b8aba28979b57c8aac6abb7baabfa5bbbbc99
ROC:	 BPix_BpI_SEC8_LYR3_LDR22F_MOD2_ROC5
col00:   a737754897775156556759776c737477a6589b92968959978a8789799655996a9599395353725636
col01:   1659956598576a8699785c98a7ba87aaab777a8968b968aaa877a89697ab78b77776447886643469
col02:   658647489899b6a876a799c777ba987849857b8886999dcb97da59599ea69995b97766647a558585
col03:   788788999a85a8983a9975bcac97bb58696789a56baba94b8997d8a98a776a5666a5aa5645859666
col04:   8876667a5b6688da87868a9388b98b788b6aab89a7a978778a8aa87aac9679a77aa9a94975a85489
col05:   783777589993b7bd996675c9eaaa97888cb71a799887a937c98a8999a679862735745675476b6655
col06:   8728686549567c88559597b78eaa8ba9b957cba56968879b876786a79a8795a9568984a8b5869996
col07:   6779a597758858a7886ba687ba8888a99d978b9879775ac9a9ab8a76999a536a99a4798a666576b5
col08:   8857388b67c78d867a78997798a9a889fa87ac9ca49679a8c66559886b8898787868688675359726
col09:   9678996cba668666a7a6528978977a789a736a5869c7676a87a9ababaa9578978957a838764aa795
col10:   9a96625759789a97bac897bb8b897878bc999889979b9cbaaba93a9799cb489759a4644b98876664
col11:   88656667845b9877498b7a9998b96898ac7987daa379c6554d98a4c6979ba9b585784666b8759776
col12:   57974958748b597659799bb998a6967aa7597aa86977b945b77c9aabc6a9b983b958697876799676
col13:   a3a5977778a6667788737c7aa69d997bab79c8a89d9b792859aa7b89b1ba6575794c6c6c298b7594
col14:   76a55a97b76b699b86b888b696aab5889b8989879699d889a5accc8aaab95889689896955b6964a5
col15:   559a668ac7a9b887b788e6ba9b8669875937a7c687d9b669b969cca98a4894598774b87596858769
col16:   5a48ba86a87987856a88888bbb98c67c997987abaaca9b9697a98ad6cbc778889866a9946a745691
col17:   9bcb788319b68aa9967abba787ab8a887a989db586ab7f8ab8976b998a6aa7579564671546967654
col18:   6785696975a97967995858778aa9d877797847b97baca8bd7a9259ab8899b986646669486b462394
col19:   8a9b4a8998899b799b9b9a7c9889a99c9abcbb97bb99a8ad9dda7bbaa88b8878ca6a796747775875
col20:   c576a75695777c69528a779b9988cd9967678c9ab7da85a66989d8878a9ca9b86497878386568681
col21:   966565987a957989879bcd9ab7a788c98b7d9997bd6666bba8b8aa7aa898b488b769ca6667879867
col22:   58868b6799aa46894a4a689ba996c7d69ba9f88a578a879ba47bb89a788799587876676745944673
col23:   4557b58876752398cb97aa8b99a36ac997ac8c999979997ca6b77889a99ab666a6785a67966586a7
col24:   a5a7465792a589c66789bc69aa8876a9d99b8979cc77887aa768a96aa87775a7966a979ab6659847
col25:   986787ac8389a69bab98899aab8ba89aacca99cdc7abb98b7997b68ca9bac8699898a9465965b464
col26:   b688aa6ac9798bbc7aacadbbdcbaea7ba9d8acbda9bad99b9f99a7cb9ea9aa7ca865987a9b579766
col27:   7b59797667959a9d8c9acaa7d99a88cad97aa68a96aaec78a78baabbdb99daaa8687879a994796b7
col28:   765cd88888aaa7a9bc97bcacadca9bcfaa89baaab989dda9cc8ccdcc7aeaba6ad7a75a8aad976877
col29:   899a979878a999aaacc9cc8ccc5aacbbbc999bc8b99d968ab9be7ddbba997bdd6a98688a8ba65799
col30:   97baa67b986899b8b8999ca6b7bac88aba9baaaaaae8dd8edcdcca9c9ba9c7d8cd669b9775974b75
col31:   dc888db997bba9d9ecdaaaacdb8fedcad9fb8cbabb9db7aaba9b8acabad9b6b889d89a8ae99a956b
col32:   a87e89a789b9aebcb99baabf9d8b9ba9cdacc9eacbcdaacc9abcbfaa89bab97a9bc6689c78a6b698
col33:   d68997cd5a4a9a9ca7c9bbdeb9c9a9da8bdceccadbacb9aca78ab6bdf9cb8da87a9b998b5ba46499
col34:   999d789587c7b7a77abfbc8e999d9cedcbc99cabafbeabd9ddb8bdbbbdcba9998b9bbdc866a8b9a7
col35:   89596bcac7b7bb8aabc6ca7ccbeacbdbcabb8acbabeacfbadcbfdadba8cc8e4a48b9bab6a869b65b
col36:   a9a98b7786ccbcdaaadba9aaa789bb997a9cc9bbefadac9bacabd9ba7bb9b8c8b8aa966aa9859b69
col37:   ba8ac999ba9aacad7cb6bdbcbfc8bccabccb9cf9fdcbbe8af8adad9aceddbce8aba9bac6a9887b8a
col38:   66aaaacaba9bcaa9cbce9acddaadddbcdecba8ebfdacdaecdedda9eacf97baa9ac78d8989ba8ca85
col39:   9b7babd869999bbd9a9abbbeca89ddabcd7ced97bdeffccbb97acb79c7acc9a6dbaaa89aa98685b6
col40:   aa67c5996b7b7bb9be7ccccbabbbcbcdac9dbccdaddd9fbabcfeb9bdc8cba9ad9b6e8a96ac9a7895
col41:   8ab9af49bde999beb9caecfbab9acbcaaccbdd9adecddbecebcdba9d9c9cb89c99e89aba7bb6a6b7
col42:   9badeaa7b999c8b9ddab9dacc9d9bcbccdddec9edcb9ebc9bbd8fadd89da9cb89dcbab7bbc8c699b
col43:   aaacd7cccadcbcbcbdaf7cb8bcfbeebcdbdacbecbbdbc7bbebdcdbfdd8bac9ccbd8fcbcacc9999c6
col44:   da9bba7d8c5ba7b8cbbb98ccfadaecb7cc8abacbbbccfab97acbeafa99cbb7fcca9ab7e7c8758767
col45:   779ba8c76aaab9d6a98cb9c9bcddcdbbd9b8bea9deaa6ebaacadbaabc4bbd9aacbb8998887778795
col46:   b97baaae7cabaec9d8cbccaacd9db8de7acecdcbfdabcf8dbca99d9beaa6baaea98d9ba8d9a7b877
col47:   9b8687edaba97bbdc8edcdddcfd9dbbc8cebdb8ddccfecca9b8feccebceabac999adba8aa8989a83
col48:   caca8acbfa9a8abbaab8aa9d98bedbbcbcdbcbccbdb9abe9ecddaeb7e8eeacacb897ac79b6ac6a58
col49:   fcdd7989bfd9bdbccacacaa9caccfaeafccffddedbedfeaedcdabbadaa6c88bd8c9d9a9797879a6a
col50:   f78aaab9bcac9be8ac9fd99cdfecebfbbbfdbbadccabdc9bdb8ca9eccedbbb8999abbba9cca99788
col51:   fdd78b79ca7a8c99aab78a798e9b9babad8b8bb89ab8b9dac969da87fd9b7ba89789987a68893189
ROC:	 BPix_BpI_SEC8_LYR3_LDR22F_MOD2_ROC6
col00:   88797797376569598784978785bb9acda9da47a9c69da6cb7678798ba99b68679868765a77668554
col01:   856998b9688ab5b67cabab8c898cd88ca8866dcd9887b9b97b9a8aaa989d8bb868894b6778545782
col02:   8a47578aa7aaca8a7db899b78ba89f758b9ca988c9cbadda989889a778a6866456197b8865687758
col03:   6ca88c9abb6a83ebb98d97a79be8978a99769cb8f9a99699cbbab79b877a77d98b7844a6ba896976
col04:   b8b8aa675a8aaab7a99a95e8c4b9d8ba6db9abc5bf78b99b9cc9bb58cc99a89b7ab9885654b69743
col05:   787676794689987f98be7bbba98b98dda8bba97bc9dbaaa8a4b9ac9b89747948d885869763666942
col06:   aa897a9a9ac9a4e76b9bd779caad89db5e9a7b6d7bba8ac87a9a9ab8bb9587a7897986a789a96775
col07:   986798c8aab6c7ad9ac9dc969ce9bc69e6c96c998bebcab89a587ebb6cc74ac897678868a3966755
col08:   89a781a9689a8aa4b888a7a899bdb9c738a886b99c8b9996daa6acb9a9dad8d96b956b6455886773
col09:   3688a9964696a88c9ccaabba7a9c88bcaedcacba97bad8a9bcbba6b688b6a77ac9867aab7568d888
col10:   7678989da7d9a789bc99c99aabcb99b989ada9d85acbbc97988a88889a8cba86684b9b69a5673b58
col11:   bbc4a9789c678baadaaaab9976a9aaa7896dbb9b9aa8ac84aa67b69899aab86659887a6497447454
col12:   454888a7aa78aa6858ca8eb8cad745aad8abbda9d8d9998bb697ac894999a67b7599696848a69835
col13:   4a999696985a97b88abb8ba68dda59f8cc7bd6b9b9c9adbcaa85799ca96d799ac64b77a976688544
col14:   7586c598697786ea9a7bf8b767a9b989c8a789ba7ba8b75899aaacba67979678bc56d878b968586a
col15:   5a5bb8c98b78c769bab9bdbaccb988dab989979a997869a9bdc9997866a9c5723b374772aa789772
col16:   6aa677979a9a856e7a9c9a8caeeadacebfa58bdeccaa878a7cdbcbca59778bb988a5b75768673d45
col17:   4ca9488dc8aa9fbc7b89aaaeaa9b6a8b99dfa8aac5a7c9a7a98bbaa7bc8477858636886563452732
col18:   17d87987d57ecba6b8a993be889597d9d9b8b9da9ab8b48b777a9a8aa7875a659876aa646a346885
col19:   89a799b975af9a89ac99bac977a9a87aa7b9dceacbcd9988bbcb696aab869358b5996899496aa661
col20:   9465c945a9759b7b7899ab8c96b998bcaed6bc8bd8b9a77584b68869aca695a87865a57846236884
col21:   67ae8b6ab7a39675bacd8bbbcb8dd9bdcbc9da99baa8798c8cc5949abb67777a5966a5ba9a7a35a7
col22:   fb8568997b9a9bbbbb88ac8b999d8dcdc8cb9ba9cbb999bea657978579ce5954b76b645451585a56
col23:   b9479976b88b879bba7bbab679e7bea989adba7aba888a6b4c98a854187738897867c56725863445
col24:   96985769a8ad9bebcaacb879b96bb8b7bcbbaa8afc6d67c8c79a768545886647734864a877776357
col25:   b8668b9979ca97a99a898b9b6bcab8adccca9bc9a6c799996aa64bba279d8897999b977694586674
col26:   faa996a8b78a7e7edb499cddca889aabb8aacbadcadbdbafb9de9b7699ad99ccaab7d69a6577699b
col27:   67baa7b997dda8da5ab7ac6aacd98aaeeeb9a6c97bfccd98ae9a77ca7675aab79785d848a9985a87
col28:   f98abaaa9c4b7abbaba65eacbccbcb9bfdbcbdbccdc8b8c8ac5a89aba787ab88689799afd7a48b78
col29:   9b986a999dc9acaabc999c97bba9ada68cccccfc8a7ad7da959bcccbb9a88a67792a859956a94998
col30:   ec7a9976ab7cbcebbdca8bb99dbe9eaea8ecbdb8dfa8ebacb6bbcbba9ba8aacb98778589944a3ab7
col31:   eba88a87b8bbcccbb8e8a7cadaa8ad8dafbd8ea9fc9baba9bcd9b6af79cca8b89b897b4677c6a667
col32:   fbaab9ab6acdbd7896dbc9bdbdcabdbbdccddbdb99acbb79a5a885999b8cb86746a897cb8986b879
col33:   cac8eb7bb98eadc9b6adc9cbea6bbfdbbbccecacc8eccbb9a7c79f8bab9ced99a7dea8b8b9bca877
col34:   f57a8bcc7b9cdd97b9aa9ccefddbdbcc97c9dab9b77bcdadb7be9bdc7a6fd76b8a9a999c899adb76
col35:   da989aa6aaace5bbd5bcac8d9c8bfced9dde8bddcbcad9bce9d9eb9d9dfabbca9b979a6b6b7a8689
col36:   9d59b9bcd9babae9c9abdccee7daefd9cbbdc8adbc9ccac9babcdceabd7cd79bab9b6867e887ab55
col37:   9ac9aea6bdbbdcb78ccebb9bbdeaededbcfddc9accdbafcfccacadc9cac9ccbbbc9d7db8a3b85a98
col38:   697ab9e8aed9bdbca9efaeaec9ebe9deed97b9eeadbbdcacab9dddbb9edaa9bccba9abcccf88c9ac
col39:   ad998ba9bb7bcdaccdab9becaacdcddeceaaadadacbbbb8edc8bdecab8aab9debdc97a6bbcb949ba
col40:   a8d9dcbca9bbcfcd9bc9f9cbdccaccfdbc98d8c8aaee7bfcbd8bbeedd8abbcacdc7ead89b6c796aa
col41:   8897e5998adababdfbe9bcbfbadc79bae6ffebb9b899d9eabbbae98dad9acdb9bdab9bbab7aaaa83
col42:   a89bbdc8dbbc9fca89abaebdfb9bb8eddfadeebfcabd9cbdba7fcaacbd6aba99ddabc9877bab8b56
col43:   8ab9cad7aa9caccdd8e9ccaceefbcdc9f8ca8d8cfbac9cdbe9fecfabd9eacbbcf889dba8b6b87995
col44:   b9abcbaaeadcab9c9cdfcbdbfbdeb6dfaefcffcbffaecdfccffcf8bfb9cecdcfffcfdcadbc9cfbca
col45:   ec9bbaaacd5eeabddaf9cecaaeabbcdeacbecd8bdfcaecca9ececbec9acca79feabb9ccbc9e6a978
col46:   aadce8cdaaac8c9a9ed8bf9abababb9cdeccedbacfbdccbae9bdf9ceb8a7cbc9cc89b6b9abbb7746
col47:   b96bffca9eebababdacd8abfbebb9d6adecadbe8daa89ddcdccafbb989cebe97bfd7bfc7c97baa73
col48:   7dad6ec9b8bddbb8df9b89ccbd999c9dd9ffaabcad8dfbecac9a8faceca9bceaa8adcaabc89dea7c
col49:   67c6aa9cacfaa8bdfbb6ba9babf9abafdeed9ba8edaacbcfaf9a89edbc7dfdecc789fa8e9749829b
col50:   c68ecc9999aaca98cbbfdbad89cedbfbadbddbb99dfcaddfced9cbbca5c9c98cabdbb98ba99aaca8
col51:   948c6595acca55d79aa8bb67bdc8b7a8d9a89ec9c6bd67d98a9c889c7aca6a99ba868598a99869c8
ROC:	 BPix_BpI_SEC8_LYR3_LDR22F_MOD2_ROC7
col00:   5256746445799338799b8587798a67ac5997476855652361582645725574543645439459a3937a77
col01:   81248538695c59939a78b79c7bd99cc597899dba658b793956558361a88886a9a57567b5587c6a56
col02:   942181547674dc6ac853a8a9dc48aad888daf667776d7aa4853486567b5869947345689c7aa8da68
col03:   515466676a83997a51d96b69db9e6892ac759587ab548675659986849887996596398a6568588776
col04:   246554956b987abb45797bb888b69b7ce9937f867544b67d5836c56687688d6ba68974974a669a94
col05:   4353b8879a797a68768a9a78978887a36da77487b98b7875466186552646588ba89767a568779866
col06:   6164b68a4cb569a63876b75b86d8779ab98b8acb8745699b68787668875a777b8a66b5766a759b6c
col07:   594679f474a1876e8673995a6b56697a4c5888a4ddb94a597a9786b4593565a65ca98a3894bb58ca
col08:   73559958487642919692787866877697d86d965a98b8847b448865378756b4447ab7c68685695a97
col09:   47535536a85a99569ac7d65635a8478aa6a795b879b7a8638773545a47c4752a77dd78469ab83643
col10:   627a9c46578874996a959697a46a9a9c99b48698c29f879247a833788a57a4a7579a948978c8c54a
col11:   85759855a79b6978ada6889cb885b6789966a69725696552769689586774538ca7375699a8992736
col12:   252aa886676497567a98b564a89988a689b698552b7a7564397558967249639779559a85639a9637
col13:   5545ba66766a9ab8867a96687b8898799bb88ae9b9588aa546a379776364c89574663886889799b5
col14:   3b62ab587b96c2485a666668bb8a97b7c79ba9b99a85f793c485139867b979478687836768637c8a
col15:   a1b59636649aa735a9b545647c7c7aa7999566693cb8d85827689668556b65888767664855667456
col16:   42c67878baa2989cc576ca79799797b97bf7983cabd66988a4478a49164626931264999b5896a799
col17:   4a4b5857584c8b47989a9799675cacea7ac5849985336944466a9977457a753156725349558c7767
col18:   326ad637677998cb767897b7a5bbcbcec7aa5eaa886b866b72776a872159658453567b8347ab8344
col19:   376764b978679bdf89efaa9e9cdf7979e9cbaab777a776856a86795687d785557477758578d544a3
col20:   755686476aa568a5c5a79a68ab89d9db8d778857a697b994c94683c7a43362753529354657348697
col21:   37678849b788dc888a9c8cdd6bacb74c6aadbccab479b777966638c1955946484453386a9a898678
col22:   66887aa5a6a79db79bc65cbccc98997dc896d9abbc95a96836597585b49795864575b9195673558a
col23:   157916676a677cab89b8bbf658b5dedb995aa993786563da77683887a66639758376735534848797
col24:   477a9957da8b66bbab9767bac8bab89798c897bd585975456b95888537116395753367435b56169a
col25:   7787b77564469b92ca79caa6ea9bdf7bbaaccc7a6ebacb86989b7a58a69a996485413467657a9853
col26:   4aa536a468abfad8aaddeaac9cbfa9aa79cdd9b9d99b9abba6a756bab368887885a664755977caab
col27:   75a558977986777a75dad6dd8a9dddbbb6b9b8ca8bbc6659bbc76b9df8aea6a7a84674866b3a9678
col28:   fb88bbc88a7acb97999959caef9b9dfbc9bc9bdb7e7cdecac988e6b988d9c9baa75765ab78aba887
col29:   178558a889b688ac9a89fbd9abd879baeb9a7ab778caa7a7bd979ea699b3cd8886db667a586ca589
col30:   f9778b7b787888a79d98b9a85bc9adbc7b99da648ca87d75a8cabeac7caac9a988c587a8ab928b99
col31:   c97a9dbe9b5a7c4c6a7bc7d8ab9de9da7fbadddcdcdaeeca49a9ac38875ca985a7999b98d9b8a77a
col32:   f767b976e884a99bc9aeebcbdd7aecdec8bcf99dbb9ceebdcccfbe9b8bc6a988896afc9bab9599b9
col33:   4796875aa7b6884c8b7bfbdfb9afbaebaadbec6a9bc8b77ba979aab89b69ad7676b896b8588c694a
col34:   f9c785c97a69ac99baa4cdbb9cdda9afe9c7fdbabecac899e89ab9b88deffceae9c87c858fdcd8a6
col35:   9923caa969b88ca4a4bed56cc7bcaacdfeceed89a9bcbb78cab8d8d7a7eab5bbc76ba6899a566daa
col36:   f7a6a3678d9baaea97aabbad8ec9abc8bdcdcc8adcc9dc9896cbc88a94aefbc9bb8786b8cab44a9c
col37:   c5998cac7968dbb7bda99b9ccc8acada9d8dacc78a7beb9adca6a7787bb9bca5ba7b9f7d7aa9abaa
col38:   f83aad87ac4abcab99ecdbbbab99cfbecaedfab9cbebcac97afcbbca4bba9cb9e99a48c96cb9aa97
col39:   c2ccb497c688889a7de88c86bcbac883ca9dbabe6aa9858faba6a8a85a8958dc46e75b969b9a68ca
col40:   f5b999f989da7ca99bdc7ea687bc9fdccda8a998a9d7d8acdbda6e7c98bb8aa48cbdf59a9bcecdba
col41:   b97999fa98dedbdccaea77acedacfcdfecdbbc7c98df9a75ac8bc77997a6ba5aaa78f896899539da
col42:   fa8876aba7eacacccccfcabcb8bd8dc7beccca8a9bbc8bcbca8b9ac7987cc788a8c8ebbb9bcf9ae6
col43:   e4876c8baedb8bbafda99dbcfccbdbbccccb9bd9dcc99ddc6eef88acad7f98aa99daca9988e999ad
col44:   f51f989ead9c7ac97ebbdbacdabc5efc9adceae7f5d76799bb7be8a78a89ea9f9bb876aa87796fdd
col45:   f636c6a9ad68ab6bdadcadae8eecfbeaeaa7b5a8be7dacbca889b9a7cccfbab9eaacc8dba8dbd8cb
col46:   fc68a7baa8b9aa9887eebc8f8edbcaddcaba88b7ae8dca987d79947cc7c99dea8d9aacd5bac5e7c8
col47:   a975aab86c8bfc89b7c8aa8eabcafcc99bbab58bbb9957786a79aa9b99b88d9abb9aa88ba8ae8aa9
col48:   ff9799c9f7bb9cac9beac7dbbcabb9ec967e9b98a9b8a9c9c89a79aa77a9c7a9d7c976bcdfabaa79
col49:   78b8a96da889c7ea99fefb9d9ddad9ebbac899a7cc99bc77e8afca99f8ab8d8eca9bcfa6eebc6ccb
col50:   ff5ada97cdfebd889ec99faca8bb9cececba9ac6a9c6bba89685ccc6bc8696caadaeddcabe9bbede
col51:   f4729ca9786aaa97b969aab9ca77c6593568b696c85889aba6b688861a96c6a7ac9767e6856c95bb
ROC:	 BPix_BpI_SEC8_LYR3_LDR22F_MOD2_ROC8
col00:   477788857bc7874765867691b84857649958276869a766854ac9949898773495977a97a81b9b7784
col01:   8ba795a98959a8a98a959867a786a96879c79c77b9b8a886686488b7949a5989b68a5b9cb7969575
col02:   9a7ab868895a8888c6988a576975858a658879bebb88997a76a599b897878839747a763875739a89
col03:   6584a64b753549827656c88976a49a857ad8ab77a5a66ab6688bb6a87978c5686779b3c4acb5b6b3
col04:   679778a86aa58c976a67578a9576a5a78a69aa78d598aa48c8a787888985698b94768ac8983caba7
col05:   5387a7949976869944a6767677a66677878bc6a978a99ac98c95da96b89a9483728a5c7769b6f788
col06:   56775b68a868b56988bb79975467b95799797aa6b9bc9aab68a7ab56a2857979797a978867979856
col07:   479b8898a369b6966ab687675a8a878baaabecb69c87789aa9a79973b79b767bb74797ab47a89566
col08:   5797b9779c99a787c9dba8b8cbc986c96a86aebbc7cb9a698aa696a67988697674b9a889aac6d8a5
col09:   66568a88688d86559c9786c5999898936a98c7984aa9579879b96a8ba859a6a9a5c555e689c98aa8
col10:   66858779b7b967a7b8646783bab67b778b68c68ca97a98a498d9859969b7447889aca99a998c65ab
col11:   66a876967447746629962b9966bc985a658b9ca6b9a7b9794599d577557974b67ba7fb857a7b7ba9
col12:   44aa687896a68889a78964ba96aa769b949ac9879aa6b87bb67a9577a678676775adcb957966a9ab
col13:   47898979895a78568889954b97697687956678799879bd77a66678c3556b8ad58687d48694a8acc7
col14:   599197b867769717a57c7b78589a8888988d999b899b7c79dbb97cbaa988989aa9aa75aabc896899
col15:   5955a788886a6b55b798c9955c558344bb8ab8c55998b89b9577b7ac9965895aa9698babaa9b6881
col16:   a187a8976767a86a754b588898c877a4a8cdc469e98959bb97a57568989ba7aca7a99c778869c8a6
col17:   7c676593877873975a76686a5a678967c8a9ab65787a97cbabd568568b695867aa8bba7b46775b84
col18:   56a8a73679a378a8499aa877c7989a87a738b86a95a87a9a8789ba85a78f9893769867579849b574
col19:   82a6665765ba988957886879a7868a7ba99c99da87b5aaca8a88acac98798698988b99c9dd789575
col20:   9885a98a5988948988b8a6a888987a986b5aa5739889a79baada81aab5ca879595875b897cb5ab95
col21:   8585a7896a7a666a698a58cab66a8a9897ad88c6a9a3a9a779869696c65a78bba789792a79c37996
col22:   3877788868886994a7677a9b5a7e65a677cacadea9cac978bac8ca5d99898b9689897a68795a8586
col23:   977591578956767997979767a9a76a89a8a88c8b8589bd685a696ac64953aa6a68b6b77a58b26877
col24:   597875556a5c9a9679785868a97899a8cd999957a75b597b87b679a97a649486b898bc6a98949b84
col25:   a75b869a85a73788687ad79a885979a7a9d9a9796cad99ca879986cabab68799b986e576b8abac58
col26:   689c9d5ba798b99848a7b7bca79894cc9cccaa9bbfb8baabbc8ac8cbbbdc99ab7ca9acc8e983db9a
col27:   b477796b7ac578bb98bc89a776b897a7aac7ddb797bade7ce89a9baaa985b58c99ca9cd6a9989a8a
col28:   a98988dfdbba9a8857bbcaaa9987dbdabadbbbd7da9c96a7b8c9d989dbbac99999bacab999cb6bf9
col29:   79b96bca7ab6899baa9898ba9a8aea9a8aa8a77cbb9ab9bba8cabb86bbb9a98aaa96b9babc997892
col30:   54bab57a78a9a888b7aa97b7b9c9bab9b8abbf7acab69bc76d8aaa89c795a9bbb9cbd89996858499
col31:   87a8b9ae99bd8abafe898b99aa968da7cbcedb9bc9dbaac7dedb86bcabc9aecbacaf99ad8abc7a7e
col32:   789e887989b9a8a889bbba995bb88aedbbc9ddcabacb78e9cccc9abdb889aaa8aa7a9dc8aeb96f89
col33:   7796949786a98e8b9b878aa9c9ca98a9c9b8bcbbbdd7b8c6eb998ca9bc788dacc6f9aa8babb9fc99
col34:   7976769aac6a58a86ebe8a7abf7b8aad8f97ccc89ace8ac99de9c9bbbfbdbeaafaaaa997ba9b87bc
col35:   9a59ba6a9d77b549ed897c7ec9cabacef97bac9cb88cbbeaaf9dcacb7ac99fc7b6dcda96cb9aca68
col36:   9969988c577b69baacbaba79be8ae7ac9ccccc8b9b8bbcce5f78b8ca99ba9b989baab9b9aba9c997
col37:   65ab96adaaaa9bc7eacdbaacb9bcbdfbabdbddecbd98bca97acdbacdc9ba88bdbcb9adbbedcac97b
col38:   9a9d7599f9cdd899cab998fb9bcbaeccdcac9bda9cedddfa9aabde9bacddabeb9cfbc9fc8cb79e98
col39:   7888a57ab69799cda9d8cc9cae9d8d9bca8acbb98edadba7988afccd9abbbdcbbab98abccb99dbe7
col40:   85c9886c69dbb88baacafddeabacacc9c99c9acbdbafbc79abeceeaedb9dcceda99cbd96ecc6aba9
col41:   897c89afdadb4cbadbd6cb9bfd99bebdb7cebce9bbaab9abab8aacdb6dcccdbba9c9aacccae99aed
col42:   54b754ba9fdbbbccbc8daba89cc8ebccdffab9bcbb8bffcbcfbaccac9ace99aabdbbeacaccbdfcb8
col43:   c7ebacabbbdcab99cab8acddfcaddbbdc5cb9decdcbb7e8cdbb9c8d89aaccdcfbcfddadccb9babb9
col44:   aba6dda3c9a8baaabe99bfbc8fe7efebdcdee9ddcee899fcadcea7afbbfc88ecdaafccacefabebe8
col45:   98ab9adcd9adcbb8ba99986d899b79aaaccac9cbbabd9b8ada999abbaa8baadddabdbcda99adeb9b
col46:   5c87abdc4ad97c7beaec79ac9d9cb9dfdbdcaacfccfd8cdcadadc9dccb8ebc89dcbcdbceb9e8c8a7
col47:   a9969b88987dbbebaccaaa8cbcf99f9acc9ffbfcdbfcfdbdaef9ace79ebd7ed9cbbdadebfff89aa9
col48:   ac9aa86b8bc9a9c9d9ac9daddaecfdddbbbabaaedbb9f9ccacea7ccdbcadabfddedbddcddcb9ba9b
col49:   b5598acbecca9cbc9babdcc9baeebcadcbdbdee8edbb89abebca8eaceeccdfcacddabbc8acaadd98
col50:   5899abbbbcec8ebaddae98cfbbeeb8badcdeb9abfeaeefcf9dbefdbebdaafeba8fdcccb59cdbdcc7
col51:   3a678795a9996aa695c8bb87cb8aa999a7bdcbac6aaa9b99baa778d7aa78b997baa7aa99ba9a86dd
ROC:	 BPix_BpI_SEC8_LYR3_LDR22F_MOD2_ROC9
col00:   9d679894ad688675782b79c8988ac9c98a8679aa8a9987668a8aa69c7dbc4a956677766899576765
col01:   697897876b677abb7bbca97bcba9aa8dae989bbccaca9b9bab889a69bba7b57b8a858a67a9678998
col02:   79bc8aa87897b85787b7687b8c798a9d9aabb9885b7758689857a8a99ba5c9d87596896486959686
col03:   bbd8ac67b4a99a89b9b7ac8cbb7dbba8968b8c8d798bbd9bd8db8ab7a665a89a6998879668859546
col04:   d8a889aa66676a8899b7e9aa899ca987b7cc7c87b89acddbdb6b978798b6aaacb4898b69799a8876
col05:   87b3795486a557986c989477aa78cb898cb9a9c89a7a899b862dbba87ccac79e78b7587a8b778655
col06:   778596a5c878967bbb995b9cccd89bacc8da99a8db759bb8baabcabd7ca99aa9b88b47aaa896879a
col07:   788768aa3558b68ba9aab9caa9988b8b9a98cdaa45834b77a8a7eddb984b79888996b69791778695
col08:   8aaa5558b878b89b598bbaba78b7aac7bb689a93ab9674b68b666aeb96868bc8a47d7b4677c83437
col09:   a7a9899988a8a579cbbacbc98beabbc77bb89c9db9967999caa89c9aeb7cd88bbbb7ac888668a859
col10:   96844878bab79abaaa676da883cfdbaab8ea9a99995d9c76978998cd9a879869b54874a754786687
col11:   89597ab65777b977998a68d9aea98d7989d7acacd9ca7879baa887b6478ac979a5c498866a576875
col12:   aa8a66caa77a877997baadbaaaa8ac99da76a9afe79bbdfab996a838ae686c7ac7cb48821a7ab689
col13:   49d77b9b466c578859aab49caaac9ead9b9ba98979b9accb9ab9c7a9aec893967727a7aa7847599a
col14:   b768965a6a87d99a6887769777c6c989a79a9799aaab8bdb79a9dcbecd7ba66a68ab6e7a7ba88c83
col15:   87b9b777da7d9899bc969d88b996ad9abb95caca9866ba9bb99ba9c5eb999aab987b969ba8a27684
col16:   9982ab788577bbb9c4b6ad96dcca968c7ab9a9d9ad9c9ac8a9aaa8bac8ac9995c97799888646d898
col17:   9a779685885c756ca9768949aba9a89ab79787acc969aab86679a4978bdabcb79694795b6c977754
col18:   a9b879a68a7abab98669a799988aaca59cddbaabe67d89b6badb686aa7779a6798987a93a674a7b3
col19:   6a57486757c968963bacbb98a97b6a7ddc9a7a9a8c9ba8ac88aee9b89a5da87ba6b9966964853975
col20:   9857a99677b99a84678aa7b58b9a97db99b8a6a7cb24cec6c998b8a98b9a4b699a89566855976b76
col21:   7876ca3cb9aba9aa8b8a9dba99bfac98cbaa8998a69ac65b878aa9ccae7ac87983a36a8868a66b56
col22:   8464c8b77688699a7ab83caa9a99ae9aabcba7aab8a9ab8983a88a9b7aad979aa7786575368173c5
col23:   958883a8767765468b798a95bb6b5a89b87a887bca98a87a7877cabb79d79a679838a7b569aa8a64
col24:   a7a39977a767a877896a94a6b9aa996a777aacaa6a89a8b7d7cb9ac8a8aa8677779a956b76691786
col25:   7668b89998b96aa99866ba9ab88887db99a98bb9599999bbcb67797b9b59b89688696a6196969648
col26:   7a799a8796a78d9cac99c8d9d9efacb99c8bbeaaabba9b9beec6deeabd8c9b9c7aa8959789b8ac76
col27:   ac768a777879c7a8bb797bc9bbaeb9acd6eabcbbaabc99caa8ba9ab8baa899988e98bb89a5788774
col28:   b9baa8c679b89eb7f97babc9c88fbcab8ba7c8d99acbbdd6ab6999b9cecc9988a79a6c7e5c97aac2
col29:   847777ba898a899a7ab99aeb6b8ab7ebc78cbaabaa985bc9a9c9a96bdcca9f5a867883989a499765
col30:   7ad77898d9abab85dfa9bf9bdaaddadcbbb99ad7dbcacaa98b9cbdcc8dbc7aa99b7aa699776ca787
col31:   b978acaa7d7a98db9cc896bba99dabccb9ca99db9ba9ba9cdbcbdbbb7c984bed778a8c48994658a9
col32:   a7bb8abc98bab9d7ca886ba9baccd8e9a6bbac9fdcbcca89cbbbbdbb987aaaaaad849679b9987788
col33:   b995c9b67b8a99ccbeacbacaaacdd99c97ceb98a9ac7b9deadabaccced9b78dac56896ad99a8a889
col34:   86799aa88aad9aa8cfa8cbcdaaca99bbf8bcb9ab7c8aadcdaab7bf99cccbaa9d98bb59bbbb676ac7
col35:   e8c69a7a6a78bd8bcda6acba9ccd9bbfebcbf7bbbacac9c8db87dcd9b9ca9b8be799b865a9979a97
col36:   899d7998bb77aac9c96b8bdde8b7dec8b9eea8a8c9dbdcbcbabaad9ad9dedbc9cc8a6b98797bcac4
col37:   ba688bb8ea5c84fe88bdb9cbeaccdcccdbabfdabefbaddbeea9caca9cd9ddffab89b89a69c967778
col38:   9ca889bbd7ddab898b8c7cbcdbcdcdeb9addacbbf8c97b89eecc8ab99ad99ccb997aab86c88bcb79
col39:   7769ba89a8c87ab9cc9bedccdab5bace99d899bdb9cca9dbb9dbf87ddbfcccac9a5dc96d588a8d54
col40:   8abda9db9ab98dc9acabae9cedbaba9dc99b9bc9e8bbeacd9baeada8dbbae6ae499a9c77b9aa4896
col41:   4a97a986ba87888b9cacd9abe9baae9a8dbcbdeec9daedd8beecaa6ca9cdb6c9bd9cbacbddd9ac97
col42:   9b9b5aaa97d6daab7778bdacadaa8da7cba838bcbacb9cc9bcccad6aa8bcc99fbd7896cabdb97d64
col43:   57d6879a8cf6badace9db999bbbfcbbdb9befced9abbd9cccbdbfacbeadb59c9ec9c8aebb59a7b79
col44:   bab8bba8aa95ab9caedc99aecc9cdeceeddb9aa99ead9b9caccf89aa7bebcca8bcb6a8ce5a98bdac
col45:   88acba9658b7acacccaada89cc9cbbc9bddbb6acdbcdaacaebcca89cce8d9baeca9aba989a87ab68
col46:   88aaaa6c999938c8a9bcdaabca98cacccdbd9bba8e87d9c898d8b9aa9dcce6c4bc5c8bc8aaae7ba9
col47:   576995e5b56aedbbabe9acd9dc89b8f9ccccddeca9eaaaaaabbcb7bdcbf9ccad9e9b9c897887b9da
col48:   7a7a6a999accbdbaa98b9997ebb9aa9defcbaa8acbaedb9b8ebb9ed8cfcaba68e8ab94a79a9ab888
col49:   79bc98d97abc697bcbc7987c69a9aebbcdbe8debca89b8b8b9cdc9ccbcdaacaaba69a69a9bc99ad6
col50:   728a7e989caaaa7cab78a6dd8faecabcefcdbebefccadbdf6abcb9ccbc8ddb9c9a9ac659997ac958
col51:   862aba6a6b98a898b9c976a9785bb9c8d996ab9cabb95879a7d76c6979ac8cb89b8995676a468881
ROC:	 BPix_BpI_SEC8_LYR3_LDR22F_MOD2_ROC10
col00:   898d642657d756765578267977987a5bc788ab95545aa996b6a66886886964362656736346963433
col01:   757a68699888a6c458edfa6ac9778b79a9869a5c9699d9a9aa9a698ac6bdb989a98a874747956813
col02:   6657758796a8776b69789999aca779abaa689a9aa7c8bba48a9b8cba99a6ae88b6b6a849a49a4958
col03:   779a3537156998a9b84676ab999a7868968d965a9c9a8d9b7898aaa96aad7a9a97889579a5215634
col04:   13258669779584966587a6379d9fcaa77c68bc97a899c9d6979a8bcd86687f97c775679988669995
col05:   4a76a89637ad62ca7a79b86898b5cbb7c7aa99ac88859b8a8b9966d958797b77876a96a596717625
col06:   789963c8677589894897cc5db8d98caac9888d6bfcb88e8b87ce88b9f74ab878656585775d868895
col07:   488a5729c76958a7997a5769b8de89c8c6dbc8bb7a978a8688ba99a89aabbbaa43bbcb996a486754
col08:   3c657ba26a7a889798ab89998c65599a9999aba9aaf889589a9d7aa6bacad9879665c7b7b7795954
col09:   84a674b59b859878996a9aaa9b9d9ec7b9a9798a57adac4c7aa4a69aaaae9988a8ba669776989aa6
col10:   667ab96638ab62a656bd5c6c8cab87da6bca5aa9a979964a777a89899cac84ad698577976a6696b9
col11:   4889a5849686878a7778a8738688ac3b89988698d88ba9ba7998b5788b99b5b9d6a77a49bb796728
col12:   93a9779474b989695684af973b75889a8bdaa8b6b955a77aaa6c79bc6278db577988a9765a576737
col13:   65a789ab8aaa59545898c69e59c789bc99698edbaa98ab9a8a7a9aad6a467caa846b77a876c59883
col14:   79775a58bca3e4d6dca87af6ba9bf9aadb9abc77a8a888888a9aa86aaa9b997788b6995da5763957
col15:   36366369b73ba97b69d6aaf7cc7a7b9c965d9d9aa98ca8bb6b7989b8c9999aef8945963589577566
col16:   568348758b696b89784673778dc8addd9e997c987d988597a796dadd9ca8d87a6bc648a874a86782
col17:   395667c99a78558897bb28ab86aadcaeb68bb6cb89b479b669859b78986acb99ab66787868858775
col18:   83362a5699ad674a8a89ba8cbab9cb7b998babda89598786cb8aa594a8bab84977a7b78a97b77357
col19:   8cb6a9598a89489ad57868a8d88b9a99c8ab89bcdab7685b56877ac9d597975cbb7b44836a698967
col20:   978657a5999c758daa4847a8dad99a79cb799977aab3dcd9d5a996297999dbc866a6a7798a559468
col21:   87b7a6a855b457a7578a798ba7dabbbce7b99b9a5bbba6689b7ab9abab7b8c68877b66a789656261
col22:   766767a9b5a99888ca9b8596bb83a7a7ab9bb68877978aa8bb978578db87698c9b6945c868594688
col23:   749655695855425998929a895a76bbdaca798dbc8bac886c676c8579baac5865c857c6a797556566
col24:   9659d35b2897799abb88b88b6558ac88798bb9a8daf89a7a58aa76aa9cc788678a689c8b78897974
col25:   69c978685a88cbaaa867bd7ca97888b84ca98c877d9a2687788ba9a367b8d9ba89989988ab55a273
col26:   a75a9747799bc6bbdb8b9eb99ddbdaddb7bcedac9c9abacbbaebab898db99b9dc99946ab957788a8
col27:   b97aa6b8858d88b79f82cb7c8ea9b7dccdeccb8aacc69a8c7d8aaa8bcd8aacaaa868a98aa9897972
col28:   6aac995ad589ccb9bdabda9bdcbacab9d687a9abfdcbdbefcc7baa8f97d9abacc986b87cc5968a59
col29:   e788b3b77898dbbbaa88ecbbb9aebb9bba8ddabae8b89bab8c8af8a9cdcda9689a79acaa96486964
col30:   b67b847baa7b7989cab77ba89c98bcbb9eca98ae72be99a8a98bb9cbfcbf79c9ab9aa99c978b8895
col31:   9a9c757b78cbaddcdabdbaaaacc9c9aeceb9cfc9bbeacdddbdacabbaafa96df79accb5a6a6a6e47b
col32:   ca7579b987b87aaababab48adbdacdc88cebacaf79baceabbbcd9d8dce6bbfcb95c3ab89c8886945
col33:   79984557aa88a797d88a99a99ac8dcceae9abc799bbaea9a8ad8fcfaa8b9c97988b558ab7b999ca9
col34:   a9b9b99dc9a7ad77ccaaaadedcbabdbccbdbfaecacaead8aacdcadbcbcbca9cbcbe98a9baa8c9987
col35:   8989988bad9c59a88baab9d999addbbf99daa99fbdfbfcad8ababbd7cc9bdbaaab889bac79a86c88
col36:   26a59b6be7c78aa9ccb75db6e5ecc8bcfeaadd8c9db8669e9ab9a89cdbdaa7c9b887a95a9c99b547
col37:   b7b9c97a7b9addaa9d4cd89decdb9bcfadcbbb9a7dcdbcdcddc8c9bdc99cde8acdcbca898cb68a9a
col38:   abcbcba7abefe7a99ba8aacadddbeceebbcecdceaccecddcc6a6ebcab9c8cbfdc9c8baca4ba8b8b8
col39:   8a6874d78afaa6999688ad979fccdc9ccecdabc8eba9b9abb89dbbd9c8ccca9689c88aa78879c696
col40:   96a9a987ab8a9abccb8ccb8c9cbbddbbfccbd6bdbcdbaacadbadca8abac8aad9dadb77d88a98b987
col41:   d9ebbaa96baabacd8db8acbcce9c9edbc7eddae88eacbcaae8aefabbcdcecdecdfa7bbd6e27ad9ab
col42:   bb5abbbdbaa8f89b6b88dabbdddbddadafcfc7caaed9dd6dd9fb9baeadf9a95ad8bd9bad8dbab797
col43:   8b7baabc9baa7deae7abbaed8abdceba87dcdec7cf6fddaecbbcfebbccebed8daededd9ab9bf5a3a
col44:   bab876acac8a9cccadfceeccdcc99e9baacdddbdadac8bddabcfdb7edbddadad999ea7aaabda5d75
col45:   6b8aa78ab7ba6a9dbdbabacdabacae9fcbd9cacdbc9d9cb99eba98dacddabdba69a67aac7a988c9a
col46:   cbdbac9aafda479bad9bb99accfcbafbddcceedf9cb9cedaeb8ccfccbdeafd8d9c8cdb7e9695ba96
col47:   8aad8e89fe6ecb7acaccce8eafeddbda9aedacdb5e8bcb9b9ecbd8ebbaffcfb88cb5babb7cd75c9a
col48:   c97978aa696b9ad9d9ccccd9e979eccbdbbcfd89beedb89e7dbbeaabcc9edac99aebbfc8f7aa8b99
col49:   d798a9ebb9a8a99cba9aaee9ecaacaaeddbbcdddf8cbdc9edfdd9f9dede99bba7abfabcdbb49bc66
col50:   aad9ce788bb8abcbab9b89bacccadbbabca9beabacbfecbeca6dafcacacabc7ca999bdaaea8889a5
col51:   ab989a68a6ba975a7779ab98c7d8aaac6a8a9ddaa9da9b7c98ccacabc6ccaed9a77a59a858547938
ROC:	 BPix_BpI_SEC8_LYR3_LDR22F_MOD2_ROC11
col00:   83567686898655866a5562795889e586897e9b9799b787b99765a763c688c86c99573596d7b85986
col01:   445577a774a89966ae9b56c9c56969979a5aa78bb8ba66cceacc8d888ac89d7bb6a8a7b8a97bd789
col02:   567bb45a69d68c6ba57798889887da8988584c933ace89a996cc4b65596b7a9a87a888838ab7b8c8
col03:   9593b6a6b66bb8f47598cabeba97ca988997969b8b77aa89adb79968acbab85887a7bf779973c7a7
col04:   7d3957cbaa97b6bc66969ba5a8898aa9a8b99877adab8bcaa78dca8f69787b68c489747a8a8b8987
col05:   364399759596c6a5788da9cb9a63c9779b99878a7a89b757dda989db5cc8a899b4a79857daa97858
col06:   5847969767b849897fc6896d89c987bb767acb849b789a8bb8bd7b77598ba77ae1faa6a8d58c9ca9
col07:   35a7687379889954869979576aa888bcaac6b9aa47987889d888b8c95fc876d988aebabbaa9c6cb7
col08:   37b873565979869999bdb77a8a8aabbb9a7d97b9d19ba7d687a9db996b77cb6917b976a9797a8792
col09:   976847888a4ab8b7c7daca8bbcb9799a8aa6c5d9d8949cdd99a6b977c9bec7845a6bacaad89a9794
col10:   16a6a55c96898dbbba9379768b86698ed85ac6bbab577c8a97c869e89a5b386c487b9c77b49aba75
col11:   46783775ba7477737c57996a9aaa899757c77b688a8a7b7a887ba6a7c8c5a75989589585d9b6b898
col12:   2777b747b3a7ea579887d9a796f9aa9a6a7b9dbec6c9d99ca78d9859ccb977965c79999a899a8a8b
col13:   8673ca45bb97b5ba9458b996d79ccbd8bda9bd9889496bebbaa9ce95c78b8688955767bde37b9774
col14:   8758575769889bc8dd7abc86797acc7aac1aa86f7a8b98b7c7a8ab69b5adac9b85866a798967cfc9
col15:   9567739772aa688aa7b97a89a85c69a7d99bbaa798a4bbae889a8b9c7b9d8b98b967966397b78778
col16:   6689c7a66698aa7885a9876c779a9ba479c8b9786bbcde8ba6a9ad43b8868944787baa776366c985
col17:   86a57495b56a8acbb55879988976b989a86aa8ab8778abbbb1d7bb8c97b8daa75b4a567c682577d5
col18:   2c17697799a987187ad637c969698a9c76768d77f996bab857999c5a6ac4d88a94a59a876976a996
col19:   9684579997578cd995a4b77696b66bec997778a687baa9a8cbe5bd6aead78c96988a474985b48666
col20:   4869a58a9aaabc9bb788b89689a6898ba9a698f967597c998ccbba7999d6a8baaa45788666c85886
col21:   5599568ac667a85c99686b79947adccab86898859badb9bc9ed7888c89659a979a7b9a675aa873a8
col22:   7a393c6a88967d8a865858c758a779a79eabbbe6b876ce7aabc87b8596aa64aa6879975986ca7b3b
col23:   9625a6956a93aa8a767863bbd48b7a6c679eaaaab67779878589d8556dbba84ba54587b37635787c
col24:   55894c6399d8a8e897aa6a9e567374a54796d97e8b787dcdb94864a8ba6797877c76564899a68eb6
col25:   5764b69c6579697a88cb6ba4f6a5377b58fba968b989bb9d6b87af5979aa99ab78788a9698d47589
col26:   a68784986bda95c96a78b7da5acaedcbf9bdaafd8e69ac89fbaadcbd79dbbab877bbb679b97b7be5
col27:   a6996bd9b89659b96b9775a9a89abdaeab76ccaa5a6dbf8c9ba8daa99b8bbaa989a6dba8aa867955
col28:   899669aaaac787a799ada6578aba87eb8bb799edddcd88bc7dabda8aba8b9aa878a6a9abb9989ab6
col29:   7a72998a68be7a9a8d8c9a7aabcaab9d9bc7bc79baab9ccb9c6ccbceb8eba7aabd97b9b4a9b987b7
col30:   4a97a9ab9a9b966c799a99abadc9ade9b8ed9d886a9a87dd997d8bcabbdbdcdb58bbd9979c53caa9
col31:   87997d878addb78aabaab8edbd9abcecabe9aeadd99a9a8aff7bd896aaa8bc8b9b75c7abfcbbe979
col32:   4989b7738859aebbaa99a6fbbdf7b9cb9ad8cdcbbe88bbdbcebbcbdc8ac78ae9d9c7d8877987d7b7
col33:   753c678998b9aa88d9ac6aa7dacc89c9e876cabafdbcb8baeda8b99ae7ebc7daab9a9aa99bae7647
col34:   64999bb277a8ba9ea8ddb9ad9ddd9bdcd8ac9cce9cc7d2d89cf9bd9999b8db99c8adbac7d56ce8db
col35:   6787bb89baadaa88c789ba8c8a85bba97c89898aba99cc9dee8b9da88a88ea57a97eacadcd8ab989
col36:   959b89a7cd796baabcbcead68ce9e8ccae87a7abae7aaaeaacbdfb7c88ad8977aba88cdc889979a5
col37:   876e9de7ade6a7ac8b9e5abeb9dabab9b9dd8b78df8d9de79dab999bd9aadb9cbdbbaaa7acdcbdba
col38:   747ad599aba8aa88aadb9fbfd88e6bcf9cbbab3cba8bf8aaa7cdbccdd9cd8dacbabbbb988acfaa9b
col39:   a689a8799cba45cbbbcca9ccca8cacbc7c99cdbdac99cbc78daa8b9ab9dbb9bbac67aecddbb4caec
col40:   aa948ced9bda4e9aabaafca9d99a889bc8de8b9cf6ddaabfbfcc9c96bbaaaabbceabfa88be7ef8b9
col41:   b789578dcca6c7cbaaad9aa9b8bba9688accfece7b9edecaababcabb8baabbba769a9cacbd7cbaa6
col42:   998994aa869cabab94bcee97d7bbeaa8ce8c9acdab9c996bbc8aafc88acbcc5c8dbb8b79b97dbce9
col43:   787978bcacbbb6ab7cc8bdbca978aa7bd6cb99a9e788cccc9dcada9dacccccccf989c6acba66caaf
col44:   aa77a9b9bbbaace7d9dada6a97b9b9ba89c8cdbc9fcbbe878cbdb8bda98b79c99c8dbed67ace8ad9
col45:   dc56ca9add8d9dddfa766ecb8c8799bdafbd9ea7bdb7edbdaaffdaacebf9668bcc97ae6cdddcccdd
col46:   b4c957bda7aa8d86969c7ba9ac7994b6eb9de7adfbe9afbddacab9bdad9db6a888cc99b87ae8abb8
col47:   76c49ba79dbca7bba9d7fa877bca9aeef9c799beaabf8c9ba9abb89ca89acfbacbb8a98cc7dbbaad
col48:   7796a7a8a8ae8abbd9dadb9abccaeebc8dedaa88d8b5ba7ceff98aadbb979cc8dcaa9a9adce8fd78
col49:   a59859a7ab748988acd9b7aabba77aa97a9bac4ecadbcdcb9acb6cd8a8bd87a7bbcba6a469aadb9a
col50:   4a887bb9aba8dccca9e9c78acfffc8b98dfb999ebbcbabbc9ad9ec8a9aeb7bcb98ea8bbc9b7cdbc6
col51:   4445b68617a4669787676a9a68557886b867aa894cb7889675b6b766b9b59956554bd68877a39665
ROC:	 BPix_BpI_SEC8_LYR3_LDR22F_MOD2_ROC12
col00:   d58a787596c75547598c4874a5579c789473847677ba37886877997a799869b99393a3a7676a7878
col01:   7758897ad89b7a8a7859aa987b5955777aa9677c67ab57966daaa8cb99888b49b77669879899aa9a
col02:   a77ac986a727a79ab9c68aa966a8a8c7b877da7965c78c9887a798a8a9889b775ba877a5676899b4
col03:   957787aac588bd9b7519956989bcbbaa769a7a7ac7bab989984a9a9b9b8e9bebab897845997786ab
col04:   888598a8beaa6a749949628879b9a9c879b768ca89dbb8a8ca9b9a6d7be997aaaaaa59ac978fba88
col05:   657baa8879adb5bcb98a98987878aa7c8b979baba7867a9ba387a97a8ac7c97cc86bba68687b8676
col06:   59985a65a6b9869e9b8859b666b9c74ba7ecc8dd98a8888a969dbca799abab968b685956975b8566
col07:   a886b9a6996169b9c7a8988abaab8ca8c88b8ba96abcc7b8799896acd8aaca9876d68ab7d6887a88
col08:   5b8aa7989a896a89b4858989859ba899e7caa78b67d88cab8aca995ac6ea89daa7a97669787bb7a8
col09:   aaa99aa5ab89d4a697988c7a9ad9ac7ca8d7b7aaa89a87c5b77acaab989aba87aba5c85553b88871
col10:   b88b5a989a868bdce9796bd5c4bc8bb7997b8e8689ccab89dbc9b9ba6cf9894889cb8877996969a1
col11:   364c9867cc8794aacbb67a8b858e6bba79bbacbcb897bdad97c8c88a867999b6ad8799ca8b585a86
col12:   556a7379994a9579abc89c8ba8a6b988aa658ba68778ac8999aacabb88789b69b78866d8b9599978
col13:   55956bba7a638b7885b89b8b988ceba8b8c9569ac9d7aa7beaae8baba8945bab8b69a5db86276898
col14:   46a6ac2c7ac8ca99699b7a9a8aaa7b9aaaa9aa97f79cb99acc9aaa876c796aab9bc89ab6bbb7aa67
col15:   ba86679a6789ca88aa98cc9778a7aec89adaa5a5b8a7d7dcb5c8d89788a7bbb7969889b68957b796
col16:   a585ab87879abb9787caa5a978b8aacadb88aba968a8aa69baa9d6cbabaa6c8b7d6ca9974be8ab87
col17:   7767ba4788a483ca84a7a8b596979dc869979598ad98878b8b9d99b986b377db88aa859c8887ba67
col18:   7857986bb748a78ba786569bcb578e948ab86b9b7989aa9adaebaa9a8db9adc679796a7c7788b395
col19:   566859867a88867b9b88d5aa89688c9898dbbc66c88987bcb989e98d8796aa9b88add6a869c98896
col20:   388696998b17888976a89bc769cfabf8a8ab8bba8a5bd76a9a7689b9ca76899ab9aa85d7859784a6
col21:   3559876b9aa9a8579bdaa8b7497ce9ba8b78adeb7989868ca6b99b87699a5a9ad58d95a7b9a889b9
col22:   a88a99a9979ca8dc79c977c63bcbca858adab6ab5a8b9a97d8bc8586c97777a9a6894cb99a9493a4
col23:   5766475e7b7883a84978a88a89baabda9c47aa8959acad78ccb8d7aaea96c7a6b98c9766b99a8ab9
col24:   9766a68aaae7996abbbab996ebbcadc7bf878979bb9bc7c97b978bbbda9d6bca879bbc99a78b979a
col25:   7869798867a6a5a89a59a93dad48a899dc879ea9d9bca9ddd8cbcaab76a67b79997cd8bd698986a8
col26:   7897b67acc7a9ab8cb8b98bcbbdcecb9cde8d8bc9a89accdabbbb5bab879b89cdabb977c68cc887a
col27:   655687899c68b9ccc8aabdaba899a87d8dc8b9acafc9aa9b99898be8ebeabca7a87899cd8999ab8f
col28:   94abc9769f92cc898696d9fbab99bef7bedcbfc9bca9c9cefb8abbbdaaa9bdcadec6debe8ca989d7
col29:   86c794a89bc7abbb9dbccca9ec9f7cddb9d9baafb9c9abddadabdfec9bbccbcbc8cbea987d998cb9
col30:   99c8699acbbbc9cbb7ca899c879cbebacdccab8aa8dacafa68d7be9c79e9c88b7abd48c7ac7abf9b
col31:   96a8ccae589d7bbcca7bdd9feb9ccbabefc9b9b9b9caabedeb9deabbdd968c89dddbbc7b9ebabfcc
col32:   77a8d8cb9b799dc9db9968febbbccdb6fabaadbcdaeeec9daadadfd9aba99cdbccca9bccd5abcb98
col33:   c989a86ab99dca8ac7ddc5cbddabfdcaaeab8bbad9cc9abaddedb7cabeed8e89cbcda9b9a877af99
col34:   7bb7ca9baa466d8798efbacacbbdf8ccef977bece98acafeba9dc8ccdcb98cae8c9fc8e9c8ca9bca
col35:   c9aab977aa8b5a8ecfb7cddacbace999cacdcfcff9cbccfbebcccb7edadebdacb8cab88baca7fce8
col36:   79aca7ab8a88dd5bb9bbfccca9bcba8bccddd9abcaaaaba9bcaac9bd9d9edd8aabce7dadeb999998
col37:   bacecaed9a7b9afbad9ddaecdb76dddfeaa9fdcbc9efc7bba9efdcbdb99cacaaebcafbb79ddfcaca
col38:   cc6abbb8b88aacccecbbfcdfbbbaeadbbbddeedbdecaccedcfebbda9e9eabbeddacd7bbbbee98bbc
col39:   abab9a9bc8dbcbc9bcab7bb9cfefd97ebceefbcacdc6aa9bcacdbd9ac6eccc7998c87dbc7bbdaaca
col40:   cb7b8e9cbbabccfaa97badacdbdddd7bbb7adcafffdddaaabcbabdaffdacbdecbce78b9caeecf8cb
col41:   cbbbccdbdddec8bacb8f9da9a6dafaabfdefabcb7edbddedddce99ecbdaddcbdfefceebbb7ddab79
col42:   ad59a98eb9cc7997aebb99dbccb9cfbcbcecd9df9cbcccbe9deebde9ecba97dea9ca9adba6cbbed6
col43:   75a7ddda9ababb9afbc9cfcbbccbcde9df9cfaeccfbbbec7fbcffcfce9efc7fbbdcfbfface9caad7
col44:   bcfdb66ed9abcebdccbd9bf9dd98dbcccebfeedfcacacdd9cdbcbcdccaebcdbcfaedfcc9fd9cccdc
col45:   a8babba99accbbcabaccfa6cdfedabcc8cbfdfdedf6adddcb8edbaecaceece8abba9cc9dbeaccae6
col46:   bd88acabfddaeadcbeaaaedbeddcefcf9feecdcffedab8cddcddc9ebcfccbdedccdacbc8abe9cfdc
col47:   8989adcabe7fd89a9bedfaecdcfbffe8ddabddffa9bbdbbaeefcdeeeefbdfddeebddecab6acadede
col48:   59aa7dc9ddeda9dc9caccbbd8bfccbfdfcddbdcf8dfdebbacadadfeacc9dc79ceaebabcabdaa8b8a
col49:   ecb9b9c9889cfa7dadebd8ddfb889cffcecdbdccbdfcccdeeebbdf99fafc8abeb9c9bdcaca9afa8b
col50:   87bcc86a9cc9dacdda9b9ecedada9beebcb9cdfacccdcccdedfbbcebabcfedeefccdaabddbaeadaa
col51:   9679b9b96d8cea89bb9badcaba8ab9cbab5b7b95b8caaa579c85dfb99ca8acc9f9ada6a976897b39
ROC:	 BPix_BpI_SEC8_LYR3_LDR22F_MOD2_ROC13
col00:   4738555baa847756835965758b7777939aa848b57687899aab9777485a5c6755b548841999448333
col01:   8567c5c9885a7b358a98696bbea87c8885bbd9cc9cb88da9b798d7e4b77a68675539445779a79754
col02:   76ad6aaa3b879784b75aa9bbb7859a6979a76c98ab9bbabd854ada78a489788766664778478b6975
col03:   58659646867b88978868e9aa69ba6bab9788f5ebaabaca96b888a7968948b9b847926a9596916861
col04:   9999c4987a978b6799889799dbaa8678e6cbab7ca59da87c8aa8b9b968a6b6976a466b7789674579
col05:   6b5b89887b785686cac89cb6a7a89ca79cdeb5bb88ba9ab4cc8a7b9a79569897a46765786787aa56
col06:   47857288884a7cba4a699bc7bd9a99bda47ab6bb8b8bca8c7b899bc879a9897a368877a75565b464
col07:   78a95899c98696779a9bac98bababa5b7a6adabcba7a8ca988b99af85586776d6a99856893759438
col08:   499879877869a698aaa7ca679886897998fba88a8a9aca7b98a7a6998b8ab4ab44a6248776434925
col09:   63898867c56896c7778a9a9678bb8577d8be8979759ad96daaa9a4cab896a98977765994b8b79897
col10:   6988a8c48bc77a9ba8b9a8d79baa9a6c277dbe598b9a8ccbcbc887ab95878a768859894595578844
col11:   c8779a454a6ca6977b78a99859ca9b6b79ba7ba98cc8bab6ac7fb6b9cb68d977866b53337a684682
col12:   6a5a568b899b8968b986797b7c9bb4a77ab6aaab78daa7aabb8a5c8977ca99588835973996476654
col13:   8bab898cb7799999798d6a89aa969a8a9b6b6997a69ec98aa8b8896da645a6a6a4887a77cb398598
col14:   78568867d9c49a788b85a8989a8ab6796a8a665b77b59eb99aa77b889868895a79b8665958a49c61
col15:   966749a7ca7499ab46a8badaada868daad979aba9d9a7ca98c878b7caa9a77689a6356668a237874
col16:   77858a9683787b76ca87a8b999aaa8dbc8c9bccc9996a896a9a7889bbb8259b54687995236685a75
col17:   4567854a7aa85b5ca99ab77a995bb899a9cba8b9786b6989bc88d8898668b6688559564777633123
col18:   89469694a855c7b66a7b97ab87695b8cb5817ab8bb9a58b73aad6db6867896287774977684669796
col19:   aba56987b9a8898667b97a98c8899989baaa58a8eab6a898bb77785bca67468878497883b6456597
col20:   499499565b89a96b98698689ca99be9d8a998996aa8979c77a985c8a99b677a766a95848a5544587
col21:   a7a84c7985a6a819699aaaaa6a7ababa7b7eb89e87c589ce9a9669b7b899899c773a558789ba3371
col22:   578589867787988a7a695a95d678ba7c6aaaa78c8868aa98a76999ab776da98696a9978547477486
col23:   8976b45578a7685a5c4a8c4cac98ac7abebaba793bc65a5aa9a8db88c89947686944645a686a7558
col24:   88a9a9aaba2aa79888aa979baa9c6bb79b6997789ca9a597bc7ba5a994b9996786569578b4478471
col25:   389895baa668baaf9ca4a895797cb7ac9ac98abb96adb96dd4ccbaa95a694a6cb7ba95358a9b5631
col26:   69dbb7b7ddbc9e89ac9c8c6889bcc8adae9bc9ababdbcaa5cbe9cbbeeba9a9a9b8c96a5888a93176
col27:   b8c79e9976a988aa7b7aaab99bcb9d68beb7bb9cdcedd8ddebcabec9799cda75c687897767757876
col28:   75ada97a99dadbe87baaacbeb7abb8bbbbfcbbcbdc7bbedbb799aeddd6888bb98aa4cb9a97a8a966
col29:   c3b9bbc89b7aab9a799ac9c8daa8ae6ffbdf9ca89bbbedbb99bfcbaabac8b9c88ba8c8983779875a
col30:   78675abd9b95b6fcd7dac897bbcaabbefcdbaaba8c98ca5bcf9c6c7eaedd86bb8985a9ba99a99996
col31:   7a7969bb5bba8abac947aaaacc9db6ba969cc78bacd8cdbd97dadecae96a9a8c8c879787a6bb5877
col32:   88adb83cb8d689ac9bc9a99cac68c78c9dbdce88bb9afc8cabdc7c7a9eacd989a868599996a66814
col33:   8889d9a8c9a8a9aaadbbc78accaeacbacdc9a979dacceccbeabca8a9abbeb96ab79abac8698d7892
col34:   57adb9daa5d9b9babccccbcde8accadd9eabbbcaab8ceaf8bdbbaca9ab969a9a7688ea7ba8baaaa5
col35:   5488896ca99ebbcb9d8b7baa5dbab8adbedcddabddaada9bbcbd8bbaa99d8d9ba9caab9bdb8b95a9
col36:   a95bab9a79aab9887bcabebcfbca5bababfb8abeca8da9ccf9ae9cca9a7c67d9b978575ab99baac5
col37:   9b6a88bc79cb6b9db6a7999ddb999f9c8bbca7cdbdcaceae6fb9ab8bbccbaf999ba57bb8aba6b966
col38:   adbaadac899caccdfee9fb8edcb9e66a9bfdcdcccbfd9bfcbdbdddf99968b748bcb678d6c77ab5a9
col39:   9a78c8ab69baa7dc88bcda98e5ccbdfb9c8dbcccc87daea9bbeaccb9adaacb9ab9a69b96e897bc95
col40:   db77a9bbbbeb9b8acbd6dade989ccfb9b9cbbdcecdcaed3799af8c59eb8799aa995be7c88b69b9a9
col41:   899a9b55bc9b8dc95abcbb9fb7deafcbbabcdf9afeb9cecb9ee9c9be8c9c8d8e5cbbba877779a856
col42:   8bb7c9dd4badabdaa9eae8bdf9cceacabfbdcaebecbaa4cadedaceaaccaac89b7cba8ba95a879aa9
col43:   9bb8c9a889c99d6bfbd8ddecbcedeadcdd9dcdececccc8c9ca8bfdecdebba97ced9988ba8cba57d5
col44:   57ebd9ca9999cbd8dbac58becbecbfddbddcd8ca6ebbcbaacaadeddbe99db7c7c9c78879e67b38c6
col45:   b87bbb99bbaeacfbafb99bcbd6bdbfbcdabedceabbfcdff7bb7ebfaebb8babaa8a8d98bab88a7cc9
col46:   86999a98986aabbd889aaca9b9eecabddcadbb74babddb9abbc99dbfb6e89aaa99b9b948a999779a
col47:   cc9bb9cb8facaa9edf7bcbbaec97a9b99efbcd6dceb8ecbbbbfcfb9dbecdeb8dba9c88cb88abf785
col48:   7a9ad88c9b699adbd9a8cdfbac79de9bb9bdd9bcbc9babbd9ac98aca9b8ef8bca869c89cb56c8db9
col49:   ab879bc7bedb7a9ba8b8ac78f7d9bc8edcc8b8dee7bdabbdbbfbceca8ad89a89a9cb5a89bebc9ca6
col50:   888e9b96897eacaeabeaabfa88bbb7bfcf99b99ffadccbbba8cdebb8eca9fccdb7a5999778ba8c79
col51:   9689696bba768bcbc88bdaab7bb858785dcb988a5975abaacf79a988bb96643b7468764889954581
ROC:	 BPix_BpI_SEC8_LYR3_LDR22F_MOD2_ROC14
col00:   9835696556689898866699a5bbbb7988a9a7aa959bd57869567655788c856a786986869588777985
col01:   866a88aa9b9a8aabaaa769ac7ad8ac9a8dbccbcb7877acbaaa7c5b8cc46b9b7d6aaf997ab8878ca8
col02:   9a7887acbaa8787aaaabcc8ba9b7a8ced7abc9c7aaabdbbea9cab9cb37aaa789aa7977755ab6bda4
col03:   b7ba8a9ac9cb8b8b9a59baa99abc9abec8c9d89cabc89d9c9abbabc88a8ca899887767c754577867
col04:   5786b7868aaabb8666b799a8a89abb798bababfcaabbabbeab89a8cabab949a8aabb6698567a8676
col05:   89b7498756cba8aa68a86b7baa8b8899dbaabb8ca98a7978df9cca7779bac9959b1a989859769794
col06:   48785b59b97a9c8a7babc69b68b9869bcc68bc896a66c7cbe98bbaada9989a9a7469b3695759b8aa
col07:   9a878879acdaaaac896ac88eccd9c896ab9acfcaa6bbaab8ad9babb995aaaa9a486a9aa843aa6675
col08:   667ac8b68898886b8986b9ee8a9bdc7dbdabbc5ab9ceed7987beab7b9b98c78878c97bb69a5d665a
col09:   98aa3b9ab8883d7ba85ebaad9b87cd6bbbc89ccaa7aab9ec677acb7a8aad799ce936957b67685a86
col10:   978c887767b97caa686bccd9acdb6abbb7df89999a9b9a8adc9eacac7ba9959b86a8a98979867868
col11:   b9aa77bc99c7ca9997998cd9eaf6ca96cda989bbabb86b79c78db7c9b9b9aba8797795889a1844a8
col12:   456a7988ac78967ba7edb9ba9b98876b9fcaa9d899b7cd99aaac9ac88ab3c9bc6a87777ab7868979
col13:   969b698b7a8ab93bb9a9ceabcb98bce8bbdbdb9cdbab9aae93998bb9cc9b86b8be7c7978865697c8
col14:   887778949b985b9b7bbdaa98acca9adaed98da8abdeaac99b879c5ad7eeaa9a77b86a658986a891b
col15:   8986bb89bbca789998a9abfabbab9b99acd8abd6899baca88c9ca957a78a4788f7c99b954aa67867
col16:   6aa9ad68ba8b89a9adbb8a9ba88d9dadbdcca99d98bac87cdaab8bc8ab87baaa59888d77a76a97a7
col17:   96778997ba9a79b69a8a8a9c7bbce9ac9cada9cabbb8bb798bbbba9b989499a7a7ac668477578846
col18:   84587b8b7a998ca6a9b9b66a9987adbbcdccd9a9d898bbd9999cb779ba8c8b8896ab896298576676
col19:   975a8b458b8ba8a999cc79789a98fbc98bdce89ccccae99998ba9a78daabb7c6b8b988ba8a2997a8
col20:   d94a7996896c9998797689a9bcca737dfad9d88ce99b79bbb99bc8aacce9a9898759987695779676
col21:   7688cb73768cbbb8b9a7c966a89bdbaa6bcbbb9aacdb9bbaca8c798eb5e6aa958a989763a9b599b9
col22:   7989977a786d9885a68a7b889a99bd8ddabebbc9fc68aa6bde8877cca68a5695737967a945687358
col23:   9787d2a8baaaf7b7dd9b87a9ca7cd78a8bac987ca9aa6a8aceabbb868b8a76a669ab676738877365
col24:   9b8888679998cab9cb8acdbaa898ab9bcd6b9daba7ae99b896ada9c87978a7beea6aaa6a86577586
col25:   789ca779a9abcb99976c68d8bcaadbdde8bc98c5aabbb667da8b8889a7bbce6587c89aa39aa79955
col26:   abb889b9cacfabbbcbdccc8cdf8cdaaa9acecb79daab9acbeebf9d8dcaaab676caaba8acc9aba89a
col27:   ac96a88b799798a9da9bb99adebcbfebbcadeceacd9cbbccabcc9d6eaaa97b8c6879da896ab669b3
col28:   ab997978caa8abccb9dccd9acdc9baea78aaf7ccccebd98dd8cc6cdc8c8b778bbba99a9bbbc77b98
col29:   7a5b98eeacebaf8fb8d5ddcdcbbdb9cc9aaedcbaa9d5babcca88da9aa69cad8a9991b9badaf69464
col30:   96b7cd4fbeae5eb99aef9cbbcbcbcba8cdfdcbacbfabdb69ff8c9dbcc9cb5ec8da99758cacb5b967
col31:   7d9bc7c8eccd6bedbcbecdcbfbc7dbeacecbbeebc9ac7fdbaebc8babaebaedbcdf88a7d89d798a8b
col32:   799abaeaaabdbb68e9cacdccdaa9bb9ddcd7aabac99aafdcdbccc9dcfc8f88ebeb7abaa5c67b8997
col33:   8fa78ba9abb9daea8ac8cccccddebcdd8aedcdabccbadcd9dbbc89dabd6fbd7a78a6aacbbc7487c8
col34:   bb7cb99dcea96dfadbbcdacfeefc9fb9edabd98d9aeb9c9ccbcdeebb7cedca9b7abdebaa8abca998
col35:   cc7878cc9a5baeca6dcaaabcacadeadacc99becabbdffbcaacf9cdadc98bbdd967aabdc7d7998ab7
col36:   ba9c9ceeccc9bcdac9ddacadbfcbac978e98cd9bdbac89aada9bdcdaea8bbbcbca9a89b7a8a8aba8
col37:   9cb9a868cdbbbbdbbecf8c9da8c7dba8abbb9adbabbdda9bdad7d7b8bdec9ca9b5989b86cba5c769
col38:   bb9babcdcbfad7facabebd89bf99d9b79accaececbbbbbdd9acbcaa8ddd8c879ec678ad6aabac59b
col39:   9b89adcea7bcdccdbabccafdecdbbdd9b8eeacdfbcedb9fd99dfe6c89ee5bbc88796ca9897c85988
col40:   e9889ac98ec9ad7cbcbfb9c9cfdececbce7e7d9dcaddeaebfcfddaebcae99ba996b99849a868a788
col41:   8daeaacfba7ffaae89ed8aeadcadbccfadfeebdeebc9dd9dcadcdfbcccec9f9aabb9abccd7abbba9
col42:   ccb78c7aab9f9d8c98befcbee7cbdbadbbaeeaf7cbfbecbebbcc8fcceabbbec9e988797da787b676
col43:   aa8dddddcaeccdca9dcbc8efdfcbafebddbcafccc9ccde999bbebccacbadcaacbbd9ac8ba877ab94
col44:   69ccddbfbbbbcb8bcefbc7cdbbdafabbcdbdcd9bfcccabbbbd9cecececaa7c89bcd99c9bda79a579
col45:   8e79db99abb8afa8bacbcecbd8b9dcbdfefceb9d8d9fdaddfddcaadcdea8baad98acacaa988ca8a8
col46:   9a7c7cddd9b99abda9ba7f99d8a9ebccdffbbe8baeecbeb9a9cacccaab97babbb99babb896acd8aa
col47:   b99cc89bfdebe9f7b9bcbebcffebeceaaadddefccb9c8bafca79abefcfa99fbab67a98b88a86999a
col48:   bdbb79dbadbd8fcd9ecbdbaedcbacdaf98ddbeebeacecdddfaacabadadbb78ead9bb99c89ba99898
col49:   dac99dafcdbaabedc98accfb8ebcaaeadebedaeedfabc9edddce8bbbcdebbabba9d87b8ed8ba9bc7
col50:   8d8c9da9ccbbbacacfea99ca8ecacedfcbecdeafccce8dbbcadcaebeadabaabeb79a4bcac788e698
col51:   aa7a9959ac7aa8689c9a7e9a7a99abc89b7a9cd9a7f887df9a82887b8c9c47a9a88b9caa68648a87
ROC:	 BPix_BpI_SEC8_LYR3_LDR22F_MOD2_ROC15
col00:   485568866797ac967749a55757679854aa8788a7999966678856577a792567356865372654415331
col01:   b98b699789ba9bac8bc899a98aa98cab8a8889c99a9a999bac75979bc94859588a7569566a839124
col02:   5569b995b8a6a7689689a8baa899a9b97c8a66a8aba88996aaa56b5b7397a4858576632596553352
col03:   8897976448ab7878baa9998a6dbeb89aa9c988aab99a669889add8b67a9a59676655569556664614
col04:   76879776ab78876a97c98797a889b99897a99da99ac96a59ab99ab68c58ba9988783468a75833434
col05:   595b968998a7b97dacc9a7caba8965c8a8bba98a96cb886a89a5b979657ba9875675184737665693
col06:   6b46b78a789b779a7a9bc78c8799bd969a7ab7baacbab6989bba9b79a76975848785554977966536
col07:   75a9c9486977a8a9cbbfb967989bcb6ad89ca89bba88db6d988b4a99a6a888a768687856a8573931
col08:   a7999268b886aa7a968a87abd9c9b7d6caa7bb999aa7a7a5ac859977a7a897aba977778595654346
col09:   4b678ca965a896a899aac9b97bac9b6a989a8aac9c9b8aa89aa9a8b973ca8769864935655a944171
col10:   685a788b978a3b69ca8aba7bb8c98a9a99b87acabab976a8b8978876a78978367775686569825545
col11:   9b8a98a26976aa7a7c96c688a89a9aa989979ca99a6aa985c8798cbb8775a97c4647888473434743
col12:   88647988a687899a69687baba99997c7aa9a858aa6cca97c66c86a997977979b8864774643668654
col13:   77799b9886a8abaaaa7bac7baaabbcbbbd79899798698789b6ab6aad9778b8a65574462786744447
col14:   49885a476a9998ab8b989c9bb9bcdb7c98b8cbd8899a985cca89bb99a9978977667599873a539288
col15:   76a776a7b99979a698ab7c8999cdaabaaaa9bb79c8acccc6ac69da8989a75768b645759935a28454
col16:   579986a978988998b97b898aa8aa9acbbabbcbd6aacbcbacac8a99a99baa9978ca89488863596286
col17:   789857b779679499a8999daaa767c9a9bbabaa9bd9ba98acc6ba6ca97a9889969a57875676857775
col18:   69286b997a97695a88ca789aabbc789aa77a8abb886856a887a8a98a7ba587799894697769754854
col19:   a98d7a8cbc8c8b77c89aac9baabd9896aacabcc8abab76b78aa89897c899cc8a8696886548696513
col20:   33877869ba98ba8cb7dba8888c89abadba9a79a9ac7aa978bc89aa69bbd957a5778b984569477767
col21:   b8c9aa9ba7b888996cbaebac79898cbdabc9abaebaad799ba9898c7cb9686987885886561445b553
col22:   7a88b988a87da7a98a8a7aad8db8ba9aaab79ab89999aaacbc9c96b95aba88c89a9a199676887558
col23:   77778787ba79bc9a9bacbaabd7bc99bc8b897d867bb8b9aba8999a9a9a9779a856968a88655a4563
col24:   a888dbbc85bba8cd9a69b99a98898e7baabddb99dbacabc787baacb6795cb6677b85869665365257
col25:   9b67687b9cbac8a9cbca8a7bac899ac9888aaca8ab9d7e9a99bca8aa6898a9ca9599638588449756
col26:   a67dbc8a8cbad9abdcabbabdb8e9abeabdbaac7ecab7d9daa9baab79b7cb998888a7498757a9c775
col27:   a7fa8ab99aab9abbd8899acacb97d8abcaac9aecddc9aabbbb9ba9bba8aa98bab486b979b85da866
col28:   cdbbab998aa9bc9bded8e7dcdaccacbda9dccaadbad9ab8ccabbc8bbb8a87a997779979a9646b887
col29:   8acc9aacab7cbccdae9babdeacdbbbdb9aaeccb9aebec997dabe979caba9a8baa7a998c686a86762
col30:   79aa99a99c79c99c8acabbccaebcbbc7dcaadcaecbbc9caabbbbaaf8db99ca8bc897cb99a6976865
col31:   bb9cad9a9bbecaafbcdbcebbcbccd9bbcebbaacbbedbcccbdfabaaabaaaabb9a9aab94bb89a96896
col32:   8e7daccacccccc8facdcbccacbb7dbbccabfcec9cabcabbbbba8adbdbbcac786a8b6ab9a95869986
col33:   9aca87ebba9aa9ca9c9cbbaaca9aabcbdabceaa9ed9edd9be9ba9cacb99bbb7ba8c776869a9b7a97
col34:   d9e8ad99ca98bdc9bbe99dbd9fdacebab9cce899abddbacd9ebabaab9bcb8cc7b698a9877a979965
col35:   abac98abaadabcbcbaacdcb9d99eeb9dbcbccbbbabdbfbfcae9dadc98c8acb89abdc8aba7b995aa9
col36:   798adbba9bacbbccbd9fcbccbdbcacacdbacdea9cc9cbaad89cc8bdc9adb9ab9a9956ab6b7b98b58
col37:   8cdabbddaedda7b9acdddfddd98edadbcabfccccdbbbaccbd7bcbbea9afbdb987a89b9ad9867c768
col38:   bbbbdcccca9cdacbbdcaafcca9bbcbebbabeacacdcdcccdccd6cbbbd8cdbbaabbb9b58bcc9b69988
col39:   bbbb988faabbdceadaeccdeba9abdcbbcecbcd9bbabcbcdecfbeab8ba99bda8a587ab9a88abab7d5
col40:   aaa9abcdccacbadfccbbbbc9bddebacacfbefecbbbaeaacafecccbcdcacca88bde9bbc9a79765857
col41:   aeceadd9cfd8dabbccaaddefa9bcdddcdebeb9eb8cdbbbddcbbfcaedd9dcbcbc9cbb9bab9b98aac7
col42:   abaacccdbcae98cbbbdaa9bbaabcbc8addbbceeca9bccb9bd9daac9aabcccabab69a9b895c79aac9
col43:   d9fadaffbcadcdbedbbdec6ccdcebbbeffdddfccbcd8abecedbbdb9cabcceca8e98cdd9ba69acaa8
col44:   aa5ccdfcdcbacebedbdddd9edadd8bdcdbcdcdccdeecbd9adeaeaccea9cadbdababdbcaabde9ab59
col45:   e99cba9ceeafdbabbcdecce9dccadbdccbdedbabddbfcccaccbdaca9cbcdd99ab97aadabba896a88
col46:   caabbcadcddbaacbcbc9dd9dcdbcdfcdbbadefdcbebcdbdbdfaadaab89ac8bbba9a9978ac66a9a69
col47:   bbbbccbcebebcdcbcccec9bced9daca9eccdfddbccdfbcbcbb9acaaadabbabe9d9bedbcda7cb9769
col48:   aabeccfbefbddc9bdccbab9cedbbbcdcdcfdcbdaebfbbbabac8eeaccc8ba99beb9cabb79ca59aca7
col49:   bc9ffbb9ccebaeffcacebadbefdccecbcebecddeec9cddcfccd8debbcd988edbb8bca8aacaaba989
col50:   cdfeefbedacfcefedddbabcbcec9fdfffeecccbcf8eecdbccccbcbc9fccaa999cba7cdcb8a8c78a9
col51:   98caacbaba7a9accbcbbccabcdbdda9ce9bcbebcbaaa7989b8a9aaaac8b98a7b8a79b58a98567599
