ROC:           BPix_BpI_SEC1_LYR2_LDR1F_MOD1_ROC0
Vdd:           6
Vana:          80
Vsh:           30
Vcomp:         12
VwllPr:        150
VwllSh:        150
VHldDel:       250
Vtrim:         116
VcThr:         104
VIbias_bus:    30
PHOffset:      156
Vcomp_ADC:     50
PHScale:       81
VIColOr:       100
Vcal:          200
CalDel:        136
TempRange:     0
WBC:           94
ChipContReg:   0
Readback:      1
ROC:           BPix_BpI_SEC1_LYR2_LDR1F_MOD1_ROC1
Vdd:           6
Vana:          85
Vsh:           30
Vcomp:         12
VwllPr:        150
VwllSh:        150
VHldDel:       250
Vtrim:         105
VcThr:         89
VIbias_bus:    30
PHOffset:      143
Vcomp_ADC:     50
PHScale:       95
VIColOr:       100
Vcal:          200
CalDel:        143
TempRange:     0
WBC:           94
ChipContReg:   0
Readback:      1
ROC:           BPix_BpI_SEC1_LYR2_LDR1F_MOD1_ROC2
Vdd:           6
Vana:          81
Vsh:           30
Vcomp:         12
VwllPr:        150
VwllSh:        150
VHldDel:       250
Vtrim:         85
VcThr:         81
VIbias_bus:    30
PHOffset:      132
Vcomp_ADC:     50
PHScale:       90
VIColOr:       100
Vcal:          200
CalDel:        148
TempRange:     0
WBC:           94
ChipContReg:   0
Readback:      1
ROC:           BPix_BpI_SEC1_LYR2_LDR1F_MOD1_ROC3
Vdd:           6
Vana:          80
Vsh:           30
Vcomp:         12
VwllPr:        150
VwllSh:        150
VHldDel:       250
Vtrim:         98
VcThr:         96
VIbias_bus:    30
PHOffset:      163
Vcomp_ADC:     50
PHScale:       87
VIColOr:       100
Vcal:          200
CalDel:        124
TempRange:     0
WBC:           94
ChipContReg:   0
Readback:      1
ROC:           BPix_BpI_SEC1_LYR2_LDR1F_MOD1_ROC4
Vdd:           6
Vana:          85
Vsh:           30
Vcomp:         12
VwllPr:        150
VwllSh:        150
VHldDel:       250
Vtrim:         102
VcThr:         89
VIbias_bus:    30
PHOffset:      150
Vcomp_ADC:     50
PHScale:       78
VIColOr:       100
Vcal:          200
CalDel:        143
TempRange:     0
WBC:           94
ChipContReg:   0
Readback:      1
ROC:           BPix_BpI_SEC1_LYR2_LDR1F_MOD1_ROC5
Vdd:           6
Vana:          89
Vsh:           30
Vcomp:         12
VwllPr:        150
VwllSh:        150
VHldDel:       250
Vtrim:         99
VcThr:         100
VIbias_bus:    30
PHOffset:      147
Vcomp_ADC:     50
PHScale:       76
VIColOr:       100
Vcal:          200
CalDel:        143
TempRange:     0
WBC:           94
ChipContReg:   0
Readback:      1
ROC:           BPix_BpI_SEC1_LYR2_LDR1F_MOD1_ROC6
Vdd:           6
Vana:          85
Vsh:           30
Vcomp:         12
VwllPr:        150
VwllSh:        150
VHldDel:       250
Vtrim:         87
VcThr:         83
VIbias_bus:    30
PHOffset:      139
Vcomp_ADC:     50
PHScale:       99
VIColOr:       100
Vcal:          200
CalDel:        153
TempRange:     0
WBC:           94
ChipContReg:   0
Readback:      1
ROC:           BPix_BpI_SEC1_LYR2_LDR1F_MOD1_ROC7
Vdd:           6
Vana:          90
Vsh:           30
Vcomp:         12
VwllPr:        150
VwllSh:        150
VHldDel:       250
Vtrim:         105
VcThr:         86
VIbias_bus:    30
PHOffset:      155
Vcomp_ADC:     50
PHScale:       91
VIColOr:       100
Vcal:          200
CalDel:        144
TempRange:     0
WBC:           94
ChipContReg:   0
Readback:      1
ROC:           BPix_BpI_SEC1_LYR2_LDR1F_MOD1_ROC8
Vdd:           6
Vana:          80
Vsh:           30
Vcomp:         12
VwllPr:        150
VwllSh:        150
VHldDel:       250
Vtrim:         112
VcThr:         108
VIbias_bus:    30
PHOffset:      141
Vcomp_ADC:     50
PHScale:       83
VIColOr:       100
Vcal:          200
CalDel:        133
TempRange:     0
WBC:           94
ChipContReg:   0
Readback:      1
ROC:           BPix_BpI_SEC1_LYR2_LDR1F_MOD1_ROC9
Vdd:           6
Vana:          86
Vsh:           30
Vcomp:         12
VwllPr:        150
VwllSh:        150
VHldDel:       250
Vtrim:         94
VcThr:         97
VIbias_bus:    30
PHOffset:      150
Vcomp_ADC:     50
PHScale:       97
VIColOr:       100
Vcal:          200
CalDel:        124
TempRange:     0
WBC:           94
ChipContReg:   0
Readback:      1
ROC:           BPix_BpI_SEC1_LYR2_LDR1F_MOD1_ROC10
Vdd:           6
Vana:          85
Vsh:           30
Vcomp:         12
VwllPr:        150
VwllSh:        150
VHldDel:       250
Vtrim:         92
VcThr:         101
VIbias_bus:    30
PHOffset:      149
Vcomp_ADC:     50
PHScale:       82
VIColOr:       100
Vcal:          200
CalDel:        125
TempRange:     0
WBC:           94
ChipContReg:   0
Readback:      1
ROC:           BPix_BpI_SEC1_LYR2_LDR1F_MOD1_ROC11
Vdd:           6
Vana:          89
Vsh:           30
Vcomp:         12
VwllPr:        150
VwllSh:        150
VHldDel:       250
Vtrim:         103
VcThr:         87
VIbias_bus:    30
PHOffset:      159
Vcomp_ADC:     50
PHScale:       86
VIColOr:       100
Vcal:          200
CalDel:        135
TempRange:     0
WBC:           94
ChipContReg:   0
Readback:      1
ROC:           BPix_BpI_SEC1_LYR2_LDR1F_MOD1_ROC12
Vdd:           6
Vana:          80
Vsh:           30
Vcomp:         12
VwllPr:        150
VwllSh:        150
VHldDel:       250
Vtrim:         126
VcThr:         104
VIbias_bus:    30
PHOffset:      150
Vcomp_ADC:     50
PHScale:       87
VIColOr:       100
Vcal:          200
CalDel:        131
TempRange:     0
WBC:           94
ChipContReg:   0
Readback:      1
ROC:           BPix_BpI_SEC1_LYR2_LDR1F_MOD1_ROC13
Vdd:           6
Vana:          75
Vsh:           30
Vcomp:         12
VwllPr:        150
VwllSh:        150
VHldDel:       250
Vtrim:         113
VcThr:         100
VIbias_bus:    30
PHOffset:      172
Vcomp_ADC:     50
PHScale:       84
VIColOr:       100
Vcal:          200
CalDel:        176
TempRange:     0
WBC:           94
ChipContReg:   0
Readback:      1
ROC:           BPix_BpI_SEC1_LYR2_LDR1F_MOD1_ROC14
Vdd:           6
Vana:          75
Vsh:           30
Vcomp:         12
VwllPr:        150
VwllSh:        150
VHldDel:       250
Vtrim:         88
VcThr:         86
VIbias_bus:    30
PHOffset:      159
Vcomp_ADC:     50
PHScale:       93
VIColOr:       100
Vcal:          200
CalDel:        167
TempRange:     0
WBC:           94
ChipContReg:   0
Readback:      1
ROC:           BPix_BpI_SEC1_LYR2_LDR1F_MOD1_ROC15
Vdd:           6
Vana:          81
Vsh:           30
Vcomp:         12
VwllPr:        150
VwllSh:        150
VHldDel:       250
Vtrim:         95
VcThr:         86
VIbias_bus:    30
PHOffset:      156
Vcomp_ADC:     50
PHScale:       89
VIColOr:       100
Vcal:          200
CalDel:        138
TempRange:     0
WBC:           94
ChipContReg:   0
Readback:      1
